cpu,memory,duration_std,userDiff,sysDiff,heapTotal,heapUsed,avg_cpu_util,cpu_util_std,slo_preservation,total_cpu_shares,cpu_shares_others,num_containers,arrival_rate,latency,memory_util,memory_util_std,slo_duration
1024,1024,138.475027532504,213611,29042,37859328,30105128,0.5232777418636363,0.2113033461195312,0.9804876575376524,1024,0,1,1,416.6059166338668,0.8112228245506572,0.0803332903377814,408.4769593166666
1024,128,239.12068410943212,229591,37573,32481280,29957976,0.5313127707986968,0.2081278815347632,0.7921449874796591,1024,0,1,1,515.6593373345754,0.9037003472903734,0.0134112674045936,408.4769593166666
1024,1536,129.9626632232644,273027,32401,50311168,30195712,0.41376785699491425,0.1449949177144744,1.0,1024,0,1,1,367.0866325288217,0.7153886847389079,0.1337755455691348,408.4769593166666
1024,2048,146.09219557092706,246064,40012,49262592,29662256,0.4760389753284979,0.1888122375395124,1.0,1024,0,1,1,320.23347903784236,0.7555311279363943,0.0979660875636381,408.4769593166666
1024,256,140.32540823351854,244859,21445,32743424,30162528,0.4957776128375245,0.2062197104481925,0.7581097382846427,1024,0,1,1,538.809803763922,0.8485770621392728,0.06249323246546,408.4769593166666
1024,512,132.55349891046524,228935,34525,32481280,29908384,0.49402047204992494,0.1465626910980772,0.7980395132172666,1024,0,1,1,511.8505444296948,0.883897598973826,0.0530819401918018,408.4769593166666
128,1024,163.86944541272388,187505,45727,39694336,29793056,0.48794646973248396,0.2021681277492387,0.8813987745119106,128,0,1,1,463.4417146119446,0.7633128663122842,0.1032920153217719,408.4769593166666
128,128,242.54262371946984,185272,43294,32743424,29500496,0.5064053607829059,0.1779552600316531,0.7056535890808185,128,0,1,1,578.8632916169915,0.8946997216439695,0.0425573399152092,408.4769593166666
128,1536,143.60104133072898,138653,48477,68231168,51776104,0.4682830884979794,0.1876343247355074,1.0,128,0,1,1,372.94331935359855,0.7386233226888759,0.1200156161734457,408.4769593166666
128,2048,141.0663136396954,171637,42730,36933632,15353280,0.40433394245012977,0.2044157597776331,1.0,128,0,1,1,403.0263337386267,0.739368806677223,0.1187714235375082,408.4769593166666
128,256,131.88549229954788,200539,21317,32743424,29497480,0.5681292393274836,0.195403019269897,0.9314857557877518,128,0,1,1,438.52195997481476,0.8716550087630166,0.0601200579431878,408.4769593166666
128,512,175.3422821125734,232956,28470,32743424,29456376,0.514604397571175,0.1946111986523111,0.7754142803231672,128,0,1,1,526.7854483495285,0.8828003776981921,0.066390829434982,408.4769593166666
1536,1024,145.4014692944819,263728,43703,39170048,31416248,0.5173803425310626,0.209713520765763,1.0,1536,0,1,1,403.01731350083514,0.7805691451796684,0.1186017593260137,408.4769593166666
1536,128,168.5087735049163,222321,39275,33005568,29434960,0.4547650830611708,0.183511917189051,0.7016782570512986,1536,0,1,1,582.1428200344014,0.8607839536898638,0.0476683597299189,408.4769593166666
1536,1536,120.79173928783516,241848,26195,50049024,29684200,0.41899776236934916,0.224269769544144,1.0,1536,0,1,1,395.21076865512816,0.7584453043520878,0.0842668457518484,408.4769593166666
1536,2048,164.86402187775613,232276,42617,69541888,51099608,0.4227914176855294,0.1317997500391216,1.0,1536,0,1,1,366.0572563080959,0.7659413743849826,0.0975076091348535,408.4769593166666
1536,256,168.7379741894256,222359,30069,32481280,29497512,0.5512556208225998,0.2054937954600153,0.9269657878631208,1536,0,1,1,440.6602321950892,0.8807769311781876,0.0627141138004515,408.4769593166666
1536,512,157.4321529609674,190351,31809,32743424,30068312,0.5835042268711457,0.2336219345516679,0.9717071647039338,1536,0,1,1,420.3704306750934,0.896540305405247,0.0284117254449677,408.4769593166666
2048,1024,140.89722777946864,204828,34402,39694336,29703544,0.5596291881637353,0.2792231783598382,1.0,2048,0,1,1,348.837363378075,0.7864245899279533,0.11053627623656,408.4769593166666
2048,128,180.04777064971532,233554,47083,32743424,29514728,0.5928681737561731,0.2046501924473407,0.8932916680504236,2048,0,1,1,457.2716548539545,0.8954145896721426,0.031112477315337,408.4769593166666
2048,1536,164.90008767407804,270233,38120,50311168,29677904,0.3706828820542983,0.1434251741454275,0.936403668556128,2048,0,1,1,436.2188797770419,0.7383909479463935,0.1242030863621967,408.4769593166666
2048,2048,125.46080936726553,238778,33506,69537792,51084120,0.45443200891461794,0.1738048900513969,1.0,2048,0,1,1,322.5791665480741,0.7402368448819718,0.0948286316728179,408.4769593166666
2048,256,147.27929202945418,206890,39741,32481280,29712664,0.524676891808904,0.2020780418004378,0.8564176821145442,2048,0,1,1,476.9599785797435,0.8927718246273484,0.031508788175192,408.4769593166666
2048,512,162.44014248024308,255681,17001,32743424,30018080,0.6283501667426483,0.2127664542928262,0.939574908396037,2048,0,1,1,434.74656003105065,0.9027758407203494,0.0528862538986952,408.4769593166666
256,1024,147.91693999153753,242818,63123,38383616,30023200,0.5333510020298032,0.2776958020951355,0.966807571314539,256,0,1,1,422.500786543565,0.8018469065345029,0.0783694183447848,408.4769593166666
256,128,252.49157281845288,249464,18237,32743424,29733808,0.5366140427205214,0.1924240220045351,0.7366028054501746,256,0,1,1,554.5416828368254,0.8571469670152823,0.0667582080251723,408.4769593166666
256,1536,147.95756910662195,259051,33304,68231168,51869248,0.34549879821760054,0.1465390042994831,0.8135097261242012,256,0,1,1,502.1168723609127,0.7574451082759303,0.1148767518105377,408.4769593166666
256,2048,135.58690942412912,235166,27581,50049024,29695672,0.3688815700627295,0.1480993924336393,1.0,256,0,1,1,399.1178408984442,0.7147992180505068,0.1309437835303558,408.4769593166666
256,256,148.7246091194474,210266,30680,32481280,29634344,0.4802739436278261,0.148170497008284,0.8816823978884059,256,0,1,1,463.2926326928524,0.8848018487061878,0.0646790676045567,408.4769593166666
256,512,130.81828216494236,210555,42110,33005568,29656288,0.5027912239754362,0.1976825908724651,0.8720803038970607,256,0,1,1,468.39374480917377,0.8964861508358171,0.0232145832591179,408.4769593166666
512,1024,142.4338278613269,266763,30936,39170048,29778016,0.4948349464339684,0.2389446051846025,0.9802115775380208,512,0,1,1,416.72325513909004,0.8189747271462744,0.0930420185756824,408.4769593166666
512,128,144.6082274473682,273111,41152,32481280,29809024,0.5341905322270372,0.1635395806029596,0.842758726594267,512,0,1,1,484.69027543315065,0.890798742413333,0.0544703351692846,408.4769593166666
512,1536,128.50637180096686,281559,30196,50835456,30004880,0.4578780875953364,0.2483194592400253,1.0,512,0,1,1,382.6612522278184,0.7170358911240241,0.1159894213206751,408.4769593166666
512,2048,136.36288781431497,294704,12381,50311168,30702016,0.37227776170541865,0.1569982025008346,1.0,512,0,1,1,387.4737080060307,0.7395872531337233,0.1036025720153657,408.4769593166666
512,256,147.13001057795967,225552,33673,32743424,29836528,0.4985317475304414,0.166980383456027,0.8119384004901138,512,0,1,1,503.08860754719313,0.9008110491015902,0.0221734497987782,408.4769593166666
512,512,148.1361585241424,232936,30343,32743424,29630464,0.5277361925645915,0.1984029680486848,0.8184864277445156,512,0,1,1,499.06381519641957,0.869688782618215,0.0681954478084631,408.4769593166666
