cpu,memory,duration_std,userDiff,sysDiff,heapTotal,heapUsed,avg_cpu_util,cpu_util_std,slo_preservation,total_cpu_shares,cpu_shares_others,num_containers,arrival_rate,latency,memory_util,memory_util_std,slo_duration
1024,1024,52.74771247779099,219873,34030,39432192,29892016,0.9784233949109822,0.146214715860906,0.5619792974452185,1024,0,1,1,259.84359807471617,0.7763939423568531,0.0921929461607177,146.02672269166672
1024,128,416.05907838373616,214199,29094,31956992,29495944,1.141876071569784,0.5509862226273877,0.3085047998904905,1024,0,1,1,473.33695535207755,0.8962931163870129,0.036411943138141,146.02672269166672
1024,1536,52.12077522058409,263186,47011,50573312,29707056,1.2665397919637083,0.19395494952324,0.832256105913816,1024,0,1,1,175.45887816747177,0.7274480915448065,0.1224667069097377,146.02672269166672
1024,2048,31.85428468406658,257310,56774,50311168,30206000,1.4184886395593228,0.3051541525744916,1.0,1024,0,1,1,129.5431321106118,0.6944940182972785,0.1480574369034701,146.02672269166672
1024,256,35.63146370111017,206525,42613,32481280,29661832,1.2233948274515414,0.1989794120555499,0.6238536797831721,1024,0,1,1,234.07207078175782,0.8820602940266598,0.058747046821649,146.02672269166672
1024,512,39.889677900874965,210714,39149,33005568,29763320,1.294792280043083,0.1361598274113554,0.6692531070350207,1024,0,1,1,218.19356706255147,0.8911490739930852,0.068178686796175,146.02672269166672
128,1024,57.02984431403617,216480,28507,37597184,30115896,1.2065839137355043,0.3048458710836949,0.7254998781228239,128,0,1,1,201.27739107206997,0.7558095064771025,0.1377042679590734,146.02672269166672
128,128,54.85710961455647,204498,42770,32743424,29714736,1.1123705671819473,0.1789309185218678,0.491130981356156,128,0,1,1,297.3274507921376,0.8555343253132891,0.08076588303778,146.02672269166672
128,1536,47.29595300063865,259819,52716,50311168,29675368,1.1361510714477596,0.2597365764382051,0.7018387079046733,128,0,1,1,208.06307923315723,0.7228974230287657,0.1257939912193141,146.02672269166672
128,2048,28.70380474003224,248014,31154,49786880,29701560,1.383107565484136,0.3314740053548989,1.0,128,0,1,1,128.49323255211357,0.7392041524907087,0.129909890669587,146.02672269166672
128,256,36.972515161581136,203677,41897,32743424,29710496,1.2229610666642252,0.2288707554956842,0.5960031760833534,128,0,1,1,245.00997402611878,0.8759390189972105,0.0709894989036239,146.02672269166672
128,512,42.96171219896618,241653,47146,32481280,29514680,1.0967890150272672,0.1207144156738969,0.49384197369210703,128,0,1,1,295.6952435612717,0.8925140455896374,0.0537210976520826,146.02672269166672
1536,1024,61.25823287978642,308271,46664,39432192,29691288,1.0575372843566284,0.1878890727041366,0.5403557840843461,1536,0,1,1,270.2418054784306,0.7525108763542638,0.1144750471907474,146.02672269166672
1536,128,68.60974992378979,269221,76814,33005568,29592296,1.0862704777726555,0.2309259483244466,0.4756891546642663,1536,0,1,1,306.9792978457329,0.867420809600202,0.0756121623453919,146.02672269166672
1536,1536,47.74715406270189,296849,35096,50573312,29975304,1.21250533635036,0.2206639821578595,0.7950591785179966,1536,0,1,1,183.66774026037024,0.679259694799706,0.1559908329133491,146.02672269166672
1536,2048,30.584936345309785,270382,29777,50573312,30094400,1.5351463591887904,0.2656703982702771,1.0,1536,0,1,1,121.95890095959741,0.7328866300987036,0.1022066799378682,146.02672269166672
1536,256,37.47986596571714,223434,42028,33005568,29404712,1.1595245780591081,0.1452864323549308,0.5992695681635046,1536,0,1,1,243.67451719461386,0.8786584920657798,0.0632689047333305,146.02672269166672
1536,512,41.40376400789575,265997,24737,32743424,30207800,1.299279369967943,0.1483358990015645,0.677571402320655,1536,0,1,1,215.51488476569557,0.8791342149860879,0.081617375313713,146.02672269166672
2048,1024,43.792426000465085,227817,29288,38907904,30744920,1.1409272130568817,0.1701032479176,0.6856012079410351,2048,0,1,1,212.99076051835908,0.7367712160750769,0.1273386325322547,146.02672269166672
2048,128,120.83095696497014,231389,26360,32481280,29802072,1.1482047710838255,0.2767525462994105,0.49000012787364045,2048,0,1,1,298.01364200730086,0.8516848727878091,0.0750421361566749,146.02672269166672
2048,1536,40.50897421174445,261984,30296,50311168,29824816,1.160488666776892,0.3047689683073724,0.7858327506880262,2048,0,1,1,185.82417513626766,0.747350455623554,0.0811369888321539,146.02672269166672
2048,2048,27.391138820630665,187855,33054,43757568,31321368,1.465062379261017,0.2868769071878759,1.0,2048,0,1,1,116.84424176381452,0.7366604029842277,0.0817593646976916,146.02672269166672
2048,256,44.69864201029205,247471,55806,33005568,29566120,1.1789467302340704,0.2513931263815986,0.5519557568225226,2048,0,1,1,264.5623691513024,0.8398045808095931,0.0709139600694999,146.02672269166672
2048,512,62.46395538055966,315219,29028,32481280,29659200,0.9002469112227238,0.1028658912462944,0.3989095414205753,2048,0,1,1,366.0647528551064,0.8815337358620825,0.0563152883513607,146.02672269166672
256,1024,76.07996680846526,275886,41498,39694336,30823096,1.0155659048710608,0.1984002092483029,0.5200384397547774,256,0,1,1,280.79986310343753,0.7734237453308473,0.1181790457389979,146.02672269166672
256,128,144.16859070013268,284323,26588,32481280,29512024,1.0264102024834227,0.2465276693710781,0.4260756274295857,256,0,1,1,342.7248903501279,0.8954134185558535,0.0413741635639994,146.02672269166672
256,1536,52.53281473926439,214158,44713,35885056,15377352,1.1196402760478115,0.2348659362881044,0.774815668225687,256,0,1,1,188.46640392038677,0.722043727335941,0.1454307677825298,146.02672269166672
256,2048,31.235081766627225,271758,43454,50049024,30060376,1.5173891935679131,0.2444252880156641,1.0,256,0,1,1,117.13987615397522,0.7312312671891277,0.1111779125910296,146.02672269166672
256,256,44.57442634205487,229710,27015,32219136,29575472,1.1682067961579612,0.2537528828188418,0.5652953900102288,256,0,1,1,258.3193234408376,0.874399768560503,0.0736497074246546,146.02672269166672
256,512,25.57293018720991,229207,22853,32219136,29527664,1.2772339623982139,0.0945484296413153,0.6391368621823073,256,0,1,1,228.47488751167367,0.8694018242831225,0.0575394110421019,146.02672269166672
512,1024,38.639010180750745,197978,39326,38645760,30225192,1.202873461870819,0.249804109892527,0.6797779849475618,512,0,1,1,214.8153160666585,0.8061514796297594,0.0715085158918177,146.02672269166672
512,128,171.75433042942566,298038,23440,32743424,30048064,1.0622538706375375,0.3391576979710597,0.3816957672824637,512,0,1,1,382.57359711197313,0.9038420795109005,0.0510059498645791,146.02672269166672
512,1536,57.1656940279042,223390,45092,50573312,29707816,1.1729311422195583,0.2914262989237913,0.7486752183559262,512,0,1,1,195.04682285642912,0.7166150518131771,0.1324571331459978,146.02672269166672
512,2048,31.54904656785545,282084,21154,68231168,51128392,1.5063218209514313,0.2790072293119327,1.0,512,0,1,1,109.90491717202895,0.7497859433984161,0.1014322041585254,146.02672269166672
512,256,45.05244084449828,243421,18900,33005568,30098608,1.2203665915086763,0.1874768407600281,0.5819693869286168,512,0,1,1,250.91822004991144,0.8956452176746715,0.056219372656703,146.02672269166672
512,512,45.22128888914669,208156,43217,33267712,29431664,1.0608848483792988,0.1344385207278128,0.4761502133403497,512,0,1,1,306.6820482285232,0.8837666702936549,0.0582601550414048,146.02672269166672
