cpu,memory,duration_std,userDiff,sysDiff,heapTotal,heapUsed,avg_cpu_util,cpu_util_std,slo_preservation,total_cpu_shares,cpu_shares_others,num_containers,arrival_rate,latency,memory_util,memory_util_std,slo_duration
1024,1024,97.47345537601646,294713,42780,36810752,30622120,0.9831307470720225,0.1778806808231749,0.40122955128218696,1024,0,1,1,562.3298634052617,0.7314859163290083,0.1136094963419384,225.62335876666663
1024,128,82.13432809355562,287247,23284,32743424,30197360,1.0315933743378864,0.1834072443112477,0.38767345212634713,1024,0,1,1,581.9933181628683,0.8749902985157162,0.0817109034298035,225.62335876666663
1024,1536,78.54819475942372,344710,42990,42446848,31784136,1.1854159666658912,0.3181628557407846,0.6034915492354518,1024,0,1,1,373.8633275851222,0.7288104221464335,0.1024198676318347,225.62335876666663
1024,2048,37.44603237299939,312196,16632,50049024,30248616,1.248271857281492,0.384098101615544,0.7519164135158387,1024,0,1,1,300.064415021463,0.7476275517549117,0.1179286222930964,225.62335876666663
1024,256,52.67540380720837,228299,34751,33267712,30339248,1.105528754671584,0.2004365930909732,0.5353329477963408,1024,0,1,1,421.4636138041359,0.8780662001198225,0.0565023497591471,225.62335876666663
1024,512,46.4506558791267,263934,39905,32481280,30250120,1.1724406376051812,0.1452385478179877,0.5437536394207724,1024,0,1,1,414.9367331260705,0.8648505430256674,0.0653530355530553,225.62335876666663
128,1024,192.04040480780716,388513,37688,39170048,31932704,0.9627102656727854,0.273959185052237,0.3961522245151533,128,0,1,1,569.5370234076175,0.7834292187816335,0.107105245493991,225.62335876666663
128,128,139.3868173465055,333841,52299,32743424,30243328,1.0737990812435019,0.2697524162193073,0.41068775733905283,128,0,1,1,549.3793149046759,0.8893306455838563,0.0561019884197276,225.62335876666663
128,1536,67.00131837521681,258262,55756,50311168,30296248,1.0700992255750676,0.226548023026178,0.581030540053804,128,0,1,1,388.31583404509803,0.714207951567522,0.1270430975091606,225.62335876666663
128,2048,35.03590765559439,271631,38429,50573312,30605208,1.30379525563671,0.4041150799293992,0.8989349664545943,128,0,1,1,250.98963460785902,0.7491883220502724,0.0959682515177035,225.62335876666663
128,256,78.59218781795978,239231,35474,32743424,29812536,0.986454100284507,0.144426370176747,0.396044968148272,128,0,1,1,569.6912646601215,0.892837775639423,0.0569219325674314,225.62335876666663
128,512,86.49079146907852,421224,37354,33267712,30449712,1.0714770445598907,0.1708960977223044,0.44432815172871304,128,0,1,1,507.7854236533322,0.8988963690677177,0.0504566142370434,225.62335876666663
1536,1024,87.20362322908471,349619,38319,39432192,30181760,0.9656392090800959,0.1818575354304074,0.4300882368377954,1536,0,1,1,524.5978370056162,0.7808194068719392,0.1072424976980877,225.62335876666663
1536,128,234.3293120633572,309400,15962,33005568,30499920,0.9805431643708219,0.2997775649957203,0.3546526937647978,1536,0,1,1,636.1811505548519,0.876692624255373,0.0573720264090337,225.62335876666663
1536,1536,70.42961542080951,341348,54589,50311168,30290120,1.1971301113986843,0.2668199162305095,0.6390674724592352,1536,0,1,1,353.05091948809627,0.7122490594857658,0.1143921583003221,225.62335876666663
1536,2048,50.61363000141084,345532,30331,50311168,30253104,1.2584902097220723,0.3008665508871165,0.8196611756772356,1536,0,1,1,275.2641767865215,0.7264956011659172,0.1133612912263413,225.62335876666663
1536,256,69.89781911354842,326119,56745,33005568,30393016,1.0019686656842146,0.1447468367395676,0.434386934439212,1536,0,1,1,519.4064113782416,0.8513524775834537,0.0707998829776905,225.62335876666663
1536,512,69.44512071172281,366945,28719,33005568,30537952,0.9883437199452162,0.1372690276090111,0.39920564880409026,1536,0,1,1,565.1807769819185,0.8873790291242187,0.0645031782917004,225.62335876666663
2048,1024,93.7804193665622,349960,44918,39956480,30902968,0.980391266719649,0.1544023124406128,0.4681319574789397,2048,0,1,1,481.96529880534155,0.8116505989218016,0.0897274760581738,225.62335876666663
2048,128,320.4905875317595,353667,55358,33267712,30439696,1.0644262976451413,0.3697970809092019,0.33132887674050643,2048,0,1,1,680.9649704736502,0.8763571265416635,0.0610706264558725,225.62335876666663
2048,1536,64.29890161267097,265023,23809,50573312,30292072,1.1265241513316908,0.3344189062224359,0.6050166125279337,2048,0,1,1,372.9209315822705,0.7023625491593602,0.1042127567702735,225.62335876666663
2048,2048,45.69170214656332,307717,46008,49524736,30088208,1.2974682475268036,0.4047835556287766,0.9008943382983934,2048,0,1,1,250.44375258570653,0.7426292328475306,0.1150917982572997,225.62335876666663
2048,256,75.30868046250016,365006,35641,32481280,30333120,1.0018509529634418,0.1146824121571847,0.4033199679466362,2048,0,1,1,559.4152947977005,0.8775700680510476,0.066135399166749,225.62335876666663
2048,512,75.34041599237784,313236,72441,33529856,30340136,1.0218880972758888,0.162357419061915,0.4252859802256931,2048,0,1,1,530.5215061331944,0.8761169511657286,0.05003402000227,225.62335876666663
256,1024,86.27152149635887,242371,42926,38383616,30795128,1.0351436283596724,0.1561523496931243,0.47839074153975764,256,0,1,1,471.6298606458623,0.8169432651130941,0.0586938876474489,225.62335876666663
256,128,253.14184581914108,369256,51041,32481280,30110072,0.880891139421676,0.1775203125762718,0.29669791054915295,256,0,1,1,760.4480879190025,0.8597974120122702,0.077568841187678,225.62335876666663
256,1536,76.52380640452608,340010,38835,50835456,30467128,1.1470560518299104,0.2482871470957803,0.5432205106831688,256,0,1,1,415.3439613002031,0.7099492729483298,0.1050091826960085,225.62335876666663
256,2048,44.0907818694376,282109,39187,49786880,30302648,1.289795727772313,0.3976376734239923,0.8141531918016861,256,0,1,1,277.1264192520965,0.7584065069580498,0.0985481036033417,225.62335876666663
256,256,73.08958953305654,399032,23774,33005568,30384552,0.967188341324961,0.1021954815747342,0.3914936696832678,256,0,1,1,576.314194171272,0.883781999623865,0.0571766266011425,225.62335876666663
256,512,61.53518162099531,267676,33189,33005568,30215192,1.0500714680990695,0.1197335262958744,0.42516719331464753,256,0,1,1,530.6697278491398,0.8856915164974637,0.0579657146920785,225.62335876666663
512,1024,97.05310029502358,368924,41041,39432192,31234424,0.9925313286494648,0.2045506051294181,0.40978460965872815,512,0,1,1,550.5901233200718,0.7900266973715782,0.1001829661348896,225.62335876666663
512,128,233.3009974858539,256756,45746,32743424,30319032,0.8776257924401557,0.2129304860953517,0.3078504446340743,512,0,1,1,732.899246044141,0.8948433727667251,0.0464443044091614,225.62335876666663
512,1536,66.15220229796039,307593,56634,50311168,30282512,1.1097663766632295,0.1618451329210966,0.6108360714291375,512,0,1,1,369.36809942934246,0.7665340381761858,0.088948348292387,225.62335876666663
512,2048,44.82283157631369,308228,43573,42708992,31882464,1.2509288885068572,0.3444854775699233,0.8013667254892934,512,0,1,1,281.54819958229103,0.7745444324205522,0.0943384256845964,225.62335876666663
512,256,82.89629602955911,268710,22914,32743424,29589464,1.0415471923236348,0.1650617334495331,0.4336370039262717,512,0,1,1,520.3046712430192,0.873167312575833,0.0701176283883996,225.62335876666663
512,512,67.98022504369898,291178,48196,32481280,29795528,1.0600537576968718,0.1262001124956699,0.4477475881319582,512,0,1,1,503.90747989952746,0.9067632218891198,0.0330476332286087,225.62335876666663
