cpu,memory,duration_std,userDiff,sysDiff,heapTotal,heapUsed,avg_cpu_util,cpu_util_std,slo_preservation,total_cpu_shares,cpu_shares_others,num_containers,arrival_rate,latency,memory_util,memory_util_std,slo_duration
1024,1024,576.9423897960385,412559,24683,55037952,44953688,1.0047747279728245,0.1258773742977259,0.27822858712116905,1024,0,1,1,1401.1303693148297,0.8404428853031516,0.032267365103883,389.8345230270269
1024,128,835.0146527674779,2048655,193109,36487168,33887376,0.8852438735649841,0.2271697457515375,0.159686184289104,1024,0,1,1,2441.2539178796496,0.9160368243608068,0.016063053895237,389.8345230270269
1024,1536,345.5229627438826,1440334,94213,51433472,41592904,1.0400933046856533,0.2686719815618515,0.481326875208196,1024,0,1,1,809.9163855299073,0.7452786727090333,0.0581702920999132,389.8345230270269
1024,2048,222.7297508983852,1499224,143359,70926336,53786200,1.0749089294945244,0.3030993479078961,0.7677026828746031,1024,0,1,1,507.7936181847402,0.7569939309422506,0.0468580376920528,389.8345230270269
1024,256,347.9891692837861,1638310,134354,36749312,34281832,1.0792464142840184,0.2719320152241599,0.38106158374326793,1024,0,1,1,1023.022366089964,0.9182541646322728,0.0158616560424392,389.8345230270269
1024,512,517.4202103590688,1941948,164740,36487168,33536336,1.024009953239517,0.220395427954383,0.26503571488351346,1024,0,1,1,1470.8754372910234,0.9190800213205425,0.0182038203580623,389.8345230270269
128,1024,540.9612047942187,1942624,150027,43438080,34193816,1.002924150646699,0.1975355473525074,0.28455693224282635,128,0,1,1,1369.970219858717,0.8310037255427435,0.0349647758582125,389.8345230270269
128,128,971.5556112670298,2107190,335527,36487168,33216744,0.9708695578705958,0.2074892901850216,0.13747972901913433,128,0,1,1,2835.5782034802382,0.9100938934552892,0.01840075971601,389.8345230270269
128,1536,371.8085059001899,1597598,183668,52744192,37187776,1.0557376567486019,0.2253161158752251,0.4504314200610462,128,0,1,1,865.4692049994942,0.7411217357938112,0.0548142030760697,389.8345230270269
128,2048,209.98309502784608,1492670,156658,52219904,40243608,1.075915645628523,0.391706542306792,0.7402964724465027,128,0,1,1,526.5924363231356,0.7609456818673836,0.0552243327961369,389.8345230270269
128,256,351.2717831819195,1583398,126845,37011456,34139168,1.088427022419263,0.2305126704913121,0.3762636388271885,128,0,1,1,1036.067487791642,0.9149151876444936,0.0194346538331651,389.8345230270269
128,512,590.7226657862144,1942502,191156,35700736,33081160,1.0048471123088505,0.141081903856358,0.2738191108296198,128,0,1,1,1423.6936269565058,0.9089441826094544,0.0180843417707858,389.8345230270269
1536,1024,535.7232114611945,1709296,130702,43700224,34241568,1.0137604914124376,0.1750134915522041,0.30921765575833066,1536,0,1,1,1260.7123680275954,0.8515554111906003,0.0360275299123049,389.8345230270269
1536,128,903.223633998508,2116815,239615,36225024,32803960,0.9632848295132689,0.1880584156224851,0.16100890916901,1536,0,1,1,2421.1984606256797,0.9139252258252876,0.0187155117176479,389.8345230270269
1536,1536,318.85483972187626,1554732,129015,51695616,39921928,1.0259680911854503,0.2205729283309279,0.5064266913218612,1536,0,1,1,769.7748355433071,0.7435909851871202,0.048126028998533,389.8345230270269
1536,2048,189.05558178591724,181420,23414,62115840,45738520,1.0804655296057577,0.3371722165247028,0.7330029640253202,1536,0,1,1,531.8321236877847,0.7366139170137661,0.0612895921822339,389.8345230270269
1536,256,317.32269356339066,352350,25742,38060032,33443224,1.0752937830706828,0.2634107732277278,0.39639357115600166,1536,0,1,1,983.4531924676613,0.9191785611602932,0.018696921044612,389.8345230270269
1536,512,511.1846710078513,1885897,161191,37273600,34620976,1.0213073388653238,0.1211432272888707,0.25745618732087533,1536,0,1,1,1514.1781096181794,0.9084404566154574,0.0151480703756978,389.8345230270269
2048,1024,548.7088629574589,1764802,146459,43175936,34292776,0.997239494665622,0.2432322217720348,0.2994199231937441,2048,0,1,1,1301.9658774502411,0.8488599648270894,0.0389515468343527,389.8345230270269
2048,128,981.9867502048892,1786869,196201,36749312,34047048,0.9742673137119108,0.1570924285057808,0.14628124003539517,2048,0,1,1,2664.9659445920747,0.9049014903384056,0.0182484646173619,389.8345230270269
2048,1536,333.4053566476384,1643577,164448,52482048,35129800,1.0372278389495255,0.2048025302880491,0.4983912198929158,2048,0,1,1,782.185775886635,0.7650361313574842,0.0495282291547086,389.8345230270269
2048,2048,198.33212356001104,85926,20475,63811584,43742296,1.0871145490164913,0.3595045760221929,0.7640657989777019,2048,0,1,1,510.21066974678655,0.7560043186819394,0.069606526843195,389.8345230270269
2048,256,328.481614109509,217864,38089,53882880,49364432,1.0879971184444588,0.2085825288139802,0.3443041363203972,2048,0,1,1,1132.2388606573716,0.9112365086054346,0.0178444234732123,389.8345230270269
2048,512,493.2157141039403,1621949,149584,36749312,33783720,0.9748790128459157,0.1484047084660033,0.2816689760498313,2048,0,1,1,1384.0165448610128,0.916911187052146,0.0160677544779706,389.8345230270269
256,1024,516.4512052009796,1718536,110458,43175936,35183352,0.9822567590003152,0.2313957535922353,0.3437886696340981,256,0,1,1,1133.9365065228485,0.8364730132156886,0.0394273306055278,389.8345230270269
256,128,851.515221525678,1979250,187030,36487168,33188792,0.9190777087117747,0.2300297547321832,0.19774456077713118,256,0,1,1,1971.404530647958,0.9141713360279884,0.0166386374703465,389.8345230270269
256,1536,327.5421901974219,1602849,111858,52219904,34450872,1.0680420341698873,0.2438562517986981,0.47903901045852854,256,0,1,1,813.784502965392,0.7497797937411442,0.0631212762908479,389.8345230270269
256,2048,212.314662527626,1584409,122684,51957760,36431336,1.0924357901571655,0.4073532947665735,0.7074827623027303,256,0,1,1,551.0162844931867,0.7515725657936476,0.0596948282753455,389.8345230270269
256,256,361.0329768791301,1571255,137834,36487168,34580120,1.077158962240346,0.3310068298382559,0.39463843379896596,256,0,1,1,987.8270579839512,0.9233459123668252,0.0203100824345618,389.8345230270269
256,512,533.4158914941283,1779010,127102,37011456,34931056,0.9977953678088181,0.1628983371645483,0.26213162518173233,256,0,1,1,1487.17089270232,0.9079218819188988,0.0219302758386229,389.8345230270269
512,1024,508.2188909173344,1724170,128409,43962368,36354648,1.0142385574332275,0.2338144876506157,0.3068010790953725,512,0,1,1,1270.642607178844,0.8307995433010398,0.0388042409816652,389.8345230270269
512,128,963.373582653163,245802,42228,48349184,43696736,0.9516850005816776,0.1288302101980983,0.13686977038303377,512,0,1,1,2848.2149267589502,0.9172971348712284,0.0157459841292101,389.8345230270269
512,1536,336.957284290878,1486762,136272,51695616,37724184,1.0471681467573648,0.2524940391612051,0.4625421066030064,512,0,1,1,842.8087247884149,0.7641966567731913,0.048227349992557,389.8345230270269
512,2048,206.659939015374,1383591,160969,71188480,57277408,1.0762292624300411,0.3119883290342184,0.7410997722078948,512,0,1,1,526.0216473493527,0.764769824012037,0.0531008654596213,389.8345230270269
512,256,303.3623708247261,1445283,149816,36749312,34092256,1.0641597519956083,0.1626995428999761,0.3696784114140901,512,0,1,1,1054.5233667712318,0.9131361437301876,0.0190610764269356,389.8345230270269
512,512,555.2058125926517,1745790,174360,35700736,32503072,1.0156503086051245,0.1830484708614648,0.2612920690292097,512,0,1,1,1491.9493135608623,0.9132538231982646,0.0244298615013597,389.8345230270269
