cpu,memory,duration_std,userDiff,sysDiff,heapTotal,heapUsed,avg_cpu_util,cpu_util_std,slo_preservation,total_cpu_shares,cpu_shares_others,num_containers,arrival_rate,latency,memory_util,memory_util_std,slo_duration
1024,1024,40.71941267403658,126507,414,30519296,25194816,0.9339093384812818,0.120269727069129,0.3276009975124242,1024,0,1,1,214.3680538722108,0.6755947885816681,0.0759347556718555,70.22718828333335
1024,128,51.55082837679101,95918,4102,24612864,21036344,0.9386326649109875,0.1283872408894061,0.2751245913801415,1024,0,1,1,255.25594760920504,0.8680177019308836,0.0139900435801528,70.22718828333335
1024,1536,40.80794302901429,38329,388,39038976,25121632,0.9900511073336363,0.0839962608544742,0.38707304088933175,1024,0,1,1,181.431360143245,0.6304686586003025,0.1123557984779523,70.22718828333335
1024,2048,19.127988842402463,30269,7685,39038976,24899240,1.0073891303903717,0.0637092869392949,0.5583849090915997,1024,0,1,1,125.7684209223731,0.5473883499436532,0.0606252466037244,70.22718828333335
1024,256,35.14402029040498,72016,8003,25399296,21431192,0.9310806776602037,0.1416323569956381,0.3050304797971076,1024,0,1,1,230.2300685821472,0.8600926739487587,0.0132709483590324,70.22718828333335
1024,512,35.99405431539237,115708,1146,25137152,21321616,0.9698731434891998,0.1358452701616419,0.3465059426183074,1024,0,1,1,202.6723921462204,0.8665461256421925,0.0123031924200486,70.22718828333335
128,1024,53.29891024532202,52964,7943,25792512,15173712,0.9181512619269148,0.1273225505312318,0.32897747572773084,128,0,1,1,213.47111417881675,0.6756513005791757,0.0535556308621778,70.22718828333335
128,128,42.13911156270367,120169,8659,24612864,21064680,0.8941184377980019,0.1486757544181033,0.25910924750410924,128,0,1,1,271.03312197384855,0.8713622734523389,0.0144782705244056,70.22718828333335
128,1536,37.55885248657043,36883,19,38776832,25250216,0.9979105065369746,0.0978078584231429,0.3692150479473782,128,0,1,1,190.20673364684305,0.628327719787175,0.1159214188194011,70.22718828333335
128,2048,25.67641891381881,75861,6497,34312192,15310016,1.0066249865696661,0.0944330485689865,0.4959995783653312,128,0,1,1,141.58719351089272,0.554324142275725,0.0568725850017238,70.22718828333335
128,256,30.886663728151117,37296,19,25137152,21543016,0.9685428867539466,0.0945109232845145,0.36868416886912264,128,0,1,1,190.48061786526816,0.8605540304313509,0.0163201898018765,70.22718828333335
128,512,27.13106917573958,17752,20,25137152,21322280,0.976797859579609,0.0844752193729901,0.4510262455396329,128,0,1,1,155.70532530609086,0.8634562210634507,0.017141264155842,70.22718828333335
1536,1024,32.773829706967454,62333,8627,25792512,15199848,0.9328490940116206,0.1769311284471517,0.40715082241460815,1536,0,1,1,172.48445641556359,0.6759198752314416,0.0595694828570396,70.22718828333335
1536,128,58.18578050613126,84114,3252,25137152,21309936,0.9130965088526833,0.2527923271172647,0.30449090214349267,1536,0,1,1,230.63805121585693,0.8626174829444533,0.011230403448605,70.22718828333335
1536,1536,39.2410036564488,43743,4112,39301120,24929272,0.9716166166893666,0.1104106732518867,0.33679483247075415,1536,0,1,1,208.51622861354792,0.5255594154886499,0.0548362473710604,70.22718828333335
1536,2048,14.307884148752745,60799,16,39038976,24943288,1.0127623816366587,0.1124429896311117,0.545361561739141,1536,0,1,1,128.7717969329944,0.5393963208168457,0.0602010630845372,70.22718828333335
1536,256,37.59448443182131,45668,0,25137152,21446648,0.9316450739592074,0.1629769836347666,0.33595835603266566,1536,0,1,1,209.03539686479795,0.8664447326371111,0.0135123991213362,70.22718828333335
1536,512,27.56044941900932,88146,632,25137152,21319816,0.9590756717407839,0.1003772144792245,0.3549991120378342,1536,0,1,1,197.82356040329717,0.8661328340182137,0.0108670306737978,70.22718828333335
2048,1024,33.888165765262755,80650,4329,26054656,16555960,0.9411402779260442,0.1578592451103177,0.35633839236427023,2048,0,1,1,197.08005027856487,0.6601192201686538,0.0687477263800281,70.22718828333335
2048,128,36.815329989463535,99850,3394,24612864,20796064,0.9203042734733469,0.1317367569907591,0.33674064701931183,2048,0,1,1,208.54978127812967,0.8704108591193295,0.0166125796252327,70.22718828333335
2048,1536,25.22318895807943,42396,8464,34574336,15301680,0.9828501194777802,0.0835375947238916,0.33507895091109435,2048,0,1,1,209.58400428431133,0.5488584219848922,0.0561337484927478,70.22718828333335
2048,2048,23.24187040116026,66934,2993,39301120,24910464,1.0048379868888169,0.0366463697385877,0.46644779640732503,2048,0,1,1,150.55744463632868,0.5479846550179358,0.0600272418734997,70.22718828333335
2048,256,36.392570103929366,27679,3955,25137152,21308752,0.9839500683643849,0.0843087918026011,0.37436846882626035,2048,0,1,1,187.58841657662384,0.8676379310173358,0.0165576712761065,70.22718828333335
2048,512,46.0393136636233,115494,19903,25923584,20958664,0.9665627085237162,0.0847061196836501,0.30891868176046444,2048,0,1,1,227.33228007811942,0.8525763040880827,0.0193872082782462,70.22718828333335
256,1024,41.55942060514087,16440,127,25792512,15221488,0.9419165916216369,0.1141782185846557,0.2798844546425651,256,0,1,1,250.914929780645,0.6579241933005837,0.0550290891999855,70.22718828333335
256,128,35.762426181819485,39998,4669,25399296,21399688,0.9629240954141546,0.0904796339335432,0.34533547126492753,256,0,1,1,203.35932485040863,0.8655797770339891,0.0141771596011251,70.22718828333335
256,1536,34.18365767618211,69867,370,38776832,25095560,0.9630191257707833,0.1652193212208546,0.3415494011422248,256,0,1,1,205.61355999593744,0.5858218232816149,0.0964597124494146,70.22718828333335
256,2048,27.61872116458673,116339,6484,34312192,15438232,1.0009684481521126,0.0452314425247146,0.49544859361303883,256,0,1,1,141.74465159181182,0.5552160253316849,0.0607760057637769,70.22718828333335
256,256,39.92209755638459,99498,42,25137152,21337216,0.9617502147896414,0.1409079291250772,0.2960167455662645,256,0,1,1,237.2405930920983,0.8635886239800363,0.0103921042472825,70.22718828333335
256,512,23.855597241725366,40908,721,25137152,21351488,0.9557501240616826,0.0945972061564021,0.3987090331142685,256,0,1,1,176.13643647548489,0.8673462945318169,0.0144605952613018,70.22718828333335
512,1024,39.62060776133369,61800,8262,26054656,15212736,0.9551092346080207,0.0911405241764845,0.35401835809574445,512,0,1,1,198.37160044773827,0.664372270085255,0.053836494489924,70.22718828333335
512,128,38.77546399889099,64490,127,24612864,21028112,0.9400046341411196,0.1036506228166107,0.2512649516649055,512,0,1,1,279.4945646736694,0.8702932373977893,0.0131904992757916,70.22718828333335
512,1536,29.282216350771986,67713,3810,34574336,15327808,0.9958376264136279,0.070795796429136,0.44301669261074145,512,0,1,1,158.52041120499894,0.5342226904950539,0.0546607736548152,70.22718828333335
512,2048,15.297055808912765,41576,4238,39563264,24691648,1.0166408188575282,0.1205821439868447,0.7519938838675738,512,0,1,1,93.38797800076306,0.5421374266328158,0.0598400047469276,70.22718828333335
512,256,31.4773733899937,42431,8373,25399296,20646488,0.9866570009310691,0.1451711890418837,0.4731931945007441,512,0,1,1,148.4112390023456,0.8613929215638907,0.0171355145935686,70.22718828333335
512,512,23.340715273607977,34964,26,25137152,21298912,0.9963446827584963,0.0405143200033425,0.49834244857102844,512,0,1,1,140.92154598651234,0.868495400153123,0.0129077501227725,70.22718828333335
