cpu,memory,duration_std,userDiff,sysDiff,heapTotal,heapUsed,avg_cpu_util,cpu_util_std,slo_preservation,total_cpu_shares,cpu_shares_others,num_containers,arrival_rate,latency,memory_util,memory_util_std,slo_duration
1024,1024,84.2593886666176,430310,43032,53596160,44429544,0.9353234181137462,0.1094488672214472,1.0,1024,0,1,1,562.0662710959799,0.7632454427845298,0.0959746632120093,678.0215210925927
1024,128,880.0835665610033,452674,78033,32743424,29717096,0.4871309888819883,0.2612533154821665,0.2874864700238894,1024,0,1,1,2358.4467158967545,0.9016366390543434,0.027148675026257,678.0215210925927
1024,1536,61.645100944399005,300691,58870,45068288,31090264,1.240421875092939,0.1938198363640708,1.0,1024,0,1,1,308.47007448371687,0.7281407539738745,0.1517986674146827,678.0215210925927
1024,2048,38.29711002804525,342196,59910,62115840,44952808,1.4564328561935698,0.2905409885324044,1.0,1024,0,1,1,221.62563155911545,0.6385726315544833,0.1549247129039615,678.0215210925927
1024,256,375.2587408599435,418069,65145,39821312,29705088,0.5249894998394936,0.1778025844737147,0.4460945242303818,1024,0,1,1,1519.9055004370198,0.883684144098012,0.0572412426515135,678.0215210925927
1024,512,148.42241749553716,427706,80459,34054144,29937360,0.6336432119904568,0.0730710749530535,0.6551194776333256,1024,0,1,1,1034.9585751014497,0.8702791996554768,0.0910502203336954,678.0215210925927
128,1024,119.98073007932332,552390,25683,53596160,44331984,0.8796414380828762,0.139555626600554,1.0,128,0,1,1,618.6052731402453,0.8038070898211004,0.0972529019030746,678.0215210925927
128,128,797.2941222471023,511193,68514,33005568,30209040,0.4924541174272387,0.1627020755692942,0.3253126522042824,128,0,1,1,2084.215035899754,0.8641489647461276,0.0645319307036782,678.0215210925927
128,1536,55.84894422216634,339856,58462,58707968,45490896,1.3178255067338456,0.3250044208089914,1.0,128,0,1,1,312.20197402369365,0.7222655791039482,0.1290024602323181,678.0215210925927
128,2048,33.82680942158823,265973,45335,44806144,30269040,1.445503944100762,0.2716396146975388,1.0,128,0,1,1,210.553402569209,0.6367536691192522,0.1651009150308356,678.0215210925927
128,256,289.1154260761044,378387,44697,32481280,29653848,0.3805420999221011,0.0546708341155608,0.3513868595883337,128,0,1,1,1929.5585551688725,0.8800732792784817,0.0630562061455481,678.0215210925927
128,512,194.5261213546348,452399,78706,36151296,29704296,0.6106066405861855,0.1326659236702033,0.5811419216092344,128,0,1,1,1166.7055772109677,0.8664845959831817,0.0806744779688291,678.0215210925927
1536,1024,131.1097606338108,418226,64188,49131520,30387976,0.9233790728638421,0.1812722374583277,1.0,1536,0,1,1,601.1386688525605,0.7283474988365216,0.1206706533644547,678.0215210925927
1536,128,705.7426327101383,455054,101167,32743424,30230432,0.5747924954569973,0.241477414290571,0.3762867780479339,1536,0,1,1,1801.874423039711,0.8471117286649686,0.0723412525137641,678.0215210925927
1536,1536,73.3696067950142,346648,63133,58970112,45423256,1.196672080562215,0.2512783317228411,1.0,1536,0,1,1,347.29840829240663,0.7101044921419553,0.1432766510050701,678.0215210925927
1536,2048,35.454681360650106,316296,56658,59232256,44904608,1.452300891833066,0.2412046679784602,1.0,1536,0,1,1,231.83178458696852,0.6824087128093874,0.1510786535180499,678.0215210925927
1536,256,396.6637787944025,403355,76811,33005568,29673320,0.49517251338668866,0.1674728780620458,0.4167029572928495,1536,0,1,1,1627.1099334101782,0.8933129591715976,0.0519271349547783,678.0215210925927
1536,512,204.41234026232868,480163,38124,33005568,29813888,0.6014666858930536,0.0596119324057703,0.5584289360455642,1536,0,1,1,1214.1590045349485,0.8689285721722928,0.0789414387824122,678.0215210925927
2048,1024,155.94180654658828,393932,52628,39432192,30069296,0.9136940917344604,0.2279954231219142,1.0,2048,0,1,1,617.4474480930451,0.7826125412948538,0.1233538438884642,678.0215210925927
2048,128,840.5812034508966,454410,76956,32743424,30175584,0.8164929928130953,0.4000891041199994,0.45669159734402637,2048,0,1,1,1484.637608915406,0.8249457482401306,0.0906750863092928,678.0215210925927
2048,1536,78.09990629060303,383435,56947,59232256,45052496,1.1221876693090338,0.1669903234818768,1.0,2048,0,1,1,390.2405735776359,0.7484716109084404,0.1085829972928508,678.0215210925927
2048,2048,68.7932054410964,307323,65877,44806144,30581640,1.2550410155671157,0.2226806053315161,1.0,2048,0,1,1,313.0573319908375,0.731479572163814,0.139384494927673,678.0215210925927
2048,256,360.5670322627244,412168,99211,46907392,44254000,0.7055338537419771,0.2636529744579365,0.5796166235839434,2048,0,1,1,1169.7758371735135,0.8987393074868537,0.0459245693216955,678.0215210925927
2048,512,133.92986080233868,422508,32065,32219136,29866112,0.6263000906928918,0.0742939525760068,0.6541169428794049,2048,0,1,1,1036.5448081927989,0.8838937779395815,0.0600024383597354,678.0215210925927
256,1024,129.8664826402207,380778,44445,37072896,30088368,0.8752744839753741,0.1148112284047227,1.0,256,0,1,1,593.0208338663339,0.7692128620422221,0.1175347750401604,678.0215210925927
256,128,1425.7060101454174,580221,95984,32743424,30083624,0.4519975909575551,0.1735507630903719,0.2746592900695664,256,0,1,1,2468.5912532609464,0.867899532242674,0.0621799257887062,678.0215210925927
256,1536,64.08315603200381,341529,46778,61067264,44597416,1.2515815506001255,0.1982037220507289,1.0,256,0,1,1,319.6296463479997,0.7199125253895196,0.1342573175030098,678.0215210925927
256,2048,34.842499785474295,323526,33017,59494400,44952864,1.4766758736114476,0.1666744524509577,1.0,256,0,1,1,230.00421215716466,0.6991499090074424,0.1579706449652198,678.0215210925927
256,256,288.9655675865389,434569,47709,33005568,29808168,0.3750178240626996,0.0456401193563259,0.34866869761716934,256,0,1,1,1944.6010660728873,0.8779098007778444,0.0667001453326135,678.0215210925927
256,512,172.31724021034597,408724,67268,32743424,29638728,0.5884054696092436,0.0606910594726751,0.5881560016555196,256,0,1,1,1152.7919789717744,0.8723877347643529,0.0731574871938628,678.0215210925927
512,1024,90.72846658766724,501785,47583,39170048,29932808,0.819918487654907,0.108884749988066,1.0,512,0,1,1,658.4649476733731,0.7387219599351754,0.1195230898687879,678.0215210925927
512,128,632.6477128738098,415894,81249,38510592,29912976,0.49182642215812933,0.182190361985698,0.3492767096296452,512,0,1,1,1941.2159539968507,0.8489328354624934,0.0562032707921334,678.0215210925927
512,1536,71.1790633954424,375421,68489,58970112,46210152,1.2408076068075584,0.1691388907848408,1.0,512,0,1,1,311.2443772885866,0.7424096143907124,0.1339728599619858,678.0215210925927
512,2048,41.87034888535783,343873,53087,60018688,46125064,1.4287897585531193,0.2886352496577849,1.0,512,0,1,1,229.1776151919729,0.6750966421521107,0.1622074367495722,678.0215210925927
512,256,389.3918921593058,459646,50438,33267712,30094064,0.48719232874819784,0.1304875112445603,0.43229471352676796,512,0,1,1,1568.4242713983806,0.8894119362195788,0.0482634734586821,678.0215210925927
512,512,163.40064515072788,410733,47541,32219136,29731760,0.5839788852188491,0.0569959774311755,0.57787417443117,512,0,1,1,1173.3030322042039,0.8626152514645942,0.0728875662146643,678.0215210925927
