cpu,memory,duration_std,userDiff,sysDiff,heapTotal,heapUsed,avg_cpu_util,cpu_util_std,slo_preservation,total_cpu_shares,cpu_shares_others,num_containers,arrival_rate,latency,memory_util,memory_util_std,slo_duration
1024,1024,84.17899474422265,292792,42744,39432192,31959608,1.061404643945216,0.1961130385339506,0.5781971837613155,1024,0,1,1,266.2280039710437,0.7887817326275468,0.0806649154704809,153.93228213445377
1024,128,69.36203653015981,230716,47339,33529856,30187672,1.1576499920172807,0.2388961642303685,0.5231396365373449,1024,0,1,1,294.2470258100299,0.8583047251064567,0.076867826912806,153.93228213445377
1024,1536,56.14372821099555,291740,40187,50311168,30936056,1.3050142280537427,0.312763701140202,0.8933045770560892,1024,0,1,1,172.31780300705725,0.6741163408766929,0.1333170166468561,153.93228213445377
1024,2048,30.204942768087587,253941,42965,50311168,30393392,1.4758182395903778,0.3392551934508017,1.0,1024,0,1,1,129.7457360642167,0.7208209679814332,0.1386112713520049,153.93228213445377
1024,256,48.054680692359725,314787,31337,33267712,30841624,0.9512704536753648,0.1204618590286842,0.4284919000284765,1024,0,1,1,359.24198829481685,0.8772775766729495,0.0654384664784329,153.93228213445377
1024,512,52.58630193526369,249652,50869,33267712,30052600,1.028940101805082,0.1230299691851988,0.49621142366489984,1024,0,1,1,310.2151115295703,0.8794692261254689,0.0611601726695568,153.93228213445377
128,1024,56.99889862816056,298978,44761,39694336,31985488,1.0204130860133889,0.2289274368567498,0.5463853603965286,128,0,1,1,281.72841604456676,0.7771866144476507,0.0876023196180372,153.93228213445377
128,128,213.42346369550916,287374,80769,33529856,30317216,0.9800095373216818,0.3528573285557212,0.36454547918188956,128,0,1,1,422.2581020066619,0.9031735949333678,0.0484439094237749,153.93228213445377
128,1536,48.12596019605846,256329,41416,50573312,30604816,1.2300549912582492,0.2658493093109405,0.900132240880961,128,0,1,1,171.01074169257618,0.7131124579624871,0.1264585540894968,153.93228213445377
128,2048,29.345342166845143,268925,32326,49786880,30578680,1.4855629175565792,0.3529107749560794,1.0,128,0,1,1,119.01221892242833,0.7462208474028749,0.0939182840224896,153.93228213445377
128,256,41.40371901774804,241313,42520,33005568,30068640,1.216732533326868,0.214100143231112,0.5981451232729911,128,0,1,1,257.34938921202183,0.876603473370662,0.0725788978791881,153.93228213445377
128,512,45.81609700638674,226855,51620,33267712,30822768,1.2640679048986516,0.2706243126553411,0.6103093483274001,128,0,1,1,252.22009552420764,0.8677998611106883,0.0794002920097227,153.93228213445377
1536,1024,70.6455330301916,277241,36126,38383616,31536376,1.0341988642765338,0.173741384773816,0.5604632797278822,1536,0,1,1,274.6518598135304,0.7877323479740861,0.1097100547973501,153.93228213445377
1536,128,177.37350699282786,257731,46535,33005568,30375776,1.0154976302975613,0.3126213594901805,0.41735918362172164,1536,0,1,1,368.82447583559605,0.8770984236140225,0.0764706352253662,153.93228213445377
1536,1536,58.10166103129998,301949,32383,42708992,31886464,1.2529055949741807,0.1958032549009559,0.8949460506205645,1536,0,1,1,172.0017447171431,0.7444642954918786,0.1288408416269152,153.93228213445377
1536,2048,34.545373717020794,281980,50140,50573312,30803792,1.4552654309172575,0.3614572514409713,1.0,1536,0,1,1,129.9774283676598,0.7610508299602906,0.1121023737921269,153.93228213445377
1536,256,47.93035170079615,253570,44023,32481280,30278120,0.9963801670238248,0.1385047590069228,0.4559064791315176,1536,0,1,1,337.6400406234371,0.8744933912377475,0.0781257843538036,153.93228213445377
1536,512,54.70470088222825,231938,44751,33529856,30253392,1.0401739857392283,0.1907445566155555,0.5128134486760162,1536,0,1,1,300.1720850572011,0.9132062581766014,0.0192953394385991,153.93228213445377
2048,1024,70.3428469303659,281620,44110,39694336,30341912,1.0871369421219366,0.1559705519795384,0.5816662356096717,2048,0,1,1,264.6402227096956,0.7452121868092473,0.1175490930850269,153.93228213445377
2048,128,128.67176857491108,290470,47926,33267712,30551680,1.1038356146439399,0.3045496756707298,0.45573966106448044,2048,0,1,1,337.7636297330607,0.8673733816681093,0.0624796727324959,153.93228213445377
2048,1536,47.93124706982472,298265,18427,50573312,31787320,1.2540831239230212,0.2338407834910784,0.9551583108820013,2048,0,1,1,161.15892033888224,0.7377269532026337,0.1368248792490285,153.93228213445377
2048,2048,26.613060434161977,252848,50025,50311168,30443328,1.447233884996027,0.3856305307349645,1.0,2048,0,1,1,128.5950106848442,0.7506754405173395,0.0916954988597359,153.93228213445377
2048,256,45.22852130186556,216314,47352,33267712,30836136,1.1890373575359352,0.1693163356257711,0.5942504117807138,2048,0,1,1,259.0360546376143,0.888430221586952,0.0670136182265475,153.93228213445377
2048,512,43.97767457893779,284963,21618,33267712,30793288,1.2864693878557973,0.2358564639507375,0.6960981443872744,2048,0,1,1,221.13588920704478,0.8782854063145502,0.0707052828782078,153.93228213445377
256,1024,81.73613211466312,308839,23644,39694336,31277128,1.0231527357465648,0.2169591641607706,0.5160605434511946,256,0,1,1,298.2833779637943,0.7407614704167713,0.1126125055366923,153.93228213445377
256,128,132.76679981643983,299242,29062,33005568,30427968,1.0978628872212435,0.295074048817893,0.476257080408211,256,0,1,1,323.21258510742734,0.8712548044280787,0.0594138173650531,153.93228213445377
256,1536,73.15927746823367,305163,48883,50835456,31407304,1.2355513338184854,0.3187705283035199,0.7933226139360176,256,0,1,1,194.03491017447362,0.7047694327013918,0.1242480664558456,153.93228213445377
256,2048,31.74814846715888,278549,33502,50049024,31611072,1.5264620266742854,0.2988008101806041,1.0,256,0,1,1,119.15125431327496,0.719800673446503,0.1237467420054405,153.93228213445377
256,256,63.29651775697271,236620,38321,33005568,30272376,1.0007393016896402,0.1492040301018796,0.47039797711033954,256,0,1,1,327.2384015766004,0.8900516601037461,0.0623627225843858,153.93228213445377
256,512,46.30316799808831,212644,50309,32481280,30615240,1.0840026280762172,0.1251537763151573,0.5344354314431138,256,0,1,1,288.02783849640514,0.8876164457884659,0.0523432439233274,153.93228213445377
512,1024,91.2234072147187,297414,53454,38907904,32194344,1.0042356539875021,0.1686179316990505,0.509403217938838,512,0,1,1,302.18160528568905,0.7821708900692673,0.1026791080442174,153.93228213445377
512,128,93.3057383492622,266487,15876,33529856,30081320,0.9893558676053994,0.2772066124862852,0.41387117459343464,512,0,1,1,371.9328418696199,0.9014694365859762,0.0507478170230737,153.93228213445377
512,1536,59.43308643504054,285462,35517,51097600,30708048,1.135711508464297,0.2575442106742975,0.7727527473861997,512,0,1,1,199.199915697644,0.6891445863685961,0.1185210647199386,153.93228213445377
512,2048,36.23997037529757,283076,47722,50311168,31632440,1.4719381115229333,0.3950624871657124,1.0,512,0,1,1,123.4233314908243,0.7191336463930419,0.1299810146469278,153.93228213445377
512,256,35.621477322938546,249890,27572,33529856,30308392,1.2358833245832304,0.1774607433526359,0.6119708346028886,512,0,1,1,251.5353239576218,0.8727136546664527,0.0432509429704366,153.93228213445377
512,512,39.93963934473132,217568,29844,33005568,30315992,1.2901604411574583,0.2321225011757357,0.7053167415099112,512,0,1,1,218.24560949017356,0.8769774698498896,0.0593250338415336,153.93228213445377
