cpu,memory,duration_std,userDiff,sysDiff,heapTotal,heapUsed,avg_cpu_util,cpu_util_std,slo_preservation,total_cpu_shares,cpu_shares_others,num_containers,arrival_rate,latency,memory_util,memory_util_std,slo_duration
1024,1024,84.17899474422265,292792,42744,39432192,31959608,1.0297877683188374,0.1961130385339506,0.2804869900044145,1024,0,1,1,548.8036437341749,0.7887817326275468,0.0806649154704809,153.93228213445377
1024,128,69.36203653015981,230716,47339,33529856,30187672,1.0730656003524868,0.2388961642303685,0.24245806246278107,1024,0,1,1,634.8820928901196,0.8583047251064567,0.076867826912806,153.93228213445377
1024,1536,56.14372821099555,291740,40187,50311168,30936056,1.132326397096162,0.312763701140202,0.38754840043237304,1024,0,1,1,397.194987678229,0.6741163408766929,0.1333170166468561,153.93228213445377
1024,2048,30.204942768087587,253941,42965,50311168,30393392,1.1921862566409969,0.3392551934508017,0.4792011546078163,1024,0,1,1,321.2268598568668,0.7208209679814332,0.1386112713520049,153.93228213445377
1024,256,48.054680692359725,314787,31337,33267712,30841624,0.9750267594977162,0.1204618590286842,0.21959636565058405,1024,0,1,1,700.9782774792674,0.8772775766729495,0.0654384664784329,153.93228213445377
1024,512,52.58630193526369,249652,50869,33267712,30052600,1.0142636550873705,0.1230299691851988,0.24456681753366533,1024,0,1,1,629.4078799682812,0.8794692261254689,0.0611601726695568,153.93228213445377
128,1024,56.99889862816056,298978,44761,39694336,31985488,1.0101034219955818,0.2289274368567498,0.2704324992641172,128,0,1,1,569.2077784782671,0.7771866144476507,0.0876023196180372,153.93228213445377
128,128,213.42346369550916,287374,80769,33529856,30317216,0.9899038553595257,0.3528573285557212,0.18411299153387048,128,0,1,1,836.0750691845421,0.9031735949333678,0.0484439094237749,153.93228213445377
128,1536,48.12596019605846,256329,41416,50573312,30604816,1.1031611292815908,0.2658493093109405,0.403636791204456,128,0,1,1,381.3633580703047,0.7131124579624871,0.1264585540894968,153.93228213445377
128,2048,29.345342166845143,268925,32326,49786880,30578680,1.195353299699977,0.3529107749560794,0.5203713703122895,128,0,1,1,295.81235808971326,0.7462208474028749,0.0939182840224896,153.93228213445377
128,256,41.40371901774804,241313,42520,33005568,30068640,1.0977711699848587,0.214100143231112,0.2698318873749266,128,0,1,1,570.4747634980873,0.876603473370662,0.0725788978791881,153.93228213445377
128,512,45.81609700638674,226855,51620,33267712,30822768,1.11663426893129,0.2706243126553411,0.2695631818316509,128,0,1,1,571.0434232468306,0.8677998611106883,0.0794002920097227,153.93228213445377
1536,1024,70.6455330301916,277241,36126,38383616,31536376,1.0168119572167282,0.173741384773816,0.275520397523775,1536,0,1,1,558.6965013041213,0.7877323479740861,0.1097100547973501,153.93228213445377
1536,128,177.37350699282786,257731,46535,33005568,30375776,1.0076892327059066,0.3126213594901805,0.20707500586845348,1536,0,1,1,743.3648570423841,0.8770984236140225,0.0764706352253662,153.93228213445377
1536,1536,58.10166103129998,301949,32383,42708992,31886464,1.1122575200391738,0.1958032549009559,0.39724081320452354,1536,0,1,1,387.50369301857245,0.7444642954918786,0.1288408416269152,153.93228213445377
1536,2048,34.545373717020794,281980,50140,50573312,30803792,1.1854241196020814,0.3614572514409713,0.48235115056535516,1536,0,1,1,319.1290866706392,0.7610508299602906,0.1121023737921269,153.93228213445377
1536,256,47.93035170079615,253570,44023,32481280,30278120,0.998186801774548,0.1385047590069228,0.22836656397522548,1536,0,1,1,674.0578806937483,0.8744933912377475,0.0781257843538036,153.93228213445377
1536,512,54.70470088222825,231938,44751,33529856,30253392,1.0196914508370578,0.1907445566155555,0.2513577039314152,1536,0,1,1,612.4032791788046,0.9132062581766014,0.0192953394385991,153.93228213445377
2048,1024,70.3428469303659,281620,44110,39694336,30341912,1.0417495087952142,0.1559705519795384,0.27869097799510323,2048,0,1,1,552.3403851887823,0.7452121868092473,0.1175490930850269,153.93228213445377
2048,128,128.67176857491108,290470,47926,33267712,30551680,1.0493553840049017,0.3045496756707298,0.21662322754318966,2048,0,1,1,710.5991535638219,0.8673733816681093,0.0624796727324959,153.93228213445377
2048,1536,47.93124706982472,298265,18427,50573312,31787320,1.1127212751057793,0.2338407834910784,0.4237458240757499,2048,0,1,1,363.265602605529,0.7377269532026337,0.1368248792490285,153.93228213445377
2048,2048,26.613060434161977,252848,50025,50311168,30443328,1.1827507733273943,0.3856305307349645,0.48913654528417194,2048,0,1,1,314.70206758937684,0.7506754405173395,0.0916954988597359,153.93228213445377
2048,256,45.22852130186556,216314,47352,33267712,30836136,1.0863563871512558,0.1693163356257711,0.27146654657809266,2048,0,1,1,567.0396005504573,0.888430221586952,0.0670136182265475,153.93228213445377
2048,512,43.97767457893779,284963,21618,33267712,30793288,1.125288967076197,0.2358564639507375,0.30444236344666764,2048,0,1,1,505.6204412281791,0.8782854063145502,0.0707052828782078,153.93228213445377
256,1024,81.73613211466312,308839,23644,39694336,31277128,1.0114438892019793,0.2169591641607706,0.255077401885213,256,0,1,1,603.472832155177,0.7407614704167713,0.1126125055366923,153.93228213445377
256,128,132.76679981643983,299242,29062,33005568,30427968,1.046648848128902,0.295074048817893,0.22702011809696707,256,0,1,1,678.0556869797094,0.8712548044280787,0.0594138173650531,153.93228213445377
256,1536,73.15927746823367,305163,48883,50835456,31407304,1.1053661037683022,0.3187705283035199,0.35486665053714705,256,0,1,1,433.7750022478945,0.7047694327013918,0.1242480664558456,153.93228213445377
256,2048,31.74814846715888,278549,33502,50049024,31611072,1.2083791567480218,0.2988008101806041,0.5113500637877945,256,0,1,1,301.03111945309985,0.719800673446503,0.1237467420054405,153.93228213445377
256,256,63.29651775697271,236620,38321,33005568,30272376,1.000369514253564,0.1492040301018796,0.23511207917647475,256,0,1,1,654.7187310564016,0.8900516601037461,0.0623627225843858,153.93228213445377
256,512,46.30316799808831,212644,50309,32481280,30615240,1.0403083119687624,0.1251537763151573,0.2564466206726722,256,0,1,1,600.2507723856206,0.8876164457884659,0.0523432439233274,153.93228213445377
512,1024,91.2234072147187,297414,53454,38907904,32194344,1.00211335128136,0.1686179316990505,0.25416333499773897,512,0,1,1,605.6431472927562,0.7821708900692673,0.1026791080442174,153.93228213445377
512,128,93.3057383492622,266487,15876,33529856,30081320,0.9946494578632565,0.2772066124862852,0.20804280487614016,512,0,1,1,739.9067813284795,0.9014694365859762,0.0507478170230737,153.93228213445377
512,1536,59.43308643504054,285462,35517,51097600,30708048,1.0635439327486143,0.2575442106742975,0.361824499387492,512,0,1,1,425.4335524405761,0.6891445863685961,0.1185210647199386,153.93228213445377
512,2048,36.23997037529757,283076,47722,50311168,31632440,1.1909182553248379,0.3950624871657124,0.5045391251670763,512,0,1,1,305.0948369632972,0.7191336463930419,0.1299810146469278,153.93228213445377
512,256,35.621477322938546,249890,27572,33529856,30308392,1.1054989417335537,0.1774607433526359,0.2737042795902421,512,0,1,1,562.4036363804873,0.8727136546664527,0.0432509429704366,153.93228213445377
512,512,39.93963934473132,217568,29844,33005568,30315992,1.126698739504386,0.2321225011757357,0.3079769997046324,512,0,1,1,499.8174613106942,0.8769774698498896,0.0593250338415336,153.93228213445377
