cpu,memory,duration_std,userDiff,sysDiff,heapTotal,heapUsed,avg_cpu_util,cpu_util_std,slo_preservation,total_cpu_shares,cpu_shares_others,num_containers,arrival_rate,latency,memory_util,memory_util_std,slo_duration
1024,1024,93.26877366958928,391320,52070,36024320,29945696,0.953655482820894,0.1483608679923893,1.0,1024,0,1,1,532.6452965762264,0.7584483089206975,0.1072762049835467,670.6170496699032
1024,128,995.9567117024288,462915,61290,32481280,29501560,0.4358952446810454,0.3007737507612183,0.26950135404011333,1024,0,1,1,2488.3624501941713,0.8571683108876547,0.0654939435111833,670.6170496699032
1024,1536,96.42109820321797,287718,41801,57389056,30376712,1.064759546793093,0.1857872004227627,1.0,1024,0,1,1,408.8745821165413,0.7360255315289049,0.1331123830118419,670.6170496699032
1024,2048,63.22327225891752,372794,63111,58970112,45470864,1.181408361200616,0.1666041530148472,1.0,1024,0,1,1,308.8854196376119,0.7451259843729977,0.1125493696374626,670.6170496699032
1024,256,614.2825480497619,510585,53191,42180608,29407272,0.5691770513917499,0.2218085114228568,0.4306587888961099,1024,0,1,1,1557.1888162061396,0.8501961545813836,0.0815998373985858,670.6170496699032
1024,512,187.55535142285197,405993,49821,38248448,29568504,0.6699815799554726,0.2069151007318324,0.6349977802334233,1024,0,1,1,1056.0935337811516,0.882019126670013,0.0581065180851995,670.6170496699032
128,1024,125.27356277000128,340693,50377,49926144,44326592,0.8728841631146146,0.0871457854262092,1.0,128,0,1,1,543.7134125913225,0.8137280753438978,0.0918420130287995,670.6170496699032
128,128,1121.936721409888,607728,48724,46645248,43854544,0.4916316311529976,0.4991371345395147,0.2151001095940397,128,0,1,1,3117.6973872099115,0.9046893583558278,0.0209132295428966,670.6170496699032
128,1536,81.74287973082929,385176,72150,58970112,44752568,1.109156926866125,0.1542332495836971,1.0,128,0,1,1,374.34522486673046,0.7332740145589712,0.1386652464172067,670.6170496699032
128,2048,68.20712767540411,364083,82656,58707968,44827056,1.21875452801484,0.2600046459320897,1.0,128,0,1,1,315.1437300353608,0.6955158003650912,0.1375349356655731,670.6170496699032
128,256,277.2967518096019,395166,37005,36675584,29413184,0.38431404484173387,0.05736090667416,0.36314879778109826,128,0,1,1,1846.6729169075843,0.8784098080859936,0.0517635939886646,670.6170496699032
128,512,209.14469764169075,489713,84241,39034880,29751800,0.5869972300107654,0.0893851759696628,0.5762419419648457,128,0,1,1,1163.77688056385,0.8972201924514751,0.0619153132453984,670.6170496699032
1536,1024,100.5549625246072,391756,60892,39694336,29988432,0.9521918051556524,0.192922098628191,1.0,1536,0,1,1,552.5303114562457,0.7719888010894592,0.0976857922614256,670.6170496699032
1536,128,1016.4716160699264,500422,71841,32481280,29838592,0.3211030803332974,0.1720997788330076,0.22973515495483224,1536,0,1,1,2919.0876328951563,0.84756952871,0.0800108290742107,670.6170496699032
1536,1536,86.260976333368,377701,61218,58183680,44790672,1.1354413555964051,0.1954556595895033,1.0,1536,0,1,1,357.7404026427704,0.7689531949541261,0.1082922524735649,670.6170496699032
1536,2048,52.89332609857521,343386,47476,57659392,44792120,1.306141795138035,0.2573181645282772,1.0,1536,0,1,1,276.9546606991401,0.7378415789643767,0.134863672925264,670.6170496699032
1536,256,416.7439386153527,404370,65677,32481280,29445832,0.4962680447120805,0.1867784353743125,0.42675325692097,1536,0,1,1,1571.4397928873782,0.8792286997338534,0.0584259416858812,670.6170496699032
1536,512,252.49436136212364,453128,42643,46907392,44375728,0.6864205232658898,0.245488934947448,0.6655373370210412,1536,0,1,1,1007.6324983833347,0.9011040046647985,0.0444304948022147,670.6170496699032
2048,1024,88.51254290765283,469517,32309,50442240,30601312,0.9640041587675056,0.0901438137940083,1.0,2048,0,1,1,520.370108569891,0.7720328764377523,0.1049370257618035,670.6170496699032
2048,128,651.3661086297723,520427,82815,47169536,43768096,0.7322480210616223,0.3141235186496833,0.4745113569647056,2048,0,1,1,1413.279239425631,0.8799995758261074,0.0375886378325489,670.6170496699032
2048,1536,79.35529370977893,394841,38605,58707968,45203400,1.1415537314062336,0.1783964500169501,1.0,2048,0,1,1,342.09072357580703,0.7802252211309157,0.0907795213675774,670.6170496699032
2048,2048,67.49051964789216,355339,35930,58707968,45244272,1.2129619268102712,0.1852294798935875,1.0,2048,0,1,1,310.4252967648459,0.7485552088035962,0.1346519631333836,670.6170496699032
2048,256,280.1636205321888,406675,45977,35102720,29328776,0.6637984194723778,0.1999966576113143,0.5889596591735201,2048,0,1,1,1138.6468312803831,0.8770894404217924,0.0621316877717589,670.6170496699032
2048,512,177.95675997722552,423766,58779,34316288,29323880,0.7073988671567562,0.2171032461440222,0.6844873929829319,2048,0,1,1,979.7361595622922,0.8967294807285144,0.0686330724372853,670.6170496699032
256,1024,94.72369928734634,394879,43358,53334016,44789632,0.8985015246882727,0.1261916620045286,1.0,256,0,1,1,557.0133286803189,0.772280303876412,0.0924411235633947,670.6170496699032
256,128,576.1236659117674,435608,74585,32481280,29619392,0.182535725724156,0.0097038643589051,0.16943524815166117,256,0,1,1,3957.9547761492645,0.8704965113938207,0.0442816988933894,670.6170496699032
256,1536,82.74061816406663,366466,54211,60018688,45770616,1.0883771193384113,0.1844524782475837,1.0,256,0,1,1,368.37156390714966,0.7480847869365002,0.1206472033444801,670.6170496699032
256,2048,56.78809962403135,313036,51297,58970112,45268872,1.2678950930985478,0.2158556613482926,1.0,256,0,1,1,301.81980904678755,0.6943061015089295,0.1479383381289501,670.6170496699032
256,256,466.7894675724476,508999,45344,37462016,29752352,0.5042054970403573,0.2625009428875078,0.3890525049371534,256,0,1,1,1723.7186270738266,0.883295415054515,0.0600922684565409,670.6170496699032
256,512,228.21962446481524,421425,44442,34840576,29540136,0.5779559520348636,0.0809272540890655,0.5542800741782641,256,0,1,1,1209.8884316996457,0.9090827694453356,0.0524611941606174,670.6170496699032
512,1024,89.64149368055548,420135,63837,46510080,29814528,0.8597684781805062,0.1391888864535785,1.0,512,0,1,1,597.5537073730952,0.7348202732812238,0.0853099150093435,670.6170496699032
512,128,1102.4345439222514,420443,46177,32743424,29378880,0.3552982410215171,0.1772144553166306,0.2378121003762498,512,0,1,1,2819.9450263838526,0.8246597695082484,0.0849935057222844,670.6170496699032
512,1536,78.61388906069548,425573,71900,58970112,45479256,1.159242008273669,0.1644249361981402,1.0,512,0,1,1,361.75068702295755,0.7280052474857717,0.1296185849806385,670.6170496699032
512,2048,54.31597974019966,302249,63457,58970112,44743096,1.2636552417335438,0.132184756464121,1.0,512,0,1,1,279.21689076542305,0.7191142652632097,0.150129639593572,670.6170496699032
512,256,365.8647592141578,418411,65266,32743424,30086696,0.5362700805139311,0.1543381747209387,0.47542094945016505,512,0,1,1,1410.5753026775255,0.8886116326477572,0.0521381073581555,670.6170496699032
512,512,39.01787738599467,397807,40716,33005568,29477704,1.5320882928641208,0.2892192202731891,1.0,512,0,1,1,322.04407370138983,0.8994111113796401,0.0639618401301221,670.6170496699032
