cpu,memory,duration_std,userDiff,sysDiff,heapTotal,heapUsed,avg_cpu_util,cpu_util_std,slo_preservation,total_cpu_shares,cpu_shares_others,num_containers,arrival_rate,latency,memory_util,memory_util_std,slo_duration
1024,1024,150.15436558588632,22692,0,25792512,15007048,0.2920603880519019,0.1418953529040356,0.8238336540027738,1024,0,1,1,403.7273626729564,0.6365171667690667,0.041090553050779,332.6041884117647
1024,128,145.08887736687595,25666,2906,24829952,21518784,0.2046307260135282,0.0372135343397589,0.735298980264479,1024,0,1,1,452.33870485191017,0.8626001576462826,0.0103832515705146,332.6041884117647
1024,1536,115.75515579908468,15471,3901,34050048,15162888,0.15304574154247552,0.0303148347386844,0.8881664992604514,1024,0,1,1,374.4840507818228,0.563147292917405,0.0893252608188988,332.6041884117647
1024,2048,93.48355139317124,72458,5579,34836480,14718224,0.18576900990751263,0.0813378337259899,1.0,1024,0,1,1,322.5249019353671,0.5212050610045014,0.051037866209144,332.6041884117647
1024,256,127.24124836637698,24907,34,24829952,21385880,0.21067518503306407,0.0397998623794639,0.807568112865359,1024,0,1,1,411.8589913507615,0.862690323701652,0.0116084212898024,332.6041884117647
1024,512,112.52930885801103,16378,11482,24567808,21222880,0.22924431164566703,0.0562329558433213,0.9454881473800868,1024,0,1,1,351.7803891390905,0.8687461252067115,0.0137042333773958,332.6041884117647
128,1024,108.2459163581706,17893,7617,25268224,15063976,0.27197303291072933,0.083463451979569,1.0,128,0,1,1,302.77007019339464,0.6541118137675499,0.055709134184734,332.6041884117647
128,128,156.30234718505122,24886,4705,24305664,21191040,0.20725761994802577,0.0357311534951487,0.7392727960924028,128,0,1,1,449.9072469186219,0.8687632210002215,0.0092624556276112,332.6041884117647
128,1536,149.2693355206052,18344,20,38731776,25377616,0.19909950329881285,0.0932558736122287,0.8012013534731264,128,0,1,1,415.13183542434047,0.6305531871840303,0.0969163541571107,332.6041884117647
128,2048,147.93717233788462,28651,9141,34836480,15120592,0.1428675093359301,0.0373142791821118,0.876390946163833,128,0,1,1,379.5157741732164,0.5293771154828811,0.0499049563370148,332.6041884117647
128,256,162.92032598477954,24545,28,24305664,21216128,0.235514947969849,0.0494425657917379,0.8039931035568678,128,0,1,1,413.6903500046491,0.8654664340679801,0.0137488248439309,332.6041884117647
128,512,121.42776674183978,29192,4293,24567808,21147608,0.19950923679443985,0.0519345939721004,0.8003158991376073,128,0,1,1,415.5911294154814,0.8702687737258252,0.0151070329209432,332.6041884117647
1536,1024,144.21483979163602,61689,19714,25792512,14573232,0.28989779833534285,0.1684328012986846,0.8549446449185897,1536,0,1,1,389.0359339503627,0.6408173884041709,0.0436438950451221,332.6041884117647
1536,128,127.31978465399692,23736,251,24829952,21358488,0.23905932750498332,0.0345397447671878,0.8406753202992269,1536,0,1,1,395.63929186523376,0.8650799820469499,0.0102842104765021,332.6041884117647
1536,1536,122.67185935523956,18578,436,38993920,24517856,0.14734049715293562,0.0300821240821952,0.9790731938278091,1536,0,1,1,339.7133028547202,0.6181508921197894,0.0898488314943391,332.6041884117647
1536,2048,153.45415743774478,26715,10723,34312192,15091280,0.1923491870424888,0.0623661678102969,1.0,1536,0,1,1,325.1561944991622,0.533632217744025,0.0495007469576376,332.6041884117647
1536,256,144.86564819659404,21555,4853,24567808,21573760,0.2238559276998851,0.0476391574082046,0.8371962971987543,1536,0,1,1,397.28339640852823,0.8670406943448115,0.015263893407538,332.6041884117647
1536,512,154.3039758292562,24041,3248,24305664,21172072,0.20255797764281822,0.0666771698610246,0.8608904329674981,1536,0,1,1,386.3490354577117,0.8717215223761992,0.0092518864063646,332.6041884117647
2048,1024,148.9722202442902,74345,7142,26316800,14574160,0.2659766324667583,0.1379222762893035,0.8242279465212954,2048,0,1,1,403.53422838371483,0.6311817921679348,0.0430597017292638,332.6041884117647
2048,128,154.8568506274278,27222,448,24305664,21159432,0.20016363487388117,0.0408134577157236,0.7018855480241417,2048,0,1,1,473.8723989232567,0.8637555059804456,0.0133128097926241,332.6041884117647
2048,1536,164.91639081291257,74763,3756,34574336,14712120,0.21844417415255984,0.1326942515640349,0.8582961312847861,2048,0,1,1,387.51682116274776,0.50714098116532,0.0417934348880411,332.6041884117647
2048,2048,127.2857063510004,29612,8316,34836480,15122424,0.17737390726935257,0.0492110584342602,1.0,2048,0,1,1,328.6836692465978,0.5196731763044308,0.0479366202615305,332.6041884117647
2048,256,145.64821440791732,18592,7356,24567808,21173760,0.17977589527597523,0.0288266009601304,0.8786614867618762,2048,0,1,1,378.53507115408934,0.8688122303764962,0.0130061239102297,332.6041884117647
2048,512,162.6076175264685,21704,6173,24305664,21115240,0.20910791152521704,0.046494410849448,0.9574192198700489,2048,0,1,1,347.39660695020234,0.8719106798724354,0.0123447777257006,332.6041884117647
256,1024,138.06639407616498,16200,7918,30474240,24933080,0.23188445243355876,0.0695216754771491,0.8617922819151066,256,0,1,1,385.94472866784025,0.6602010083471807,0.0701279947046832,332.6041884117647
256,128,139.75902682349695,18142,4414,24567808,21483088,0.22782062734770928,0.0467070221978437,0.7814019950410706,256,0,1,1,425.65054929797435,0.8658874480712045,0.0108649969507227,332.6041884117647
256,1536,127.47643677897968,15437,8801,34050048,15215208,0.14501974363958886,0.0401601588240003,0.7963101311542111,256,0,1,1,417.6817239907168,0.5679302576771275,0.0923551643999429,332.6041884117647
256,2048,152.66312379835264,19517,758,38993920,24626848,0.1406551918965719,0.0301658275842208,0.9286498118589449,256,0,1,1,358.15889279723973,0.5220841738665782,0.050549596180951,332.6041884117647
256,256,131.0737084520706,21778,1242,24567808,21166480,0.2184094220346029,0.0398721445627856,0.7412971444776878,256,0,1,1,448.67863162499435,0.865093928820335,0.0125531432052261,332.6041884117647
256,512,139.70707738988403,22060,6985,24567808,20916712,0.2031861853768611,0.0547706989723165,0.7761041068475274,256,0,1,1,428.55615049220165,0.8634298270578945,0.0159693855530094,332.6041884117647
512,1024,144.1746998364329,20986,4122,25792512,15066104,0.18737202821948368,0.0472456922438332,0.7888072564762673,512,0,1,1,421.65457490536124,0.65048626065953,0.0577258843147363,332.6041884117647
512,128,169.2712235211303,25833,2937,24567808,20956960,0.23196061737512325,0.0535174067184775,0.7438838384123945,512,0,1,1,447.1184494633093,0.8620324246535569,0.010913019243145,332.6041884117647
512,1536,113.31225497794784,33378,15057,35098624,14980032,0.21740192470806077,0.0567693961695565,0.9859271945444518,512,0,1,1,337.35167287422746,0.5356458881422935,0.0911133022573605,332.6041884117647
512,2048,143.08804612535926,25443,10933,34836480,15107176,0.16786744578196827,0.0473465540738756,0.9391074078877141,512,0,1,1,354.17055133222107,0.5246004240457991,0.0481152842608826,332.6041884117647
512,256,94.22529567824688,21188,4206,24305664,21272712,0.19679095708761765,0.0386757374935274,0.6959213542551015,512,0,1,1,477.9335859980568,0.8695039074021437,0.0132216084703282,332.6041884117647
512,512,130.71673827346598,23706,6771,24567808,20880680,0.20380295647476807,0.0564236069094997,0.8663232195212413,512,0,1,1,383.92620781372193,0.8656743115622799,0.0148207991285802,332.6041884117647
