cpu,memory,duration_std,userDiff,sysDiff,heapTotal,heapUsed,avg_cpu_util,cpu_util_std,slo_preservation,total_cpu_shares,cpu_shares_others,num_containers,arrival_rate,latency,memory_util,memory_util_std,slo_duration
1024,1024,119.93358152771094,234376,67536,45187072,36654640,0.7772477016269003,0.2791249948829614,1.0,1024,0,1,1,458.9643064915579,0.7914181213726966,0.0708030402314985,507.2396615750001
1024,128,139.47416988503363,268262,41494,40566784,37250864,0.6066191480589639,0.1210409037628935,0.72719847315539,1024,0,1,1,697.5257516342607,0.8728905578436569,0.0411381518505927,507.2396615750001
1024,1536,135.5617196092379,292534,47686,58990592,43741456,0.6230200111927197,0.2436626863492959,0.9516097235389294,1024,0,1,1,533.0332898329716,0.7052845619724775,0.069371597676664,507.2396615750001
1024,2048,178.22780763469822,314314,52671,61902848,40788848,0.666074516984861,0.2737737294526365,1.0,1024,0,1,1,473.44657533019983,0.7136910178550306,0.0961514721113347,507.2396615750001
1024,256,157.47971934073198,300294,27259,40566784,37373504,0.7717424226767147,0.1738722648080507,0.844317902317374,1024,0,1,1,600.7685732859562,0.8787931598924794,0.0321944918458582,507.2396615750001
1024,512,140.3585021082228,303453,45320,38948864,33686144,0.6672508520974908,0.2067058156479635,0.7578810061877174,1024,0,1,1,669.2866788237775,0.8554158536202099,0.0447108113864314,507.2396615750001
128,1024,173.41308927933923,266116,49954,54968320,45003080,0.777389178418835,0.3807132211696537,0.995502320706149,128,0,1,1,509.53137026862487,0.8086825123857297,0.0690543612116791,507.2396615750001
128,128,181.7755600608988,290408,57501,38686720,33684584,0.6546339977479143,0.1962406805396407,0.7358361655033434,128,0,1,1,689.3377702195794,0.8766757721442999,0.0421801355951869,507.2396615750001
128,1536,157.42923444719034,257731,40616,58056704,35376512,0.640655693796169,0.2562762598142007,1.0,128,0,1,1,494.37174076183186,0.6602418584969996,0.0853306798386378,507.2396615750001
128,2048,124.11082725626224,375805,74886,83132416,62273216,0.5775047758509699,0.277825930734939,1.0,128,0,1,1,501.74239217093407,0.6696898732190096,0.1057024522601484,507.2396615750001
128,256,177.65493313244656,424805,101113,45744128,41649776,0.6600459252620366,0.1947472354334355,0.8063618081469309,128,0,1,1,629.0472297301234,0.8934461690626827,0.0469073914562874,507.2396615750001
128,512,163.61745271018472,297746,52879,40439808,37451592,0.6591578643623056,0.1660437237456575,0.7910284890077969,128,0,1,1,641.2406994484372,0.8930345683473485,0.0492814190566188,507.2396615750001
1536,1024,159.7069250869868,331539,22902,54968320,45117184,0.7054235598580239,0.3073384713817527,0.9556255742999571,1536,0,1,1,530.7933098657162,0.7932221538859822,0.0715138940969127,507.2396615750001
1536,128,133.363991573174,359011,63349,29941760,24768608,0.5868757654159997,0.124832479731972,0.6932848328532575,1536,0,1,1,731.6468463436929,0.8711500223746752,0.0461482750174633,507.2396615750001
1536,1536,135.29736571052618,238000,51610,60592128,40709000,0.7182016988141874,0.3220675427812685,1.0,1536,0,1,1,473.63980177704855,0.680938531212845,0.0741621184297235,507.2396615750001
1536,2048,143.7228768288096,265542,49862,57942016,42466088,0.6748580281175421,0.3100046159930064,1.0,1536,0,1,1,475.7323345136006,0.7083284167444467,0.0880705836006148,507.2396615750001
1536,256,147.77555468935915,331085,62372,39211008,33058064,0.6776479485381744,0.1678677289018068,0.7782219563559587,1536,0,1,1,651.7930487982643,0.8700646830854109,0.0587506640769395,507.2396615750001
1536,512,164.8835607678915,400409,38541,51171328,46061008,0.632005224858216,0.2017811475353872,0.7920925567252514,1536,0,1,1,640.379280512471,0.9011627571846416,0.0385985197659034,507.2396615750001
2048,1024,132.7946566637473,307523,76969,55230464,45169512,0.7502403721951129,0.229308756674694,1.0,2048,0,1,1,481.6076290634249,0.7888663162778288,0.0614882555490288,507.2396615750001
2048,128,277.53928786955294,277439,58374,40624128,37502928,0.7126636364446256,0.237263873827917,0.7433087805712861,2048,0,1,1,682.4077352956198,0.8983043609361134,0.0392589084462058,507.2396615750001
2048,1536,152.76678093144244,348288,50646,82345984,62230792,0.6811896042182646,0.2385521742915883,1.0,2048,0,1,1,484.7108854537546,0.7198777449281324,0.1018901882404241,507.2396615750001
2048,2048,128.7613350765751,200552,45091,44564480,28089232,0.6637696818756748,0.2743319833062031,1.0,2048,0,1,1,477.3321019800585,0.6949140820305547,0.1011080384152653,507.2396615750001
2048,256,160.0804355192962,331220,56570,39211008,33583696,0.7251734686701511,0.2385561957376345,0.8585783992177017,2048,0,1,1,590.7901503662033,0.8698838537878352,0.0592140924590825,507.2396615750001
2048,512,170.72022918624378,364716,55783,38948864,33567472,0.7457855478796434,0.2646845283548767,0.8641269720869046,2048,0,1,1,586.9966775252879,0.8727456469748531,0.0579045096263883,507.2396615750001
256,1024,155.01239390120733,277970,50403,54706176,45115864,0.7119990395701379,0.2797355838375326,0.915464990354292,256,0,1,1,554.0787107311384,0.8037543083494721,0.0744930157367688,507.2396615750001
256,128,185.63450437344963,347314,58746,39211008,33671984,0.6653023300665497,0.1606624985728311,0.712783889674416,256,0,1,1,711.6317707555036,0.8729304347897104,0.0496363029155199,507.2396615750001
256,1536,145.52761980789722,278727,68576,69599232,49820632,0.6596889832182954,0.3096876761213139,1.0,256,0,1,1,494.90696403161115,0.6865077591648051,0.0785386745190217,507.2396615750001
256,2048,164.72232061575065,260141,29057,58466304,42385512,0.6361944469318774,0.2850653239953258,0.9468256667133261,256,0,1,1,535.7265644643524,0.7033671651083848,0.0787960272537155,507.2396615750001
256,256,129.53658187999528,243537,32649,40624128,37562816,0.6924168814368457,0.1929362826016269,0.8504686707963064,256,0,1,1,596.4236884823331,0.8937816452317457,0.0448079088489483,507.2396615750001
256,512,153.477709154805,336339,70805,38948864,33627704,0.7242952640208312,0.2284936984784807,0.9211301287343221,256,0,1,1,550.6710135211539,0.8934282434129278,0.0540719282076796,507.2396615750001
512,1024,152.29748869028464,363754,78036,63049728,48736152,0.6384228283636688,0.2417079019132738,0.8831915773085801,512,0,1,1,574.3257460864288,0.7820959475836725,0.0698466073687734,507.2396615750001
512,128,160.19057206907385,315978,72525,51269632,47143904,0.6820424341015767,0.2284485803460958,0.8147261183950122,512,0,1,1,622.5891745980209,0.9007442475095262,0.0357331843843503,507.2396615750001
512,1536,152.23862812895825,394131,61638,81297408,62242176,0.6534401962995898,0.29448684924257,1.0,512,0,1,1,480.53292035035895,0.6636390061338715,0.0901330635041094,507.2396615750001
512,2048,142.71976859100914,210127,64549,56483840,35374576,0.5730507265830282,0.2338390142616328,1.0,512,0,1,1,471.7579139795455,0.7102488385251935,0.1137536785902428,507.2396615750001
512,256,129.15426206199874,234772,31910,40566784,37238248,0.8050464075935901,0.2523131345654213,0.9227596127099256,512,0,1,1,549.6985938573513,0.8728396371521983,0.0465592243125679,507.2396615750001
512,512,163.60345936055032,243087,45099,40624128,37553400,0.7230462470858116,0.2629142302322099,0.9019025432478754,512,0,1,1,562.4107231678937,0.8842348544615202,0.04930983058084,507.2396615750001
