cpu,memory,duration_std,userDiff,sysDiff,heapTotal,heapUsed,avg_cpu_util,cpu_util_std,slo_preservation,total_cpu_shares,cpu_shares_others,num_containers,arrival_rate,latency,memory_util,memory_util_std,slo_duration
1024,1024,574.3275361881276,2181412,192395,71241728,61577640,1.0368161899374346,0.1962982338568496,1.0,1024,0,1,1,1315.2174647928446,0.8600007432761301,0.0734264650175328,2060.895536111111
1024,128,129.74657049999996,2067184,273536,64290816,61225768,0.7053196124278077,0.0274189698553615,0.30357900935512405,1024,0,1,1,6788.662827805376,0.8570624837861112,0.0952627752368883,2060.895536111111
1024,1536,356.3408550346712,1830209,180805,63500288,48356344,1.1369385932235097,0.1648272273244472,1.0,1024,0,1,1,841.9864308544987,0.7894828315469845,0.1020465619618062,2060.895536111111
1024,2048,206.3406651700308,1719243,85240,76877824,62219888,1.296853261889409,0.3029947641672633,1.0,1024,0,1,1,524.8746621390906,0.7585633826481488,0.1389159285938465,2060.895536111111
1024,256,4256.482416719149,2207630,192789,64290816,61753352,0.5530501070019445,0.2192848666929521,0.24424238651872748,1024,0,1,1,8437.911066485138,0.9302708829366604,0.0520268084233719,2060.895536111111
1024,512,1480.5004780928664,2270860,209312,64290816,61688576,0.7482710881890161,0.0828040526894403,0.6618655034771571,1024,0,1,1,3113.76786565254,0.9238868691541884,0.0432649015106677,2060.895536111111
128,1024,612.7432422963341,1945403,185488,64417792,47351088,1.0706311903638768,0.134247150927606,1.0,128,0,1,1,1242.2119782048765,0.8885425667659959,0.0499267564767059,2060.895536111111
128,128,3091.9510533461225,2272682,336866,64552960,61420192,0.5888037498981527,0.1458287259266371,0.18969646704453655,128,0,1,1,10864.17458490283,0.9564758891266444,0.003972552443421,2060.895536111111
128,1536,407.2321329641762,1806977,145581,78180352,47851152,1.1783713586304363,0.1933472463021809,1.0,128,0,1,1,812.2002688314758,0.7947425987153492,0.1142808824071907,2060.895536111111
128,2048,211.032182366275,1627462,134535,78704640,47209584,1.2821909462485923,0.288233732164802,1.0,128,0,1,1,516.9354214198949,0.7377451338004445,0.1379976809343787,2060.895536111111
128,256,5272.953654783435,2191440,218701,50651136,46865584,0.6267307267788973,0.2623253838467444,0.22237464555139644,128,0,1,1,9267.67316930826,0.8931649112933326,0.0793866972045621,2060.895536111111
128,512,1507.3992874458982,2360973,177016,50126848,47401144,0.766235730755427,0.0721565915457781,0.6639622786741348,128,0,1,1,3103.934669641941,0.9329693586845992,0.0482094143509052,2060.895536111111
1536,1024,624.3687328270871,2299265,192084,59961344,47381368,1.0529051175656177,0.1416958309211967,1.0,1536,0,1,1,1276.7798179753966,0.8723628770023408,0.0651093135817128,2060.895536111111
1536,128,2929.2838545386926,2499459,262900,64552960,61225144,0.5136274408262314,0.1633969622147324,0.16453590565870627,1536,0,1,1,12525.506380266857,0.9102843909514576,0.0684147952500915,2060.895536111111
1536,1536,378.07481896638177,1896185,172311,75304960,61969856,1.1211932034522865,0.1787068982099031,1.0,1536,0,1,1,824.3839111691096,0.7804311789118596,0.1279035418812199,2060.895536111111
1536,2048,211.52452385457187,1595622,193586,81596416,61797048,1.2897424218856268,0.3209873935192119,1.0,1536,0,1,1,514.7060960201844,0.7735824287927907,0.1226170781668781,2060.895536111111
1536,256,3623.087072104161,2490011,190988,64552960,60980584,0.8350030300866217,0.5391836908536419,0.26730290902227805,1536,0,1,1,7709.962991608701,0.9290090381082566,0.0542785066676583,2060.895536111111
1536,512,1603.778598710093,2343782,215414,64552960,61245992,0.7604045157889641,0.1166361342937313,0.6633224421573523,1536,0,1,1,3106.9287048518536,0.9331290155581888,0.0458808081392598,2060.895536111111
2048,1024,584.0212707354219,2264655,191136,70979584,63382008,1.0597494676532058,0.137806182432091,1.0,2048,0,1,1,1328.7158699945405,0.8057965157189901,0.0932730659305238,2060.895536111111
2048,128,1252.6766995495498,2382876,212840,64552960,61405896,0.5762613261161629,0.0958352874899343,0.20860727624560887,2048,0,1,1,9879.308014571196,0.9327156222751976,0.0439112497477123,2060.895536111111
2048,1536,389.8730309473047,1923136,137583,79753216,47355576,1.1600171655683378,0.1980834258186717,1.0,2048,0,1,1,798.3235406872539,0.7948255114208225,0.1121111081559626,2060.895536111111
2048,2048,206.00957793162925,1640604,186426,80285696,62038720,1.3090120986057512,0.2812013262320207,1.0,2048,0,1,1,528.4448664921865,0.7642553505119236,0.1119807032371881,2060.895536111111
2048,256,3730.727792192647,2413081,199863,64290816,61838456,0.6123475286967519,0.2545324221748247,0.2784291458055224,2048,0,1,1,7401.867107513983,0.933720265415069,0.0438843653983516,2060.895536111111
2048,512,1739.3375752714278,2532131,229417,64552960,61586896,0.7533551888104033,0.059572056689807,0.661235344929081,2048,0,1,1,3116.7352923823923,0.9260205948074408,0.0635247498962097,2060.895536111111
256,1024,582.119556837239,2231411,212896,72814592,62526400,1.0715555174819629,0.2037218844820503,1.0,256,0,1,1,1316.77684570251,0.8224543414169091,0.0852521040009864,2060.895536111111
256,128,1884.0685646866416,2269943,214899,64290816,61645976,0.805206484991024,0.2730332577053869,0.27184123256957776,256,0,1,1,7581.247026547471,0.9281634823515196,0.0488266266709201,2060.895536111111
256,1536,386.5708698127164,2030070,143910,81596416,62550944,1.1741609480966957,0.1986311468166667,1.0,256,0,1,1,835.8122123302296,0.7815295984427921,0.1181760006859339,2060.895536111111
256,2048,231.47547031760703,1774393,154672,83169280,61891888,1.3117861385877854,0.3823477982123091,1.0,256,0,1,1,519.3032316533591,0.7950036036081544,0.1123727330147813,2060.895536111111
256,256,4345.749924896019,2415369,218938,54321152,46570448,0.4302649021982265,0.0655598016298038,0.2158107102726009,256,0,1,1,9549.551704398242,0.9283669663533533,0.0423029728759603,2060.895536111111
256,512,1528.2745391854316,2161795,192792,64290816,61904144,0.755102324167259,0.0628032535900867,0.6613949095197689,256,0,1,1,3115.983365531953,0.9305311853111232,0.0457155358666134,2060.895536111111
512,1024,564.6683614519276,1968229,149136,67833856,61789096,1.030697244501115,0.1398340156232607,1.0,512,0,1,1,1313.8778731156353,0.842064437011061,0.1048666211430969,2060.895536111111
512,128,2701.6551936894434,2214708,257357,64552960,61710104,0.512360915786064,0.1733217186240749,0.1689187511403352,512,0,1,1,12200.513691928432,0.9224212596657478,0.0538664158561357,2060.895536111111
512,1536,374.8048239419974,2101566,138645,62451712,47455536,1.1231197956625005,0.16874744073433,1.0,512,0,1,1,846.3813474506798,0.7866705123113791,0.1205044813399618,2060.895536111111
512,2048,223.832387758276,1702132,172467,79228928,47519432,1.2847319688569112,0.2890459950565694,1.0,512,0,1,1,507.76234570358554,0.7991285521114774,0.1054061973824637,2060.895536111111
512,256,3367.002258706154,2332421,252364,64028672,61314904,0.5633459042363302,0.1585897537449964,0.29412521552475096,512,0,1,1,7006.86451664558,0.9280020939290844,0.0441836166913931,2060.895536111111
512,512,1588.5826511650885,2347448,194915,52486144,46958192,0.7722898520624156,0.0698813594750189,0.6669348546661706,512,0,1,1,3090.100212475291,0.9253891227459008,0.0467169883425458,2060.895536111111
