cpu,memory,duration_std,userDiff,sysDiff,heapTotal,heapUsed,avg_cpu_util,cpu_util_std,slo_preservation,total_cpu_shares,cpu_shares_others,num_containers,arrival_rate,latency,memory_util,memory_util_std,slo_duration
1024,1024,148.31858739257055,6774,24,34762752,26828976,0.06577707043601018,0.0495713048054898,0.9647748481796546,1024,0,1,1,315.68888817219477,0.669990767578618,0.0565872778637106,304.5686991583332
1024,128,131.75982743821234,21634,236,18841600,14195016,0.06910926457307817,0.0364866270570775,0.9720418227555127,1024,0,1,1,313.32880132148193,0.8102308069525476,0.0269703534165001,304.5686991583332
1024,1536,103.2183113735545,3891,3985,42758144,27009040,0.07174038505751089,0.0775787846261165,1.0,1024,0,1,1,279.0889421120689,0.5150034147902156,0.0516131963783893,304.5686991583332
1024,2048,148.48293589468457,8690,23,43020288,26815408,0.05519791355750861,0.0293576737188542,0.9671489106930955,1024,0,1,1,314.9139659786906,0.5089451389467761,0.0505017036292287,304.5686991583332
1024,256,147.45052356755872,19094,3778,18841600,14194840,0.07076716980438817,0.0572779394157171,1.0,1024,0,1,1,295.1314711893797,0.8429646245338498,0.0327945504949502,304.5686991583332
1024,512,120.4426081159738,18146,3671,18841600,14198848,0.05502953568743837,0.0259385689564215,0.9680845907614375,1024,0,1,1,314.6095930715906,0.80880230367595,0.0236122654486142,304.5686991583332
128,1024,135.081809226375,8987,948,34238464,26850856,0.07956616630215994,0.0786608794071298,0.8997661944278744,128,0,1,1,338.4976019820308,0.6488413879694597,0.0612991364150968,304.5686991583332
128,128,128.79101269119724,8098,48,28332032,23875664,0.0675845469629818,0.0415793556524417,1.0,128,0,1,1,302.2396433955233,0.8733172531974358,0.0165886812180911,304.5686991583332
128,1536,130.73801104318773,7710,32,42233856,26923160,0.062015232774624965,0.0531038319826264,0.893971773059297,128,0,1,1,340.6916284571898,0.5072679096935174,0.0537996762555758,304.5686991583332
128,2048,151.24669599511188,5550,3485,42496000,26821976,0.053430030927799105,0.0485108137686184,0.859028120515395,128,0,1,1,354.55032482009983,0.5130433149874977,0.0523768559847409,304.5686991583332
128,256,138.17489320424718,9948,338,28332032,23865768,0.08312490066894115,0.0695240993217908,1.0,128,0,1,1,299.9074760933555,0.8408899169864895,0.043233027779474,304.5686991583332
128,512,120.8070361710564,18283,3602,19103744,14200000,0.048580220538200165,0.023231846794633,0.8478767312603255,128,0,1,1,359.2134185657004,0.8028100054314524,0.0210922035825066,304.5686991583332
1536,1024,157.82002415965357,14468,9932,25530368,14211776,0.08815563353214975,0.0723735388258031,0.9455761602808296,1536,0,1,1,322.0985383851877,0.6444244906062516,0.0544855766984289,304.5686991583332
1536,128,160.3818944928909,7474,0,18841600,14158736,0.061172012757828624,0.0251609391388637,1.0,1536,0,1,1,300.133760167672,0.8484619582887717,0.0356731295106967,304.5686991583332
1536,1536,136.09771028525742,161,9340,42758144,26825264,0.06321148073465117,0.0466877303596228,0.9699197414791719,1536,0,1,1,314.0143314268993,0.5092512264112989,0.0535459600425962,304.5686991583332
1536,2048,148.98425850591943,596,7124,42758144,26776264,0.06351635981797728,0.0288072234170718,1.0,1536,0,1,1,283.7178579082814,0.5133082303643123,0.0480715396813594,304.5686991583332
1536,256,129.4478206625922,3724,3897,18841600,14215704,0.07324227703614464,0.0372981378937736,1.0,1536,0,1,1,250.31339750093701,0.8154333249354131,0.0222391373758104,304.5686991583332
1536,512,139.6481760213467,7774,21,28069888,23863352,0.0598912547219544,0.0521631826996637,0.9541392971705409,1536,0,1,1,319.20779288885655,0.845340563369669,0.0370723034187763,304.5686991583332
2048,1024,144.1082999219975,3987,2992,34238464,26814744,0.06179719687680368,0.0376504318081827,1.0,2048,0,1,1,290.25200934422213,0.6638940425374094,0.059468247404176,304.5686991583332
2048,128,150.7089403418262,22444,3755,18841600,14108344,0.06390550450146516,0.0311320453013082,0.9331387383829066,2048,0,1,1,326.3916571357213,0.8220165981675912,0.0397420177904421,304.5686991583332
2048,1536,136.89260243211675,3722,4852,42496000,26722304,0.04650956707470388,0.0212860734892893,0.9172611120312578,2048,0,1,1,332.04143854291544,0.5141056470233922,0.0527230802751354,304.5686991583332
2048,2048,138.98759888755504,6928,24,42758144,26846496,0.05112632891724015,0.0388133329643314,0.8639580344039175,2048,0,1,1,352.5271911713495,0.5130570205838775,0.050509729833111,304.5686991583332
2048,256,152.00430324892596,19709,3929,28594176,23723856,0.0955716000950676,0.0746450097086545,1.0,2048,0,1,1,278.21571377280975,0.8405397714617715,0.0385792157745565,304.5686991583332
2048,512,127.07849610342085,19119,3822,18841600,14111048,0.08632318386236704,0.0509517555937579,1.0,2048,0,1,1,268.31972543206194,0.8279326412334733,0.04197263667871,304.5686991583332
256,1024,156.52295045684133,6940,679,33714176,26849328,0.0955201075816705,0.1522728006760047,0.8907625147289517,256,0,1,1,341.9190795775794,0.6448016891144048,0.066222992047648,304.5686991583332
256,128,123.67612627437369,9494,331,27807744,23894144,0.07221654278147462,0.0588076650743833,0.9578592017395701,256,0,1,1,317.96812997693746,0.8572567582350606,0.0365694730480115,304.5686991583332
256,1536,129.30086959320494,3789,3937,42758144,26753424,0.0606863016742199,0.0369031570409715,0.9831647909253034,256,0,1,1,309.78397718218633,0.5147909809542607,0.0510336445090736,304.5686991583332
256,2048,147.78612796751875,4280,3305,42496000,26812040,0.05443131144519736,0.0508086298351593,0.9445573072900821,256,0,1,1,322.44597210531913,0.5363901692528493,0.0634860064628887,304.5686991583332
256,256,151.53552789222226,17051,7389,19103744,14196288,0.06780276204062848,0.0397594913977207,0.9808268178272561,256,0,1,1,310.5224017355264,0.8024532748225252,0.0230676744453419,304.5686991583332
256,512,157.32315999320954,6265,2852,28332032,23732272,0.06918726211363392,0.0437293584500401,0.9622256491690356,256,0,1,1,316.5252344097815,0.8391839676553461,0.04521069504038,304.5686991583332
512,1024,143.03440043408648,18013,8223,25530368,14209608,0.07925539112075021,0.0504057911134719,1.0,512,0,1,1,276.288911895771,0.6460182064470181,0.0525809081978238,304.5686991583332
512,128,90.55029207151156,16572,3483,18841600,14192480,0.059865953797543635,0.0327945499168127,0.8737282822387864,512,0,1,1,348.58514408841785,0.8534140235284993,0.0363686842034368,304.5686991583332
512,1536,118.5755526469434,3855,5109,43020288,27030184,0.06770837599465765,0.0637937051606388,1.0,512,0,1,1,293.7547337606124,0.5108509911963489,0.0530664714000066,304.5686991583332
512,2048,138.4717838652738,570,8144,42496000,26782800,0.05209012854707425,0.0290094734919582,0.8987580782973015,512,0,1,1,338.87728690610385,0.510428388172849,0.0514557039915216,304.5686991583332
512,256,120.5354597908128,18027,4400,18841600,14193408,0.0708081120580998,0.0488982293396238,1.0,512,0,1,1,296.4381098332271,0.8041835401596137,0.0237052638768323,304.5686991583332
512,512,133.21022832968552,14057,9191,19103744,14196304,0.05812506579108386,0.0406208000474025,0.8572776329482876,512,0,1,1,355.27428624363193,0.80507141121379,0.0223515584831674,304.5686991583332
