cpu,memory,duration_std,userDiff,sysDiff,heapTotal,heapUsed,avg_cpu_util,cpu_util_std,slo_preservation,total_cpu_shares,cpu_shares_others,num_containers,arrival_rate,latency,memory_util,memory_util_std,slo_duration
1024,1024,77.31425597606044,236648,14162,44937216,31081968,1.0712794736957216,0.4303393063328418,0.5344235010567192,1024,0,1,1,710.7399821200473,0.8084890312060604,0.0816016742197436,379.8361495855857
1024,128,1060.9884928601837,321967,53045,32743424,29749992,0.7275440044037456,0.3205725459717856,0.1502866296627795,1024,0,1,1,2527.4114566138096,0.8892253139988058,0.0510417524429244,379.8361495855857
1024,1536,41.87211092494619,291964,45223,49524736,31563416,1.1827826563063526,0.4458855438818057,0.8774481205312474,1024,0,1,1,432.8873020499667,0.7381674091928921,0.1158143660140792,379.8361495855857
1024,2048,31.37585469064414,250884,43627,50311168,30444312,1.1353603032067525,0.2692226891598306,0.8893297530486963,1024,0,1,1,427.10383666292034,0.6731586066748779,0.1240635570725231,379.8361495855857
1024,256,217.96139121902584,260629,32807,32481280,30101976,0.7024480566842766,0.0683489103406353,0.2798101425563847,1024,0,1,1,1357.4781318337834,0.9134119111755076,0.0192869707607931,379.8361495855857
1024,512,77.67976281868697,261729,38789,32219136,30379160,0.9391822708943045,0.1043077824589329,0.4312120073558125,1024,0,1,1,880.8570798265498,0.8916659069889212,0.0615353882554903,379.8361495855857
128,1024,67.28767822673623,381616,31486,39956480,30372320,1.0856648622425018,0.2585610945346126,0.654528112853251,128,0,1,1,580.3206036938358,0.764241131086475,0.1188611386427993,379.8361495855857
128,128,961.5901045014851,356763,51944,32219136,30366456,0.5033597724709504,0.1532676971705696,0.14192318597120376,128,0,1,1,2676.3502171002174,0.9118403475242904,0.0211029305406707,379.8361495855857
128,1536,30.37643346575757,227285,23920,50049024,31010352,1.1883294073207258,0.4808244664189054,0.8493406442923376,128,0,1,1,447.21296706819146,0.724052712063362,0.1143842207353415,379.8361495855857
128,2048,32.75177350224378,291742,35559,50311168,30490648,1.129901867008079,0.2876305847492704,0.85849794012228,128,0,1,1,442.4427035101375,0.6783544423397523,0.1237116312385454,379.8361495855857
128,256,170.27770335042422,312006,30667,32743424,30231280,0.7427992047222632,0.0991823673773681,0.27496386950166574,128,0,1,1,1381.403855982921,0.9083883129775836,0.0478944010093259,379.8361495855857
128,512,123.03480040795765,299782,55011,32481280,30110584,0.9307884551126945,0.1855678502381961,0.396467829788739,128,0,1,1,958.0503663764708,0.9004860367577538,0.0527101115864609,379.8361495855857
1536,1024,58.12918666939493,328504,36000,39694336,30331456,1.107872951849245,0.3056466064686021,0.6764542250567771,1536,0,1,1,561.5104991822687,0.7983112113326389,0.1105099891136819,379.8361495855857
1536,128,406.790603316298,374253,37901,33529856,30621848,0.8363751470891642,0.2997742947628291,0.23351212041606123,1536,0,1,1,1626.6228447106344,0.9083076303396374,0.0374024912965463,379.8361495855857
1536,1536,38.34819192184663,299367,43356,50311168,30286984,1.1729329295025541,0.2655611123094827,0.9073566443211026,1536,0,1,1,418.61835912358873,0.6625963421515109,0.1148083016203071,379.8361495855857
1536,2048,32.77553886875747,260002,56417,50311168,30441688,1.1299478474680738,0.269060274663475,0.8404845268058883,1536,0,1,1,451.92521393473515,0.7238914909633613,0.0977727787399889,379.8361495855857
1536,256,189.93534674941523,437745,27355,32743424,29956008,0.691100195708226,0.0666534836822999,0.2706000358041167,1536,0,1,1,1403.681076600239,0.8989338168930849,0.0477833330254906,379.8361495855857
1536,512,75.91562096267664,255818,53061,33267712,29866248,0.9265232036326289,0.1511863734917657,0.39610926558203835,1536,0,1,1,958.917608320671,0.8644182142495197,0.0649306418946445,379.8361495855857
2048,1024,50.21566954386622,339558,50540,39956480,31555312,1.0735556919694356,0.1932480732826942,0.6201299065189537,2048,0,1,1,612.5106136515226,0.7854703929115832,0.0797921939737212,379.8361495855857
2048,128,706.0895673761274,244823,87345,33267712,30079680,0.7724700370397177,0.351099038713293,0.16770015846096484,2048,0,1,1,2264.9719181630903,0.8984274473323924,0.0605468593152428,379.8361495855857
2048,1536,37.34960537172254,285232,49332,51097600,30515672,1.1859853236638718,0.405442499405543,0.9409047245826595,2048,0,1,1,403.69246711356766,0.6811435111844986,0.1378909125493228,379.8361495855857
2048,2048,33.16241595439028,293651,37256,50573312,30506288,1.1360001085986566,0.3013063309077837,0.8839793668069275,2048,0,1,1,429.6889314935185,0.7574175304326053,0.1037311271936172,379.8361495855857
2048,256,197.83497667716009,330423,45790,32743424,30563448,0.7492640102238091,0.1956052099053005,0.2859096738166615,2048,0,1,1,1328.5180054073799,0.8917561310776145,0.0504008998862989,379.8361495855857
2048,512,100.30223794003284,329254,36328,32743424,30394744,0.9570297553463258,0.1230147678860868,0.4078865113196784,2048,0,1,1,931.229984430379,0.892639416065521,0.0460531093680054,379.8361495855857
256,1024,69.4671954449449,344643,45391,39956480,31735432,1.057998544262295,0.200330050784588,0.634251593355031,256,0,1,1,598.8729923031777,0.8177135635659075,0.084960040606774,379.8361495855857
256,128,862.2157429511662,423907,80071,32743424,30167000,0.6835030777593265,0.1880425048501072,0.16598607597055556,256,0,1,1,2288.361522884397,0.9108241696560307,0.0384098570798556,379.8361495855857
256,1536,35.0855591419865,228959,29038,49000448,30683592,1.176710225941561,0.3052625549009939,0.976252730105993,256,0,1,1,389.0756336674689,0.6999125644447812,0.1204213710736339,379.8361495855857
256,2048,30.86483616736622,287578,34568,50573312,30613880,1.1351670668864768,0.2571764271248647,0.8269626916457539,256,0,1,1,459.3147350210766,0.7002550151204778,0.1124343258796827,379.8361495855857
256,256,166.13391268995446,341089,46918,33529856,29883208,0.7095925615513355,0.0653665999158539,0.282331854557238,256,0,1,1,1345.353503171851,0.8881976254455125,0.0614175942649181,379.8361495855857
256,512,85.83590311107628,294272,33099,32743424,30462408,0.9311617901816668,0.1094093603707892,0.421133650468248,256,0,1,1,901.9373046139992,0.8827162731807039,0.0659590045222809,379.8361495855857
512,1024,50.35511455728731,294543,21589,40480768,32064768,1.0714413589511156,0.2774204037884368,0.6392313325522603,512,0,1,1,594.2076526020918,0.7981758354267304,0.0885260747873991,379.8361495855857
512,128,2106.5803600096774,330090,33542,32743424,30227824,0.45953984916962143,0.2372963593720012,0.07686515752545157,512,0,1,1,4941.590726068758,0.9188621376140128,0.0156440738223012,379.8361495855857
512,1536,35.22447994449524,271519,33996,51097600,30379432,1.1861477240057268,0.2990845676679222,0.9624848303566595,512,0,1,1,394.6411804171845,0.6704115461180085,0.1365524960040995,379.8361495855857
512,2048,24.1808816702656,246051,40004,50311168,30597400,1.1381885256809228,0.4300368955992206,0.8908240022959566,512,0,1,1,426.38742176526307,0.7221159121110816,0.1216793206477396,379.8361495855857
512,256,158.4552434225131,273249,32774,32743424,29847472,0.7223983798294449,0.0901292187402073,0.27699363339361815,512,0,1,1,1371.2811552091687,0.926285748933941,0.0117205331143546,379.8361495855857
512,512,98.3583614121007,377800,38064,32481280,29731800,0.9302918843396233,0.1219486598891262,0.4318159348224154,512,0,1,1,879.6251341252461,0.8843851863305575,0.0552439632465871,379.8361495855857
