cpu,memory,duration_std,userDiff,sysDiff,heapTotal,heapUsed,avg_cpu_util,cpu_util_std,slo_preservation,total_cpu_shares,cpu_shares_others,num_containers,arrival_rate,latency,memory_util,memory_util_std,slo_duration
1024,1024,634.9602740623747,2364865,148930,59437056,47095776,1.0104017395037888,0.1512152295922343,0.5827161403876423,1024,0,1,1,586.3520210961925,0.855080100933146,0.0831235873045271,341.6767866416667
1024,128,992.0826182335744,2276111,205609,49864704,46836728,0.9701800942775641,0.2634705179082116,0.353990769770512,1024,0,1,1,965.213829906276,0.9251465544771118,0.0465725321824675,341.6767866416667
1024,1536,401.2804518437229,1989120,159752,68218880,47054704,1.252313983306406,0.3157312981957705,0.995776939424794,1024,0,1,1,343.1258277973727,0.8081821991725434,0.0753709135520206,341.6767866416667
1024,2048,227.5392540878277,1694913,131250,55627776,32696928,1.4836117433438896,0.2171354795186097,1.0,1024,0,1,1,181.97625839380515,0.7844121053239548,0.0928644464910813,341.6767866416667
1024,256,362.79833276095457,1812609,99416,51175424,46676376,1.2370429209051619,0.2310362843489731,1.0,1024,0,1,1,340.96228585134054,0.9393651238608562,0.0284061603483591,341.6767866416667
1024,512,394.4991110009686,1863932,162332,50126848,47200096,1.2951518742713062,0.1646274040212567,0.9800960204266018,1024,0,1,1,348.61562491902237,0.9243219539684994,0.0589181918725592,341.6767866416667
128,1024,569.0916190354098,1991522,165530,54194176,47369480,1.0800673674426156,0.2433241834658004,0.5839009713805684,128,0,1,1,585.1622165207402,0.8268237933338366,0.0848065415553143,341.6767866416667
128,128,638.5948575066909,2229282,239728,51961856,46703120,1.0528448656254945,0.1682467147699695,0.5424392094173223,128,0,1,1,629.8895446896055,0.9216122640525862,0.0571931798429682,341.6767866416667
128,1536,379.1248885320118,1773276,166971,62189568,50599344,1.1776391278135123,0.19370723374021,1.0,128,0,1,1,333.14964928611255,0.7882688229089257,0.0578006175861019,341.6767866416667
128,2048,234.13969169664543,1737901,148481,55889920,32723080,1.5070117685338456,0.3157626845997945,1.0,128,0,1,1,184.4531945122775,0.7809540776370685,0.0958322695264659,341.6767866416667
128,256,388.8636466690324,1960023,138192,51175424,46681576,1.0521376278402557,0.2266529101884599,0.825319096917109,128,0,1,1,413.993554635975,0.9455226340733368,0.0255781595696331,341.6767866416667
128,512,367.6230208290992,2014394,94745,50651136,46874256,1.1370691846434149,0.2086551053316113,0.912164364664669,128,0,1,1,374.5780912711651,0.9302366303459824,0.0561575586505637,341.6767866416667
1536,1024,589.9084376248591,2147619,149054,58126336,48906696,1.0102508056837087,0.1838889939820201,0.6157722770530188,1536,0,1,1,554.8752345215565,0.8351852355352125,0.0859272542731302,341.6767866416667
1536,128,627.1609413035333,2183725,181616,51175424,46678304,1.114877070695898,0.1796428073028703,0.567358231102878,1536,0,1,1,602.2240762727405,0.9322284891949932,0.0465832680630712,341.6767866416667
1536,1536,395.8939224706818,2004538,103427,75296768,50530968,1.210781804082062,0.1892130096642385,1.0,1536,0,1,1,329.046646411556,0.8013951050695682,0.0705200660174505,341.6767866416667
1536,2048,224.84960700643268,1717997,117602,61927424,50413680,1.4016386818810267,0.1768483007323627,1.0,1536,0,1,1,181.39446965885838,0.7899288539927074,0.0796006244869425,341.6767866416667
1536,256,391.6469912879409,1805449,185823,50913280,47155720,1.2932632463793348,0.2844620656188243,0.9453503865488131,1536,0,1,1,361.4287268544151,0.9205476065196034,0.0607253182612069,341.6767866416667
1536,512,348.0497235968595,1724634,193994,50651136,46616584,1.2986224619227544,0.1499393037885932,0.9570115447861487,1536,0,1,1,357.0247281792373,0.931822494694095,0.0474251083406009,341.6767866416667
2048,1024,611.2565314912755,1953425,202372,57864192,46943680,1.0468592147521119,0.1837836338960006,0.572195107390333,2048,0,1,1,597.1333592836645,0.8446718071816777,0.076284283155894,341.6767866416667
2048,128,581.3348319194199,2101694,175926,49864704,46668296,1.1555599896037325,0.1218417115675412,0.5842607415763419,2048,0,1,1,584.8018912238035,0.9353655019795888,0.0453212440789404,341.6767866416667
2048,1536,390.197867408138,2080943,115993,68218880,47060472,1.1249563130575122,0.1787840735534173,0.9993781222251723,2048,0,1,1,341.8894000610138,0.7968426237081879,0.0741235416742336,341.6767866416667
2048,2048,206.8444803782751,1541351,109844,62189568,50098400,1.4831312232446687,0.3076130392368272,1.0,2048,0,1,1,180.3456778492383,0.7963707291275142,0.0823449318912884,341.6767866416667
2048,256,399.43118402048935,2047276,160136,50651136,46514760,1.2373332252750622,0.179218141223145,0.8396687402295884,2048,0,1,1,406.9185504610341,0.9303978757719444,0.0484408411322396,341.6767866416667
2048,512,379.93813918719536,1914400,114006,50913280,46609176,1.341104143575393,0.1935019666888137,0.8967400481774879,2048,0,1,1,381.0209963702213,0.9019724153712844,0.0776393593664388,341.6767866416667
256,1024,404.76628282291256,1928334,131647,54980608,47490024,1.3081604909931657,0.2505733072143299,0.9577826148930539,256,0,1,1,356.73730273316596,0.8360425431288355,0.0863044969050486,341.6767866416667
256,128,561.9554503763562,2171663,193013,51437568,46599256,1.1713040803382462,0.2021833041119062,0.6091092044269757,256,0,1,1,560.9450393433175,0.9199405847690044,0.0540344658670554,341.6767866416667
256,1536,386.4855105342915,1672436,163494,76083200,48723680,1.1805480525945582,0.2849888544032563,0.9837220960623101,256,0,1,1,347.33060079604485,0.7657097744999295,0.0827596342178009,341.6767866416667
256,2048,231.83718322098923,1726737,141013,63238144,51708624,1.54594594878529,0.3348929481026633,1.0,256,0,1,1,190.41202761531477,0.7920722818597781,0.099038705519453,341.6767866416667
256,256,544.3472728772277,1965072,126488,50126848,47401768,0.8961557690743897,0.18832500832596,0.5355074578591704,256,0,1,1,638.0430031873095,0.9218526762658128,0.051519708617302,341.6767866416667
256,512,615.5010157412677,1972315,145811,49864704,46713824,0.9933892118884293,0.1432567960342078,0.5597606356153948,256,0,1,1,610.3980253381536,0.926428996337428,0.0533897142180684,341.6767866416667
512,1024,598.2647634102519,1971541,155959,58388480,46872232,0.9995835026913718,0.1379988165047587,0.6014551286737251,512,0,1,1,568.0835865430256,0.86814480750486,0.0656655590621133,341.6767866416667
512,128,814.4384624853657,2182309,242650,49340416,46953056,0.9553862246250721,0.2076860402361222,0.38016193700045264,512,0,1,1,898.766429215821,0.9230844239818076,0.0660314094201054,341.6767866416667
512,1536,386.22718545901495,1983402,182573,63238144,51370024,1.211622599655761,0.2363528172626835,1.0,512,0,1,1,333.4992644450282,0.8073421560508944,0.07519856193432,341.6767866416667
512,2048,228.6376909839993,1668566,154617,63238144,51255872,1.4548869249006808,0.2666593865505475,1.0,512,0,1,1,183.77736318072726,0.7906560722588656,0.0891094159534057,341.6767866416667
512,256,618.9635118957408,2036743,201554,51175424,46765080,1.0525933600983586,0.225683593225947,0.5377053226690617,512,0,1,1,635.4350091712901,0.9352501769078728,0.0390977310374858,341.6767866416667
512,512,594.7634539881733,2073207,190850,51175424,47405984,1.0620749550183635,0.1110317590591465,0.5789371024686575,512,0,1,1,590.1794602292991,0.9379488797567964,0.0359305176113629,341.6767866416667
