cpu,memory,duration_std,userDiff,sysDiff,heapTotal,heapUsed,avg_cpu_util,cpu_util_std,slo_preservation,total_cpu_shares,cpu_shares_others,num_containers,arrival_rate,latency,memory_util,memory_util_std,slo_duration
1024,1024,118.8322863109428,343346,67941,45199360,30006848,0.9173097588238937,0.1072017443708642,1.0,1024,0,1,1,475.4939271374462,0.7407018428882755,0.1014913964631552,698.4702613928573
1024,128,750.8366844193896,495354,109279,32743424,29682416,0.4217308423636752,0.174105116893149,0.36600415272777514,1024,0,1,1,1908.3670395192544,0.8989038107481597,0.0519804624072652,698.4702613928573
1024,1536,72.47216266073683,395328,49682,60018688,44594272,1.1565594216662785,0.1329949473890877,1.0,1024,0,1,1,298.50355275699286,0.643615667332212,0.1505905157476815,698.4702613928573
1024,2048,53.89068202807961,382245,70372,57921536,45092016,1.4160366100680175,0.2836608038105043,1.0,1024,0,1,1,216.93255648247117,0.6630746472241389,0.1557968740255025,698.4702613928573
1024,256,292.65878932772745,542355,46200,34054144,30229824,0.4724527017241458,0.1100009262053938,0.5511690533234711,1024,0,1,1,1267.2523197396167,0.8863523201338572,0.0604204310166981,698.4702613928573
1024,512,167.81821525432886,410585,45290,32743424,30051096,0.5182551779238004,0.0778545565686306,0.6606208139206081,1024,0,1,1,1057.293755623022,0.8782968377370182,0.0687117839405156,698.4702613928573
128,1024,109.28005006579988,443228,38947,47820800,30344088,0.8634920432343504,0.1162186254232463,1.0,128,0,1,1,495.07985460657477,0.769983393227601,0.0997112160340664,698.4702613928573
128,128,1205.9643364474705,505836,94618,34840576,29686408,0.39629184705355186,0.3798875495394713,0.273862675899257,128,0,1,1,2550.439774603664,0.8306797794013666,0.0597034796041183,698.4702613928573
128,1536,51.62592331714511,323202,67815,62640128,44904384,1.4594075127867596,0.2149981884086522,1.0,128,0,1,1,202.5369347700308,0.7162101753981037,0.1470852857320181,698.4702613928573
128,2048,34.17911664116146,311090,65775,58707968,45465208,1.632374332819979,0.303582368500882,1.0,128,0,1,1,153.62905760035758,0.697151387585953,0.1537478196610061,698.4702613928573
128,256,414.295634210028,503367,74550,35889152,29763584,0.35299834517104556,0.0726989382742236,0.39148278330408487,128,0,1,1,1784.1659740380446,0.8581438712856114,0.0791513198661952,698.4702613928573
128,512,429.2352661904356,476997,63582,35364864,30024496,0.9275219266311516,0.5503489388615312,0.8626306674768902,128,0,1,1,809.697924878806,0.8875546644843575,0.0621351608030555,698.4702613928573
1536,1024,85.24295479531686,357238,74441,45461504,30016352,0.8988602964026549,0.1020068621662971,1.0,1536,0,1,1,455.13971245733677,0.7492639602841273,0.1005409094059706,698.4702613928573
1536,128,1298.247461938793,502368,70423,33005568,29684880,0.45654469360369093,0.3264227097329316,0.30438276176668927,1536,0,1,1,2294.7103092790708,0.8601278287383247,0.0741773579304757,698.4702613928573
1536,1536,63.52857420016136,294606,46317,45068288,30186848,1.3640593042141307,0.2131305352361939,1.0,1536,0,1,1,232.05711388368687,0.7448748429644058,0.1204400941201649,698.4702613928573
1536,2048,34.925719149795775,319815,69138,58970112,45810896,1.6212115911664187,0.2467427994601797,1.0,1536,0,1,1,160.47980724128814,0.6661535327690697,0.1686240885794215,698.4702613928573
1536,256,373.7309559715635,448629,35165,32743424,30063144,0.5632828987193564,0.2260885976072502,0.6047144770555142,1536,0,1,1,1155.0414086228932,0.8930789268053443,0.0568178159874373,698.4702613928573
1536,512,235.4303449518774,385286,52430,32481280,29755096,0.5822662604288102,0.1586991284744627,0.7370282978811641,1536,0,1,1,947.684455808339,0.8874096761226111,0.0870080964891141,698.4702613928573
2048,1024,80.61907784050803,331339,46913,44937216,30223920,0.8249083358529413,0.1233134226617046,1.0,2048,0,1,1,489.8627031213803,0.744652335799607,0.0989790880885409,698.4702613928573
2048,128,867.5145110394961,408508,75270,46907392,44228776,0.6058803825275165,0.3850633106663113,0.42090460717258016,2048,0,1,1,1659.450263765987,0.8559929137873321,0.1118083212303859,698.4702613928573
2048,1536,65.8675226731082,396279,29686,58970112,45029768,1.4386824328345162,0.2286049012618886,1.0,2048,0,1,1,223.9527759815236,0.7232392355831001,0.1329686593387652,698.4702613928573
2048,2048,32.92540720483561,317726,42395,59232256,44561584,1.6570357018217698,0.1893427199202602,1.0,2048,0,1,1,158.8607344042427,0.706671119498363,0.1469376384651204,698.4702613928573
2048,256,321.8620038038206,426001,53792,31956992,29637016,0.5191860359952012,0.1609563445567043,0.6102802717783863,2048,0,1,1,1144.5073578365577,0.8885525308203747,0.0624560860345719,698.4702613928573
2048,512,272.45299861928135,454468,47221,37986304,29990232,0.5612934755869564,0.2189300504523637,0.670429250623732,2048,0,1,1,1041.8254584552171,0.8750352397592343,0.061620985295447,698.4702613928573
256,1024,138.74119370769466,485667,63291,53858304,44300984,0.8794581135913181,0.1599085767093768,1.0,256,0,1,1,470.72753639567077,0.7803589839377894,0.1159386372333278,698.4702613928573
256,128,2138.0115579682515,461255,70851,32743424,30045752,0.17369595717415823,0.0647705092519049,0.16226266039560006,256,0,1,1,4304.565570969753,0.854431584823264,0.0474918676667295,698.4702613928573
256,1536,111.19859718270094,321041,70259,44806144,31120424,1.0604925911118959,0.1971516892496199,1.0,256,0,1,1,347.1163031590547,0.7241142916263843,0.135940635996392,698.4702613928573
256,2048,50.12141547202931,296797,76513,59232256,44598112,1.3788804331894822,0.1843195313362062,1.0,256,0,1,1,224.69916451797724,0.6669528892018375,0.1204500601877169,698.4702613928573
256,256,498.8555532636328,365806,64805,32219136,29852128,0.39542986562446647,0.0874574635832792,0.4525486280353599,256,0,1,1,1543.4148246678196,0.8846203365157007,0.0690175668578155,698.4702613928573
256,512,150.16359097904729,423403,45301,32743424,29661864,0.4747817969080597,0.0384533765584963,0.6204909941080784,256,0,1,1,1125.6734876496794,0.8609331593758709,0.0751017977655436,698.4702613928573
512,1024,102.94055275316715,440941,64826,49655808,30015776,0.89931266717396,0.1453734422043673,1.0,512,0,1,1,456.74207552518783,0.7348334916262738,0.0944234474606138,698.4702613928573
512,128,650.0046089845164,595759,91412,41656320,29717816,0.3015549873046633,0.0668628567789772,0.297819026800114,512,0,1,1,2345.2842113463985,0.8432640783737774,0.0648028563265135,698.4702613928573
512,1536,88.30695083263467,346591,51814,44806144,31714864,1.1891261375696944,0.1653557100517668,1.0,512,0,1,1,290.42556858769467,0.7110135990073716,0.1248439644744278,698.4702613928573
512,2048,62.31416692072787,350971,51871,56610816,45220504,1.3105734438214722,0.1904429401704826,1.0,512,0,1,1,229.8412079574889,0.7358346464207002,0.1447977371949705,698.4702613928573
512,256,384.503916552238,384154,61628,33005568,29743120,0.373536795299686,0.073303866027693,0.4392325442388724,512,0,1,1,1590.2060777468278,0.8641127727685379,0.0626885177035625,698.4702613928573
512,512,169.19448015760432,354109,65849,33792000,29583392,0.4918722205655917,0.0659540093981511,0.6472439925063433,512,0,1,1,1079.1452210906568,0.8865375165802881,0.051318907120967,698.4702613928573
