cpu,memory,duration_std,userDiff,sysDiff,heapTotal,heapUsed,avg_cpu_util,cpu_util_std,slo_preservation,total_cpu_shares,cpu_shares_others,num_containers,arrival_rate,latency,memory_util,memory_util_std,slo_duration
1024,1024,118.8322863109428,343346,67941,45199360,30006848,0.965197191976096,0.1072017443708642,0.6182483595058913,1024,0,1,1,1129.7567565744614,0.7407018428882755,0.1014913964631552,698.4702613928573
1024,128,750.8366844193896,495354,109279,32743424,29682416,0.6457978187574088,0.174105116893149,0.2241853426351247,1024,0,1,1,3115.5928981925467,0.8989038107481597,0.0519804624072652,698.4702613928573
1024,1536,72.47216266073683,395328,49682,60018688,44594272,1.0572463000861025,0.1329949473890877,0.8555918322825101,1024,0,1,1,816.3591972699286,0.643615667332212,0.1505905157476815,698.4702613928573
1024,2048,53.89068202807961,382245,70372,57921536,45092016,1.1331719900494868,0.2836608038105043,1.0,1024,0,1,1,677.7092193247121,0.6630746472241389,0.1557968740255025,698.4702613928573
1024,256,292.65878932772745,542355,46200,34054144,30229824,0.6912543069587175,0.1100009262053938,0.3225702641401461,1024,0,1,1,2165.327493080376,0.8863523201338572,0.0604204310166981,698.4702613928573
1024,512,167.81821525432886,410585,45290,32743424,30051096,0.7289583138468791,0.0778545565686306,0.3716817931559765,1024,0,1,1,1879.2157007802205,0.8782968377370182,0.0687117839405156,698.4702613928573
128,1024,109.28005006579988,443228,38947,47820800,30344088,0.940525578215138,0.1162186254232463,0.6146741191017115,128,0,1,1,1136.3261274341694,0.769983393227601,0.0997112160340664,698.4702613928573
128,128,1205.9643364474705,505836,94618,34840576,29686408,0.6213661241061064,0.3798875495394713,0.1717612822227481,128,0,1,1,4066.5175082184596,0.8306797794013666,0.0597034796041183,698.4702613928573
128,1536,51.62592331714511,323202,67815,62640128,44904384,1.144055027877677,0.2149981884086522,1.0,128,0,1,1,645.9128211003081,0.7162101753981037,0.1470852857320181,698.4702613928573
128,2048,34.17911664116146,311090,65775,58707968,45465208,1.1833733668259019,0.303582368500882,1.0,128,0,1,1,529.7992532035763,0.697151387585953,0.1537478196610061,698.4702613928573
128,256,414.295634210028,503367,74550,35889152,29763584,0.5769841746602102,0.0726989382742236,0.25595516093305126,128,0,1,1,2728.8774285569193,0.8581438712856114,0.0791513198661952,698.4702613928573
128,512,429.2352661904356,476997,63582,35364864,30024496,0.9696907155261488,0.5503489388615312,0.3607396979686112,128,0,1,1,1936.2167937880595,0.8875546644843575,0.0621351608030555,698.4702613928573
1536,1024,85.24295479531686,357238,74441,45461504,30016352,0.956930496468293,0.1020068621662971,0.6535087069971618,1536,0,1,1,1068.800237723368,0.7492639602841273,0.1005409094059706,698.4702613928573
1536,128,1298.247461938793,502368,70423,33005568,29684880,0.6774395715599487,0.3264227097329316,0.18066220513381334,1536,0,1,1,3866.167031867637,0.8601278287383247,0.0741773579304757,698.4702613928573
1536,1536,63.52857420016136,294606,46317,45068288,30186848,1.1195169640264906,0.2131305352361939,0.988121732865282,1536,0,1,1,706.8666118368686,0.7448748429644058,0.1204400941201649,698.4702613928573
1536,2048,34.925719149795775,319815,69138,58970112,45810896,1.1810153400250665,0.2467427994601797,1.0,1536,0,1,1,550.7373927128815,0.6661535327690697,0.1686240885794215,698.4702613928573
1536,256,373.7309559715635,448629,35165,32743424,30063144,0.7632872579651514,0.2260885976072502,0.3277719640293938,1536,0,1,1,2130.964017807881,0.8930789268053443,0.0568178159874373,698.4702613928573
1536,512,235.4303449518774,385286,52430,32481280,29755096,0.7770183220633138,0.1586991284744627,0.3934176030814827,1536,0,1,1,1775.3914820333894,0.8874096761226111,0.0870080964891141,698.4702613928573
2048,1024,80.61907784050803,331339,46913,44937216,30223920,0.9217419332578921,0.1233134226617046,0.6372901263313044,2048,0,1,1,1096.0004439638024,0.744652335799607,0.0989790880885409,698.4702613928573
2048,128,867.5145110394961,408508,75270,46907392,44228776,0.7935271534245419,0.3850633106663113,0.22050506629682057,2048,0,1,1,3167.5928046598738,0.8559929137873321,0.1118083212303859,698.4702613928573
2048,1536,65.8675226731082,396279,29686,58970112,45029768,1.1389104330926885,0.2286049012618886,0.9875886542613027,2048,0,1,1,707.2481628652363,0.7232392355831001,0.1329686593387652,698.4702613928573
2048,2048,32.92540720483561,317726,42395,59232256,44561584,1.1885025410975703,0.1893427199202602,1.0,2048,0,1,1,553.7175971924269,0.706671119498363,0.1469376384651204,698.4702613928573
2048,256,321.8620038038206,426001,53792,31956992,29637016,0.7296943861996115,0.1609563445567043,0.3430894187833493,2048,0,1,1,2035.8257152603132,0.8885525308203747,0.0624560860345719,698.4702613928573
2048,512,272.45299861928135,454468,47221,37986304,29990232,0.761823689375941,0.2189300504523637,0.3639799195183006,2048,0,1,1,1918.9802072521718,0.8750352397592343,0.061620985295447,698.4702613928573
256,1024,138.74119370769466,485667,63291,53858304,44300984,0.9480240801829856,0.1599085767093768,0.6397974663721994,256,0,1,1,1091.7052631567085,0.7803589839377894,0.1159386372333278,698.4702613928573
256,128,2138.0115579682515,461255,70851,32743424,30045752,0.3444861227095269,0.0647705092519049,0.1287243195514723,256,0,1,1,5426.09402657253,0.854431584823264,0.0474918676667295,698.4702613928573
256,1536,111.19859718270094,321041,70259,44806144,31120424,1.0233495515210722,0.1971516892496199,0.7766927732605194,256,0,1,1,899.2877047905471,0.7241142916263843,0.135940635996392,698.4702613928573
256,2048,50.12141547202931,296797,76513,59232256,44598112,1.1234813686164538,0.1843195313362062,1.0,256,0,1,1,689.4490864797721,0.6669528892018375,0.1204500601877169,698.4702613928573
256,256,498.8555532636328,365806,64805,32219136,29852128,0.6205177740474197,0.0874574635832792,0.2840599476453307,256,0,1,1,2458.883299749628,0.8846203365157007,0.0690175668578155,698.4702613928573
256,512,150.16359097904729,423403,45301,32743424,29661864,0.6932446098955763,0.0384533765584963,0.3623997718155745,256,0,1,1,1927.3474094467956,0.8609331593758709,0.0751017977655436,698.4702613928573
512,1024,102.94055275316715,440941,64826,49655808,30015776,0.9571355208206568,0.1453734422043673,0.6510279189876469,512,0,1,1,1072.8729767518782,0.7348334916262738,0.0944234474606138,698.4702613928573
512,128,650.0046089845164,595759,91412,41656320,29717816,0.5190873840161546,0.0668628567789772,0.20506256708096907,512,0,1,1,3406.1324372139843,0.8432640783737774,0.0648028563265135,698.4702613928573
512,1536,88.30695083263467,346591,51814,44806144,31714864,1.067940823687487,0.1653557100517668,0.8639573948298268,512,0,1,1,808.4545205269463,0.7110135990073716,0.1248439644744278,698.4702613928573
512,2048,62.31416692072787,350971,51871,56610816,45220504,1.1047161452214989,0.1904429401704826,1.0,512,0,1,1,681.676883124889,0.7358346464207002,0.1447977371949705,698.4702613928573
512,256,384.503916552238,384154,61628,33005568,29743120,0.5984995707691796,0.073303866027693,0.28150425072198054,512,0,1,1,2481.2068009682775,0.8641127727685379,0.0626885177035625,698.4702613928573
512,512,169.19448015760432,354109,65849,33792000,29583392,0.7076042447176304,0.0659540093981511,0.37244843462705846,512,0,1,1,1875.3475554065687,0.8865375165802881,0.051318907120967,698.4702613928573
