cpu,memory,duration_std,userDiff,sysDiff,heapTotal,heapUsed,avg_cpu_util,cpu_util_std,slo_preservation,total_cpu_shares,cpu_shares_others,num_containers,arrival_rate,latency,memory_util,memory_util_std,slo_duration
1024,1024,137.02830840741592,51574,3850,30351360,24923264,0.380031626357268,0.2323994565922821,1.0,1024,0,1,1,319.5881244115271,0.6713549526531769,0.071343839988682,337.5959452
1024,128,147.27855309005972,71466,11905,24969216,21124728,0.2765324935806721,0.1463046348395379,0.7604318364227044,1024,0,1,1,443.9529344117823,0.8661793453131874,0.0155895456820302,337.5959452
1024,1536,147.15623873705633,87929,8704,34312192,15057600,0.24750786013782122,0.0970984132281618,0.7918100211599867,1024,0,1,1,426.3597784547212,0.5409024977645942,0.0548480847010753,337.5959452
1024,2048,148.34259793006808,70504,9245,34574336,15064736,0.2458648073826541,0.1286194291930423,0.9041673654649328,1024,0,1,1,373.37771533747457,0.5457682831566165,0.0513654437530775,337.5959452
1024,256,122.55914203579796,44422,4094,24707072,20776584,0.24254227433612532,0.1476152083386323,0.7758519871534307,1024,0,1,1,435.1293169185862,0.8668519726962843,0.0144425836972863,337.5959452
1024,512,133.87756967040193,65180,20,24969216,21186448,0.2682577998380712,0.1711493616359744,0.9033639448219132,1024,0,1,1,373.7097845614735,0.8643298390435321,0.0125463033724997,337.5959452
128,1024,171.77525057350155,78720,555,26054656,15186920,0.3238461661282463,0.1757352645240882,0.9476079251369273,128,0,1,1,356.26120914007566,0.6647307589892032,0.0549874853538799,337.5959452
128,128,137.51384674804575,17725,4265,24969216,21150016,0.30790144342191605,0.1566466743792216,1.0,128,0,1,1,327.53545363168234,0.8620742400201534,0.0143831719767291,337.5959452
128,1536,124.0777179458972,89920,9260,34312192,15061768,0.26554189120098814,0.1198078211977892,0.9099087086331926,128,0,1,1,371.02177613742737,0.5453026953218952,0.0513738897226313,337.5959452
128,2048,153.33936840679618,79279,29,38871040,24728248,0.17715079641814105,0.1541998238691067,0.805076092490443,128,0,1,1,419.3342074730751,0.5522574631708093,0.0594908583552075,337.5959452
128,256,153.25324356400824,23139,17,24969216,21103808,0.29282232969758104,0.1517716301115682,1.0,128,0,1,1,317.23595590756406,0.8681427732960827,0.0150954034777158,337.5959452
128,512,133.89751760015687,66229,4312,24969216,21257128,0.25697321246417754,0.151680140092928,0.8188887225785384,128,0,1,1,412.2610751519071,0.8653729817017931,0.014776936767405,337.5959452
1536,1024,122.07950902982464,99450,4129,30351360,25116912,0.35439363395906603,0.2205562158411428,0.9344770715690413,1536,0,1,1,361.26723219988355,0.6689190723065493,0.0627601323324487,337.5959452
1536,128,118.70297742043996,103420,3832,24707072,20528536,0.29019525425638437,0.1192718353507129,0.9542062586003314,1536,0,1,1,353.79766392980855,0.8622900092033386,0.0132668776888347,337.5959452
1536,1536,143.8371224504231,80593,6798,34574336,15264080,0.27171111605209486,0.1025185778212116,0.8391193389744642,1536,0,1,1,402.321731271973,0.547805771309679,0.0551540719340774,337.5959452
1536,2048,154.43670874670556,86631,2113,34574336,15062872,0.22348876387846067,0.1032822566468612,0.9795424104565027,1536,0,1,1,344.6465835437058,0.5459852880471803,0.0514479121016445,337.5959452
1536,256,143.5554397177068,24014,3365,24969216,21109784,0.23394112485140292,0.1554570902525927,0.8274123715396854,1536,0,1,1,408.01413758388287,0.8661719392683584,0.0144389777483226,337.5959452
1536,512,155.2588651892034,76863,8703,24969216,21044264,0.27796283016010126,0.1382301408988163,0.9385863880288826,1536,0,1,1,359.68553295236086,0.8649748419139616,0.0146779467645791,337.5959452
2048,1024,135.97192627616627,31078,11153,25530368,15157256,0.3102487004163284,0.1363413951356969,0.9747576698184562,2048,0,1,1,346.3383317238997,0.672416107491896,0.0631955547275048,337.5959452
2048,128,138.1800087135598,114771,22,24707072,20807824,0.31019987073861965,0.1312223577935078,0.8966936206712152,2048,0,1,1,376.48973675902187,0.8683691854788081,0.0161149450757952,337.5959452
2048,1536,135.8592693111384,84995,8695,34574336,15281592,0.26706551952873947,0.1316313112044296,1.0,2048,0,1,1,334.12224366335386,0.6052808734547716,0.0905761776746015,337.5959452
2048,2048,114.43170849263169,74552,17366,34574336,15066704,0.27688605918992654,0.1490561935587511,1.0,2048,0,1,1,329.264274627918,0.5450511153706611,0.0516467208755898,337.5959452
2048,256,141.69026186583903,31652,15,24707072,21321624,0.30195920555664724,0.1188830724296646,1.0,2048,0,1,1,322.6288143021168,0.8669947998299856,0.0121442352090126,337.5959452
2048,512,119.0260251211799,79647,11380,25231360,21065752,0.26510555357424403,0.1636946319724207,0.9206252835467786,2048,0,1,1,366.7028825228285,0.8685315141708294,0.0151380914699635,337.5959452
256,1024,164.93379283688142,26014,430,30351360,25095240,0.2780642563031533,0.1373359540686584,0.8261816220647951,256,0,1,1,408.62194968254005,0.673537760821583,0.0699475676358201,337.5959452
256,128,126.1083090068377,76974,22,24707072,21187056,0.2800379578633557,0.1311445527058808,0.8921114973589479,256,0,1,1,378.42348876730784,0.8626981743393467,0.0145305945296137,337.5959452
256,1536,129.0211785695328,27119,8014,34312192,15277016,0.2762119725561379,0.0982534676791358,0.8016968287542722,256,0,1,1,421.10175953243845,0.5462032874216181,0.0515957415139266,337.5959452
256,2048,155.02224132948763,118537,9717,34312192,15063592,0.2987031892320188,0.164230985900083,1.0,256,0,1,1,335.4636310559189,0.549398394599797,0.0520968534407761,337.5959452
256,256,155.58349971387003,41286,94,24969216,21189752,0.23519917907436663,0.0789528954909883,0.8048946551872006,256,0,1,1,419.4287327221507,0.8682157441379067,0.0162774782856996,337.5959452
256,512,125.3910502112722,22670,7734,25231360,21076520,0.27637800350634917,0.163814400377177,0.959040189694258,256,0,1,1,352.01438774700944,0.8638369328323217,0.0153517548496485,337.5959452
512,1024,163.34699018297312,39648,8602,26054656,15178904,0.27399480653577335,0.1722285454229677,0.8194769877464259,512,0,1,1,411.965131721873,0.6642357463785876,0.0544949095382599,337.5959452
512,128,169.8051090182426,32605,4091,24707072,20677336,0.34643187421587085,0.1639704894564763,0.9234422142361376,512,0,1,1,365.5842672075113,0.8628408405690241,0.0149185253822847,337.5959452
512,1536,158.19778000062863,31398,1270,34574336,15272728,0.2899719123182244,0.1607332431208045,0.9611558880178982,512,0,1,1,351.2395329504692,0.5509462388088262,0.0560175918972473,337.5959452
512,2048,161.27352890049488,34347,21,38871040,24687344,0.2159391470963059,0.1087313072165735,0.9813600867137371,512,0,1,1,344.00822875373046,0.5413572079899849,0.0511049109901839,337.5959452
512,256,111.031488284999,59585,7927,24969216,21064736,0.27309400778514487,0.136249121665456,0.8348367190713145,512,0,1,1,404.3855971926427,0.8630123160095895,0.0157157781458458,337.5959452
512,512,156.73763474045967,35061,4429,24969216,21175960,0.22012057585970396,0.1213432848631808,0.7858990579346112,512,0,1,1,429.56654775388324,0.8668076500253855,0.0136763366396631,337.5959452
