cpu,memory,duration_std,userDiff,sysDiff,heapTotal,heapUsed,avg_cpu_util,cpu_util_std,slo_preservation,total_cpu_shares,cpu_shares_others,num_containers,arrival_rate,latency,memory_util,memory_util_std,slo_duration
1024,1024,91.57150775918704,309799,44052,39956480,30449624,1.0184757492955219,0.1374699036964797,0.2699891271063227,1024,0,1,1,680.0925155812812,0.7816790894230212,0.1019734864003651,183.6175846333333
1024,128,257.76567313286176,336040,48086,32743424,29833992,1.0389003249278985,0.2564859362658693,0.1990082799060562,1024,0,1,1,922.6630405529447,0.8789841474582474,0.0557057897264392,183.6175846333333
1024,1536,58.65317122206069,319101,14583,38244352,15465728,1.0604177017052296,0.15433555103772,0.3571926627835906,1024,0,1,1,514.0575486696943,0.7343289608395559,0.1283266442049223,183.6175846333333
1024,2048,37.55585028191097,283762,49104,50049024,29817792,1.119480953678775,0.1478915652864973,0.4649942998265001,1024,0,1,1,394.8813667217968,0.740362053906022,0.1208514619038327,183.6175846333333
1024,256,66.2342759432724,327811,41364,33267712,29815896,1.0163134773683553,0.1254226571470953,0.23126047834972438,1024,0,1,1,793.9860106821064,0.8882540206149996,0.0569274563396816,183.6175846333333
1024,512,64.54221511367696,324136,49979,32743424,29583056,1.033831302502629,0.1158768627124699,0.2429650640804891,1024,0,1,1,755.7365719563071,0.88705105494156,0.0571066381324786,183.6175846333333
128,1024,100.22331612852592,317145,42695,38383616,31499768,0.9889608306649764,0.2409221400762454,0.24999877651229985,128,0,1,1,734.4739330126257,0.7927825267494527,0.0989330336855266,183.6175846333333
128,128,128.25492421552622,303818,30646,32743424,30346728,0.938215815196621,0.1234459177373237,0.201601343234515,128,0,1,1,910.7954425667597,0.8766352854484474,0.0539902090294902,183.6175846333333
128,1536,59.42304420794007,309600,31658,50573312,29814192,1.0455487150313658,0.1203064289394992,0.36112729557845596,128,0,1,1,508.45667686020107,0.7528756748178772,0.1151283077934935,183.6175846333333
128,2048,31.50797166063988,235713,42394,36409344,15470240,1.1208069382751946,0.1470862322751915,0.5089832116951387,128,0,1,1,360.75371527836,0.7382437167833629,0.1102652369561322,183.6175846333333
128,256,43.129536006899166,294454,26831,32481280,29640976,1.0661367996282631,0.1726346640564547,0.2804201935474075,128,0,1,1,654.7944436900589,0.8698701557993413,0.0653285834408603,183.6175846333333
128,512,56.73407582494248,331410,41487,33005568,29636872,1.0304783399625457,0.1335772185608727,0.2448844807470771,128,0,1,1,749.8130713435377,0.8796699571057622,0.0833541639461222,183.6175846333333
1536,1024,79.50800224420483,298253,42409,37072896,30028688,0.9974048769025424,0.1172401332052562,0.2746198468381306,1536,0,1,1,668.6245977755685,0.7925672297117495,0.1134051302133573,183.6175846333333
1536,128,79.71125854301643,306397,46077,32743424,29787400,1.0213198307215543,0.1913392791859544,0.2309055393865023,1536,0,1,1,795.206494920783,0.8732003120472516,0.0760207365708589,183.6175846333333
1536,1536,75.70540680842205,315603,38365,49786880,29819872,1.0492309776976734,0.165008979410434,0.3198503665812391,1536,0,1,1,574.0733912421391,0.7354266907913897,0.0978627657147104,183.6175846333333
1536,2048,45.68307426965924,309513,41726,50049024,30321352,1.1287688141367072,0.158509757248179,0.47764304303159316,1536,0,1,1,384.4242835987211,0.743009456802832,0.1043401987260665,183.6175846333333
1536,256,59.59537453835591,333175,40227,33267712,29661352,1.088104568409618,0.1674714921049842,0.2764758348977809,1536,0,1,1,664.1361068724893,0.8792448515518936,0.0706337093592399,183.6175846333333
1536,512,57.81826815213388,285739,26383,33005568,29663416,1.0946690492446853,0.1707725772596556,0.2853514850004225,1536,0,1,1,643.4786369976713,0.8667928486739747,0.056310508319822,183.6175846333333
2048,1024,75.11196307068492,333572,36178,39432192,29641976,1.0282720893599404,0.1961970653308996,0.2867463677872732,2048,0,1,1,640.3484237664436,0.780874932462246,0.0982249181884372,183.6175846333333
2048,128,254.03827459642537,303533,51054,33005568,29564280,1.0308426832977993,0.3168804796136268,0.18815290013753252,2048,0,1,1,975.8955854473459,0.8696552584575492,0.0688770239190096,183.6175846333333
2048,1536,72.90658652859854,379174,40036,50049024,29885888,1.064024993301072,0.1347591217099509,0.3461168949012503,2048,0,1,1,530.5074306925143,0.7181505820191757,0.1114067780680697,183.6175846333333
2048,2048,42.83848349688745,360700,40396,50049024,30999240,1.1239874489878263,0.1465513483229497,0.4556482549131655,2048,0,1,1,402.98098950982694,0.7245994286875884,0.1157937800022946,183.6175846333333
2048,256,41.69700011124627,256598,16249,32743424,29613944,1.0448865498264932,0.1036382194656354,0.26435423201400954,2048,0,1,1,694.589162558224,0.8894770195799699,0.0477243981294878,183.6175846333333
2048,512,34.32913972793531,287964,35353,32743424,29885848,1.0929268533165315,0.1051291196081738,0.2962765112950448,2048,0,1,1,619.7507316078766,0.872146395438816,0.0435670391306995,183.6175846333333
256,1024,72.91033452003573,353058,21603,36548608,30187608,1.0840210237250212,0.1717069318851357,0.32137115169224517,256,0,1,1,571.3567744536421,0.7544913457257191,0.1289842157770483,183.6175846333333
256,128,82.65085284613613,274548,37026,32481280,29929880,1.04297084666182,0.194525731537193,0.2623948088169331,256,0,1,1,699.7759805585144,0.88530888933691,0.0652337994962591,183.6175846333333
256,1536,60.73477002241353,261778,34782,67960832,52041752,1.0908946967733084,0.1698838763049657,0.3966354269590487,256,0,1,1,462.93793280420016,0.7366545997186413,0.1260690249945737,183.6175846333333
256,2048,37.48788123603018,352973,33869,49786880,30312560,1.1300881650253214,0.1933335668691629,0.4381430375500892,256,0,1,1,419.0813704584815,0.7203130988699363,0.1010183530963288,183.6175846333333
256,256,29.25316856672607,259862,32505,32743424,30072912,1.0518428561617275,0.0886570201315521,0.26164027210159163,256,0,1,1,701.7940440072501,0.8469364787546235,0.0690421376985713,183.6175846333333
256,512,56.06914860279191,265147,33179,32743424,29671136,1.025987533521489,0.1129344170453828,0.2538081006409639,256,0,1,1,723.4504500432716,0.8943918130453271,0.0606958699232664,183.6175846333333
512,1024,94.92510053896322,259527,49030,38121472,30866392,1.0167290169729781,0.1530229947624355,0.26195542347467693,512,0,1,1,700.9497348738172,0.792383874356171,0.0906271352696901,183.6175846333333
512,128,97.95489618061325,395605,37270,33267712,30260088,1.0160247276993444,0.252621680994999,0.21386327588418744,512,0,1,1,858.5746378109678,0.860391305739105,0.074645250364256,183.6175846333333
512,1536,60.30727502778995,297306,27372,50573312,29815808,1.0744679188799617,0.129375286086139,0.35898942301035275,512,0,1,1,511.4846646276763,0.7383109947065858,0.096891515182962,183.6175846333333
512,2048,30.050780618317678,288672,37224,50049024,31037736,1.1319664327889924,0.1989328897048931,0.48770887511346667,512,0,1,1,376.4901440241665,0.7473801392988499,0.0968778724637881,183.6175846333333
512,256,48.05644276019007,311677,36543,33267712,29582896,1.0763686160642882,0.1538133366194352,0.31180968973188267,512,0,1,1,588.8770961262347,0.8780582233570324,0.080174059744792,183.6175846333333
512,512,47.0438174323428,281055,34595,33005568,30035720,1.1047141644826577,0.1696922178664922,0.3249368268024251,512,0,1,1,565.0870245771814,0.9036466751839238,0.0711507573378289,183.6175846333333
