cpu,memory,duration_std,userDiff,sysDiff,heapTotal,heapUsed,avg_cpu_util,cpu_util_std,slo_preservation,total_cpu_shares,cpu_shares_others,num_containers,arrival_rate,latency,memory_util,memory_util_std,slo_duration
1024,1024,259.59141549051026,251899,39353,25792512,14710392,0.4872270628249358,0.224636183551692,0.681190048067499,1024,0,1,1,637.3989745570134,0.6417394229773695,0.0829129173515181,434.1898381166666
1024,128,198.1160973249844,45367,14882,32120832,28677504,0.5472170070828055,0.1919670376734783,0.6718028219184332,1024,0,1,1,646.305469329189,0.8365831368972401,0.0524661906136047,434.1898381166666
1024,1536,163.408415740996,173304,32236,34312192,14573456,0.5056267759527135,0.1730436716459102,0.8433353684266446,1024,0,1,1,514.8483680065572,0.5029963651587936,0.0822590388683842,434.1898381166666
1024,2048,139.75621006755438,128027,16181,34836480,14572256,0.4255035777437731,0.1149578156118552,0.83872675304805,1024,0,1,1,517.6773443064266,0.5792544589358455,0.1042573202120097,434.1898381166666
1024,256,152.21859785260082,149094,16336,32247808,28556672,0.558875100292167,0.1802173122308586,0.7813930382293888,1024,0,1,1,555.6612573622701,0.8448531086088259,0.0528231073118626,434.1898381166666
1024,512,131.5672043110427,141329,11122,27058176,23523576,0.551128571361031,0.1763281138530597,0.8788099397658292,1024,0,1,1,494.06568868845784,0.8469242641822682,0.0414679139708439,434.1898381166666
128,1024,198.84026842198952,275096,59902,25530368,14752272,0.5421659395688514,0.1877636083824263,0.7653883813354148,128,0,1,1,567.2804143683393,0.6555791407818853,0.0755812813457467,434.1898381166666
128,128,157.0506681538785,111880,8694,32120832,28662088,0.5117064157221525,0.1135532414648172,0.6222838233657385,128,0,1,1,697.7360198249564,0.8332668711413513,0.046774532537994,434.1898381166666
128,1536,165.39357103807924,222782,27916,34312192,14477640,0.4843196073539244,0.1647744957396735,0.7568961318237747,128,0,1,1,573.6452068667163,0.5007400309865899,0.0963854114121583,434.1898381166666
128,2048,135.67055976822823,84185,12049,45379584,26029432,0.5014391407943501,0.182269566462053,0.8921781094466771,128,0,1,1,486.66273417753797,0.5466394353681585,0.1061384406960697,434.1898381166666
128,256,155.37049457216614,106752,47645,25538560,21591072,0.5384572514973713,0.2001370727536311,0.7475188653184668,128,0,1,1,580.8413115188577,0.8419973689224888,0.0439570529628503,434.1898381166666
128,512,105.72994862969456,197489,45617,29278208,24627304,0.54260087235001,0.1209567591713308,0.7198750513675428,128,0,1,1,603.1461116645708,0.8278173120036924,0.0480092300973039,434.1898381166666
1536,1024,166.32297315491405,217922,47140,26054656,14578992,0.5413225098208931,0.1898537548459535,0.7951336602521172,1536,0,1,1,546.0589330088173,0.6343552580071737,0.0743892844041204,434.1898381166666
1536,128,145.96739630207298,239097,37097,29540352,24647072,0.522131048934914,0.1841546969521486,0.7351235586423113,1536,0,1,1,590.6351837214486,0.8490386808414812,0.0450589460405372,434.1898381166666
1536,1536,128.82700230694238,111651,36471,54386688,37973688,0.5066142652581137,0.1993430731916211,0.8796077848838427,1536,0,1,1,493.6175481598356,0.554177856627552,0.1173126668707083,434.1898381166666
1536,2048,159.78043775555182,171996,43359,60428288,42001728,0.5528921160101733,0.1829754907510265,1.0,1536,0,1,1,433.0588254540582,0.5875838481707524,0.1302640373499515,434.1898381166666
1536,256,147.50934245145262,30034,8212,32382976,28663480,0.5170287231036053,0.1860691379129706,0.8077031303632723,1536,0,1,1,537.561167952123,0.8417102897056117,0.0482625157084099,434.1898381166666
1536,512,151.20856976842472,131728,38527,19103744,14259592,0.5672738545028722,0.2395709387407391,0.7672870409515858,1536,0,1,1,565.876673191543,0.8194387960675573,0.0473133299747144,434.1898381166666
2048,1024,121.43264968259626,154964,22695,25792512,14347208,0.511285147211326,0.1649223299336578,0.7748103708968959,2048,0,1,1,560.3820682137517,0.6768756874672859,0.0899322603898282,434.1898381166666
2048,128,167.67167788038668,43834,8716,32120832,28622728,0.4365889702412391,0.1338541488627126,0.728865497288685,2048,0,1,1,595.7063953936828,0.8499291263598445,0.0530770157357441,434.1898381166666
2048,1536,105.58805093773807,145940,19663,35098624,14573320,0.533479468998816,0.1457636568955476,0.9519369096214406,2048,0,1,1,456.1119899104785,0.5242250858968234,0.1081981682050565,434.1898381166666
2048,2048,129.5422509175429,93908,15089,35098624,14581440,0.4782241810496511,0.15334757379572,0.9877484620756725,2048,0,1,1,439.5753117187874,0.5649230322650267,0.1033772819303611,434.1898381166666
2048,256,147.8776433223789,104746,33822,19103744,14262016,0.4847965148729939,0.1556127851975784,0.7660281579110817,2048,0,1,1,566.806629276761,0.817584006214297,0.0463411959908691,434.1898381166666
2048,512,105.66762264623212,182882,24377,32210944,28074768,0.618709548788057,0.2171397614958268,0.8374689533570268,2048,0,1,1,518.4548470438215,0.8270075743127044,0.0447846062544388,434.1898381166666
256,1024,162.60551787977562,249099,43497,25530368,14690680,0.5149037163704193,0.183933580378317,0.7507609203836493,256,0,1,1,578.3330303004977,0.6605564669621012,0.0944737252627972,434.1898381166666
256,128,186.6544395948526,135882,31022,23744512,19291208,0.6090819986314038,0.1941353446661634,0.7766276590194947,256,0,1,1,559.0707890378749,0.8505112064726121,0.0478935828304269,434.1898381166666
256,1536,159.57892902431095,145432,31949,34836480,14579928,0.5483448250683726,0.2190291047687074,0.8461424568836357,256,0,1,1,513.1403519400254,0.5076225325074027,0.1020359511043334,434.1898381166666
256,2048,132.5276112843766,162394,27453,34574336,14573504,0.5088171497710603,0.1866570005609908,1.0,256,0,1,1,434.089007176097,0.536300495654517,0.1047107537060245,434.1898381166666
256,256,119.2567448998375,150620,25049,31948800,27989808,0.5475959792933297,0.1506880542340883,0.7721796806746112,256,0,1,1,562.2911985165663,0.8350269167817167,0.0437162479123659,434.1898381166666
256,512,154.64365626317831,88317,11442,32645120,28777920,0.6045661945364448,0.2425207545027628,0.8001541853903702,256,0,1,1,542.6327150995767,0.8461384373113077,0.0460951346076964,434.1898381166666
512,1024,114.56750815594324,93703,28180,26054656,14438944,0.44518530452518157,0.1140184055995846,0.7396107307017088,512,0,1,1,587.051836990963,0.6625571182702141,0.0803380396908612,434.1898381166666
512,128,159.14273647047122,183572,52177,19365888,14203448,0.5069792241314812,0.1734379704518321,0.6965181410472954,512,0,1,1,623.3719016475466,0.8363915931391894,0.0526841161284601,434.1898381166666
512,1536,133.18201537011683,179491,31146,64806912,45307464,0.5782993627105786,0.1810666696206395,0.8713727951884237,512,0,1,1,498.28252673734016,0.5025550887850085,0.0954562822755076,434.1898381166666
512,2048,157.27558952401088,148512,13341,35098624,14573136,0.5562070202361837,0.2531476962818353,0.9600666477013345,512,0,1,1,452.24968407790993,0.509945011825635,0.0954149089768742,434.1898381166666
512,256,137.6409556670471,51675,15892,32567296,28833032,0.5409547911790531,0.1890622335923862,0.7827674256459358,512,0,1,1,554.6856242240475,0.8255681341172683,0.0408203426946775,434.1898381166666
512,512,165.51483593018045,169841,24253,19103744,14249792,0.677028878520623,0.2050104196129208,0.8504910437208685,512,0,1,1,510.5166495547105,0.8419436193450599,0.0520886096813426,434.1898381166666
