cpu,memory,duration_std,userDiff,sysDiff,heapTotal,heapUsed,avg_cpu_util,cpu_util_std,slo_preservation,total_cpu_shares,cpu_shares_others,num_containers,arrival_rate,latency,memory_util,memory_util_std,slo_duration
1024,1024,66.63398171935123,309838,16497,39956480,29984056,1.006641569107096,0.1203155771048724,0.5203892907653587,1024,0,1,1,340.21133287832873,0.7914524058903242,0.0986013270183834,177.04233422689083
1024,128,372.3941453972623,285018,20162,33005568,30051784,0.8636447374647902,0.2536249384472951,0.25337621574841207,1024,0,1,1,698.733042894143,0.8705806586465169,0.0706673084083111,177.04233422689083
1024,1536,52.15165888108589,274061,27206,51097600,30310384,1.0453056431707635,0.1267986062042483,0.6355102008850787,1024,0,1,1,278.582993601555,0.7374520216439022,0.1206717848642964,177.04233422689083
1024,2048,27.469957055166567,246025,33839,50573312,30223752,1.2035749710489636,0.231743475150936,0.979774664430945,1024,0,1,1,180.69699151663343,0.7420284107156742,0.1045103943582227,177.04233422689083
1024,256,71.9559776646397,308529,42286,34054144,29963752,1.0247463752280874,0.1194060600459969,0.4422888736822014,1024,0,1,1,400.2866559878723,0.8987435694143849,0.0455582905618099,177.04233422689083
1024,512,37.577472878652216,238961,23878,32743424,29778904,0.9901606284126229,0.1212868557512999,0.45065579965907043,1024,0,1,1,392.854889165582,0.8698357244935329,0.0727190272619177,177.04233422689083
128,1024,87.19248780826234,218342,63589,37072896,30391616,1.0185769670307527,0.2036782085416037,0.4773549584898287,128,0,1,1,370.88194241657425,0.8147557179778337,0.0874099084543257,177.04233422689083
128,128,97.90932275448483,286495,42407,33267712,30053088,0.9040001604286969,0.1553403463598385,0.3619789619712588,128,0,1,1,489.0956459534464,0.8825448621284947,0.0511475419647331,177.04233422689083
128,1536,55.34586577155172,256835,25349,50573312,30047400,1.125556440589045,0.2585826824540107,0.7262086059936366,128,0,1,1,243.7899148615187,0.7196559248417289,0.1167716699255351,177.04233422689083
128,2048,29.0472045556867,275827,46679,50311168,31243144,1.196595686114322,0.1759051620665616,0.9866821120330259,128,0,1,1,179.43198935886346,0.7308166465944556,0.0967395664791074,177.04233422689083
128,256,56.97537868477195,278578,24870,33529856,29965056,1.0213510155446979,0.1564038885774089,0.3994022173799822,128,0,1,1,443.2682807528251,0.8543950076083299,0.0753657669812725,177.04233422689083
128,512,53.19011295470558,323659,14171,33529856,30019936,0.9867957442079273,0.1602032753231085,0.4004309942146611,128,0,1,1,442.1294474822367,0.8772293469895042,0.072011448992924,177.04233422689083
1536,1024,77.81178553819123,226214,44548,38383616,30543288,0.9704826951927323,0.1651163212822068,0.49749473282039874,1536,0,1,1,355.8677560729173,0.8230263705559414,0.0605061218942547,177.04233422689083
1536,128,420.2183190908,262230,27613,33267712,30086856,1.0979225476459138,0.4603878975832988,0.2736020276800552,1536,0,1,1,647.0797593427218,0.8596299611286898,0.0551732531738582,177.04233422689083
1536,1536,62.81448734168251,280299,26108,50835456,30046496,1.1398762059849228,0.2161930929578432,0.7123279656302198,1536,0,1,1,248.54047962339325,0.7250012049806543,0.1285288958322054,177.04233422689083
1536,2048,23.11354564928603,257381,10311,50311168,30051136,1.2185036082151224,0.2347589648066011,0.9615464804730662,1536,0,1,1,184.12249207109437,0.7143651433255097,0.1100979150810162,177.04233422689083
1536,256,47.78462467088283,243687,25696,33267712,30376192,1.1495278240776734,0.2232700963632746,0.529297131467855,1536,0,1,1,334.485723993845,0.9079714367826012,0.0481455450027849,177.04233422689083
1536,512,78.45310856140571,317514,44844,33792000,30548096,0.9995617497246859,0.1510959654486894,0.43214734896741136,1536,0,1,1,409.6804820159657,0.8930403255186187,0.0634224599622982,177.04233422689083
2048,1024,79.1890016865497,366288,39940,39432192,30359904,1.0203468474109574,0.1944418919239401,0.49874509540105283,2048,0,1,1,354.9755894532193,0.7979069201227269,0.0929822239074444,177.04233422689083
2048,128,66.28891365343492,263276,25479,33005568,30039600,0.9393500355790513,0.1446040148014903,0.36114585406604477,2048,0,1,1,490.22391433715336,0.8706891882093402,0.0675094356694473,177.04233422689083
2048,1536,61.18972179583284,235683,64703,51097600,30079672,1.125001495501775,0.2849175668977958,0.6631905353415164,2048,0,1,1,266.95545969413024,0.7054060487824407,0.1334883967160227,177.04233422689083
2048,2048,31.24615661801684,285180,37973,50573312,31073424,1.2009041865988994,0.220836162510467,0.9604507479727403,2048,0,1,1,184.33254865028817,0.732942638516935,0.1213748996113797,177.04233422689083
2048,256,30.1392393369695,256114,36420,33267712,29874624,1.0936698719156426,0.1651925902433605,0.4793515726105315,2048,0,1,1,369.33713028774395,0.8699633295441445,0.0680479841730433,177.04233422689083
2048,512,60.029003235666224,284787,44832,33792000,30173000,1.0066249020311007,0.1586886885152942,0.4147948493445994,2048,0,1,1,426.8190275424786,0.8759370553425292,0.0656138329723456,177.04233422689083
256,1024,80.76734322406051,241306,35349,37335040,30587640,1.0193194811162622,0.2076893060018865,0.47039746208359334,256,0,1,1,376.3675370243154,0.7814786892544526,0.0797094598272392,177.04233422689083
256,128,183.22107239382453,296521,16942,33267712,29805760,0.9992443773812202,0.3221629539711469,0.3373055967872649,256,0,1,1,524.8722105804535,0.8814051649554022,0.0524101707659603,177.04233422689083
256,1536,59.32674278923917,268884,26842,50573312,30246072,1.1007181124033607,0.2388108381277213,0.6658340936283318,256,0,1,1,265.89556756118253,0.7280286534984223,0.1138902927939192,177.04233422689083
256,2048,25.69756433106688,257258,33544,50311168,30111840,1.2136678367701856,0.1636589912098758,0.9031177868388274,256,0,1,1,196.03460014511512,0.7498388235116292,0.0965435496337142,177.04233422689083
256,256,73.85635526900236,265690,47304,33529856,29783128,0.9672609940058027,0.1477032770238854,0.4001475661511139,256,0,1,1,442.4426116839896,0.8917553847463292,0.0467001924198032,177.04233422689083
256,512,43.61176147297664,255346,42612,32481280,29870240,1.0399355126451406,0.1107357593739387,0.43749616249482537,256,0,1,1,404.6717420726744,0.861987124986374,0.0576640206585462,177.04233422689083
512,1024,78.6678255110985,346896,36909,40218624,29980208,1.008774110930046,0.1503948289369855,0.4732775127772092,512,0,1,1,374.0772156868391,0.79648144150732,0.0849651803509587,177.04233422689083
512,128,95.10626269718918,259527,33100,33005568,29760016,0.9191993785500078,0.1338110842586565,0.3544218848937462,512,0,1,1,499.52427254870895,0.8821475628856824,0.0575403424275883,177.04233422689083
512,1536,53.56609389514744,229500,81724,67379200,52423736,1.1001826534110593,0.2853959897587206,0.6828697254855524,512,0,1,1,259.2622393693108,0.7330330376115424,0.1233177182752498,177.04233422689083
512,2048,25.23206602647341,255068,33335,50573312,30086832,1.2194554413217469,0.2321737580633566,0.9469217367289124,512,0,1,1,186.96617403511462,0.7235983663485319,0.1214405046568451,177.04233422689083
512,256,49.92240791144111,241323,31256,32743424,30181392,0.9426793330602138,0.1480267842484011,0.39574436204370744,512,0,1,1,447.36539849261993,0.8718072075653046,0.0538206151676284,177.04233422689083
512,512,63.013736908473305,287681,5923,33267712,29871080,0.9802003942113038,0.1526170005657972,0.41069144100017557,512,0,1,1,431.083574071404,0.8577971423621815,0.0792420638093178,177.04233422689083
