cpu,memory,duration_std,userDiff,sysDiff,heapTotal,heapUsed,avg_cpu_util,cpu_util_std,slo_preservation,total_cpu_shares,cpu_shares_others,num_containers,arrival_rate,latency,memory_util,memory_util_std,slo_duration
1024,1024,79.44740866169337,256197,30333,38645760,30926448,1.0072472142426192,0.1655316443807855,0.4395509775524398,1024,0,1,1,351.97672221430196,0.7842969285306044,0.1142346475482988,154.71171232499998
1024,128,184.94659705106488,207975,40315,33005568,29928496,1.0108530545600884,0.2524363022495978,0.3160447840856031,1024,0,1,1,489.52465003534166,0.8636793997568584,0.0732118030084506,154.71171232499998
1024,1536,56.88804501887022,297860,17422,50049024,29854344,1.1041222519099603,0.2318189908866084,0.5694982074529347,1024,0,1,1,271.6632121055199,0.7603999691093597,0.0898506313501269,154.71171232499998
1024,2048,34.80792370969959,250235,22778,68530176,51363408,1.313797021699657,0.3492694183873986,0.8570087333072159,1024,0,1,1,180.525245907313,0.7709248380873116,0.1005537867486248,154.71171232499998
1024,256,41.78522715576862,243830,33570,32481280,29798384,1.0838795341223213,0.170472432618452,0.4172994055353318,1024,0,1,1,370.7451059666101,0.8589386932523759,0.0701228818602908,154.71171232499998
1024,512,55.01798994876541,271071,46539,33005568,29879904,0.9603000419443629,0.1072148367286208,0.3458428793313367,1024,0,1,1,447.3468201054895,0.8806252516467399,0.0549385356258864,154.71171232499998
128,1024,95.70156581984932,288605,27688,40218624,29748504,0.9994767392917324,0.1854607389254931,0.4070133582476797,128,0,1,1,380.1145814748746,0.7867436468358574,0.1041055445230672,154.71171232499998
128,128,81.82814552291006,253323,33713,32481280,29664576,1.0656229976367082,0.2178969524825103,0.35987971913753053,128,0,1,1,429.8983913174497,0.8702142273976878,0.0757313577017307,154.71171232499998
128,1536,71.41130819521157,221483,35110,36409344,15600208,1.1552176051842777,0.2346046711030149,0.6000738208477714,128,0,1,1,257.8211329173244,0.6964348281612585,0.1419038770256931,154.71171232499998
128,2048,34.641804841374395,228244,53052,49524736,29833248,1.3453078274269867,0.3030177098609076,0.8646531746341825,128,0,1,1,178.9292133119796,0.7469334397639665,0.1039370626649303,154.71171232499998
128,256,36.15858575403149,241103,14892,33005568,29722952,1.1098449551722132,0.1678149117925795,0.4213087415739146,128,0,1,1,367.2169529334517,0.8571684530339028,0.0721644089036732,154.71171232499998
128,512,65.0279500419443,230012,32859,33005568,30223712,1.0715803273019655,0.1825700165458957,0.3720413173587197,128,0,1,1,415.8455125988816,0.8792543616917321,0.0633328947420089,154.71171232499998
1536,1024,80.26766641632234,262201,37391,39432192,30716320,1.001674874400653,0.200608580406565,0.4119741385524689,1536,0,1,1,375.53743754062356,0.7516402043096365,0.1104245693269192,154.71171232499998
1536,128,98.04379502889184,310657,31436,33005568,29794816,1.0499176550049363,0.1496538014001127,0.3626068617099432,1536,0,1,1,426.6651535368823,0.8715049975633908,0.0519643835432243,154.71171232499998
1536,1536,66.64059842826603,297232,42037,50311168,30585032,1.1805321242493352,0.2373218293487392,0.5610762467414162,1536,0,1,1,275.7409767808298,0.7134480810475883,0.1207940080844856,154.71171232499998
1536,2048,37.586574392928384,246188,48489,50049024,29842336,1.3270372789805622,0.2828030902538038,0.856306500247582,1536,0,1,1,180.6732896226626,0.7270358349747525,0.1210845682937344,154.71171232499998
1536,256,44.80863494105265,260024,42804,32743424,29946176,1.1113633293626273,0.1655873381476701,0.43287378845987234,1536,0,1,1,357.4060533335847,0.8729632753571381,0.0773228147267548,154.71171232499998
1536,512,60.989504786598,254781,42647,32743424,30238280,0.9748266653151655,0.1388646565095842,0.3616683288708153,1536,0,1,1,427.77235376963745,0.913082778543051,0.0160651309465304,154.71171232499998
2048,1024,73.9037376178651,353779,21929,39694336,30393008,1.0435308060345898,0.2332081512756988,0.4572534201915885,2048,0,1,1,338.3500384976366,0.8069138837537082,0.0881515276497025,154.71171232499998
2048,128,307.8556016965085,307305,42235,32743424,30344016,0.9884472286866471,0.3359241002590775,0.24894559123681737,2048,0,1,1,621.4679744130337,0.8580206718136173,0.077454796522721,154.71171232499998
2048,1536,58.07755497837696,243827,32728,68530176,52081416,1.19263262249463,0.2171984062085062,0.6368597989528834,2048,0,1,1,242.92899721316212,0.7123059239463378,0.1377839870022413,154.71171232499998
2048,2048,49.30427949520886,266879,37170,68792320,51527984,1.1991066086362296,0.2548205055432252,0.7725322638311676,2048,0,1,1,200.26569706972307,0.7463492610264821,0.1156391905281417,154.71171232499998
2048,256,57.077955768953935,251434,37328,33005568,29696600,1.1892110238633296,0.2572503741586553,0.49788785973514654,2048,0,1,1,310.73606094211556,0.886428947407642,0.078393063357426,154.71171232499998
2048,512,104.95621753768027,275803,18141,32219136,29709976,1.054981138467994,0.2495830481847198,0.35185603863542075,2048,0,1,1,439.7017397371034,0.8863522512806004,0.0655447658346819,154.71171232499998
256,1024,93.330463597217,358562,42933,39432192,29731120,0.9909058214742273,0.1893620744316539,0.41043036884160133,256,0,1,1,376.9499629417246,0.7979454286320787,0.0906228594819984,154.71171232499998
256,128,101.51272236495952,237455,53183,33267712,30139832,1.0754227577722977,0.2709136423925266,0.36132270872601396,256,0,1,1,428.18153575372355,0.886481353045738,0.0582793439755254,154.71171232499998
256,1536,59.35343244977731,267568,21966,50311168,29972712,1.103244950771541,0.2572962720975525,0.536267630349095,256,0,1,1,288.4972046966308,0.7465063922083678,0.1094637702250093,154.71171232499998
256,2048,39.621775019048215,280901,44898,49786880,30505984,1.2942610793024565,0.3946084068444191,0.7869052689877645,256,0,1,1,196.60779819661568,0.7721758680367623,0.100832149374909,154.71171232499998
256,256,45.806546333413785,219346,23366,32743424,29656528,1.0970917706264498,0.2184883809001639,0.42712713443733247,256,0,1,1,362.21466596545406,0.9013729833625052,0.0411418303186038,154.71171232499998
256,512,45.95347833538037,223919,22208,33005568,29954600,1.1972280300043605,0.2007272108981607,0.49402588531316266,256,0,1,1,313.16519422242084,0.8838299065508034,0.0760079332239596,154.71171232499998
512,1024,86.86404230117628,249701,27257,37597184,30383096,1.0314702036195311,0.2104876153831486,0.39134812849026,512,0,1,1,395.3301448555426,0.7611028531787738,0.1097237520524885,154.71171232499998
512,128,172.80462064598666,282244,63245,32219136,30222568,1.0615240539539488,0.3243379475697349,0.3226084436107227,512,0,1,1,479.56498160253904,0.8728443169370103,0.0609511367666041,154.71171232499998
512,1536,53.561572316484266,255398,25137,68268032,52128072,1.1127904257656496,0.2048809563120555,0.581995747655839,512,0,1,1,265.829626673644,0.7502491761400921,0.1080398228936704,154.71171232499998
512,2048,34.43373895342512,244452,46996,49786880,29913728,1.282278739655215,0.3507605740948456,0.8507827557300512,512,0,1,1,181.84631891397805,0.7426208842716153,0.1012303150116947,154.71171232499998
512,256,49.800675276539536,232876,24904,33005568,29960920,1.0795369828672137,0.1736175070475941,0.3999594671470353,512,0,1,1,386.81847795372727,0.8904454586013417,0.0703384221818389,154.71171232499998
512,512,35.48980289900534,248492,22692,32481280,29923336,1.1288043558148653,0.1731724512434332,0.4475237952059254,512,0,1,1,345.70611436160686,0.8695153549636178,0.0575932631766598,154.71171232499998
