cpu,memory,duration_std,userDiff,sysDiff,heapTotal,heapUsed,avg_cpu_util,cpu_util_std,slo_preservation,total_cpu_shares,cpu_shares_others,num_containers,arrival_rate,latency,memory_util,memory_util_std,slo_duration
1024,1024,57.61349213056431,51341,12577,38834176,30657952,0.9484262001191271,0.1745425007031356,0.41678610131701543,1024,0,1,1,231.93093126476643,0.761552057638061,0.0525081926998325,96.66558861666668
1024,128,41.7356035811385,86110,13118,41943040,38210824,1.0492364281215107,0.1319037852037476,0.38956342508158254,1024,0,1,1,248.13825526978806,0.8832022759746707,0.0327482429048075,96.66558861666668
1024,1536,49.55238748811621,131820,42979,59904000,41553528,1.0064723378324334,0.1591619640524864,0.5166313948614553,1024,0,1,1,187.1074610992029,0.7074442699854976,0.0500672810603013,96.66558861666668
1024,2048,21.77388051377347,31317,11889,47304704,36563424,1.089012766620696,0.1740454453003145,0.6993784278569418,1024,0,1,1,138.21642871209588,0.6728940356214693,0.0678278737952404,96.66558861666668
1024,256,46.03637165024956,45103,15224,26537984,22301552,1.1062797151855979,0.1902709480014306,0.40941842253134353,1024,0,1,1,236.10463842590357,0.888763286149141,0.0304398210279213,96.66558861666668
1024,512,62.0422831451958,134538,30867,36589568,32864872,1.0369146686596984,0.1357833737807836,0.3811245720145764,1024,0,1,1,253.63252782601913,0.8925406372678388,0.0341491701023116,96.66558861666668
128,1024,54.1524841541967,92463,41022,41066496,29765664,0.94368822633689,0.1694847363793905,0.39684995307480114,128,0,1,1,243.58221002094072,0.7843966834162922,0.042630746475231,96.66558861666668
128,128,62.40995617410968,87764,11957,36057088,31907144,1.0413624639837165,0.1377385055399798,0.3855948969521908,128,0,1,1,250.69208482977427,0.8899530268100216,0.0157174897965527,96.66558861666668
128,1536,39.82743901505857,116107,42297,52584448,33012728,1.032680264658258,0.1966820349432561,0.5165691125390489,128,0,1,1,187.13002049529135,0.6611626362406562,0.0528754991558265,96.66558861666668
128,2048,27.125854014978103,153244,23493,59904000,41887648,1.0987760976310703,0.1833690814470844,0.6454301706402202,128,0,1,1,149.76924385295064,0.6770029504525807,0.0508054760609658,96.66558861666668
128,256,57.46995786292855,76676,25477,36319232,31976696,1.055114420412057,0.2170138612038194,0.389034813812479,128,0,1,1,248.47541964010716,0.8849393778021291,0.0362762760348697,96.66558861666668
128,512,60.14286369340808,46549,15757,26722304,22431160,1.0733582040169012,0.1615450419843673,0.3751124388090769,128,0,1,1,257.69763573707326,0.890721189706983,0.0271959767521389,96.66558861666668
1536,1024,34.328991792650015,34515,16743,38838272,30616672,1.0651544615824586,0.1894370007800455,0.5805670586883414,1536,0,1,1,166.50202103278215,0.7658435925020826,0.0527278169081369,96.66558861666668
1536,128,58.15090731754364,161289,41590,44433408,39822128,1.0344625761996642,0.1659619008397637,0.41451203462934055,1536,0,1,1,233.20333438112527,0.8851964431174517,0.0258353668112412,96.66558861666668
1536,1536,44.01782395370041,125513,38225,73543680,55562344,0.9922661556675677,0.2107928728428916,0.5434989213962453,1536,0,1,1,177.85792172012665,0.6866254328197001,0.066667859321761,96.66558861666668
1536,2048,24.069940212736636,92104,36947,61063168,42931840,1.0857497253770907,0.1630096766117264,0.8945009132750519,1536,0,1,1,108.06650634122136,0.652223500493058,0.0391265253513548,96.66558861666668
1536,256,46.49758227623205,135959,28696,36851712,32928176,1.0002130901183948,0.2132404020745735,0.3397478890941343,1536,0,1,1,284.5215282261355,0.8868241129785007,0.0286691441078918,96.66558861666668
1536,512,44.22628037941805,105728,16275,36503552,32204352,1.0327449259197419,0.1406554671417308,0.4086552493221549,1536,0,1,1,236.54556934484,0.8836584803117005,0.023971809997912,96.66558861666668
2048,1024,58.56802378333797,46434,11744,30760960,21475688,0.9530363577304576,0.1930002887732248,0.41842809814224313,2048,0,1,1,231.02078719342018,0.7748044026226275,0.054059133746596,96.66558861666668
2048,128,62.00593594476698,138042,13281,45772800,41021904,1.0409563840710345,0.1228027395107178,0.4055618711583327,2048,0,1,1,238.3497944236679,0.890978668917425,0.0250543521812796,96.66558861666668
2048,1536,48.819031867862414,93515,22442,42729472,26733520,1.0271790488006067,0.1709316601266742,0.49863386376643276,2048,0,1,1,193.86085791787744,0.6708215887913525,0.0526218693764701,96.66558861666668
2048,2048,24.513963011560424,95653,25406,61321216,43107880,1.1085627829251514,0.1769810506586066,0.6913116072980695,2048,0,1,1,139.8292573076787,0.6651847899266963,0.0434256300031669,96.66558861666668
2048,256,53.95236395249977,107618,36187,45772800,41020832,1.0904336535276768,0.2263768872319891,0.41249596516592135,2048,0,1,1,234.34311309635274,0.8831395377987021,0.0323527492385888,96.66558861666668
2048,512,38.116885446587865,120499,38670,57024512,53203432,1.1339723882961483,0.1557216501336555,0.5424954802652313,2048,0,1,1,178.18690133493084,0.9024527673373438,0.0221973750366403,96.66558861666668
256,1024,79.07712601494403,116061,20838,39952384,28245592,0.9431038480246794,0.1872838900681746,0.40691719113132546,256,0,1,1,237.55592224529423,0.7748331893179723,0.0393555554880721,96.66558861666668
256,128,56.799450055427016,180991,40345,37212160,33217816,1.0292897501073168,0.1405320939302235,0.36880006206417226,256,0,1,1,262.10838489459525,0.8937636461551772,0.0231057526374212,96.66558861666668
256,1536,33.13949820488317,57534,27622,52056064,34105848,0.981184576606931,0.1487019045042343,0.6482116320770726,256,0,1,1,149.1265874185564,0.6580290085849432,0.0468761063129154,96.66558861666668
256,2048,25.02590353533005,57862,22775,51793920,34077304,1.0995291013156303,0.1932656511951266,0.6879116505408952,256,0,1,1,140.52035394466702,0.674936304634843,0.0615127940188662,96.66558861666668
256,256,50.08219626982999,100958,13638,36765696,32123256,1.088625278764854,0.2907005413181962,0.436461170410431,256,0,1,1,221.47580396617218,0.8797026342717251,0.0267050401223537,96.66558861666668
256,512,42.48058123035791,59447,7945,26722304,22447296,1.1343782027136522,0.2217452094782235,0.4804278485705148,256,0,1,1,201.20729658842538,0.8903142910652887,0.0259187459542851,96.66558861666668
512,1024,46.19873179850001,178898,27747,61706240,50920944,0.9773665966135208,0.1848559059612082,0.5191594936202956,512,0,1,1,186.1963227188257,0.7472963994413362,0.0488933681379473,96.66558861666668
512,128,54.66278032336048,192778,27538,49336320,45387368,1.037908211219798,0.1601761902805561,0.38585213666297474,512,0,1,1,250.52495355520065,0.8907739577605291,0.0190009898147738,96.66558861666668
512,1536,39.56373724896782,101902,18693,61321216,43069824,1.0137475811816965,0.1141403356148793,0.644505133270446,512,0,1,1,149.98420280402027,0.6602283067182271,0.0514889541350688,96.66558861666668
512,2048,28.86686109417491,134807,41993,60166144,41828888,1.086255190215985,0.1597679474835679,0.7150759027405422,512,0,1,1,135.18227679913971,0.6758736144909943,0.0459443973666752,96.66558861666668
512,256,42.95604893271317,57152,8805,26722304,22425512,1.0973204153536424,0.2283626240973923,0.5117107757321864,512,0,1,1,188.90668948362827,0.8854462092347916,0.0292177623451919,96.66558861666668
512,512,55.905794263771554,39581,7288,26275840,22276224,1.0526611999903452,0.1537044952271394,0.3288384764243521,512,0,1,1,293.9606996959925,0.8886183212115888,0.0248244984354654,96.66558861666668
