cpu,memory,duration_std,userDiff,sysDiff,heapTotal,heapUsed,avg_cpu_util,cpu_util_std,slo_preservation,total_cpu_shares,cpu_shares_others,num_containers,arrival_rate,latency,memory_util,memory_util_std,slo_duration
1024,1024,142.55269928631836,300070,19972,39956480,30759504,0.5797966110618303,0.2657121182153972,0.9084650096809702,1024,0,1,1,475.66085646424574,0.8218561749087978,0.1159246397078911,432.1212445726496
1024,128,403.9660495134763,307023,44351,33005568,29814896,0.5503976555467535,0.2185020403859474,0.5234552458304502,1024,0,1,1,825.5170771803016,0.8763011278608788,0.0814044007558246,432.1212445726496
1024,1536,133.55926772341758,212806,22052,69599232,51889720,0.5659769445152318,0.1772485805705775,1.0,1024,0,1,1,408.716141475442,0.7263057079847799,0.1159343910090613,432.1212445726496
1024,2048,155.57756375428218,139275,33513,63832064,51950520,0.5824075464988371,0.2303336635227964,1.0,1024,0,1,1,405.9900577860271,0.7501523243894436,0.1284739630858834,432.1212445726496
1024,256,168.73392719623052,248159,41229,33267712,29780616,0.6195278277203662,0.216167394955399,0.7449566374667813,1024,0,1,1,580.0622785805012,0.8804203243172974,0.0424712050945835,432.1212445726496
1024,512,126.3135232186216,241119,34726,32743424,30067416,0.5702128560055568,0.1477926223749577,0.7740196654054304,1024,0,1,1,558.2819970682593,0.8747625251332426,0.0507608293506611,432.1212445726496
128,1024,106.91082569901282,268735,32547,38907904,31679880,0.5103657115499752,0.1433498569702176,0.8060667385186525,128,0,1,1,536.0861873134469,0.8191264094937571,0.085521281267097,432.1212445726496
128,128,252.4159661152188,249907,48523,32743424,29921080,0.6174925197313825,0.2266621285144179,0.6508042945479605,128,0,1,1,663.9803212620084,0.9001746012875039,0.0611534317809096,432.1212445726496
128,1536,164.31244808105794,293957,32947,68550656,51901488,0.5728898219678317,0.2121355713142832,0.8963372550792886,128,0,1,1,482.0967131779263,0.7428596798701523,0.0983886430353172,432.1212445726496
128,2048,154.72149819331744,182870,33523,37982208,15626424,0.4853006163683515,0.1672529578948236,0.9107206919065637,128,0,1,1,474.48273484158796,0.7160883803888444,0.1302390717351157,432.1212445726496
128,256,145.6895194940237,188464,44863,33005568,30334032,0.5558854849202792,0.1340282292559463,0.6922620616452602,128,0,1,1,624.2162737412641,0.8852883723455587,0.0452014238382616,432.1212445726496
128,512,128.90149000524892,206069,23049,33267712,29783840,0.6178566869133866,0.2171787952763611,0.8177562158214142,128,0,1,1,528.4230632702624,0.8745725316797068,0.0776601049622626,432.1212445726496
1536,1024,134.85330816469107,233374,46317,39956480,29763080,0.5143235613935635,0.2083720582038348,0.8067155314887984,1536,0,1,1,535.655045310913,0.8114577883852865,0.1330820338422612,432.1212445726496
1536,128,310.06928625609794,301468,23185,33529856,29888336,0.5263540496636914,0.1471817923717646,0.5807138042155982,1536,0,1,1,744.120841343421,0.853890888558837,0.067183454438597,432.1212445726496
1536,1536,153.7353041659459,264878,12946,51359744,30020312,0.5249085053826212,0.1859354989890925,0.8906270961041441,1536,0,1,1,485.187623936966,0.7359665940790624,0.1117279698842581,432.1212445726496
1536,2048,142.3653067223483,230873,28572,50835456,29935168,0.5065406857042904,0.2397200924382758,0.9520555366613022,1536,0,1,1,453.8823922898718,0.7160680068354883,0.1343958964219924,432.1212445726496
1536,256,147.2094164750999,221551,40356,33529856,29693704,0.5726621955815756,0.142672755472411,0.7380846353883064,1536,0,1,1,585.4629995722788,0.877119680443881,0.086757292853667,432.1212445726496
1536,512,137.78630249653563,263333,35821,32743424,29892280,0.6460091634981802,0.198600523967019,0.7757883710526998,1536,0,1,1,557.0091802050166,0.8765677288132612,0.0736223998758987,432.1212445726496
2048,1024,150.3368382088231,255519,42600,39170048,31634000,0.5146853779917666,0.1564605023618759,0.7026557200757478,2048,0,1,1,614.9828888122706,0.758237707124769,0.1343529802448946,432.1212445726496
2048,128,225.5959588214302,222949,44272,32481280,29937016,0.5560214308471315,0.2279898549471215,0.6401084922425098,2048,0,1,1,675.0750065177034,0.8948653336702248,0.0583633246235419,432.1212445726496
2048,1536,126.67187214923608,229356,29544,42708992,31385208,0.5360054095729303,0.2506161812632495,1.0,2048,0,1,1,402.64642785926003,0.7472172772001868,0.0863586955029178,432.1212445726496
2048,2048,145.12180855135563,284595,20768,42971136,31348024,0.4588389105157952,0.1819409370196913,0.9225713676031478,2048,0,1,1,468.3878773468833,0.7201310441760699,0.1402505578919931,432.1212445726496
2048,256,147.3039293321135,186116,41390,33005568,29751744,0.5766920719526888,0.2012433823797065,0.7720623441671631,2048,0,1,1,559.6973454764021,0.8664179817227062,0.0983125066371195,432.1212445726496
2048,512,151.09071726251642,199368,35750,32743424,30000016,0.6061199136494001,0.2158590951634083,0.7427532489963984,2048,0,1,1,581.7830418870977,0.8762031893530887,0.0807329747609041,432.1212445726496
256,1024,125.749025867368,282287,41620,39956480,31256512,0.6983316257541671,0.243785058821531,1.0,256,0,1,1,419.47712431264375,0.818205979017972,0.0716527350191737,432.1212445726496
256,128,342.6450559689451,205539,58034,32219136,29938680,0.5657127287062317,0.1856013496575602,0.5628511847889851,256,0,1,1,767.73622628982,0.8814574757309562,0.055434691712344,432.1212445726496
256,1536,178.6164650540528,193759,43123,69337088,51952208,0.5590792448975096,0.2412975590088207,0.8627169432309105,256,0,1,1,500.8841520537868,0.7239882077040978,0.1073505250236305,432.1212445726496
256,2048,147.52776337267903,191494,24954,63832064,51967176,0.597970129742022,0.2482630231890937,1.0,256,0,1,1,392.3493927653708,0.7410023636484223,0.0929779436083824,432.1212445726496
256,256,159.6094311889213,235863,8458,33267712,29960904,0.6320712145922155,0.213473933867439,0.7294143570141354,256,0,1,1,592.4221814628684,0.8925397009183467,0.046046051349692,432.1212445726496
256,512,166.22946389639182,215340,40119,32481280,30007800,0.6636544745111395,0.212058981776581,0.8176754746395148,256,0,1,1,528.4752422874822,0.8836488328405917,0.0646886144421748,432.1212445726496
512,1024,121.30141429658931,255754,55861,40218624,31569240,0.5702318723230744,0.2333841994547191,0.8729410579658266,512,0,1,1,495.01766543047177,0.8385588444233955,0.0694169010272652,432.1212445726496
512,128,140.08772835501154,279252,35067,33267712,29821640,0.6606100719470116,0.1774379676270913,0.7291898389239474,512,0,1,1,592.6045886902693,0.8661353079147995,0.0480447538682195,432.1212445726496
512,1536,117.58311320614754,241095,27192,49262592,30579600,0.485987116087929,0.1645796680947929,0.9186106456377856,512,0,1,1,470.4073990701801,0.7040449307447468,0.1368641739189264,432.1212445726496
512,2048,123.64737366166192,232875,29721,50049024,29933960,0.461835823051792,0.1939307132723892,1.0,512,0,1,1,414.5499646973665,0.7095581047638523,0.160680649029257,432.1212445726496
512,256,120.58607589046136,199271,22141,33005568,30268720,0.6106093127937706,0.1931870045633613,0.763170520795666,512,0,1,1,566.2184699195781,0.8786287423750769,0.0606635143947856,432.1212445726496
512,512,134.45294939990825,278499,40350,33005568,30300912,0.6108795799834246,0.1907095791822191,0.7091840773988598,512,0,1,1,609.3216956556339,0.8766932450896701,0.0458824060149191,432.1212445726496
