cpu,memory,duration_std,userDiff,sysDiff,heapTotal,heapUsed,avg_cpu_util,cpu_util_std,slo_preservation,total_cpu_shares,cpu_shares_others,num_containers,arrival_rate,latency,memory_util,memory_util_std,slo_duration
1024,1024,71.75986058720636,460896,70514,50974720,44556472,1.0070733120181918,0.1507389656414854,0.6245124160513142,1024,0,1,1,495.16705433823165,0.7632926099793161,0.1186935189428415,309.2379734537815
1024,128,223.8396799643484,366730,67352,35364864,29513640,0.8125045867096906,0.2066761152286177,0.38694230007063657,1024,0,1,1,799.1836855193394,0.8796791388616289,0.0721695931701289,309.2379734537815
1024,1536,72.3957949478598,368952,65552,58445824,44642984,1.2984607875692258,0.2455774920436148,1.0,1024,0,1,1,291.1756141618492,0.741516185684594,0.1510662770709778,309.2379734537815
1024,2048,43.89195283708676,306568,51596,59232256,44471264,1.5170001053813127,0.4021908560387101,1.0,1024,0,1,1,207.6897063631921,0.6774994544595886,0.1518615497326175,309.2379734537815
1024,256,86.93291740639891,420194,45678,32481280,29802296,1.0617950935839544,0.1663330365988435,0.5623817547159284,1024,0,1,1,549.8719879523554,0.8842232269334056,0.0660035181964833,309.2379734537815
1024,512,68.95247434523253,441194,57094,39034880,29570856,1.0902766698147428,0.0961728348772014,0.5967693648631149,1024,0,1,1,518.1867429215531,0.8524084012146206,0.0804153823296603,309.2379734537815
128,1024,94.04930419293936,345851,82092,53858304,44164664,1.0507753544314704,0.1445669067036591,0.6656360268683833,128,0,1,1,464.5751746771473,0.7428644829662031,0.1093593772247241,309.2379734537815
128,128,370.0098776286567,464754,49942,32219136,29755136,0.9514485691411553,0.2459176552477289,0.4256586679834179,128,0,1,1,726.4928373685281,0.8804996180067306,0.0663093073852379,309.2379734537815
128,1536,69.55229591039759,309510,40967,58183680,44464944,1.269403783338493,0.2729677446407218,1.0,128,0,1,1,292.33226620358,0.7487038953557759,0.136746985902447,309.2379734537815
128,2048,45.48551020217855,297279,57368,59494400,44460032,1.4813886596244414,0.2628930137284195,1.0,128,0,1,1,228.2564465864428,0.7239095862133691,0.1468253537011818,309.2379734537815
128,256,48.75575991408804,413978,69467,32743424,29841424,0.9453647905656709,0.1163281022258335,0.5015015718104325,128,0,1,1,616.6241360668623,0.8411768609909792,0.0919312645769736,309.2379734537815
128,512,84.85444586087269,460888,53742,47169536,44200128,1.0323062107650918,0.1715932333559581,0.5604827252671406,128,0,1,1,551.7350660654004,0.8760207522066382,0.0942439428908886,309.2379734537815
1536,1024,90.3368999238074,471454,62386,45985792,30102920,1.065177245202244,0.1388515493301358,0.6684102089145769,1536,0,1,1,462.6469933126084,0.7686039815667979,0.1272963924880093,309.2379734537815
1536,128,102.70847523309008,428003,64072,33529856,29560960,0.9110541397802951,0.1595525479683457,0.44466345919573635,1536,0,1,1,695.4427377799399,0.900001674647734,0.0518848600778057,309.2379734537815
1536,1536,64.9689419551234,327766,48574,58970112,45344328,1.3156690196334617,0.3259584742460913,1.0,1536,0,1,1,308.82042779193273,0.7208884106111751,0.133580117946961,309.2379734537815
1536,2048,47.81981056352206,352719,43737,58707968,44912368,1.5193648346069069,0.3622028823746909,1.0,1536,0,1,1,207.27559193727603,0.6837199250305162,0.153485846399096,309.2379734537815
1536,256,72.04525949003545,457678,56239,33005568,29598328,1.0588965670267545,0.1207580241582748,0.5360002733593803,1536,0,1,1,576.9362234008452,0.8648416781505102,0.0850952033757287,309.2379734537815
1536,512,80.08971501552605,421184,35338,36937728,29780536,1.1009607272452921,0.1503395419010499,0.6150807857776612,1536,0,1,1,502.759931059795,0.8852160946572741,0.068139754070229,309.2379734537815
2048,1024,110.25241243108825,431081,38816,53334016,44631456,1.0631435482818254,0.2089777212427984,0.6575523357247861,2048,0,1,1,470.2864801064456,0.7530996040553222,0.1080547039927688,309.2379734537815
2048,128,351.6086418451266,476083,87971,47693824,43817984,0.9116173814099002,0.2303286549003158,0.40058958658679117,2048,0,1,1,771.9570947628276,0.8924199247140386,0.043312055792246,309.2379734537815
2048,1536,63.10841644997983,293939,53232,44806144,30998568,1.1714038647076743,0.1315232750826903,0.9664063250375607,2048,0,1,1,319.9875305470114,0.7184814499042835,0.1454767893747555,309.2379734537815
2048,2048,48.43510587904731,304202,60459,58970112,44781792,1.5106703437144913,0.309107554430263,1.0,2048,0,1,1,216.44772420901967,0.7344857228696959,0.1531500705906612,309.2379734537815
2048,256,72.76369115404938,421272,53193,33267712,29589608,1.0136960983916778,0.1479571713607803,0.5357051516445076,2048,0,1,1,577.254059447595,0.9109622428459894,0.0420076945308998,309.2379734537815
2048,512,74.02401548912924,445401,67675,33005568,30184208,1.08932661485301,0.0935224591652703,0.5922252625842698,2048,0,1,1,522.1627529098844,0.8913622853669352,0.0696295624832682,309.2379734537815
256,1024,97.69939112984628,391307,50198,46510080,30271624,1.0714924655459959,0.2256023312818413,0.6477407820843158,256,0,1,1,477.4100720641799,0.7784190585666151,0.1097728335294568,309.2379734537815
256,128,464.2662912484895,363379,54756,33005568,29547240,0.9202163085572126,0.3268212334680077,0.38133700737241244,256,0,1,1,810.930928483898,0.8874182274520925,0.0704036952410598,309.2379734537815
256,1536,80.11032857608997,406679,55836,59232256,45456120,1.190410496113068,0.228660792140616,0.9896814769817602,256,0,1,1,312.46212104208223,0.7494276264420078,0.1174598726393151,309.2379734537815
256,2048,44.56356907779311,324064,78912,57921536,44971136,1.4124454218102647,0.27041230519733,1.0,256,0,1,1,214.46140169129285,0.6208510302019132,0.1471897978773964,309.2379734537815
256,256,76.10379682831682,351344,54013,37986304,29786656,0.9825897248405213,0.1041522302619078,0.5558533899688033,256,0,1,1,556.3301025674003,0.8834845576793373,0.0555333941222285,309.2379734537815
256,512,65.72971247579966,364237,40155,37724160,29778568,1.0974144404332455,0.1116692137872683,0.607341691567544,256,0,1,1,509.1663848329608,0.8721077565144213,0.0835626522524307,309.2379734537815
512,1024,93.61205192662152,491577,43337,53071872,45116368,0.9841967389625152,0.1337059349901325,0.6197137640418532,512,0,1,1,499.0012993045233,0.778645998624662,0.1102023107652549,309.2379734537815
512,128,117.2195626884179,438374,39396,33005568,29767672,1.0664919663451127,0.3026762285202607,0.5340611145202382,512,0,1,1,579.0310603901174,0.8871962123488312,0.0772951838498928,309.2379734537815
512,1536,71.58851145988922,412836,55281,60542976,46038144,1.2328400023853747,0.177796324506098,0.9338727831625979,512,0,1,1,331.13501006693286,0.7076703511874275,0.1528673229155339,309.2379734537815
512,2048,50.74003142034664,403922,36376,63950848,44537200,1.4545500634499933,0.3377781329131823,1.0,512,0,1,1,204.4626498580697,0.6355165979614293,0.1643703289375618,309.2379734537815
512,256,74.38984746936376,409401,44924,47693824,44227904,1.222903900302086,0.196733278678988,0.6853445252089817,512,0,1,1,451.2153553126958,0.8667008274077158,0.1171240291224616,309.2379734537815
512,512,77.42263066709522,453403,72967,33267712,30045168,1.0800422460195733,0.1044504069100298,0.5896141268887881,512,0,1,1,524.4751768169716,0.8822963724558417,0.0683270163045882,309.2379734537815
