cpu,memory,duration_std,userDiff,sysDiff,heapTotal,heapUsed,avg_cpu_util,cpu_util_std,slo_preservation,total_cpu_shares,cpu_shares_others,num_containers,arrival_rate,latency,memory_util,memory_util_std,slo_duration
1024,1024,119.40609708073283,626809,95341,54120448,45154968,0.9528326230891371,0.1182179586411115,0.860742461807919,1024,0,1,1,1025.9213989927873,0.7875960052213999,0.0782544369840479,883.0541105904761
1024,128,332.5955030967843,611322,96331,32743424,29636672,0.7709366498536825,0.2204976526664419,0.44895678020608243,1024,0,1,1,1966.9022710496365,0.8525212642394709,0.0471669702544029,883.0541105904761
1024,1536,89.34178241109875,361827,74868,62902272,44430504,1.019134075048914,0.1231988072748236,1.0,1024,0,1,1,828.409549797054,0.6571105660180517,0.1125030614852704,883.0541105904761
1024,2048,57.953315071992535,382769,67872,76365824,62700752,1.18496379333932,0.1615118507465118,1.0,1024,0,1,1,614.7446392017712,0.6874645806455834,0.0982271716643048,883.0541105904761
1024,256,654.1595844095567,568642,100089,32219136,29697232,0.5975609059555829,0.1385658330404292,0.37131357041157814,1024,0,1,1,2378.189705298584,0.8587008778277774,0.0823133170327013,883.0541105904761
1024,512,349.2809461852956,570196,61486,47169536,43947432,0.5910296161263413,0.0469770271506259,0.41262386504312554,1024,0,1,1,2140.0946125551495,0.8636335526364304,0.0755549525832346,883.0541105904761
128,1024,82.48727486605576,431226,73475,50188288,44613776,0.9074328722839412,0.0969884583930226,0.8044299069177645,128,0,1,1,1097.7390360509671,0.7639272466126451,0.0958432347321739,883.0541105904761
128,128,947.44435196595,576913,83173,47169536,43930776,0.5817610631552741,0.171184590285551,0.3204145137109466,128,0,1,1,2755.9741297708497,0.878988851893835,0.0794784250595374,883.0541105904761
128,1536,64.74170549934666,431048,86125,57651200,30172264,1.0906865467508984,0.1551115672408849,1.0,128,0,1,1,696.2911848908419,0.6692555701985083,0.085466005178295,883.0541105904761
128,2048,53.44059084446215,367846,102003,76627968,63870032,1.285380369105257,0.1832899374998657,1.0,128,0,1,1,481.19550098204513,0.6445846471623828,0.1682564978544997,883.0541105904761
128,256,771.6110118848394,513282,124099,31956992,29530728,0.5597325904532278,0.1545181851244379,0.32927215236910257,128,0,1,1,2681.8366030559528,0.8838278596766931,0.0643526858227897,883.0541105904761
128,512,221.8568987523005,490416,60924,32743424,29593840,0.6167128541368162,0.0568918898407858,0.437507483435878,128,0,1,1,2018.3748713406826,0.8647574285158255,0.0748036333076867,883.0541105904761
1536,1024,133.71667936692037,440273,100979,50450432,44552816,0.9162289649580427,0.0717068600498968,0.8526046444388259,1536,0,1,1,1035.7134650277346,0.8072829925794457,0.0894233569996031,883.0541105904761
1536,128,1102.8383949183155,459904,99795,33005568,29753288,0.5767148516791448,0.2784209972321376,0.2753357098360838,1536,0,1,1,3207.1906368999016,0.8917918098395443,0.0700032419307488,883.0541105904761
1536,1536,46.18961943636547,403216,70508,61329408,46150624,1.1524304178435492,0.1447475660884364,1.0,1536,0,1,1,689.6526330178083,0.6987584927876118,0.1114833017387654,883.0541105904761
1536,2048,47.80978079352119,321009,82619,62115840,44982448,1.286816981288226,0.1773742491256304,1.0,1536,0,1,1,451.7079549677193,0.6635032272878271,0.1587596144690129,883.0541105904761
1536,256,578.1353195955953,517422,72392,33529856,29654256,0.6060252017896111,0.1459218798896738,0.39072283098825034,1536,0,1,1,2260.052498997764,0.869991489110017,0.0660764966748929,883.0541105904761
1536,512,228.6300294911221,590930,104310,34578432,30006200,0.6377748471478881,0.0561244353323374,0.4551266849382042,1536,0,1,1,1940.238047589705,0.8645013643258922,0.0695621450889524,883.0541105904761
2048,1024,110.6942537394983,454958,61446,50188288,44661384,0.932266086720579,0.10454519682114,0.8107816829040014,2048,0,1,1,1089.13919642044,0.7760192551284781,0.0793599206663498,883.0541105904761
2048,128,384.2964177470316,540482,46265,33005568,29639048,0.9300971237229754,0.4196026679884911,0.5271719059668525,2048,0,1,1,1675.0780923557045,0.8427954324901653,0.0654978732885247,883.0541105904761
2048,1536,65.35916296253662,353469,60500,58445824,44686496,1.2083077340693729,0.2169786639692012,1.0,2048,0,1,1,676.7058380572145,0.7157306302102233,0.1128102351788466,883.0541105904761
2048,2048,45.5607498232812,389604,84229,58437632,30517816,1.2796442156994858,0.1763522269192339,1.0,2048,0,1,1,448.46549474673174,0.6147965636086496,0.147354078220291,883.0541105904761
2048,256,439.98080167847655,654006,52661,41132032,30007424,0.6515900280808066,0.1397125934301923,0.4215845355837626,2048,0,1,1,2094.6074536812,0.8421574957266575,0.0791325177239115,883.0541105904761
2048,512,218.7278180071186,608486,82623,32743424,29433296,0.6470946425525129,0.0719287903906558,0.45601528502146393,2048,0,1,1,1936.4572627185337,0.867265573890643,0.0756366811603816,883.0541105904761
256,1024,103.3674868134719,536027,59283,39170048,30425824,0.9468542741597386,0.2066663072958498,0.7915368997436497,256,0,1,1,1115.6196393073594,0.7863246974303622,0.0878111265257303,883.0541105904761
256,128,550.3627949161801,431772,78627,33005568,29881560,0.6297112399500049,0.1597503889745639,0.39468231817103505,256,0,1,1,2237.379456679399,0.8735947429589906,0.0596319401881536,883.0541105904761
256,1536,66.24318077662096,426403,70118,54775808,45320824,1.1690301464608317,0.1545948079611598,1.0,256,0,1,1,630.9645302617303,0.7498832060501397,0.0769922735397186,883.0541105904761
256,2048,49.582490675273405,322666,38393,55300096,45287984,1.2903529491595855,0.1872244759652439,1.0,256,0,1,1,473.46896545555967,0.6620445407912843,0.158833928316874,883.0541105904761
256,256,432.8476878970134,571524,119759,33005568,29798008,0.4469334496385305,0.0461061456489242,0.3089695387538799,256,0,1,1,2858.0620411706755,0.8903516448370699,0.0566767122020235,883.0541105904761
256,512,287.7185704889699,534730,68459,36151296,29588920,0.6361367872475242,0.0767532632496371,0.4690344490813326,256,0,1,1,1882.706296563199,0.8722951552612545,0.0767988991643552,883.0541105904761
512,1024,105.1545278330181,464751,42842,50450432,44570360,0.8915833545791257,0.1092568963990953,0.8064106075386147,512,0,1,1,1095.0427763912955,0.7878950709864976,0.0758717199641283,883.0541105904761
512,128,885.2239962094873,651074,102107,46907392,44542272,0.37738023084938976,0.051298492875706,0.25418690360072504,512,0,1,1,3474.034649627626,0.91829758753359,0.0165473772865036,883.0541105904761
512,1536,91.04608715435428,343212,79905,62377984,45385416,1.0296449252201278,0.1726624285773859,1.0,512,0,1,1,781.9940465320273,0.6987551805643408,0.0996119972787343,883.0541105904761
512,2048,70.53632986690842,496493,48713,59494400,45517392,1.1550436220993405,0.2104455009157694,1.0,512,0,1,1,628.817892729685,0.7412236485015109,0.0878877883173133,883.0541105904761
512,256,565.0711509549649,547901,99395,32481280,29673568,0.6210021345491888,0.1472240431806261,0.39745803481441383,512,0,1,1,2221.7543318826174,0.8627688453342829,0.0661276554962274,883.0541105904761
512,512,180.96408135193008,552871,94346,34316288,29616064,0.599260161329894,0.0611543391663627,0.45605693329278474,512,0,1,1,1936.280420549078,0.8591450935429498,0.0498214163792713,883.0541105904761
