cpu,memory,duration_std,userDiff,sysDiff,heapTotal,heapUsed,avg_cpu_util,cpu_util_std,slo_preservation,total_cpu_shares,cpu_shares_others,num_containers,arrival_rate,latency,memory_util,memory_util_std,slo_duration
1024,1024,148.25372881628834,418487,64662,39170048,30029008,0.8683871251074897,0.1991686918991826,0.42754323703678915,1024,0,1,1,1168.112648234981,0.7537163731073073,0.127226880875554,499.41866285
1024,128,165.73496169387428,413962,55053,38248448,29603200,0.8497035715099126,0.152965952827348,0.3498509902270417,1024,0,1,1,1427.5182200453223,0.8937850106394917,0.0391851952101016,499.41866285
1024,1536,162.53696462492042,379550,45356,58970112,46129912,0.9165804429914477,0.3114267330626134,0.5146078807136896,1024,0,1,1,970.4838996196012,0.7497127435734328,0.1008991082252695,499.41866285
1024,2048,133.3339542665738,328988,63859,59494400,44638872,0.7815535840784337,0.213051309449523,0.500885726253216,1024,0,1,1,997.0710616687161,0.7135597159636868,0.1549232440985457,499.41866285
1024,256,145.03437341009294,378418,52674,41394176,30244808,0.9003829318934545,0.2826646332915509,0.3889810472291002,1024,0,1,1,1283.9151583543728,0.8742339773091832,0.0634458238061672,499.41866285
1024,512,144.42684202595973,358791,55852,34054144,30238616,0.8774434663269707,0.1894787168342782,0.3816807685024294,1024,0,1,1,1308.4721685337447,0.837041859140753,0.0935534812934753,499.41866285
128,1024,189.4582730229424,375232,46841,46247936,30369336,0.8572663280432632,0.2741242176868829,0.40364926225948344,128,0,1,1,1237.258951136028,0.7539475415951464,0.0973719493282719,499.41866285
128,128,199.1281838038356,410778,81909,39821312,30073272,0.8335584492750223,0.1964187833922782,0.3451926544791529,128,0,1,1,1446.7824166292078,0.8498736512525188,0.0906611455003149,499.41866285
128,1536,154.0792745838273,373225,99254,59232256,46133400,0.9070366620377143,0.3209008512693596,0.4972949305662976,128,0,1,1,1004.2705689384044,0.7393354107175043,0.0957427649507806,499.41866285
128,2048,131.36877431258856,416685,59983,56864768,29807160,0.8609130062225736,0.2991415516999346,0.5347613845351393,128,0,1,1,933.9093608715554,0.7223345733790147,0.1334382187114631,499.41866285
128,256,172.62640972811067,405200,62669,33005568,29628400,0.8893346841951821,0.2393411295471875,0.3636598684679388,128,0,1,1,1373.3125542667076,0.859409011203104,0.0889897360985266,499.41866285
128,512,172.63975915552805,326842,50048,40083456,29722184,0.8897154712489778,0.2474257645467339,0.3828713764523502,128,0,1,1,1304.4032371329658,0.8775178712966237,0.0560944756406567,499.41866285
1536,1024,181.0068046125431,415351,54827,40742912,30067656,0.8188405555141332,0.2008198853248722,0.41612476449405805,1536,0,1,1,1200.165684580715,0.7083653602527211,0.1454000782247162,499.41866285
1536,128,183.7559561402709,414655,23463,35102720,30196016,0.8448592430287272,0.2257879258861758,0.3370091265327136,1536,0,1,1,1481.9143564099331,0.8639030570285898,0.0727583772308152,499.41866285
1536,1536,163.27214125409657,304792,70776,57135104,45351112,0.866069497726828,0.2915718340751028,0.4696741852039651,1536,0,1,1,1063.3300244788156,0.6870734164705071,0.1540938327635274,499.41866285
1536,2048,168.88870569946823,384983,47293,59232256,46106680,0.8947482037457626,0.3170124140910115,0.5463394247387614,1536,0,1,1,914.1179278592294,0.7002974345589518,0.1491518588048819,499.41866285
1536,256,138.93601473376052,345788,58191,41656320,29877080,0.8897248344877396,0.2287291629473736,0.415341382249619,1536,0,1,1,1202.429336910741,0.8395342442051575,0.1010843059038836,499.41866285
1536,512,161.67242605504683,406779,36160,35627008,29583928,0.8944723733957528,0.2963078350296569,0.4057913339869301,1536,0,1,1,1230.727768242792,0.8485020726813554,0.1030880216874814,499.41866285
2048,1024,130.3905129302485,354060,39062,50450432,44527416,0.837805499826899,0.2840589862656917,0.42786354765867296,2048,0,1,1,1167.238166426858,0.756598457199105,0.1357790056306609,499.41866285
2048,128,142.68742303917494,457062,58029,35889152,29749032,0.890423815355051,0.2161708282107009,0.3730393317988667,2048,0,1,1,1338.782858208833,0.8545585826624184,0.0667031158741788,499.41866285
2048,1536,156.87110355372494,301011,64095,58970112,44511832,0.868131232910497,0.3018002430924004,0.4802933567160192,2048,0,1,1,1039.8200513635022,0.7211204921441505,0.1290800643655061,499.41866285
2048,2048,147.4248868371382,367560,48299,59494400,45496760,0.8692913186769275,0.3038404229056338,0.48163980401082657,2048,0,1,1,1036.9131842740592,0.7158499945830152,0.1262051562062092,499.41866285
2048,256,146.04673456192862,418972,48433,34054144,29760248,0.9081713738871346,0.2386173314194394,0.40027086371865384,2048,0,1,1,1247.701764275893,0.8566448841845904,0.0722744200717935,499.41866285
2048,512,149.00957594073955,424133,45317,33005568,29958096,0.9059249423144579,0.1843103345534535,0.3866991158287005,2048,0,1,1,1291.4916078350484,0.8894030060785335,0.049927140607303,499.41866285
256,1024,174.56045402174337,405659,51272,41529344,30150888,0.8650563683073169,0.3149673944694612,0.4063552069391801,256,0,1,1,1229.019966575078,0.7610776122247307,0.1132352362680106,499.41866285
256,128,309.5609158165189,356406,76148,47431680,44298376,0.7912255202916836,0.1245124268758624,0.3044045773644307,256,0,1,1,1640.641107219948,0.8495201809769157,0.0923022221844652,499.41866285
256,1536,172.47643266120997,300957,51080,44806144,31077744,0.8827012122131314,0.2972669246236713,0.5216168724932413,256,0,1,1,957.4434593399221,0.7448568556604706,0.1164636679184228,499.41866285
256,2048,145.7981183724376,339433,38191,58970112,45994720,0.8756997500747604,0.3201625311979629,0.5279643397905616,256,0,1,1,945.9325662943725,0.7046786102447312,0.1389944101048005,499.41866285
256,256,125.4560857181811,333463,49260,39821312,29612832,0.8846092397001398,0.2249672182116491,0.39837137574471976,256,0,1,1,1253.6509730810385,0.8372778541458054,0.1089104647971202,499.41866285
256,512,146.77567860398938,352312,18749,36413440,29654696,0.9205769824679525,0.2847827146451289,0.40653239060894475,256,0,1,1,1228.4843087211843,0.8657207436471038,0.0990528249624902,499.41866285
512,1024,164.63589062318178,379851,58430,38645760,31440232,0.8535267129039017,0.1871104257632728,0.4177964612935121,512,0,1,1,1195.3635540707614,0.7592680417276603,0.1203105310576126,499.41866285
512,128,178.9941954660278,504920,49927,46907392,44182536,0.8700680814064643,0.2314005054064741,0.3618097354505866,512,0,1,1,1380.3350598845536,0.8135040256035466,0.1145675472434359,499.41866285
512,1536,174.22215000392887,328065,75016,58970112,46050184,0.8786620160309778,0.2710961267342759,0.5083443793666184,512,0,1,1,982.441594952344,0.7481486103202152,0.0942523141354492,499.41866285
512,2048,130.11608981158287,295984,66723,59232256,44909432,0.7887405726425173,0.2386711860754281,0.5249444845807663,512,0,1,1,951.3742453144321,0.6974683670323925,0.1637641446123501,499.41866285
512,256,154.93520025045834,351947,41820,33005568,30187080,0.9278130822904366,0.2527528404587028,0.42859454612604736,512,0,1,1,1165.2473587545924,0.8656599932429799,0.1154159481011945,499.41866285
512,512,176.18262633700363,441682,67720,36413440,29716920,0.9085172442137126,0.2081414085729234,0.3694300560012264,512,0,1,1,1351.8625643397625,0.8867141367275693,0.0278168010482563,499.41866285
