cpu,memory,duration_std,userDiff,sysDiff,heapTotal,heapUsed,avg_cpu_util,cpu_util_std,slo_preservation,total_cpu_shares,cpu_shares_others,num_containers,arrival_rate,latency,memory_util,memory_util_std,slo_duration
1024,1024,215.07762182179405,1789569,140628,94982144,84799920,1.1862421465350783,0.3324715944683851,0.2999532386020537,1024,0,1,1,1080.7427740224218,0.833001057598916,0.0696135105845239,324.1722951637929
1024,128,437.45389920026633,1890057,193347,68313088,64445104,1.1228956450974406,0.2324584043969067,0.17980712162979898,1024,0,1,1,1802.8890748344456,0.9212637352567512,0.0379993839957103,324.1722951637929
1024,1536,225.7853903832058,1758280,174833,102723584,81716720,1.151352444033743,0.2780414713137165,0.36751050787151496,1024,0,1,1,882.0762623666982,0.7725962626652955,0.0626749803449462,324.1722951637929
1024,2048,209.60319452886907,1558185,177986,87924736,65161088,1.147712830552851,0.3144199037469036,0.3719433003312187,1024,0,1,1,871.5637433853889,0.8074544668767238,0.0592392764415047,324.1722951637929
1024,256,373.36951118329694,1789675,160380,69177344,64282376,1.1195145436673035,0.1409546255492429,0.19671469476837655,1024,0,1,1,1647.931261797663,0.9072900261676556,0.0480052745843464,324.1722951637929
1024,512,356.05367875972735,1925120,175087,68050944,64594520,1.1216272312420617,0.1529027509322303,0.18475147657423785,1024,0,1,1,1754.6398068084302,0.9244075454360844,0.0328345926244187,324.1722951637929
128,1024,242.8119013941368,1925265,180448,81358848,71339000,1.1832418509451326,0.2556022614191047,0.2967164473210573,128,0,1,1,1092.532274805203,0.854886949082104,0.0502853233067331,324.1722951637929
128,128,392.3698964593435,1862136,143716,58871808,54644464,1.1323031115432034,0.1634247554093895,0.17491326330646953,128,0,1,1,1853.3316972984674,0.8900422248474156,0.0484216222905706,324.1722951637929
128,1536,230.42611639743868,1789532,134159,85671936,67170896,1.1480021195330006,0.2394609880688469,0.35459274955322806,128,0,1,1,914.2101624250251,0.7894609845385894,0.041800405964446,324.1722951637929
128,2048,219.76012722173007,1647334,196826,78761984,58012400,1.1505366675931372,0.1581496637543868,0.3265146601202694,128,0,1,1,992.8261568542933,0.7879064699733328,0.0607691129622456,324.1722951637929
128,256,379.6676370924535,2132173,168352,77787136,73071928,1.110101113977294,0.1657763339100531,0.1932566805230503,128,0,1,1,1677.4183137494588,0.9143668836244216,0.0530877814822148,324.1722951637929
128,512,368.7604956232073,1984972,212233,78311424,73076200,1.1221570581084277,0.1380395960126193,0.20202941147906972,128,0,1,1,1604.5797133719673,0.9160426547119984,0.0362252431419961,324.1722951637929
1536,1024,197.94320603506088,1630415,177105,81620992,71689048,1.1741759114640526,0.2949370684070877,0.3209997581068882,1536,0,1,1,1009.8833004598349,0.8178951854760855,0.0942735672980865,324.1722951637929
1536,128,634.9487835924027,2272849,228199,58085376,54728480,1.0375790921809025,0.1440988191743869,0.13922003557885246,1536,0,1,1,2328.4888113692937,0.9292886046880112,0.0327507766174362,324.1722951637929
1536,1536,234.55433437611987,1862924,176896,88817664,67055152,1.151824842644316,0.2614691028980606,0.3365957191767936,1536,0,1,1,963.0909625250599,0.8038230756381939,0.0596119447552799,324.1722951637929
1536,2048,208.94817687355268,1649170,132112,80666624,62373264,1.1489564787885909,0.3291590801207765,0.3676873374401832,1536,0,1,1,881.6520509535645,0.7866397371845937,0.0649177639264237,324.1722951637929
1536,256,354.845305665864,1910376,187242,58793984,54761600,1.1135047038826054,0.14712174574913,0.18690845428625144,1536,0,1,1,1734.3907550983279,0.9130507872949126,0.0371415000375795,324.1722951637929
1536,512,400.3537017543107,2074594,234359,59580416,54930416,1.1230058885154994,0.153775372187264,0.19769180456829744,1536,0,1,1,1639.7862110252513,0.9204149342875952,0.0465351434981079,324.1722951637929
2048,1024,215.3935868183928,1753204,194202,73662464,62359776,1.1686830082602673,0.3221686982260855,0.3096860602574559,2048,0,1,1,1046.7771616658947,0.8386618810382244,0.0730153299260757,324.1722951637929
2048,128,605.3028022865352,1949725,247519,68653056,64963296,1.1344233849225862,0.1457447438932902,0.14120095496240256,2048,0,1,1,2295.822257364406,0.9218716911373463,0.0438063862678845,324.1722951637929
2048,1536,211.3833188206583,1753350,131135,85671936,67387176,1.1637028781679086,0.3330594165781018,0.3469312579452254,2048,0,1,1,934.3992152329331,0.7840091015883944,0.050812296545513,324.1722951637929
2048,2048,216.0902690938666,1698066,174113,87506944,68461256,1.147340875349168,0.1995646086162592,0.3600920301713937,2048,0,1,1,900.2484587328856,0.8009989251166632,0.0323340714723619,324.1722951637929
2048,256,366.2676383177677,1835104,197184,57561088,54626032,1.1124969970425405,0.1218716047660785,0.20498624496795495,2048,0,1,1,1581.434379728601,0.9198589433853088,0.0336677297270591,324.1722951637929
2048,512,375.97456257939626,2082400,131961,76476416,73005024,1.137088690175732,0.2133156828816023,0.2111338843256038,2048,0,1,1,1535.3873500658235,0.9217383812741756,0.0446335587529451,324.1722951637929
256,1024,224.0173164109611,1770571,125160,82300928,71251000,1.1786105003205813,0.3089216264793427,0.319051138933199,256,0,1,1,1016.0512081157816,0.8392546226176869,0.0763299658220224,324.1722951637929
256,128,445.8212112124371,2178451,173461,59260928,54547072,1.113628849980852,0.1599002724504237,0.15870794960175716,256,0,1,1,2042.5712510131489,0.9179486244676504,0.0317351117385663,324.1722951637929
256,1536,214.82032432230983,1782369,145227,79286272,58545216,1.1704671894390655,0.2706190392881176,0.33581616509780293,256,0,1,1,965.3266544491124,0.7795831648826437,0.0684625293074766,324.1722951637929
256,2048,215.23727379971592,1664196,165263,88186880,65178448,1.1463755686557244,0.3806419642819279,0.3649428523313968,256,0,1,1,888.2823518609949,0.818732688463545,0.0481080283356725,324.1722951637929
256,256,394.3486768193152,2215119,214431,56954880,51269576,1.1077871003574138,0.1218294119369231,0.18853424241898925,256,0,1,1,1719.4345759396233,0.8939347930701151,0.0442957054626532,324.1722951637929
256,512,353.1330381215636,1875741,183039,68255744,64082584,1.112295714024197,0.1405353977438522,0.19147925388831458,256,0,1,1,1692.9891284873875,0.91339326433195,0.0369763896979814,324.1722951637929
512,1024,231.4601183843947,1842946,156337,81620992,71699008,1.1689858918315432,0.2320569390461475,0.3136139582474556,512,0,1,1,1033.666667693427,0.8505766351330012,0.0557968169644528,324.1722951637929
512,128,438.61208382522847,1854762,173508,59318272,54789976,1.1169223859578585,0.1724871879914005,0.15082876709088847,512,0,1,1,2149.2736526079852,0.917341496858586,0.0337729172568909,324.1722951637929
512,1536,211.373344206516,1692064,130298,100253696,79525736,1.1444871483156442,0.2865128854933663,0.3386937939301596,512,0,1,1,957.1249930568226,0.7971723674849873,0.0459507754948804,324.1722951637929
512,2048,213.85400577364663,1731609,164133,88555520,67035352,1.1569937873297291,0.2663561863272259,0.32310519066467847,512,0,1,1,1003.3026535318706,0.774597281473557,0.0726779080167386,324.1722951637929
512,256,388.8014110973056,2088236,158237,56954880,51523120,1.1227252416092204,0.1465605656057894,0.17871604768634733,512,0,1,1,1813.8958384572502,0.9230219663530168,0.0354487777693039,324.1722951637929
512,512,345.34733272084134,1767427,154585,58474496,54404552,1.1132026526758938,0.1220098513777456,0.20440874489407004,512,0,1,1,1585.9022828587274,0.9091548055631884,0.0466074398296275,324.1722951637929
