cpu,memory,duration_std,userDiff,sysDiff,heapTotal,heapUsed,avg_cpu_util,cpu_util_std,slo_preservation,total_cpu_shares,cpu_shares_others,num_containers,arrival_rate,latency,memory_util,memory_util_std,slo_duration
1024,1024,47.2270822473833,159634,16617,25530368,14746400,0.9124905063530847,0.1369528280517701,0.604204987362565,1024,0,1,1,274.47661994192987,0.658651914518195,0.0458947723899969,165.84014268333328
1024,128,259.0167606176722,51848,2081,24694784,20669904,0.7256066749829232,0.29278044640518,0.2859812405401031,1024,0,1,1,579.8986757667328,0.8595967256605144,0.0123114719768376,165.84014268333328
1024,1536,41.51466905461285,146231,0,39383040,24482360,0.9746166268111273,0.1364056709645774,0.9056530636387946,1024,0,1,1,183.11663631657078,0.5582583782806861,0.0767748697443919,165.84014268333328
1024,2048,22.285713250297167,67910,27,38858752,24432920,0.9988275345770403,0.0564260068333293,1.0,1024,0,1,1,149.96701137914673,0.5364275543238655,0.0546361528336443,165.84014268333328
1024,256,215.7048913908548,123139,10543,24694784,21466016,0.6617271873879359,0.2784101514062898,0.25963944165963565,1024,0,1,1,638.7324730914152,0.8641548475454842,0.0115399501662034,165.84014268333328
1024,512,74.7182260479147,67612,15919,24170496,20965528,0.7841434850497786,0.1651142408106459,0.5268972401154851,1024,0,1,1,314.7485506794162,0.8696585104573126,0.0127112751268327,165.84014268333328
128,1024,53.554049554195714,45493,4116,25530368,15264112,0.9207504128048027,0.1204059583293418,0.70813504979839,128,0,1,1,234.19281778320237,0.6584375396883835,0.0432061625926319,165.84014268333328
128,128,175.05624939427503,123122,2602,24170496,20873560,0.6166473096540086,0.1608169820668607,0.3127094138372846,128,0,1,1,530.3330675219986,0.8568816210248353,0.009754677150176,165.84014268333328
128,1536,42.32396912038455,55304,3705,38858752,24467344,0.9677986281637755,0.0792177062877641,0.7760376473354427,128,0,1,1,213.70115644872678,0.5224904700653994,0.0524989056005393,165.84014268333328
128,2048,28.987658525819043,49053,7444,39383040,24370384,1.0049080890688729,0.1457499088512662,1.0,128,0,1,1,163.9590573643857,0.5362611514576064,0.0625947431454025,165.84014268333328
128,256,212.01976766721185,73156,34,24432640,20674712,0.6557278968861714,0.2053710331017719,0.2853770889092239,128,0,1,1,581.1263381976878,0.8580927070423812,0.0103562853914193,165.84014268333328
128,512,77.45007009340296,39738,34,24694784,21177384,0.7953795706714267,0.256722067746327,0.575925332472614,128,0,1,1,287.95424221284657,0.8743729709226431,0.0173007310816317,165.84014268333328
1536,1024,39.3344964982108,102386,3357,25006080,15232480,0.9240109559960163,0.1354019590778506,0.6284729876451212,1536,0,1,1,263.8779167020906,0.6667297934654274,0.042329572565956,165.84014268333328
1536,128,83.97486624351941,74926,6467,24432640,20966784,0.8295543812494444,0.2082071295247447,0.45856460161897983,1536,0,1,1,361.65055500975944,0.8605586336540278,0.0122968119577872,165.84014268333328
1536,1536,42.77786553455459,50095,296,38596608,25117048,0.9924623442844452,0.0772596453445673,0.926161219512467,1536,0,1,1,179.06185142434688,0.5683096195855515,0.0840425871520813,165.84014268333328
1536,2048,36.09384506867658,73898,3458,39383040,24333440,1.0145829185676876,0.2574415996736314,0.8382892785814626,1536,0,1,1,197.83163988923354,0.5373972987565181,0.0631147254362479,165.84014268333328
1536,256,161.8250618316586,54674,1162,24170496,21003120,0.798813626400178,0.2962729830133229,0.34572965083901397,1536,0,1,1,479.68157281527266,0.8611291878799807,0.0152526178977208,165.84014268333328
1536,512,55.84882870656304,31593,25,24170496,21062024,0.779060923900205,0.227938069034144,0.5181784626469719,1536,0,1,1,320.0444530947593,0.872513611005246,0.0157673384945683,165.84014268333328
2048,1024,45.434120821749495,124946,4732,24743936,15205776,0.9146495705245629,0.1496531601048214,0.6819897627139074,2048,0,1,1,243.17101480143873,0.6717430595330076,0.0431642633688458,165.84014268333328
2048,128,129.8173175681357,137380,5753,24432640,21043168,0.7690310117349183,0.2269641705512932,0.3294219006570932,2048,0,1,1,503.42779988985035,0.8624682931139537,0.009543772207698,165.84014268333328
2048,1536,36.330143900607005,33205,263,38858752,24404920,0.9758172483653466,0.0911025774438524,0.8607454998910433,2048,0,1,1,192.67035692237252,0.5381785283106637,0.0600767716277411,165.84014268333328
2048,2048,20.204712000414577,64183,195,39120896,24294280,1.0093736255117172,0.144149606133298,0.958661632369608,2048,0,1,1,172.99132152959086,0.5351623021688833,0.0635019031262786,165.84014268333328
2048,256,204.506425897996,80163,3171,24694784,20623440,0.6829279312021194,0.3016235269209802,0.26067112263061987,2048,0,1,1,636.2045055459963,0.8616456320128334,0.0148874790645777,165.84014268333328
2048,512,86.22594589984419,126989,8573,24432640,20927320,0.6852492662136981,0.1133283788597945,0.4288784654965834,2048,0,1,1,386.6833054704968,0.8659040415328502,0.0103813169979672,165.84014268333328
256,1024,51.98900637539376,74485,413,25006080,15297680,0.9298255973871569,0.0914477569627073,0.6220225477144139,256,0,1,1,266.6143587442342,0.6718590111508618,0.0422389160726613,165.84014268333328
256,128,196.17092448353176,154756,8614,24170496,21131272,0.6100373111089903,0.2106490702690122,0.26685972917539263,256,0,1,1,621.450614507427,0.8642744152247861,0.0081314988735696,165.84014268333328
256,1536,24.70337260228928,62625,7749,38334464,25268744,0.9808711982417748,0.0993407398944114,0.7687115753560457,256,0,1,1,215.737798154686,0.5471227412780539,0.0930377999197166,165.84014268333328
256,2048,34.494644745840446,31749,834,39383040,24440600,0.9966293864320427,0.1047064604898915,1.0,256,0,1,1,152.271398963285,0.5404962285493157,0.0533982534891749,165.84014268333328
256,256,159.0162821213405,77494,4550,24432640,21035048,0.6587341583248667,0.2330594404080428,0.32189500362675993,256,0,1,1,515.1994930484425,0.8645054574525795,0.0116061847042333,165.84014268333328
256,512,92.08186448812076,147187,3134,24170496,21200032,0.6912622307280321,0.1076230246414646,0.48739171013717014,256,0,1,1,340.2604911697405,0.8745215472358066,0.014458367204153,165.84014268333328
512,1024,56.22988423591082,98909,32,25006080,15229080,0.8999439126777525,0.0992719107641709,0.6002545263368236,512,0,1,1,276.2830356239157,0.6638760926341374,0.0426264612283239,165.84014268333328
512,128,118.919549260368,75632,3994,24432640,21190800,0.8725791956758037,0.2746598795661068,0.4075012913854911,512,0,1,1,406.9683855957418,0.8548031176430587,0.0189594156167503,165.84014268333328
512,1536,31.95753819815576,86177,3437,39120896,24472048,0.9910426601800912,0.0783124525165012,0.6947506704778679,512,0,1,1,238.70454499779618,0.5643578376047256,0.0809864203443049,165.84014268333328
512,2048,33.229497303089474,20479,23,39383040,24435568,0.9988756646964783,0.0425695422450249,0.9315464177595907,512,0,1,1,178.02670862305067,0.5409797623294135,0.0562780111095529,165.84014268333328
512,256,153.53808751036138,98278,3466,24432640,20951536,0.7854560673342579,0.3354462558501112,0.35352501535461717,512,0,1,1,469.1044069879491,0.8580590874700057,0.0181901373526111,165.84014268333328
512,512,87.1963924109084,137319,7350,24432640,21079616,0.823312870061091,0.1955784097986261,0.5027108924005435,512,0,1,1,329.8916836502467,0.8671624642888851,0.0191241916147802,165.84014268333328
