cpu,memory,duration_std,userDiff,sysDiff,heapTotal,heapUsed,avg_cpu_util,cpu_util_std,slo_preservation,total_cpu_shares,cpu_shares_others,num_containers,arrival_rate,latency,memory_util,memory_util_std,slo_duration
1024,1024,45.66749434985282,28632,19964,41779200,33558984,0.9523449897023627,0.1696282174616487,0.6475133711307568,1024,0,1,1,166.5657160921965,0.7755748467568246,0.0371934537946265,107.8535283416667
1024,128,107.64755312003058,84940,27048,27844608,23953672,0.8253858642210175,0.2194393680236652,0.4534940500888895,1024,0,1,1,237.82787959517066,0.8949567317756054,0.0267278107915015,107.8535283416667
1024,1536,29.263285284613,70358,25447,54386688,34542480,1.0366035988957885,0.1713164065924725,0.8003180799456573,1024,0,1,1,134.7633285368114,0.6829945114529684,0.0584547312664295,107.8535283416667
1024,2048,30.9105729204603,118266,44888,59904000,41906464,1.087127145884952,0.2126686810742804,1.0,1024,0,1,1,107.67684504325764,0.6852518290913249,0.0630953448506741,107.8535283416667
1024,256,84.12811882735271,30238,4486,35569664,31538024,0.9987405965067129,0.1929262146227434,0.5416420329205789,1024,0,1,1,199.12326183422564,0.8799209047122707,0.0239445089586174,107.8535283416667
1024,512,59.29962181606232,103998,23994,55328768,50555432,0.9634106092123919,0.171032460391115,0.5545497682959515,1024,0,1,1,194.48845623555928,0.8809911516758966,0.0262152843347937,107.8535283416667
128,1024,79.8094742499216,127552,51794,56025088,44912512,0.8248538352685982,0.1962027433079754,0.5483443073873231,128,0,1,1,196.68942831840934,0.7592007776983214,0.0485664888443467,107.8535283416667
128,128,75.59614110729089,88920,24879,27844608,23095936,0.8394626015111055,0.2022277208524606,0.45252697423874655,128,0,1,1,238.33613128388845,0.8914308939944504,0.0222704606143755,107.8535283416667
128,1536,38.71781637036362,26891,7817,50716672,39950264,1.0107248353982847,0.2296119744700645,0.8410111840938495,128,0,1,1,128.24268021818745,0.6726576238196358,0.0497411667498398,107.8535283416667
128,2048,26.08234093038441,36629,20938,55201792,37319552,1.0420773509808725,0.1924683366139533,1.0,128,0,1,1,92.98552707953344,0.6508430725675654,0.0480999816795749,107.8535283416667
128,256,50.36903866872007,112253,29249,32473088,28173984,1.0897403068338443,0.2354779100534403,0.6774749784692853,128,0,1,1,159.1992793377482,0.8799782426431317,0.0281166997446472,107.8535283416667
128,512,50.93495105957174,148596,52570,37998592,33655480,1.13186034480077,0.2418847938608083,0.7830129553397055,128,0,1,1,137.74169074236465,0.8859171973254341,0.0235140571410873,107.8535283416667
1536,1024,55.64233484787693,92251,24042,49811456,38799880,0.9255147777516949,0.1807372645945299,0.7357906791315789,1536,0,1,1,146.58180838735473,0.7612015994365954,0.0443013257483812,107.8535283416667
1536,128,49.91328867223304,163021,48425,38260736,32841480,0.9942034864347754,0.200285831851968,0.49522144890528186,1536,0,1,1,217.788483475592,0.8829835146149223,0.026137401643214,107.8535283416667
1536,1536,42.22050873692401,39213,17633,55201792,37361840,1.0224026496980434,0.1765055630273727,1.0,1536,0,1,1,104.25608409038334,0.6569856700019849,0.0569060729858003,107.8535283416667
1536,2048,27.06785216025225,34381,24046,55726080,37391832,1.0797623063421669,0.1664966172183208,1.0,1536,0,1,1,91.41427528985842,0.6643967856820562,0.0468316730539531,107.8535283416667
1536,256,51.733368852833394,27940,4623,36016128,31798056,1.1580731594197733,0.2405169791698181,0.6094503684798137,1536,0,1,1,176.96851773293997,0.883833096705908,0.0238467471807286,107.8535283416667
1536,512,73.87806068390167,60412,14608,45875200,41283328,0.9868991296897238,0.1730946579734339,0.5897776118008308,1536,0,1,1,182.871520016411,0.8777354860852045,0.0215763292637078,107.8535283416667
2048,1024,41.58330390112413,104416,20119,39952384,28358168,0.8953703967661468,0.1571526316420452,0.7428976727484051,2048,0,1,1,145.17952108081664,0.7689813728576412,0.0424566732805745,107.8535283416667
2048,128,116.26587825584974,112948,27999,36589568,32921016,0.8420964182566973,0.2276181243022178,0.4134015967763735,2048,0,1,1,260.89286829728735,0.8922052972482206,0.0189626909493459,107.8535283416667
2048,1536,28.75235777136926,60897,32513,54648832,34572400,0.9508312944604452,0.1686867979672936,1.0,2048,0,1,1,96.75648108621424,0.6433483241085752,0.0515631923872669,107.8535283416667
2048,2048,26.803494111928853,40073,18763,45379584,25908472,1.1047757096868558,0.1799478250947619,1.0,2048,0,1,1,105.10542064500812,0.7089011296479684,0.058111227466652,107.8535283416667
2048,256,44.407395974850886,191074,29163,37736448,32975600,1.03289983576171,0.16752405321726,0.5420504862608196,2048,0,1,1,198.9732157343192,0.8752747791601632,0.0359561368246234,107.8535283416667
2048,512,67.25002077472521,23168,7990,35831808,31591360,0.9604494817271112,0.1888524411987614,0.5717780554340334,2048,0,1,1,188.62831008754912,0.8800170637435226,0.0309149610676879,107.8535283416667
256,1024,52.5415642612281,114307,51286,56025088,44911656,0.9425755022986383,0.1769148405300288,0.7103559382394785,256,0,1,1,151.83026217668728,0.7674922671632946,0.0525428526623932,107.8535283416667
256,128,75.22561742125318,178117,34169,37212160,33812440,0.7929826148940016,0.141339359793225,0.47258847999852155,256,0,1,1,228.2186995798207,0.8850581774264615,0.0186145438141184,107.8535283416667
256,1536,33.39035881508368,25962,8430,50454528,40179064,0.9538584751731238,0.1757177994614785,1.0,256,0,1,1,105.11514596635635,0.6644533051795442,0.0553983625486651,107.8535283416667
256,2048,25.508299117061817,115267,44733,60166144,41709696,1.074930757148818,0.2238370735803893,1.0,256,0,1,1,104.56819880507625,0.6827921518680954,0.0602006783164174,107.8535283416667
256,256,38.433230806401845,70897,22718,45797376,41479224,1.1791506946226629,0.2166780616470864,0.6265130804036613,256,0,1,1,172.1488851791839,0.8796473859370357,0.0223868108867111,107.8535283416667
256,512,87.04164936382847,137832,58131,44695552,40105024,0.9516245734625979,0.1814351274941598,0.4971512603894071,256,0,1,1,216.94308540460608,0.8833944730283007,0.0140228521692385,107.8535283416667
512,1024,59.03215850745353,57569,31884,50335744,38821656,0.9747487623049029,0.2023854255063471,0.7143564601105138,512,0,1,1,150.97998599324114,0.7579258057491743,0.0456913530481315,107.8535283416667
512,128,52.89869786042453,91783,4532,27844608,23478864,0.9474375867348428,0.2147575472812297,0.6032511956129921,512,0,1,1,178.78709420885875,0.8759480117395032,0.0214637963723982,107.8535283416667
512,1536,35.18485974263012,30617,38414,55201792,37393040,0.9736352298062633,0.1334165272025156,0.9095962628449469,512,0,1,1,118.5729677520144,0.6496172085473768,0.0402181972851496,107.8535283416667
512,2048,22.66523841387053,45381,21312,45641728,25566016,1.0715001431322637,0.2135331043145346,1.0,512,0,1,1,88.45513428093524,0.6465439718901125,0.0519563911889828,107.8535283416667
512,256,80.06075364013545,187869,32783,37998592,33431264,0.9645244160832195,0.201883825798677,0.5199317128327419,512,0,1,1,207.4378724737692,0.8914664869717221,0.0197219296840848,107.8535283416667
512,512,59.24717878089498,68538,29385,46059520,41451440,0.9827807305291935,0.2140222275470062,0.5600162759034177,512,0,1,1,192.58998886715835,0.8767686055721253,0.0221099207992687,107.8535283416667
