cpu,memory,duration_std,userDiff,sysDiff,heapTotal,heapUsed,avg_cpu_util,cpu_util_std,slo_preservation,total_cpu_shares,cpu_shares_others,num_containers,arrival_rate,latency,memory_util,memory_util_std,slo_duration
1024,1024,50.24190792515273,179625,51484,44687360,33156056,0.9757139933023917,0.1778559218252328,0.6261763403921843,1024,0,1,1,182.37720943508427,0.7739053245291219,0.039599615026144,114.20029357500002
1024,128,105.56718007449363,86385,16561,41672704,38119584,0.8186081955692975,0.147397852415979,0.4799968050746278,1024,0,1,1,237.91886189168417,0.8833524903521901,0.0230852920039003,114.20029357500002
1024,1536,38.64062918184885,44239,24130,45641728,25755672,1.0140528380604192,0.1556992965881759,1.0,1024,0,1,1,110.48534213554036,0.6575748875262885,0.0551143223547789,114.20029357500002
1024,2048,24.78873695030115,23248,11860,59256832,42443416,1.113879513837314,0.2401103905372695,0.9893081568012413,1024,0,1,1,115.43450116114188,0.692626551979611,0.0605158328122531,114.20029357500002
1024,256,43.84758048110451,47883,6472,52879360,48588528,1.1617463976466216,0.1813909470847764,0.6495402535344038,1024,0,1,1,175.81711518815246,0.8794514771526301,0.0491906208790475,114.20029357500002
1024,512,61.51319320984277,92597,31713,36851712,32184880,1.026742848915429,0.2318690576221286,0.6086169213816642,1024,0,1,1,187.63903789553842,0.8739493971032279,0.0318269173247432,114.20029357500002
128,1024,92.0831190978682,117845,26840,48959488,37510992,0.8788238227567967,0.1991350393749597,0.6133088420539944,128,0,1,1,186.20356620416385,0.7609376884471537,0.0565702445765791,114.20029357500002
128,128,92.26497703493396,32967,8181,33124352,28574096,0.7918537856571326,0.20324534810199,0.5520796347216212,128,0,1,1,206.85474774410756,0.8746701170764748,0.0326217292807449,114.20029357500002
128,1536,34.78652614081103,118305,13137,60792832,43093976,1.0427896594498112,0.1439037665093865,1.0,128,0,1,1,102.35277552932132,0.6643147670742853,0.0622480406350646,114.20029357500002
128,2048,26.5572848296012,88495,35351,61317120,43146920,1.0982663555913692,0.2100107385822839,1.0,128,0,1,1,102.57344140885661,0.6842103660458386,0.0592784503831086,114.20029357500002
128,256,76.77027659053356,101995,21009,27320320,23209472,0.9449805388398348,0.1503976562164372,0.473264056088274,128,0,1,1,241.303543140194,0.8809489049740076,0.0187986585420312,114.20029357500002
128,512,56.58092757951018,192223,29265,37736448,33794680,0.986524678869753,0.1981806916933302,0.7355887315133274,128,0,1,1,155.25019441237993,0.8817264922876914,0.0232568125374032,114.20029357500002
1536,1024,67.59224162509864,94721,40959,25792512,14488576,0.9118976134054119,0.1343196192604433,0.6461953322240465,1536,0,1,1,176.72720287525215,0.7336526691878613,0.0798712242112342,114.20029357500002
1536,128,129.49580144213812,169722,44723,37212160,33767504,0.7021419412724383,0.087722515232015,0.32228002560775193,1536,0,1,1,354.3511372125605,0.8748490591984325,0.0372486310478401,114.20029357500002
1536,1536,43.8676962964495,121887,24381,52060160,34872104,0.8884265762242303,0.1948851272448535,0.8235601058806236,1536,0,1,1,138.66661675274682,0.6699248573223954,0.0590862085660632,114.20029357500002
1536,2048,31.36212308215247,143430,15249,66609152,47245176,1.0027645580125029,0.200941237642514,1.0,1536,0,1,1,92.61909252717838,0.6694769558537961,0.0468147864989135,114.20029357500002
1536,256,65.65450985651694,111243,35641,30703616,26038976,0.9174193270057998,0.210290634107909,0.678423256775764,1536,0,1,1,168.3319261750281,0.8752115312098763,0.0353329762501171,114.20029357500002
1536,512,77.5403014751796,110693,19845,36851712,32689600,0.9888589596799677,0.1621721174512271,0.5226931169644959,1536,0,1,1,218.48440292883578,0.8844959581861846,0.0321929438410754,114.20029357500002
2048,1024,69.28647262057181,187279,38168,25530368,14490376,0.9205755433875601,0.153476895123818,0.5416594811708917,2048,0,1,1,210.83410804170938,0.7537775288639292,0.0765617741867276,114.20029357500002
2048,128,54.63065801503024,106785,34408,30441472,25981664,0.8374080474606214,0.1902171403394982,0.5682839713716106,2048,0,1,1,200.95638682077572,0.8725720475327099,0.0346474558903008,114.20029357500002
2048,1536,27.56841498192743,25777,5487,42467328,27996072,1.054782713134541,0.1970124757366587,0.9669229131872633,2048,0,1,1,118.10692664067929,0.6678105014829868,0.0534964480368297,114.20029357500002
2048,2048,21.7351143669238,47480,13901,48242688,28431920,1.0912927538768684,0.1816075511399293,1.0,2048,0,1,1,91.79632788416465,0.6440550020214509,0.0460987931763579,114.20029357500002
2048,256,69.99764957854359,66543,20354,42323968,38539768,1.017820050126098,0.1484226560492606,0.5406529798380674,2048,0,1,1,211.22660529718064,0.8765705742581276,0.0375636737828764,114.20029357500002
2048,512,83.32528352645869,99482,41411,36327424,33004896,0.824534049056946,0.1679666301315583,0.49880259199327254,2048,0,1,1,228.94887758831106,0.8937376476060296,0.0153468433321955,114.20029357500002
256,1024,58.802593635645806,48489,12787,41066496,29970280,0.8240662625207185,0.1676781475947204,0.7353746236166995,256,0,1,1,155.29539626121885,0.7606477168170983,0.04838133892204,114.20029357500002
256,128,122.29141912747929,191522,29640,37474304,33927880,0.698760487297343,0.1371719657232177,0.3944383036753516,256,0,1,1,289.5263784244298,0.8697807860236264,0.0374149367955601,114.20029357500002
256,1536,47.49426242438821,123433,52815,64806912,44941832,0.9405412368927212,0.1722967885494032,0.7102472119701689,256,0,1,1,160.78949927619925,0.6567444883756601,0.0664602740097439,114.20029357500002
256,2048,33.8615678739871,85663,26315,51523584,34037600,0.9899039058783565,0.2329280885540828,1.0,256,0,1,1,113.37303239703174,0.6456162387332074,0.0396771389137168,114.20029357500002
256,256,73.72986958061597,154333,45120,37474304,33371296,0.9320415670891083,0.1626518527676968,0.5119639451796867,256,0,1,1,223.06315640043468,0.8711335306326701,0.0483663275857186,114.20029357500002
256,512,70.12694721314465,172569,27455,37474304,33320496,0.939084908972982,0.2180252309505364,0.5328010148173747,256,0,1,1,214.3394820937866,0.8860738131810043,0.0185649629406913,114.20029357500002
512,1024,53.80442744294756,104698,23409,40214528,30371632,0.9953488964757109,0.1725330474405633,0.6001825359172879,512,0,1,1,190.27593563758435,0.7640014896831273,0.0738316917003082,114.20029357500002
512,128,107.41024241126242,57230,19994,37662720,34107200,0.847158195227235,0.1709282536598369,0.5338349177215467,512,0,1,1,213.92436085375735,0.8814068912167696,0.0184011769069946,114.20029357500002
512,1536,37.29047740959712,106453,47692,66871296,47412608,1.0360256120336062,0.2285660066251048,1.0,512,0,1,1,106.94450288503153,0.6566313311205152,0.0341194596456802,114.20029357500002
512,2048,22.12173381971536,37524,23992,52047872,34163760,1.0620267793079916,0.1431888503472586,1.0,512,0,1,1,89.5905303779185,0.6597775639635446,0.042126960518195,114.20029357500002
512,256,62.18186257919672,105179,11636,27844608,23264256,0.958648979297046,0.1781438092175503,0.7298327185178599,512,0,1,1,156.4746149047926,0.8832683392239804,0.024068781871691,114.20029357500002
512,512,60.06763128215349,59252,30234,41934848,38081320,0.9779985252932362,0.2028021271685064,0.6798127868108559,512,0,1,1,167.98785752580133,0.8796384887290325,0.0306912103726164,114.20029357500002
