cpu,memory,duration_std,userDiff,sysDiff,heapTotal,heapUsed,avg_cpu_util,cpu_util_std,slo_preservation,total_cpu_shares,cpu_shares_others,num_containers,arrival_rate,latency,memory_util,memory_util_std,slo_duration
1024,1024,515.433056856517,1701983,146878,48406528,39987088,1.0465574441694578,0.1241780608620112,0.5349363366760375,1024,0,1,1,709.8918522896646,0.8557424189804212,0.0319752619240297,379.7469468999999
1024,128,606.0699542464974,2084174,176737,43921408,40502368,1.0140044859576713,0.1957367433521155,0.35389345806702593,1024,0,1,1,1073.0544412269905,0.9227972039063344,0.0077669632446977,379.7469468999999
1024,1536,337.16250839148694,1602954,138152,60112896,48751016,1.0568766709980322,0.1358916590039798,0.9194225584198618,1024,0,1,1,413.02765896090335,0.7455979857300907,0.0418861953028607,379.7469468999999
1024,2048,227.647423085392,1610460,107896,72294400,54461824,1.1402385713704826,0.2706786351548696,1.0,1024,0,1,1,262.8515167723601,0.763992996266485,0.0357989000083899,379.7469468999999
1024,256,340.4915452231537,1715566,144789,53972992,49241792,1.1234506856084139,0.151419098094808,0.7002760539735041,1024,0,1,1,542.2817826559126,0.9278265221169124,0.0089670370098609,379.7469468999999
1024,512,584.6562848947668,1700945,192573,52654080,49432264,1.0232951006440951,0.1247862383405743,0.4843065738584028,1024,0,1,1,784.1044648116358,0.925721129781842,0.0127617439312443,379.7469468999999
128,1024,524.6143874075083,1823549,147710,58187776,48563760,1.0089838252410972,0.1689676729258026,0.5729395498024134,128,0,1,1,662.8045611984043,0.8333513638219754,0.0212101562107838,379.7469468999999
128,128,834.8441081705167,1895402,235256,52916224,49372288,0.9366430058819504,0.2717714814763955,0.3441116367054574,128,0,1,1,1103.5574110068371,0.9280494245688268,0.0085044526329154,379.7469468999999
128,1536,335.2855693769765,1715024,144920,84779008,66568008,1.07397534478748,0.1877508121762556,0.8555060263837223,128,0,1,1,443.88576490245674,0.7741330375511979,0.0438293271197046,379.7469468999999
128,2048,201.90116587190624,196901,29507,72945664,53416448,1.1490526742139082,0.2507169721722255,1.0,128,0,1,1,251.34815986857825,0.7661093155337878,0.0418328395838938,379.7469468999999
128,256,520.6712208350198,1816871,153988,43397120,40998392,0.9949306416748966,0.1649372965850953,0.5623370288190834,128,0,1,1,675.3013360999443,0.9333844330221536,0.0115454722263538,379.7469468999999
128,512,543.2356514173712,1953777,117912,44179456,40283336,1.067746219354227,0.1026419975802906,0.5023465155480153,128,0,1,1,755.9462147074511,0.925284637411408,0.0156736752264729,379.7469468999999
1536,1024,606.1869500459029,1994228,123301,80203776,69814160,0.9431228874403067,0.1557741368879421,0.51790418681514,1536,0,1,1,733.237839290815,0.846366709204623,0.0209866583283681,379.7469468999999
1536,128,892.3055123904477,2175799,259713,66195456,62429288,0.9321064091960082,0.1073543753982778,0.3208786474235331,1536,0,1,1,1183.459697144527,0.9296690419541692,0.0110601817231596,379.7469468999999
1536,1536,350.0395355898597,1684821,151107,63025152,45051504,1.0658665757151213,0.1561040840265518,0.8745383358895562,1536,0,1,1,434.22561517984434,0.7584563660934875,0.0420012238406522,379.7469468999999
1536,2048,187.98660071352032,1372868,131410,57188352,41542264,1.1329635231674078,0.2194250024976462,1.0,1536,0,1,1,285.8989920515954,0.7616483077864922,0.0408716511117177,379.7469468999999
1536,256,543.7690432032736,2221627,109145,62574592,58969384,1.0468013601469357,0.1238080001376582,0.5232357792894591,1536,0,1,1,725.7663981153709,0.9296053815050982,0.0092113023355114,379.7469468999999
1536,512,539.4091227905421,1762526,105899,43134976,40169744,1.044023780561335,0.17391423175093,0.5575217275358217,1536,0,1,1,681.1338969306814,0.9325682141695876,0.0090253188218282,379.7469468999999
2048,1024,545.659844135608,1783647,130582,66998272,57341240,0.953157710384222,0.1414392173827619,0.5976557074018306,2048,0,1,1,635.3941612150942,0.8428886578172092,0.024110480475749,379.7469468999999
2048,128,1082.1744388704217,1973085,250828,66195456,61449232,0.9591855120192363,0.1436891375084972,0.31696257589759835,2048,0,1,1,1198.0813375983082,0.9270651057337927,0.01041984393424,379.7469468999999
2048,1536,375.2081308414614,1643696,152777,86724608,68758512,1.0403843716945307,0.1506205858626292,0.8596352401953599,2048,0,1,1,441.75358238419705,0.7625317201031895,0.0413713798659562,379.7469468999999
2048,2048,201.8147391909296,141628,12125,64679936,48505936,1.1201475399307343,0.2233221707483254,1.0,2048,0,1,1,235.85325998597966,0.7740026044470175,0.0400415225532969,379.7469468999999
2048,256,347.8661136898007,236112,40051,54149120,50311488,1.164683645545745,0.2134303757777616,0.7779305765333413,2048,0,1,1,488.1501747781273,0.9202675757884512,0.0169267978591116,379.7469468999999
2048,512,375.6405514737606,105774,4664,55705600,51530176,1.214600413077492,0.2677676946355686,0.8267223819212113,2048,0,1,1,459.34034834947863,0.9228181648924882,0.0131214366921257,379.7469468999999
256,1024,528.4909074378131,1964845,86288,60923904,50775944,0.9881817711158817,0.1758052945559111,0.5885831982639395,256,0,1,1,645.1882215124144,0.8495960945228823,0.0258299603058917,379.7469468999999
256,128,619.2604823454332,2141764,177136,54226944,51093288,1.0660553186470507,0.1278278383089202,0.48706195807103725,256,0,1,1,779.6686655717308,0.9275510934888208,0.0132253847292986,379.7469468999999
256,1536,320.6686922821076,99373,10458,59666432,45712232,1.0720406472886295,0.1756491806268494,0.9262340959017077,256,0,1,1,409.9902482323419,0.7511118545633811,0.0303741846651623,379.7469468999999
256,2048,193.2941512510646,235409,51850,86216704,67117680,1.1284731655119071,0.179763815079505,1.0,256,0,1,1,255.49231084404323,0.7311562044500308,0.041561886404666,379.7469468999999
256,256,353.8764115783226,1831124,117381,49332224,44750760,1.1660387384650983,0.3061218201215728,0.8209346565383996,256,0,1,1,462.57877393221867,0.9267638585691764,0.0147334585157939,379.7469468999999
256,512,574.0815656016738,1836764,134113,52654080,49482536,1.082033076958564,0.1248246796660524,0.5195192803986087,256,0,1,1,730.9583324965986,0.928354745874941,0.01157884803449,379.7469468999999
512,1024,548.8077410573445,135611,20503,51257344,41430208,0.9943709581424486,0.1867844520853443,0.568840514478369,512,0,1,1,667.580696582821,0.8359834547977627,0.0363544559654113,379.7469468999999
512,128,655.5860913596931,1971667,198181,65933312,61502712,1.0412881725970995,0.1251958078630257,0.4719014702239797,512,0,1,1,804.7166005220532,0.9251184299538948,0.0125083414534037,379.7469468999999
512,1536,357.5643843400242,1656325,96948,59326464,46969240,1.0381800466222295,0.139047407205163,0.8545939751613757,512,0,1,1,444.359494610632,0.7714223949317169,0.0403392806620406,379.7469468999999
512,2048,211.52577723418332,1554397,117903,86396928,68699360,1.086594556713161,0.1293007434971928,1.0,512,0,1,1,267.1700972700564,0.7402823480667202,0.0348824294124073,379.7469468999999
512,256,361.2763299030732,1700914,144809,62185472,58413184,1.1685931610702955,0.1772240460429053,0.7308445571852908,512,0,1,1,519.6001573337609,0.93307005334507,0.0129712122585171,379.7469468999999
512,512,589.7276557433313,2056794,204124,66195456,61846400,1.026894136023449,0.1403708454694314,0.47250571380220063,512,0,1,1,803.6875233618207,0.931929204998046,0.0107304896977235,379.7469468999999
