cpu,memory,duration_std,userDiff,sysDiff,heapTotal,heapUsed,avg_cpu_util,cpu_util_std,slo_preservation,total_cpu_shares,cpu_shares_others,num_containers,arrival_rate,latency,memory_util,memory_util_std,slo_duration
1024,1024,515.433056856517,1701983,146878,48406528,39987088,1.034516335041684,0.1241780608620112,0.39658624205135784,1024,0,1,1,957.5393864793291,0.8557424189804212,0.0319752619240297,379.7469468999999
1024,128,606.0699542464974,2084174,176737,43921408,40502368,1.0104667192126944,0.1957367433521155,0.2644940676860702,1024,0,1,1,1435.7484469206474,0.9227972039063344,0.0077669632446977,379.7469468999999
1024,1536,337.16250839148694,1602954,138152,60112896,48751016,1.0420594528332359,0.1358916590039798,0.6798993163824781,1024,0,1,1,558.5340913718067,0.7455979857300907,0.0418861953028607,379.7469468999999
1024,2048,227.647423085392,1610460,107896,72294400,54461824,1.1016162974328756,0.2706786351548696,1.0,1024,0,1,1,362.7559960947202,0.763992996266485,0.0357989000083899,379.7469468999999
1024,256,340.4915452231537,1715566,144789,53972992,49241792,1.0898160509395292,0.151419098094808,0.509483033046274,1024,0,1,1,745.3573961618251,0.9278265221169124,0.0089670370098609,379.7469468999999
1024,512,584.6562848947668,1700945,192573,52654080,49432264,1.0173701655444307,0.1247862383405743,0.36112680905325795,1024,0,1,1,1051.5612172232716,0.925721129781842,0.0127617439312443,379.7469468999999
128,1024,524.6143874075083,1823549,147710,58187776,48563760,1.0067227698833807,0.1689676729258026,0.4287417271642077,128,0,1,1,885.7242550468085,0.8333513638219754,0.0212101562107838,379.7469468999999
128,128,834.8441081705167,1895402,235256,52916224,49372288,0.9517174958282593,0.2717714814763955,0.262237370412787,128,0,1,1,1448.103854543086,0.9280494245688268,0.0085044526329154,379.7469468999999
128,1536,335.2855693769765,1715024,144920,84779008,66568008,1.054474073989276,0.1877508121762556,0.629978795142917,128,0,1,1,602.7932207049136,0.7741330375511979,0.0438293271197046,379.7469468999999
128,2048,201.90116587190624,196901,29507,72945664,53416448,1.1077735227177958,0.2507169721722255,1.0,128,0,1,1,347.61891828715653,0.7661093155337878,0.0418328395838938,379.7469468999999
128,256,520.6712208350198,1816871,153988,43397120,40998392,0.9961931566929698,0.1649372965850953,0.4222879538529264,128,0,1,1,899.2606666498884,0.9333844330221536,0.0115454722263538,379.7469468999999
128,512,543.2356514173712,1953777,117912,44179456,40283336,1.0499634557081456,0.1026419975802906,0.37048514469108035,128,0,1,1,1024.9991189704576,0.925284637411408,0.0156736752264729,379.7469468999999
1536,1024,606.1869500459029,1994228,123301,80203776,69814160,0.9567268526622446,0.1557741368879421,0.394030976157078,1536,0,1,1,963.7489686816301,0.846366709204623,0.0209866583283681,379.7469468999999
1536,128,892.3055123904477,2175799,259713,66195456,62429288,0.9482005949951843,0.1073543753982778,0.24481431632147205,1536,0,1,1,1551.1631533890538,0.9296690419541692,0.0110601817231596,379.7469468999999
1536,1536,350.0395355898597,1684821,151107,63025152,45051504,1.048599658514522,0.1561040840265518,0.6452781857966445,1536,0,1,1,588.5011383596885,0.7584563660934875,0.0420012238406522,379.7469468999999
1536,2048,187.98660071352032,1372868,131410,57188352,41542264,1.0965144181085158,0.2194250024976462,0.9641427704758044,1536,0,1,1,393.8700351531908,0.7616483077864922,0.0408716511117177,379.7469468999999
1536,256,543.7690432032736,2221627,109145,62574592,58969384,1.0346950759242874,0.1238080001376582,0.38788840819490644,1536,0,1,1,979.0108156807418,0.9296053815050982,0.0092113023355114,379.7469468999999
1536,512,539.4091227905421,1762526,105899,43134976,40169744,1.032658398874616,0.17391423175093,0.41358935391208385,1536,0,1,1,918.173892311363,0.9325682141695876,0.0090253188218282,379.7469468999999
2048,1024,545.659844135608,1783647,130582,66998272,57341240,0.9644519953053744,0.1414392173827619,0.45355314752449544,2048,0,1,1,837.2711091801883,0.8428886578172092,0.024110480475749,379.7469468999999
2048,128,1082.1744388704217,1973085,250828,66195456,61449232,0.969073572437922,0.1436891375084972,0.2401725619590454,2048,0,1,1,1581.1420913466166,0.9270651057337927,0.01041984393424,379.7469468999999
2048,1536,375.2081308414614,1643696,152777,86724608,68758512,1.029985541952975,0.1506205858626292,0.6382822730067363,2048,0,1,1,594.9514234683941,0.7625317201031895,0.0413713798659562,379.7469468999999
2048,2048,201.8147391909296,141628,12125,64679936,48505936,1.0874829399430346,0.2233221707483254,1.0,2048,0,1,1,323.91674297195937,0.7740026044470175,0.0400415225532969,379.7469468999999
2048,256,347.8661136898007,236112,40051,54149120,50311488,1.1186286831571557,0.2134303757777616,0.5603767124295467,2048,0,1,1,677.6636831562546,0.9202675757884512,0.0169267978591116,379.7469468999999
2048,512,375.6405514737606,105774,4664,55705600,51530176,1.1527549888798057,0.2677676946355686,0.5884702943766433,2048,0,1,1,645.3120072989572,0.9228181648924882,0.0131214366921257,379.7469468999999
256,1024,528.4909074378131,1964845,86288,60923904,50775944,0.9911100625078995,0.1758052945559111,0.4427455156583213,256,0,1,1,857.709301324829,0.8495960945228823,0.0258299603058917,379.7469468999999
256,128,619.2604823454332,2141764,177136,54226944,51093288,1.0487366600824042,0.1278278383089202,0.3593620252808834,256,0,1,1,1056.7253081434615,0.9275510934888208,0.0132253847292986,379.7469468999999
256,1536,320.6686922821076,99373,10458,59666432,45712232,1.0530746032728808,0.1756491806268494,0.6823856951318311,256,0,1,1,556.4989852646838,0.7511118545633811,0.0303741846651623,379.7469468999999
256,2048,193.2941512510646,235409,51850,86216704,67117680,1.0933564252652548,0.179763815079505,1.0,256,0,1,1,351.5977164380864,0.7311562044500308,0.041561886404666,379.7469468999999
256,256,353.8764115783226,1831124,117381,49332224,44750760,1.1195659106086027,0.3061218201215728,0.5911620424640059,256,0,1,1,642.3736972644375,0.9267638585691764,0.0147334585157939,379.7469468999999
256,512,574.0815656016738,1836764,134113,52654080,49482536,1.0602883970403922,0.1248246796660524,0.38180921413725405,256,0,1,1,994.598697043197,0.928354745874941,0.01157884803449,379.7469468999999
512,1024,548.8077410573445,135611,20503,51257344,41430208,0.9957722690882703,0.1867844520853443,0.4272316120155029,512,0,1,1,888.8549822156419,0.8359834547977627,0.0363544559654113,379.7469468999999
512,128,655.5860913596931,1971667,198181,65933312,61502712,1.0306497612892818,0.1251958078630257,0.3503101858143783,512,0,1,1,1084.0305599941062,0.9251184299538948,0.0125083414534037,379.7469468999999
512,1536,357.5643843400242,1656325,96948,59326464,46969240,1.028364297417223,0.139047407205163,0.6348854919504207,512,0,1,1,598.1345482212641,0.7714223949317169,0.0403392806620406,379.7469468999999
512,2048,211.52577723418332,1554397,117903,86396928,68699360,1.0635697196123186,0.1293007434971928,1.0,512,0,1,1,363.9386217401127,0.7402823480667202,0.0348824294124073,379.7469468999999
512,256,361.2763299030732,1700914,144809,62185472,58413184,1.1213309775427993,0.1772240460429053,0.5259648967501868,512,0,1,1,722.0005541175217,0.93307005334507,0.0129712122585171,379.7469468999999
512,512,589.7276557433313,2056794,204124,66195456,61846400,1.0200358900296347,0.1403708454694314,0.35201251722162175,512,0,1,1,1078.7881916736414,0.931929204998046,0.0107304896977235,379.7469468999999
