cpu,memory,duration_std,userDiff,sysDiff,heapTotal,heapUsed,avg_cpu_util,cpu_util_std,slo_preservation,total_cpu_shares,cpu_shares_others,num_containers,arrival_rate,latency,memory_util,memory_util_std,slo_duration
1024,1024,120.527461975794,269964,51951,38383616,31655112,0.8515171398687731,0.1388523888403082,1.0,1024,0,1,1,347.01398488441396,0.8006202968551666,0.0770693589604191,359.2669914528302
1024,128,792.2938509725371,302992,45343,32481280,29931568,0.7324311795069756,0.356054700018143,0.3311350551256522,1024,0,1,1,1084.9560802812105,0.9213473354961964,0.0104726493871209,359.2669914528302
1024,1536,55.272282625114514,287812,22006,69070848,51903752,1.2342620971034441,0.2375263595896226,1.0,1024,0,1,1,170.0891558465882,0.7145961692705092,0.1127843128934794,359.2669914528302
1024,2048,25.003333304526016,235083,50750,68808704,51342016,1.344068603505143,0.1489516194726263,1.0,1024,0,1,1,126.6850181378583,0.7547318984125995,0.0988305681611785,359.2669914528302
1024,256,148.00410419571608,231156,52970,31956992,29839920,0.5283950773791367,0.1293136644387412,0.4519903352565173,1024,0,1,1,794.8554724050373,0.897942120684134,0.0565515332528366,359.2669914528302
1024,512,202.950161204119,252946,40165,32743424,30315288,0.678383636245635,0.3483637861405518,0.5566338421114424,1024,0,1,1,645.4278634767273,0.8916786521660032,0.0375718223551449,359.2669914528302
128,1024,101.21859612838348,279754,37631,36810752,30305208,0.8254939951710214,0.1042348943910027,0.9887286093100612,128,0,1,1,363.3625932029297,0.8081964767184793,0.0832436108475527,359.2669914528302
128,128,1359.1281269703045,295331,33653,33005568,29697440,0.4466120289271903,0.2323107981038793,0.19182447307481434,128,0,1,1,1872.8944523815312,0.9151058603961584,0.009994447795141,359.2669914528302
128,1536,38.081110880051845,213278,37492,36147200,15621584,1.2627376462562034,0.1619135513625679,1.0,128,0,1,1,166.17103719417474,0.6653413455511556,0.1222676705473364,359.2669914528302
128,2048,26.847573335792653,233298,37065,69595136,51283240,1.3395774604394879,0.3063263151722032,1.0,128,0,1,1,131.70714904766572,0.6899846646957151,0.1432779016334873,359.2669914528302
128,256,227.06227057299867,245665,39303,33005568,29713392,0.3819657174937029,0.0475390074416789,0.32070002381083074,128,0,1,1,1120.2586990288119,0.8890409476436356,0.0520480239463254,359.2669914528302
128,512,172.03242036762094,254204,36467,32743424,30145440,0.5653280244511508,0.1025483086662757,0.527136378907953,128,0,1,1,681.5446738794789,0.8962182176923328,0.0483885049149486,359.2669914528302
1536,1024,90.89880301116128,336463,31232,39694336,29942152,0.886997847509926,0.1202981370620099,1.0,1536,0,1,1,316.79991161445093,0.7944115112725902,0.0928341000074553,359.2669914528302
1536,128,1065.3797722386112,312430,65056,31956992,29807064,0.5369613404597544,0.2322394603827415,0.23063172902930879,1536,0,1,1,1557.7518018224387,0.9156438532936708,0.0107539373108676,359.2669914528302
1536,1536,36.1313359911583,148315,48093,69853184,51877000,1.2041784607547787,0.2821098970407007,1.0,1536,0,1,1,157.83959647746178,0.7468959146250962,0.0873663290627578,359.2669914528302
1536,2048,30.65434736366861,277409,47152,49786880,30079184,1.3390798694973836,0.3123774257423488,1.0,1536,0,1,1,125.14369726923636,0.6987384867030151,0.1404687608966006,359.2669914528302
1536,256,182.87241804386488,265076,29052,32481280,29955808,0.498025798960922,0.131673017019474,0.42780639423441913,1536,0,1,1,839.7887369022532,0.9188395503880096,0.0090829590096298,359.2669914528302
1536,512,140.77991294772747,255324,42631,32481280,29693704,0.7099873530365175,0.2469628849358806,0.6784324880581454,1536,0,1,1,529.5545213071209,0.8973449113954375,0.0479222243784351,359.2669914528302
2048,1024,96.15389984958078,261279,39996,37597184,31160408,0.8349912416057375,0.1435689267883337,1.0,2048,0,1,1,324.5063979422754,0.8005802140097817,0.0776311292367032,359.2669914528302
2048,128,402.6855791511248,293592,33295,32481280,29779168,0.49583236148016796,0.2676487343173421,0.28751509720083135,2048,0,1,1,1249.5587012666665,0.9132316385462528,0.0065821732488224,359.2669914528302
2048,1536,47.97502322017591,294502,29756,51359744,30466488,1.2823401000702381,0.2359229083135538,1.0,2048,0,1,1,156.03880198341935,0.7225249295711234,0.1222109126989744,359.2669914528302
2048,2048,30.317208597461764,277087,42993,50311168,30072416,1.3546473351564996,0.2336312692710097,1.0,2048,0,1,1,133.22856596877372,0.6691114340697251,0.1379787605905094,359.2669914528302
2048,256,180.0675339667036,227015,38908,32481280,29688400,0.6589356094116087,0.295184054093656,0.514526234863199,2048,0,1,1,698.2481496756939,0.903686700872145,0.0408762632368516,359.2669914528302
2048,512,118.3730884986738,246297,47451,32219136,30102424,0.6322396939685229,0.0843275794415709,0.6314092490535895,2048,0,1,1,568.9922851008763,0.8910044294797508,0.0656939060237696,359.2669914528302
256,1024,96.37718614508488,286824,27165,36548608,30388464,0.8293775217492743,0.1504272872364495,1.0,256,0,1,1,340.16347596060973,0.7986631469441523,0.0781386469855742,359.2669914528302
256,128,941.798976616185,255022,32284,32481280,29782712,0.31797479337963386,0.1364646036496347,0.1869681692507418,256,0,1,1,1921.5409387199998,0.9176831240370766,0.0148236921947384,359.2669914528302
256,1536,61.22418201417141,290154,40237,51359744,30971896,1.2067529307751295,0.2702389747468456,1.0,256,0,1,1,179.65321523667927,0.6985255235036979,0.1233179479117079,359.2669914528302
256,2048,25.5103995130048,229625,25837,68808704,51315360,1.3071329378347065,0.2542746691727625,1.0,256,0,1,1,128.02696392638413,0.7414394522456108,0.0937408182048119,359.2669914528302
256,256,210.6846458370428,300749,40338,32481280,30210136,0.45026821568039205,0.0784409075455306,0.38587537550422296,256,0,1,1,931.0440993633667,0.9045492912037378,0.0384868923367223,359.2669914528302
256,512,132.23370676349788,243412,35489,33267712,29712416,0.597577821825485,0.0855674327573737,0.6110117562746247,256,0,1,1,587.9870358686755,0.8926747996871753,0.0662494773045941,359.2669914528302
512,1024,88.53691944635175,237040,26518,37597184,30477952,0.8386544771699442,0.1315088604200583,1.0,512,0,1,1,329.06226877539484,0.7828636621219907,0.1048939953170859,359.2669914528302
512,128,908.2189699621908,245623,46024,32743424,29716504,0.5969230197067477,0.3768654120657408,0.23714408198791231,512,0,1,1,1514.973464406937,0.915702401693932,0.0102344664605688,359.2669914528302
512,1536,43.68780223230366,97090,12284,58970112,45521088,1.2575321782479705,0.1967402296568782,1.0,512,0,1,1,157.97940628436712,0.6799774123577443,0.1025728768046296,359.2669914528302
512,2048,26.64482617067426,238813,25005,50049024,29957464,1.3346202121422,0.2136150944348092,1.0,512,0,1,1,124.89643498529135,0.726144453732872,0.1302420825497635,359.2669914528302
512,256,160.70564227055428,256985,18779,32481280,29754824,0.46512994014025477,0.0809606719576248,0.4116125220474513,512,0,1,1,872.8281386235703,0.9113534347896792,0.0324484233275533,359.2669914528302
512,512,142.37945919643917,270973,26099,32481280,29712744,0.5954501328534954,0.1187387618745546,0.5488682933728818,512,0,1,1,654.5595651828933,0.8925118488745226,0.0515028358885906,359.2669914528302
