cpu,memory,duration_std,userDiff,sysDiff,heapTotal,heapUsed,avg_cpu_util,cpu_util_std,slo_preservation,total_cpu_shares,cpu_shares_others,num_containers,arrival_rate,latency,memory_util,memory_util_std,slo_duration
1024,1024,772.6509809598085,1885699,166191,43700224,35846968,0.8805965373382157,0.141154131823714,1.0,1024,0,1,1,633.2322096400022,0.8188166107618281,0.0412975497935565,2660.2805046239323
1024,128,3104.970243367099,2180316,245014,36749312,33813336,0.32070774319588313,0.1317581767099654,0.26261799573310945,1024,0,1,1,10129.8484789576,0.9161899328050948,0.0089788558933909,2660.2805046239323
1024,1536,355.3051760883603,1648560,126977,52482048,38476560,1.045393202873243,0.1336262073584885,1.0,1024,0,1,1,257.95410316741277,0.7351844978532105,0.0362036895973358,2660.2805046239323
1024,2048,220.11107465354868,1523363,140347,52482048,39841824,1.0491766462349414,0.1151012462476824,1.0,1024,0,1,1,162.533170222697,0.7301744072696708,0.0579358547976635,2660.2805046239323
1024,256,3000.552580954071,1881787,139702,35962880,32417056,0.5306417532371681,0.3105370333056786,0.4869000174246956,1024,0,1,1,5463.710021401619,0.9218765486166268,0.0097566836213348,2660.2805046239323
1024,512,2012.0937350169368,1943816,190755,35962880,32667328,0.5544676482261836,0.274725614519102,1.0,1024,0,1,1,1898.5223015950626,0.92408686062543,0.0212904858021121,2660.2805046239323
128,1024,842.4495899389665,1832205,165378,43962368,36726656,0.7608154104655876,0.1848542322926915,1.0,128,0,1,1,671.9923488347395,0.8152913451248589,0.0380779308792025,2660.2805046239323
128,128,1816.357702177188,2063193,272041,36225024,33725792,0.17644368779074915,0.0228478496686076,0.1674457855845249,128,0,1,1,15887.413919301363,0.9224028507579236,0.0053436491756285,2660.2805046239323
128,1536,518.9941570575185,1512021,133790,52219904,35989464,0.8798677259883588,0.2500571447406521,1.0,128,0,1,1,388.5800422771415,0.7267352710574062,0.0509632948154699,2660.2805046239323
128,2048,325.71815317751174,1491241,164534,52744192,34960280,0.9889909253042475,0.1498127320506482,1.0,128,0,1,1,272.32407452442175,0.7256685633841565,0.0465551001757543,2660.2805046239323
128,256,2843.0132576440465,2043693,150756,37011456,34078536,0.2441561305570426,0.0341934471090182,0.3002101542326804,128,0,1,1,8861.394150452552,0.9213431384945144,0.0061745394898752,2660.2805046239323
128,512,1342.799587014843,2436147,179075,37797888,35316240,0.6163490600856001,0.2210117060371879,1.0,128,0,1,1,1525.68037527038,0.921258295000564,0.0271427425406981,2660.2805046239323
1536,1024,940.2532230120368,2018335,157311,44224512,36385552,0.7565062304862072,0.1752332249973515,1.0,1536,0,1,1,685.1034400166936,0.8073906064702779,0.0454250867647697,2660.2805046239323
1536,128,1628.0006747759116,1966128,186966,36749312,33645832,0.2687824843808054,0.0444991640836844,0.2524314649208497,1536,0,1,1,10538.624832122521,0.92306070192858,0.0068259242449705,2660.2805046239323
1536,1536,518.4432226645508,1590660,138025,52219904,34447128,0.9834686863724816,0.153602391236665,1.0,1536,0,1,1,404.0513689994882,0.7078803960319685,0.0400213310280586,2660.2805046239323
1536,2048,336.5616883492994,1463981,125880,52744192,38088992,1.0246140842856728,0.1618981929426556,1.0,1536,0,1,1,225.39902477876257,0.7194431513675842,0.0616768689427603,2660.2805046239323
1536,256,2845.5952349284084,2090539,126346,37273600,34445392,0.40882844380707944,0.1377486736598692,0.48736010817666237,1536,0,1,1,5458.5520234241485,0.922011893738512,0.0104866957427021,2660.2805046239323
1536,512,1933.8854960171852,2280381,197004,37535744,35043488,0.5595232950591377,0.2772560105043016,1.0,1536,0,1,1,1943.9815539868137,0.9150392375177194,0.0350476235001549,2660.2805046239323
2048,1024,793.7355106347144,1759475,155430,42913792,36233232,0.7785259547180762,0.1572678344701343,1.0,2048,0,1,1,671.1680297380051,0.8285067802742552,0.0331113834983765,2660.2805046239323
2048,128,1757.7484626416883,2220745,142972,36749312,34116592,0.32419007984811876,0.0465749815492692,0.3137327694136904,2048,0,1,1,8479.447364059271,0.921026890093187,0.0066995676083517,2660.2805046239323
2048,1536,527.1291578357003,1642593,173820,52219904,40196432,0.9552984040176551,0.1221270768738905,1.0,2048,0,1,1,394.6523492064579,0.698833552380562,0.0461094695175969,2660.2805046239323
2048,2048,362.7603901368251,1778665,142118,53530624,40988184,1.0113663036653109,0.1701661075474607,1.0,2048,0,1,1,265.1408369333318,0.7148432660684315,0.0589303599041522,2660.2805046239323
2048,256,3227.944974180161,2071066,141135,37011456,34658664,0.32670401258028076,0.0744110338318957,0.4188220864738341,2048,0,1,1,6351.815223073564,0.9250609086759508,0.011577175927754,2660.2805046239323
2048,512,1730.8792805662606,1965190,156918,36487168,33596072,0.5950260669295449,0.2276520591774399,1.0,2048,0,1,1,1666.7731945715873,0.9156804641864218,0.0347540563714238,2660.2805046239323
256,1024,870.5134501338557,1847343,144503,43438080,33822240,0.740009230597625,0.1596233487427691,1.0,256,0,1,1,720.1908919357054,0.8332250940760723,0.0272762327469271,2660.2805046239323
256,128,1366.837081544622,2120204,175299,36487168,33675376,0.19058639007405176,0.0158953603792369,0.17878221556904064,256,0,1,1,14880.00635945026,0.9216029247289794,0.0049502726408413,2660.2805046239323
256,1536,390.9561228017183,1675751,127900,52482048,36968136,1.097308198541651,0.2118086579842558,1.0,256,0,1,1,271.3899034004583,0.7138219996322719,0.0483784879942848,2660.2805046239323
256,2048,193.2276846585624,1374893,89476,51171328,39700688,1.0411515986104156,0.1281441042928919,1.0,256,0,1,1,130.78303989254152,0.7088042753522832,0.0495393548147293,2660.2805046239323
256,256,4132.369328480213,2006882,182721,36225024,32621136,0.27427729289420083,0.0428015194835594,0.3304794952170398,256,0,1,1,8049.7596465911265,0.922808483703074,0.0080678467909997,2660.2805046239323
256,512,1870.1888310164345,2256584,184150,37797888,34686360,0.6002879280669291,0.260648969686692,1.0,256,0,1,1,1831.2337156821948,0.9020966427468264,0.0474975297134434,2660.2805046239323
512,1024,792.7794315134361,98900,7877,44486656,37207112,0.7696146854208622,0.1529216959621355,1.0,512,0,1,1,708.6077764231079,0.8172809815518356,0.0287406647311322,2660.2805046239323
512,128,2990.781079433997,2098910,253650,37535744,34824008,0.40501511387564376,0.1707043648612762,0.32743654208311923,512,0,1,1,8124.568161206102,0.91792085295867,0.0092128682587857,2660.2805046239323
512,1536,720.5204078612904,1826097,186676,52219904,38540120,0.8554426452779326,0.2346083534170093,1.0,512,0,1,1,481.4948639704343,0.7046330812709362,0.0488584739047488,2660.2805046239323
512,2048,372.0911391193844,1740068,93067,53006336,38931720,1.0390594986823496,0.1465962067272165,1.0,512,0,1,1,246.9979512301232,0.7399672702220771,0.0543024172448964,2660.2805046239323
512,256,2889.925658556465,2248164,196872,37797888,34949768,0.2953077827422982,0.0340639674420243,0.3666282203774102,512,0,1,1,7256.071291744582,0.926785603881514,0.0074037090368886,2660.2805046239323
512,512,1455.3887017348768,2032273,164755,36225024,33498560,0.6652339770603481,0.2571311931796219,1.0,512,0,1,1,1538.4263781694767,0.9061480686132588,0.0447836016888822,2660.2805046239323
