cpu,memory,duration_std,userDiff,sysDiff,heapTotal,heapUsed,avg_cpu_util,cpu_util_std,slo_preservation,total_cpu_shares,cpu_shares_others,num_containers,arrival_rate,latency,memory_util,memory_util_std,slo_duration
1024,1024,87.83079798756592,200178,33011,44425216,34027504,0.8454801199442485,0.1399812781023713,0.5923309297537735,1024,0,1,1,372.8876306311902,0.7711185962647777,0.0528264283272758,220.87287694545455
1024,128,368.8563095705174,107605,39868,36327424,32985408,0.6691741976652105,0.252799390438177,0.2559636126252395,1024,0,1,1,862.9073276475362,0.8973555375326695,0.0153530294110864,220.87287694545455
1024,1536,41.729172118406346,105078,67368,64544768,44731840,0.9395915518687676,0.176650373197334,0.6747440060704881,1024,0,1,1,327.3432219602122,0.6831421270502892,0.0549691218093528,220.87287694545455
1024,2048,27.922575226699117,30541,24597,42467328,27197296,1.0141365081445646,0.1495914953137002,0.8654731881535788,1024,0,1,1,255.20475962596836,0.6670448088089349,0.0620075527575919,220.87287694545455
1024,256,271.66166488885113,124106,23982,31686656,28019488,0.683750967218124,0.2293029323485651,0.3329590602352846,1024,0,1,1,663.3634681374201,0.887049994674809,0.0166752565854116,220.87287694545455
1024,512,238.56379994316413,63789,27522,36057088,32120096,0.8228877694832499,0.4049503241508763,0.32546209228399486,1024,0,1,1,678.6439409746164,0.8888471301999076,0.030453150131859,220.87287694545455
128,1024,71.5136447613608,78814,23830,50335744,38742976,0.9021002613408552,0.1524783402482268,0.7183514924521114,128,0,1,1,307.47187033954543,0.7484490141609246,0.04772135024468,220.87287694545455
128,128,376.4022991363974,35118,4814,35569664,31612600,0.6300459972784663,0.208628174660819,0.2724843937026545,128,0,1,1,810.5890907883686,0.8849442550223406,0.0273816333308081,220.87287694545455
128,1536,53.58070223293445,85266,42847,63946752,46387528,0.9370912227413905,0.1838061020942188,0.7206338604328363,128,0,1,1,306.49805549352214,0.6681170067046146,0.0589512915054762,220.87287694545455
128,2048,37.45376040908207,125199,51215,64806912,44817752,0.9659024223277405,0.1773932025025708,0.7636188483221318,128,0,1,1,289.24492556825885,0.7042753602825025,0.0563933320656043,220.87287694545455
128,256,365.3370780221994,31553,15653,35307520,31576536,0.6116335876430015,0.1751216861215377,0.27974711956432025,128,0,1,1,789.5447763302916,0.890824358435034,0.0134480845341151,220.87287694545455
128,512,247.34911570178312,122153,14761,27582464,23157632,0.8342533130184081,0.3249746074501066,0.3292646987345811,128,0,1,1,670.806429581749,0.8900881096413141,0.0298228346442803,220.87287694545455
1536,1024,82.74051383729629,151541,54722,61181952,49768136,0.8934967323304925,0.1103057399329323,0.5598587728230012,1536,0,1,1,394.5153450605717,0.7673040974472956,0.0560363624915565,220.87287694545455
1536,128,207.12965604460356,34365,6871,35307520,31614760,0.7170385352376404,0.1498291378773402,0.36546431557744163,1536,0,1,1,604.3623618805863,0.8914711822972496,0.0232068832456152,220.87287694545455
1536,1536,71.45653627661927,104171,50347,52322304,32437672,0.9774098305239767,0.1544892323545537,0.7803455618859417,1536,0,1,1,283.04495819986244,0.6654341466224153,0.0540525848377527,220.87287694545455
1536,2048,32.98792194253393,16758,15411,42467328,27804240,1.0269426647823932,0.1352229240618243,1.0,1536,0,1,1,220.3054858605248,0.6750598677668369,0.0502197054739382,220.87287694545455
1536,256,158.64157682325126,109050,8782,28106752,23751552,0.7158887746026212,0.3122995027524679,0.46786853872783957,1536,0,1,1,472.0832000074639,0.8820605196257307,0.023793879477694,220.87287694545455
1536,512,176.32544298664862,91628,31254,27320320,23031584,0.7949115024687528,0.3113838508284385,0.31188906873192573,1536,0,1,1,708.1776794662168,0.8892131953582937,0.0355444049170141,220.87287694545455
2048,1024,69.53829712261992,92468,44353,50073600,38774872,0.9180858719139964,0.1870362490927176,0.5670624920823542,2048,0,1,1,389.5035909258786,0.7597886444077313,0.0444511131068813,220.87287694545455
2048,128,163.31338788144177,115528,28561,31424512,28010112,0.7784725599027831,0.2178739316584459,0.38968718531370383,2048,0,1,1,566.7953303818515,0.8917937558023475,0.0190269403525705,220.87287694545455
2048,1536,56.050383834143055,64011,27061,54648832,34463488,0.9749700970789278,0.1900620851365164,0.8783587031958977,2048,0,1,1,251.46090787489348,0.6737990480670122,0.0523908349704867,220.87287694545455
2048,2048,31.39270515665915,122047,38306,64544768,44788016,1.020757414539901,0.1279706638648556,1.0,2048,0,1,1,201.72375281964366,0.6876360929099383,0.0473632640900952,220.87287694545455
2048,256,153.376305931272,205257,30427,29278208,24574080,0.7918438323344634,0.2272279527418991,0.42188091359552865,2048,0,1,1,523.5431844096478,0.8824135978147867,0.0320968012057376,220.87287694545455
2048,512,149.99846923462746,28817,9070,36016128,31838936,0.7856641418549913,0.2224329373231723,0.3321292853706014,2048,0,1,1,665.0207815881004,0.892851536635012,0.0243331004033341,220.87287694545455
256,1024,68.28580563667667,24232,19954,41779200,33537312,0.8877868318877202,0.1391726741366095,0.6476225617826955,256,0,1,1,341.0518564045436,0.7648236417520899,0.0527745102383995,220.87287694545455
256,128,126.11678757198844,91443,9445,44826624,41262072,0.8398387268952464,0.3342396582421779,0.49226106844276696,256,0,1,1,448.6905244084613,0.8951664834993964,0.0169199575353235,220.87287694545455
256,1536,35.715072011773685,49806,20670,55201792,37396240,0.9645249948628754,0.1396204512409961,0.8896407628867471,256,0,1,1,248.27198365861307,0.649403600474749,0.054847561839051,220.87287694545455
256,2048,30.73259752115805,10215,24336,50454528,40163016,1.0097858266156436,0.1766785300484945,0.9539133410206331,256,0,1,1,231.5439646846045,0.6881141270894331,0.0653908448639824,220.87287694545455
256,256,239.938382403801,203287,23515,37474304,33775016,0.6125376892898539,0.2588127036214249,0.24614219645888039,256,0,1,1,897.3385308290802,0.8950584619307922,0.0265683153197542,220.87287694545455
256,512,201.24162498980067,109678,37099,36327424,32988008,0.7658808225042354,0.2435397930468635,0.3071533235448602,256,0,1,1,719.0964903011891,0.8868106667245331,0.0289252529533386,220.87287694545455
512,1024,66.66370609695606,103304,19867,39952384,28282120,0.9082990681020565,0.1262573457270793,0.5729388362459998,512,0,1,1,385.50864939206093,0.762785759332955,0.0607708927799249,220.87287694545455
512,128,246.96652673042507,115634,25851,36065280,32452680,0.6438945177891057,0.1836458882690601,0.2573697168235769,512,0,1,1,858.1929516472974,0.8865360414369649,0.0207263780660334,220.87287694545455
512,1536,34.554597109622776,60245,24493,55201792,37174856,0.9732871495357767,0.1769790171207174,0.717672158288278,512,0,1,1,307.76291708495296,0.674514149807768,0.043638476516775,220.87287694545455
512,2048,38.20158122288518,116990,29003,52060160,32822296,1.0246508791122284,0.2423233758549871,0.9049924908664994,512,0,1,1,244.0604526275973,0.6796653873187003,0.0497971680485298,220.87287694545455
512,256,214.96285338558783,111683,17118,31686656,28086856,0.6702911648149761,0.3782918173780056,0.2544476264197822,512,0,1,1,868.0484862572987,0.8899575185703203,0.0243028864014857,220.87287694545455
512,512,185.97647690022256,169859,48075,37212160,33586384,0.7562015361281224,0.2005422881645114,0.36079388259752676,512,0,1,1,612.1857592353996,0.887869406005611,0.030542117310747,220.87287694545455
