cpu,memory,duration_std,userDiff,sysDiff,heapTotal,heapUsed,avg_cpu_util,cpu_util_std,slo_preservation,total_cpu_shares,cpu_shares_others,num_containers,arrival_rate,latency,memory_util,memory_util_std,slo_duration
1024,1024,101.8084939987556,238697,50630,39432192,30591936,0.8815133515334802,0.1730764919703075,0.5239211218244567,1024,0,1,1,403.57506446950646,0.8248938523926685,0.0597291245519319,211.44150051724128
1024,128,396.2608050736956,247005,26479,33005568,29857968,1.1981779373303314,0.5791422487533604,0.3320689353915582,1024,0,1,1,636.7397789495744,0.9012731707713992,0.0314878137837014,211.44150051724128
1024,1536,45.21266306445358,201933,46575,42708992,30987256,1.168181941458477,0.1799881275865701,0.9771743696223136,1024,0,1,1,216.38052234113064,0.7484066603776605,0.1225421342963803,211.44150051724128
1024,2048,31.968549631514847,271714,41598,50573312,30704728,1.233926459119282,0.2560802892560776,1.0,1024,0,1,1,194.2122670480876,0.652377457359714,0.1270090982235015,211.44150051724128
1024,256,48.726812637656494,240683,24265,32743424,29857320,1.0170001795050534,0.1821696299779192,0.5074498695254904,1024,0,1,1,416.67465737050514,0.881133434317842,0.0678444552687583,211.44150051724128
1024,512,77.35643290607996,223135,52694,33005568,29834040,0.9024335806792214,0.1663702778795356,0.4390326287550745,1024,0,1,1,481.607713569734,0.907274204038996,0.0371661097140226,211.44150051724128
128,1024,103.73333839244654,245329,27576,37335040,30590696,0.8831314545940636,0.1255800605554752,0.4840092831202578,128,0,1,1,436.85422551018746,0.8104927976528227,0.0776556988542017,211.44150051724128
128,128,142.86478132749735,324605,34669,33005568,30135424,0.8125458681530349,0.2321747828266204,0.3301948418641109,128,0,1,1,640.3537357626512,0.8841427399594615,0.0639646533396714,211.44150051724128
128,1536,57.48525252533128,230163,26164,70385664,55184424,1.0074366804548582,0.1857238937468539,0.7093281902972833,128,0,1,1,298.0869834436229,0.7069525711891566,0.0954677366003625,211.44150051724128
128,2048,46.80831946956438,270285,48452,50311168,31062704,1.1403776953284677,0.2866776166623523,0.815038064624074,128,0,1,1,259.42530747292886,0.6957728451784114,0.0824365887462936,211.44150051724128
128,256,55.5522168975508,220725,15505,33267712,29936600,1.0169394377855745,0.1829467661846593,0.5072925073272326,128,0,1,1,416.8039099005447,0.872420648366559,0.0775943709750377,211.44150051724128
128,512,72.51507388635808,266698,38014,33005568,30098688,1.0137466326804108,0.160970500948948,0.48736925161431954,128,0,1,1,433.84251225714553,0.8712302065483168,0.0612479132905275,211.44150051724128
1536,1024,67.88088937973549,294165,38418,38907904,30345880,1.0226699470774179,0.1944386341422194,0.5708359980313915,1536,0,1,1,370.4067389695589,0.7738421130465916,0.1034541921592421,211.44150051724128
1536,128,233.6555589334156,255584,47118,33005568,29808152,0.8792323003550405,0.2567963564877243,0.34175604012713334,1536,0,1,1,618.6913344343087,0.892660215894541,0.0520148612943577,211.44150051724128
1536,1536,53.13126642749458,270840,43137,72482816,55375272,1.093948176313453,0.2452566965843069,0.8386491357764685,1536,0,1,1,252.1215267472694,0.6739372337746556,0.1376139331698659,211.44150051724128
1536,2048,26.79457292522193,294301,16132,50311168,31404800,1.2287411181679524,0.271887046002732,1.0,1536,0,1,1,190.82536469518357,0.7030725683064925,0.1377788788345864,211.44150051724128
1536,256,56.95020968660387,266249,40761,33005568,30067248,1.0297948852869048,0.1616850613046822,0.5163129125481883,1536,0,1,1,409.5220076400996,0.8810954295061808,0.0425726025296896,211.44150051724128
1536,512,72.53424290516381,322661,37774,33005568,29879840,0.9886366860119048,0.213638779776952,0.4731068156340946,1536,0,1,1,446.9212734419201,0.8702527470736191,0.0732994784092154,211.44150051724128
2048,1024,78.95004119049105,229173,45841,38907904,30616512,0.8808866133816478,0.1479997387926991,0.5041510405083038,2048,0,1,1,419.4010991310423,0.7987349555456414,0.0787715335587588,211.44150051724128
2048,128,364.358020669094,310455,36274,32481280,30129384,0.7490637704325614,0.2034687205860216,0.2726669610512688,2048,0,1,1,775.4569886356144,0.8834622713674557,0.0498464455877963,211.44150051724128
2048,1536,40.61082979975755,155836,50748,72744960,55330552,1.1420213817409013,0.1856732480239402,0.9348608427363541,2048,0,1,1,226.17430407968345,0.7033450579638064,0.1085489887726063,211.44150051724128
2048,2048,29.811085195580517,267052,49534,50835456,31204712,1.2020674183720772,0.2058867241115002,1.0,2048,0,1,1,196.93938951508642,0.6732679460536123,0.1238143237486478,211.44150051724128
2048,256,66.15323768644481,321683,45958,32743424,29889896,1.024217387489303,0.1560551195679842,0.47894155418151846,2048,0,1,1,441.4766241751183,0.8737104373383783,0.0609904774531513,211.44150051724128
2048,512,52.914844547254,218993,17174,33005568,30497360,1.0153961899716504,0.1799610407230336,0.520749813027553,2048,0,1,1,406.0327920003571,0.8787998085743937,0.0589827341302796,211.44150051724128
256,1024,87.30925468148439,274877,68918,39432192,31827960,0.9796030513676867,0.1703766965847145,0.5748202997628746,256,0,1,1,367.839306657168,0.7747428088358741,0.0956096098381195,211.44150051724128
256,128,550.4928924535362,189776,61506,32743424,30100472,0.7409458791892948,0.2494343680922563,0.23458742636007388,256,0,1,1,901.333476384598,0.895527431573513,0.0671162337147189,211.44150051724128
256,1536,40.843208943092485,180562,53714,73793536,55231968,1.1631389830929104,0.2322527103238847,0.9165095005254219,256,0,1,1,230.70301005720603,0.7162142107717332,0.1016576780368962,211.44150051724128
256,2048,27.98852886831365,230818,37396,50311168,30164440,1.2203852778840534,0.2673118617720884,1.0,256,0,1,1,182.59004487966723,0.6497553239594336,0.1255124334189362,211.44150051724128
256,256,68.44143962258794,254599,15742,33005568,30349976,1.0470805639118916,0.2444519638161978,0.5463719743252677,256,0,1,1,386.99184887430795,0.8985683338633809,0.0454636438998512,211.44150051724128
256,512,88.5710721733685,277345,43594,32481280,29874272,0.8502328970916646,0.1024182173711665,0.41028834612372966,256,0,1,1,515.3485408856272,0.8950799745009913,0.0554349570767156,211.44150051724128
512,1024,89.70012178681895,279595,40530,39694336,30247744,0.8949624794945555,0.1640622347976203,0.5240740256140882,512,0,1,1,403.4573174457232,0.7813324258046032,0.1196701906667995,211.44150051724128
512,128,235.2647202569352,241715,36438,32481280,30018728,0.7236540780521573,0.2319912866098631,0.2753407056377023,512,0,1,1,767.9267764914476,0.9025514846515826,0.044500498274677,211.44150051724128
512,1536,58.475126445210805,216762,43385,73007104,55203224,1.122199847980945,0.2434664798043112,0.8183601371819246,512,0,1,1,258.3721895904578,0.7262047347391494,0.0782348593564929,211.44150051724128
512,2048,29.97649565935679,283183,38124,50311168,31380480,1.2381858073759493,0.233842980043466,1.0,512,0,1,1,197.23649842022687,0.6999246865374311,0.111463481260045,211.44150051724128
512,256,59.75430554403726,237743,40813,32743424,30094312,0.995497014135432,0.1718095365541733,0.5130799715979515,512,0,1,1,412.10242500544626,0.8990503334290725,0.0341430394485545,211.44150051724128
512,512,53.98769963106057,285830,46041,33005568,29810048,0.9794298103255883,0.1808021918163418,0.49214941644931215,512,0,1,1,429.62867261474895,0.8889268731032554,0.0491048922417201,211.44150051724128
