cpu,memory,duration_std,userDiff,sysDiff,heapTotal,heapUsed,avg_cpu_util,cpu_util_std,slo_preservation,total_cpu_shares,cpu_shares_others,num_containers,arrival_rate,latency,memory_util,memory_util_std,slo_duration
1024,1024,194.77494608064652,233747,54572,40218624,30126200,0.4069910570606912,0.1626855130364247,0.8379519160752289,1024,0,1,1,842.0319798531077,0.7544712363726639,0.1145103835836283,705.5823109145301
1024,128,291.04784006295927,227986,35767,33005568,29713600,0.41499336338350234,0.1275285755115739,0.7831349747687218,1024,0,1,1,900.9715229777665,0.8421704298539032,0.1058454316066877,705.5823109145301
1024,1536,167.49312999402588,284905,45347,51359744,30083936,0.30949012031862005,0.0947576188171254,0.8184647290420437,1024,0,1,1,862.0802899354812,0.5900731465820256,0.1740456868012832,705.5823109145301
1024,2048,174.32230399367484,288204,32263,50049024,29935368,0.3246503064778725,0.1193434497280968,0.9621175070482051,1024,0,1,1,733.3639661950131,0.5781876683483494,0.1634240304148474,705.5823109145301
1024,256,183.17021904376267,205413,44377,33005568,29694496,0.4125697641880004,0.1104484220226595,0.8851927893311302,1024,0,1,1,797.094508019753,0.8366976637050983,0.1052141147784099,705.5823109145301
1024,512,173.42437629524082,231455,27713,33005568,30262096,0.42255670922228955,0.0771129952709955,0.8826323020278206,1024,0,1,1,799.4068529935698,0.852953069014178,0.1096736241066077,705.5823109145301
128,1024,193.14170889215976,284640,38088,39956480,30560568,0.36824888737796013,0.1414240904267794,0.8363839491656794,128,0,1,1,843.6105351117412,0.7377270154576427,0.1083314579386257,705.5823109145301
128,128,304.0648970617996,234944,51040,32481280,29647768,0.40712429666533634,0.132873484775486,0.7900149353622947,128,0,1,1,893.1252807150482,0.8578660281011465,0.0753886405693625,705.5823109145301
128,1536,253.9896534234171,260075,32271,49524736,31098744,0.3792082331959536,0.1792077462534991,0.9659953865029083,128,0,1,1,730.4199593218304,0.6378702158035713,0.1537690511484117,705.5823109145301
128,2048,198.9647431769377,231270,36676,50311168,29859520,0.4060076920153005,0.1543332018854268,0.9946033725984659,128,0,1,1,709.4107363331682,0.5923698231201777,0.1773617990387939,705.5823109145301
128,256,202.88995939224023,231306,32692,32219136,29770264,0.39850266907246795,0.1234000890196715,0.8235474788395551,128,0,1,1,856.7597242951342,0.836989786901545,0.0807851561593856,705.5823109145301
128,512,270.95838478574024,225645,25727,32219136,29696032,0.452407011058785,0.1866517274852215,0.8423288191090357,128,0,1,1,837.6566192533365,0.8810853883913305,0.0508418965973148,705.5823109145301
1536,1024,201.4696075517771,237941,51443,28938240,15388096,0.37933500092621875,0.1225480571138725,0.8981910567033013,1536,0,1,1,785.5592701003752,0.7241405464437053,0.1379833210386342,705.5823109145301
1536,128,382.7336038820768,242791,34257,33267712,29684912,0.37993501144063513,0.1130729386676995,0.7452568358348565,1536,0,1,1,946.7639570512871,0.8931138023006234,0.0584933708212081,705.5823109145301
1536,1536,207.3963932592268,223533,25238,36409344,15536768,0.3478250477495947,0.1015416068669008,0.9257917578432464,1536,0,1,1,762.139330942281,0.5408373384986178,0.1531487225212785,705.5823109145301
1536,2048,130.85957881913916,295491,29162,49524736,30001248,0.34530073375150044,0.1451260078497476,0.9520415559237513,1536,0,1,1,741.1255386115099,0.5448279267294993,0.1653491191588213,705.5823109145301
1536,256,179.3290083060582,282500,21486,33005568,30039256,0.40149091166265694,0.1162205077645456,0.8283609070835075,1536,0,1,1,851.7812765920398,0.8441080693660092,0.1115901227038928,705.5823109145301
1536,512,154.03984244863102,173809,52457,32743424,29941144,0.38831010757237894,0.0755036762073362,0.8275153725640223,1536,0,1,1,852.651605405604,0.8708378708062282,0.0791568653063041,705.5823109145301
2048,1024,215.336545471472,264918,43168,37597184,30989664,0.4083531433386673,0.1678054143398791,0.8815937162048829,2048,0,1,1,800.3486163126784,0.7629568380098078,0.1111535923893143,705.5823109145301
2048,128,157.05242813629116,262835,49449,32743424,29794304,0.4022981452557164,0.1096517756257242,0.844165245444033,2048,0,1,1,835.8343520093534,0.8633047063673669,0.0945982306834692,705.5823109145301
2048,1536,211.6507823552816,232004,26484,37195776,15559656,0.350934189089627,0.115660775417146,0.8846959142124633,2048,0,1,1,797.5421832287129,0.6109692419376401,0.15902938347467,705.5823109145301
2048,2048,235.1732695177189,205276,23569,37720064,15570912,0.37495912767061074,0.1190137116099287,0.9548091296942273,2048,0,1,1,738.9773400475226,0.5423324532608788,0.1743658963234809,705.5823109145301
2048,256,206.43756015775068,243150,26867,33005568,30077848,0.38623276034961296,0.0961111512530894,0.7938260608316523,2048,0,1,1,888.8374238751073,0.8582416450873097,0.0585924651337697,705.5823109145301
2048,512,202.3232922531473,267775,49569,33267712,29796928,0.3736829566358196,0.0871854509410036,0.7862688658019383,2048,0,1,1,897.3804529254587,0.846835456219632,0.0809007518654418,705.5823109145301
256,1024,208.00589885082348,258110,34204,40218624,30957160,0.3996743746342522,0.1785129304343785,0.9217573811064408,256,0,1,1,765.4750863698832,0.7828723656944386,0.0887239098718032,705.5823109145301
256,128,203.62185792625124,249467,32837,33005568,30015512,0.3754710082258147,0.0750477346438575,0.7420778146932953,256,0,1,1,950.8198425338333,0.8751241543275082,0.0763423567367147,705.5823109145301
256,1536,194.7309433434375,237971,31988,51359744,29897304,0.37064834032936944,0.1768577615874524,0.863834790868026,256,0,1,1,816.8023774610009,0.6323765134359453,0.1567862720574822,705.5823109145301
256,2048,173.0789396383013,246247,56234,50311168,29956640,0.34860529117063405,0.1275297279676738,1.0,256,0,1,1,676.5562631910057,0.6231488947771163,0.1632228455564303,705.5823109145301
256,256,177.0669227720345,190446,42382,32481280,29723400,0.4021511863040425,0.1207681056518489,0.8841220517660281,256,0,1,1,798.0598487563273,0.8434826309459466,0.1060735169274706,705.5823109145301
256,512,210.56894839369772,210026,38263,33005568,29705096,0.3900877735387896,0.0882785555595081,0.8347213956414538,256,0,1,1,845.2907935495234,0.8752373650856148,0.0733697788407523,705.5823109145301
512,1024,171.4596083968605,232232,37585,38645760,30396352,0.3739534441044701,0.1264043869534025,0.8315097947150244,512,0,1,1,848.5556218328707,0.7146166959636716,0.1466197077091778,705.5823109145301
512,128,348.02971320411564,236073,42456,33267712,29574632,0.4385891363353885,0.0912067518520823,0.8038332158573729,512,0,1,1,877.7720265788621,0.8631000289573187,0.0746894664233194,705.5823109145301
512,1536,171.89166784623276,309102,34751,48738304,29931152,0.38029655277085844,0.1257412166060847,0.9334006727697538,512,0,1,1,755.9265077673448,0.5538464081382986,0.1625811947887723,705.5823109145301
512,2048,209.78405098383791,277860,33323,50311168,29953840,0.3566217355973702,0.1446230551230223,0.9101530094993927,512,0,1,1,775.2348270568466,0.5651267050445222,0.1586798545131841,705.5823109145301
512,256,153.76195351744488,254188,32425,33267712,30072328,0.43538834897041656,0.1017036011943361,0.8459447553288081,512,0,1,1,834.0761101359144,0.8627999944201641,0.0620806445648264,705.5823109145301
512,512,173.33049900080488,229673,45723,33267712,29640416,0.4133673397819184,0.1395534658956659,0.9321783548981063,512,0,1,1,756.9177155928012,0.8671588406647593,0.0650567391579853,705.5823109145301
