cpu,memory,duration_std,userDiff,sysDiff,heapTotal,heapUsed,avg_cpu_util,cpu_util_std,slo_preservation,total_cpu_shares,cpu_shares_others,num_containers,arrival_rate,latency,memory_util,memory_util_std,slo_duration
1024,1024,848.6326220909077,1731829,125497,43175936,37135752,0.6329678021423771,0.3249677905090256,1.0,1024,0,1,1,927.6800191523798,0.8409297731672719,0.0447033473594005,3111.081914915253
1024,128,1517.4617332102584,1901030,222413,36487168,32400976,0.3501365673511382,0.0543980411218181,0.39485796700440356,1024,0,1,1,7878.989851762462,0.9202925798244708,0.0157148851533746,3111.081914915253
1024,1536,591.4032261510325,1926662,173732,53268480,40148560,0.549301240279486,0.3019022095942137,1.0,1024,0,1,1,686.8762784263594,0.7310434544367899,0.0617143612248684,3111.081914915253
1024,2048,358.16946159308617,1635875,146976,53268480,40462664,0.54718478672006,0.2888536904131897,1.0,1024,0,1,1,567.3740550138773,0.7676709040690524,0.0660465590403365,3111.081914915253
1024,256,2981.468614048505,2128607,152038,37273600,34699736,0.306278057923961,0.0602883087919714,0.4844075749122786,1024,0,1,1,6422.446873335206,0.9138074407977662,0.0220950163901792,3111.081914915253
1024,512,1902.6622920966568,1893496,190374,36225024,33444816,0.44435987626408285,0.0806411925501876,1.0,1024,0,1,1,2618.278463187844,0.9159509243751174,0.0119632842688264,3111.081914915253
128,1024,686.3824019001936,1731935,148171,43175936,36215224,0.5785061746256909,0.2858698493214616,1.0,128,0,1,1,913.280515939378,0.834275372228466,0.035560512804166,3111.081914915253
128,128,3534.829090325336,2128511,370820,36225024,33289616,0.20998788550296998,0.0395357628081615,0.21921364626054082,128,0,1,1,14192.008426417284,0.921967406780166,0.0134660327335361,3111.081914915253
128,1536,539.5315275424132,1871828,151677,51695616,41199400,0.4925861494746642,0.2900185678983135,1.0,128,0,1,1,812.3023182965028,0.7476080547071761,0.0473622958069237,3111.081914915253
128,2048,368.9516581971884,1620017,168630,70664192,57053880,0.5315750430174705,0.2595877884024995,1.0,128,0,1,1,590.5184207706258,0.7762040492729948,0.0502544792522896,3111.081914915253
128,256,2910.4254270717533,1965248,152056,35700736,32761080,0.2571901106471293,0.0254428854180713,0.3615046024968555,128,0,1,1,8605.926158138787,0.9260572728177016,0.00957363065686,3111.081914915253
128,512,1529.0663730522192,1898329,185587,35438592,32948928,0.4488948424991126,0.1092212901474789,1.0,128,0,1,1,2215.0934594036535,0.9172450443630896,0.0139245850926519,3111.081914915253
1536,1024,681.3036463751373,1799814,162565,43175936,34400912,0.5949250298233757,0.3174688318292963,1.0,1536,0,1,1,968.8074949363534,0.8268186772086399,0.0250237898812833,3111.081914915253
1536,128,2033.6154256249736,1975998,202076,36749312,34179968,0.21946162595202331,0.0185868384906456,0.23485977254281437,1536,0,1,1,13246.550830019689,0.9220677563445284,0.0136810706918945,3111.081914915253
1536,1536,505.63317032908895,1778686,131132,53530624,43139184,0.5732929708589779,0.3187040055017973,1.0,1536,0,1,1,719.8567367692117,0.7528885377564075,0.0629282403517574,3111.081914915253
1536,2048,374.4568114550633,1383474,119515,53006336,39396944,0.5321672427876167,0.2627899255016987,1.0,1536,0,1,1,492.65196548793574,0.7478327694670135,0.0496057813483206,3111.081914915253
1536,256,3182.783565227246,2298508,193126,36487168,32798104,0.31180206263965204,0.0850128051094423,0.43050423598292575,1536,0,1,1,7226.600007342649,0.916885975473883,0.0173270647190115,3111.081914915253
1536,512,2059.459116808552,2029479,150332,36487168,32864016,0.45895095795473234,0.0784787741453452,1.0,1536,0,1,1,2699.8469909910937,0.910978159430017,0.0159860848268654,3111.081914915253
2048,1024,779.026808286109,1645133,160917,42389504,36390656,0.607776338384083,0.2187988954447672,1.0,2048,0,1,1,915.4530511482353,0.8199992641223321,0.034432730953636,3111.081914915253
2048,128,2549.41208162468,1953937,231487,36749312,33898552,0.25141153536769745,0.0297826875999223,0.2711818113291338,2048,0,1,1,11472.310401892431,0.915448096631831,0.0116741670980244,3111.081914915253
2048,1536,518.3346770434126,1780905,181360,51957760,37023056,0.6139288173858716,0.3098452063331086,1.0,2048,0,1,1,658.5767864060044,0.7424462999143403,0.0536117357102594,3111.081914915253
2048,2048,329.4573638722271,1406667,113764,51171328,41235328,0.47411095333619,0.2976660148673671,1.0,2048,0,1,1,567.0830749473512,0.7578799598565581,0.0499255102218379,3111.081914915253
2048,256,2081.9262154914245,1894611,210001,35962880,32174304,0.4511594355758556,0.125257841067226,0.6379410088182199,2048,0,1,1,4876.754859635854,0.9175781609132968,0.0134410233869324,3111.081914915253
2048,512,1496.4616492042976,2191370,166911,36225024,32726208,0.4915314012406751,0.1277121742492515,1.0,2048,0,1,1,2196.6586649918163,0.9115171815120564,0.0194614849547587,3111.081914915253
256,1024,757.7982255383868,1861089,150485,43175936,37463232,0.6054712284460775,0.3095200413783928,1.0,256,0,1,1,942.0343216254923,0.8390693638259362,0.030902985104625,3111.081914915253
256,128,1520.426348397762,2254932,213254,36225024,33423968,0.245374754435263,0.0206184252618215,0.2731612683497357,256,0,1,1,11389.176561195532,0.926233536438007,0.0099837448541865,3111.081914915253
256,1536,376.90288868115175,1548618,119980,52219904,38147328,0.593390576957539,0.3182430129771335,1.0,256,0,1,1,559.5532644741297,0.7553428205050592,0.0424492515603195,3111.081914915253
256,2048,232.51152341763708,1266013,143561,51171328,41064136,0.5332062328246252,0.2824828842190615,1.0,256,0,1,1,388.55663538182574,0.7836473829866251,0.0624824909546755,3111.081914915253
256,256,4401.455098805125,2273280,242316,37535744,34961472,0.276691451824751,0.070955987413296,0.3418492654845761,256,0,1,1,9100.741844523933,0.923199435095514,0.0137206154150075,3111.081914915253
256,512,1805.1004946124776,1715152,181523,36487168,34032888,0.4493596399457556,0.0812296813416434,1.0,256,0,1,1,2608.21028171577,0.9141900285915598,0.0174033408086416,3111.081914915253
512,1024,793.877691452469,1550505,153237,42913792,34217736,0.5516292031932353,0.2342443153070871,1.0,512,0,1,1,950.2838878980997,0.828659617209985,0.0278741298701884,3111.081914915253
512,128,2388.808624559655,2122365,202914,36487168,33323672,0.21869369732711894,0.0375618758322444,0.23488196510490958,512,0,1,1,13245.29924434894,0.926525694054531,0.0130963004925317,3111.081914915253
512,1536,418.9017809791554,1541885,133999,53006336,41354936,0.6216884875379528,0.3495322696726505,1.0,512,0,1,1,556.2068056059092,0.746070076693677,0.0556290595622246,3111.081914915253
512,2048,246.8455038625789,1327216,133973,53006336,39871984,0.43289420709856835,0.2878144088739774,1.0,512,0,1,1,436.53692383550305,0.736427505206587,0.0499532872636179,3111.081914915253
512,256,3396.473623701005,2166823,191106,37011456,33751960,0.28943082165712675,0.0291987324178764,0.43249278796618185,512,0,1,1,7193.37293355865,0.9164638660254574,0.0163077365284474,3111.081914915253
512,512,1818.5556419237976,161091,25805,41369600,36293120,0.4357244893837189,0.067097124832496,1.0,512,0,1,1,2675.3115585305113,0.9158271735779347,0.017729163238844,3111.081914915253
