cpu,memory,duration_std,userDiff,sysDiff,heapTotal,heapUsed,avg_cpu_util,cpu_util_std,slo_preservation,total_cpu_shares,cpu_shares_others,num_containers,arrival_rate,latency,memory_util,memory_util_std,slo_duration
1024,1024,151.4700736885869,263531,18157,37597184,30347008,0.5148149111444474,0.1934630995884394,1.0,1024,0,1,1,499.15617900712584,0.7639990756338866,0.1090980950389926,631.4362776846849
1024,128,444.0034628051838,294013,55472,32743424,29997976,0.32678800901857386,0.0879149987945355,0.4622848395938807,1024,0,1,1,1365.9030614964672,0.9196806494240208,0.0091910386999876,631.4362776846849
1024,1536,144.15381519252372,207452,39005,69074944,51848848,0.45146767235145446,0.1815423722139187,1.0,1024,0,1,1,416.7396241484897,0.7468908083248675,0.1057835077268414,631.4362776846849
1024,2048,140.957776706374,268651,37036,50311168,30126664,0.39317166636733,0.1682111194969674,1.0,1024,0,1,1,427.34515601757255,0.7073082124339096,0.1309726856316685,631.4362776846849
1024,256,300.8059896560722,267839,42440,32743424,30617296,0.41862372039798795,0.1781224248451953,0.7009838031339685,1024,0,1,1,900.7858310871814,0.90800765600954,0.0312763957160398,631.4362776846849
1024,512,137.17230736938956,255763,39411,32219136,30007784,0.41156976500258263,0.0955495001419455,0.849307328052954,1024,0,1,1,743.4720705074561,0.8887699008914206,0.0507175494121401,631.4362776846849
128,1024,205.65233174621304,244721,54536,39956480,30326360,0.4993444406898188,0.2202501426631068,1.0,128,0,1,1,521.8220522537068,0.7930745403677967,0.1073182086448066,631.4362776846849
128,128,1220.3128836986496,229165,51266,32219136,30065984,0.23791276382150647,0.0745141113181218,0.31673479241460034,128,0,1,1,1993.5804111414,0.926820967885042,0.0089764950879728,631.4362776846849
128,1536,145.6109502919682,177898,39437,69599232,51951984,0.4784557771646742,0.2375535484452842,1.0,128,0,1,1,397.4223609990717,0.7352153538874997,0.1247303043990109,631.4362776846849
128,2048,146.34235505179578,289506,42272,50049024,30210104,0.45481491804464563,0.2681188280575085,1.0,128,0,1,1,409.84514197650697,0.7044870394636598,0.128715183504413,631.4362776846849
128,256,196.4613261546328,262976,25141,32481280,29920040,0.3011577300403565,0.0453716566638762,0.5289150731383601,128,0,1,1,1193.8330173462575,0.9125828582940632,0.0243668066059599,631.4362776846849
128,512,206.46265744926396,262605,38146,33005568,30125464,0.4523043496056326,0.1090583706635534,0.8743770397491004,128,0,1,1,722.1556021940758,0.8934053609426487,0.0499997345221732,631.4362776846849
1536,1024,150.51194983104952,254527,31859,36548608,30376368,0.5868660472460804,0.1574127808842887,1.0,1536,0,1,1,454.12718235974376,0.7834925611059365,0.1044563109721534,631.4362776846849
1536,128,324.27725889914893,319299,64183,33005568,30230840,0.36570909825154835,0.0792887253684604,0.519640273143911,1536,0,1,1,1215.141147287121,0.9196271588046392,0.0070347313181692,631.4362776846849
1536,1536,138.72058113727653,188197,27015,69337088,51896216,0.4392581565866826,0.226644114504827,1.0,1536,0,1,1,425.7329220748069,0.739300958150827,0.0968104967396893,631.4362776846849
1536,2048,145.94818869304433,198916,32058,37720064,15769120,0.44744153206637094,0.2550443545491022,1.0,1536,0,1,1,416.93075600544444,0.7117580078758066,0.1335210039322783,631.4362776846849
1536,256,230.11291519704628,324545,33270,33005568,30111600,0.383338619360999,0.1152577079510422,0.6952726282577925,1536,0,1,1,908.1851521566898,0.8827359742365308,0.0724534310818566,631.4362776846849
1536,512,213.96868610864564,221354,58998,32743424,29915704,0.45070274260905774,0.1066860251604982,0.8562898031888382,1536,0,1,1,737.4095491190076,0.8759590901011801,0.067051914413338,631.4362776846849
2048,1024,166.6617432305312,270703,57544,38383616,30440976,0.5461899254519161,0.1963269451356043,1.0,2048,0,1,1,495.87452467788654,0.7908574248961681,0.1132096375718043,631.4362776846849
2048,128,594.3218364489984,260522,19280,32481280,30253984,0.37777266133253673,0.1300349299390727,0.5051639138028079,2048,0,1,1,1249.9631514280486,0.9186290413585072,0.0094241953839917,631.4362776846849
2048,1536,193.31933879698968,245861,32424,39030784,15773104,0.47214966993921165,0.1334089133830002,1.0,2048,0,1,1,478.3407888452947,0.696357841568118,0.136063761260592,631.4362776846849
2048,2048,156.391743060557,203355,31840,38506496,15760432,0.48138049786975745,0.1996047326500863,1.0,2048,0,1,1,397.72285767350945,0.6962283970486783,0.1729330933980448,631.4362776846849
2048,256,305.437104380915,291138,38790,32481280,29856224,0.38292265802008735,0.1265782326451668,0.6530361247566476,2048,0,1,1,966.9239629277602,0.9140268141162596,0.0114929785556744,631.4362776846849
2048,512,163.864143207509,246188,54510,32481280,30236704,0.45800098368652575,0.119033185499425,0.9312225138368413,2048,0,1,1,678.0723922610384,0.8774153144503527,0.0637215771594449,631.4362776846849
256,1024,141.87885278599154,224867,40065,37597184,30425632,0.5246970411441256,0.1867906368184907,1.0,256,0,1,1,471.2386965230425,0.7994350984690533,0.0941096445514728,631.4362776846849
256,128,967.16727386362,282862,39019,33267712,30325976,0.25321602543583455,0.118583150026358,0.31716462336602247,256,0,1,1,1990.8786515448749,0.9160843044572988,0.0091023337039958,631.4362776846849
256,1536,154.74834039332393,212797,20997,36933632,15731448,0.5082885267333948,0.2464107947088931,1.0,256,0,1,1,373.3492753909038,0.741542004498898,0.1248125334848559,631.4362776846849
256,2048,115.5553219189369,288584,41690,50049024,30151224,0.394563135317059,0.1592828297966232,1.0,256,0,1,1,382.3742482239581,0.7018420342289649,0.1252926267072621,631.4362776846849
256,256,248.95729171665755,304660,21295,32481280,30556648,0.29954528382546575,0.0790457307880984,0.5226738463842678,256,0,1,1,1208.0885279659763,0.9133153333524175,0.022094969381642,631.4362776846849
256,512,201.12373281028644,313720,32168,32743424,30572344,0.4450342281528201,0.1035866028092044,0.876030205147039,256,0,1,1,720.7928151047032,0.9052931001973772,0.033724877535883,631.4362776846849
512,1024,174.24224641205296,272404,47486,37335040,30409600,0.5114429705614614,0.1629053845481941,1.0,512,0,1,1,491.7797383761748,0.7941074113565588,0.1060792473978392,631.4362776846849
512,128,724.7657215658054,301556,86335,32481280,30184536,0.2803468643776862,0.1525963834115107,0.34184738473731235,512,0,1,1,1847.1291748213985,0.917644880657172,0.0085840617212116,631.4362776846849
512,1536,115.34858334566664,268754,51739,50311168,30116720,0.5631743219273327,0.2054708549336208,1.0,512,0,1,1,319.6895338965784,0.7342898945232755,0.114418831996789,631.4362776846849
512,2048,148.93965131732332,192396,35307,37720064,15764056,0.40786493569903404,0.143693546080191,1.0,512,0,1,1,363.7404171593031,0.7150538477006319,0.1382879625044076,631.4362776846849
512,256,379.5123387931409,268832,34764,32481280,30075496,0.3572588671218102,0.1075468776863997,0.5789063055365142,512,0,1,1,1090.7400241555279,0.9042229014250672,0.0392474606349197,631.4362776846849
512,512,213.54981343904973,257931,30275,31956992,30082792,0.45743884367692056,0.1740493396252021,0.8335042153750678,512,0,1,1,757.5681874632697,0.8837823136779376,0.0491495199810838,631.4362776846849
