cpu,memory,duration_std,userDiff,sysDiff,heapTotal,heapUsed,avg_cpu_util,cpu_util_std,slo_preservation,total_cpu_shares,cpu_shares_others,num_containers,arrival_rate,latency,memory_util,memory_util_std,slo_duration
1024,1024,115.24446536513489,643356,56106,43102208,31409952,0.9310760677813323,0.1317620328346641,0.624479103713702,1024,0,1,1,1526.7314652904304,0.768577044737947,0.1287940341750876,953.4118970560748
1024,128,790.6646554496493,574211,43182,32743424,29900104,0.7488278063177617,0.2794856456328142,0.26904126211650264,1024,0,1,1,3543.738568410447,0.8849680737403584,0.0629097009898834,953.4118970560748
1024,1536,58.13835810343014,485562,80679,72863744,44291400,1.1541299295015146,0.1825754335150505,0.9567571080970153,1024,0,1,1,996.5035942637583,0.6257425193415198,0.1443587297093963,953.4118970560748
1024,2048,34.79759921564798,487203,69950,76804096,58879624,1.1967622358807772,0.1448420109581907,1.0,1024,0,1,1,738.4414553391875,0.4979256866772593,0.1947547831511243,953.4118970560748
1024,256,487.6729063205087,593441,81337,33529856,29861208,0.6385268456370272,0.1112810728130039,0.2905974939832831,1024,0,1,1,3280.8675807469995,0.8838117026914759,0.0714864065273649,953.4118970560748
1024,512,227.12025765363745,668738,43458,32743424,30189040,0.712272676750504,0.0611577908532666,0.3522070209373732,1024,0,1,1,2706.9644850311015,0.8829673631333694,0.1012618185286937,953.4118970560748
128,1024,117.36017692462823,587622,53320,44675072,29989560,0.9568484860732264,0.1390200247636049,0.6235222684313297,128,0,1,1,1529.0743335513714,0.7589460601108724,0.1128184055873694,953.4118970560748
128,128,447.3271467163299,581006,70061,33529856,29715728,0.6568588036923613,0.0743395210790178,0.29333870441671095,128,0,1,1,3250.208317896153,0.9066377261138492,0.0156306529559057,953.4118970560748
128,1536,56.96255618754159,466348,84601,69988352,59641120,1.148970334626915,0.167875180122678,0.9301465474565875,128,0,1,1,1025.0125635181946,0.676265964221063,0.1343007250533885,953.4118970560748
128,2048,36.66818945441141,516540,68664,63164416,44456376,1.1960560300559222,0.1137604419324808,1.0,128,0,1,1,734.2248257666027,0.5275757149999957,0.1858575884008351,953.4118970560748
128,256,498.2500764200445,587805,35857,32481280,30007224,0.5256571905734975,0.0720666189413872,0.23439442827067253,128,0,1,1,4067.553585169268,0.892742812182102,0.0716230131109551,953.4118970560748
128,512,346.8754354959661,609841,54729,46383104,43869048,0.7251197625820176,0.1055611657559901,0.3623873244279385,128,0,1,1,2630.9195515078313,0.8947695267820024,0.0649302057243987,953.4118970560748
1536,1024,157.26168698500274,460428,36602,51236864,44402896,0.9885240424174795,0.1707163637449016,0.6614329635739326,1536,0,1,1,1441.4339011840102,0.785529075786065,0.1108507227313202,953.4118970560748
1536,128,171.22508026006398,781803,101763,32743424,30153872,0.5288753669353589,0.0467990531097746,0.2186838290814454,1536,0,1,1,4359.773198872384,0.8507259520808935,0.0872963625572022,953.4118970560748
1536,1536,65.40299330764427,515932,44797,60280832,44284480,1.148645859714652,0.2403928156822419,1.0,1536,0,1,1,935.3697880380581,0.5955809046691682,0.1634885190816632,953.4118970560748
1536,2048,29.474339436106863,434236,43722,62377984,44227056,1.199821726320476,0.1108477072069555,1.0,1536,0,1,1,724.8068379768322,0.4921201949875595,0.1944363225798857,953.4118970560748
1536,256,782.1348614853403,588466,71981,33267712,29567752,0.840849286764787,0.2852609354638433,0.3182638930946059,1536,0,1,1,2995.6646598697494,0.8865647316819582,0.0556392258370543,953.4118970560748
1536,512,279.0697053375654,558335,84558,32219136,29793192,0.7757424442150498,0.1304890437168692,0.3693925164969857,1536,0,1,1,2581.0265624692342,0.8760765921315541,0.0842249266913935,953.4118970560748
2048,1024,150.7717492666027,582191,76017,41267200,30788448,0.9320915307819571,0.1121812934737469,0.6186712230164264,2048,0,1,1,1541.063915026739,0.7838093766808935,0.0947187810844444,953.4118970560748
2048,128,2566.448032244517,597457,95077,61333504,58400776,0.7379957015987153,0.3026107028406955,0.1768544731704925,2048,0,1,1,5390.940245751997,0.8961257793125711,0.04731287348777,953.4118970560748
2048,1536,101.2429984554736,472012,68907,69726208,59730760,1.066924322865504,0.1630103749377854,0.837440692114903,2048,0,1,1,1138.482887245775,0.6921399340629314,0.1492313211412414,953.4118970560748
2048,2048,53.92036915041633,458518,81689,76541952,58928200,1.1376267674270806,0.1698697977052557,1.0,2048,0,1,1,946.6977894289346,0.6460925002827291,0.1511366696749539,953.4118970560748
2048,256,474.7365270299055,671118,65717,32481280,29562232,0.7215496526459615,0.2238824714450664,0.3183107155508122,2048,0,1,1,2995.224007480455,0.9060375091512866,0.0576106606626177,953.4118970560748
2048,512,268.11718863647684,531888,84393,32481280,29787648,0.7094274077861576,0.0628289389700764,0.36209349988581846,2048,0,1,1,2633.0544385820817,0.8934376237424573,0.0482827929840083,953.4118970560748
256,1024,122.99433767493906,566238,58637,67497984,58604040,0.9698406132458255,0.0775349396676759,0.6351415186106869,256,0,1,1,1501.101516936847,0.7802150329573073,0.0890860467367578,953.4118970560748
256,128,1013.8984789816336,506751,117186,46907392,44009000,0.6129118854105561,0.1713460391883821,0.23309550686024155,256,0,1,1,4090.219969910092,0.9089288585410789,0.0181704768102351,953.4118970560748
256,1536,59.113055708829066,465193,42494,70512640,59524792,1.1515962643297963,0.1896700273485429,1.0,256,0,1,1,933.161557236439,0.6005873002639152,0.1598465332104261,953.4118970560748
256,2048,37.66044141809521,498335,87628,68136960,30091656,1.199094416015287,0.135190140006555,1.0,256,0,1,1,748.8141167611138,0.4421834153750746,0.1439810936048155,953.4118970560748
256,256,343.3688456885612,560301,63044,32743424,29582448,0.5510293965495286,0.0589137544931113,0.2645948756075808,256,0,1,1,3603.289348921763,0.8930646695645459,0.0631863225566947,953.4118970560748
256,512,215.11675602581417,492361,64993,32219136,29802064,0.7029568907804281,0.057310023152241,0.3457561529824028,256,0,1,1,2757.4690683945646,0.8937234512927954,0.0641701498708185,953.4118970560748
512,1024,96.4349958199533,556257,57858,68284416,60081664,0.9536641432598761,0.1023646887444048,0.6134242850411094,512,0,1,1,1554.2454387702971,0.7616740248188528,0.1103762738603766,953.4118970560748
512,128,545.8091749884538,626751,78370,32481280,29573448,0.5543998139205354,0.0624289521034211,0.2530802092549751,512,0,1,1,3767.2321350719462,0.9105954348206874,0.009540143339681,953.4118970560748
512,1536,99.10674070910471,452851,53419,55300096,45099216,1.061614095012805,0.1347626438640349,0.81112075988318,512,0,1,1,1175.4253425758552,0.6960317443090965,0.121097482824724,953.4118970560748
512,2048,54.81286909046006,438356,61350,72609792,59324040,1.1265999590430777,0.1705303499733819,1.0,512,0,1,1,922.1812430511368,0.6478274991759096,0.1412901992552598,953.4118970560748
512,256,314.582875748462,613622,58371,32481280,29544728,0.5303017689174694,0.0453971553236799,0.24858723037758165,512,0,1,1,3835.32128986645,0.8943425897513174,0.0498692327060163,953.4118970560748
512,512,275.2266010532368,684184,61847,32743424,29634920,0.7181210188487057,0.0591382015123802,0.36017691426738113,512,0,1,1,2647.0655372106926,0.9037292311512592,0.0562924537949396,953.4118970560748
