cpu,memory,duration_std,userDiff,sysDiff,heapTotal,heapUsed,avg_cpu_util,cpu_util_std,slo_preservation,total_cpu_shares,cpu_shares_others,num_containers,arrival_rate,latency,memory_util,memory_util_std,slo_duration
1024,1024,579.618927298035,1722325,139287,43438080,36272224,0.9012506709895219,0.1416388096790323,0.5460902004977025,1024,0,1,1,394.1465068630892,0.839805402733953,0.0310587095159172,215.23954495833348
1024,128,569.3000261551649,1763737,156009,36225024,32416976,0.9874587327516708,0.1598530984159462,0.5984768333306627,1024,0,1,1,359.6455751853842,0.921978425687914,0.0116606802215058,215.23954495833348
1024,1536,352.02758345116723,1549194,135327,51957760,40201920,1.0975680547100637,0.2218194970156925,1.0,1024,0,1,1,201.75620800820795,0.7239584002858656,0.0518813289234411,215.23954495833348
1024,2048,203.135124833308,1498611,83831,52744192,38348240,1.16844655726077,0.2595150051946452,1.0,1024,0,1,1,99.37849130522697,0.7285679628115986,0.0477814201805945,215.23954495833348
1024,256,337.08695995379674,1656157,127604,35962880,32521944,1.0566080679595582,0.1644342978498769,1.0,1024,0,1,1,205.21641764327347,0.927864662834299,0.013071189148486,215.23954495833348
1024,512,549.2434037181424,1545894,176388,35962880,32722744,1.016712785221566,0.1093577590541087,0.5691028952725747,1024,0,1,1,378.208486982382,0.9306933999492276,0.012528250435928,215.23954495833348
128,1024,576.261295762454,1785346,156606,43438080,35809928,0.8984420464762445,0.1912043721020884,0.563502189852963,128,0,1,1,381.96753949527124,0.8421122777948786,0.0270785903039433,215.23954495833348
128,128,595.0618945668374,1700081,166497,35700736,32850288,1.0041774077820151,0.1099513213484657,0.5573875651156032,128,0,1,1,386.15778038337186,0.9338721889374272,0.0107194273554807,215.23954495833348
128,1536,339.6963021813948,1545018,136303,51957760,36409784,1.023207660445798,0.1829778979455622,0.9451912361646918,128,0,1,1,227.7206312573446,0.7022868093184719,0.0404919583721712,215.23954495833348
128,2048,215.0958890827152,1478921,90522,53006336,37863344,1.092934635400749,0.1148935700555827,1.0,128,0,1,1,101.23233474404078,0.7618877203467311,0.046151413952613,215.23954495833348
128,256,341.21662437568835,1641120,116602,35962880,33301936,1.0258082066309402,0.210520274726614,1.0,128,0,1,1,205.5881246202132,0.9320073562153908,0.0132751229163524,215.23954495833348
128,512,395.0100392660226,1650942,89548,36487168,33432760,0.962809695460538,0.3990125848411235,0.8202606844981658,128,0,1,1,262.4038296922846,0.9318038047433268,0.0107055908027984,215.23954495833348
1536,1024,513.3470987139924,1570759,129455,42127360,35598608,0.9026741794057705,0.1960012758818144,0.5936839426796524,1536,0,1,1,362.54904248686273,0.8389763905984994,0.0223487595409607,215.23954495833348
1536,128,577.8008600749052,1832579,124658,35962880,32716712,0.9703611173706151,0.1859569144932115,0.5690227617210325,1536,0,1,1,378.2617488047978,0.9299519013204556,0.0103260187545451,215.23954495833348
1536,1536,367.354519195986,1584923,109267,51695616,39863064,1.0820302930529588,0.3745039704076538,1.0,1536,0,1,1,207.25993239855796,0.7430652393210966,0.0532504050909356,215.23954495833348
1536,2048,197.5121740641665,1405533,73038,52482048,37890992,1.1053573818690379,0.1247888105357751,1.0,1536,0,1,1,90.22585499176559,0.7561521180825067,0.0356485897279616,215.23954495833348
1536,256,388.6049300490228,1680814,125302,36487168,33865664,1.0058213426024911,0.2059607406877736,0.9787941480534404,1536,0,1,1,219.90277055332555,0.93184856373308,0.0094738632216205,215.23954495833348
1536,512,358.3737001931279,1633059,145918,36225024,33452528,1.0936549476961495,0.1504742242638065,1.0,1536,0,1,1,214.49256855790063,0.9323684475438484,0.0118302940478098,215.23954495833348
2048,1024,565.1465935982326,1547788,160048,43962368,35113880,0.8686390294293426,0.2031029250424811,0.578452051002083,2048,0,1,1,372.09574170488753,0.8183284898993376,0.0477226542373566,215.23954495833348
2048,128,679.0469528833469,1915276,196475,36487168,33795496,1.0287230395901876,0.2484689161044065,0.5229190379429426,2048,0,1,1,411.61160589035387,0.930702149508514,0.0121731106877911,215.23954495833348
2048,1536,329.38695911483444,1485749,151834,50909184,37122304,1.075919758930147,0.2177614941347114,0.9770992225452747,2048,0,1,1,220.28422497118524,0.7331591500231636,0.0379622188113903,215.23954495833348
2048,2048,196.44063038146768,1332484,138901,51957760,39369240,1.1656360334181102,0.1807741339907406,1.0,2048,0,1,1,103.52810209568689,0.7386637096660453,0.0667224637929727,215.23954495833348
2048,256,377.5039954850242,1732456,91888,36749312,33065816,1.0647407801506112,0.159786992548861,1.0,2048,0,1,1,209.7867483506968,0.9289101304752576,0.0124520918170092,215.23954495833348
2048,512,382.7853727474599,1641019,156185,36225024,33532872,1.0930370352222574,0.1378502054942063,0.9007951727111763,2048,0,1,1,238.94393695573916,0.9196650697296898,0.0402855617714807,215.23954495833348
256,1024,583.4754969343685,1891935,117392,43962368,36052984,0.9112144312076877,0.1704992348867441,0.5754704995927149,256,0,1,1,374.0235947988085,0.8462694496749263,0.0231574920679474,215.23954495833348
256,128,663.1762838536024,1865723,228673,36225024,32978656,0.9870873740503736,0.1134852834240449,0.5202185587425948,256,0,1,1,413.74830124973386,0.9284315170109748,0.0113677955331036,215.23954495833348
256,1536,336.81916466462394,1362769,129877,51695616,35910424,0.980085220895055,0.2517076263612045,1.0,256,0,1,1,214.05105827146878,0.7279361877461477,0.0482949131277134,215.23954495833348
256,2048,217.61169964347735,1538752,97504,52744192,37705680,1.1336352423737546,0.189027137742747,1.0,256,0,1,1,103.56938491101685,0.729254255989203,0.0662428260357446,215.23954495833348
256,256,343.56990005201584,1732070,110006,35962880,32575416,1.0115340819584713,0.1860458445607779,0.9643510786938235,256,0,1,1,223.19625052928563,0.930370025972288,0.0127530678180229,215.23954495833348
256,512,365.5299197020678,1695860,128602,36225024,33341184,1.0713609924816345,0.1304365259815633,1.0,256,0,1,1,208.10557006414675,0.93791337307517,0.0084260310522206,215.23954495833348
512,1024,386.0370918804013,1497911,148310,43175936,35279048,0.9967488273061942,0.2731768609833225,0.7614930880337123,512,0,1,1,282.6546272588157,0.8302261110996266,0.0327915130594959,215.23954495833348
512,128,579.1004183930687,1715957,195311,35962880,32502872,1.0036012015307216,0.1065467173669323,0.551969355802367,512,0,1,1,389.9483598060472,0.9300149101090788,0.0127834136894632,215.23954495833348
512,1536,333.0724648783621,1519481,147531,51433472,36681776,1.0838067921591168,0.1797018127208012,1.0,512,0,1,1,195.3295847625442,0.7279398891064708,0.0384855938056803,215.23954495833348
512,2048,205.8541828317191,1406440,107402,53006336,41208496,1.1261987301810445,0.1298201555082751,1.0,512,0,1,1,106.43603068355506,0.7394103306409275,0.0525353108938252,215.23954495833348
512,256,569.2362865518612,1791990,146408,36225024,33448224,0.867631202281485,0.2301473082413302,0.5767058059113646,512,0,1,1,373.22243464879256,0.9314074293548112,0.0108841176323529,215.23954495833348
512,512,576.2513410340363,1772414,108108,36225024,32937368,0.994974411154069,0.1221734357456026,0.578950947660571,512,0,1,1,371.7750974034587,0.931914550822845,0.0103512515591834,215.23954495833348
