cpu,memory,duration_std,userDiff,sysDiff,heapTotal,heapUsed,avg_cpu_util,cpu_util_std,slo_preservation,total_cpu_shares,cpu_shares_others,num_containers,arrival_rate,latency,memory_util,memory_util_std,slo_duration
1024,1024,515.8854087650992,1557504,124763,43700224,35716344,0.6633012926342038,0.3152920973513923,0.521083807661653,1024,0,1,1,1026.3540364232492,0.831755775336031,0.0403623754787787,534.8164693083336
1024,128,695.5843244509821,1613813,256416,35700736,33270240,0.611028103572558,0.2889075460861612,0.5279292590235664,1024,0,1,1,1013.0457067249985,0.9298274039277326,0.0092208183818762,534.8164693083336
1024,1536,403.3263479587276,1438026,126019,51433472,36538656,0.6177619983286392,0.302060836323661,0.7838829083371158,1024,0,1,1,682.265761404165,0.7031647012399317,0.0268858858900349,534.8164693083336
1024,2048,225.67421046161567,1452605,126517,52744192,37148544,0.4406380626905737,0.2702973877096924,0.9060671986139618,1024,0,1,1,590.2613736889034,0.7118159677925077,0.0681421726615335,534.8164693083336
1024,256,583.3014628881605,1566416,94411,36487168,32328416,0.6409932379048318,0.3323087084123745,0.5380567253764162,1024,0,1,1,993.9778541643248,0.9260167740128862,0.0136517853272133,534.8164693083336
1024,512,593.6818892146148,1616692,113898,36225024,33396712,0.6119019633483597,0.3057068146864376,0.5591288413264616,1024,0,1,1,956.5174066849244,0.9312527055904304,0.0101075711141836,534.8164693083336
128,1024,524.6629753125899,1710363,130086,43700224,38543888,0.6104351779689059,0.3380522792085506,0.5624731772910487,128,0,1,1,950.8301744877617,0.8474997458360191,0.0224694816943082,534.8164693083336
128,128,999.2112651402311,2075140,142581,36749312,33846616,0.6054584905643074,0.2553678145135916,0.3738779156297332,128,0,1,1,1430.4575021702658,0.9302653179313186,0.0083979871063369,534.8164693083336
128,1536,403.3020064053781,1557423,186449,52744192,35332944,0.5925364600764587,0.3415597795097478,0.6717515460676151,128,0,1,1,796.1521971019054,0.719074536870072,0.0472916059644833,534.8164693083336
128,2048,235.97789437283487,1363252,122282,52482048,34696512,0.5100795436942505,0.2636915858523918,0.8868762263284138,128,0,1,1,603.0339447956844,0.7233880991566592,0.0601272276209543,534.8164693083336
128,256,348.67578943509886,1570936,90784,36225024,32626896,0.6173246556243714,0.3366818177774663,0.7232418898337939,128,0,1,1,739.4710909668661,0.9261192291083514,0.0294078001257246,534.8164693083336
128,512,494.999504635204,1662415,158153,35962880,33405944,0.653738526453351,0.3463430078757941,0.5356800746044673,128,0,1,1,998.3878338264282,0.9309322475895476,0.0106391616333656,534.8164693083336
1536,1024,474.3515617002698,1558365,168631,43962368,37547544,0.6382047275129293,0.3703452328491032,0.5380943408136171,1536,0,1,1,993.9083702305301,0.8277852898719974,0.0322405423490169,534.8164693083336
1536,128,902.143257806391,1848291,191017,36487168,33364352,0.6326597826034598,0.2974420323226713,0.3803757028202823,1536,0,1,1,1406.021639507875,0.93359612182047,0.0117149371174456,534.8164693083336
1536,1536,425.3107246851096,1637339,134429,52744192,42287224,0.6489940780491723,0.3218945343810852,0.7170358939752952,1536,0,1,1,745.8712650259042,0.7248554979527336,0.0470986468911031,534.8164693083336
1536,2048,282.3906184721392,1296843,134606,51695616,35597712,0.5206420148271542,0.2540046832343094,0.9635589667871913,1536,0,1,1,555.042802509098,0.7299992098938921,0.064488461633177,534.8164693083336
1536,256,566.0184603325308,1632940,140543,35962880,32570776,0.6356293341530637,0.3129946927782244,0.5099217922959883,1536,0,1,1,1048.8205787406216,0.9308725732555446,0.0121617739399477,534.8164693083336
1536,512,527.5035270803605,1582735,92509,36225024,32976976,0.5844322743811259,0.3235732581762942,0.5122041155223068,1536,0,1,1,1044.1471536459023,0.9334022174182304,0.0100021937028469,534.8164693083336
2048,1024,534.9099854228393,1513563,113104,43438080,34175640,0.6818794025591145,0.3695690856804017,0.5518385116168085,2048,0,1,1,969.1539427746665,0.8439326595928138,0.0295822286335134,534.8164693083336
2048,128,899.5971910250422,1695169,236712,35962880,33260456,0.67512625505861,0.2750997884773529,0.39270414556671035,2048,0,1,1,1361.8813942912197,0.9290495180088552,0.0109371366928944,534.8164693083336
2048,1536,392.2664598035636,1582148,134988,53792768,39328464,0.5713231731483799,0.2982105167621094,0.6974840129231691,2048,0,1,1,766.7795381673443,0.7346595006754775,0.0459967665457445,534.8164693083336
2048,2048,216.6580407986852,1407280,143814,52219904,36954496,0.4870052457608114,0.3093957608607244,0.869283402193189,2048,0,1,1,615.2383307434602,0.7384718314577732,0.0685064494393948,534.8164693083336
2048,256,423.440798471171,1756739,117302,36749312,33750400,0.5585650469510944,0.3111066189562972,0.7043331542343938,2048,0,1,1,759.3231499796088,0.9267454863336368,0.0283495167731213,534.8164693083336
2048,512,640.5496392103125,1722449,117237,36225024,32940424,0.6704436246794918,0.3473026917859166,0.5238601092796142,2048,0,1,1,1020.91466755082,0.9299187331024992,0.0135385205322516,534.8164693083336
256,1024,572.465303810082,1794111,151771,43962368,37096472,0.5983015874955454,0.3592133377408621,0.5841302578065719,256,0,1,1,915.5774113064898,0.8356147159025429,0.0274707207787006,534.8164693083336
256,128,909.6700668939818,1871696,111830,36749312,33638064,0.6440288839416047,0.2640328828573285,0.3421840075246389,256,0,1,1,1562.9499262025688,0.9328360666034432,0.0117807409562896,534.8164693083336
256,1536,391.2424672466922,1638295,115994,53268480,43576800,0.5684997883478291,0.2969582728080187,0.6688219148449601,256,0,1,1,799.6395713682762,0.741247865304417,0.0515555315946671,534.8164693083336
256,2048,194.04985787321465,1361071,114825,51433472,35987648,0.44555383940227417,0.2719216857630855,0.9200579032935315,256,0,1,1,581.2856640803268,0.7105192214302177,0.0455434412371186,534.8164693083336
256,256,381.8969994241819,1604184,131309,36225024,33272656,0.5981695010573895,0.3370270162970127,0.7179660711254062,256,0,1,1,744.9049346719308,0.9355308627789622,0.0152411009000444,534.8164693083336
256,512,601.5049670799187,2028142,128751,36487168,34115112,0.6425627195043608,0.3108939633541142,0.5571650043318864,256,0,1,1,959.888839302907,0.9329800140574156,0.0090560220403645,534.8164693083336
512,1024,570.320749689236,1756438,143317,43962368,34759384,0.6513418896918006,0.3461033424658097,0.5418031661219166,512,0,1,1,987.1047324001595,0.8241369103381976,0.0367987233752375,534.8164693083336
512,128,705.8337145070202,1881121,201176,36749312,33570440,0.6026453395517238,0.3115469739182712,0.51781933728111,512,0,1,1,1032.8244443640704,0.9349308978128748,0.0100953508079115,534.8164693083336
512,1536,428.79331153347175,1473751,96474,52219904,41863032,0.6247118414831341,0.3362876752043876,0.7422213832604555,512,0,1,1,720.5619258218801,0.7195262747203098,0.0386783093984637,534.8164693083336
512,2048,236.9035261668808,1331957,88104,51695616,35962264,0.5128062676598953,0.2922801092677501,0.9562669605412116,512,0,1,1,559.275277068704,0.7081245765793313,0.0652431475446035,534.8164693083336
512,256,585.5789219510172,1859193,104513,36487168,33611976,0.6179381953232591,0.3037095064338107,0.5572231781906545,512,0,1,1,959.7886273232978,0.9328373241601764,0.008010124048845,534.8164693083336
512,512,572.6051390629643,1564636,155304,36225024,33513360,0.6264531021595017,0.2974279460643931,0.5544498132720711,512,0,1,1,964.5895020725648,0.9359246729121328,0.0100563931544146,534.8164693083336
