cpu,memory,duration_std,userDiff,sysDiff,heapTotal,heapUsed,avg_cpu_util,cpu_util_std,slo_preservation,total_cpu_shares,cpu_shares_others,num_containers,arrival_rate,latency,memory_util,memory_util_std,slo_duration
1024,1024,515.8854087650992,1557504,124763,43700224,35716344,0.49622348624946117,0.3152920973513923,0.7796578313276621,1024,0,1,1,685.9630568933123,0.831755775336031,0.0403623754787787,534.8164693083336
1024,128,695.5843244509821,1613813,256416,35700736,33270240,0.4399139429272659,0.2889075460861612,0.7601727009472934,1024,0,1,1,703.5460082187496,0.9298274039277326,0.0092208183818762,534.8164693083336
1024,1536,403.3263479587276,1438026,126019,51433472,36538656,0.44692881948091423,0.302060836323661,1.0,1024,0,1,1,471.5268313260412,0.7031647012399317,0.0268858858900349,534.8164693083336
1024,2048,225.67421046161567,1452605,126517,52744192,37148544,0.2825758742392192,0.2702973877096924,1.0,1024,0,1,1,460.2155595972258,0.7118159677925077,0.0681421726615335,534.8164693083336
1024,256,583.3014628881605,1566416,94411,36487168,32328416,0.4716630231601043,0.3323087084123745,0.7918381870990826,1024,0,1,1,675.4113125910812,0.9260167740128862,0.0136517853272133,534.8164693083336
1024,512,593.6818892146148,1616692,113898,36225024,33396712,0.44082042275946515,0.3057068146864376,0.8056042535370023,1024,0,1,1,663.8699671212311,0.9312527055904304,0.0101075711141836,534.8164693083336
128,1024,524.6629753125899,1710363,130086,43700224,38543888,0.43929953341553885,0.3380522792085506,0.8095673816337621,128,0,1,1,660.6200810969403,0.8474997458360191,0.0224694816943082,534.8164693083336
128,128,999.2112651402311,2075140,142581,36749312,33846616,0.4341631184641531,0.2553678145135916,0.5362019174044158,128,0,1,1,997.4161821300664,0.9302653179313186,0.0083979871063369,534.8164693083336
128,1536,403.3020064053781,1557423,186449,52744192,35332944,0.4209959571021267,0.3415597795097478,0.9545562311391841,128,0,1,1,560.2775948254764,0.719074536870072,0.0472916059644833,534.8164693083336
128,2048,235.97789437283487,1363252,122282,52482048,34696512,0.34235354077827096,0.2636915858523918,1.0,128,0,1,1,449.23630509892115,0.7233880991566592,0.0601272276209543,534.8164693083336
128,256,348.67578943509886,1570936,90784,36225024,32626896,0.44647115328662734,0.3366818177774663,1.0,128,0,1,1,511.2242226792166,0.9261192291083514,0.0294078001257246,534.8164693083336
128,512,494.999504635204,1662415,158153,35962880,33405944,0.4855955097126222,0.3463430078757941,0.7958039134749192,128,0,1,1,672.0455381691071,0.9309322475895476,0.0106391616333656,534.8164693083336
1536,1024,474.3515617002698,1558365,168631,43962368,37547544,0.4686495396237974,0.3703452328491032,0.7902720059100895,1536,0,1,1,676.7498599326325,0.8277852898719974,0.0322405423490169,534.8164693083336
1536,128,902.143257806391,1848291,191017,36487168,33364352,0.46269375723334194,0.2974420323226713,0.5563731659184719,1536,0,1,1,961.2549671144689,0.93359612182047,0.0117149371174456,534.8164693083336
1536,1536,425.3107246851096,1637339,134429,52744192,42287224,0.48037841100802625,0.3218945343810852,1.0,1536,0,1,1,503.83824803147604,0.7248554979527336,0.0470986468911031,534.8164693083336
1536,2048,282.3906184721392,1296843,134606,51695616,35597712,0.35193781359575604,0.2540046832343094,1.0,1536,0,1,1,410.5535010022745,0.7299992098938921,0.064488461633177,534.8164693083336
1536,256,566.0184603325308,1632940,140543,35962880,32570776,0.46587730890453816,0.3129946927782244,0.7474827846426222,1536,0,1,1,715.4900156851556,0.9308725732555446,0.0121617739399477,534.8164693083336
1536,512,527.5035270803605,1582735,92509,36225024,32976976,0.4128606945496847,0.3235732581762942,0.7236730624080533,1536,0,1,1,739.0305057489755,0.9334022174182304,0.0100021937028469,534.8164693083336
2048,1024,534.9099854228393,1513563,113104,43438080,34175640,0.5173118483111293,0.3695690856804017,0.8373111120305624,2048,0,1,1,638.7308870311665,0.8439326595928138,0.0295822286335134,534.8164693083336
2048,128,899.5971910250422,1695169,236712,35962880,33260456,0.509577805157937,0.2750997884773529,0.5928174621410176,2048,0,1,1,902.1604515103049,0.9290495180088552,0.0109371366928944,534.8164693083336
2048,1536,392.2664598035636,1582148,134988,53792768,39328464,0.3998967173054852,0.2982105167621094,0.9764055800642012,2048,0,1,1,547.740078741836,0.7346595006754775,0.0459967665457445,534.8164693083336
2048,2048,216.6580407986852,1407280,143814,52219904,36954496,0.32188164856242524,0.3093957608607244,1.0,2048,0,1,1,465.42618351086503,0.7384718314577732,0.0685064494393948,534.8164693083336
2048,256,423.440798471171,1756739,117302,36749312,33750400,0.38750624561283503,0.3111066189562972,0.9772666504924097,2048,0,1,1,547.2574645199022,0.9267454863336368,0.0283495167731213,534.8164693083336
2048,512,640.5496392103125,1722449,117237,36225024,32940424,0.5042611483983686,0.3473026917859166,0.7880224095850473,2048,0,1,1,678.6818024502049,0.9299187331024992,0.0135385205322516,534.8164693083336
256,1024,572.465303810082,1794111,151771,43962368,37096472,0.42684045452155633,0.3592133377408621,0.8334606825485229,256,0,1,1,641.6817019766224,0.8356147159025429,0.0274707207787006,534.8164693083336
256,128,909.6700668939818,1871696,111830,36749312,33638064,0.47495767152747337,0.2640328828573285,0.5047069269724808,256,0,1,1,1059.6574778881418,0.9328360666034432,0.0117807409562896,534.8164693083336
256,1536,391.2424672466922,1638295,115994,53268480,43576800,0.39713566489221347,0.2969582728080187,0.9344349506913968,256,0,1,1,572.3421078295692,0.741247865304417,0.0515555315946671,534.8164693083336
256,2048,194.04985787321465,1361071,114825,51433472,35987648,0.2866318890266015,0.2719216857630855,1.0,256,0,1,1,451.7886343700817,0.7105192214302177,0.0455434412371186,534.8164693083336
256,256,381.8969994241819,1604184,131309,36225024,33272656,0.4267060115389015,0.3370270162970127,1.0,256,0,1,1,522.1152281179827,0.9355308627789622,0.0152411009000444,534.8164693083336
256,512,601.5049670799187,2028142,128751,36487168,34115112,0.4733645736248991,0.3108939633541142,0.8209071790461648,256,0,1,1,651.4944478007269,0.9329800140574156,0.0090560220403645,534.8164693083336
512,1024,570.320749689236,1756438,143317,43962368,34759384,0.4829555279528583,0.3461033424658097,0.803470000262857,512,0,1,1,665.63340153754,0.8241369103381976,0.0367987233752375,534.8164693083336
512,128,705.8337145070202,1881121,201176,36749312,33570440,0.43127586475318525,0.3115469739182712,0.741142319752942,512,0,1,1,721.6110253785175,0.9349308978128748,0.0100953508079115,534.8164693083336
512,1536,428.79331153347175,1473751,96474,52219904,41863032,0.45424068957071073,0.3362876752043876,1.0,512,0,1,1,495.49014203047,0.7195262747203098,0.0386783093984637,534.8164693083336
512,2048,236.9035261668808,1331957,88104,51695616,35962264,0.3448147047076327,0.2922801092677501,1.0,512,0,1,1,415.87534335467603,0.7081245765793313,0.0652431475446035,534.8164693083336
512,256,585.5789219510172,1859193,104513,36487168,33611976,0.44711328627433744,0.3037095064338107,0.8063650645797087,512,0,1,1,663.2436011933244,0.9328373241601764,0.008010124048845,534.8164693083336
512,512,572.6051390629643,1564636,155304,36225024,33513360,0.4560842466641775,0.2974279460643931,0.8073256386713575,512,0,1,1,662.4544591306411,0.9359246729121328,0.0100563931544146,534.8164693083336
