cpu,memory,duration_std,userDiff,sysDiff,heapTotal,heapUsed,avg_cpu_util,cpu_util_std,slo_preservation,total_cpu_shares,cpu_shares_others,num_containers,arrival_rate,latency,memory_util,memory_util_std,slo_duration
1024,1024,515.8854087650992,1557504,124763,43700224,35716344,0.5677251333630048,0.3152920973513923,0.6689999947606601,1024,0,1,1,799.4267167366246,0.831755775336031,0.0403623754787787,534.8164693083336
1024,128,695.5843244509821,1613813,256416,35700736,33270240,0.5115406376159656,0.2889075460861612,0.6629578939120861,1024,0,1,1,806.7125743874992,0.9298274039277326,0.0092208183818762,534.8164693083336
1024,1536,403.3263479587276,1438026,126019,51433472,36538656,0.5186400333595735,0.302060836323661,0.9871594372020964,1024,0,1,1,541.7731413520825,0.7031647012399317,0.0268858858900349,534.8164693083336
1024,2048,225.67421046161567,1452605,126517,52744192,37148544,0.34433430947543286,0.2702973877096924,1.0,1024,0,1,1,503.56416429445164,0.7118159677925077,0.0681421726615335,534.8164693083336
1024,256,583.3014628881605,1566416,94411,36487168,32328416,0.5434433238635815,0.3323087084123745,0.6842583930092732,1024,0,1,1,781.6001597821625,0.9260167740128862,0.0136517853272133,534.8164693083336
1024,512,593.6818892146148,1616692,113898,36225024,33396712,0.5124596678671611,0.3057068146864376,0.7023943314870161,1024,0,1,1,761.4191136424622,0.9312527055904304,0.0101075711141836,534.8164693083336
128,1024,524.6629753125899,1710363,130086,43700224,38543888,0.5109174460059596,0.3380522792085506,0.7061618568852487,128,0,1,1,757.3567788938808,0.8474997458360191,0.0224694816943082,534.8164693083336
128,128,999.2112651402311,2075140,142581,36749312,33846616,0.5056988890595531,0.2553678145135916,0.4684127389186619,128,0,1,1,1141.763288810133,0.9302653179313186,0.0083979871063369,534.8164693083336
128,1536,403.3020064053781,1557423,186449,52744192,35332944,0.49224958156190984,0.3415597795097478,0.8370862548002899,128,0,1,1,638.9024622509527,0.719074536870072,0.0472916059644833,534.8164693083336
128,2048,235.97789437283487,1363252,122282,52482048,34696512,0.40971553320305376,0.2636915858523918,1.0,128,0,1,1,500.5021849978422,0.7233880991566592,0.0601272276209543,534.8164693083336
128,256,348.67578943509886,1570936,90784,36225024,32626896,0.5181777341857199,0.3366818177774663,0.9106258117049307,128,0,1,1,587.306512108433,0.9261192291083514,0.0294078001257246,534.8164693083336
128,512,494.999504635204,1662415,158153,35962880,33405944,0.557259737522049,0.3463430078757941,0.6849365434894059,128,0,1,1,780.8263033882141,0.9309322475895476,0.0106391616333656,534.8164693083336
1536,1024,474.3515617002698,1558365,168631,43962368,37547544,0.5404403463310117,0.3703452328491032,0.6834982867676515,1536,0,1,1,782.469363365265,0.8277852898719974,0.0322405423490169,534.8164693083336
1536,128,902.143257806391,1848291,191017,36487168,33364352,0.5344899545526425,0.2974420323226713,0.4820291988769534,1536,0,1,1,1109.5105245789375,0.93359612182047,0.0117149371174456,534.8164693083336
1536,1536,425.3107246851096,1637339,134429,52744192,42287224,0.5520990585261029,0.3218945343810852,0.9149733149718866,1536,0,1,1,584.5159203629521,0.7248554979527336,0.0470986468911031,534.8164693083336
1536,2048,282.3906184721392,1296843,134606,51695616,35597712,0.41998131608321027,0.2540046832343094,1.0,1536,0,1,1,458.7166015045491,0.7299992098938921,0.064488461633177,534.8164693083336
1536,256,566.0184603325308,1632940,140543,35962880,32570776,0.5376731688771617,0.3129946927782244,0.6470074252676413,1536,0,1,1,826.600203370311,0.9308725732555446,0.0121617739399477,534.8164693083336
1536,512,527.5035270803605,1582735,92509,36225024,32976976,0.48388812963742756,0.3235732581762942,0.6361288612486478,1536,0,1,1,840.7360550479511,0.9334022174182304,0.0100021937028469,534.8164693083336
2048,1024,534.9099854228393,1513563,113104,43438080,34175640,0.5883036484916986,0.3695690856804017,0.7141628164980071,2048,0,1,1,748.8719056123332,0.8439326595928138,0.0295822286335134,534.8164693083336
2048,128,899.5971910250422,1695169,236712,35962880,33260456,0.5807853063226279,0.2750997884773529,0.5067425443052742,2048,0,1,1,1055.4007657706097,0.9290495180088552,0.0109371366928944,534.8164693083336
2048,1536,392.2664598035636,1582148,134988,53792768,39328464,0.47048101816741617,0.2982105167621094,0.861560507200963,2048,0,1,1,620.7532318836721,0.7346595006754775,0.0459967665457445,534.8164693083336
2048,2048,216.6580407986852,1407280,143814,52219904,36954496,0.3875895442593176,0.3093957608607244,1.0,2048,0,1,1,515.3635659217301,0.7384718314577732,0.0685064494393948,534.8164693083336
2048,256,423.440798471171,1756739,117302,36749312,33750400,0.45757110690460867,0.3111066189562972,0.8654744047407168,2048,0,1,1,617.9460263398045,0.9267454863336368,0.0283495167731213,534.8164693083336
2048,512,640.5496392103125,1722449,117237,36225024,32940424,0.5755976818438231,0.3473026917859166,0.6746264415355131,2048,0,1,1,792.7594241504099,0.9299187331024992,0.0135385205322516,534.8164693083336
256,1024,572.465303810082,1794111,151771,43962368,37096472,0.49823207142119524,0.3592133377408621,0.7296464719699545,256,0,1,1,732.9802717532449,0.8356147159025429,0.0274707207787006,534.8164693083336
256,128,909.6700668939818,1871696,111830,36749312,33638064,0.5467205260301178,0.2640328828573285,0.43572351782112106,256,0,1,1,1227.4216273262841,0.9328360666034432,0.0117807409562896,534.8164693083336
256,1536,391.2424672466922,1638295,115994,53268480,43576800,0.46761237002857703,0.2969582728080187,0.8251966152088116,256,0,1,1,648.1079290091382,0.741247865304417,0.0515555315946671,534.8164693083336
256,2048,194.04985787321465,1361071,114825,51433472,35987648,0.34884574689804154,0.2719216857630855,1.0,256,0,1,1,494.9543109401634,0.7105192214302177,0.0455434412371186,534.8164693083336
256,256,381.8969994241819,1604184,131309,36225024,33272656,0.4980946834680713,0.3370270162970127,0.8967736125944182,256,0,1,1,596.3784636359654,0.9355308627789622,0.0152411009000444,534.8164693083336
256,512,601.5049670799187,2028142,128751,36487168,34115112,0.5451366403854149,0.3108939633541142,0.7090305336327912,256,0,1,1,754.2925783014535,0.9329800140574156,0.0090560220403645,534.8164693083336
512,1024,570.320749689236,1756438,143317,43962368,34759384,0.5546502377958529,0.3461033424658097,0.69205879358595,512,0,1,1,772.7905118250798,0.8241369103381976,0.0367987233752375,534.8164693083336
512,128,705.8337145070202,1881121,201176,36749312,33570440,0.502758602633318,0.3115469739182712,0.6479884004950909,512,0,1,1,825.3488317070351,0.9349308978128748,0.0100953508079115,534.8164693083336
512,1536,428.79331153347175,1473751,96474,52219904,41863032,0.5260093090121791,0.3362876752043876,0.9374290617319034,512,0,1,1,570.5140699609401,0.7195262747203098,0.0386783093984637,534.8164693083336
512,2048,236.9035261668808,1331957,88104,51695616,35962264,0.41235731739916837,0.2922801092677501,1.0,512,0,1,1,463.675321259352,0.7081245765793313,0.0652431475446035,534.8164693083336
512,256,585.5789219510172,1859193,104513,36487168,33611976,0.5188263328097121,0.3037095064338107,0.7017742072392694,512,0,1,1,762.0919432366488,0.9328373241601764,0.008010124048845,534.8164693083336
512,512,572.6051390629643,1564636,155304,36225024,33513360,0.5278624178266388,0.2974279460643931,0.7007864227707331,512,0,1,1,763.1661401112823,0.9359246729121328,0.0100563931544146,534.8164693083336
