cpu,memory,duration_std,userDiff,sysDiff,heapTotal,heapUsed,avg_cpu_util,cpu_util_std,slo_preservation,total_cpu_shares,cpu_shares_others,num_containers,arrival_rate,latency,memory_util,memory_util_std,slo_duration
1024,1024,10.050802587333454,18861,3784,25792512,15013968,0.860089434509316,0.2168116732306453,1.0,1024,0,1,1,36.259649003435605,0.6496093991099395,0.0472968773611654,42.82319496296296
1024,128,49.21555699367919,29130,33,28246016,24836256,0.6274244492476533,0.290976005142759,0.3776820441549307,1024,0,1,1,113.38424906797067,0.8731278455437907,0.0103823829197614,42.82319496296296
1024,1536,10.785434582523612,17164,334,42414080,28238480,0.8929311755087196,0.2103954343595172,1.0,1024,0,1,1,32.93075054909303,0.5565138689524053,0.0904391450628673,42.82319496296296
1024,2048,12.36105765677238,18593,10777,42676224,28098272,0.9936166910717282,0.226764434881968,1.0,1024,0,1,1,32.624009071617124,0.5359568629339403,0.0562126292740894,42.82319496296296
1024,256,77.1123705489986,18977,6131,27721728,24370144,0.5460177575066951,0.3190765794041324,0.30272441590089916,1024,0,1,1,141.45933632582083,0.8755253367594509,0.0074991054247944,42.82319496296296
1024,512,30.52288740417065,19720,5179,27721728,24386256,0.7296700781832741,0.3478864830617475,0.7417285984206505,1024,0,1,1,57.73431825892331,0.8833150215641806,0.0141988523568991,42.82319496296296
128,1024,16.929279969081964,12337,10895,25792512,14940168,0.8346326562050242,0.2183511005617034,0.7727236663486862,128,0,1,1,55.41851094753359,0.6599755867147556,0.0754386689025052,42.82319496296296
128,128,83.21416327297888,18592,3693,28770304,24511320,0.8042809347881994,0.4433677626504756,0.3150284376318138,128,0,1,1,135.93437876555168,0.8759155489431448,0.0128091189604855,42.82319496296296
128,1536,10.569212172340936,18972,3755,42409984,27984144,0.9419881395912912,0.2103202460073595,0.9688272729141874,128,0,1,1,44.20106262507741,0.5605465537428266,0.1050202942644755,42.82319496296296
128,2048,8.964549909934975,12355,6998,42409984,28180952,0.9853440868103089,0.1556018157001361,1.0,128,0,1,1,26.928912594719023,0.5314898003392364,0.0669454274159232,42.82319496296296
128,256,58.8168040079936,11012,13037,28246016,24830120,0.6901811413006711,0.3119308429724674,0.3954407781339942,128,0,1,1,108.29230906594165,0.8748050392333497,0.0099499856355628,42.82319496296296
128,512,37.07262477663208,13759,7504,28770304,24566088,0.6951838814213709,0.2896687680320466,0.4998527592350333,128,0,1,1,85.6716186352535,0.874995858604307,0.0127733803909304,42.82319496296296
1536,1024,16.726767028704213,11749,7952,25530368,15034112,0.822671492434566,0.2466799285689195,0.9535928384746606,1536,0,1,1,44.90721116515692,0.6482716049872689,0.060428346699529,42.82319496296296
1536,128,173.24640624768716,19888,3225,28508160,24843928,0.7354165009855815,0.4822217353063138,0.20440854673725678,1536,0,1,1,209.49806476539925,0.869555320495171,0.0116769601293594,42.82319496296296
1536,1536,8.550533457944212,16921,4251,42147840,28462504,1.0039514408633088,0.2664426444667244,1.0,1536,0,1,1,27.19669944955208,0.5634675127890485,0.0821289889715616,42.82319496296296
1536,2048,11.445270803066656,55434,34,42414080,28096328,0.9860598444232016,0.2362065339401842,1.0,1536,0,1,1,31.36414138949771,0.5315260142706799,0.0661336077102621,42.82319496296296
1536,256,92.90868780386542,19217,7044,28246016,24858392,0.5833881957034364,0.2984997170186269,0.38424617784369897,1536,0,1,1,111.44728934787813,0.8758217323122015,0.0128915565549986,42.82319496296296
1536,512,27.45337679760385,24259,52,28246016,24886232,0.7525575813967122,0.3605062075658822,0.7349266017367103,1536,0,1,1,58.268669091263206,0.8762800128452051,0.0113723993737196,42.82319496296296
2048,1024,17.27128015559582,51681,7971,34156544,28405208,0.778583027351899,0.2779965528093092,0.8454544430465862,2048,0,1,1,50.65109695165836,0.6600605104180982,0.0721374591813683,42.82319496296296
2048,128,38.52323322639724,26753,441,28770304,24569256,0.620352647832597,0.2445045461689305,0.4311721547035202,2048,0,1,1,99.31809022409799,0.8763904384164519,0.0105851817970491,42.82319496296296
2048,1536,16.192601623787233,17812,14451,34574336,15042744,0.9484948299973307,0.1686822294964116,1.0,2048,0,1,1,35.70058034037503,0.5228522397986943,0.0642815789081612,42.82319496296296
2048,2048,9.473879697912864,6867,7796,42409984,28230992,0.9644448809961285,0.1754874153113158,1.0,2048,0,1,1,23.60976055385478,0.5690716681708057,0.0903386310260923,42.82319496296296
2048,256,115.6576586266664,22530,1076,27983872,24867632,0.6357363866394635,0.3191317234931387,0.3660464462185384,2048,0,1,1,116.98841883414025,0.8733932846999604,0.0134797561154704,42.82319496296296
2048,512,21.476497363166903,20583,401,28246016,24673728,0.7124576651530927,0.3268596251013356,0.8985074794715926,2048,0,1,1,47.660365596674886,0.8751257782502508,0.0093505874852672,42.82319496296296
256,1024,42.364519481135865,20309,61,33890304,28359344,0.7960541923660165,0.2219534001446604,0.6154324883496997,256,0,1,1,69.58227876106218,0.6773606837165765,0.0851334565423285,42.82319496296296
256,128,54.20105002392566,26376,3883,28246016,24900128,0.7217531208227422,0.3361553568165738,0.4076625452508661,256,0,1,1,105.04569394917199,0.8823161059462371,0.0066295140662938,42.82319496296296
256,1536,15.012580487344342,39038,7835,34574336,14876984,0.9370294858682203,0.1930446233346418,1.0,256,0,1,1,35.87859351973703,0.5378764306233116,0.0716205854910877,42.82319496296296
256,2048,17.693255242660534,17244,446,42409984,28124104,0.982022132788855,0.2541180124892194,1.0,256,0,1,1,37.17713903120669,0.5578403232371054,0.086292117873451,42.82319496296296
256,256,13.577586026141118,17897,4367,27983872,24832296,0.8994246742000965,0.2322374036489508,0.811479595927893,256,0,1,1,52.7717458058775,0.8781951968892036,0.0110135345692603,42.82319496296296
256,512,31.200290274683177,18458,3705,27983872,24845224,0.668632521974876,0.3515718078771141,0.5265677147388763,256,0,1,1,81.32514349877846,0.8852986963783713,0.0116421580670022,42.82319496296296
512,1024,14.392064141892629,9435,12374,33890304,28437864,0.8239877296661521,0.1690393343100084,0.8385690218590925,512,0,1,1,51.06698893792272,0.6927816299010539,0.0985447261412025,42.82319496296296
512,128,51.29603380051601,21567,6862,28246016,24803456,0.535270345879804,0.1912194352260585,0.34427900319483357,512,0,1,1,124.38514857302684,0.8796790015512717,0.008346950542859,42.82319496296296
512,1536,16.746036789487626,19698,4833,42409984,28041272,0.9288126266898368,0.5360736632590628,0.9193286300661093,512,0,1,1,46.580943486861194,0.5441571648187643,0.0905630635360016,42.82319496296296
512,2048,5.881609799852864,10234,3658,34574336,15401192,0.9835344308679645,0.1241734469390734,1.0,512,0,1,1,25.104291453560627,0.5323562749449033,0.0567298042807205,42.82319496296296
512,256,54.75809703731066,24071,110,27983872,24399712,0.5541619359928938,0.263320418159013,0.35540341855410806,512,0,1,1,120.4917925021123,0.8784052553134245,0.0108704621761286,42.82319496296296
512,512,20.821361100830963,23418,33,28770304,24608624,0.6266331278500241,0.2810254388907387,0.7454293264200689,512,0,1,1,57.44769281968251,0.8817179332394988,0.0108106564163569,42.82319496296296
