cpu,memory,duration_std,userDiff,sysDiff,heapTotal,heapUsed,avg_cpu_util,cpu_util_std,slo_preservation,total_cpu_shares,cpu_shares_others,num_containers,arrival_rate,latency,memory_util,memory_util_std,slo_duration
1024,1024,107.78439527087492,344015,74748,37597184,30186352,0.8950693291457408,0.1227388744583744,1.0,1024,0,1,1,569.2624846944257,0.8089867142337873,0.0513233863172596,650.7617663999997
1024,128,1069.8111226120827,438276,67201,32219136,29796304,0.4133872490240026,0.212395679295315,0.26684251477780196,1024,0,1,1,2438.7484391004364,0.9073962650441276,0.0099968999004135,650.7617663999997
1024,1536,60.59300422891004,265684,69482,43233280,30884048,1.22703445676706,0.1296427716365707,1.0,1024,0,1,1,289.9128272751027,0.6980135707913439,0.1191582584217177,650.7617663999997
1024,2048,32.01619454162826,262189,44778,46116864,31819984,1.344561217221843,0.1774298820223799,1.0,1024,0,1,1,224.53480745824197,0.6897276226062681,0.1068694419098811,650.7617663999997
1024,256,361.2706235575233,488240,65954,33005568,29813824,0.5409828714650968,0.2216486172539328,0.47880931844204555,1024,0,1,1,1359.1251075009457,0.8991895084541641,0.0451767107973117,650.7617663999997
1024,512,174.89426168458047,400383,94116,32219136,30303296,0.5795420090619253,0.1004424609988327,0.57622502651117,1024,0,1,1,1129.3535276315959,0.9115448683340872,0.0176645579340749,650.7617663999997
128,1024,99.0608440289985,434567,33583,39432192,30678448,0.9356422185859727,0.1060555519095732,1.0,128,0,1,1,505.9787577541583,0.7994228021756506,0.0784265501926621,650.7617663999997
128,128,1068.299864482996,482670,102655,33267712,29834328,0.4940002982412553,0.1969878176061317,0.3268277584130827,128,0,1,1,1991.1459465982439,0.9105863758844748,0.0094357124845589,650.7617663999997
128,1536,69.6335395993264,325346,48287,54571008,42949232,1.2148586845899472,0.1964324736016627,1.0,128,0,1,1,290.17975108094515,0.7253293775939916,0.0983261441837068,650.7617663999997
128,2048,42.66385993012311,232807,64198,44019712,30765584,1.346162464431846,0.2679606842376154,1.0,128,0,1,1,202.35123463021012,0.7137552253947897,0.0987800145831603,650.7617663999997
128,256,349.9788153138929,459466,76099,32481280,29884088,0.3770280544821165,0.0400367902317301,0.34467770687537663,128,0,1,1,1888.0297548088665,0.9160465831114654,0.0122639030530371,650.7617663999997
128,512,230.27884809031937,378998,41781,32743424,30063088,0.6264213945254721,0.1470894542483399,0.6314368764551272,128,0,1,1,1030.6046267892398,0.9159436115359216,0.0097518208005399,650.7617663999997
1536,1024,123.1411125935062,499539,84237,39432192,30512808,0.8912928086320105,0.1587735434128827,1.0,1536,0,1,1,565.9930714826876,0.7995093473081124,0.0741776282765876,650.7617663999997
1536,128,874.69997011683,330309,37920,32219136,30037288,0.5085952752004509,0.2393635330173011,0.3313384255945319,1536,0,1,1,1964.0395321862097,0.9125913205301068,0.0117760878102123,650.7617663999997
1536,1536,64.93926896744065,339335,54461,42971136,31223000,1.2553676702637233,0.1252242708111406,1.0,1536,0,1,1,289.53072626847165,0.7306519792003012,0.0921430463117494,650.7617663999997
1536,2048,48.08598690015748,251972,67989,42708992,30772688,1.3319052972477852,0.1237371942492941,1.0,1536,0,1,1,241.91962226975807,0.7008478566423669,0.1003309700984927,650.7617663999997
1536,256,520.7959900819014,350964,64542,33005568,29721264,0.5224615411229239,0.184685003120689,0.4466588329514344,1536,0,1,1,1456.9548800812759,0.9124250083343236,0.0131039736390132,650.7617663999997
1536,512,268.96501279188806,351245,49610,32481280,30038216,0.6689389588023893,0.2052483203412065,0.617324955782462,1536,0,1,1,1054.1640351719725,0.9008037689761595,0.0464260029406488,650.7617663999997
2048,1024,122.18956467718829,488731,45595,39694336,30393576,0.9441748653655765,0.0783395664106695,1.0,2048,0,1,1,495.6489205154102,0.7719494557036415,0.0855031617106163,650.7617663999997
2048,128,994.243287887803,381483,42049,32481280,29756632,0.4952229810609635,0.1718729328282558,0.3283055566318757,2048,0,1,1,1982.1832230810808,0.910109842425301,0.0090954356863397,650.7617663999997
2048,1536,96.1682931766262,349214,92527,36409344,15681936,1.0997910900321575,0.146216854384068,1.0,2048,0,1,1,351.13259226391676,0.6708532279999928,0.1075651184464566,650.7617663999997
2048,2048,53.806554601824494,306546,52203,37195776,15672952,1.1841835660237856,0.1728794582104446,1.0,2048,0,1,1,332.3288338560684,0.7138967278739798,0.0856303591184574,650.7617663999997
2048,256,203.11783505037644,468769,105527,33005568,29751576,0.7056362374852604,0.2307196696939389,0.6633671156992942,2048,0,1,1,980.9979285964357,0.9142456834045448,0.011820982933394,650.7617663999997
2048,512,172.79948521403855,339117,59950,32481280,30035608,0.7256146572543636,0.2015584514597075,0.7579075871319761,2048,0,1,1,858.629439062049,0.9057770293563184,0.0375949008920813,650.7617663999997
256,1024,99.40760216859724,351392,58971,54124544,45987440,0.8827230647787346,0.0753707456035506,1.0,256,0,1,1,582.8888812417099,0.7870705344510677,0.0688842206102507,650.7617663999997
256,128,1336.504704005579,375524,84436,32219136,30024520,0.5497945260438816,0.3620113686731769,0.29645641553018814,256,0,1,1,2195.134705505244,0.9171007808015846,0.011079277622943,650.7617663999997
256,1536,51.71210895049833,263188,54733,47165440,31175712,1.210264368434719,0.1759981012538461,1.0,256,0,1,1,291.4512600074889,0.6682321356447833,0.1273670391925235,650.7617663999997
256,2048,39.26221987594715,278397,47520,47165440,31864048,1.331324325308573,0.1669322696250322,1.0,256,0,1,1,215.55241003708738,0.7003385363864276,0.1058169602839925,650.7617663999997
256,256,322.59588885124094,354744,62074,33267712,29776224,0.40916751696600984,0.0790103049971084,0.3965695116201169,256,0,1,1,1640.9778042225785,0.9154865039667068,0.0102890366119422,650.7617663999997
256,512,232.37916973664483,450758,74819,32743424,29925640,0.5935776909655051,0.1157873797971931,0.5799261588855926,256,0,1,1,1122.1459084558755,0.9213289954014046,0.0134832779318645,650.7617663999997
512,1024,114.23798142682888,446765,74856,39432192,29877968,0.8686629674645954,0.095042750826786,1.0,512,0,1,1,559.3884667464928,0.8070927311866292,0.0573024899864986,650.7617663999997
512,128,1011.515240529839,377642,92785,32743424,29831368,0.7563097019132091,0.3467539299746602,0.4305845915233159,512,0,1,1,1511.3447606142713,0.9147347650844788,0.0110210975220628,650.7617663999997
512,1536,65.96167708225725,358552,26851,49262592,30053912,1.2410028617007074,0.1586984282831662,1.0,512,0,1,1,278.4094349485373,0.7193537781421566,0.0859786009618197,650.7617663999997
512,2048,41.11291446073472,253753,45377,36933632,15697816,1.320411340010225,0.1440558881246986,1.0,512,0,1,1,222.62168696844873,0.6789195179675682,0.1141035929545162,650.7617663999997
512,256,337.32768476186806,413641,48078,32743424,29936128,0.4472603521577652,0.1308129396915112,0.4018551147463917,512,0,1,1,1619.3940117215916,0.9126933145667866,0.0105062556783939,650.7617663999997
512,512,217.5336739286367,429443,66420,32481280,29757896,0.5847595751792244,0.062670735731077,0.620609559921672,512,0,1,1,1048.5848243815858,0.9103202983933544,0.0218252528355105,650.7617663999997
