cpu,memory,duration_std,userDiff,sysDiff,heapTotal,heapUsed,avg_cpu_util,cpu_util_std,slo_preservation,total_cpu_shares,cpu_shares_others,num_containers,arrival_rate,latency,memory_util,memory_util_std,slo_duration
1024,1024,85.92851140652088,113277,20225,39952384,28926568,0.9209471061720919,0.188587775717047,0.6192803145339851,1024,0,1,1,418.76567643415694,0.7194503341509717,0.0777961685797572,259.33333981818174
1024,128,125.10671932650864,135873,22908,19103744,14714416,0.7345222478292871,0.1768665976033977,0.43707388346139475,1024,0,1,1,593.3398210947732,0.8452856914437493,0.049871055240608,259.33333981818174
1024,1536,66.6927009141291,53148,15355,44466176,28147872,0.9280938332707019,0.1475256846131447,0.6668342744368819,1024,0,1,1,388.9022351725691,0.6155657931255378,0.107535391625019,259.33333981818174
1024,2048,34.993618327465114,35977,20068,40873984,23697936,1.0376473540689126,0.1592904767991302,0.8809371046324079,1024,0,1,1,294.38349055168334,0.6222458291797172,0.0914917974790322,259.33333981818174
1024,256,398.98280334263984,128819,37944,30441472,26459816,0.6421223041613555,0.260061130615379,0.22350381592638519,1024,0,1,1,1160.3083318434153,0.8439976482213516,0.0466247315935653,259.33333981818174
1024,512,211.2014391943896,204645,54050,29278208,25123232,0.7782643777262342,0.2789712344975515,0.31232275772330403,1024,0,1,1,830.3376344029749,0.8533305488054037,0.0468332678033528,259.33333981818174
128,1024,88.91394151534115,194042,31681,25792512,14446584,0.9073719425029287,0.1164910187085961,0.5584868849535666,128,0,1,1,464.34991904911624,0.698608463221036,0.0806348105435882,259.33333981818174
128,128,311.99170334950014,92980,39974,27320320,23661840,0.687365264327289,0.3113790919530341,0.28912018259480465,128,0,1,1,896.9741838522269,0.8578188439648613,0.036632226556841,259.33333981818174
128,1536,70.23626003481554,99404,44879,34574336,15110288,0.9571408067386037,0.126568942032428,0.7426826592053375,128,0,1,1,349.18458995079493,0.6251223710675536,0.1024162419424836,259.33333981818174
128,2048,28.618021363074185,67184,21351,45379584,26169664,1.0035167507223763,0.177070527069034,1.0,128,0,1,1,239.47909833412118,0.6261888704890068,0.0608668459972478,259.33333981818174
128,256,148.99581742399116,192959,36531,37474304,33714992,0.7244961910801074,0.2395915805743384,0.38638110150042,128,0,1,1,671.1853628739134,0.8641655603068757,0.0378386830579236,259.33333981818174
128,512,172.7757690509329,102162,36746,27058176,23609304,0.6913368822826429,0.1411389025420792,0.3389067990191177,128,0,1,1,765.2054799985077,0.8584719371151213,0.0435542434116209,259.33333981818174
1536,1024,85.20975316903431,30288,20265,32399360,23538104,0.9011273976173585,0.1479081776867956,0.6665818893919939,1536,0,1,1,389.04948355966616,0.7356731002211487,0.0768238308504329,259.33333981818174
1536,128,145.28374341328447,54277,18569,31784960,29011688,0.8197668522213504,0.2235956781721906,0.4408308255051051,1536,0,1,1,588.2831345131932,0.857524927114568,0.0485915280570164,259.33333981818174
1536,1536,39.525191383684,137744,36837,45912064,26700616,0.9895391052727633,0.1427157786505412,0.7309820260572987,1536,0,1,1,354.7738939860796,0.642746278525237,0.0830890289409993,259.33333981818174
1536,2048,32.98780797733895,158434,40475,51970048,32566784,1.0292952727345621,0.1771274421682228,0.9797319600291682,1536,0,1,1,264.698254623092,0.6497311963461309,0.0893450428433225,259.33333981818174
1536,256,371.9858120137854,134205,23955,18841600,14756648,0.6586921931630723,0.2425175270373748,0.2370311196329331,1536,0,1,1,1094.0898402698595,0.8581368274156081,0.0400700798624248,259.33333981818174
1536,512,189.14370596705328,144393,38688,36589568,32751808,0.7867994832436653,0.2206206266214925,0.48508430088694293,1536,0,1,1,534.6149923714471,0.8582886534383224,0.0430628665615279,259.33333981818174
2048,1024,81.99498920844621,43914,16750,31023104,22053128,0.914684125335169,0.1425695887194324,0.5131400610911727,2048,0,1,1,505.38509752428865,0.7519374121542101,0.0834708500124713,259.33333981818174
2048,128,173.89450196486575,119703,17075,18579456,14845640,0.7288766742848356,0.142113582223918,0.32886788298400166,2048,0,1,1,788.5638982594037,0.866813382533814,0.031249075224212,259.33333981818174
2048,1536,54.146034841944925,113285,26068,34312192,15110752,0.9548733559570387,0.1715908760646377,0.7076846200862792,2048,0,1,1,366.45326527876847,0.6000096202131375,0.1016100308498017,259.33333981818174
2048,2048,45.13465944920876,100412,36903,34836480,14970048,1.0356135080099762,0.2037726049194984,0.8527337652618303,2048,0,1,1,304.1199379955993,0.5964952587648578,0.1012823036628587,259.33333981818174
2048,256,213.2652095717756,151994,26425,36589568,32791104,0.7642295671057636,0.2561828396336685,0.3461156126447402,2048,0,1,1,749.2679623336336,0.8486127082515852,0.0414230117361241,259.33333981818174
2048,512,187.72403010436324,198463,42893,18841600,14809344,0.784724475843343,0.3488104378497793,0.36014594888924756,2048,0,1,1,720.0784587970811,0.8596444499611119,0.0452221302584718,259.33333981818174
256,1024,60.37288698535641,142952,21116,25792512,14935120,0.9275338872788094,0.1308791247014067,0.5939623276093421,256,0,1,1,436.61580501575037,0.7070893410647463,0.0911717370432738,259.33333981818174
256,128,264.37900652652326,180477,55762,37212160,33576936,0.7183433547459169,0.3624453954221928,0.2898365412531333,256,0,1,1,894.7572265972112,0.8647073559745465,0.0379518848439023,259.33333981818174
256,1536,51.905176727604726,90046,30401,34574336,14724160,0.9820666625488237,0.1576835951763864,0.7301547342268597,256,0,1,1,355.17586569206117,0.5779058614129637,0.1125217442111518,259.33333981818174
256,2048,47.78836981894062,88641,20049,51941376,34598184,1.0168157521704762,0.2092714564227617,0.830437733287633,256,0,1,1,312.2851111202557,0.6073848770302634,0.0900486306990632,259.33333981818174
256,256,308.44653381642337,199081,42970,29278208,24972552,0.6157184079528419,0.217090879486008,0.25049753262402824,256,0,1,1,1035.2730308422445,0.8469072387404616,0.0434363505529274,259.33333981818174
256,512,154.69607367787842,180509,64279,36950016,33806400,0.7700989989456087,0.2576459185571072,0.39884732669119527,256,0,1,1,650.207040296822,0.8710114816194667,0.0416549956960521,259.33333981818174
512,1024,75.28832182708446,165020,34021,26054656,14505976,0.9015886301406036,0.1457923406484167,0.580673666497785,512,0,1,1,446.607715797236,0.6985322866171867,0.0902131135538147,259.33333981818174
512,128,325.7510863523136,194502,43367,18579456,14718528,0.7321207425438786,0.2931107004642274,0.26426540153708444,512,0,1,1,981.336710404708,0.8540271860735548,0.046065868109199,259.33333981818174
512,1536,38.39116597620084,103117,32640,34574336,15147488,0.9837959175035551,0.1703461403055506,0.7896055561317282,512,0,1,1,328.43403621506144,0.6018273981164255,0.1042003149554133,259.33333981818174
512,2048,28.04851205427908,84288,25095,52203520,34699008,1.0279303889586409,0.1257791379395576,1.0,512,0,1,1,228.71874475635406,0.6550098041457406,0.0438666839155362,259.33333981818174
512,256,237.73839541520437,61153,10518,32047104,29030496,0.7546252229085343,0.4037149755275297,0.3116700504685461,512,0,1,1,832.0765483507815,0.8647781087651151,0.0450954695507273,259.33333981818174
512,512,176.51981902031997,107172,35755,23220224,19170440,0.7338385829432702,0.1751169845740684,0.33437605045595803,512,0,1,1,775.573906876861,0.8656965526851137,0.0371642914171718,259.33333981818174
