cpu,memory,duration_std,userDiff,sysDiff,heapTotal,heapUsed,avg_cpu_util,cpu_util_std,slo_preservation,total_cpu_shares,cpu_shares_others,num_containers,arrival_rate,latency,memory_util,memory_util_std,slo_duration
1024,1024,111.46286579818094,397030,57987,44937216,30011080,0.8486386849821738,0.13524581389315,1.0,1024,0,1,1,490.9192210275487,0.749222551639144,0.0998404650740694,643.4262498909093
1024,128,611.5552021789365,390595,92672,33529856,29604312,0.4755741695059993,0.1692949060534985,0.4189392332683521,1024,0,1,1,1535.8462488013429,0.8689156832181564,0.0494784406885366,643.4262498909093
1024,1536,66.30004982547916,281105,67566,58970112,44883112,1.3774554425052241,0.2468467443301656,1.0,1024,0,1,1,234.8652758446076,0.7405746174941216,0.116345823334011,643.4262498909093
1024,2048,31.329875763587623,296280,62932,59232256,46126120,1.638402380067211,0.2012717087594831,1.0,1024,0,1,1,161.29811848871117,0.6465757143837805,0.1552209598862412,643.4262498909093
1024,256,383.91579319587487,488416,52773,33005568,29734280,0.5134429539620031,0.2210662497112801,0.5189733781917627,1024,0,1,1,1239.8058877948085,0.8665766113239824,0.0828560176916441,643.4262498909093
1024,512,119.45934499100642,458493,62319,34840576,29796152,0.5081222602130807,0.0425734590487809,0.616388628184308,1024,0,1,1,1043.864569316027,0.8836575350442855,0.0625981807975297,643.4262498909093
128,1024,123.64102735700476,362387,77497,45199360,30625640,0.8279777086528849,0.185229119854044,1.0,128,0,1,1,515.3681577048538,0.751753104113323,0.124834328101888,643.4262498909093
128,128,963.8738885979014,456987,78124,32481280,29861624,0.2427787482491056,0.068010232968932,0.23627511561476233,128,0,1,1,2723.2078512237044,0.887478849194931,0.048142326409812,643.4262498909093
128,1536,49.76484920417656,390874,25874,58970112,46010760,1.4537823003533386,0.2146620171112006,1.0,128,0,1,1,220.4475543654437,0.6698361292950856,0.1367057496604265,643.4262498909093
128,2048,40.86455453079598,265975,62663,57921536,44936896,1.5743996894934316,0.3521963408531743,1.0,128,0,1,1,175.6975435974237,0.6870604200324953,0.1527497268909584,643.4262498909093
128,256,336.7833175989693,465945,46623,39821312,30032232,0.31324962312066634,0.041827382892565,0.35505767060878207,128,0,1,1,1812.1739175151188,0.8742575682679424,0.0703216053317565,643.4262498909093
128,512,142.49794562457723,359770,39457,32481280,29793200,0.5141994566849515,0.0531081315219049,0.6468548305100589,128,0,1,1,994.6996134875485,0.874062160546103,0.0770304390407228,643.4262498909093
1536,1024,121.67989277368922,428734,59999,52809728,45329992,0.8869346844237063,0.1607076102659981,1.0,1536,0,1,1,482.47276315537425,0.7481570033351634,0.1027725084911448,643.4262498909093
1536,128,539.2093856257756,425900,67112,34316288,29767104,0.4575334849498114,0.1445568132208432,0.41591746219622966,1536,0,1,1,1547.0046544651714,0.911941616119574,0.0274986644076816,643.4262498909093
1536,1536,77.43805663455329,396482,34412,60542976,44843448,1.1723921887766278,0.1845378068063411,1.0,1536,0,1,1,302.4459921134306,0.7071204206661041,0.118208008565655,643.4262498909093
1536,2048,63.63760984322475,349739,52227,58707968,45037280,1.3349356851628236,0.2103110221074272,1.0,1536,0,1,1,235.96906606386656,0.7199402040200572,0.1298496838394807,643.4262498909093
1536,256,344.15333639287815,526221,53529,32743424,30092592,0.5259059150566708,0.2026760669806749,0.5403865111093251,1536,0,1,1,1190.6778512477308,0.8901825064187874,0.0375004279541487,643.4262498909093
1536,512,228.5475756991132,435874,21818,34840576,29604424,0.6214523529044812,0.1926557839771924,0.7151917675561622,1536,0,1,1,899.6555596403487,0.8731356419911872,0.0706976807574488,643.4262498909093
2048,1024,116.39137166012824,429998,56837,39170048,30593624,0.8350853919760506,0.1271568647226892,1.0,2048,0,1,1,497.14222034009157,0.7872130717757948,0.0785370474670209,643.4262498909093
2048,128,641.7404791019009,485902,75547,35627008,29858400,0.5664329020960825,0.2804647656075045,0.4382486707923259,2048,0,1,1,1468.1761583614966,0.8395989485590862,0.0517817221560384,643.4262498909093
2048,1536,88.1455747853618,352775,75086,44544000,31716352,1.1732225103809424,0.1409167258688763,1.0,2048,0,1,1,279.5985647986667,0.7494328461828185,0.1123239157208639,643.4262498909093
2048,2048,65.42106609026706,419115,53771,58445824,45611344,1.3926332842939861,0.2172993571374541,1.0,2048,0,1,1,222.14732906129458,0.7480795453532193,0.1237160739992975,643.4262498909093
2048,256,264.1767518245284,459766,34454,42180608,30338048,0.6864593816443891,0.1617871595086832,0.7389169515320999,2048,0,1,1,870.7693720611005,0.8823021891914321,0.0689507981157896,643.4262498909093
2048,512,229.28455243954437,350608,66401,37724160,29605488,0.5824794962753906,0.1200442340036343,0.6928738673484007,2048,0,1,1,928.634027363847,0.8598256397772974,0.0719672575301568,643.4262498909093
256,1024,118.97662226540272,400086,46580,53596160,45006584,0.7728275116818368,0.123163822028405,1.0,256,0,1,1,523.3581804368565,0.7738072721591313,0.1008351857408055,643.4262498909093
256,128,829.4187911379182,545999,82222,35627008,30140352,0.48577372905618144,0.2187689683140929,0.38149908197213594,256,0,1,1,1686.5735208712877,0.8691620240615774,0.0350224990862155,643.4262498909093
256,1536,72.5819736898379,390748,55928,60542976,44548968,1.1665674198201386,0.1390671098825422,1.0,256,0,1,1,280.9973125661058,0.7030374173332967,0.129471214171362,643.4262498909093
256,2048,60.35780099719061,293990,90634,58970112,44957016,1.3646691599001248,0.2274540777219621,1.0,256,0,1,1,234.5803837977121,0.6930127547987757,0.1344196491159159,643.4262498909093
256,256,454.9972141103551,420766,86656,32743424,29779712,0.3810869353158701,0.09355088889368,0.4008046302965784,256,0,1,1,1605.3363690304705,0.8844398910723472,0.0468992622621888,643.4262498909093
256,512,175.78304977377033,379183,97519,42967040,30169704,0.48912514688200126,0.0721191158283446,0.58681119292469,256,0,1,1,1096.4791702149505,0.882798173667491,0.0830444827774932,643.4262498909093
512,1024,117.9681171267085,439767,50061,46772224,29851128,0.8747825167091753,0.124883948289516,1.0,512,0,1,1,478.5088395361734,0.7348846908521139,0.1263220808653655,643.4262498909093
512,128,774.1736377700298,448298,67922,33267712,29640632,0.47534235913455897,0.3635733731772348,0.35562090714472544,512,0,1,1,1809.303775351591,0.8829707968537605,0.0445923005855137,643.4262498909093
512,1536,94.58880314674624,453635,35070,64212992,45212744,1.0578185808125722,0.2177930882098808,1.0,512,0,1,1,343.9025943890676,0.6936548354627355,0.1380570608013799,643.4262498909093
512,2048,65.23358511313953,350855,60399,59232256,45589304,1.3040396928600118,0.2342235013095177,1.0,512,0,1,1,243.25997469849284,0.7466515305178927,0.1063374464443074,643.4262498909093
512,256,570.8197537226954,479711,46998,47169536,44039792,0.5361223425417809,0.2842416138519061,0.4769167927793696,512,0,1,1,1349.137333036981,0.8556767660761198,0.0748345992930985,643.4262498909093
512,512,132.4681106313549,402300,42219,35889152,29865664,0.4894383102879324,0.0551221492431309,0.6102250016210439,512,0,1,1,1054.4082071066694,0.877378728222344,0.0598428767691112,643.4262498909093
