cpu,memory,duration_std,userDiff,sysDiff,heapTotal,heapUsed,avg_cpu_util,cpu_util_std,slo_preservation,total_cpu_shares,cpu_shares_others,num_containers,arrival_rate,latency,memory_util,memory_util_std,slo_duration
1024,1024,111.46286579818094,397030,57987,44937216,30011080,0.9334077826390452,0.13524581389315,0.5766301180404707,1024,0,1,1,1115.838784275487,0.749222551639144,0.0998404650740694,643.4262498909093
1024,128,611.5552021789365,390595,92672,33529856,29604312,0.6939198728870484,0.1692949060534985,0.24451307757016866,1024,0,1,1,2631.4594551952473,0.8689156832181564,0.0494784406885366,643.4262498909093
1024,1536,66.30004982547916,281105,67566,58970112,44883112,1.1231027053330447,0.2468467443301656,0.8934738946632653,1024,0,1,1,720.1399545460758,0.7405746174941216,0.116345823334011,643.4262498909093
1024,2048,31.329875763587623,296280,62932,59232256,46126120,1.1846372399623002,0.2012717087594831,1.0,1024,0,1,1,557.7049503371123,0.6465757143837805,0.1552209598862412,643.4262498909093
1024,256,383.91579319587487,488416,52773,33005568,29734280,0.725134548218892,0.2210662497112801,0.2931780625121331,1024,0,1,1,2194.660283848084,0.8665766113239824,0.0828560176916441,643.4262498909093
1024,512,119.45934499100642,458493,62319,34840576,29796152,0.720870289387018,0.0425734590487809,0.34978687891985444,1024,0,1,1,1839.4808057918476,0.8836575350442855,0.0625981807975297,643.4262498909093
128,1024,123.64102735700476,362387,77497,45199360,30625640,0.9232716962921532,0.185229119854044,0.5568677429812406,128,0,1,1,1155.438177198539,0.751753104113323,0.124834328101888,643.4262498909093
128,128,963.8738885979014,456987,78124,32481280,29861624,0.4449208720452094,0.068010232968932,0.1732008773256207,128,0,1,1,3714.9133412370456,0.887478849194931,0.048142326409812,643.4262498909093
128,1536,49.76484920417656,390874,25874,58970112,46010760,1.1426686226710017,0.2146620171112006,0.9176443731538708,128,0,1,1,701.1716834044373,0.6698361292950856,0.1367057496604265,643.4262498909093
128,2048,40.86455453079598,265975,62663,57921536,44936896,1.1708709451089534,0.3521963408531743,1.0,128,0,1,1,590.6247807242376,0.6870604200324953,0.1527497268909584,643.4262498909093
128,256,336.7833175989693,465945,46623,39821312,30032232,0.5327829638533879,0.041827382892565,0.24155646375728596,128,0,1,1,2663.6681125511877,0.8742575682679424,0.0703216053317565,643.4262498909093
128,512,142.49794562457723,359770,39457,32481280,29793200,0.7257377254946762,0.0531081315219049,0.36518665845829024,128,0,1,1,1761.9106147175914,0.874062160546103,0.0770304390407228,643.4262498909093
1536,1024,121.67989277368922,428734,59999,52809728,45329992,0.9514824848742824,0.1607076102659981,0.5722622844810588,1536,0,1,1,1124.3555050537425,0.7481570033351634,0.1027725084911448,643.4262498909093
1536,128,539.2093856257756,425900,67112,34316288,29767104,0.6783096472218163,0.1445568132208432,0.24664496596279906,1536,0,1,1,2608.7143006517144,0.911941616119574,0.0274986644076816,643.4262498909093
1536,1536,77.43805663455329,396482,34412,60542976,44843448,1.0624929025576957,0.1845378068063411,0.7711947312113462,1536,0,1,1,834.3239701343059,0.7071204206661041,0.118208008565655,643.4262498909093
1536,2048,63.63760984322475,349739,52227,58707968,45037280,1.1115558525254157,0.2103110221074272,0.9081856585052301,1536,0,1,1,708.4743563886655,0.7199402040200572,0.1298496838394807,643.4262498909093
1536,256,344.15333639287815,526221,53529,32743424,30092592,0.7349740148823282,0.2026760669806749,0.30208448491436046,1536,0,1,1,2129.9546385949534,0.8901825064187874,0.0375004279541487,643.4262498909093
1536,512,228.5475756991132,435874,21818,34840576,29604424,0.8040824689105989,0.1926557839771924,0.37014787023550577,1536,0,1,1,1738.2951561534874,0.8731356419911872,0.0706976807574488,643.4262498909093
2048,1024,116.39137166012824,429998,56837,39170048,30593624,0.9267901306455788,0.1271568647226892,0.5745510626258917,2048,0,1,1,1119.8765292509158,0.7872130717757948,0.0785370474670209,643.4262498909093
2048,128,641.7404791019009,485902,75547,35627008,29858400,0.7655949776821649,0.2804647656075045,0.23693608199163235,2048,0,1,1,2715.611081614967,0.8395989485590862,0.0517817221560384,643.4262498909093
2048,1536,88.1455747853618,352775,75086,44544000,31716352,1.0627655594847312,0.1409167258688763,0.8338365219696442,2048,0,1,1,771.6455599366673,0.7494328461828185,0.1123239157208639,643.4262498909093
2048,2048,65.42106609026706,419115,53771,58445824,45611344,1.1271089831962313,0.2172993571374541,0.9376630680427919,2048,0,1,1,686.2019757629458,0.7480795453532193,0.1237160739992975,643.4262498909093
2048,256,264.1767518245284,459766,34454,42180608,30338048,0.8455228327289658,0.1617871595086832,0.3640542591255761,2048,0,1,1,1767.3910791110047,0.8823021891914321,0.0689507981157896,643.4262498909093
2048,512,229.28455243954437,350608,66401,37724160,29605488,0.7771701897338461,0.1200442340036343,0.3697853183791326,2048,0,1,1,1739.9994480884684,0.8598256397772974,0.0719672575301568,643.4262498909093
256,1024,118.97662226540272,400086,46580,53596160,45006584,0.8947905953192564,0.123163822028405,0.5693752514421767,256,0,1,1,1130.0565808948809,0.7738072721591313,0.1008351857408055,643.4262498909093
256,128,829.4187911379182,545999,82222,35627008,30140352,0.7025290720154603,0.2187689683140929,0.22069056435255513,256,0,1,1,2915.5131837128756,0.8691620240615774,0.0350224990862155,643.4262498909093
256,1536,72.5819736898379,390748,55928,60542976,44548968,1.0605732499549823,0.1390671098825422,0.8326978161542884,256,0,1,1,772.7007774110584,0.7030374173332967,0.129471214171362,643.4262498909093
256,2048,60.35780099719061,293990,90634,58970112,44957016,1.1196812314769442,0.2274540777219621,0.9001898153919792,256,0,1,1,714.7673067271211,0.6930127547987757,0.1344196491159159,643.4262498909093
256,256,454.9972141103551,420766,86656,32743424,29779712,0.606196810959475,0.09355088889368,0.2550247370744321,256,0,1,1,2522.9954445678636,0.8844398910723472,0.0468992622621888,643.4262498909093
256,512,175.78304977377033,379183,97519,42967040,30169704,0.7053247553585843,0.0721191158283446,0.3384757162699183,256,0,1,1,1900.9524729916145,0.882798173667491,0.0830444827774932,643.4262498909093
512,1024,117.9681171267085,439767,50061,46772224,29851128,0.9458442593540047,0.124883948289516,0.5815517123872848,512,0,1,1,1106.3955899117345,0.7348846908521139,0.1263220808653655,643.4262498909093
512,128,774.1736377700298,448298,67922,33267712,29640632,0.693722420160766,0.3635733731772348,0.20759958932620182,512,0,1,1,3099.361862801625,0.8829707968537605,0.0445923005855137,643.4262498909093
512,1536,94.58880314674624,453635,35070,64212992,45212744,1.0223520152451633,0.2177930882098808,0.7232901990466961,512,0,1,1,889.5824258906753,0.6936548354627355,0.1380570608013799,643.4262498909093
512,2048,65.23358511313953,350855,60399,59232256,45589304,1.1028530341892355,0.2342235013095177,0.8947772644438392,512,0,1,1,719.0909687349281,0.7466515305178927,0.1063374464443074,643.4262498909093
512,256,570.8197537226954,479711,46998,47169536,44039792,0.7428877639625835,0.2842416138519061,0.264339402908926,512,0,1,1,2434.0913341345167,0.8556767660761198,0.0748345992930985,643.4262498909093
512,512,132.4681106313549,402300,42219,35889152,29865664,0.7055851617344852,0.0551221492431309,0.35188557774311746,512,0,1,1,1828.5098639666942,0.877378728222344,0.0598428767691112,643.4262498909093
