0.004440206827262438
0.002629126016491924
0.0019389778748102658
0.0018206699591741674
0.001515850933403117
0.0013512789788168629
0.00119200285752983
0.0011327817852658574
0.0010432052756619871
0.0006114882623837858
0.000551428242889217
0.0005166799473751931
0.00037070101092987655
0.00037197041452132374
0.00034530799857175625
0.0003416153730195767
0.00028804008601606893
0.0002650787222485959
0.00024343593995996668
0.00023615383000440149
0.00023366314108063638
0.00021735224251083035
0.00020062319031821115
0.00018250120535220562
0.0001769955753612251
0.0001677425087390153
0.00017029806617030444
0.00014910201316819545
0.00015385695232354743
0.0001402016142756613
0.0001424611422696264
0.00013134658956218215
0.00013246673728112545
0.0001289667638239864
0.00012419509642714357
0.00011432995141000912
0.00011329296342279637
0.0001137116226803391
0.00011059545342180684
0.00010713588376254819
0.00010155258602128072
9.633553622111771e-05
9.715898288382649e-05
8.874277753735449e-05
9.243789375130096e-05
9.702332891785795e-05
9.104508879790061e-05
8.666109109916742e-05
9.197067157494911e-05
8.87104730926068e-05
8.78155326363548e-05
8.702201944656099e-05
8.747096280010013e-05
8.458944020953221e-05
7.407462753392849e-05
7.632046120157468e-05
7.74598716852513e-05
6.90265645416606e-05
8.142506448332527e-05
7.769031638398506e-05
7.56354600506436e-05
7.141091640860766e-05
7.933695237547946e-05
7.622195689151206e-05
7.515426450965167e-05
7.228794726725645e-05
7.557066907281334e-05
6.793968601726775e-05
6.497703957407046e-05
6.258730888018655e-05
7.068326159925588e-05
6.111491867200834e-05
6.936457003699627e-05
6.685185780882136e-05
6.580723888350009e-05
6.022241370408046e-05
6.118750478069573e-05
6.082834874106803e-05
6.12082005491258e-05
5.294320652383441e-05
5.6284981181952064e-05
4.821107550321676e-05
4.93256997487186e-05
5.847998509199396e-05
5.593563098421002e-05
5.3741775020487815e-05
5.529913894369498e-05
5.5928792050715905e-05
5.3938043151863977e-05
5.234123369636887e-05
5.532933332441265e-05
5.5881690718001433e-05
4.4813365963373564e-05
4.693427825489786e-05
4.6063368755766485e-05
4.7087074056403234e-05
4.667220021064506e-05
4.738599427808737e-05
4.72871864605782e-05
4.561995631416904e-05
