0.29673405202918174
0.23020626443710263
0.1976239016295374
0.19035514605979542
0.17532310356723182
0.16634568806240535
0.15652004559861898
0.1536707703629197
0.14751044376580014
0.12657343603284799
0.11633743963246279
0.11095716957149561
0.1009844455186263
0.09713490262877676
0.09249133416373224
0.08914004672937899
0.08258771784179544
0.07850406512436302
0.075639379332929
0.07440134340262039
0.07296496756815422
0.07049759680735034
0.06787611835377201
0.06659185676160514
0.06519327114498619
0.06334095954924523
0.062153557584446024
0.0587874076751843
0.05860302613165777
0.05669939739805568
0.055998982812451005
0.05452301859087061
0.05366763735452119
0.05282129192911766
0.05243381877707529
0.05114210781431925
0.05138676815422682
0.05088801704045735
0.0504953349268916
0.0495265169954022
0.04936939037700377
0.048482249281326766
0.04806933591627712
0.046759151661517534
0.047201692720544634
0.04673597657868504
0.04557838150283229
0.045006086106974694
0.04553415930518649
0.04436813332573429
0.04428575341013993
0.043820698864598946
0.04394604578729186
0.04336363796086744
0.042341130390855415
0.04262412447640281
0.041964896202071576
0.041129325303547466
0.042314704856487695
0.04111971737691129
0.04052528231128163
0.03991597105261644
0.039676131582103064
0.03926284246716723
0.03885645163020022
0.039401703325736934
0.03949227880842459
0.03852615083739897
0.038165131190940386
0.03829300680568799
0.03905935278569764
0.03838988296234815
0.03934998852618987
0.038962245483639434
0.038027342270803954
0.037233828383077296
0.037449539113551825
0.03696379748087852
0.03688150737681549
0.03562694692016958
0.03600163351062165
0.03468490773125232
0.03492800497555827
0.036186221020435456
0.03554779540282475
0.03512972769643334
0.0358461023316901
0.035685555300471836
0.03520521716038852
0.0353303813057322
0.03603887234439878
0.036020418759791
0.034666064910415906
0.03473523405128962
0.03479240618323901
0.034681867182959826
0.034352642011561324
0.03423137691986644
0.03389806462437584
0.033438882472349836
