cpu,memory,duration_std,userDiff,sysDiff,heapTotal,heapUsed,avg_cpu_util,cpu_util_std,slo_preservation,total_cpu_shares,cpu_shares_others,num_containers,arrival_rate,latency,memory_util,memory_util_std,slo_duration
1024,1024,147.23729326920807,18959,4553,25792512,14458584,0.1258393155765954,0.15266334224370504,1,1024,0,1,1,282.56723685000003,0.6377974344377002,0.055151228253391915,306.69601131355927
1024,128,150.3766660956724,6797,488,28098560,24188488,0.027359744632414428,0.015289995166823904,0.9756784113071774,1024,0,1,1,314.3412909,0.8649796753075106,0.008715504171601768,306.69601131355927
1024,1536,125.46624588446514,1010,4206,42262528,27853896,0.06806417984278695,0.051276652581503206,0.937477092153018,1024,0,1,1,327.15040600000003,0.5026562054975943,0.058244609183908204,306.69601131355927
1024,2048,119.15764736847437,23762,40,34312192,14691128,0.07672530128687235,0.07687647650803764,0.9672185793889788,1024,0,1,1,317.09069474999995,0.4893139725524363,0.04439296800072005,306.69601131355927
1024,256,137.59926670145373,7611,29,28098560,24182288,0.03273471354260149,0.03364928182179649,0.9045432783019749,1024,0,1,1,339.06173277777776,0.8666647996168773,0.01143684710077319,306.69601131355927
1024,512,131.75667609368696,6604,31,28098560,23927080,0.07752794953672949,0.06109153665983171,0.9947419022434665,1024,0,1,1,308.31717315000003,0.8688196250092064,0.015698574445541187,306.69601131355927
128,1024,126.2732880424113,6147,34,33742848,27901960,0.09036436624411866,0.07850315422434732,1,128,0,1,1,302.64708515,0.6487355963443308,0.06722368566084619,306.69601131355927
128,128,138.52641885418836,202,6710,27836416,24259808,0.03082388594482375,0.015290837287339942,1,128,0,1,1,267.3633124705882,0.8617326602610413,0.010130304131258568,306.69601131355927
128,1536,132.85487680563728,5890,478,41738240,28445560,0.1281837308764329,0.17283813614170626,1,128,0,1,1,293.11281935,0.5036240796839206,0.06493985960933754,306.69601131355927
128,2048,131.5618474748432,989,4274,42786816,27373128,0.13911661602249342,0.1775711467796937,1,128,0,1,1,242.13907225000003,0.4898376520806023,0.04598394667925342,306.69601131355927
128,256,104.92360969988604,3834,3043,27836416,24221112,0.034382354908573214,0.04547167430391796,0.9010618898740546,128,0,1,1,340.3717488888888,0.8667037315543251,0.010613160055504138,306.69601131355927
128,512,144.1048242318625,5966,0,27836416,24218584,0.07669922692964862,0.09696857196325945,0.8513865734396604,128,0,1,1,360.2312050500001,0.8735699535223056,0.01276986109210004,306.69601131355927
1536,1024,128.1882342911409,5278,254,33742848,27759480,0.10937039542236644,0.1493465897496123,0.9986855312553428,1536,0,1,1,307.09968425,0.6437876752302916,0.06800947916162867,306.69601131355927
1536,128,124.57803440670595,182,7015,28360704,24233328,0.024350046592260064,0.011482300596663539,0.9273819954936839,1536,0,1,1,330.7116299473684,0.8616219685562094,0.008899295072672396,306.69601131355927
1536,1536,122.8862378409557,1236,3344,42000384,27700016,0.12263846887982759,0.19790256173879256,1,1536,0,1,1,272.25180665000005,0.5088452431622137,0.06946913462167348,306.69601131355927
1536,2048,135.18569535131365,18079,5418,34312192,14702776,0.06979442279482588,0.07330651052646306,0.835163290639634,1536,0,1,1,367.22879795,0.48394363290671744,0.032189103454289866,306.69601131355927
1536,256,140.4423494919935,2662,2909,28360704,23938712,0.03249070024853827,0.021618710874843756,1,1536,0,1,1,274.00529473684213,0.8636898208332298,0.01387910746874871,306.69601131355927
1536,512,127.1700957267252,6020,33,28098560,24275808,0.080500949716118,0.10391710289825141,1,1536,0,1,1,288.44509945,0.8782962181155207,0.017454280541838937,306.69601131355927
2048,1024,154.87380017670074,19500,3149,25530368,14470936,0.0920964032280713,0.08593077355372421,1,2048,0,1,1,302.2947337,0.6549580685956373,0.0789881572048119,306.69601131355927
2048,128,131.6559243029201,1921,4127,28360704,23935656,0.03411250431953559,0.02025083267608081,1,2048,0,1,1,273.66140052631584,0.8571790758160427,0.012408198477705313,306.69601131355927
2048,1536,131.88590396708074,4466,99,42000384,27730240,0.09196309949407994,0.09688739385262493,1,2048,0,1,1,262.0825698499999,0.505632422397778,0.059173477441230776,306.69601131355927
2048,2048,152.71007050230855,49252,14187,34574336,14569024,0.08266358504734049,0.06689871000220514,0.9101269575084514,2048,0,1,1,336.98157029999993,0.4927332447251719,0.05156903796785969,306.69601131355927
2048,256,138.93215042462927,1460,6463,27836416,24217064,0.022061542199697474,0.01448059709017876,0.8538571623698484,2048,0,1,1,359.18889578947375,0.8645626697335037,0.011428264532706997,306.69601131355927
2048,512,112.32694888651811,5738,28,27836416,24330064,0.0443144410049112,0.0628170299965646,0.9928219258830367,2048,0,1,1,308.9134147000001,0.8759559723447381,0.0147800833623588,306.69601131355927
256,1024,123.38035472095288,5890,362,33742848,27709024,0.08015298006924507,0.09859272037034932,0.9089824556624153,256,0,1,1,337.40586455,0.6659857923771366,0.08231976148801355,306.69601131355927
256,128,175.6910016416528,2432,3545,28360704,23960544,0.026117719855158938,0.01552587171641776,0.9052733416220143,256,0,1,1,338.7882943333334,0.8638539498223962,0.008888799149920355,306.69601131355927
256,1536,126.78530554860913,5466,1392,41476096,29004848,0.09256947191482276,0.13934409709838153,0.9233616289394546,256,0,1,1,332.1515663,0.5097143931702411,0.06716959417835071,306.69601131355927
256,2048,137.88303400593998,619,4256,34050048,14713368,0.08371568328971,0.0792709086184827,1,256,0,1,1,301.87287175,0.4961027983567085,0.0476915122042259,306.69601131355927
256,256,135.99123402294177,5143,217,27312128,23978488,0.05988939503563372,0.06886957205944229,1,256,0,1,1,285.05355394736836,0.8682252649512492,0.012342516359964535,306.69601131355927
256,512,126.23804747230858,5129,944,28360704,23939808,0.095713905747738,0.1113150766567345,1,256,0,1,1,273.4412903,0.8696981415578762,0.015217905418126995,306.69601131355927
512,1024,153.84936902500317,6327,540,33742848,27738040,0.11036470279921254,0.14706563851932195,0.951750354500847,512,0,1,1,322.24417869999996,0.6518728594484476,0.07827782730888105,306.69601131355927
512,128,150.1377398382059,2515,4554,27836416,24221520,0.03221815184382295,0.030063119669782094,0.9753758473459189,512,0,1,1,314.4388003333334,0.864283061914678,0.010659048810210342,306.69601131355927
512,1536,135.48874862864704,4693,188,42000384,27847512,0.11266179769733056,0.15766549847989647,1,512,0,1,1,252.45471270000002,0.5088322340219813,0.058691258151054346,306.69601131355927
512,2048,145.16610932548215,7719,15756,34312192,14696200,0.13775543636504245,0.1535879965375929,1,512,0,1,1,232.21929825,0.4816549763603536,0.028924180071372253,306.69601131355927
512,256,135.75281983930626,6322,444,28098560,24259296,0.05241102556265957,0.058660955468879464,0.8754249393535907,512,0,1,1,350.33958655555557,0.862770232296048,0.011185727274822404,306.69601131355927
512,512,158.17431274692268,8274,29,27836416,24299408,0.0791830748835754,0.08443889456402001,0.9430184478870568,512,0,1,1,325.228008,0.8756606930279901,0.014425241366431717,306.69601131355927
