cpu,memory,duration_std,userDiff,sysDiff,heapTotal,heapUsed,avg_cpu_util,cpu_util_std,slo_preservation,total_cpu_shares,cpu_shares_others,num_containers,arrival_rate,latency,memory_util,memory_util_std,slo_duration
1024,1024,98.02565642569328,308992,35055,38907904,31030816,0.9078632747911568,0.1386444224239017,0.8301771244997552,1024,0,1,1,662.5954908667782,0.7944892754152985,0.0881820109178039,550.0716193142857
1024,128,2382.138039454117,291036,61558,32743424,29765056,0.5912672573528756,0.3418980241792355,0.11789753942573968,1024,0,1,1,4665.675144651855,0.9105691747632638,0.0055543539349076,550.0716193142857
1024,1536,85.7557442741017,270882,53276,35885056,15683240,1.0131507202996932,0.3020597267030971,0.9963689239759661,1024,0,1,1,552.0762501496426,0.7465482073371539,0.1165970539235674,550.0716193142857
1024,2048,41.55635641145589,236071,41705,92807168,77891440,1.0514556106197237,0.1951598773709376,1.0,1024,0,1,1,395.62255041285124,0.7445052998675159,0.0998803542242919,550.0716193142857
1024,256,315.2543246218219,272869,28247,32481280,30038840,0.6886342412166854,0.2312672837588476,0.3477525116238369,1024,0,1,1,1581.7905002201592,0.906223664383724,0.0336251937206357,550.0716193142857
1024,512,165.37892109400332,331907,37145,32481280,29838936,0.7734980353038242,0.2099978596758029,0.4631456794190495,1024,0,1,1,1187.6859566179533,0.9012729939787172,0.0326193475327647,550.0716193142857
128,1024,90.1390595032502,356128,46022,39956480,31759552,0.9376825353398228,0.1565754674184811,0.8513682069460676,128,0,1,1,646.1030783466073,0.8345881063438151,0.0955077595216301,550.0716193142857
128,128,2113.4593869321093,306116,59714,32743424,29853808,0.45197750923824404,0.2822310410274872,0.12107491766392259,128,0,1,1,4543.2334783093875,0.9184422751354728,0.0086157674241235,550.0716193142857
128,1536,44.371997129147736,262877,32251,72347648,55527456,1.0630612348672421,0.2110308173738379,1.0,128,0,1,1,401.26773072361425,0.7210424382988272,0.1117698398042653,550.0716193142857
128,2048,25.077389529934383,273341,29753,50835456,31340592,1.1389080531877314,0.1754970520310706,1.0,128,0,1,1,311.7234287380003,0.7423042410482852,0.091526069054281,550.0716193142857
128,256,344.38550933493843,271506,41287,32743424,29991216,0.6690466961378817,0.2088038396312284,0.3515236756663398,128,0,1,1,1564.8209705123936,0.905553181059392,0.0415964048087017,550.0716193142857
128,512,163.4389575258953,377148,43281,33267712,30305144,0.6641068125991879,0.0432055065677182,0.4456143523947228,128,0,1,1,1234.4118100285855,0.8668733716651287,0.0752709222532026,550.0716193142857
1536,1024,97.57003338923464,272746,30586,38907904,30217864,0.9169557619721023,0.1365883249671506,0.8377410558424594,1536,0,1,1,656.6129420040372,0.7983049489662972,0.0942623620645199,550.0716193142857
1536,128,785.6726682062323,330513,68005,33005568,30088576,0.5492388635615185,0.1570869072905883,0.21955425024145162,1536,0,1,1,2505.4018253317913,0.907529745840298,0.0093289895892736,550.0716193142857
1536,1536,67.94902127788036,281791,42092,50573312,30356632,0.999696026551244,0.1515654779308766,1.0,1536,0,1,1,485.828856553936,0.7605296840121707,0.0793931543563844,550.0716193142857
1536,2048,42.30462226743843,285793,34008,50311168,30759576,1.0352925747802921,0.1753131308684911,1.0,1536,0,1,1,424.8805556133526,0.7379332694392795,0.1119366767316135,550.0716193142857
1536,256,275.4578909838896,239437,59869,32219136,29821096,0.7709356243387838,0.2345138656521977,0.4164909024242992,1536,0,1,1,1320.7290149975508,0.9074461348287324,0.0265727919006009,550.0716193142857
1536,512,119.20710038060533,279802,31784,32743424,29778328,0.810328469786222,0.197074475925014,0.5530985985286296,1536,0,1,1,994.527233982519,0.8992639914576694,0.0642490766204153,550.0716193142857
2048,1024,75.77943476884582,237592,41794,37859328,30225336,0.9146215176981424,0.1152920229800254,0.7951402482972135,2048,0,1,1,691.7919454992496,0.7591082100452988,0.1080038393005607,550.0716193142857
2048,128,1465.1375363315576,336985,84322,33005568,29915512,0.7009589292764119,0.3562786713598821,0.17779704172003105,2048,0,1,1,3093.817613571201,0.9104847083826094,0.0076349986363801,550.0716193142857
2048,1536,68.4365013933408,289288,42579,44281856,31414344,1.0219587247361137,0.1685600414279501,1.0,2048,0,1,1,503.8633712476758,0.7443377684396595,0.0741908354647208,550.0716193142857
2048,2048,45.94574960171787,244660,30378,49786880,30414384,1.0951595051701168,0.2057051377673513,1.0,2048,0,1,1,375.8815534595764,0.7345295190226705,0.114785667567764,550.0716193142857
2048,256,187.6827379510601,296309,56088,33005568,30073688,0.9072188922435741,0.2855313918454333,0.49809112663933525,2048,0,1,1,1104.3594031189984,0.9055545071234636,0.0319695343590612,550.0716193142857
2048,512,117.07085351810294,292827,59524,33005568,30148432,0.8767513836162636,0.2771581828315861,0.6005684250730524,2048,0,1,1,915.9183139662657,0.8907660153472771,0.051813585527594,550.0716193142857
256,1024,87.96897519444326,291926,36156,38383616,31041656,0.9080729691496506,0.1361841070377211,0.8497398269033681,256,0,1,1,647.3412236294292,0.8202003275474172,0.0866224864889075,550.0716193142857
256,128,935.2006623638068,298730,80323,33005568,29735344,0.48374703730877133,0.0924764396359705,0.1948781511161688,256,0,1,1,2822.6438734344447,0.9114203389844722,0.0059233129760874,550.0716193142857
256,1536,80.12517989997863,175077,43677,73134080,55481504,1.0114221768520406,0.2211787470811499,1.0,256,0,1,1,513.4913574434264,0.7487685889857697,0.1218962449777942,550.0716193142857
256,2048,41.415944050603656,222026,66202,50573312,30112264,1.0634548346446557,0.2169536756584152,1.0,256,0,1,1,374.63619352392834,0.7520090329254858,0.0881032136981119,550.0716193142857
256,256,433.5189895177194,281537,39650,33005568,29970168,0.5427268982678071,0.083045916543272,0.2922245102244679,256,0,1,1,1882.3596244262894,0.9096011870219468,0.0207662099122509,550.0716193142857
256,512,167.26593773286575,303240,35627,33005568,30396392,0.7215155196211626,0.1460914985176804,0.466675906151497,256,0,1,1,1178.7015615409036,0.8974786320895745,0.0467699933718783,550.0716193142857
512,1024,118.69145931153744,285346,35516,38121472,30208640,0.9269543854074278,0.1698443529300492,0.7591202831962357,512,0,1,1,724.6172069046006,0.8099501343965333,0.0833194477198768,550.0716193142857
512,128,824.6056629023298,258492,57765,32481280,30044552,0.4602762659627824,0.1020692165771688,0.20002172610718497,512,0,1,1,2750.059356149745,0.909754902947816,0.0124528544343674,550.0716193142857
512,1536,52.80385220811846,310457,48064,42446848,31268400,1.088927698833304,0.2857928559768554,1.0,512,0,1,1,429.0193318777863,0.7469898048208982,0.1056932916092148,550.0716193142857
512,2048,29.87020842833972,279114,36345,50835456,30717800,1.1375727108226388,0.172597845348905,1.0,512,0,1,1,299.55088839039166,0.744076731962703,0.0967840185716074,550.0716193142857
512,256,468.5760491506563,260761,53999,32743424,30363480,0.5933370922673704,0.1321296013834385,0.3131668731541532,512,0,1,1,1756.4808620211838,0.9046275820294968,0.0487138746739231,550.0716193142857
512,512,172.9169823933123,294458,49833,32743424,29846368,0.6931035702991347,0.0419474954647416,0.4634716467127705,512,0,1,1,1186.8506373922464,0.8952609251577572,0.049523283547344,550.0716193142857
