cpu,memory,duration_std,userDiff,sysDiff,heapTotal,heapUsed,avg_cpu_util,cpu_util_std,slo_preservation,total_cpu_shares,cpu_shares_others,num_containers,arrival_rate,latency,memory_util,memory_util_std,slo_duration
1024,1024,144.19900358938943,149139,51542,61444096,49812568,0.39736674783069226,0.1383564863335485,1.0,1024,0,1,1,360.90455039459994,0.7560770803929752,0.0426555298125851,372.6624072749999
1024,128,136.52070034413143,75841,12012,45797376,41465200,0.4314017211039338,0.2451751435018812,0.8121474610662555,1024,0,1,1,458.86052119862245,0.88264554879089,0.0208062476441834,372.6624072749999
1024,1536,153.27973978006028,134511,49585,66609152,46895296,0.3577649663780522,0.2338054422896771,0.9633589664460879,1024,0,1,1,386.8364963164072,0.6746307497119359,0.059048754163187,372.6624072749999
1024,2048,155.16563353495093,116245,53847,60428288,42433176,0.3060755840796254,0.1149526050924605,1.0,1024,0,1,1,353.65538094774735,0.6664444023977073,0.0484679237694127,372.6624072749999
1024,256,148.3984026916488,118555,31837,67231744,62494000,0.43722519886343797,0.1706860721887909,0.9349057283445774,1024,0,1,1,398.60960947888003,0.8857601289651017,0.0393353917964847,372.6624072749999
1024,512,144.41378364661054,99033,31753,54484992,49993656,0.45281173045706113,0.2350221284643045,0.8797590225162153,1024,0,1,1,423.5960049709307,0.891641835639674,0.0183234211721572,372.6624072749999
128,1024,126.69925452727324,17492,24859,41779200,33677032,0.32698490264608815,0.1593846889257983,0.8169006819174562,128,0,1,1,456.1905939413276,0.7875814150658275,0.0295460032813095,372.6624072749999
128,128,150.90031549517752,50598,5917,35696640,31411608,0.4355177799171686,0.2177059282167111,0.8775307839811262,128,0,1,1,424.67160591714935,0.8919926478337088,0.0220059690956524,372.6624072749999
128,1536,140.8794624230842,26175,25008,45117440,25461720,0.30230098671255845,0.1079178621603356,1.0,128,0,1,1,360.37172911583815,0.6552592689550821,0.0513737386915663,372.6624072749999
128,2048,151.34014522041485,109102,14394,54386688,34377536,0.3534884520347825,0.2149229285357742,0.9803728053074725,128,0,1,1,380.12315851429855,0.6553575455277059,0.0517122834860043,372.6624072749999
128,256,131.23406182595926,62126,23607,45477888,41081168,0.48077090029272657,0.1847729532538085,0.9557506266163209,128,0,1,1,389.9159434447355,0.8909165334680228,0.0231555440048814,372.6624072749999
128,512,123.41723364677794,76351,12826,45350912,41325672,0.4155751039114252,0.1884510495796836,0.8396103191274751,128,0,1,1,443.85162829140967,0.8815848204975095,0.0360680796376201,372.6624072749999
1536,1024,137.4880779031359,115744,22160,62558208,51279560,0.3120139299234597,0.1454440048479465,0.8662848899976436,1536,0,1,1,430.1845865925395,0.7633461268705203,0.0491182213766753,372.6624072749999
1536,128,155.16856356435864,21929,11658,35307520,31591128,0.5000405089678354,0.2068143634512887,0.8579309496076718,1536,0,1,1,434.37342765803805,0.8922688785600759,0.0138038867577955,372.6624072749999
1536,1536,126.17800442987314,91910,13383,45641728,25331424,0.4093241955934714,0.2245662657459232,0.9917808927447275,1536,0,1,1,375.7507429324097,0.6486345949175264,0.0520777813712575,372.6624072749999
1536,2048,120.8362659372995,66842,36993,64737280,46325360,0.2748839880043449,0.1210118315958362,0.9415452889410777,1536,0,1,1,395.798706288595,0.6623746876228596,0.059202918546813,372.6624072749999
1536,256,114.99426255437407,68340,20190,45797376,41486000,0.38965546433079506,0.193259456941507,0.9694233514917359,1536,0,1,1,384.4165778568795,0.8853475743384502,0.0250988307961255,372.6624072749999
1536,512,145.34626505886155,24271,8059,36016128,31804472,0.48813966975239675,0.2285278484780938,0.998803910456485,1536,0,1,1,373.1086786641448,0.8975393605879374,0.0296461646343179,372.6624072749999
2048,1024,140.74223424269783,21016,24235,42041344,33595696,0.2723316141901435,0.1260387142169717,0.8080393714525108,2048,0,1,1,461.1933779973017,0.7874347347800998,0.0344381614085449,372.6624072749999
2048,128,150.67471844855908,80432,8006,45613056,41212600,0.4706090540425969,0.1867262439392562,0.85533954118868,2048,0,1,1,435.68944182927,0.8866373414986327,0.0263148555753401,372.6624072749999
2048,1536,119.0944518346556,97548,48584,67395584,46991800,0.2997102308440129,0.1428280556232203,0.9833566798103237,2048,0,1,1,378.96972169536843,0.6425066249451594,0.0449209327020545,372.6624072749999
2048,2048,123.89607297656664,32408,16013,42467328,27227352,0.2858512995406364,0.2314075891264737,0.9180233466933478,2048,0,1,1,405.94001080397607,0.6413444586100976,0.0432967216331975,372.6624072749999
2048,256,131.9740417673848,171385,25368,37998592,32935912,0.4114779493651872,0.212775759871034,0.8348981720291734,2048,0,1,1,446.3567172141062,0.8838022808715958,0.0224683109319052,372.6624072749999
2048,512,157.0461958841851,27274,7241,36016128,31802720,0.4444720610994721,0.2944667732695759,0.8280343565786868,2048,0,1,1,450.0566966988964,0.88041535926546,0.0342889018562855,372.6624072749999
256,1024,136.72450166674395,142229,29185,61444096,49740624,0.37386697382482365,0.1740123386102434,0.9113312128374496,256,0,1,1,408.92093020133416,0.7900897651782554,0.038018790382109,372.6624072749999
256,128,152.0927079911006,158206,41069,37212160,33525552,0.44156917100961807,0.2178606653979978,0.9773774290774129,256,0,1,1,381.28812492301097,0.8846764099647544,0.0224424932315364,372.6624072749999
256,1536,144.53834167140647,48999,12207,55463936,37403328,0.3801316275268514,0.2431511482898876,1.0,256,0,1,1,327.43728191452266,0.6456674242661445,0.0567125486141457,372.6624072749999
256,2048,167.89890905970088,25366,4328,50454528,40143208,0.3104467810975779,0.2189727202986753,1.0,256,0,1,1,367.706591046456,0.6761301050215983,0.0580390772484442,372.6624072749999
256,256,161.40055864590215,60625,16246,45797376,41541312,0.4635227241954403,0.250568765935433,0.9480836168872402,256,0,1,1,393.0691350817027,0.8807543556508637,0.031358686494158,372.6624072749999
256,512,168.4947851014477,11773,20156,35569664,31627464,0.3255866186782563,0.1506881922187309,0.8342456064938083,256,0,1,1,446.70586740185104,0.8833546424706403,0.0234724257043908,372.6624072749999
512,1024,135.40961502812766,115316,31094,50073600,38746856,0.3198110258526868,0.1493090725804834,0.8599409868248891,512,0,1,1,433.3581175738117,0.7668465930570962,0.0479215048425352,372.6624072749999
512,128,132.38157794216056,92125,19256,27844608,23105104,0.42970113422299044,0.2084302292734837,0.9235636710129881,512,0,1,1,403.504835639815,0.8803319195809435,0.0266390606026072,372.6624072749999
512,1536,148.88724522486012,68529,11661,55463936,37328792,0.32403708495938943,0.1438414204395046,1.0,512,0,1,1,346.8916331680986,0.627609078676897,0.044787697506155,372.6624072749999
512,2048,157.7672752896813,50250,37780,54124544,34510368,0.30189102334560497,0.1800556149473937,1.0,512,0,1,1,364.05320305368724,0.6510454502552563,0.037028393002886,372.6624072749999
512,256,151.56821379555078,22197,7665,36016128,31734192,0.4505880164316806,0.2412608104767545,0.8962812954038462,512,0,1,1,415.78733059143644,0.8911557110448083,0.0212013733897754,372.6624072749999
512,512,110.44759833367937,23999,14214,36093952,31604128,0.47546709693475103,0.2647825517495408,0.8387147473338512,512,0,1,1,444.32556892511786,0.8753915987284471,0.0201126031847224,372.6624072749999
