cpu,memory,duration_std,userDiff,sysDiff,heapTotal,heapUsed,avg_cpu_util,cpu_util_std,slo_preservation,total_cpu_shares,cpu_shares_others,num_containers,arrival_rate,latency,memory_util,memory_util_std,slo_duration
1024,1024,97.98738958359048,569816,63800,39170048,29983472,1.005251957056458,0.1385024187773254,0.3059494957947454,1024,0,1,1,1018.8026238590288,0.8018617464433783,0.0651627871679424,311.7021490840335
1024,128,142.06328540359462,540730,80046,32743424,29414696,0.9626767993824044,0.1371734744564765,0.2241039008701637,1024,0,1,1,1390.8823000123523,0.91479471483963,0.0145925497961665,311.7021490840335
1024,1536,67.5473156573787,347269,41642,63348736,52199072,1.0535838068247936,0.113746970955957,0.39353408294394193,1024,0,1,1,792.0588396111928,0.7051278344690305,0.1088394856301911,311.7021490840335
1024,2048,41.00108136771036,294886,42192,60104704,48166448,1.1371339465497714,0.1786367029994892,0.4825759986127174,1024,0,1,1,645.9130789349191,0.7201813807891178,0.0932760517426535,311.7021490840335
1024,256,77.18865781128102,476976,69899,32481280,29286376,0.9863792451785625,0.0904328836237997,0.25121312573661314,1024,0,1,1,1240.7876705090669,0.9141635356626102,0.0131493425411917,311.7021490840335
1024,512,107.15085618978956,495438,51760,32481280,30111216,1.0285256139646386,0.1514957023356107,0.2677428110824475,1024,0,1,1,1164.184942347712,0.9157491385636508,0.0376630213099136,311.7021490840335
128,1024,93.81537006316525,404916,45836,39170048,29607616,1.0210516895736563,0.0965100440500781,0.3245478285221051,128,0,1,1,960.4197646412641,0.8115106994769095,0.091073455330611,311.7021490840335
128,128,363.40308539574585,270031,51553,32219136,30289080,0.9916916059690419,0.4282064017415391,0.20437210325458413,128,0,1,1,1525.1697473394865,0.9143509019721452,0.0191426327237752,311.7021490840335
128,1536,77.73217126326473,346226,71358,60628992,48433304,1.0931109403239987,0.1073920147525946,0.42727815958385545,128,0,1,1,729.506393183339,0.6766381730180083,0.1102981610017021,311.7021490840335
128,2048,47.87255314685216,300238,40646,60104704,48186144,1.113389593493181,0.1443839688349413,0.5380975997398237,128,0,1,1,579.2669382557087,0.7632405563886846,0.0640925971121823,311.7021490840335
128,256,59.489605875655485,464627,46646,32481280,29671496,1.0766910207645541,0.1058069524543583,0.2832311130069772,128,0,1,1,1100.5222758714187,0.9059357927206844,0.0129579832271621,311.7021490840335
128,512,107.55364402025911,507734,75308,32481280,29842384,1.0170819026468287,0.1575898759471727,0.2513734134203123,128,0,1,1,1239.996485081132,0.9081914352912588,0.0163283236793256,311.7021490840335
1536,1024,106.87808008983578,478204,68345,39170048,30701208,1.037532617277065,0.0985374968688688,0.3673997655854218,1536,0,1,1,848.4005115990244,0.7608691770450314,0.0826489273353501,311.7021490840335
1536,128,96.51968892378969,411847,76926,32481280,29692112,1.0109646483020676,0.129537671771755,0.2670379003929118,1536,0,1,1,1167.2580881792585,0.9149298069092694,0.0131911231224033,311.7021490840335
1536,1536,62.65643784693474,385424,48465,42971136,31025000,1.0854524939420291,0.1313001871398676,0.40782563723162985,1536,0,1,1,764.3024877001498,0.7177345169248047,0.072995475038246,311.7021490840335
1536,2048,54.820390229148245,290303,49055,42971136,30407704,1.112498375195048,0.1327060058352817,0.49911944579662504,1536,0,1,1,624.504117619657,0.7210962190165484,0.0915390851520888,311.7021490840335
1536,256,95.51913581190242,483443,59421,32481280,29661744,1.0391041200854574,0.1038652967102493,0.2617355874110901,1536,0,1,1,1190.9047301025382,0.9152914782323254,0.0146903060328801,311.7021490840335
1536,512,95.77509378784366,425293,75392,32743424,29205224,1.045769129336764,0.0723339530697805,0.27678349925797247,1536,0,1,1,1126.1587122052952,0.9059495042389466,0.0348403704293331,311.7021490840335
2048,1024,94.4682955089784,421287,72094,36024320,30025216,1.021467501159829,0.1298003896924056,0.3240205559941582,2048,0,1,1,961.9826375757877,0.812295935270684,0.0785810094218356,311.7021490840335
2048,128,511.4079067088645,303885,114737,32743424,29605208,0.9366919443981326,0.2749569624427663,0.17844168422855716,2048,0,1,1,1746.8012052878273,0.9229434047268588,0.0148510774278741,311.7021490840335
2048,1536,55.63145812349428,257595,54742,44281856,30874576,1.090023489434781,0.1095185153415608,0.41204857927157873,2048,0,1,1,756.4694183269894,0.6636787977582846,0.0923451803156905,311.7021490840335
2048,2048,53.73226888427256,300725,56931,60628992,48126920,1.1304775734870238,0.1861744705941688,0.4818046653014934,2048,0,1,1,646.9471375686726,0.7118877901849296,0.0893584759243187,311.7021490840335
2048,256,63.09429246321289,356780,46082,33005568,29343088,1.0749916762863607,0.0763276890335937,0.29833070652559235,2048,0,1,1,1044.8208724947128,0.9153229007610708,0.015598800910921,311.7021490840335
2048,512,63.24791680348201,350748,43332,32219136,29993984,1.0786389690000673,0.0998658061001263,0.30853641450431096,2048,0,1,1,1010.2604893001319,0.901953190875674,0.0282637944952878,311.7021490840335
256,1024,81.87478548232535,514628,32584,39432192,29921272,1.0173501217138847,0.1548014043973067,0.306482325433968,256,0,1,1,1017.0314018685236,0.7983903756082928,0.0729412455681523,311.7021490840335
256,128,110.95055692404888,452354,57811,32481280,29379064,1.042311462353579,0.1536236961541379,0.24722517727303195,256,0,1,1,1260.8026112963169,0.9193415834454256,0.0165066936106241,311.7021490840335
256,1536,60.52980570216076,323339,27978,43757568,30538344,1.0683465814428,0.1550610510242245,0.42800463310162884,256,0,1,1,728.2681657560947,0.6964462623821955,0.1060826926592819,311.7021490840335
256,2048,43.32850633561038,281070,51607,43495424,30415848,1.1386023778281251,0.1841053165242182,0.4823840292441769,256,0,1,1,646.1701262631432,0.6815263991450313,0.0900917845009983,311.7021490840335
256,256,49.877375532033696,400369,56062,32743424,29663024,1.0696974006829936,0.0875132040732372,0.2988965576605751,256,0,1,1,1042.8428869294653,0.909868641159863,0.0139173121556752,311.7021490840335
256,512,107.53354656951863,409299,43915,31956992,29414264,1.0138224759847179,0.142706222459998,0.27922440554875716,256,0,1,1,1116.3141290298322,0.9105171336319772,0.0328293592748677,311.7021490840335
512,1024,74.32993767339231,395202,74463,39170048,30082240,1.031806537085583,0.0967196194331614,0.3265989296634111,512,0,1,1,954.3881524819142,0.7858399495050153,0.045545036497822,311.7021490840335
512,128,653.6353774062808,405352,75611,32219136,29290128,0.9088242517148707,0.2859524961022152,0.15563400052105367,512,0,1,1,2002.7895449610799,0.9201410211157156,0.013977764376275,311.7021490840335
512,1536,50.88873310492838,356954,66985,42971136,30862088,1.0917444758393386,0.1453684623645617,0.4186391893905611,512,0,1,1,744.5603684112746,0.7004921423024447,0.0847247813923975,311.7021490840335
512,2048,51.24880037353268,329927,43030,44544000,30864872,1.1191056986146855,0.1509852981142778,0.4860076634699063,512,0,1,1,641.3523335385311,0.7001453958696304,0.1114585385383608,311.7021490840335
512,256,103.1886466686164,309598,58032,33267712,29391384,1.0192868516919749,0.1078628766471665,0.24409963913816407,512,0,1,1,1276.9463739665973,0.9068577148767528,0.0165243040363109,311.7021490840335
512,512,84.69008268792496,381340,55508,32481280,30001312,1.0164360505035144,0.1063654093623917,0.25091057142895684,512,0,1,1,1242.2838436374502,0.9108407458485382,0.0143412680603778,311.7021490840335
