cpu,memory,duration_std,userDiff,sysDiff,heapTotal,heapUsed,avg_cpu_util,cpu_util_std,slo_preservation,total_cpu_shares,cpu_shares_others,num_containers,arrival_rate,latency,memory_util,memory_util_std,slo_duration
1024,1024,739.8650149360263,2015525,157147,58912768,49625800,0.8348979402626576,0.0943408409044599,0.5864530152262063,1024,0,1,1,1093.1759500773796,0.8114790641905906,0.0657717662559374,641.0963320956521
1024,128,689.2731147358653,2203023,166257,37535744,34758760,1.104511620455629,0.2103709721099084,0.6096340579201998,1024,0,1,1,1051.608458823294,0.891992979599435,0.0892776070140731,641.0963320956521
1024,1536,356.86141261348075,1831223,172901,69005312,55196608,1.3576406008597508,0.1695671256152539,1.0,1024,0,1,1,441.72645148494405,0.7588290175629775,0.1267452520000976,641.0963320956521
1024,2048,217.00021524985615,1723504,119848,67686400,34899864,1.692974439826695,0.2985213403757135,1.0,1024,0,1,1,271.8812001554227,0.7064829379439856,0.1217513368617757,641.0963320956521
1024,256,570.6956032804416,2031154,167918,52224000,49402424,1.1058207276556793,0.1481812848214994,0.7651529332100124,1024,0,1,1,837.866920807699,0.8823712649973814,0.0965279577918578,641.0963320956521
1024,512,793.4130640251004,1963470,216105,37797888,35321024,0.955536611845622,0.1114621784455874,0.5425061582348639,1024,0,1,1,1181.7309764400982,0.8930764056067522,0.0847936238057728,641.0963320956521
128,1024,867.8608187448106,2294312,178286,59174912,52305992,0.9254812097521076,0.1521746343938258,0.5670650687115336,128,0,1,1,1130.5516200324769,0.8310976644688794,0.1124657704814115,641.0963320956521
128,128,1220.2865301286597,2177278,332646,43565056,33445696,1.1109768192874152,0.4662985290185455,0.41317025273031144,128,0,1,1,1551.6517170806942,0.8561827832806699,0.0915651428780938,641.0963320956521
128,1536,373.4048504788673,1796804,137157,69005312,56945640,1.2980814533639777,0.2216766954427627,1.0,128,0,1,1,483.3781716031797,0.7630885851895142,0.1012393086430679,641.0963320956521
128,2048,238.3465732241756,1845225,151634,67686400,39752448,1.7050571406205408,0.3378769788305749,1.0,128,0,1,1,290.35947565090066,0.7562742175396235,0.1092055466059623,641.0963320956521
128,256,373.8527729977589,1928814,170965,37535744,32899672,1.3236421691911482,0.1452054292510278,1.0,128,0,1,1,588.1073950289019,0.9054985879424472,0.0609010808249134,641.0963320956521
128,512,553.821523420022,2033237,170445,37011456,34787760,1.028695349068085,0.1077423489894115,0.7208660233210066,128,0,1,1,889.3418629194672,0.9051679847556824,0.0659852371372272,641.0963320956521
1536,1024,501.3521275289725,1788399,238364,73863168,65451840,1.0927817332467062,0.1891345858260721,0.8421741594955172,1536,0,1,1,761.2396140006057,0.7382160164641728,0.1197948595765276,641.0963320956521
1536,128,833.8370123214422,2250396,226901,43040768,33954152,0.9082169186253338,0.0967633927502351,0.5151107975272456,1536,0,1,1,1244.57948692435,0.9116418779776028,0.070644739785081,641.0963320956521
1536,1536,391.1271864475788,1995804,131079,57724928,36728640,1.3431928284710428,0.2147781151959446,1.0,1536,0,1,1,494.58952096652814,0.7577921375768301,0.1010753794782275,641.0963320956521
1536,2048,213.87791560225068,1830778,97138,68210688,41933472,1.6893985553394502,0.3254237731911776,1.0,1536,0,1,1,267.511689146851,0.7938446545770128,0.091989532839149,641.0963320956521
1536,256,351.49619290766066,1805816,243881,51961856,49252880,1.3414461445584507,0.1748449606874757,1.0,1536,0,1,1,563.9900947868232,0.8765126585281907,0.0847765625490659,641.0963320956521
1536,512,565.7289741001579,2093508,154330,59826176,49102976,1.0793653796942668,0.1444874807974162,0.7549858444952723,1536,0,1,1,849.1501354230578,0.8865557744493515,0.0727147004643373,641.0963320956521
2048,1024,567.2193074595588,2246798,142716,59174912,50791464,1.0610661057736397,0.1358339358054773,0.8141684410588934,2048,0,1,1,787.4246897384689,0.7886994970747068,0.1114374705498553,641.0963320956521
2048,128,764.6519481092123,2306572,162302,37535744,35016528,1.1053974378302758,0.2180221171226052,0.528486931562748,2048,0,1,1,1213.0788744386082,0.918838077038116,0.0499320066638381,641.0963320956521
2048,1536,375.86555117371296,1949239,223355,53268480,37144144,1.3369820621564805,0.24458324535463,1.0,2048,0,1,1,486.266837662783,0.7330830654835224,0.108311099569264,641.0963320956521
2048,2048,217.09845316605845,1678750,144783,66113536,37343968,1.6940993615313975,0.3414943524453095,1.0,2048,0,1,1,250.42184958162323,0.7399470797800604,0.1178996788475245,641.0963320956521
2048,256,346.7393745011309,1968607,126937,37535744,33126728,1.3970664350401298,0.1931188552091312,1.0,2048,0,1,1,548.9094895555,0.8598123449587142,0.0935925033622171,641.0963320956521
2048,512,576.3125908540462,2165983,216870,41730048,33220648,1.0736458645247984,0.1590107401474758,0.7573532667962672,2048,0,1,1,846.4957638693477,0.8669767533356552,0.0759364161202553,641.0963320956521
256,1024,600.4464923986966,2070850,128037,43438080,35179208,1.0781195798478929,0.1592370837405633,0.804880734057162,256,0,1,1,796.5109673629261,0.7925859387294278,0.0998710919173139,641.0963320956521
256,128,944.971817952072,2320741,206286,37273600,34652824,0.9346282927399742,0.1941654108800978,0.4538431658599271,256,0,1,1,1412.5944386116817,0.904271379243676,0.0583616655391855,641.0963320956521
256,1536,400.53260787343294,1809083,181808,53268480,39158960,1.3864987753432556,0.2757862940172045,1.0,256,0,1,1,493.48254066398147,0.743471918888297,0.1131429763434331,641.0963320956521
256,2048,200.20213804007992,1672576,130457,82907136,71278824,1.6926922893462486,0.3780282905864755,1.0,256,0,1,1,281.60593737007457,0.790573778167645,0.079986581863319,641.0963320956521
256,256,558.7455504197493,2212100,194320,52748288,50107616,1.0855135336891037,0.1362271186310086,0.7475570162852244,256,0,1,1,857.5885425855556,0.8968075418082957,0.0957076808283769,641.0963320956521
256,512,761.0124309193186,2425088,222000,38322176,33813136,1.0905294981975222,0.1889740114384162,0.6041352708116549,256,0,1,1,1061.1801082799554,0.9133752314308904,0.0520567155754205,641.0963320956521
512,1024,814.015097587598,2028246,175979,50253824,38493096,0.8819606195474139,0.0813773500294543,0.5807530592976182,512,0,1,1,1103.9052172553597,0.8000234033363769,0.1077153017839571,641.0963320956521
512,128,773.1474836574333,2254446,216114,37535744,35294384,0.9465101679778883,0.1264771742602728,0.538244485977946,512,0,1,1,1191.0875982887826,0.8963559823934669,0.0744926216362454,641.0963320956521
512,1536,383.16710610522864,1895175,138233,73723904,52946992,1.3620886309471405,0.2307072945764447,1.0,512,0,1,1,469.6769949368072,0.7326238942825514,0.1223046022598443,641.0963320956521
512,2048,241.2268476169037,1854313,163231,84217856,69367848,1.6508248743150156,0.2718376696720697,1.0,512,0,1,1,282.2196089440487,0.7274547657840686,0.1379100759155037,641.0963320956521
512,256,519.4063616886609,2056496,217884,42254336,33001512,1.1070089696736019,0.0983322027828789,0.800426141251488,512,0,1,1,800.9437711433069,0.9045726351816438,0.0569571112342092,641.0963320956521
512,512,779.6405333169722,2043167,167033,51961856,50165008,0.896186243406771,0.0763144824286187,0.5368002443941025,512,0,1,1,1194.2921762624583,0.8963224934793024,0.0731154646734215,641.0963320956521
