cpu,memory,duration_std,userDiff,sysDiff,heapTotal,heapUsed,avg_cpu_util,cpu_util_std,slo_preservation,total_cpu_shares,cpu_shares_others,num_containers,arrival_rate,latency,memory_util,memory_util_std,slo_duration
1024,1024,45.61852877813519,122873,491,26054656,15263504,0.9489252287550973,0.0790523660469613,0.453133962001679,1024,0,1,1,135.49257987738105,0.6658314226220241,0.0673249375352145,61.39628954166664
1024,128,36.80835558228753,45966,0,25493504,21368880,0.912410566653601,0.1183813966079557,0.4194226689817401,1024,0,1,1,146.38285930210316,0.8582698944821356,0.0176215192136326,61.39628954166664
1024,1536,25.555945664032727,102627,3862,38871040,24954208,0.9737131585356981,0.0742889349201092,0.5667479464000079,1024,0,1,1,108.33085489176777,0.6114938244080153,0.1051677863703507,61.39628954166664
1024,2048,21.42635293104957,37640,2,34312192,16494272,1.0044940434201548,0.0326289420757522,0.6900066476930069,1024,0,1,1,88.97927251417245,0.5423453288266514,0.0508066421088513,61.39628954166664
1024,256,27.896618214192745,42940,7776,25231360,21046864,0.9837310967284177,0.097900145756603,0.5663115388692546,1024,0,1,1,108.41433615189204,0.8618261962611106,0.0125692367144464,61.39628954166664
1024,512,42.62720572024041,43346,25,25231360,21127752,0.9418482226451229,0.2039742434078268,0.5188936054929807,1024,0,1,1,118.32153815681812,0.8674261712338047,0.0159357635885378,61.39628954166664
128,1024,45.7631192149475,29082,3403,25530368,15131784,0.9322781696161367,0.151511939607288,0.4588199427693738,128,0,1,1,133.81347194955632,0.6749971041718444,0.0590483070644769,61.39628954166664
128,128,47.71227556586684,98267,4522,24707072,21497272,0.8381057996418186,0.1643899782224447,0.3869502647119519,128,0,1,1,158.6671341015115,0.8637228994587078,0.0164774068372141,61.39628954166664
128,1536,16.109505363959656,62820,37,34312192,15260432,0.9697759128420713,0.1134901017206696,0.626347834871957,128,0,1,1,98.02267386174928,0.5263069233524751,0.0435134303279859,61.39628954166664
128,2048,24.09842387944887,66596,5068,34574336,15276664,1.001971778593538,0.0736459787489405,0.9756167336630481,128,0,1,1,62.9307466992169,0.5498507794914701,0.0563339468326336,61.39628954166664
128,256,44.36092043465164,108700,723,24969216,21174216,0.8895102530201499,0.1594679039381681,0.5734903184234484,128,0,1,1,107.05723805494729,0.8642647227451326,0.0110889475773631,61.39628954166664
128,512,42.92620748667616,63998,21,24707072,21150744,0.9467667412884301,0.1100761272814922,0.5416004108724137,128,0,1,1,113.36086219500658,0.8597688972491682,0.0123782041250148,61.39628954166664
1536,1024,28.852648511398417,58533,4,26316800,16257544,0.945576944352906,0.1084544256509553,0.5380334316997214,1536,0,1,1,114.1124062638772,0.6735405485210062,0.0739506642132795,61.39628954166664
1536,128,42.682448214101065,64889,2741,24444928,20804248,0.8842021160765807,0.1654378322280557,0.3726433631670005,1536,0,1,1,164.75884346865942,0.8665158336641721,0.0153687629116892,61.39628954166664
1536,1536,26.651580572341054,80655,4043,39133184,24699104,0.9510744659273171,0.0853768613805679,0.5689243199937679,1536,0,1,1,107.91644404011272,0.5259542233694682,0.0527667588349307,61.39628954166664
1536,2048,20.847692620882963,13798,310,39133184,24699496,1.0003676592187938,0.0406122401071007,0.7934835560855814,1536,0,1,1,77.37562936344547,0.5334027186853456,0.0626205285085027,61.39628954166664
1536,256,35.16495767463442,108469,240,24969216,21124016,0.9640080626903316,0.0641558579456445,0.4561360562086142,1536,0,1,1,134.60082513974075,0.8706329203575953,0.0172982201895109,61.39628954166664
1536,512,27.15011379753895,83397,8561,25231360,21132440,0.9434295754733092,0.0993881902059687,0.5455415608741666,1536,0,1,1,112.54191054350885,0.8657081747725816,0.016751065711372,61.39628954166664
2048,1024,39.77408566169409,85052,3366,26054656,15179736,0.9341933821722436,0.1373282308586214,0.4481773821073989,2048,0,1,1,136.9910486177858,0.6521562393490732,0.040527965805983,61.39628954166664
2048,128,43.35869501142895,99470,4,24707072,21162296,0.8819060107060306,0.1072059019712224,0.3681021761105475,2048,0,1,1,166.79143326560575,0.8621420925196608,0.0156086112874739,61.39628954166664
2048,1536,32.56419323434076,47173,420,34312192,15095032,0.9765463072691781,0.1502587017965309,0.6230405397259207,2048,0,1,1,98.54300904508597,0.5307488603467828,0.0471820511953261,61.39628954166664
2048,2048,20.23923361382923,45529,320,38871040,24740000,1.017049796200561,0.0667145952278579,0.8714448470118431,2048,0,1,1,70.4534426386163,0.5466327748580412,0.0621352842796908,61.39628954166664
2048,256,34.00969874497248,47056,3927,24969216,21095816,0.9108702973096775,0.1490952841245157,0.47459051888986875,2048,0,1,1,129.36686911757286,0.8636660152198873,0.0120737227125414,61.39628954166664
2048,512,59.29385219997506,81996,31,25231360,21066416,0.9002193676796674,0.1969478653195309,0.4261153292556462,2048,0,1,1,144.0837381957507,0.8595352393817939,0.0134400097923565,61.39628954166664
256,1024,43.93457460232046,44022,8644,26054656,15144952,0.9428723929361881,0.0970723383136827,0.4787059528178469,256,0,1,1,128.25470245411515,0.6610300264985753,0.0643081258341363,61.39628954166664
256,128,41.791147779713285,26587,2797,24969216,21145680,0.8295911225167443,0.1564848249138031,0.3836190179775018,256,0,1,1,160.0449577952555,0.8666847483712976,0.0169938648482917,61.39628954166664
256,1536,25.4468567855106,17700,4,34574336,16490040,1.0089212947233877,0.062210157239202,0.6698692381638116,256,0,1,1,91.6541409036201,0.5190658871099832,0.0516122499097644,61.39628954166664
256,2048,22.50418524444393,60113,9526,34574336,15373480,0.9868724105220947,0.0438094909205926,0.6386376232204944,256,0,1,1,96.13634917413738,0.5544284159001786,0.0692069567505934,61.39628954166664
256,256,28.70713483563423,116199,0,24707072,21307744,0.980118429529361,0.0722153885010501,0.5599580025563772,256,0,1,1,109.6444541579441,0.8571425924487533,0.0180131643537397,61.39628954166664
256,512,31.930071070296467,37118,338,25755648,23208720,0.9435191231692162,0.0832241894024861,0.5213762499839473,256,0,1,1,117.7581248542813,0.8619833547173638,0.0159030937715377,61.39628954166664
512,1024,37.68035100642473,20370,7999,25530368,16345592,0.9009583835305722,0.1856305447836607,0.626737869157926,512,0,1,1,97.96167195730109,0.6738887419109397,0.0705070285972322,61.39628954166664
512,128,35.35117657633809,23142,7877,25231360,21045416,0.9507923940304714,0.1176784085912624,0.5111688095265774,512,0,1,1,120.10961623133704,0.8644400187537051,0.0175448438018665,61.39628954166664
512,1536,22.38493410110637,31857,22,38871040,24681856,0.9707832603605545,0.0757845203101744,0.7142995497707381,512,0,1,1,85.95314047359042,0.5230697162118888,0.0533833208698623,61.39628954166664
512,2048,15.529203488756863,32798,19,34836480,15282168,1.006962486858222,0.1448356138991682,1.0,512,0,1,1,54.42088308328017,0.5410767218731628,0.0552895245400928,61.39628954166664
512,256,43.58037447903495,36714,4102,24969216,21143256,0.936468194447704,0.1104109154697846,0.4354070516530976,512,0,1,1,141.00894624596705,0.8637107814421094,0.0122249263354695,61.39628954166664
512,512,37.23843198249304,42968,5,24969216,21530080,0.9661981901871086,0.1177626256902442,0.6053657724445581,512,0,1,1,101.4201534615001,0.8626800148139646,0.0105536622114909,61.39628954166664
