cpu,memory,duration_std,userDiff,sysDiff,heapTotal,heapUsed,avg_cpu_util,cpu_util_std,slo_preservation,total_cpu_shares,cpu_shares_others,num_containers,arrival_rate,latency,memory_util,memory_util_std,slo_duration
1024,1024,175.8348768199659,383783,34685,48082944,30357104,0.8400656484286482,0.2517910199006561,0.5961786078413578,1024,0,1,1,818.6659207166232,0.75130804833182,0.1186858891015026,488.0711088999998
1024,128,202.36935128861492,389146,55536,33005568,29598448,0.8176775927100004,0.213485707955478,0.48373253462806176,1024,0,1,1,1008.9689528021387,0.8611563417976767,0.0730709765335769,488.0711088999998
1024,1536,117.39753822685668,379611,48736,58970112,46093256,0.794014888995738,0.2731668473249348,0.6774060039028756,1024,0,1,1,720.500122656099,0.7175210353673884,0.1528576914506633,488.0711088999998
1024,2048,113.03921748646214,364888,44737,59232256,45431720,0.7456378003368209,0.2465835815473365,0.7851007002341119,1024,0,1,1,621.6668877692507,0.7547414136580615,0.1112049595717911,488.0711088999998
1024,256,151.97833842490084,376375,66591,33267712,29678152,0.8873309508731962,0.2281820816613209,0.5761561025720786,1024,0,1,1,847.1160970458363,0.8828174241567153,0.0755025974819355,488.0711088999998
1024,512,135.68466005567777,345957,51883,35627008,30034664,0.8560841442504231,0.1940307344313827,0.5748173558324179,1024,0,1,1,849.0890261885062,0.8757989295128923,0.0508341356898508,488.0711088999998
128,1024,148.55026559924465,363637,48563,50712576,44613328,0.8094918758917014,0.2190540091051088,0.6289725385959898,128,0,1,1,775.9815873511519,0.7366839126429207,0.1466587125644744,488.0711088999998
128,128,166.07393727560742,356021,38161,33005568,29563472,0.7841539204000574,0.2423810413325246,0.4903913427314311,128,0,1,1,995.2686076827788,0.8999347021524381,0.0501820691274005,488.0711088999998
128,1536,142.01795990931643,358145,52729,59232256,44630680,0.7837548398140863,0.2437378927397748,0.6884295878636113,128,0,1,1,708.9630043569457,0.7356217600394009,0.0854535064890147,488.0711088999998
128,2048,165.86590360863556,364733,45415,44806144,31133488,0.7737059093533446,0.2553417189684882,0.7574384122243065,128,0,1,1,644.370685488107,0.7158863513116065,0.1279494480341037,488.0711088999998
128,256,162.48159188759067,424719,66805,42180608,29627456,0.8453623641455003,0.2410354649389951,0.552800116500284,128,0,1,1,882.9070297414617,0.836477889965972,0.1040297494887108,488.0711088999998
128,512,153.95130268519,398921,54859,36675584,29597368,0.8527356811754786,0.2289364739458874,0.5533377879372683,128,0,1,1,882.0491199768418,0.8968478292600025,0.0698425686774265,488.0711088999998
1536,1024,180.91754546323696,454558,30516,54382592,44130360,0.8260183217653585,0.2550605486111645,0.5562108542295792,1536,0,1,1,877.4929600682436,0.7768015226262578,0.100512274302518,488.0711088999998
1536,128,204.9797857918365,343069,64217,32743424,29621512,0.7717395760651753,0.1799014967835391,0.4604628085918889,1536,0,1,1,1059.957720347791,0.8615819917537229,0.0785123442491045,488.0711088999998
1536,1536,172.24447370787345,328773,59497,59232256,46054496,0.8068334554417088,0.2578889173214996,0.6720461979967345,1536,0,1,1,726.2463657332845,0.7384129438189968,0.1046675352040395,488.0711088999998
1536,2048,135.1478979006145,298766,79659,58970112,44915504,0.6811594668211971,0.2275807113539888,0.6765260867703906,1536,0,1,1,721.4372341944126,0.7084213951390738,0.1485362390185027,488.0711088999998
1536,256,146.808242379565,314410,63676,35364864,29626824,0.8679721070480473,0.285933920519313,0.5842874875108072,1536,0,1,1,835.3269911346035,0.8727112370869294,0.078817000209055,488.0711088999998
1536,512,145.7683678840542,314573,54464,33005568,29822512,0.9276678713930449,0.251264641978448,0.6213966274299952,1536,0,1,1,785.442159412081,0.8864443323889042,0.0600526699551323,488.0711088999998
2048,1024,174.75019873621116,384890,53298,53858304,44853384,0.7810450137423744,0.2281600023249732,0.5714944617585213,2048,0,1,1,854.025964482975,0.7798819705113014,0.1334945215253697,488.0711088999998
2048,128,191.35546471726013,466929,54437,47169536,43912480,0.8055571569756037,0.185940977900388,0.5086070645766244,2048,0,1,1,959.6231411104775,0.883686400553627,0.0662422269365699,488.0711088999998
2048,1536,124.42438395769622,281681,30278,44806144,31046752,0.6791202073109461,0.1725097731403633,0.6665570959879717,2048,0,1,1,732.2270092655457,0.7353242187095369,0.1358190139003337,488.0711088999998
2048,2048,152.71541742965834,271257,60750,38506496,15531168,0.770074850562649,0.3330321505355261,0.7422922582651633,2048,0,1,1,657.5187919118105,0.7072245243231519,0.1407541596162965,488.0711088999998
2048,256,173.7458255649059,402609,43400,38248448,29728200,0.8397481213000507,0.2953889164244739,0.5569463259442741,2048,0,1,1,876.334192657614,0.8825651800677514,0.0895510161745267,488.0711088999998
2048,512,148.363392303755,384465,68115,38510592,30142992,0.8057988434345301,0.182328304800419,0.5074563678879213,2048,0,1,1,961.7991610419539,0.8669841217293704,0.0757967402720442,488.0711088999998
256,1024,158.55380850221945,388769,40022,53858304,44346152,0.8508152559995228,0.2935010184323966,0.6402228035393369,256,0,1,1,762.3457118393807,0.768448048359812,0.1137587191094435,488.0711088999998
256,128,219.21508140359103,411293,74074,37724160,30244232,0.8114488635321575,0.2412044475147505,0.4643128275821487,256,0,1,1,1051.1686946957063,0.8603745457677666,0.065218841454169,488.0711088999998
256,1536,105.94943006889268,325974,53986,59232256,44668520,0.6928126257751847,0.1956585980395342,0.6274286583996682,256,0,1,1,777.8910038073229,0.7394359037943701,0.0853054601035394,488.0711088999998
256,2048,142.2973802090889,336321,60218,59232256,45460944,0.7565534098038361,0.2500230793301207,0.7113024106805782,256,0,1,1,686.1654080899439,0.7596429087348763,0.0860018820216673,488.0711088999998
256,256,182.29240499103275,378314,67434,35102720,29902256,0.7941124768177421,0.2319497018776445,0.4956820677206923,256,0,1,1,984.6454828279543,0.8336380090050811,0.102571939830397,488.0711088999998
256,512,158.62099724998723,394309,41881,32743424,29868160,0.8770898985033619,0.205011124797892,0.5410370967150161,256,0,1,1,902.1028536922756,0.8775603305579158,0.077382257080321,488.0711088999998
512,1024,167.1644417255878,403545,52072,42577920,31161432,0.8233359576537631,0.2787791277030256,0.5781043978191657,512,0,1,1,844.2611935511883,0.7376486758996175,0.1458983092371551,488.0711088999998
512,128,233.19333266033053,439126,77873,33792000,29870440,0.8215535027723496,0.2131823380715065,0.4590358727847731,512,0,1,1,1063.2526515609388,0.9032866238839344,0.0583039614347485,488.0711088999998
512,1536,158.45903553913888,335349,41949,59232256,45434144,0.8391164379141698,0.2882323978014667,0.7396963202134188,512,0,1,1,659.8263308369311,0.7498727901077038,0.1237794808234371,488.0711088999998
512,2048,141.81505851660856,302760,43584,58970112,44547600,0.8017010224845524,0.3135181660454394,0.7329837112624571,512,0,1,1,665.8689700748859,0.7252423720089288,0.0912219322018081,488.0711088999998
512,256,150.7504583860251,335308,50833,40607744,29620792,0.8598734281922895,0.2464866646249429,0.6003073376088969,512,0,1,1,813.0353875800539,0.8737494621270245,0.0814703399219745,488.0711088999998
512,512,213.5869936731253,413048,75463,43491328,29696824,0.860747283325768,0.2759247139021928,0.49663827109134767,512,0,1,1,982.7496939119859,0.8458333303967096,0.0973335338680834,488.0711088999998
