cpu,memory,duration_std,userDiff,sysDiff,heapTotal,heapUsed,avg_cpu_util,cpu_util_std,slo_preservation,total_cpu_shares,cpu_shares_others,num_containers,arrival_rate,latency,memory_util,memory_util_std,slo_duration
1024,1024,88.82153189532295,451831,84746,52809728,44600824,1.0615114163072643,0.1494896654839802,0.629286613046337,1024,0,1,1,517.2599998447739,0.7698231914175453,0.0920770024577781,325.5047933666666
1024,128,129.73663336738124,578137,58435,44015616,29871920,0.8254576459072127,0.0936252723372432,0.3879633661359186,1024,0,1,1,839.0090966800965,0.853080899763753,0.0844574439103039,325.5047933666666
1024,1536,72.37313123218652,444638,65979,64212992,44306704,1.2340390580848069,0.1661783242430029,0.9087216120088734,1024,0,1,1,358.20078345785856,0.7634665105959204,0.096880150676654,325.5047933666666
1024,2048,48.09652693789162,324419,59869,59232256,44575080,1.419553579305551,0.2553921002892989,1.0,1024,0,1,1,285.94126493793334,0.6858436403140638,0.1435598400077975,325.5047933666666
1024,256,65.26086932374189,435634,60939,42967040,30164392,1.2252628746764254,0.1184282179994068,0.680233673449742,1024,0,1,1,478.5190825909856,0.8792696246163414,0.0774770720972521,325.5047933666666
1024,512,84.80677453892216,340614,71089,34054144,29643288,1.1507307929743886,0.2630859655117501,0.6221470977644501,1024,0,1,1,523.1958720635314,0.8784272517664627,0.061646049852692,325.5047933666666
128,1024,93.9573302981039,542809,30294,42577920,30878176,1.0810639429838167,0.1066752095710611,0.6325864237393565,128,0,1,1,514.5617755160421,0.7121771183109407,0.1112017861279723,325.5047933666666
128,128,334.91737994116653,419284,75695,47431680,44524368,1.0717554750986635,0.3496944908552109,0.44048603988536217,128,0,1,1,738.9673312947222,0.8818844140484984,0.0506572856490942,325.5047933666666
128,1536,57.787016812400566,453313,23332,60018688,44538472,1.2554862853168016,0.2256000519429449,0.938825281686175,128,0,1,1,346.7149849033086,0.716958642841075,0.1396772199103856,325.5047933666666
128,2048,45.08165431995053,377158,55675,62115840,44876520,1.392000346116221,0.1706242435448126,1.0,128,0,1,1,274.08743222394656,0.681324367888713,0.1652157343810393,325.5047933666666
128,256,92.11441345241391,462877,33915,47169536,44243320,1.0010275057021785,0.145498528495415,0.4837627759306618,128,0,1,1,672.860355450998,0.89604743329652,0.0623418850571136,325.5047933666666
128,512,84.30130668597205,459856,47927,35364864,29627952,1.0314282670384214,0.1396100230588714,0.534729693581736,128,0,1,1,608.7277315504298,0.8984635846108115,0.046601340705392,325.5047933666666
1536,1024,90.1601926723787,465265,63794,47296512,30604960,1.0319599964559611,0.1118825923209677,0.6111787773932046,1536,0,1,1,532.5852359517576,0.7653336682068292,0.1087379077755297,325.5047933666666
1536,128,116.5389956098036,549217,61326,46907392,44138184,0.9010484211157566,0.0968639127405016,0.41602760262910304,1536,0,1,1,782.411530652356,0.8922366675079626,0.0792921968504598,325.5047933666666
1536,1536,71.01100124317429,325392,45949,44806144,30382536,1.272893156550152,0.1845455717278004,0.8908975689793832,1536,0,1,1,365.36724838026726,0.7524309890755857,0.1330100974181453,325.5047933666666
1536,2048,42.207993817136256,322780,52340,44806144,30538016,1.4051398806421023,0.2508527916641934,1.0,1536,0,1,1,281.93294069641024,0.7169448421263129,0.151479021162758,325.5047933666666
1536,256,56.28996959974699,419995,55035,34578432,30008992,1.2022983303553652,0.1377251570879689,0.6522048658640245,1536,0,1,1,499.0836628234076,0.8922202481935677,0.077566076666831,325.5047933666666
1536,512,91.68685350715153,409726,47260,42180608,29771184,1.0647621041952071,0.2090617418193757,0.5289886983670568,1536,0,1,1,615.3341165349511,0.8626194356912709,0.1225469593288278,325.5047933666666
2048,1024,114.0979825630894,385295,43251,50974720,44579888,1.121186403141418,0.1852750668992138,0.6443488114322707,2048,0,1,1,505.1686099073084,0.7659372959824494,0.0922228599310441,325.5047933666666
2048,128,110.43590353313957,522044,43957,33267712,29629352,0.8974783901765692,0.0705148609969633,0.41967600504487207,2048,0,1,1,775.6097309682106,0.8860938440694259,0.0617869070035033,325.5047933666666
2048,1536,71.72902772175412,455329,56572,60018688,46123736,1.2677086109488942,0.1972058799095901,0.8664656683088677,2048,0,1,1,375.6695796175901,0.7426942112207827,0.1186800350884035,325.5047933666666
2048,2048,44.751757479625375,427812,38925,58970112,46226576,1.4429409730788434,0.2623171044540629,1.0,2048,0,1,1,271.23671790728156,0.6975103285537065,0.1506640090653565,325.5047933666666
2048,256,77.07270609463245,453915,23645,39297024,29645408,1.0699685403753267,0.1129667219052863,0.5492419502147722,2048,0,1,1,592.64372147718,0.8806464025956149,0.0666940586944019,325.5047933666666
2048,512,57.12799482406151,456808,40390,32481280,29597392,1.006515322521117,0.1170337381542025,0.5084292595527014,2048,0,1,1,640.2164848912012,0.8725769724068565,0.0852851654534674,325.5047933666666
256,1024,74.08424637735196,308302,67879,51499008,44687432,1.0845691204406036,0.1081962595065807,0.674374670143848,256,0,1,1,482.67648204704153,0.7811215913447802,0.1167882327757632,325.5047933666666
256,128,113.00876589661888,474127,56423,35889152,30057472,0.9100114675849679,0.1446249603933348,0.4402828591466437,256,0,1,1,739.3083482685654,0.8689112057786866,0.0868910089471268,325.5047933666666
256,1536,72.50951190610483,412352,64885,58183680,45028392,1.2489846662954873,0.1798555478049691,0.8943661454683318,256,0,1,1,363.9502624467266,0.7073889176524881,0.1544065469387019,325.5047933666666
256,2048,44.00796088045308,315962,62330,58970112,45453208,1.443729199806096,0.2448451444629134,1.0,256,0,1,1,267.69701831332486,0.7126145810086532,0.1501768179432304,325.5047933666666
256,256,86.25049958452844,442248,64512,34316288,29622856,1.035737360771696,0.1398071826659797,0.5324658252144744,256,0,1,1,611.3158402899472,0.8989663772179366,0.0763064946282474,325.5047933666666
256,512,58.12824648726007,371443,79554,37462016,29890464,1.0955296815373272,0.1022505961844918,0.5267299648368885,256,0,1,1,617.972804086559,0.877492404825853,0.0763674746661706,325.5047933666666
512,1024,100.12864179446282,395774,48624,48082944,30363320,1.0400222025351595,0.140994529714441,0.599391198054843,512,0,1,1,543.0590145851352,0.754103622223918,0.0859385124073335,325.5047933666666
512,128,121.94935654443678,481747,35351,33005568,29740336,0.9065495355285198,0.1789512624358497,0.42184626474495635,512,0,1,1,771.6194750793,0.8946304276473939,0.0591922348707095,325.5047933666666
512,1536,59.05895119882511,421938,56036,58970112,44637952,1.210344856377675,0.1517267759687712,0.8463627231200529,512,0,1,1,384.5925446323032,0.6928492897776501,0.144606745683465,325.5047933666666
512,2048,39.71641702980769,295495,43569,44806144,31081696,1.4144156927611193,0.315480193840673,1.0,512,0,1,1,268.1866000178163,0.7099889730199473,0.1593693647041196,325.5047933666666
512,256,42.94693310519564,431010,41065,34316288,29634536,1.2661654459262546,0.1029084046282436,0.7053078098591303,512,0,1,1,461.5074281279815,0.8345495402893335,0.0997926445258024,325.5047933666666
512,512,88.51293279133043,458852,49824,40083456,30062040,1.0074979615452575,0.0936008642712599,0.5268538331938035,512,0,1,1,617.8275127912555,0.8783746614838721,0.0845515193378394,325.5047933666666
