cpu,memory,duration_std,userDiff,sysDiff,heapTotal,heapUsed,avg_cpu_util,cpu_util_std,slo_preservation,total_cpu_shares,cpu_shares_others,num_containers,arrival_rate,latency,memory_util,memory_util_std,slo_duration
1024,1024,88.82153189532295,451831,84746,52809728,44600824,1.095194911372789,0.14948966548398027,0.9738823612480199,1024,0,1,1,334.23420150000015,0.7698231914175453,0.09207700245777818,325.5047933666666
1024,128,129.73663336738124,578137,58435,44015616,29871920,0.7592012584657991,0.09362527233724321,0.535234504040427,1024,0,1,1,608.1536054000001,0.853080899763753,0.0844574439103039,325.5047933666666
1024,1536,72.37313123218652,444638,65979,64212992,44306704,1.3975836370950374,0.16617832424300297,1.0,1024,0,1,1,210.85619765,0.7634665105959204,0.09688015067665406,325.5047933666666
1024,2048,48.09652693789162,324419,59869,59232256,44575080,1.7963957027809876,0.25539210028929893,1.0,1024,0,1,1,150.6382829,0.6858436403140638,0.1435598400077975,325.5047933666666
1024,256,65.26086932374189,435634,60939,42967040,30164392,1.3807823786331541,0.1184282179994068,1.0,1024,0,1,1,283.08186034999994,0.8792696246163414,0.07747707209725219,325.5047933666666
1024,512,84.80677453892216,340614,71089,34054144,29643288,1.2445249059494576,0.2630859655117501,1.0,1024,0,1,1,322.51000515,0.8784272517664627,0.06164604985269201,325.5047933666666
128,1024,93.9573302981039,542809,30294,42577920,30878176,1.1267326381524128,0.10667520957106111,0.988964308778979,128,0,1,1,329.1370482000001,0.7121771183109407,0.1112017861279723,325.5047933666666
128,128,334.91737994116653,419284,75695,47431680,44524368,1.111638551291624,0.3496944908552109,0.6853166715065364,128,0,1,1,474.96990354999997,0.8818844140484984,0.050657285649094226,325.5047933666666
128,1536,57.787016812400566,453313,23332,60018688,44538472,1.4393538723710138,0.22560005194294494,1.0,128,0,1,1,201.61634875,0.716958642841075,0.13967721991038565,325.5047933666666
128,2048,45.08165431995053,377158,55675,62115840,44876520,1.7313440867404934,0.1706242435448126,1.0,128,0,1,1,146.91083204999998,0.681324367888713,0.16521573438103937,325.5047933666666
128,256,92.11441345241391,462877,33915,47169536,44243320,1.0015420507862556,0.14549852849541509,0.7260171572804853,128,0,1,1,448.34311435000006,0.89604743329652,0.062341885057113654,325.5047933666666
128,512,84.30130668597205,459856,47927,35364864,29627952,1.0478950294452412,0.13961002305887144,0.8148999875822752,128,0,1,1,399.4414018,0.8984635846108115,0.046601340705392034,325.5047933666666
1536,1024,90.1601926723787,465265,63794,47296512,30604960,1.0487185164911401,0.11188259232096774,0.9316560277625395,1536,0,1,1,349.38301655,0.7653336682068292,0.10873790777552975,325.5047933666666
1536,128,116.53899560980359,549217,61326,46907392,44138184,0.8585699929245001,0.09686391274050164,0.594622010551936,1536,0,1,1,547.4146392,0.8922366675079626,0.07929219685045985,325.5047933666666
1536,1536,71.01100124317429,325392,45949,44806144,30382536,1.4740178482618753,0.18454557172780042,1.0,1536,0,1,1,210.34275835,0.7524309890755857,0.13301009741814535,325.5047933666666
1536,2048,42.207993817136256,322780,52340,44806144,30538016,1.762085418761141,0.25085279166419344,1.0,1536,0,1,1,149.88120114999998,0.7169448421263129,0.151479021162758,325.5047933666666
1536,256,56.28996959974699,419995,55035,34578432,30008992,1.3375949420940711,0.1377251570879689,1.0,1536,0,1,1,299.06784465,0.8922202481935677,0.07756607666683103,325.5047933666666
1536,512,91.68685350715153,409726,47260,42180608,29771184,1.1003940202942466,0.2090617418193757,0.8200366986102299,1536,0,1,1,396.93930029999996,0.8626194356912709,0.12254695932882781,325.5047933666666
2048,1024,114.0979825630894,385295,43251,50974720,44579888,1.193504672327331,0.18527506689921389,1.0,2048,0,1,1,316.372551,0.7659372959824494,0.09222285993104415,325.5047933666666
2048,128,110.43590353313957,522044,43957,33267712,29629352,0.8537162100816069,0.07051486099696334,0.5988181092894208,2048,0,1,1,543.5787400500001,0.8860938440694259,0.06178690700350331,325.5047933666666
2048,1536,71.72902772175412,455329,56572,60018688,46123736,1.4636205189974476,0.19720587990959015,1.0,2048,0,1,1,216.92305929999998,0.7426942112207827,0.11868003508840358,325.5047933666666
2048,2048,44.751757479625375,427812,38925,58970112,46226576,1.853418461510783,0.2623171044540629,1.0,2048,0,1,1,140.77719335,0.6975103285537065,0.15066400906535657,325.5047933666666
2048,256,77.07270609463245,453915,23645,39297024,29645408,1.1087576164000974,0.11296672190528634,0.8537300479883081,2048,0,1,1,381.2736756,0.8806464025956149,0.06669405869440195,325.5047933666666
2048,512,57.12799482406151,456808,40390,32481280,29597392,1.0098049249057033,0.11703373815420257,0.7651364446839403,2048,0,1,1,425.42058430000014,0.8725769724068565,0.08528516545346747,325.5047933666666
256,1024,74.08424637735196,308302,67879,51499008,44687432,1.1324544592181636,0.10819625950658075,1.0,256,0,1,1,308.17781285,0.7811215913447802,0.11678823277576324,325.5047933666666
256,128,113.00876589661888,474127,56423,35889152,30057472,0.8708291490321507,0.1446249603933348,0.6319884329287008,256,0,1,1,515.0486566000001,0.8689112057786866,0.08689100894712684,325.5047933666666
256,1536,72.50951190610483,412352,64885,58183680,45028392,1.426583356815145,0.17985554780496918,1.0,256,0,1,1,212.42749675,0.7073889176524881,0.15440654693870196,325.5047933666666
256,2048,44.007960880453076,315962,62330,58970112,45453208,1.8553701574638741,0.24484514446291347,1.0,256,0,1,1,138.86968430000002,0.7126145810086532,0.1501768179432304,325.5047933666666
256,256,86.25049958452844,442248,64512,34316288,29622856,1.0545813376347721,0.13980718266597972,0.813230086314216,256,0,1,1,400.26162195,0.8989663772179366,0.07630649462824741,325.5047933666666
256,512,58.12824648726007,371443,79554,37462016,29890464,1.1504822846718459,0.10225059618449184,0.8297267115122208,256,0,1,1,392.303621,0.877492404825853,0.07636747466617064,325.5047933666666
512,1024,100.12864179446282,395774,48624,48082944,30363320,1.0612591672011695,0.14099452971444104,0.9174458998925398,512,0,1,1,354.7945371,0.754103622223918,0.08593851240733354,325.5047933666666
512,128,121.94935654443678,481747,35351,33005568,29740336,0.8660816684357424,0.17895126243584975,0.6045229231418051,512,0,1,1,538.4490495000001,0.8946304276473939,0.059192234870709536,325.5047933666666
512,1536,59.058951198825106,421938,56036,58970112,44637952,1.352601210005068,0.15172677596877127,1.0,512,0,1,1,229.4293419,0.6928492897776501,0.144606745683465,325.5047933666666
512,2048,39.71641702980769,295495,43569,44806144,31081696,1.784093959941074,0.315480193840673,1.0,512,0,1,1,141.7441548,0.7099889730199473,0.15936936470411964,325.5047933666666
512,256,42.94693310519564,431010,41065,34316288,29634536,1.4605377923185632,0.10290840462824366,1.0,512,0,1,1,266.72584195,0.8345495402893335,0.09979264452580247,325.5047933666666
512,512,88.51293279133043,458852,49824,40083456,30062040,1.011289265557398,0.09360086427125998,0.7932546462071343,512,0,1,1,410.34085955,0.8783746614838721,0.08455151933783943,325.5047933666666
