cpu,memory,duration_std,userDiff,sysDiff,heapTotal,heapUsed,avg_cpu_util,cpu_util_std,slo_preservation,total_cpu_shares,cpu_shares_others,num_containers,arrival_rate,latency,memory_util,memory_util_std,slo_duration
1024,1024,88.99659039823833,471084,51126,39170048,31518472,1.009499796490783,0.12372798596826,0.2862129082408419,1024,0,1,1,992.8844724543495,0.7734133669224015,0.1112281034725927,284.17635240833346
1024,128,406.15541527483686,451666,60307,47431680,44355072,0.9855918212578343,0.3385266860762873,0.18555164727781134,1024,0,1,1,1531.52158214397,0.90171337023483,0.0598533977888939,284.17635240833346
1024,1536,60.65290108935943,308106,47598,59232256,44540192,1.13506239799942,0.2115416529265056,0.4146105477107,1024,0,1,1,685.4055063901106,0.7397381237660448,0.132834530944774,284.17635240833346
1024,2048,32.012232491078144,289069,69432,59232256,44913032,1.2093722176181492,0.3345624137876177,0.5257674688640496,1024,0,1,1,540.4981655147143,0.6589454823999693,0.1485027518138775,284.17635240833346
1024,256,66.67479424539572,496042,58076,47693824,44802992,1.1069291752099029,0.1478284824716011,0.30802170438179816,1024,0,1,1,922.5854813662481,0.8416729383450203,0.117429633767428,284.17635240833346
1024,512,55.14507339237715,404723,40518,32743424,29632720,1.0145502028368207,0.1258909508844018,0.2581683285572137,1024,0,1,1,1100.7405671968627,0.8990807869385975,0.0597911448034653,284.17635240833346
128,1024,61.90871439737183,446152,48881,44675072,30178696,1.0210392975552207,0.1527904931555787,0.283457159245545,128,0,1,1,1002.5372199619254,0.755956172711245,0.1099974809810878,284.17635240833346
128,128,154.56132793852132,402030,51014,33792000,29635784,0.9983212523644358,0.1955451803592418,0.23108048590669963,128,0,1,1,1229.7721778336213,0.8751365957658329,0.0712913647347867,284.17635240833346
128,1536,55.53159023890822,387788,59263,58707968,45076616,1.117635184891087,0.2125552778645524,0.3767763338414927,128,0,1,1,754.2308974424188,0.6800585278031098,0.1593961125568229,284.17635240833346
128,2048,49.676722648720535,320640,59915,59494400,45408224,1.1683311064431647,0.4616749368375252,0.49352899204326484,128,0,1,1,575.8047794351692,0.757840799083308,0.1589438272173394,284.17635240833346
128,256,68.553734755809,471227,51687,38248448,29837720,1.0290674834955875,0.1678157680018115,0.2609584669751627,128,0,1,1,1088.9715735315865,0.8909679318418027,0.076949879435057,284.17635240833346
128,512,52.39004333891117,394740,71889,34316288,29671072,1.0375631669380927,0.111351135087096,0.26347947314821535,128,0,1,1,1078.5521506203843,0.892452032455893,0.0671417040142989,284.17635240833346
1536,1024,88.82049433309496,334241,54676,39956480,29897160,1.0343384579063302,0.1878804116443361,0.28230117647489966,1536,0,1,1,1006.6424658828885,0.7496571854056029,0.1207110531463599,284.17635240833346
1536,128,264.9672526667194,407528,75098,36675584,30167832,0.9534613269955353,0.24433228917716,0.19735796346937223,1536,0,1,1,1439.903145597844,0.8795940631692467,0.0637323938288927,284.17635240833346
1536,1536,52.54477106979807,326977,50340,59756544,44885288,1.13898146882992,0.1666852332848457,0.4158258515664684,1536,0,1,1,683.4023217599515,0.7138051038213191,0.1340141443993893,284.17635240833346
1536,2048,37.83326985356357,339893,53262,58970112,45482904,1.177795389801623,0.2769839333799536,0.5330426395757821,1536,0,1,1,533.1212389209483,0.6917185713894791,0.1558348242994877,284.17635240833346
1536,256,47.06067460063098,395813,46138,34316288,29735304,1.1203392468294933,0.1667188484039708,0.31733587323133394,1536,0,1,1,895.5065480453021,0.8397309639028098,0.0925385865183816,284.17635240833346
1536,512,69.68212360251644,414942,50099,32743424,29879216,1.0280262744776363,0.1385185734385198,0.24682963257892956,1536,0,1,1,1151.305657425315,0.9066938565084608,0.0545403483896306,284.17635240833346
2048,1024,68.51080569015369,383505,53596,44937216,30218872,1.0064539913506079,0.1478332137448847,0.28937499624920454,2048,0,1,1,982.0349238591641,0.7461932081257762,0.1263635677310391,284.17635240833346
2048,128,262.2277641445271,372722,71144,32743424,29876216,1.0267172127543687,0.395449182976908,0.20531913177930672,2048,0,1,1,1384.0714693542964,0.8561425830125445,0.0830903299528005,284.17635240833346
2048,1536,55.22338420366176,349230,36775,59232256,44622888,1.1371024992702632,0.2591193266801777,0.4075458046401921,2048,0,1,1,697.2869041290287,0.7140771362039108,0.12140890910061,284.17635240833346
2048,2048,52.25718239658238,352897,44671,59232256,45870784,1.1773369467386352,0.34917083800478,0.46089642821554944,2048,0,1,1,616.5731279554014,0.7202572442824479,0.154239750127534,284.17635240833346
2048,256,48.57494091817001,337333,62928,47431680,44098856,1.1252651562237768,0.1843347212256382,0.31038720594099944,2048,0,1,1,915.5543365481104,0.8945014084622027,0.057347930584308,284.17635240833346
2048,512,46.21331150390693,420465,34629,34840576,29832368,1.1414559602513707,0.1326284972687102,0.3129466091126881,2048,0,1,1,908.0665651373303,0.8731516367021193,0.1148285475845564,284.17635240833346
256,1024,73.60577624745866,437990,22527,43102208,30125928,1.0618509872187798,0.2028102311697059,0.2931491149109882,256,0,1,1,969.3918144512247,0.7125583183534635,0.1275275303579296,284.17635240833346
256,128,85.87469272438464,460117,65862,33529856,29919792,1.0439843352348932,0.2301496538374374,0.2530879546805823,256,0,1,1,1122.8363387225886,0.8806178843344105,0.0756894246602998,284.17635240833346
256,1536,65.86243659360596,328871,43894,57921536,44557160,1.110747786650483,0.1909771469637246,0.39390485123289787,256,0,1,1,721.4339999085541,0.7396230755689823,0.1127662013296185,284.17635240833346
256,2048,40.63659287667903,314414,46023,59494400,44883904,1.2263953423502747,0.2919880262023179,0.5436996057038789,256,0,1,1,522.6716176121481,0.6742718083678534,0.157238273382419,284.17635240833346
256,256,77.58070523696793,432020,66268,39034880,30376664,1.062705752783448,0.2504175530891253,0.25670527791175946,256,0,1,1,1107.0140618846838,0.8743424329467583,0.054160950663055,284.17635240833346
256,512,60.660581951155606,423875,45882,33005568,29623808,1.0449830837392549,0.1236042579574356,0.25711113219263854,256,0,1,1,1105.2666214211856,0.8539953925546744,0.0705067740819323,284.17635240833346
512,1024,74.97962763059358,438258,32057,38383616,30886032,1.0075046505344774,0.2205588895040219,0.286660497782379,512,0,1,1,991.3341901194514,0.7478110484984679,0.1074582542461714,284.17635240833346
512,128,83.13366380733022,425020,73765,41656320,29623600,0.9487227075698517,0.1327489296137174,0.21312927172271748,512,0,1,1,1333.352054888306,0.8822522891103899,0.0689699020953181,284.17635240833346
512,1536,62.4959803607936,440319,22665,58970112,46205208,1.1533020219513066,0.3235726238720564,0.393454182604266,512,0,1,1,722.2603417947558,0.7240782652888065,0.1802639221333947,284.17635240833346
512,2048,40.87807932489095,362808,53481,58183680,46208016,1.1778793909542025,0.3004853690332915,0.5285938568918248,512,0,1,1,537.6081252236144,0.6616352669360647,0.1624991463626648,284.17635240833346
512,256,55.11208337625904,456255,30316,43491328,29712904,1.1103974349754449,0.1227036489529189,0.2919304899059835,512,0,1,1,973.4384116570103,0.7960047016681187,0.1484920153441642,284.17635240833346
512,512,89.90089620592158,428818,71885,34054144,29683944,1.0149700966438158,0.1685485201138722,0.2487473828619204,512,0,1,1,1142.429516800503,0.8553425929717134,0.0824789537342103,284.17635240833346
