cpu,memory,duration_std,userDiff,sysDiff,heapTotal,heapUsed,avg_cpu_util,cpu_util_std,slo_preservation,total_cpu_shares,cpu_shares_others,num_containers,arrival_rate,latency,memory_util,memory_util_std,slo_duration
1024,1024,148.3525314793615,6545,3790,30855168,23589216,0.10445052728086071,0.0517981658202139,1.0,1024,0,1,1,281.20047931820886,0.6612361417227127,0.0540253686607673,296.26260385000006
1024,128,138.17086601545049,16349,12877,18579456,14333592,0.10020071680338963,0.0468727524542725,0.8566694572327879,1024,0,1,1,345.8307067547231,0.8266412579737231,0.0345114378851454,296.26260385000006
1024,1536,134.09053942619494,13668,294,39374848,23586488,0.12927526495355432,0.0873055713527473,0.952195980657174,1024,0,1,1,311.1361630045208,0.5098327928854122,0.0546961035164232,296.26260385000006
1024,2048,105.63913270070124,4450,7290,39374848,23534664,0.07365629370929021,0.0439032249637833,0.7592231910573588,1024,0,1,1,390.2180641207753,0.5262539811130417,0.0583692667243261,296.26260385000006
1024,256,136.36872994173686,13329,273,18579456,14354136,0.14674147853760397,0.0586636348667892,1.0,1024,0,1,1,263.75769475177253,0.8035404976122953,0.0235292168929504,296.26260385000006
1024,512,148.3250561986057,23962,3995,24948736,20609472,0.11754977425336396,0.0375560270535932,0.9127054556302971,1024,0,1,1,324.598261161271,0.8385802003001057,0.0294701203789443,296.26260385000006
128,1024,149.37615560856938,18705,7800,25530368,14436320,0.14965372665971197,0.0654743826418699,1.0,128,0,1,1,283.5654104098094,0.6403961561794755,0.0452369435588312,296.26260385000006
128,128,79.85452333615449,10345,422,24686592,20599296,0.11126834495463726,0.0420758828005538,0.9216562391281039,128,0,1,1,321.445883261494,0.8643776516318086,0.0192969742125783,296.26260385000006
128,1536,155.72421460550643,6304,3615,39374848,23764240,0.15859720054063461,0.110661850311598,1.0,128,0,1,1,261.09790880146295,0.5074892064056444,0.0506554471460958,296.26260385000006
128,2048,154.9074827321406,11397,619,39636992,23557120,0.09287374994826743,0.0357519264462966,0.9259857523098662,128,0,1,1,319.94293984650915,0.519040242042865,0.057863630946228,296.26260385000006
128,256,131.94730907742306,27023,29,18841600,14344968,0.07896209235835984,0.020680681791951,0.8173094772549843,128,0,1,1,362.48521777213165,0.8122043513692677,0.0208361625926768,296.26260385000006
128,512,146.29297248818273,27526,27,18841600,14326904,0.10846585300938968,0.0520745944519628,0.9587760219354554,128,0,1,1,309.0008480311624,0.8129345099683609,0.0222988276583339,296.26260385000006
1536,1024,130.65762339283813,55777,11946,25268224,14248312,0.14511299000322025,0.0901436314543015,0.8199899517246552,1536,0,1,1,361.30028572530875,0.6430754720064831,0.0459155799346752,296.26260385000006
1536,128,140.61436698293014,16451,7299,24948736,20559424,0.10258765868814304,0.0457250558968237,0.8573958542131841,1536,0,1,1,345.53771445731405,0.8578280566919194,0.0196155556746314,296.26260385000006
1536,1536,155.90454557243405,9937,361,38850560,23636304,0.10740095754353723,0.0436564126669219,0.8902199543818214,1536,0,1,1,332.79708277908475,0.5120412570649928,0.0473945569953136,296.26260385000006
1536,2048,146.1987117306348,7921,4042,39374848,23564480,0.10741522194289191,0.0905733712950377,0.9056114174086287,1536,0,1,1,327.14097697414616,0.5235179218147417,0.0581070339489764,296.26260385000006
1536,256,112.055690517719,18328,7665,18841600,14337960,0.13263094499144765,0.0688713091464537,1.0,1536,0,1,1,263.8372279322919,0.8168189799515622,0.0231292187040707,296.26260385000006
1536,512,141.00932070821315,16510,11980,19103744,14203016,0.1305577927260306,0.0580863435094575,1.0,1536,0,1,1,259.9882272417161,0.812134405267684,0.0243848116842794,296.26260385000006
2048,1024,132.1160892681528,10978,30,31117312,23570848,0.09216078215773019,0.059018762302207,0.8790639731404443,2048,0,1,1,337.02052740440024,0.6569352689941266,0.054346989667653,296.26260385000006
2048,128,127.37785952594218,24070,4007,18841600,14321288,0.12321834686175172,0.0580524581907266,1.0,2048,0,1,1,284.19376282165246,0.8292622049910838,0.0293162495193775,296.26260385000006
2048,1536,121.4409070376924,2635,7789,39374848,23568296,0.11831328121856557,0.1001552515008309,0.8814456555687483,2048,0,1,1,336.10989171968646,0.5025141960848041,0.048295506272473,296.26260385000006
2048,2048,140.22265437602562,10104,419,39112704,23624056,0.07065708781004522,0.0198716116688244,0.9356006654162777,2048,0,1,1,316.6549734316228,0.537448404628208,0.0656422974105797,296.26260385000006
2048,256,133.83695114695354,19271,8527,18841600,14335688,0.13161058512485593,0.0540957537940014,0.9525138753138062,2048,0,1,1,311.0323235474089,0.8227161662814252,0.0309776930232843,296.26260385000006
2048,512,137.6906210313118,14582,26,18841600,14351096,0.12390503306148104,0.065216965145009,1.0,2048,0,1,1,295.4443072807221,0.808982531990312,0.023454873658394,296.26260385000006
256,1024,145.56408254230269,47673,7918,25530368,14170296,0.14024058517531907,0.0823732683113646,0.8853783361346729,256,0,1,1,334.61695611777003,0.6467619976927311,0.054426310635987,296.26260385000006
256,128,135.02278907618722,14834,406,24686592,20699600,0.11148832033183427,0.0338186068441124,0.9363123560028053,256,0,1,1,316.4142841335231,0.8658347294086333,0.0182906361896277,296.26260385000006
256,1536,98.87603877176468,8387,4083,39112704,23589368,0.11302735921526273,0.0825114970837072,0.8153915353303601,256,0,1,1,363.33784570128967,0.5031693016066969,0.0478182910162657,296.26260385000006
256,2048,136.93290275362392,7269,3852,39374848,23532248,0.0871039570040007,0.0387253783385872,0.8577529763100087,256,0,1,1,345.3938511813744,0.5437250886647764,0.0643176258976748,296.26260385000006
256,256,131.93746647031935,13776,1249,24686592,20743552,0.08498390605427786,0.0364319188178418,0.7484224764470173,256,0,1,1,395.8494208464265,0.8499127764065382,0.031040348257817,296.26260385000006
256,512,145.45413696654558,14277,24,18579456,14333344,0.11056524525599244,0.0357160987923748,0.973495591350486,256,0,1,1,304.3286548827699,0.8236975754614374,0.0332652913052596,296.26260385000006
512,1024,142.66944195824445,12418,128,30593024,23527816,0.1072710014986242,0.0412719537543199,0.8694982365710033,512,0,1,1,340.728240023069,0.6489936857582579,0.054732123010766,296.26260385000006
512,128,113.49701204794614,22063,8385,18841600,14324848,0.1036326530189724,0.0323840834567916,0.922272037628704,512,0,1,1,321.2312547301493,0.840031695257219,0.0280115164503566,296.26260385000006
512,1536,152.86849650731872,7113,3854,39374848,23499224,0.10403395574105674,0.0528771471087846,0.8569040409503709,512,0,1,1,345.73603308186364,0.5070487957737064,0.0497812591197183,296.26260385000006
512,2048,117.28069269094696,10337,495,39374848,23673392,0.07734297873986565,0.0384726637944829,0.8129600431100966,512,0,1,1,364.42455734553016,0.5320650056830589,0.0584837313421653,296.26260385000006
512,256,153.67320585942946,20829,3521,18841600,14327360,0.11823044873135964,0.0606464709442305,0.939154914149264,512,0,1,1,315.4565869661347,0.817796066623709,0.0231017101848236,296.26260385000006
512,512,145.5654021426428,20158,6148,19103744,14322176,0.11310167708748929,0.0576426975524451,0.8905750486412022,512,0,1,1,332.6643883657236,0.8256891972521302,0.0328755711423934,296.26260385000006
