cpu,memory,duration_std,userDiff,sysDiff,heapTotal,heapUsed,avg_cpu_util,cpu_util_std,slo_preservation,total_cpu_shares,cpu_shares_others,num_containers,arrival_rate,latency,memory_util,memory_util_std,slo_duration
1024,1024,131.21308877222526,212729,46102,39170048,29872336,0.5991314859622568,0.2136637769588033,0.8267723871460083,1024,0,1,1,510.87564676218597,0.7284168860991254,0.1271997120353701,422.3778780083334
1024,128,139.9469224950827,230970,28995,32481280,29733816,0.6283697035388578,0.1883247230596082,0.714337377857563,1024,0,1,1,591.28626206727,0.8660567269074959,0.080596853205637,422.3778780083334
1024,1536,149.56267875157337,252193,36036,50311168,29653648,0.6505132133472297,0.2497060762457681,0.9116087179032712,1024,0,1,1,463.33242509990015,0.6272291825470985,0.1760053185119909,422.3778780083334
1024,2048,144.36086697206687,200392,42008,38768640,15359984,0.592167381583598,0.2639325970267551,0.9001749665040177,1024,0,1,1,469.2175340630829,0.5818465293312538,0.1793132911234237,422.3778780083334
1024,256,164.92485291740712,263073,17999,32481280,29724960,0.6248648959598272,0.3172319985709381,0.6936499402971443,1024,0,1,1,608.9208020797869,0.8449948418159783,0.0916580195077766,422.3778780083334
1024,512,152.0617563535866,301860,45293,33267712,29985520,0.60201007416171,0.2747263243994836,0.6831547670457385,1024,0,1,1,618.2755334268998,0.8560640698580186,0.0769221988739634,422.3778780083334
128,1024,147.23871597308593,289781,44203,39694336,29882568,0.5940684766423442,0.2451270439284352,0.7957510643469535,128,0,1,1,530.79147101734,0.7351072119054095,0.1371252492603516,422.3778780083334
128,128,266.1102436253203,180883,66475,32481280,29509240,0.6811078625966379,0.2740966483249257,0.6803066703672331,128,0,1,1,620.8639374068339,0.8672164424870695,0.0807733343598872,422.3778780083334
128,1536,120.3596883503,251082,52178,50573312,29704208,0.6712751605578537,0.2916443262216875,0.9503064608439957,128,0,1,1,444.46491254327253,0.6565690963778387,0.1597409957800525,422.3778780083334
128,2048,156.47853586724165,276895,48231,50573312,29999888,0.6324292697591213,0.3395474602661877,0.8901142841766226,128,0,1,1,474.5209525527873,0.5928569391392432,0.1688413109486958,422.3778780083334
128,256,131.7216120452962,226549,42858,32743424,29508848,0.614809554097432,0.1931245171026686,0.7889692517290643,128,0,1,1,535.3540421032529,0.8141315294413266,0.0528462506985766,422.3778780083334
128,512,148.51902990082525,302337,25861,33267712,29840280,0.6736465694058561,0.2050424183091127,0.8373245374919263,128,0,1,1,504.4374780577909,0.8489806205268803,0.0583319127131967,422.3778780083334
1536,1024,119.1018635226541,267214,43773,39694336,29945920,0.584737819909212,0.2238203528835413,0.8482448385488288,1536,0,1,1,497.9433517461002,0.762103871360863,0.1063932301898015,422.3778780083334
1536,128,187.8421507537462,290075,44838,32743424,29559040,0.5949475504513811,0.1591379730331018,0.667471645193379,1536,0,1,1,632.8027281008509,0.8421408573550545,0.0977115458423224,422.3778780083334
1536,1536,163.97413613414227,264316,27360,50311168,29648728,0.5682221975289716,0.307648073313596,0.7985964894297514,1536,0,1,1,528.9002438640046,0.6066832688463305,0.1719058516980792,422.3778780083334
1536,2048,110.40793089274528,284309,45973,50573312,30662432,0.6183277650146606,0.2513665177958799,0.9040112592245341,1536,0,1,1,467.2263466836149,0.5651034279558955,0.1773564240924162,422.3778780083334
1536,256,145.09259762072998,242358,49699,32743424,30169320,0.6317811924365404,0.2339637393518124,0.7676435929555715,1536,0,1,1,550.2265398739271,0.8388361642841302,0.0892826522547285,422.3778780083334
1536,512,163.3754226818192,257557,42473,32481280,29953384,0.5887557755532984,0.1673966950352805,0.6891806812372332,1536,0,1,1,612.8695848671655,0.8356209849452144,0.1025019733147259,422.3778780083334
2048,1024,114.460618146606,337958,57505,39432192,29543568,0.7418666300492877,0.322218098924569,0.9529148350225839,2048,0,1,1,443.2482972083472,0.7239444436231435,0.1412227993185796,422.3778780083334
2048,128,133.9439430190653,270050,43271,32743424,30151104,0.6286150017982656,0.2314067531771374,0.6950796355441649,2048,0,1,1,607.668325195086,0.8466393319249524,0.0688077327738369,422.3778780083334
2048,1536,145.1487856869636,285869,21766,50311168,29707008,0.607930118714914,0.2985745375112891,0.8741913074888682,2048,0,1,1,483.164124820255,0.5804892258179205,0.1675535533650863,422.3778780083334
2048,2048,138.52834596595187,299356,26782,50311168,30199896,0.546132401528194,0.2611567956644739,0.7823330202390725,2048,0,1,1,539.8952454790408,0.5533796900997316,0.1786156174295952,422.3778780083334
2048,256,148.0289121439284,294299,15886,32743424,29750488,0.5904215078707753,0.1836439295922182,0.7585004232247778,2048,0,1,1,556.8591197518209,0.8567679783082,0.0464510057741784,422.3778780083334
2048,512,140.04227625064962,210800,28496,33005568,30075640,0.622137264606455,0.2300166931251533,0.7503693905607969,2048,0,1,1,562.8932673981606,0.8482788734396755,0.0748385488137269,422.3778780083334
256,1024,145.48218305413496,238729,44839,37859328,31382864,0.5146666067582684,0.2114173504355518,0.7440380532725966,256,0,1,1,567.6831664059861,0.6956268602668695,0.1351325032209392,422.3778780083334
256,128,188.15858743327664,290986,37542,32743424,29651440,0.6360270791318452,0.1930219310151175,0.6936661942859642,256,0,1,1,608.9065338453094,0.8675341315550524,0.061025593192816,422.3778780083334
256,1536,147.24715825397067,285078,26792,50049024,29718048,0.6145890293795744,0.229665405299448,0.8909240457632911,256,0,1,1,474.089660074743,0.683848357511721,0.1311583978801285,422.3778780083334
256,2048,133.76460113916497,244473,52152,49000448,29723632,0.6156994149089721,0.2676182650446739,0.9514131084762193,256,0,1,1,443.947927819507,0.5787973183704428,0.1812781951433306,422.3778780083334
256,256,133.85188651778495,259047,38241,32481280,29566544,0.7011501476716878,0.194084633759818,0.8339302002354777,256,0,1,1,506.4906845789566,0.7968702650784276,0.0905354731869981,422.3778780083334
256,512,151.8604372558435,255145,26670,32743424,30079448,0.6729269803072893,0.2046668478182693,0.7701947476770475,256,0,1,1,548.4039968881245,0.8644676055784043,0.0497479090445266,422.3778780083334
512,1024,137.33919384684356,274805,41606,37859328,30695144,0.6172923468421138,0.2575151400910744,0.7851610469551016,512,0,1,1,537.9506276404547,0.7165647197495281,0.1292733968771413,422.3778780083334
512,128,294.60023535414314,221755,32675,32743424,30071720,0.5849936382051776,0.2536743928949779,0.6614976408034243,512,0,1,1,638.5175879014971,0.8769503612145094,0.0775077262389171,422.3778780083334
512,1536,141.20992325695656,241651,32938,50311168,29693088,0.6911689262654566,0.3686312674922815,0.9370060635762008,512,0,1,1,450.7739004337661,0.5825767930452164,0.1633230290502079,422.3778780083334
512,2048,136.61026584499217,274893,50535,50573312,30066784,0.575505771163805,0.3117711167471169,0.8683617185989491,512,0,1,1,486.4077595334528,0.5921492006865299,0.1678021653218363,422.3778780083334
512,256,134.1788941671322,268860,40975,33267712,29853200,0.6581617095714584,0.2004378443464833,0.7792471801876752,512,0,1,1,542.0332453517601,0.8464266481626137,0.0944523438063295,422.3778780083334
512,512,167.23711944740563,242384,18646,32219136,29476664,0.6458090731331566,0.2386160466910367,0.7683378856264271,512,0,1,1,549.7293390185596,0.8243076013976364,0.0898945639591985,422.3778780083334
