cpu,memory,duration_std,userDiff,sysDiff,heapTotal,heapUsed,avg_cpu_util,cpu_util_std,slo_preservation,total_cpu_shares,cpu_shares_others,num_containers,arrival_rate,latency,memory_util,memory_util_std,slo_duration
1024,1024,48.890248870271,132779,7796,26054656,15023008,0.8863696818391872,0.1451949557735422,0.5898388925074569,1024,0,1,1,283.6686557823931,0.6660516404363032,0.0771280987442261,167.31880576576577
1024,128,140.839775535349,157085,1216,27987968,24443512,0.6008324182488695,0.1201256405400837,0.27970187357706816,1024,0,1,1,598.2040936156378,0.8730873962206357,0.0081606961002205,167.31880576576577
1024,1536,31.48171224788945,81003,4605,34574336,15498928,0.9982831647210004,0.095409050691133,0.8656188339901884,1024,0,1,1,193.29386006365743,0.5344538944947674,0.0622226288512821,167.31880576576577
1024,2048,29.54230193352375,72124,16967,34574336,15589144,0.9733646468551929,0.0782758472546382,0.8890489326546575,1024,0,1,1,188.19977126136337,0.5491548185138886,0.057644164857312,167.31880576576577
1024,256,164.18568672317795,81857,21583,28250112,24610368,0.6553030220771267,0.2444753589502867,0.29241732465673564,1024,0,1,1,572.1918356314177,0.8774761368784361,0.0114024108743799,167.31880576576577
1024,512,100.3124755154672,85591,5286,27987968,24564712,0.6931452652414772,0.2204338705688639,0.4111539395986936,1024,0,1,1,406.94929478014274,0.8801811934168239,0.0096578627247147,167.31880576576577
128,1024,62.38384685315234,156176,39,25792512,14841536,0.8538010760305662,0.1142263748989337,0.5556707748321517,128,0,1,1,301.11140147024435,0.6626710001474204,0.073562457374942,167.31880576576577
128,128,159.96833290320524,107260,8852,27725824,24711552,0.6032527076528356,0.1894326753040253,0.3062529393857721,128,0,1,1,546.341877081553,0.8737329070600307,0.0067227046399805,167.31880576576577
128,1536,29.20207614440791,88011,6429,42414080,28807944,0.9711058138583811,0.1120711119013379,0.8203413977312836,128,0,1,1,203.96240666202954,0.5775058215628017,0.1020945421146703,167.31880576576577
128,2048,28.53651688255092,57517,96,42414080,28785992,0.9842814548015114,0.1092121501844852,1.0,128,0,1,1,146.95537121092093,0.5447857703415779,0.0636772863771673,167.31880576576577
128,256,176.39539358981042,109957,3930,28250112,24538688,0.5997383301178508,0.2285747165685831,0.27264820984777804,128,0,1,1,613.6801919923896,0.8778641212802764,0.0079747993006688,167.31880576576577
128,512,102.53681222738116,89979,8021,27987968,24502888,0.7610572985606341,0.2535026914066687,0.43719874441662504,128,0,1,1,382.70651026005845,0.8773007905637392,0.0104666915105017,167.31880576576577
1536,1024,53.88147116644623,47754,11915,34156544,28704832,0.8837202086073942,0.1413393667072393,0.6778601104346281,1536,0,1,1,246.83382779152595,0.6733063548023978,0.0834151978438499,167.31880576576577
1536,128,113.0344817217632,135103,7288,27987968,24507976,0.7041954489928222,0.1752740856316715,0.36287402228280086,1536,0,1,1,461.09336985100623,0.8669831355444724,0.0103505677615749,167.31880576576577
1536,1536,30.4980447755963,43806,5370,34312192,15502224,0.9796738357082716,0.0978253202649972,0.8852320643783991,1536,0,1,1,189.01123501808007,0.5767126938478881,0.0861844689661315,167.31880576576577
1536,2048,37.15512402095616,90888,34,42414080,28624536,0.984338870989287,0.1116293085235215,0.8949073635861003,1536,0,1,1,186.96773830900295,0.5447727413035615,0.0744999797309274,167.31880576576577
1536,256,107.88217283762066,62665,4296,28250112,24455352,0.6851081347095443,0.2033172296868389,0.3620041078380967,1536,0,1,1,462.2014008763616,0.8775169779566647,0.008855751513864,167.31880576576577
1536,512,105.76347471258686,69779,30,27987968,24690880,0.7735280604204473,0.2792500152520572,0.4254572471613129,1536,0,1,1,393.2681999945497,0.8788446499656943,0.0138178157427145,167.31880576576577
2048,1024,51.08533601572857,102016,11736,25530368,15508264,0.9458474761587261,0.1179845104186182,0.5101591631525937,2048,0,1,1,327.97373418091297,0.6711598402322458,0.0625741023153261,167.31880576576577
2048,128,86.1399033119751,55436,4782,28512256,24310264,0.7910344072407625,0.2277611889872131,0.4041301124366914,2048,0,1,1,414.0221196508264,0.8731522951628236,0.0076390150268821,167.31880576576577
2048,1536,37.19155511164666,79374,3654,42151936,29352496,0.9520018078173743,0.1608421617692562,0.741515260678439,2048,0,1,1,225.64445351088227,0.5752582463519766,0.0898060271276704,167.31880576576577
2048,2048,28.98393260252276,81387,7127,42676224,28546520,0.983357214997452,0.1419771747635322,0.9244249974050893,2048,0,1,1,180.9977080189725,0.5576725896095338,0.0578392345223239,167.31880576576577
2048,256,105.94710869007912,115336,11895,28250112,24470208,0.8050889136444286,0.2229949709420391,0.40921373669637406,2048,0,1,1,408.8787612961096,0.8766084206809974,0.007540426120947,167.31880576576577
2048,512,83.49075525313371,111120,1101,28250112,24302808,0.7565240791327109,0.1894103440164453,0.4622778195558326,2048,0,1,1,361.94426530463784,0.8733318205076431,0.0149797589747002,167.31880576576577
256,1024,39.24484928634105,74927,29,33894400,28754056,0.9131078733789759,0.1374190464246266,0.6160688141872522,256,0,1,1,271.5910981251353,0.6721410803830279,0.0700391902922962,167.31880576576577
256,128,167.55344068160318,83991,3873,28250112,24335208,0.5910253841977945,0.1883891385062824,0.27208869456170226,256,0,1,1,614.9421461089868,0.8750733112631109,0.0085028498763659,167.31880576576577
256,1536,33.0570133541559,87509,20,42151936,29166344,0.9926618303185165,0.1343862827742113,0.7235809772571176,256,0,1,1,231.23715385667282,0.5480213062025018,0.0811103695062834,167.31880576576577
256,2048,35.205310823126794,115386,163,42414080,28465984,0.9800195735047857,0.1020318763778028,0.9349352358106655,256,0,1,1,178.96299054413822,0.551924736035973,0.0728828105352184,167.31880576576577
256,256,139.6388659296643,99086,4451,27987968,24631136,0.6233346630499178,0.2052760181866912,0.3352478086859367,256,0,1,1,499.08993118135965,0.8736557985033029,0.0087669262906291,167.31880576576577
256,512,70.26263302608818,56637,3332,27987968,24674504,0.8128020705728327,0.2329672484019119,0.4528443810364893,256,0,1,1,369.48411589606,0.8810153580871282,0.014093402898687,167.31880576576577
512,1024,42.0642939627944,114930,3025,25530368,15463864,0.8505685480754988,0.1552584498548949,0.5675396203241857,512,0,1,1,294.81431740429184,0.6684950818281091,0.0605678482179374,167.31880576576577
512,128,205.6902460332748,77519,7101,28512256,25040304,0.5809778111540073,0.1940678606931766,0.23960324562326005,512,0,1,1,698.3161072402556,0.874352139367874,0.0074288869476427,167.31880576576577
512,1536,31.79211732383152,130851,13552,34312192,15044208,0.9846702155413807,0.0704740406484253,0.9156651033025471,512,0,1,1,182.7292589422637,0.5545101034976563,0.0636935887758455,167.31880576576577
512,2048,30.6093547454174,82912,4718,42676224,28520848,0.9782530970573023,0.204019247137986,0.7817807409997316,512,0,1,1,214.0226754010345,0.555180753254459,0.0568403140829865,167.31880576576577
512,256,125.9733160090666,49518,1236,27987968,24385192,0.904793288848847,0.3322589682336851,0.4505074816326582,512,0,1,1,371.40072604209666,0.8706732877665044,0.0086702454908727,167.31880576576577
512,512,105.77481670425765,63134,33,27987968,24649200,0.7044681260381463,0.1984081412534774,0.41247925029468274,512,0,1,1,405.64175203050854,0.8803167475878635,0.0118915785685529,167.31880576576577
