cpu,memory,duration_std,userDiff,sysDiff,heapTotal,heapUsed,avg_cpu_util,cpu_util_std,slo_preservation,total_cpu_shares,cpu_shares_others,num_containers,arrival_rate,latency,memory_util,memory_util_std,slo_duration
1024,1024,97.37249174392328,272902,45158,27889664,15389192,0.8757448228735747,0.155694269631594,0.9277315520710017,1024,0,1,1,467.7391387639267,0.7904864930997869,0.1096534605474536,433.93635716981134
1024,128,769.5449299128115,255002,43552,31956992,29807472,0.5524391998799295,0.2897456337280868,0.23812610810892426,1024,0,1,1,1822.2964319868659,0.91862551379187,0.0088276436161044,433.93635716981134
1024,1536,64.52079986071502,237226,26613,72454144,55067368,0.9911273452177343,0.2183421936377453,1.0,1024,0,1,1,305.1399735543823,0.7485242356402821,0.0777113286378088,433.93635716981134
1024,2048,51.997488955586505,215755,49963,50311168,29969752,1.120687856170915,0.2978405198732814,1.0,1024,0,1,1,252.35600071859287,0.7246861405729278,0.1175025712552848,433.93635716981134
1024,256,448.85417049807154,301544,18884,32743424,30180560,0.6643801358273186,0.3760077854673779,0.3337683496214748,1024,0,1,1,1300.112361348632,0.9087183008996864,0.0184506206530283,433.93635716981134
1024,512,96.30969330309854,253194,33328,32743424,29817744,0.6708511589247491,0.1234710598402377,0.5938527182519734,1024,0,1,1,730.7137676276341,0.904958808512604,0.0439714871982971,433.93635716981134
128,1024,87.83942826082263,241897,46411,38383616,31100232,0.8592309854386654,0.0771200206441427,1.0,128,0,1,1,429.07580733004113,0.8239398050853743,0.0619409307384322,433.93635716981134
128,128,878.4333368124146,275755,42133,32219136,29614184,0.4948307110102364,0.3946567194886995,0.19334612007366234,128,0,1,1,2244.3499616360923,0.9054034696145024,0.0121549594715702,433.93635716981134
128,1536,54.32977674085638,181806,36725,72716288,54992360,0.9883311874014866,0.1156239777295974,1.0,128,0,1,1,326.0280067869363,0.7115484827893789,0.0866055707336856,433.93635716981134
128,2048,50.66745125173847,253348,32885,50049024,30023904,1.2007587504125792,0.2594637763549837,1.0,128,0,1,1,241.40061739755907,0.7101506374949685,0.1133078535429402,433.93635716981134
128,256,325.3196970067759,237654,39613,33267712,29618672,0.5356665377452983,0.200173879964609,0.33842808217939463,128,0,1,1,1282.2114358104286,0.8913080670923433,0.0588774385727376,433.93635716981134
128,512,217.41586163345832,271688,51233,33005568,29938608,0.67943082617258,0.2493196899183825,0.5083201624547975,128,0,1,1,853.6674112516621,0.8819033293027532,0.0632461769334445,433.93635716981134
1536,1024,93.051119180509,223201,39779,37859328,30067960,0.9279413851528363,0.1624316129931927,0.9960556072289605,1536,0,1,1,435.65475061882125,0.7813535527450415,0.0888015884509919,433.93635716981134
1536,128,545.2124062592285,244060,43405,32481280,29889880,0.6212186851426665,0.2539406114547317,0.28721978839887646,1536,0,1,1,1510.816366758067,0.9123466103826524,0.0093673799821636,433.93635716981134
1536,1536,76.18730807063555,339744,36527,50835456,30899824,1.0230157183506827,0.2236715317898237,1.0,1536,0,1,1,330.2862297387764,0.7242548266663614,0.0928148021141676,433.93635716981134
1536,2048,57.88107577769004,283914,44825,50835456,30450768,1.1347233029110282,0.2588550269702379,1.0,1536,0,1,1,247.1008332008912,0.7320585027634591,0.1106464274318019,433.93635716981134
1536,256,170.11527153689102,307874,43643,33267712,30216728,0.7719112263155241,0.1952033130498099,0.5805790818757858,1536,0,1,1,747.4198963004519,0.9018761760170486,0.0350805122678228,433.93635716981134
1536,512,111.63063445545482,285812,59510,33005568,30298672,0.7104279590497236,0.1926008235867442,0.6026386869158558,1536,0,1,1,720.0605712696309,0.892657246515164,0.0499234295012355,433.93635716981134
2048,1024,115.2542266857444,281835,30189,39694336,30923528,0.9020452707885648,0.1764843511607905,0.9644770772478852,2048,0,1,1,449.9187875030058,0.8030491732918952,0.1062225862883722,433.93635716981134
2048,128,644.2880344849502,324673,75304,33267712,30248872,0.5698599110365578,0.2234610127578274,0.25075637392330713,2048,0,1,1,1730.5097787964069,0.921008000273036,0.0086643391759485,433.93635716981134
2048,1536,80.47396509305321,261255,42143,70402048,55079848,1.0045983498940745,0.1618853682867429,1.0,2048,0,1,1,321.80652901862516,0.7164189467685316,0.1248976241799178,433.93635716981134
2048,2048,52.35088960655037,251227,21061,50049024,29947328,1.1473279562997896,0.2798924799934091,1.0,2048,0,1,1,240.83922537068804,0.725951789399808,0.0992185882641426,433.93635716981134
2048,256,263.53786375255004,295866,12869,32743424,29842632,0.8094034650243768,0.2823157906918763,0.5290066396592928,2048,0,1,1,820.2852755294118,0.912844353360682,0.012691908656845,433.93635716981134
2048,512,125.22992994365876,248911,28931,32743424,29877136,0.7922365043991063,0.2758069580808108,0.6553774796700261,2048,0,1,1,662.1166741772887,0.8824620345426932,0.0454238621139259,433.93635716981134
256,1024,85.20900753942449,262235,60447,27889664,15395496,0.8538382840158465,0.1133940301345251,0.9621398157991493,256,0,1,1,451.01174490880584,0.7762697819946879,0.1087208981090372,433.93635716981134
256,128,998.1797080960464,285968,44250,32219136,29686344,0.27949918748744335,0.1012599574784088,0.14981582400887178,256,0,1,1,2896.465443757894,0.9138465555386964,0.0100798181558638,433.93635716981134
256,1536,40.611914503139154,175014,25058,72761344,55084512,1.038800374880256,0.203724702926207,1.0,256,0,1,1,259.8030806232266,0.7337497001881014,0.0737485332410196,433.93635716981134
256,2048,25.515713714909552,248923,47329,50311168,31156128,1.23859328564667,0.2581141163818953,1.0,256,0,1,1,195.4451869082722,0.6674060742494486,0.1096301018708036,433.93635716981134
256,256,187.43927926191583,265060,30720,32743424,29677872,0.500125505803299,0.0725520059182649,0.3761359632126314,256,0,1,1,1153.6688846860015,0.8988850871456625,0.0432687261672885,433.93635716981134
256,512,139.00352613646902,292594,36586,32743424,29759872,0.5956816872823408,0.0428717683171443,0.5071981753131184,256,0,1,1,855.5558325932877,0.9049911220103608,0.0460751354870259,433.93635716981134
512,1024,77.42608142725526,228612,33803,37072896,30068576,0.8715422118306048,0.151638086758387,0.9588225277858274,512,0,1,1,452.5721336271522,0.7831494692756393,0.1020462031047664,433.93635716981134
512,128,481.3998521300508,318494,51477,32481280,29689464,0.4424494517304438,0.0951609491504648,0.2436993270007306,512,0,1,1,1780.6218938327656,0.9147778512115956,0.0095036666489822,433.93635716981134
512,1536,79.15731112854137,232490,15038,72237056,55149608,0.9850221371600318,0.1946928848225078,1.0,512,0,1,1,354.3818225115494,0.7226232519172484,0.1006434227796133,433.93635716981134
512,2048,44.45311633084464,242872,43380,50835456,30087512,1.101338125020409,0.2163510968522087,1.0,512,0,1,1,258.3765875294011,0.6961656897298806,0.1376699580226675,433.93635716981134
512,256,393.5820521526703,334075,46862,32743424,29730832,0.6095209502635268,0.2405248959530729,0.35475210481265007,512,0,1,1,1223.2100987786378,0.9135208306552424,0.0102904192466275,433.93635716981134
512,512,192.44886147225063,273213,36391,32481280,30194824,0.692670997614007,0.2956352621392621,0.5266554288103927,512,0,1,1,823.947373237916,0.88996259824538,0.0568061631499396,433.93635716981134
