cpu,memory,duration_std,userDiff,sysDiff,heapTotal,heapUsed,avg_cpu_util,cpu_util_std,slo_preservation,total_cpu_shares,cpu_shares_others,num_containers,arrival_rate,latency,memory_util,memory_util_std,slo_duration
1024,1024,47.78441544416141,371147,24237,40218624,30398808,1.3814552864454503,0.2277872079185434,0.86008046233743,1024,0,1,1,193.904676871853,0.7624830945228689,0.1156849745941937,166.7736241333333
1024,128,56.23450625235415,311833,25990,33005568,29786192,1.263330498577465,0.1920325786879164,0.6750300650358599,1024,0,1,1,247.06103145861172,0.8554164048267998,0.0649543478448627,166.7736241333333
1024,1536,40.932277600724,356703,31150,50835456,31403000,1.4286611415487354,0.281044014954363,1.0,1024,0,1,1,152.50779734062286,0.7003812722511067,0.1383021910856113,166.7736241333333
1024,2048,31.992733163414865,314855,48300,50573312,30687984,1.4892829609070217,0.35839613710047,1.0,1024,0,1,1,137.15154884208818,0.7555675256444545,0.0915767329288386,166.7736241333333
1024,256,42.73679634241817,295596,24335,33005568,30513448,1.2769139393430056,0.1763938357269147,0.7201176461192496,1024,0,1,1,231.59219195930666,0.867515223726304,0.0406309908243031,166.7736241333333
1024,512,49.81623923840332,285715,51064,32743424,30577248,1.2720238776084398,0.2106530532430251,0.7018936052129235,1024,0,1,1,237.60527649021896,0.8683470962946925,0.067228182309359,166.7736241333333
128,1024,25.946226685291613,272249,27754,39956480,30230568,1.409999271795742,0.2070245190594469,1.0,128,0,1,1,161.184157892159,0.7257334852053704,0.1207329072887981,166.7736241333333
128,128,95.56506107710288,479844,52272,32743424,29867472,1.173611712629674,0.254538819016541,0.5459507317001957,128,0,1,1,305.4737624656498,0.8797527269941035,0.0707981830033119,166.7736241333333
128,1536,32.45660557568656,251203,49234,50835456,30447240,1.52083522928151,0.2988187684040068,1.0,128,0,1,1,130.9142737577701,0.690358610676391,0.1241592287946506,166.7736241333333
128,2048,35.76354305799264,291054,34673,69455872,51769736,1.5003549600156716,0.30168280471375,1.0,128,0,1,1,151.56275120367613,0.6921090858877259,0.140052751331175,166.7736241333333
128,256,38.30543397922536,246352,50626,33005568,30201440,1.1739089950957078,0.1621005204219876,0.6228581971430114,128,0,1,1,267.7553653436807,0.8582132709341137,0.0785649436453842,166.7736241333333
128,512,44.82971309416288,303723,35269,33005568,29938328,1.3129958744235604,0.1519950333426493,0.6759581247584302,128,0,1,1,246.72182791342857,0.8725244981919005,0.0423463556840459,166.7736241333333
1536,1024,31.36325880881572,295727,40346,39432192,30248272,1.4893434480082628,0.3359803834781883,1.0,1536,0,1,1,157.13288545256955,0.7685645691719956,0.1105829799208252,166.7736241333333
1536,128,139.9671968427669,352978,72381,33005568,30257928,0.9337305371534429,0.1972340319630592,0.4335778861723655,1536,0,1,1,384.64513401643774,0.8880551885116367,0.0477714973141533,166.7736241333333
1536,1536,39.03717335299413,329095,47419,50835456,31592552,1.432083519489973,0.3390461236862214,1.0,1536,0,1,1,158.67711044906633,0.7121760824346623,0.1200401576544213,166.7736241333333
1536,2048,25.88613404918309,247787,52254,49786880,30377800,1.476650474212921,0.3199903845180287,1.0,1536,0,1,1,148.32114137437998,0.7439839373772287,0.1247072613614448,166.7736241333333
1536,256,52.55879763839121,292721,22665,33005568,30429304,1.2673795084226864,0.1934755905267875,0.7106780606748129,1536,0,1,1,234.66831658624173,0.8749283859170806,0.0585922427368421,166.7736241333333
1536,512,56.26482086248373,358191,20387,33267712,30277336,1.2593405047701267,0.2456804014900037,0.6824289702475602,1536,0,1,1,244.38239202071674,0.8625052059386327,0.0698864962496599,166.7736241333333
2048,1024,28.16902707015101,235502,32487,39170048,30912592,1.444758825421073,0.2675884538000864,0.9772509700511074,2048,0,1,1,170.65587985511186,0.785175252154486,0.1198542770395182,166.7736241333333
2048,128,203.46339522388703,486247,61891,33267712,30250112,1.0278007270905831,0.2236979322514037,0.44116140284882205,2048,0,1,1,378.03312587271733,0.8810576808358818,0.0506142376563575,166.7736241333333
2048,1536,39.688087888194495,307407,22047,50573312,30409328,1.4471411824541602,0.3231680527074208,1.0,2048,0,1,1,152.69115666862007,0.7321134678109106,0.0964654450936497,166.7736241333333
2048,2048,31.889079623490428,315243,28940,50573312,31365968,1.4940063314732657,0.3149360713253057,1.0,2048,0,1,1,150.93347892394286,0.7149620877141369,0.1185937182769058,166.7736241333333
2048,256,51.50724173634996,331881,39110,33267712,30259200,1.2312454728941857,0.1800245222422288,0.6608162375847484,2048,0,1,1,252.37519093490027,0.8691824736466722,0.0666790357440242,166.7736241333333
2048,512,48.59704234976004,303943,29215,33005568,30368384,1.165208154815154,0.1586815529961327,0.6312686415478915,2048,0,1,1,264.1880384306733,0.8476374862593085,0.0785804233887096,166.7736241333333
256,1024,35.1764901818866,278377,31598,39694336,30243064,1.3685412002705715,0.2706342729095929,1.0,256,0,1,1,151.8829665160997,0.7200487836156917,0.1401487110370313,166.7736241333333
256,128,244.3460539198354,319360,50663,33005568,30378408,0.9816024798653852,0.2990890264529787,0.3846245047051049,256,0,1,1,433.6011410952616,0.8904603784864069,0.0540941020857882,166.7736241333333
256,1536,24.34504966334212,274641,43447,50573312,31637384,1.4832252221451727,0.2987791932838615,1.0,256,0,1,1,151.35102282533427,0.7473048447178685,0.0908474331516217,166.7736241333333
256,2048,33.55322492495564,281611,45679,69193728,51731232,1.4245977321695524,0.3331625722645056,1.0,256,0,1,1,152.5833685943941,0.7530935902878809,0.1235051661572681,166.7736241333333
256,256,48.900549403908805,289615,22424,32743424,29890176,1.1599448168259647,0.2178742050629752,0.6448550106828961,256,0,1,1,258.6218938683929,0.8897659035348658,0.0523752105547462,166.7736241333333
256,512,63.76645914600204,291131,34416,32743424,30211560,1.288383629763987,0.2530756559628685,0.7018890748135974,256,0,1,1,237.60681013253244,0.894423695757325,0.0759937404636876,166.7736241333333
512,1024,37.5940695462746,323510,39809,39694336,30752888,1.3717727453887418,0.3300903465714444,1.0,512,0,1,1,156.6205265693862,0.7617435619250839,0.1279972726479262,166.7736241333333
512,128,118.38891506583694,407482,89760,32481280,29864552,1.0130818616511035,0.1753147278568254,0.5021384680941893,512,0,1,1,332.12676329360715,0.8964429666433291,0.0546809548002038,166.7736241333333
512,1536,31.793225255288355,308678,34128,50573312,31607000,1.502676761234344,0.2781261786013901,1.0,512,0,1,1,148.71573544790755,0.7104969693778724,0.1191494717296092,166.7736241333333
512,2048,31.506696363562632,273101,35912,49262592,30355416,1.4313501538620497,0.3122660339218607,1.0,512,0,1,1,142.23578691400948,0.7353272558455928,0.0876360016914809,166.7736241333333
512,256,58.42246008512285,316363,26514,33005568,30393880,1.215919056055545,0.1702966576220826,0.6319385695286248,512,0,1,1,263.90796855101433,0.8715046005322702,0.0699082304868177,166.7736241333333
512,512,45.0694139865958,294062,29037,33005568,30437744,1.344237880627004,0.2172279172667263,0.7455330325066415,512,0,1,1,223.69716278379337,0.8786780554964431,0.0640488772251506,166.7736241333333
