cpu,memory,duration_std,userDiff,sysDiff,heapTotal,heapUsed,avg_cpu_util,cpu_util_std,slo_preservation,total_cpu_shares,cpu_shares_others,num_containers,arrival_rate,latency,memory_util,memory_util_std,slo_duration
1024,1024,89.70494048669535,345606,35726,36024320,30015400,0.8721496560308301,0.0737821707544449,1.0,1024,0,1,1,463.3199207332431,0.7737034272919276,0.0918705051995998,510.5224040952381
1024,128,183.2666709377472,344344,45706,32219136,29667736,0.5533237665703333,0.0772534631064013,0.43357319136121714,1024,0,1,1,1177.4768695740536,0.9249413129640356,0.0074514821867097,510.5224040952381
1024,1536,66.80998703498926,331277,22550,50049024,29623744,1.097254610605541,0.1566622923427544,1.0,1024,0,1,1,299.5723096621999,0.7014821084739246,0.1371975821552854,510.5224040952381
1024,2048,47.049284076821294,317417,18622,68325376,50879640,1.1377383852111516,0.1634644720683497,1.0,1024,0,1,1,255.33084649543918,0.7682351237697189,0.1163067126325371,510.5224040952381
1024,256,336.0295338770343,362879,58326,31956992,29663904,0.6020907495417891,0.2557995438675304,0.505345005916093,1024,0,1,1,1010.2452742552772,0.9030121295268572,0.0458353657463782,510.5224040952381
1024,512,154.17235619117173,393641,40305,32481280,29458472,0.5812521096822404,0.0729711852216691,0.6009765837851809,1024,0,1,1,849.488013126522,0.882218023069185,0.0627823144259271,510.5224040952381
128,1024,114.80197970696152,346914,51939,39956480,29640808,0.9150342472147962,0.1209172147147037,1.0,128,0,1,1,416.92141861795164,0.830786548084221,0.0652036731816213,510.5224040952381
128,128,1004.7531554109,248795,9860,32219136,29409424,0.5688907840657441,0.3290278456946053,0.30783679643464157,128,0,1,1,1658.4190389456244,0.9160410282598752,0.0106459401287288,510.5224040952381
128,1536,70.26821470941357,307694,14513,68063232,51289632,1.2021752976923539,0.2521948621048608,1.0,128,0,1,1,233.87568446484113,0.7425493749005124,0.0995640507452244,510.5224040952381
128,2048,29.740925471672853,232180,43952,50311168,29641688,1.3269752990575916,0.1421400984572898,1.0,128,0,1,1,173.0946195455897,0.71323787450356,0.1185516833632714,510.5224040952381
128,256,206.095827972674,329018,64755,32481280,29664464,0.3974734550518205,0.0633690310038499,0.3624586636453716,128,0,1,1,1408.4982793920235,0.906814987924094,0.0255220356460138,510.5224040952381
128,512,146.36766538095685,275935,28439,32481280,30012368,0.5584902454120824,0.067577112259322,0.590923754568905,128,0,1,1,863.9395525192216,0.9029184557506936,0.0522013959748608,510.5224040952381
1536,1024,105.62304543073664,357149,32389,38907904,29676384,0.8620592865141495,0.1062304721230881,1.0,1536,0,1,1,427.31459237260384,0.7765289233544854,0.1133564145151112,510.5224040952381
1536,128,591.3560586276122,367073,44167,32743424,29587480,0.3741794853397902,0.1059248704104554,0.253427588403389,1536,0,1,1,2014.4705132995336,0.9165373734773729,0.0090416374862089,510.5224040952381
1536,1536,71.11058373996507,296106,25593,68587520,51426544,1.082733788517337,0.138471357995431,1.0,1536,0,1,1,249.77718854684488,0.7528810545859018,0.1017783650171425,510.5224040952381
1536,2048,53.75138784248824,321871,65322,69111808,50913464,1.1509412656995703,0.1566330917521856,1.0,1536,0,1,1,249.73756365003135,0.7409688674039029,0.0996229647484164,510.5224040952381
1536,256,306.08115408919514,430286,36729,32743424,29639840,0.7116532744885059,0.2784173896968964,0.6225750984431017,1536,0,1,1,820.0173848454938,0.9197646411374544,0.0207580558004969,510.5224040952381
1536,512,171.45872479182498,344150,40447,32219136,29405800,0.5998994851844263,0.0716487841624799,0.6283216880467729,1536,0,1,1,812.5175587719555,0.9085096444731386,0.024425419287857,510.5224040952381
2048,1024,89.04274729549377,388992,43986,28413952,15164536,0.900329647363984,0.1167093673369314,1.0,2048,0,1,1,420.615567672921,0.7687897569906001,0.0974382529474827,510.5224040952381
2048,128,1501.4205012562084,340753,77443,32743424,29501224,0.598962774717082,0.3977010781964593,0.23399642319005634,2048,0,1,1,2181.7530248339826,0.9182637525079588,0.0111632542312464,510.5224040952381
2048,1536,49.364058343909925,121813,15022,58970112,45279376,1.2113405115331055,0.1461819217432378,1.0,2048,0,1,1,212.66938950803012,0.7573239171051444,0.0740319529526948,510.5224040952381
2048,2048,42.286093060398734,325233,46414,50049024,29868208,1.3246780953306538,0.1410538866770499,1.0,2048,0,1,1,173.5421194217492,0.7275638495771275,0.1137379408428364,510.5224040952381
2048,256,251.6836107661052,349886,45713,32219136,29438088,0.5348925353798124,0.1346655734149405,0.5082511091391357,2048,0,1,1,1004.468844071879,0.9079929259846612,0.0315596166558013,510.5224040952381
2048,512,157.7821353077752,259660,45312,31694848,29604912,0.6247259024700886,0.1284768107664278,0.6789865446673851,2048,0,1,1,751.8888380112562,0.9031749320177608,0.0536135916106502,510.5224040952381
256,1024,122.30600502597238,340414,22926,39694336,29736024,0.7949500787382603,0.1091417123455095,1.0,256,0,1,1,469.7439897750578,0.7755336718038183,0.105572889048542,510.5224040952381
256,128,622.4634481986825,294131,66210,32481280,29657576,0.5065270730313867,0.2932348137598567,0.3405000334687814,256,0,1,1,1499.3314358720763,0.9144321033279028,0.009677070857446,510.5224040952381
256,1536,76.38074139798145,235142,48673,67538944,51317776,1.0332537020090207,0.1861452037744056,1.0,256,0,1,1,298.63182071320404,0.7330048443815121,0.0626075318164399,510.5224040952381
256,2048,69.59958575522143,263958,36283,50049024,29651152,1.2033865607532672,0.1508218944903315,1.0,256,0,1,1,240.80247648118933,0.7766765966051932,0.0972724663922089,510.5224040952381
256,256,207.9492011918644,377818,49140,32481280,29932544,0.39243302095235416,0.051134457881244,0.3834188885906483,256,0,1,1,1331.500401484628,0.9168926729395384,0.0090936889363681,510.5224040952381
256,512,211.391714230944,383772,41600,32481280,29866448,0.5928441477834322,0.0979080367919514,0.6058822533813534,256,0,1,1,842.6099316262791,0.90204798879317,0.0345495826454614,510.5224040952381
512,1024,95.08003668494764,387579,31549,36810752,29971520,0.7860876266285085,0.1020280342960447,1.0,512,0,1,1,470.0612689178806,0.7985247778697158,0.0858936296423361,510.5224040952381
512,128,551.7442845024847,320891,56616,32743424,29460944,0.4615195195956382,0.1599943246635878,0.35071415427830277,512,0,1,1,1455.6652415292097,0.914400900340303,0.0082698200606874,510.5224040952381
512,1536,88.74836329264183,275516,48876,50049024,29960416,1.0540630338130268,0.1120199972981497,1.0,512,0,1,1,322.0341436998983,0.6979881964359298,0.1136548424361288,510.5224040952381
512,2048,56.11173166422545,286343,30975,49786880,29629616,1.1758317406312877,0.1313720822551834,1.0,512,0,1,1,240.5975805663269,0.6909586820613122,0.1156814455059001,510.5224040952381
512,256,201.16420803508848,382418,32001,32219136,29817672,0.47989816540621283,0.1264051443396039,0.44821318491829515,512,0,1,1,1139.0169260377766,0.9177110408124344,0.0097239070134383,510.5224040952381
512,512,185.4152415152052,318270,21467,32481280,29447736,0.5635148498926289,0.0913628356462554,0.6168325016177115,512,0,1,1,827.6515954596046,0.9048796024019808,0.0293186727887335,510.5224040952381
