cpu,memory,duration_std,userDiff,sysDiff,heapTotal,heapUsed,avg_cpu_util,cpu_util_std,slo_preservation,total_cpu_shares,cpu_shares_others,num_containers,arrival_rate,latency,memory_util,memory_util_std,slo_duration
1024,1024,320.1045806208255,1524705,67538,42651648,34123128,0.30754143378773985,0.33124798904559527,1,1024,0,1,1,501.66227349999997,0.833745817658494,0.03675511104390688,523.2446134873951
1024,128,960.5460375612157,1974598,201523,36487168,33442360,0.41854767079557753,0.2477969462014713,0.5672868727400826,1024,0,1,1,922.3633379,0.9241408145242616,0.03984315760800974,523.2446134873951
1024,1536,214.38983950100462,1359934,104310,52744192,42290664,0.37546318491226444,0.30465592135948144,1,1024,0,1,1,427.90185165,0.7378740299106934,0.06482848545971008,523.2446134873951
1024,2048,262.5557820869936,1299609,128976,51957760,40217888,0.3048525504662067,0.2434504022611996,1,1024,0,1,1,454.83393184999994,0.7463155954992315,0.03601021047861319,523.2446134873951
1024,256,394.10476809229755,1649463,99436,36749312,33113584,0.39589883624052546,0.2945482388469642,1,1024,0,1,1,492.3902253000001,0.9081151315427543,0.048628117833883246,523.2446134873951
1024,512,577.7519639217423,1676714,158441,35962880,33170280,0.335823135650946,0.2814647320975606,0.8078177287868302,1024,0,1,1,647.7260832999999,0.9284545001216056,0.03182380683934828,523.2446134873951
128,1024,322.62618262200436,1599567,110913,44224512,34908672,0.3353719571358189,0.34893423957798153,1,128,0,1,1,466.56578529999996,0.8031708244430366,0.045144954167802474,523.2446134873951
128,128,726.9123888423255,1946244,169454,36487168,33051624,0.5746357875591399,0.36719073937060515,0.7483863435136136,128,0,1,1,699.1637648421053,0.9138288895879079,0.04522516285904289,523.2446134873951
128,1536,244.52391725483517,1501067,136711,53530624,36432640,0.3053096020307026,0.24599056074666162,1,128,0,1,1,386.16511575,0.7203354003921132,0.07044775441894499,523.2446134873951
128,2048,307.72741864280135,1415205,118606,52482048,38237560,0.32484912157375667,0.22700467454981033,1,128,0,1,1,404.86521374999995,0.7157444712250651,0.07248902613110655,523.2446134873951
128,256,379.55144585288116,1632312,126341,36225024,33507648,0.38783068017192235,0.30415757160925555,0.9870113694230915,128,0,1,1,530.1302798499999,0.9010985746159674,0.0480962440100997,523.2446134873951
128,512,536.8036867419029,1897788,141047,37273600,34916776,0.4257648261719317,0.3143132721255454,0.7911484661866749,128,0,1,1,661.3734790000001,0.896473837803056,0.06227065354088705,523.2446134873951
1536,1024,405.8206016153641,1824964,110240,44224512,36803992,0.4017007910136396,0.3081845409124747,0.9943818778018231,1536,0,1,1,526.2008743,0.8053674983013979,0.07451527636455947,523.2446134873951
1536,128,700.8843824459033,1815591,199887,36749312,33342960,0.391854161084879,0.2845241300355603,0.7548553478522206,1536,0,1,1,693.1720295500002,0.9171731585882004,0.05008749797254743,523.2446134873951
1536,1536,210.96282497080858,1455229,76958,52744192,39704496,0.33121071473330554,0.3088419074565577,1,1536,0,1,1,378.2200243000001,0.7121871040767788,0.044667012853983966,523.2446134873951
1536,2048,236.5043671610868,1467609,84335,52482048,37508408,0.3436839256250488,0.26156305030618743,1,1536,0,1,1,393.01620589999993,0.7106827489468447,0.06203965346307417,523.2446134873951
1536,256,562.6146829107107,1890038,150095,36487168,33978232,0.4330403021503509,0.301248217129388,0.9005265566833403,1536,0,1,1,581.04295715,0.9304197948667866,0.029382232562243246,523.2446134873951
1536,512,567.8190810709098,1951643,159936,36749312,34440664,0.31736124019272316,0.3257066499619573,0.8236736201854329,1536,0,1,1,635.2572192,0.9357231807636286,0.007843845842452424,523.2446134873951
2048,1024,442.75006811803945,1735030,116900,44486656,36448088,0.381286790868858,0.28912529805396947,1,2048,0,1,1,503.1520635500001,0.8158029130243157,0.05094901945890093,523.2446134873951
2048,128,688.3406643084886,1995131,224043,37011456,34377896,0.45570370074048433,0.23168475662371912,0.7931555016449212,2048,0,1,1,659.6999105500003,0.9072222061893266,0.05481561664602083,523.2446134873951
2048,1536,255.25653401952215,1431855,124766,52219904,35608360,0.2825063539076146,0.23530327048943075,1,2048,0,1,1,467.3012333,0.7184057393788164,0.06417041868222882,523.2446134873951
2048,2048,287.7069199611521,1451796,107013,51695616,40006640,0.3283139015440648,0.209986853651487,1,2048,0,1,1,384.20318655000005,0.7355457804471937,0.06293349316973541,523.2446134873951
2048,256,611.589815609126,1851947,196750,37535744,35088216,0.3585812329179699,0.3091744439131411,0.8608931967179982,2048,0,1,1,607.7927151499998,0.9246732669777519,0.03673775319661368,523.2446134873951
2048,512,534.6853122340126,1752829,91919,36487168,33166560,0.3842981526687985,0.3275643749864566,0.8395313888832133,2048,0,1,1,623.2579513,0.9127440076865231,0.052482939181989,523.2446134873951
256,1024,370.52596962849003,1593770,137608,44224512,35241400,0.42951890159480655,0.3096823946389093,1,256,0,1,1,467.03974689999995,0.8043329036312024,0.06709945936253303,523.2446134873951
256,128,769.5884995904079,1885140,124132,36225024,33507432,0.4158871174040294,0.2697239473919627,0.7219708917536782,256,0,1,1,724.74475005,0.9016697427741105,0.05636098772592545,523.2446134873951
256,1536,243.51296266694789,1359032,133628,53006336,39064672,0.3528409236071869,0.37353572119425316,1,256,0,1,1,391.15128445,0.7234266522999249,0.06265271230427924,523.2446134873951
256,2048,243.55372345497372,1428813,129855,52482048,35550504,0.26028203738679395,0.2500931876964338,1,256,0,1,1,394.7579179499999,0.7174652596418198,0.056129890094288766,523.2446134873951
256,256,588.7105083273276,1742823,132605,35962880,33449160,0.4360421268280751,0.30998937140547317,0.8816008372633,256,0,1,1,593.51646615,0.912913480523757,0.04822866277523818,523.2446134873951
256,512,538.952235243063,1529550,151773,35962880,33042608,0.4840285285417855,0.31362610592922885,0.9390519388447791,256,0,1,1,557.2051894500001,0.9132814342890567,0.04945774786438768,523.2446134873951
512,1024,371.02948892631554,1644503,162450,44486656,38315776,0.40642914811092823,0.31544290467261477,1,512,0,1,1,455.3144297500001,0.8211919602365516,0.06465796100207387,523.2446134873951
512,128,584.6280430107458,1711475,145214,36225024,32990544,0.4167396555061096,0.28464324911281136,0.748249545440525,512,0,1,1,699.2915888500002,0.9146483607273194,0.0498843336006176,523.2446134873951
512,1536,241.31353586603305,1492354,97057,52744192,42416232,0.33178237927683113,0.2947355803262643,1,512,0,1,1,361.16092369999996,0.7236619728046858,0.05285763186253222,523.2446134873951
512,2048,237.28367106651916,1441781,100127,52744192,35525288,0.30138015157378634,0.2660961843597713,1,512,0,1,1,372.6591868,0.7325717796246372,0.054786175288561306,523.2446134873951
512,256,354.05239936257976,1778801,81796,36749312,34431928,0.4438234124640667,0.34104037515522634,1,512,0,1,1,463.1070913999999,0.9134542529258096,0.043235452144020164,523.2446134873951
512,512,475.7782726202474,1774707,114203,36749312,33645432,0.4251620249606284,0.36899561341818,0.8742015332104558,512,0,1,1,598.5400318000002,0.8919617585093234,0.050083131703322736,523.2446134873951
