cpu,memory,duration_std,userDiff,sysDiff,heapTotal,heapUsed,avg_cpu_util,cpu_util_std,slo_preservation,total_cpu_shares,cpu_shares_others,num_containers,arrival_rate,latency,memory_util,memory_util_std,slo_duration
1024,1024,10.66160408763447,12361,693,30502912,24638456,0.9533485799974744,0.2611211828202803,1.0,1024,0,1,1,13.972492100507454,0.6898355542517213,0.0808619937222257,14.875548158333332
1024,128,24.072319032111377,11351,688,24596480,21260792,0.673675192058809,0.2514799496569623,0.44334775555588035,1024,0,1,1,33.552776509902486,0.8667912929237728,0.0148618614010367,14.875548158333332
1024,1536,7.708646755001343,18085,12214,34312192,14826112,1.03464673160927,0.2217814523578719,1.0,1024,0,1,1,14.728492646345405,0.5185875952393884,0.0514206671530221,14.875548158333332
1024,2048,6.345201157887639,5097,4172,39546880,24423040,1.0531090399382679,0.1786177311443058,1.0,1024,0,1,1,11.111435757078839,0.5507511632633314,0.0572777295470944,14.875548158333332
1024,256,10.767001937215204,20464,8165,25120768,20803920,0.8735779352485017,0.1944720315396858,0.8064971180531474,1024,0,1,1,18.44463895201799,0.8653513475117327,0.0133704477109102,14.875548158333332
1024,512,14.967381031606536,22337,3681,25645056,20786200,0.8172004242577953,0.2937431497892522,0.6949592288155941,1024,0,1,1,21.40492210411458,0.8586049344198207,0.0165482156009144,14.875548158333332
128,1024,15.936573639177738,11843,31,30502912,24822016,0.955757781551605,0.2923807134288039,0.560202855210071,128,0,1,1,26.55385994552837,0.6951094409849528,0.0806623669910447,14.875548158333332
128,128,18.09231953452548,9462,182,25120768,21065728,0.7161577687167612,0.2262965023883679,0.53808913774813,128,0,1,1,27.645137422001465,0.8670664245365666,0.0123935631130258,14.875548158333332
128,1536,5.95639072496671,7799,21,39546880,24390992,1.026223530441037,0.219564336674968,1.0,128,0,1,1,13.487461431082055,0.5191532563823401,0.0545997647812849,14.875548158333332
128,2048,6.198037588816457,21695,6661,34312192,14858968,1.0197205109009382,0.2260786678456116,1.0,128,0,1,1,12.408812203264434,0.5436712408230872,0.057474864508238,14.875548158333332
128,256,8.181835869906186,10767,402,25120768,20832792,1.047207647840413,0.1977704226635437,1.0,128,0,1,1,14.228439815223114,0.8582726710358054,0.0139371570032548,14.875548158333332
128,512,27.573555971765558,18484,2792,25382912,20786184,0.7072477282260049,0.223033188896896,0.41587994724068145,128,0,1,1,35.76885170114834,0.8591996991254982,0.0180480211911312,14.875548158333332
1536,1024,8.813461271526577,21293,7499,25530368,14701672,0.9011268619024284,0.2294917502070592,0.8589263447093738,1536,0,1,1,17.318770404424633,0.6876415213943038,0.071600482059127,14.875548158333332
1536,128,19.18376324935438,9095,3442,24596480,21195456,0.6957260696536782,0.2490902537092965,0.5747312846630512,1536,0,1,1,25.882614284786058,0.8718467435417647,0.013931028381285,14.875548158333332
1536,1536,10.415506777041696,22264,7159,34836480,14822552,1.0167289328048734,0.231049521629491,1.0,1536,0,1,1,14.743126775431989,0.5242677106678543,0.0577963184288814,14.875548158333332
1536,2048,5.449708004229872,11392,6951,39022592,24416992,1.081216696001313,0.2306573227448189,1.0,1536,0,1,1,9.763033138898534,0.5501008129558803,0.0609221241067182,14.875548158333332
1536,256,7.875020707544528,5927,4338,25382912,20901616,0.9069575947679684,0.2078530575848834,0.9492782026517174,1536,0,1,1,15.670377890043108,0.8612744116677125,0.0158091414163756,14.875548158333332
1536,512,16.404111702269255,9969,354,25120768,21530152,0.8176726070549873,0.2439493754709268,0.7096960989260005,1536,0,1,1,20.960447973216766,0.8655586787122405,0.0149029776496242,14.875548158333332
2048,1024,11.950760460063774,8621,127,30502912,24757488,0.9511821013977987,0.3029117475608935,0.8803428841185972,2048,0,1,1,16.89744805880585,0.6749342026987095,0.0844319905670925,14.875548158333332
2048,128,9.509179451409238,15119,31,24334336,20912688,0.7637651078047282,0.2728711010047668,0.797982840962209,2048,0,1,1,18.64143863093143,0.8707900083685358,0.0139296252595306,14.875548158333332
2048,1536,5.876700934980221,20972,4124,34836480,14835368,1.021256571593964,0.182086330447594,1.0,2048,0,1,1,11.588184333987893,0.5321076634148848,0.0672087316793583,14.875548158333332
2048,2048,6.514999159527684,21660,5725,34836480,14851688,1.082705629996431,0.2489193688221107,1.0,2048,0,1,1,10.101271830094635,0.5364527759406231,0.0584458554186883,14.875548158333332
2048,256,6.001797895574321,20699,4764,25382912,20800432,1.0650517141544926,0.2333208510068232,1.0,2048,0,1,1,10.513496858480407,0.8646012974642654,0.0165474024558771,14.875548158333332
2048,512,12.398043411434578,8010,4027,25382912,20816696,0.8227963697871328,0.2511224022150838,0.8950931976490704,2048,0,1,1,16.6189936393254,0.8593991017400053,0.0191315191650744,14.875548158333332
256,1024,10.46461525850136,25562,882,25792512,14719856,0.8665938147699214,0.1725964456271526,0.6698101662548085,256,0,1,1,22.20860313528653,0.6619636975625636,0.0712038150160075,14.875548158333332
256,128,18.00208195498099,13549,29,25120768,21050776,0.84830022674497,0.2631806952216982,0.6097128867629069,256,0,1,1,24.397627934864104,0.8646499478537152,0.0153430078691518,14.875548158333332
256,1536,6.669824979924452,22518,5250,34312192,14874904,1.0170082467596466,0.1883995325948683,0.9472951047120538,256,0,1,1,15.703182761463761,0.5304536609746788,0.0580092228307109,14.875548158333332
256,2048,10.254679174726066,8488,95,39022592,24380864,1.053630433050491,0.2603702679559075,1.0,256,0,1,1,12.391523959217672,0.5374124447341776,0.0592560807683819,14.875548158333332
256,256,10.714253522941217,8895,4132,25120768,20880168,0.9149160247296093,0.185429413143352,0.774460558728965,256,0,1,1,19.207625218186575,0.8658328919276629,0.0143296825665895,14.875548158333332
256,512,11.357542187155955,11589,21,25120768,20939320,0.7779653546533445,0.267741787801988,0.7202724517508752,256,0,1,1,20.652668475898373,0.8598522877275003,0.0192617066881676,14.875548158333332
512,1024,13.658678824220315,3978,7936,30765056,24501944,0.8359550677492318,0.2298444347722869,0.63879661388473,512,0,1,1,23.286830009743298,0.6780997718563371,0.0824224807249118,14.875548158333332
512,128,13.28032996686376,10325,3108,24334336,20932464,0.6516938322769315,0.1833541126957159,0.6272887235456557,512,0,1,1,23.714037252656993,0.8681452438272832,0.0145959481006221,14.875548158333332
512,1536,3.931844380606314,8783,4217,39546880,24340384,1.0681661506661293,0.1205725120560193,1.0,512,0,1,1,11.442773504549905,0.6009938283539534,0.0953184424025859,14.875548158333332
512,2048,6.257685705254843,13080,2689,39284736,24318488,1.0365278467540875,0.1673779556025856,1.0,512,0,1,1,12.398791470957402,0.5546026304034626,0.0600777931296546,14.875548158333332
512,256,10.401375455863084,17748,8316,25382912,20832024,1.0185578609380812,0.1453451006044779,0.9574121433647945,512,0,1,1,15.537246170759534,0.8651778177225063,0.0178008412263991,14.875548158333332
512,512,6.033992160279695,13582,12159,25382912,20776152,0.9315385553769893,0.2578003899741371,1.0,512,0,1,1,13.458347181937306,0.8644724941905964,0.0164389595422283,14.875548158333332
