cpu,memory,duration_std,userDiff,sysDiff,heapTotal,heapUsed,avg_cpu_util,cpu_util_std,slo_preservation,total_cpu_shares,cpu_shares_others,num_containers,arrival_rate,latency,memory_util,memory_util_std,slo_duration
1024,1024,141.41653425379644,44904,11327,31285248,21574752,0.3724149761573245,0.1080292316935699,1.0,1024,0,1,1,411.5709819233428,0.7521047239639506,0.0465521175393724,481.9934361271188
1024,128,289.2060701984108,98824,31300,27320320,23184800,0.31438391517312564,0.0770855988870719,0.6331735297033039,1024,0,1,1,761.2343433765686,0.8911712752066523,0.0190963742070139,481.9934361271188
1024,1536,169.33913925211397,173647,35679,66871296,47015232,0.4424930253581595,0.2230030484894546,1.0,1024,0,1,1,477.696563592399,0.6791193448224347,0.0578999804786674,481.9934361271188
1024,2048,136.23741465599915,119468,32054,66871296,47135824,0.40568869905270144,0.1476558898175733,1.0,1024,0,1,1,422.9092805668229,0.66588821252328,0.0408772832172592,481.9934361271188
1024,256,346.2522409996025,197887,60436,37212160,33434576,0.2989231660217566,0.0964914794639391,0.6082722091603232,1024,0,1,1,792.3975957942854,0.8804585200958023,0.0340735025629862,481.9934361271188
1024,512,196.0251984045244,178210,54047,37212160,32971200,0.35634973356557986,0.1139168652496196,0.795942788717433,1024,0,1,1,605.5629160279143,0.8815769727399818,0.0366141215341486,481.9934361271188
128,1024,134.49894265174748,48933,20100,40804352,29991488,0.43279724152008764,0.1772667369902492,1.0,128,0,1,1,460.8626917145227,0.7616453746785127,0.0414771827047397,481.9934361271188
128,128,396.7875713526461,83152,12781,41533440,37922440,0.30180832887588976,0.1298588202579135,0.6434800326635762,128,0,1,1,749.0417909814371,0.8732987412885045,0.0455236176595287,481.9934361271188
128,1536,155.10332641307073,71499,32911,54386688,34651240,0.34820202293433705,0.1960294815881129,1.0,128,0,1,1,474.3053659358213,0.6571582193754306,0.0405319648720743,481.9934361271188
128,2048,139.93004039591136,68062,24181,54386688,34668992,0.33198269666192526,0.1452380583748341,1.0,128,0,1,1,394.92921104060935,0.6546326383426793,0.0376342777503617,481.9934361271188
128,256,198.68731864915804,188973,43224,18841600,14271536,0.2713849101545639,0.0973925332559741,0.7013390142289148,128,0,1,1,687.2474314822556,0.8675352255507998,0.0519580381603747,481.9934361271188
128,512,220.75744515030604,27892,17853,31752192,28232120,0.3833369522496184,0.081484106346935,0.7260136505832399,128,0,1,1,663.8903218140754,0.8880201514175511,0.0359806922437986,481.9934361271188
1536,1024,127.30609276438378,39143,15802,38658048,30016712,0.4385678494437418,0.1869528371485153,1.0,1536,0,1,1,459.38516313792,0.7859794974783731,0.035628213717016,481.9934361271188
1536,128,187.20622249582277,100426,23758,27582464,23185752,0.3819781357309395,0.1250612496741282,0.885257755468903,1536,0,1,1,544.4667760880748,0.8776884241841743,0.0355317030042566,481.9934361271188
1536,1536,117.21530793647604,73688,35429,52043776,34060808,0.3735419326034299,0.1365865604702116,1.0,1536,0,1,1,464.41734684120735,0.6680213904473324,0.0436587253286276,481.9934361271188
1536,2048,167.52037001873757,31518,10892,44306432,27333360,0.38945534095607154,0.1385791963244536,1.0,1536,0,1,1,399.76965116628514,0.6686848439123523,0.0522697031674931,481.9934361271188
1536,256,280.39121252831507,97230,36134,27058176,23429416,0.30440155397723906,0.111841171778765,0.6304319174817923,1536,0,1,1,764.544787092001,0.8797981040187555,0.0375179971606836,481.9934361271188
1536,512,190.82837483425357,38328,7421,31752192,28230528,0.3961384477052072,0.09016046224147,0.7691886921899621,1536,0,1,1,626.6257434893279,0.8691946262210184,0.0522105340198844,481.9934361271188
2048,1024,125.44225845893266,91652,41264,50335744,38994416,0.39727789915426565,0.1514863937619043,0.9563621213530584,2048,0,1,1,503.98633045524207,0.777675698390746,0.0349154110495331,481.9934361271188
2048,128,177.22356960090065,112883,32448,30179328,25981344,0.31475704430270623,0.1267636277328925,0.7707616941142647,2048,0,1,1,625.3469000960285,0.8772630350470602,0.0313952819785606,481.9934361271188
2048,1536,125.93161137379612,86940,17315,52043776,34051440,0.4310172684333706,0.2083971311344414,1.0,2048,0,1,1,454.5555232237314,0.6750911055249647,0.0506837616374086,481.9934361271188
2048,2048,172.47959401896722,105473,25321,54386688,34578960,0.4166915855315577,0.2122020690420694,1.0,2048,0,1,1,459.30126511593653,0.653239048258206,0.0506674512679868,481.9934361271188
2048,256,268.60443659580585,45434,1725,32149504,28399488,0.3625877437238278,0.1433088580281319,0.8415900733352956,2048,0,1,1,572.7175870990687,0.8722660438087904,0.0467568935807599,481.9934361271188
2048,512,191.59673248315855,176774,52310,37212160,33187568,0.4235706434772259,0.0919399135928773,0.7483403014980438,2048,0,1,1,644.0832267916801,0.876941372668333,0.0323383389971483,481.9934361271188
256,1024,135.8402863921028,185472,37664,25792512,14458280,0.38142056927106416,0.1717670858503858,0.968812786612212,256,0,1,1,497.50936691553693,0.7592867482476768,0.0646801713094661,481.9934361271188
256,128,291.0024829605135,127682,25349,30179328,25905544,0.3346256410724622,0.0954381939867215,0.6412397253286016,256,0,1,1,751.6587277560237,0.8857452184343243,0.0206979528901438,481.9934361271188
256,1536,124.82212862820786,19694,12700,42205184,27445744,0.33480400487642176,0.1512600721374106,1.0,256,0,1,1,433.6032261283719,0.6539863322244642,0.042038597911819,481.9934361271188
256,2048,138.82301616846468,101478,48451,66609152,47136728,0.37202471986759195,0.1979175983053247,1.0,256,0,1,1,382.86248969180025,0.6764518276239605,0.0722667909476116,481.9934361271188
256,256,374.31528167681546,180192,52228,37212160,33232800,0.3174977189739958,0.1620802185909816,0.5763430992154578,256,0,1,1,836.2960132310568,0.8546872348488239,0.0427874282726296,481.9934361271188
256,512,204.2201574404688,84235,25023,41668608,38057704,0.4111768753473784,0.1869381192943115,0.8609007527074262,256,0,1,1,559.8710822488065,0.8802858684257794,0.0303056852583624,481.9934361271188
512,1024,143.94765117068042,45116,3596,37871616,30024752,0.4203133794023462,0.1841199636138249,1.0,512,0,1,1,426.0035357493917,0.7507363611320104,0.0603563283511534,481.9934361271188
512,128,224.8268177217036,99073,32330,36589568,32198592,0.3359900500656007,0.134898348350252,0.8150484739096181,512,0,1,1,591.3678162172324,0.8754369094709027,0.045846307253669,481.9934361271188
512,1536,141.76307425696373,49086,823,44044288,27433008,0.4143259984316949,0.1782474555712914,1.0,512,0,1,1,461.7798057202063,0.6692649332648279,0.0523452923628624,481.9934361271188
512,2048,125.72413135186558,76207,14629,51781632,34055496,0.31027725934205774,0.1222349245894596,1.0,512,0,1,1,443.3462618189054,0.6870578093822776,0.0538055001508484,481.9934361271188
512,256,319.7728857657951,105843,21267,36327424,32358752,0.28615483898917726,0.1198131146545256,0.6550306233839702,512,0,1,1,735.8334388048613,0.8715614497920147,0.0395408922486375,481.9934361271188
512,512,180.51719187078209,184147,61869,36950016,33672480,0.4012786719526926,0.1825436838411815,0.7581630147693517,512,0,1,1,635.7385242192945,0.8843126004787951,0.0383101799468853,481.9934361271188
