cpu,memory,duration_std,userDiff,sysDiff,heapTotal,heapUsed,avg_cpu_util,cpu_util_std,slo_preservation,total_cpu_shares,cpu_shares_others,num_containers,arrival_rate,latency,memory_util,memory_util_std,slo_duration
1024,1024,83.67170218420661,387711,55586,53596160,44564160,1.053497684780129,0.1820015051451487,0.45786667293593936,1024,0,1,1,613.8521904883369,0.7523994404157499,0.1004033154997881,281.0624601333333
1024,128,137.8411746914853,471571,42550,33005568,29628832,1.0432773674584173,0.2300956451506249,0.3448412275852696,1024,0,1,1,815.0488910547518,0.8770986668012684,0.0795244459808353,281.0624601333333
1024,1536,58.66348672029429,424270,54164,58707968,45565792,1.147165699089157,0.2115317369936649,0.6429362388064672,1024,0,1,1,437.1544846423519,0.7198253824112882,0.1478737178504143,281.0624601333333
1024,2048,40.87026051457271,342959,54920,58970112,45021128,1.3653369287565387,0.1935449357444443,0.9585357417504873,1024,0,1,1,293.22063632186973,0.7327498113440709,0.1398240803040021,281.0624601333333
1024,256,77.26719273144674,473416,39603,36151296,29537096,1.036238008805173,0.1335476159392299,0.3809569465228335,1024,0,1,1,737.7801158338693,0.8763247576338788,0.0674069124971461,281.0624601333333
1024,512,49.33270722628478,407284,36279,39034880,29711976,1.0209198386472105,0.1131125200941475,0.37086604449489624,1024,0,1,1,757.854390568779,0.8914927021635268,0.0564646664101304,281.0624601333333
128,1024,145.216043606121,471479,36325,40480768,30099072,1.0211423229194836,0.2729634132578091,0.37946164721112,128,0,1,1,740.6873980520074,0.7357403615770871,0.1013604076466442,281.0624601333333
128,128,145.74180025309326,381850,59431,32481280,29876752,0.9584960509602614,0.2051195696750792,0.3069120975850292,128,0,1,1,915.7751106746963,0.8665162299703677,0.0992071061628536,281.0624601333333
128,1536,52.505431587133145,324408,28213,44806144,30215464,1.1967757421849834,0.2504766701190158,0.6303468563906145,128,0,1,1,445.8853998934897,0.6959256205083497,0.1426463865503715,281.0624601333333
128,2048,40.7934258603808,316428,51935,59232256,45432264,1.3794127150586986,0.3722678907522329,0.8974546263950672,128,0,1,1,313.17734832157095,0.7391556463643525,0.1471404798136556,281.0624601333333
128,256,49.89239027622062,385294,52988,37724160,29901720,1.1811642369646773,0.1856810194794257,0.4737285150918727,128,0,1,1,593.2985901826605,0.8465062090273199,0.0831879859492546,281.0624601333333
128,512,88.61912882346174,453623,51748,46907392,44597424,1.060059498779778,0.1868805566386834,0.3842365289326523,128,0,1,1,731.4829251505053,0.8942352096791316,0.0511080538844791,281.0624601333333
1536,1024,70.35273997515637,410840,62312,48607232,30032288,1.0416557941956712,0.1675133414701657,0.45359985046728557,1536,0,1,1,619.6264391264476,0.7598969771800881,0.0973012810054108,281.0624601333333
1536,128,241.52780635034864,394095,71032,33267712,29962896,0.9606990729258608,0.2607651197921228,0.31365693523815286,1536,0,1,1,896.0824026413721,0.8918154235160962,0.0631744865074984,281.0624601333333
1536,1536,56.46737899448245,254393,50574,45068288,30215048,1.1937060840552336,0.2360730503437133,0.6314002039525014,1536,0,1,1,445.14154156731456,0.6916282330865442,0.1553497116085608,281.0624601333333
1536,2048,33.90796579507063,339608,38947,58970112,44952672,1.3244694516621314,0.3628099617208507,0.8324976133901693,1536,0,1,1,337.6135325947257,0.662805433837195,0.1477622676458448,281.0624601333333
1536,256,82.73452236453845,452541,37083,47431680,44243568,1.0528091424813815,0.139834022515727,0.37986852633328466,1536,0,1,1,739.894043990204,0.8569263289788953,0.074105587058447,281.0624601333333
1536,512,61.279881436873545,454537,67892,33267712,29589176,1.0705317089131645,0.1320662027819215,0.3996853519166721,1536,0,1,1,703.2093089864605,0.8765713456725986,0.0654108142795426,281.0624601333333
2048,1024,91.30596552365697,381348,35668,36548608,30253240,1.0426273142147255,0.1879337502508195,0.45526072957674946,2048,0,1,1,617.3659221489052,0.7881354678064959,0.1156707609726673,281.0624601333333
2048,128,142.54250787232974,468713,69497,38248448,30293904,0.9461280956536127,0.244232461997012,0.29482446119275585,2048,0,1,1,953.3213729832784,0.8883887583056136,0.0687824614136392,281.0624601333333
2048,1536,63.329068222954064,280388,69951,59232256,44568416,1.238245251005273,0.1936218835164699,0.6711695673827136,2048,0,1,1,418.7652030013246,0.751867561176696,0.1245270080514674,281.0624601333333
2048,2048,36.62448790550423,288602,64123,59494400,44888912,1.3117617879709267,0.2635025591211566,0.810068710261919,2048,0,1,1,346.9612596719821,0.7205739023702429,0.1466996988361186,281.0624601333333
2048,256,44.82832840968263,391504,56956,43229184,30156056,1.1701650116921032,0.1475561537516673,0.453694651507141,2048,0,1,1,619.4969660754518,0.8824215097156312,0.0815397887585962,281.0624601333333
2048,512,56.045859855459696,383028,40573,39297024,29681224,1.0344218519154915,0.1013236880857459,0.3756736198371097,2048,0,1,1,748.1559664881464,0.8647122992614609,0.0876755273377489,281.0624601333333
256,1024,75.07162983662083,413438,54535,39956480,30239536,1.0240085201020404,0.1412570601459737,0.42851772636738505,256,0,1,1,655.8945939435126,0.7717756022882453,0.1116067896898295,281.0624601333333
256,128,143.83339108068918,419997,69596,47431680,44310088,0.9391737035778834,0.2199429917986699,0.3089789117010308,256,0,1,1,909.6493303895459,0.9137582182934298,0.0361835332516811,281.0624601333333
256,1536,66.34226565468856,338450,51788,45330432,30561728,1.175140795002013,0.1865646861678359,0.7200352638431101,256,0,1,1,390.3454097972825,0.771817368387105,0.1277982636091523,281.0624601333333
256,2048,40.70618271298457,325901,43076,60018688,45387816,1.3271138666757076,0.3442932444691683,0.9108245763848151,256,0,1,1,308.58023314314585,0.6591249643589112,0.1570619495483787,281.0624601333333
256,256,68.22015188032859,416503,50565,35889152,29754352,1.1633787493406749,0.1434542122287696,0.4827577399065469,256,0,1,1,582.2018724914526,0.8709772814545085,0.0904204384499862,281.0624601333333
256,512,44.67006719793794,332317,65304,32743424,29998808,1.1921186452306691,0.1617829850139496,0.49789539776328096,256,0,1,1,564.5010204873623,0.86517154288277,0.0706415383489281,281.0624601333333
512,1024,53.860327750307945,355684,67618,41267200,30362136,1.0340158603939527,0.1413154778221624,0.4507082600089238,512,0,1,1,623.6017510035614,0.7675875232047709,0.112467796236329,281.0624601333333
512,128,292.5244170626686,410630,63550,47431680,44253496,1.02342920305291,0.3371050132434538,0.32388947984692806,512,0,1,1,867.7727361387746,0.8930578003639417,0.0633014969334715,281.0624601333333
512,1536,68.11196229717879,343557,50866,59756544,45479440,1.2191522406182846,0.1918667160466584,0.6783014565472956,512,0,1,1,414.3621651116649,0.7517248557458127,0.132749381363738,281.0624601333333
512,2048,41.67558772802127,328340,48219,59494400,45314280,1.3383839187796642,0.3165609204594573,0.8827878174238798,512,0,1,1,318.38053786641484,0.6468901626655565,0.1575316591228888,281.0624601333333
512,256,90.17169969780912,397027,61187,32481280,29778688,1.1091627072590113,0.3470123753380731,0.40717137655073726,512,0,1,1,690.2804969108881,0.8778579822136457,0.0782742909911447,281.0624601333333
512,512,73.85261278164448,367633,38570,33267712,29708416,1.051441732632717,0.1778126836037732,0.388776037314089,512,0,1,1,722.941830661917,0.8794394279230925,0.0848933011353271,281.0624601333333
