cpu,memory,duration_std,userDiff,sysDiff,heapTotal,heapUsed,avg_cpu_util,cpu_util_std,slo_preservation,total_cpu_shares,cpu_shares_others,num_containers,arrival_rate,latency,memory_util,memory_util_std,slo_duration
1024,1024,83.67170218420661,387711,55586,53596160,44564160,1.072625342262644,0.1820015051451487,0.6215731385254627,1024,0,1,1,452.17922511916845,0.7523994404157499,0.1004033154997881,281.0624601333333
1024,128,137.8411746914853,471571,42550,33005568,29628832,1.058547754168224,0.2300956451506249,0.4665181965869364,1024,0,1,1,602.468375702376,0.8770986668012684,0.0795244459808353,281.0624601333333
1024,1536,58.66348672029429,424270,54164,58707968,45565792,1.2063431430870983,0.2115317369936649,0.9014701465152642,1024,0,1,1,311.78232714617593,0.7198253824112882,0.1478737178504143,281.0624601333333
1024,2048,40.87026051457271,342959,54920,58970112,45021128,1.5546620860087634,0.1935449357444443,1.0,1024,0,1,1,193.13439556093488,0.7327498113440709,0.1398240803040021,281.0624601333333
1024,256,77.26719273144674,473416,39603,36151296,29537096,1.0489081227343275,0.1335476159392299,0.5141532250627892,1024,0,1,1,546.6511662919347,0.8763247576338788,0.0674069124971461,281.0624601333333
1024,512,49.33270722628478,407284,36279,39034880,29711976,1.0280889905798452,0.1131125200941475,0.4979604769365955,1024,0,1,1,564.4272450343896,0.8914927021635268,0.0564646664101304,281.0624601333333
128,1024,145.216043606121,471479,36325,40480768,30099072,1.0283898396115445,0.2729634132578091,0.5095398147158454,128,0,1,1,551.6005855010037,0.7357403615770871,0.1013604076466442,281.0624601333333
128,128,145.74180025309326,381850,59431,32481280,29876752,0.9454165442687098,0.2051195696750792,0.40363202248272895,128,0,1,1,696.3334038873481,0.8665162299703677,0.0992071061628536,281.0624601333333
128,1536,52.505431587133145,324408,28213,44806144,30215464,1.2807848735418137,0.2504766701190158,0.8994597626405255,128,0,1,1,312.4791922967449,0.6959256205083497,0.1426463865503715,281.0624601333333
128,2048,40.7934258603808,316428,51935,59232256,45432264,1.5791262397385815,0.3722678907522329,1.0,128,0,1,1,205.17714423578548,0.7391556463643525,0.1471404798136556,281.0624601333333
128,256,49.89239027622062,385294,52988,37724160,29901720,1.2570766829914202,0.1856810194794257,0.6722328718885868,128,0,1,1,418.10282104133023,0.8465062090273199,0.0831879859492546,281.0624601333333
128,512,88.61912882346174,453623,51748,46907392,44597424,1.0817152575092597,0.1868805566386834,0.5227813675456017,128,0,1,1,537.6290694002527,0.8942352096791316,0.0511080538844791,281.0624601333333
1536,1024,70.35273997515637,410840,62312,48607232,30032288,1.0563231203643466,0.1675133414701657,0.6133158536147536,1536,0,1,1,458.2670714882238,0.7598969771800881,0.0973012810054108,281.0624601333333
1536,128,241.52780635034864,394095,71032,33267712,29962896,0.9482763595746038,0.2607651197921228,0.4128014208058072,1536,0,1,1,680.866019270686,0.8918154235160962,0.0631744865074984,281.0624601333333
1536,1536,56.46737899448245,254393,50574,45068288,30215048,1.2761023468776906,0.2360730503437133,0.8999772979801145,1536,0,1,1,312.2994999586573,0.6916282330865442,0.1553497116085608,281.0624601333333
1536,2048,33.90796579507063,339608,38947,58970112,44952672,1.4850917540279294,0.3628099617208507,1.0,1536,0,1,1,225.82382999736288,0.662805433837195,0.1477622676458448,281.0624601333333
1536,256,82.73452236453845,452541,37083,47431680,44243568,1.0716738684862017,0.139834022515727,0.5155669173771992,1536,0,1,1,545.152240495102,0.8569263289788953,0.074105587058447,281.0624601333333
1536,512,61.279881436873545,454537,67892,33267712,29589176,1.0963064992070588,0.1320662027819215,0.5457445682313747,1536,0,1,1,515.0073431682302,0.8765713456725986,0.0654108142795426,281.0624601333333
2048,1024,91.30596552365697,381348,35668,36548608,30253240,1.057655654181991,0.1879337502508195,0.6157637578313719,2048,0,1,1,456.4452788244526,0.7881354678064959,0.1156707609726673,281.0624601333333
2048,128,142.54250787232974,468713,69497,38248448,30293904,0.9294378991211587,0.244232461997012,0.3861648037995967,2048,0,1,1,727.8303391916392,0.8883887583056136,0.0687824614136392,281.0624601333333
2048,1536,63.329068222954064,280388,69951,59232256,44568416,1.3450635884189117,0.1936218835164699,0.9720914829631673,2048,0,1,1,289.13169702566233,0.751867561176696,0.1245270080514674,281.0624601333333
2048,2048,36.62448790550423,288602,64123,59494400,44888912,1.46389012190346,0.2635025591211566,1.0,2048,0,1,1,233.17862908599108,0.7205739023702429,0.1466996988361186,281.0624601333333
2048,256,44.82832840968263,391504,56956,43229184,30156056,1.2405299424103222,0.1475561537516673,0.6413019181424827,2048,0,1,1,438.2685474377259,0.8824215097156312,0.0815397887585962,281.0624601333333
2048,512,56.045859855459696,383028,40573,39297024,29681224,1.046428521113463,0.1013236880857459,0.5067121499796057,2048,0,1,1,554.6787463940732,0.8647122992614609,0.0876755273377489,281.0624601333333
256,1024,75.07162983662083,413438,54535,39956480,30239536,1.0322696086520566,0.1412570601459737,0.575966334933295,256,0,1,1,487.98418082175635,0.7717756022882453,0.1116067896898295,281.0624601333333
256,128,143.83339108068918,419997,69596,47431680,44310088,0.9205099662228882,0.2199429917986699,0.40378496755886434,256,0,1,1,696.069647744773,0.9137582182934298,0.0361835332516811,281.0624601333333
256,1536,66.34226565468856,338450,51788,45330432,30561728,1.2479993263977736,0.1865646861678359,1.0,256,0,1,1,275.6677059986413,0.771817368387105,0.1277982636091523,281.0624601333333
256,2048,40.70618271298457,325901,43076,60018688,45387816,1.4895290713620835,0.3442932444691683,1.0,256,0,1,1,206.19995654657293,0.6591249643589112,0.1570619495483787,281.0624601333333
256,256,68.22015188032859,416503,50565,35889152,29754352,1.2303850037120045,0.1434542122287696,0.6807503677755188,256,0,1,1,412.87155092072635,0.8709772814545085,0.0904204384499862,281.0624601333333
256,512,44.67006719793794,332317,65304,32743424,29998808,1.2736848476939326,0.1617829850139496,0.7092826723858259,256,0,1,1,396.2629725436811,0.86517154288277,0.0706415383489281,281.0624601333333
512,1024,53.860327750307945,355684,67618,41267200,30362136,1.0458746355919095,0.1413154778221624,0.6078363724072893,512,0,1,1,462.39822572678065,0.7675875232047709,0.112467796236329,281.0624601333333
512,128,292.5244170626686,410630,63550,47431680,44253496,1.031484825527335,0.3371050132434538,0.43525184105027737,512,0,1,1,645.7467461943874,0.8930578003639417,0.0633014969334715,281.0624601333333
512,1536,68.11196229717879,343557,50866,59756544,45479440,1.315230835458623,0.1918667160466584,0.9756757870097957,512,0,1,1,288.06952460583244,0.7517248557458127,0.132749381363738,281.0624601333333
512,2048,41.67558772802127,328340,48219,59494400,45314280,1.5085390356140578,0.3165609204594573,1.0,512,0,1,1,211.85168988320743,0.6468901626655565,0.1575316591228888,281.0624601333333
512,256,90.17169969780912,397027,61187,32481280,29778688,1.1510464909707971,0.3470123753380731,0.5633957712848957,512,0,1,1,498.87215073044405,0.8778579822136457,0.0782742909911447,281.0624601333333
512,512,73.85261278164448,367633,38570,33267712,29708416,1.0697856077012828,0.1778126836037732,0.5274117070933387,512,0,1,1,532.9090279059585,0.8794394279230925,0.0848933011353271,281.0624601333333
