cpu,memory,duration_std,userDiff,sysDiff,heapTotal,heapUsed,avg_cpu_util,cpu_util_std,slo_preservation,total_cpu_shares,cpu_shares_others,num_containers,arrival_rate,latency,memory_util,memory_util_std,slo_duration
1024,1024,60.16622256966539,231026,33552,67162112,56862784,1.264282320380824,0.5019534180145616,0.5510507752959425,1024,0,1,1,381.68393974894616,0.7865202625352209,0.0965836973182025,210.3272309166666
1024,128,81.835307922526,384883,54835,38686720,33914168,1.0624847287435055,0.1306400842299973,0.27242417069747216,1024,0,1,1,772.0578918462987,0.8813100674212805,0.0396820065927691,210.3272309166666
1024,1536,28.52323185200216,217790,52058,56893440,43056680,1.2596858329115497,0.2195104955645686,0.613941546425671,1024,0,1,1,342.5851078839321,0.6981871263859619,0.0931754642325518,210.3272309166666
1024,2048,28.93524752188861,320580,43431,60329984,40752472,1.256369409945677,0.2844749616478889,0.5914636222482841,1024,0,1,1,355.60467796339907,0.6919582366894789,0.0967017099987408,210.3272309166666
1024,256,46.28637121679088,336434,75220,38686720,33596184,1.1277446615244713,0.0944909412202957,0.33505040253597324,1024,0,1,1,627.7480323101073,0.8901771440852396,0.0378623317153715,210.3272309166666
1024,512,56.97139288060529,409579,57177,51957760,46319104,1.1578475079031532,0.1697833507698128,0.33777692572236145,1024,0,1,1,622.6808727886487,0.8683607094996901,0.0532413984111346,210.3272309166666
128,1024,33.19208229617136,306256,60449,63975424,54121960,1.2703263645608789,0.2355293348989677,0.535680985090319,128,0,1,1,392.63523770813737,0.7617846777984428,0.1167025430151228,210.3272309166666
128,128,97.51651408980098,390687,88396,38522880,34539896,0.9935780919746282,0.1113004620620275,0.27398935741689023,128,0,1,1,767.6474476949916,0.9063536741286222,0.0343221339366761,210.3272309166666
128,1536,45.80396304409784,368177,64892,83394560,62402400,1.2637851488322538,0.2578459971090873,0.5976132462907311,128,0,1,1,351.94539649535335,0.6827525250471084,0.1086356140145445,210.3272309166666
128,2048,57.32412042286725,300593,44778,57679872,42471656,1.2391959552911849,0.2881179176210377,0.6042437938311981,128,0,1,1,348.08339458993885,0.7435866895498976,0.1013413360041605,210.3272309166666
128,256,83.14430007115122,262503,36886,40828928,37226696,1.1575271923004744,0.196944103812783,0.37398709741937075,128,0,1,1,562.3916770604949,0.8849330259826116,0.0592813940083984,210.3272309166666
128,512,58.35508627735445,286113,91515,50483200,47162328,1.1412187835680307,0.1958682875597608,0.3682862862998215,128,0,1,1,571.0971022837364,0.8544600780605645,0.0610223019314846,210.3272309166666
1536,1024,32.09506793886566,324292,48344,55230464,45143520,1.266339161251862,0.2593716277568046,0.5386994040396371,1536,0,1,1,390.43523965211375,0.8167136626392357,0.0615509339316683,210.3272309166666
1536,128,81.53356866951756,287520,24560,40624128,37528448,1.0240923693498039,0.1596966194331562,0.30346242899343057,1536,0,1,1,693.0915026756733,0.853907639553009,0.066290187207816,210.3272309166666
1536,1536,26.63819441794767,261425,35551,59514880,42669104,1.2826582019787585,0.3133536892437318,0.6142999864172175,1536,0,1,1,342.3852117323953,0.7204681919825656,0.0875507570670178,210.3272309166666
1536,2048,34.41763778215769,261878,59852,61116416,40697600,1.254467927026976,0.2396397343152732,0.5967164128009507,1536,0,1,1,352.47435197802474,0.6972248957092585,0.1124990225929345,210.3272309166666
1536,256,57.309357239198526,302643,63353,29679616,24630000,1.159690266762743,0.1588295103431392,0.37173036745665444,1536,0,1,1,565.8058887028964,0.8795391793998008,0.0586461284158271,210.3272309166666
1536,512,60.43290179144227,312566,23365,40886272,37625664,1.0993361620008109,0.101218576078427,0.36699842929850285,1536,0,1,1,573.1011746254485,0.878889833816791,0.0486600353821626,210.3272309166666
2048,1024,26.496465617371108,269941,39095,65523712,55721704,1.2644611211068981,0.1824002064302342,0.5583009891501789,2048,0,1,1,376.72731197703484,0.7998408672853867,0.0953746397876907,210.3272309166666
2048,128,116.91019828889846,285899,85784,50405376,47188888,1.0100288811560876,0.2276392846267861,0.278131413175003,2048,0,1,1,756.2153031032371,0.886561757610972,0.0606538662168309,210.3272309166666
2048,1536,29.493670546918047,220299,58012,59019264,40726656,1.2343862522501083,0.2213969816560185,0.6315812369127638,2048,0,1,1,333.0169083945059,0.6697031307932003,0.095640736078788,210.3272309166666
2048,2048,32.07022723283191,327963,49212,70123520,49750680,1.2462230270473933,0.1440710280550172,0.5766834576587981,2048,0,1,1,364.7186825343433,0.6747742471556917,0.085836732497911,210.3272309166666
2048,256,49.690845426294,278776,29508,41148416,37641776,1.1938474673987411,0.1544757958901985,0.37803427765972797,2048,0,1,1,556.3707931955948,0.8603434026916649,0.0641712294561855,210.3272309166666
2048,512,50.18166546003022,304251,62171,38948864,33482632,1.0977716400479967,0.0988394069411592,0.3650701302449933,2048,0,1,1,576.1282928721641,0.8708783279841541,0.0455460963261246,210.3272309166666
256,1024,33.83668196567466,299828,53973,64237568,54000632,1.2687885479327472,0.2052608300982504,0.5500941944568429,256,0,1,1,382.3476652472972,0.7913066584673712,0.0699582651209918,210.3272309166666
256,128,76.89794716554451,410637,59074,41779200,37028696,1.0105561638173968,0.2097005431703753,0.3096907941422483,256,0,1,1,679.1523509738502,0.8899671985227876,0.0484080020343927,210.3272309166666
256,1536,30.29398604265952,279205,49979,59252736,44224712,1.23817209287976,0.2205318899753304,0.5857684531014223,256,0,1,1,359.0620659119887,0.6724041648317172,0.094790655476286,210.3272309166666
256,2048,27.90633206438633,306083,18516,76394496,63716016,1.2753675132418598,0.3112060618247984,0.5847719025268876,256,0,1,1,359.67396861547365,0.7032618132894485,0.1101213374335839,210.3272309166666
256,256,96.38980221686128,437715,70426,51171328,46317832,1.075875324424042,0.2791563128887283,0.3058154924617516,256,0,1,1,687.7585867987779,0.884423830716085,0.04579866293229,210.3272309166666
256,512,64.04321598194115,372255,46361,51433472,46325968,1.1436734247963705,0.1747990150780224,0.34472008764264434,256,0,1,1,610.1391780066593,0.8941535448632436,0.04525814447691,210.3272309166666
512,1024,29.38963681029552,289907,43868,44924928,36884264,1.2971337845581654,0.2629540378315703,0.535760675672226,512,0,1,1,392.5768360150103,0.7961737001583674,0.0785430934390185,210.3272309166666
512,128,68.69809226727067,328679,34777,40439808,37411504,1.0047455539494479,0.1364310184942917,0.289616866789363,512,0,1,1,726.2257659518035,0.8807007829471136,0.0517555442641749,210.3272309166666
512,1536,42.93026675202533,304309,97418,87674880,67409800,1.2884078361179416,0.2474545806250407,0.5617929340140811,512,0,1,1,374.38568230798506,0.7119440948565161,0.0933212831138517,210.3272309166666
512,2048,33.07841757549323,209789,63496,56483840,35397552,1.260524947263967,0.2693418107174453,0.6419061253131171,512,0,1,1,327.6604204611235,0.6962500434035938,0.0957265060267899,210.3272309166666
512,256,54.74595156811655,395169,74734,38785024,34478248,1.1614683067281666,0.1753909655098692,0.3649517738074594,512,0,1,1,576.3151353461585,0.880489002910676,0.0621134163520462,210.3272309166666
512,512,43.86694368684931,358350,33256,50929664,47349072,1.1561121353652266,0.1421500629942569,0.35833187601988,512,0,1,1,586.962101314698,0.8897889663552039,0.0457762319446339,210.3272309166666
