cpu,memory,duration_std,userDiff,sysDiff,heapTotal,heapUsed,avg_cpu_util,cpu_util_std,slo_preservation,total_cpu_shares,cpu_shares_others,num_containers,arrival_rate,latency,memory_util,memory_util_std,slo_duration
1024,1024,105.54410090033672,368013,78220,47558656,30532904,0.9835100647769153,0.1015866251119373,0.6913210845734648,1024,0,1,1,1069.4992146582897,0.7381667984623115,0.1310864046139097,739.3673570280376
1024,128,1837.6999425542097,479117,51643,32743424,30253832,0.5222588850106606,0.1261197021956878,0.18067323289020068,1024,0,1,1,4092.290513655492,0.8822713255010689,0.0593047765372078,739.3673570280376
1024,1536,68.37965567577176,369280,57007,60542976,45506632,1.1401617322108755,0.1771354828040143,1.0,1024,0,1,1,715.6287956313431,0.7278621691074824,0.1205848342803814,739.3673570280376
1024,2048,36.72408014080602,298097,56274,59232256,45397048,1.1865853223732306,0.2261901267577818,1.0,1024,0,1,1,611.370587924992,0.7383803317445252,0.1293226269063838,739.3673570280376
1024,256,543.4126034590109,434715,47656,34840576,30136896,0.6950182862162355,0.323640177643564,0.2542935491849007,1024,0,1,1,2907.5348525275895,0.8786340748590267,0.0812973813383995,739.3673570280376
1024,512,166.01872789838094,414905,36356,33267712,30385184,0.7354078246920498,0.0610135090711888,0.4039211961473519,1024,0,1,1,1830.4742709226723,0.8907712963042111,0.0653114464386417,739.3673570280376
128,1024,142.13525715013694,539832,51020,54120448,44836392,0.9840987561736699,0.1390938132630522,0.6449794948714543,128,0,1,1,1146.3424231422969,0.7498266048960799,0.1201969496326955,739.3673570280376
128,128,1245.4917628571257,452794,48322,40083456,29882040,0.51239184238555,0.091767553782337,0.19634433140320473,128,0,1,1,3765.666936977686,0.8509707193971714,0.0749474462971754,739.3673570280376
128,1536,72.9212704098424,415251,91058,64737280,45186656,1.149729981223799,0.2545172844165376,1.0,128,0,1,1,704.4911540306978,0.7696008045746527,0.0980535336128029,739.3673570280376
128,2048,37.9625071920764,353310,41345,59232256,45982768,1.1803225973255222,0.3085668051470059,1.0,128,0,1,1,541.5871463748678,0.6905687338504034,0.1854710736288685,739.3673570280376
128,256,327.7321310377456,446685,45873,35627008,30372112,0.5298292297159503,0.0626830657352464,0.2563034003902752,128,0,1,1,2884.734872429305,0.8906699266142615,0.0641463093476924,739.3673570280376
128,512,198.07345459126728,488900,35365,40869888,30808280,0.6761756093047401,0.0471362863188186,0.3672990502760388,128,0,1,1,2012.9846686844842,0.8694688273258374,0.0827608541772049,739.3673570280376
1536,1024,98.80203066687224,460509,66604,39170048,31515024,0.9404087562284401,0.1110678779993221,0.6466029058219742,1536,0,1,1,1143.464327751728,0.7537897151581594,0.1216865481104858,739.3673570280376
1536,128,633.7849834917641,573961,85174,47169536,44418296,0.5575039010967856,0.1783433519204187,0.21431674864992062,1536,0,1,1,3449.881363382243,0.910106064516132,0.0256427081141295,739.3673570280376
1536,1536,96.82360928867348,337448,47088,57126912,31040864,1.0314347881355133,0.2142594095909435,0.8186508021013058,1536,0,1,1,903.1535242257577,0.662885180966394,0.1376065841712541,739.3673570280376
1536,2048,48.330381701351904,318907,57815,59232256,45384584,1.134137156499479,0.1829289114786633,0.9673630486815914,1536,0,1,1,764.3121763186152,0.6949559525851512,0.1334844407194256,739.3673570280376
1536,256,389.92490121347134,405549,64937,33005568,30432416,0.6993978190630848,0.1481012680735986,0.33466942814228984,1536,0,1,1,2209.246781614257,0.8877691323403399,0.04432547818855,739.3673570280376
1536,512,180.3324645325746,448270,49361,34840576,30419880,0.7506960234235132,0.1069291328849032,0.4067415741566597,1536,0,1,1,1817.7816186138489,0.868383207315142,0.069325909793919,739.3673570280376
2048,1024,129.74598299043802,515724,40439,53858304,44348944,0.9469432406209026,0.142083937294736,0.6679817986209111,2048,0,1,1,1106.867520274514,0.7395964637238122,0.126931366449067,739.3673570280376
2048,128,914.441616783528,498579,53693,33267712,30546440,0.6080315302015098,0.1123994310837274,0.24452775959425374,2048,0,1,1,3023.6540761460947,0.8984040092477479,0.0456662997818374,739.3673570280376
2048,1536,51.37565653824773,327317,51449,59756544,45120536,1.1510240557737168,0.1521714804620961,1.0,2048,0,1,1,724.662760310553,0.6823038746662426,0.1569000252711581,739.3673570280376
2048,2048,38.74620439839831,365930,40755,58445824,45582416,1.1886702725674105,0.2295965248585529,1.0,2048,0,1,1,577.0741875714417,0.6442980940247522,0.1528638595767857,739.3673570280376
2048,256,293.9148710664935,445518,33637,36151296,30208664,0.7343797126906638,0.1719810702199384,0.3568755937443545,2048,0,1,1,2071.7789896209,0.8602535281558907,0.0725442314294503,739.3673570280376
2048,512,228.5507561370391,414195,48749,32743424,30098368,0.8245101156986762,0.2198607568310137,0.4101215101962749,2048,0,1,1,1802.8007277018783,0.8542842358559669,0.0919389551613657,739.3673570280376
256,1024,121.46749147171268,473323,39818,51761152,44956904,0.9761998622188537,0.1014641220775371,0.6549505227737252,256,0,1,1,1128.8903990744307,0.7526367344907774,0.1034260446030847,739.3673570280376
256,128,1005.4032049751376,434636,60911,22249472,15738872,0.6165080798083111,0.1796715852707959,0.23706126396120095,256,0,1,1,3118.887264302478,0.8489906275895692,0.0825145452501341,739.3673570280376
256,1536,56.07299257880336,311421,58442,59232256,45329488,1.1320786532966611,0.232144888437398,0.9346934899071611,256,0,1,1,791.0265397285218,0.5952465448115298,0.156639251669577,739.3673570280376
256,2048,46.56158552184503,409295,47907,58707968,46691880,1.1725016532358543,0.2923000201216936,1.0,256,0,1,1,535.2769012640158,0.6808774192900238,0.1596048558857067,739.3673570280376
256,256,480.5119732626443,476745,34766,35627008,29879280,0.5698702547398298,0.0582618874588863,0.26310208915406175,256,0,1,1,2810.1918894117734,0.8601023346611331,0.0957769615692791,739.3673570280376
256,512,214.4378555410386,405182,68096,32481280,30378608,0.7330224616706318,0.0836430769576831,0.3806486833773482,256,0,1,1,1942.387795664805,0.8838430684569353,0.0704156171565264,739.3673570280376
512,1024,119.25035493507994,444901,19154,44675072,30789352,0.9764069517894058,0.1056984801492769,0.6806330348250546,512,0,1,1,1086.2936695661265,0.7355722722121886,0.1274657204677906,739.3673570280376
512,128,794.2423680614829,496856,60756,32743424,30485464,0.7539015681021092,0.4133497875837892,0.24682621137617236,512,0,1,1,2995.4977346438063,0.884676184883747,0.06050845002897,739.3673570280376
512,1536,76.03038357938424,275168,65351,61583360,30784400,1.0677377037966227,0.2198842959387759,0.9277547848984563,512,0,1,1,796.9426502165247,0.7123564769268362,0.1541748573133289,739.3673570280376
512,2048,55.61468925884615,381073,39302,59232256,45416096,1.1104385902007223,0.2344493489578971,0.9476728550708557,512,0,1,1,780.1926087381246,0.7336201652902515,0.1271032908573548,739.3673570280376
512,256,246.43847990847996,459732,92054,37986304,30526672,0.5788659907701854,0.0640430586514275,0.281683506303486,512,0,1,1,2624.8159387487985,0.8860912276910163,0.0681213839973668,739.3673570280376
512,512,180.0646921923868,482257,49805,39821312,29897584,0.7190927246568731,0.0511546071566501,0.3808077557068646,512,0,1,1,1941.5764147334814,0.8794549455184484,0.0880247201549517,739.3673570280376
