cpu,memory,duration_std,userDiff,sysDiff,heapTotal,heapUsed,avg_cpu_util,cpu_util_std,slo_preservation,total_cpu_shares,cpu_shares_others,num_containers,arrival_rate,latency,memory_util,memory_util_std,slo_duration
1024,1024,17.525887231882187,6877,621,30208000,24619704,0.7111841602071771,0.2375851197635813,0.8528246158836719,1024,0,1,1,26.72838193724556,0.6742633820036261,0.0850170100025732,22.79462205882352
1024,128,19.15988439293,6751,637,24305664,21165288,0.49817417820452387,0.3301403192272761,0.6065791798574712,1024,0,1,1,37.57897207118056,0.8557470656504848,0.0089092066446167,22.79462205882352
1024,1536,10.306657242769846,4313,4337,38469632,24942456,0.9988321046672111,0.5247345155070918,1.0,1024,0,1,1,12.805421653908004,0.595140332619926,0.0993277107589173,22.79462205882352
1024,2048,5.416930874946666,888,4052,39518208,24148240,1.0113669854907161,0.2908643261467647,1.0,1024,0,1,1,11.021786996435123,0.5048028517025067,0.0460766386928369,22.79462205882352
1024,256,40.28887908929045,7500,0,24305664,21225568,0.5414104449861443,0.3618560412642035,0.450783031975994,1024,0,1,1,50.56672598989357,0.8554053535312223,0.016927320246383,22.79462205882352
1024,512,30.114466093929245,6866,411,24567808,21078528,0.641794078287088,0.3264438021642868,0.6359549303041966,1024,0,1,1,35.843140720554146,0.8666399545170235,0.0135450263373918,22.79462205882352
128,1024,14.105719164667653,3720,3890,25530368,14576480,0.8637171291704474,0.2989261996988035,0.887589092301005,128,0,1,1,25.681503137595183,0.685391355314361,0.0844609662159869,22.79462205882352
128,128,26.740179839163268,4098,3604,24563712,21152928,0.5898367885312832,0.3904869725478121,0.585433047002059,128,0,1,1,38.936343234384154,0.8560973451313376,0.0143130930729635,22.79462205882352
128,1536,10.24287370525095,2244,4374,38993920,24159376,0.8429542151848468,0.2133314270691114,1.0,128,0,1,1,21.547816197134193,0.5429460299954545,0.0844461526962882,22.79462205882352
128,2048,8.22760604698063,19384,7925,34574336,14712888,0.9866465503272372,0.3227222419699814,1.0,128,0,1,1,17.251850367179912,0.5130922295977569,0.0470743200310004,22.79462205882352
128,256,32.632705326999194,7428,663,24829952,21150040,0.45117238338765325,0.3319729436164226,0.4432753657828392,128,0,1,1,51.42316451212544,0.8565482460880731,0.0116687959224379,22.79462205882352
128,512,43.22961342801495,7919,57,24563712,20736392,0.5911859021015266,0.2933123206477236,0.4796885145940517,128,0,1,1,47.51963277276721,0.8677145536206019,0.0125115767904444,22.79462205882352
1536,1024,15.065009543667433,6681,27,30474240,24600968,0.8798159565175986,0.3024784679291084,1.0,1536,0,1,1,20.849880714785662,0.672153018961531,0.0748116679172532,22.79462205882352
1536,128,37.75194582609359,6656,422,24305664,20722304,0.6772849320732829,0.4564755688749158,0.6293294347581584,1536,0,1,1,36.22049247955984,0.8516202376145257,0.0150838849916514,22.79462205882352
1536,1536,8.780194407818898,6649,35,38989824,24265216,0.9030964450978415,0.25557724834155,1.0,1536,0,1,1,14.508221553098327,0.5352118619135602,0.0759711856397152,22.79462205882352
1536,2048,6.314636897055975,19211,19,34312192,14710112,1.063441909032126,0.3955306693414317,1.0,1536,0,1,1,11.688796300805372,0.510806348667819,0.0439729041847098,22.79462205882352
1536,256,50.97916075538574,8244,323,25354240,20619256,0.6732018295820913,0.4574444480290439,0.41365075651185546,1536,0,1,1,55.10596003991646,0.848819918031143,0.0206494583770765,22.79462205882352
1536,512,17.902516781589313,6641,433,24567808,21130752,0.535656283175183,0.2952464918038518,0.614568580765499,1536,0,1,1,37.09044486203773,0.8587304836399288,0.0111268671876822,22.79462205882352
2048,1024,17.607291698100955,6558,0,25530368,14573600,0.8914459474925257,0.3238778012680575,0.9539327333578989,2048,0,1,1,23.895418682809133,0.6687665853338259,0.0757222548759334,22.79462205882352
2048,128,174.5697285094766,6544,382,24305664,20755504,0.7291489993354778,0.4958782404390043,0.2780901594285617,2048,0,1,1,81.9684598177204,0.8522131998435454,0.0126440471081614,22.79462205882352
2048,1536,11.296219965202631,21397,4156,34312192,14720608,0.8922652878420051,0.2158966733317167,1.0,2048,0,1,1,17.33461777198326,0.5632743530321543,0.1050827950898869,22.79462205882352
2048,2048,11.908024763444152,4799,129,39514112,24271320,0.9843302028574317,0.2463532580467733,1.0,2048,0,1,1,16.983091128580693,0.5123027508863522,0.0523962448560214,22.79462205882352
2048,256,35.41384570663473,7927,29,25092096,20695824,0.7507903635779236,0.4650910161272756,0.6175432759842295,2048,0,1,1,36.91178083429676,0.8532298710985214,0.0154838562982828,22.79462205882352
2048,512,18.103076947526425,6824,29,24567808,21147176,0.6506078803674751,0.3769366804604635,0.9276134896194401,2048,0,1,1,24.57340510235052,0.8629817307726799,0.015210905336204,22.79462205882352
256,1024,14.188518047216466,6985,45,25530368,14576144,0.7825780561744778,0.2859819269269086,0.8144713974320541,256,0,1,1,27.987013577999985,0.6374844446204766,0.0610284065033301,22.79462205882352
256,128,25.306582344657468,4026,3475,24567808,21045536,0.41526556523339514,0.2100908561127586,0.5355771037503098,256,0,1,1,42.56085986351379,0.8556098314026038,0.0090369783987127,22.79462205882352
256,1536,9.151219031016684,6183,23,38207488,25676280,0.9893689021982485,0.1925088822133479,1.0,256,0,1,1,15.376866911987072,0.5938062079474798,0.0983080671447122,22.79462205882352
256,2048,8.413911053989633,21673,2892,34312192,14710232,0.9986427914225451,0.2406279924145676,1.0,256,0,1,1,14.777481712533284,0.5105929522728271,0.0493125205822042,22.79462205882352
256,256,27.932583315233533,7186,29,24825856,20866344,0.38423743989098513,0.1966896456731348,0.4729648909773661,256,0,1,1,48.1951673235601,0.8545025429683559,0.0094658309177062,22.79462205882352
256,512,22.865569639189975,4364,3304,24563712,21154288,0.6129557064523041,0.4380875707609276,0.6443692859400716,256,0,1,1,35.37509089305584,0.8594627254199159,0.0159562737524252,22.79462205882352
512,1024,9.278615647057643,4072,3348,25530368,14573616,0.8101388448001668,0.2548356252646122,1.0,512,0,1,1,21.595707306696553,0.6576974714507071,0.0702618913380472,22.79462205882352
512,128,10.339040868396804,6936,30,24563712,21031152,0.9226369003087707,0.422875231165643,1.0,512,0,1,1,17.1970918349854,0.8480863231575347,0.0154549861266828,22.79462205882352
512,1536,4.993182413930503,19242,3844,34574336,14704272,1.0325460344480168,0.237246854092417,1.0,512,0,1,1,9.670533000075572,0.549452563862389,0.0677521132438998,22.79462205882352
512,2048,8.978321271650385,8314,83,39256064,24333880,0.9880311841742171,0.3241318542038628,1.0,512,0,1,1,15.687162470779052,0.5126258997819665,0.0485528789542262,22.79462205882352
512,256,46.49312532370815,7391,32,24825856,20771752,0.6206714615087113,0.5188218809296887,0.3908775357601459,512,0,1,1,58.316531326095394,0.8607456714944608,0.0152271759012964,22.79462205882352
512,512,32.70544727695165,6971,14,24563712,21183112,0.6305547869961594,0.4544884842184977,0.5053267940470315,512,0,1,1,45.10867487604861,0.8635616579097484,0.0117818915079079,22.79462205882352
