cpu,memory,duration_std,userDiff,sysDiff,heapTotal,heapUsed,avg_cpu_util,cpu_util_std,slo_preservation,total_cpu_shares,cpu_shares_others,num_containers,arrival_rate,latency,memory_util,memory_util_std,slo_duration
1024,1024,17.525887231882187,6877,621,30208000,24619704,0.6632918612252952,0.2375851197635813,0.994242522575729,1024,0,1,1,22.926621564898227,0.6742633820036261,0.0850170100025732,22.79462205882352
1024,128,19.15988439293,6751,637,24305664,21165288,0.4426418950219053,0.3301403192272761,0.6737035192707074,1024,0,1,1,33.83479736531433,0.8557470656504848,0.0089092066446167,22.79462205882352
1024,1536,10.306657242769846,4313,4337,38469632,24942456,0.9985405569531945,0.5247345155070918,1.0,1024,0,1,1,10.247328401563202,0.595140332619926,0.0993277107589173,22.79462205882352
1024,2048,5.416930874946666,888,4052,39518208,24148240,1.014249224545561,0.2908643261467647,1.0,1024,0,1,1,8.79237269857405,0.5048028517025067,0.0460766386928369,22.79462205882352
1024,256,40.28887908929045,7500,0,24305664,21225568,0.485723512609325,0.3618560412642035,0.5055220114050094,1024,0,1,1,45.09125526595743,0.8554053535312223,0.016927320246383,22.79462205882352
1024,512,30.114466093929245,6866,411,24567808,21078528,0.5890442900732352,0.3264438021642868,0.7296063354140988,1024,0,1,1,31.242357628221658,0.8666399545170235,0.0135450263373918,22.79462205882352
128,1024,14.105719164667653,3720,3890,25530368,14576480,0.8352592471483697,0.2989261996988035,1.0,128,0,1,1,21.245192305038074,0.685391355314361,0.0844609662159869,22.79462205882352
128,128,26.740179839163268,4098,3604,24563712,21152928,0.5349795554027579,0.3904869725478121,0.6637317248028699,128,0,1,1,34.34312570427997,0.8560973451313376,0.0143130930729635,22.79462205882352
128,1536,10.24287370525095,2244,4374,38993920,24159376,0.8111089064873791,0.2133314270691114,1.0,128,0,1,1,17.915051698853674,0.5429460299954545,0.0844461526962882,22.79462205882352
128,2048,8.22760604698063,19384,7925,34574336,14712888,0.9833637258215425,0.3227222419699814,1.0,128,0,1,1,13.847554636871964,0.5130922295977569,0.0470743200310004,22.79462205882352
128,256,32.632705326999194,7428,663,24829952,21150040,0.3967372882981707,0.3319729436164226,0.48724133243035506,128,0,1,1,46.783022173271235,0.8565482460880731,0.0116687959224379,22.79462205882352
128,512,43.22961342801495,7919,57,24563712,20736392,0.5363672760739211,0.2933123206477236,0.5440108200782409,128,0,1,1,41.90104537910688,0.8677145536206019,0.0125115767904444,22.79462205882352
1536,1024,15.065009543667433,6681,27,30474240,24600968,0.8541520934331599,0.3024784679291084,1.0,1536,0,1,1,17.181069165914266,0.672153018961531,0.0748116679172532,22.79462205882352
1536,128,37.75194582609359,6656,422,24305664,20722304,0.6267217907546478,0.4564755688749158,0.7279330523397192,1536,0,1,1,31.314173721823934,0.8516202376145257,0.0150838849916514,22.79462205882352
1536,1536,8.780194407818898,6649,35,38989824,24265216,0.8817356161750398,0.25557724834155,1.0,1536,0,1,1,11.88775689123933,0.5352118619135602,0.0759711856397152,22.79462205882352
1536,2048,6.314636897055975,19211,19,34312192,14710112,1.0805804303735396,0.3955306693414317,1.0,1536,0,1,1,9.202725130322147,0.510806348667819,0.0439729041847098,22.79462205882352
1536,256,50.97916075538574,8244,323,25354240,20619256,0.6223556570627553,0.4574444480290439,0.47801022860271586,1536,0,1,1,47.68647341596659,0.848819918031143,0.0206494583770765,22.79462205882352
1536,512,17.902516781589313,6641,433,24567808,21130752,0.47994179404820436,0.2952464918038518,0.688307867570062,1536,0,1,1,33.116898894815094,0.8587304836399288,0.0111268671876822,22.79462205882352
2048,1024,17.607291698100955,6558,0,25530368,14573600,0.8678926319087573,0.3238778012680575,1.0,2048,0,1,1,19.635123853123655,0.6687665853338259,0.0757222548759334,22.79462205882352
2048,128,174.5697285094766,6544,382,24305664,20755504,0.6829074572931962,0.4958782404390043,0.32556762034696635,2048,0,1,1,70.01501572708817,0.8522131998435454,0.0126440471081614,22.79462205882352
2048,1536,11.296219965202631,21397,4156,34312192,14720608,0.8688635955005521,0.2158966733317167,1.0,2048,0,1,1,14.241202228793302,0.5632743530321543,0.1050827950898869,22.79462205882352
2048,2048,11.908024763444152,4799,129,39514112,24271320,0.9804891861953906,0.2463532580467733,1.0,2048,0,1,1,13.639697221432277,0.5123027508863522,0.0523962448560214,22.79462205882352
2048,256,35.41384570663473,7927,29,25092096,20695824,0.7067576587820269,0.4650910161272756,0.7266566359670289,2048,0,1,1,31.369178963718703,0.8532298710985214,0.0154838562982828,22.79462205882352
2048,512,18.103076947526425,6824,29,24567808,21147176,0.598343733995126,0.3769366804604635,1.0,2048,0,1,1,21.375874900940207,0.8629817307726799,0.015210905336204,22.79462205882352
256,1024,14.188518047216466,6985,45,25530368,14576144,0.7422335887640591,0.2859819269269086,0.9656034044974721,256,0,1,1,23.606609041199995,0.6374844446204766,0.0610284065033301,22.79462205882352
256,128,25.306582344657468,4026,3475,24567808,21045536,0.3623028300914315,0.2100908561127586,0.5840873788555371,256,0,1,1,39.02604795790552,0.8556098314026038,0.0090369783987127,22.79462205882352
256,1536,9.151219031016684,6183,23,38207488,25676280,0.9867463529523092,0.1925088822133479,1.0,256,0,1,1,12.334188124794828,0.5938062079474798,0.0983080671447122,22.79462205882352
256,2048,8.413911053989633,21673,2892,34312192,14710232,0.9983040647126611,0.2406279924145676,1.0,256,0,1,1,11.825996595013313,0.5105929522728271,0.0493125205822042,22.79462205882352
256,256,27.932583315233533,7186,29,24825856,20866344,0.33297851428641095,0.1966896456731348,0.5123366776541856,256,0,1,1,44.491489782055616,0.8545025429683559,0.0094658309177062,22.79462205882352
256,512,22.865569639189975,4364,3304,24563712,21154288,0.5588780649913355,0.4380875707609276,0.7344002508565806,256,0,1,1,31.038418127222336,0.8594627254199159,0.0159562737524252,22.79462205882352
512,1024,9.278615647057643,4072,3348,25530368,14573616,0.7734278676941291,0.2548356252646122,1.0,512,0,1,1,18.096603032678622,0.6576974714507071,0.0702618913380472,22.79462205882352
512,128,10.339040868396804,6936,30,24563712,21031152,0.9051309660193276,0.422875231165643,1.0,512,0,1,1,14.023757533994159,0.8480863231575347,0.0154549861266828,22.79462205882352
512,1536,4.993182413930503,19242,3844,34574336,14704272,1.0410162723129275,0.237246854092417,1.0,512,0,1,1,7.673478900030228,0.549452563862389,0.0677521132438998,22.79462205882352
512,2048,8.978321271650385,8314,83,39256064,24333880,0.9850836130897003,0.3241318542038628,1.0,512,0,1,1,12.587281328311619,0.5126258997819665,0.0485528789542262,22.79462205882352
512,256,46.49312532370815,7391,32,24825856,20771752,0.5669101608188887,0.5188218809296887,0.44627564742471476,512,0,1,1,51.07744998043815,0.8607456714944608,0.0152271759012964,22.79462205882352
512,512,32.70544727695165,6971,14,24563712,21183112,0.577240135767877,0.4544884842184977,0.5782505208477452,512,0,1,1,39.41997670041944,0.8635616579097484,0.0117818915079079,22.79462205882352
