cpu,memory,duration_std,userDiff,sysDiff,heapTotal,heapUsed,avg_cpu_util,cpu_util_std,slo_preservation,total_cpu_shares,cpu_shares_others,num_containers,arrival_rate,latency,memory_util,memory_util_std,slo_duration
1024,1024,144.69275399736688,345592,40789,39432192,30766720,0.9294404593566848,0.1806927373230907,0.2053141170329315,1024,0,1,1,881.6835267232578,0.7779162742435558,0.1147141994332999,181.02207479166677
1024,128,621.2602386473861,262336,43059,32481280,29925952,1.0493398326271077,0.3883110639685432,0.1354624445247951,1024,0,1,1,1336.326650731099,0.8813580036001623,0.0688796673372447,181.02207479166677
1024,1536,63.25620024531212,312391,42184,66961408,52220456,1.0991102896825666,0.1625030505930132,0.3765538445461731,1024,0,1,1,480.73357213982666,0.7655026732549052,0.1062899343104181,181.02207479166677
1024,2048,44.003424579041095,304519,47880,50049024,29877432,1.1349865460314679,0.2723545303049902,0.43485596526543524,1024,0,1,1,416.2805371226108,0.7400761259164659,0.0996409995821528,181.02207479166677
1024,256,53.44389133203731,323371,37541,32481280,29956064,1.0668891929126245,0.1363442243346723,0.2770194518767582,1024,0,1,1,653.4634068664635,0.8950985445704142,0.0739319267133361,181.02207479166677
1024,512,62.57386823253804,265967,37251,32743424,29682440,1.090072002463835,0.1937267902768435,0.2701034614857543,1024,0,1,1,670.1953162537095,0.8712578558339945,0.0465305177595772,181.02207479166677
128,1024,95.1817947914572,364599,51336,39432192,30184184,1.0148169015054282,0.1098132874451461,0.2616774619061831,128,0,1,1,691.7755678040282,0.7710074284820598,0.0960491491520045,181.02207479166677
128,128,79.88805385541437,304623,35779,33005568,29613840,1.0153886629634863,0.1349494200348812,0.23980635599520198,128,0,1,1,754.8677099921765,0.8932362151067739,0.0547248077401704,181.02207479166677
128,1536,78.77468677539059,311050,33223,50311168,29810608,1.0847850714373641,0.1908929896965913,0.3459849800256317,128,0,1,1,523.20789988703,0.7288303307154019,0.1197827361942932,181.02207479166677
128,2048,45.597568559463085,285146,53927,49786880,29807944,1.13760522349168,0.1973297358273399,0.4491280732037503,128,0,1,1,403.0522374172428,0.7219074281198432,0.0990279671923134,181.02207479166677
128,256,44.868760812940224,247139,29226,33005568,29861376,1.0675189723318212,0.1250884550959485,0.2650458019808708,128,0,1,1,682.9841236449076,0.8411038195584437,0.0603713676786973,181.02207479166677
128,512,43.84271607228604,286834,34554,32743424,29862096,1.0960349459887042,0.1634567246866186,0.2717874894471489,128,0,1,1,666.0427054971854,0.8666512556914236,0.0620342714102887,181.02207479166677
1536,1024,95.6914428216186,294962,33182,39170048,30350288,1.0067502003223718,0.1693640770632837,0.26886831520780413,1536,0,1,1,673.2741068867026,0.7872546649395582,0.0975020824023582,181.02207479166677
1536,128,222.7093513707294,251413,28425,32481280,29610272,1.0489516952589792,0.2703618233699006,0.20805108836265845,1536,0,1,1,870.0847287860527,0.8643547389419961,0.0623925626083688,181.02207479166677
1536,1536,66.18412966335897,322212,40697,42708992,31327352,1.1069218209774054,0.1453089915958231,0.3671354636471858,1536,0,1,1,493.06616417101975,0.7563458248454514,0.1283525332981868,181.02207479166677
1536,2048,48.93361155499881,273830,43878,50049024,29805992,1.1315663338669986,0.2376215616393526,0.4270559965566533,1536,0,1,1,423.8836973400334,0.752040120900588,0.1046869887179882,181.02207479166677
1536,256,57.31199807015295,284092,32197,32743424,30220312,1.057807590285798,0.1540199743688416,0.2655184949957447,1536,0,1,1,681.7682316049882,0.872939126482437,0.0620413193335912,181.02207479166677
1536,512,45.97450829576631,288211,49390,32743424,30191704,1.1063684595214294,0.137128610947139,0.2816307161254793,1536,0,1,1,642.7639615524508,0.8780128049460766,0.0460150980145811,181.02207479166677
2048,1024,84.167673315216,284534,20148,37335040,29999568,1.0054099694847876,0.1465970268470939,0.26670612249553793,2048,0,1,1,678.732355664971,0.8088691107380281,0.0906680347968753,181.02207479166677
2048,128,106.76680001520926,314862,38710,32219136,29622048,1.043831338401905,0.2425855048038633,0.22285674657786977,2048,0,1,1,812.2799851087959,0.9049180707096188,0.0501398422391537,181.02207479166677
2048,1536,61.246114930306746,322907,42273,50573312,30822040,1.0847049674247646,0.1813592802393982,0.34953744343749277,2048,0,1,1,517.8903667985392,0.7275305708881232,0.1209032073610695,181.02207479166677
2048,2048,46.19119926694656,284713,57122,50311168,29812680,1.1359279214966966,0.198919252910674,0.4310268336895837,2048,0,1,1,419.9786663909537,0.7389591831328116,0.1281144613013037,181.02207479166677
2048,256,41.33462699430561,271829,43634,33005568,29927520,1.0973152089220313,0.2110279462030545,0.2861915748888734,2048,0,1,1,632.5206284005972,0.8825578251113481,0.0511621362357446,181.02207479166677
2048,512,47.71394683339658,216298,24289,33267712,29971120,1.0842803892061406,0.1803994195099068,0.272732519839211,2048,0,1,1,663.7348377024788,0.8727905655268444,0.0497015153074169,181.02207479166677
256,1024,58.45004631691398,226242,69455,40742912,30254264,1.0508613886633826,0.1614611215099256,0.31714840625447227,256,0,1,1,570.7803388626176,0.7891950102317005,0.1113364060250833,181.02207479166677
256,128,312.904462950541,346176,56740,33005568,29650368,1.0245960219290993,0.3790874776708806,0.1789302059517941,256,0,1,1,1011.6909765388425,0.8915799103998783,0.0578982286574045,181.02207479166677
256,1536,55.011580729851,330315,39201,50311168,29805808,1.056947133735588,0.1338675861035086,0.3558804387893028,256,0,1,1,508.6598055445243,0.727813544187932,0.1066523732596531,181.02207479166677
256,2048,35.47054330518322,305745,25340,50049024,30410008,1.124424000650307,0.1552064809902315,0.43341020387845586,256,0,1,1,417.66915769807764,0.7841838855064396,0.10512412400283,181.02207479166677
256,256,76.48249381044549,373314,28274,33005568,29853512,0.9959732721764294,0.1104026601878891,0.21819578891207272,256,0,1,1,829.6313860787386,0.883997806539551,0.079088770099365,181.02207479166677
256,512,84.0942383575922,294220,49178,33529856,30250280,1.0177560670483041,0.1333678959224233,0.2248163925805283,256,0,1,1,805.1996240746787,0.8449765365961648,0.0756172456681728,181.02207479166677
512,1024,109.72991193693107,480648,43537,39432192,29675568,1.0261696751159037,0.1985483075890353,0.27140208320817544,512,0,1,1,666.9885236393567,0.7997027573833204,0.1113865812024186,181.02207479166677
512,128,151.96333959048587,281831,41596,32743424,29602056,1.0181543146079952,0.2442578331963421,0.21576039848475592,512,0,1,1,838.9958308519554,0.8746492174480721,0.0683727745363612,181.02207479166677
512,1536,60.50101581429813,222938,26521,42708992,31227240,1.0723145672453387,0.125484141661848,0.336979104314528,512,0,1,1,537.190800479739,0.7554074452712208,0.090605600164628,181.02207479166677
512,2048,27.698062322076904,241861,52320,49786880,29933480,1.1244960064018232,0.1842534760026734,0.44952703616516226,512,0,1,1,402.6945216375302,0.7456193962491107,0.0936252011017296,181.02207479166677
512,256,72.64594142536139,288839,22752,32743424,29837120,0.9800825248551868,0.1392066034045916,0.23708390042980812,512,0,1,1,763.535923204793,0.8999277970545304,0.0506038099272329,181.02207479166677
512,512,84.39387694919618,428437,32928,32743424,29868056,0.9963588606765491,0.121126159915814,0.23411332525274162,512,0,1,1,773.224140899459,0.8941568136352614,0.0413851836240636,181.02207479166677
