cpu,memory,duration_std,userDiff,sysDiff,heapTotal,heapUsed,avg_cpu_util,cpu_util_std,slo_preservation,total_cpu_shares,cpu_shares_others,num_containers,arrival_rate,latency,memory_util,memory_util_std,slo_duration
1024,1024,144.69275399736688,345592,40789,39432192,30766720,0.8404841916368848,0.1806927373230907,0.4641590215620278,1024,0,1,1,390.0001214723259,0.7779162742435558,0.1147141994332999,181.02207479166677
1024,128,621.2602386473861,262336,43059,32481280,29925952,1.133208293960608,0.3883110639685432,0.36572319300831,1024,0,1,1,494.97018032310996,0.8813580036001623,0.0688796673372447,181.02207479166677
1024,1536,63.25620024531212,312391,42184,66961408,52220456,1.2910438906798483,0.1625030505930132,1.0,1024,0,1,1,163.70604269898269,0.7655026732549052,0.1062899343104181,181.02207479166677
1024,2048,44.003424579041095,304519,47880,50049024,29877432,1.4231446089245015,0.2723545303049902,1.0,1024,0,1,1,132.79685171726106,0.7400761259164659,0.0996409995821528,181.02207479166677
1024,256,53.44389133203731,323371,37541,32481280,29956064,1.1858722494026583,0.1363442243346723,0.7697839726648324,1024,0,1,1,235.1595788166463,0.8950985445704142,0.0739319267133361,181.02207479166677
1024,512,62.57386823253804,265967,37251,32743424,29682440,1.2603562145583491,0.1937267902768435,0.7807433258716927,1024,0,1,1,231.8586259953709,0.8712578558339945,0.0465305177595772,181.02207479166677
128,1024,95.1817947914572,364599,51336,39432192,30184184,1.0378842444413128,0.1098132874451461,0.6690638341629119,128,0,1,1,270.56024485040285,0.7710074284820598,0.0960491491520045,181.02207479166677
128,128,79.88805385541437,304623,35779,33005568,29613840,1.039380681460109,0.1349494200348812,0.6136814965643398,128,0,1,1,294.9772411342176,0.8932362151067739,0.0547248077401704,181.02207479166677
128,1536,78.77468677539059,311050,33223,50311168,29810608,1.2428474341758844,0.1908929896965913,0.9909947970580082,128,0,1,1,182.66702845370295,0.7288303307154019,0.1197827361942932,181.02207479166677
128,2048,45.597568559463085,285146,53927,49786880,29807944,1.4334884768326344,0.1973297358273399,1.0,128,0,1,1,127.94363904172425,0.7219074281198432,0.0990279671923134,181.02207479166677
128,256,44.868760812940224,247139,29226,33005568,29861376,1.1878195002952734,0.1250884550959485,0.7372856600772878,128,0,1,1,245.52501776949072,0.8411038195584437,0.0603713676786973,181.02207479166677
128,512,43.84271607228604,286834,34554,32743424,29862096,1.280493070249133,0.1634567246866186,0.7938204846733742,128,0,1,1,228.0390570497185,0.8666512556914236,0.0620342714102887,181.02207479166677
1536,1024,95.6914428216186,294962,33182,39170048,30350288,1.017048118124621,0.1693640770632837,0.679046336215956,1536,0,1,1,266.58280169867027,0.7872546649395582,0.0975020824023582,181.02207479166677
1536,128,222.7093513707294,251413,28425,32481280,29610272,1.1320773537009177,0.2703618233699006,0.5613459766849497,1536,0,1,1,322.47861801860523,0.8643547389419961,0.0623925626083688,181.02207479166677
1536,1536,66.18412966335897,322212,40697,42708992,31327352,1.3183647626855874,0.1453089915958231,1.0,1536,0,1,1,165.59474638710202,0.7563458248454514,0.1283525332981868,181.02207479166677
1536,2048,48.93361155499881,273830,43878,50049024,29805992,1.409787117799753,0.2376215616393526,1.0,1536,0,1,1,136.09218450900335,0.752040120900588,0.1046869887179882,181.02207479166677
1536,256,57.31199807015295,284092,32197,32743424,30220312,1.1582402029421244,0.1540199743688416,0.7268197882888829,1536,0,1,1,249.0604654804988,0.872939126482437,0.0620413193335912,181.02207479166677
1536,512,45.97450829576631,288211,49390,32743424,30191704,1.3164043068642106,0.137128610947139,0.8377405476047285,1536,0,1,1,216.08369716524513,0.8780128049460766,0.0460150980145811,181.02207479166677
2048,1024,84.167673315216,284534,20148,37335040,29999568,1.0136355757853281,0.1465970268470939,0.6722203435573932,2048,0,1,1,269.2897894664971,0.8088691107380281,0.0906680347968753,181.02207479166677
2048,128,106.76680001520926,314862,38710,32219136,29622048,1.117289799333264,0.2425855048038633,0.5963501010739481,2048,0,1,1,303.5500027008796,0.9049180707096188,0.0501398422391537,181.02207479166677
2048,1536,61.246114930306746,322907,42273,50573312,30822040,1.2425845994536129,0.1813592802393982,1.0,2048,0,1,1,180.83541472985394,0.7275305708881232,0.1209032073610695,181.02207479166677
2048,2048,46.19119926694656,284713,57122,50311168,29812680,1.426851323536358,0.198919252910674,1.0,2048,0,1,1,133.73937023909536,0.7389591831328116,0.1281144613013037,181.02207479166677
2048,256,41.33462699430561,271829,43634,33005568,29927520,1.2848715194522222,0.2110279462030545,0.8377706804117101,2048,0,1,1,216.07592510005975,0.8825578251113481,0.0511621362357446,181.02207479166677
2048,512,47.71394683339658,216298,24289,33267712,29971120,1.241192694230486,0.1803994195099068,0.7805029364944606,2048,0,1,1,231.93003681024783,0.8727905655268444,0.0497015153074169,181.02207479166677
256,1024,58.45004631691398,226242,69455,40742912,30254264,1.1376554961992151,0.1614611215099256,0.858356847483805,256,0,1,1,210.89372715126174,0.7891950102317005,0.1113364060250833,181.02207479166677
256,128,312.904462950541,346176,56740,33005568,29650368,1.0638455755886291,0.3790874776708806,0.4644613678632616,256,0,1,1,389.74624654888424,0.8915799103998783,0.0578982286574045,181.02207479166677
256,1536,55.011580729851,330315,39201,50311168,29805808,1.1556648334735928,0.1338675861035086,0.9727982008342261,256,0,1,1,186.08389143445243,0.727813544187932,0.1066523732596531,181.02207479166677
256,2048,35.47054330518322,305745,25340,50049024,30410008,1.3824364023964912,0.1552064809902315,1.0,256,0,1,1,135.88682254980773,0.7841838855064396,0.10512412400283,181.02207479166677
256,256,76.48249381044549,373314,28274,33005568,29853512,0.9899936198948476,0.1104026601878891,0.5422144472783852,256,0,1,1,333.8569743028738,0.883997806539551,0.079088770099365,181.02207479166677
256,512,84.0942383575922,294220,49178,33529856,30250280,1.0456048107365046,0.1333678959224233,0.5774200450024688,256,0,1,1,313.50154252246784,0.8449765365961648,0.0756172456681728,181.02207479166677
512,1024,109.72991193693107,480648,43537,39432192,29675568,1.0680973146924082,0.1985483075890353,0.7062278376230421,512,0,1,1,256.32248567393566,0.7997027573833204,0.1113865812024186,181.02207479166677
512,128,151.96333959048587,281831,41596,32743424,29602056,1.04665630641772,0.2442578331963421,0.554500871108661,512,0,1,1,326.4594957799324,0.8746492174480721,0.0683727745363612,181.02207479166677
512,1536,60.50101581429813,222938,26521,42708992,31227240,1.2027826247431042,0.125484141661848,0.9449480216710405,512,0,1,1,191.56828803297392,0.7554074452712208,0.090605600164628,181.02207479166677
512,2048,27.698062322076904,241861,52320,49786880,29933480,1.3827085440250142,0.1842534760026734,1.0,512,0,1,1,130.997492808753,0.7456193962491107,0.0936252011017296,181.02207479166677
512,256,72.64594142536139,288839,22752,32743424,29837120,0.9516508030313101,0.1392066034045916,0.5755155267745412,512,0,1,1,314.5389939454793,0.8999277970545304,0.0506038099272329,181.02207479166677
512,512,84.39387694919618,428437,32928,32743424,29868056,0.9909465987344116,0.121126159915814,0.5821040303191527,512,0,1,1,310.9789064549459,0.8941568136352614,0.0413851836240636,181.02207479166677
