cpu,memory,duration_std,userDiff,sysDiff,heapTotal,heapUsed,avg_cpu_util,cpu_util_std,slo_preservation,total_cpu_shares,cpu_shares_others,num_containers,arrival_rate,latency,memory_util,memory_util_std,slo_duration
1024,1024,44.86706559201061,92209,1024,25792512,14912600,0.8306449822851536,0.1524967256218256,0.7803148985273529,1024,0,1,1,158.13874588862785,0.6777261861232298,0.0780610622689107,123.39801945132749
1024,128,134.684450349845,114538,23,28090368,24299792,0.6364942391650706,0.2095096708138363,0.45247310313360806,1024,0,1,1,272.71901599616194,0.8691904527376038,0.0129209043079735,123.39801945132749
1024,1536,40.01984095553307,52242,31,41996288,28105080,0.905390158446042,0.1431291099903442,1.0,1024,0,1,1,112.62203300217921,0.527120068842686,0.0704044896758677,123.39801945132749
1024,2048,21.84206290337705,86570,31,41996288,28174136,0.9648791763262835,0.0877788481429699,1.0,1024,0,1,1,101.03675929233032,0.5645452810755327,0.0990839808997776,123.39801945132749
1024,256,181.440054595153,131168,3195,28090368,24588968,0.6082146868100371,0.2692452667180659,0.3401128656853841,1024,0,1,1,362.8149120517976,0.865888694577128,0.0128048024297334,123.39801945132749
1024,512,92.24055863408768,27325,748,28090368,23982856,0.6485264051924063,0.2243049315211636,0.5279962422234205,1024,0,1,1,233.71003348753356,0.8746807735262122,0.0101978688507833,123.39801945132749
128,1024,51.71261039345807,17675,541,33734656,28230480,0.8054977110659174,0.1765622118781685,0.7214253173179969,128,0,1,1,171.04753117076277,0.660988510484017,0.0744272245584825,123.39801945132749
128,128,171.1375703942216,77348,154,28352512,24393256,0.5264986293898138,0.220507124623998,0.3276089797807503,128,0,1,1,376.66250642430686,0.8664210512057678,0.0092094569582145,123.39801945132749
128,1536,35.67133200452956,57373,33,42254336,28247856,0.9656462487851722,0.0840451170885885,1.0,128,0,1,1,97.69694698870191,0.5737446007907796,0.0965185002502165,123.39801945132749
128,2048,39.35083785834592,37864,355,42254336,28085344,0.9411768533723313,0.1084518843522995,1.0,128,0,1,1,116.34840992319198,0.5257050625737023,0.0555325500298156,123.39801945132749
128,256,136.50517989809467,23204,4637,28090368,24674216,0.6467979603608481,0.3055498178304597,0.5437382739846662,128,0,1,1,226.94378040933606,0.8701604111438977,0.0131388321875533,123.39801945132749
128,512,95.08206568007564,78196,1045,28090368,23800176,0.7153379639188298,0.2535377695502929,0.5510737644035067,128,0,1,1,223.92287098787213,0.8696293767269047,0.0119397228796388,123.39801945132749
1536,1024,36.28476940474286,67649,4076,25530368,14963888,0.8405741329750565,0.115716881595371,0.7639918434904961,1536,0,1,1,161.5174566361225,0.6637343289954514,0.0838449213727281,123.39801945132749
1536,128,110.8623573135113,30537,3727,28352512,24385208,0.6249928054312042,0.176853853923279,0.471156604810282,1536,0,1,1,261.9044669893049,0.872652981793634,0.0115580204519195,123.39801945132749
1536,1536,35.582864621988314,108237,5734,41992192,28268792,0.9396595503813647,0.1685326097097592,1.0,1536,0,1,1,112.11805221875473,0.567492605913534,0.1116031007872696,123.39801945132749
1536,2048,38.23205138883831,115775,30,42782720,27903864,0.9734498403209987,0.0700703892183882,1.0,1536,0,1,1,91.88155367828676,0.5307067806179879,0.0689357989534977,123.39801945132749
1536,256,156.23567747378152,71624,238,27566080,24314400,0.800415537137076,0.3680778427100493,0.376718549909762,1536,0,1,1,327.56024220438803,0.8722878695266554,0.0123199369080084,123.39801945132749
1536,512,58.90453274397071,14386,429,28090368,24048224,0.6503028338378489,0.2449746954212796,0.6827132615225323,1536,0,1,1,180.74648085220306,0.8769950680195198,0.0121612327498341,123.39801945132749
2048,1024,34.20149373791621,22253,5452,33738752,28307472,0.7893589419526924,0.2169534874840738,0.8340734483184657,2048,0,1,1,147.94622667836285,0.6684435820721439,0.0907633515020255,123.39801945132749
2048,128,72.20752140934135,95510,1296,28352512,24383712,0.7092591805569006,0.1962991576327593,0.5140714757531423,2048,0,1,1,240.0405882675026,0.865339405944218,0.011532495059675,123.39801945132749
2048,1536,31.690145054413115,68760,4103,42258432,28326056,0.959504732780074,0.1533699055278179,1.0,2048,0,1,1,99.75892632105591,0.5630963557901951,0.1030104964437498,123.39801945132749
2048,2048,26.50635672449432,30517,125,42254336,28092792,0.9647574686364431,0.110919842225628,1.0,2048,0,1,1,102.25931807550796,0.5339846321710888,0.0807181171254501,123.39801945132749
2048,256,111.54075192204388,33707,362,27828224,24732432,0.6724360265581949,0.2892836408493058,0.4247882161500959,2048,0,1,1,290.49303808306604,0.872317405811974,0.0149536700640629,123.39801945132749
2048,512,69.41680801004212,133840,30,28090368,23825056,0.6829083630425784,0.2669730355532209,0.6517907710381231,2048,0,1,1,189.32151993313505,0.8810139880628256,0.0135073859259302,123.39801945132749
256,1024,33.51311144183022,14468,3702,25530368,14907160,0.8771879759978042,0.2090193668410616,1.0,256,0,1,1,80.61646817546277,0.6659921040647355,0.0605390843923029,123.39801945132749
256,128,192.4368807069125,52057,31,27828224,24331352,0.5345172534443914,0.2940837822462578,0.25450873533343066,256,0,1,1,484.8478748270245,0.8683748934798803,0.0118245081411885,123.39801945132749
256,1536,34.21883406992544,25495,7,34312192,16204944,0.985319716911904,0.0886184647346761,0.9273638922137678,256,0,1,1,133.06321335927413,0.5341586533859344,0.0612037914195355,123.39801945132749
256,2048,27.5723332192923,23053,20,42778624,27988000,0.9537202286682711,0.084977441620461,1.0,256,0,1,1,116.95947704717801,0.5214213388299278,0.0580210726615546,123.39801945132749
256,256,147.3292734540848,109657,30,27828224,24718904,0.6343956293605826,0.2646771502851006,0.398616562243497,256,0,1,1,309.56571085962344,0.8632764166069545,0.0153214736371202,123.39801945132749
256,512,85.68392597710776,109157,5,27828224,24295976,0.7395896811677547,0.3008070779364056,0.7769341810392942,256,0,1,1,158.82686392592439,0.8775212651010926,0.0140844257388738,123.39801945132749
512,1024,40.37761419060447,40541,172,33734656,28343376,0.8790262851786255,0.1532451484724746,1.0,512,0,1,1,121.68021943470384,0.689136960634902,0.0836193169192934,123.39801945132749
512,128,168.14028695805115,15917,2095,28090368,23828256,0.673981833378847,0.3303050095859275,0.36383819094000003,512,0,1,1,339.15631322957205,0.8725246923027643,0.0135679046133653,123.39801945132749
512,1536,29.474995681833526,121410,12238,34312192,14960192,0.9787542992901369,0.0658311924325548,1.0,512,0,1,1,122.86974673458043,0.5214320641004648,0.0515821140654107,123.39801945132749
512,2048,26.83843083911714,28453,684,34574336,15500296,0.991509925018821,0.1109845129182103,1.0,512,0,1,1,67.93242333225596,0.5239155406991485,0.0596079584710131,123.39801945132749
512,256,111.05442765327687,76285,26,28352512,24348824,0.5865844958327993,0.2496178385136216,0.3293450443669511,512,0,1,1,374.67701901668613,0.8704014123714183,0.0127649565062538,123.39801945132749
512,512,62.98640235917743,37073,309,27828224,24650024,0.6850361514941806,0.2588078809755634,0.6191566707645042,512,0,1,1,199.30015338276445,0.8746749407672507,0.0134805913298596,123.39801945132749
