cpu,memory,duration_std,userDiff,sysDiff,heapTotal,heapUsed,avg_cpu_util,cpu_util_std,slo_preservation,total_cpu_shares,cpu_shares_others,num_containers,arrival_rate,latency,memory_util,memory_util_std,slo_duration
1024,1024,44.86706559201061,92209,1024,25792512,14912600,0.88034174629831,0.1524967256218256,0.5513336383833001,1024,0,1,1,223.8173237772557,0.6777261861232298,0.0780610622689107,123.39801945132749
1024,128,134.684450349845,114538,23,28090368,24299792,0.7242506693661164,0.2095096708138363,0.34323845386204827,1024,0,1,1,359.5110572923238,0.8691904527376038,0.0129209043079735,123.39801945132749
1024,1536,40.01984095553307,52242,31,41996288,28105080,0.9348728835754297,0.1431291099903442,0.7542413898030416,1024,0,1,1,163.6054731543584,0.527120068842686,0.0704044896758677,123.39801945132749
1024,2048,21.84206290337705,86570,31,41996288,28174136,0.976308765662934,0.0877788481429699,0.8238568881506156,1024,0,1,1,149.78089183466065,0.5645452810755327,0.0990839808997776,123.39801945132749
1024,256,181.440054595153,131168,3195,28090368,24588968,0.6995758706741017,0.2692452667180659,0.2608012809722786,1024,0,1,1,473.14959110359524,0.865888694577128,0.0128048024297334,123.39801945132749
1024,512,92.24055863408768,27325,748,28090368,23982856,0.7345893217311079,0.2243049315211636,0.3987094417395951,1024,0,1,1,309.4935974250671,0.8746807735262122,0.0101978688507833,123.39801945132749
128,1024,51.71261039345807,17675,541,33734656,28230480,0.8613420441108229,0.1765622118781685,0.5142939981540027,128,0,1,1,239.93672859152554,0.660988510484017,0.0744272245584825,123.39801945132749
128,128,171.1375703942216,77348,154,28352512,24393256,0.6251718761276007,0.220507124623998,0.25933833960549,128,0,1,1,475.8186531117716,0.8664210512057678,0.0092094569582145,123.39801945132749
128,1536,35.67133200452956,57373,33,42254336,28247856,0.9768321988983681,0.0840451170885885,0.8518004139969348,128,0,1,1,144.8672921774038,0.5737446007907796,0.0965185002502165,123.39801945132749
128,2048,39.35083785834592,37864,355,42254336,28085344,0.9600002654990145,0.1084518843522995,0.7212014531321277,128,0,1,1,171.10062509638394,0.5257050625737023,0.0555325500298156,123.39801945132749
128,256,136.50517989809467,23204,4637,28090368,24674216,0.7331099351527395,0.3055498178304597,0.41086496372434583,128,0,1,1,300.33716755200544,0.8701604111438977,0.0131388321875533,123.39801945132749
128,512,95.08206568007564,78196,1045,28090368,23800176,0.7903303088869715,0.2535377695502929,0.4058969982566635,128,0,1,1,304.0131362915338,0.8696293767269047,0.0119397228796388,123.39801945132749
1536,1024,36.28476940474286,67649,4076,25530368,14963888,0.8877509548691344,0.115716881595371,0.5379136806335234,1536,0,1,1,229.40115467224496,0.6637343289954514,0.0838449213727281,123.39801945132749
1536,128,110.8623573135113,30537,3727,28352512,24385208,0.7142794496100008,0.176853853923279,0.358977444688947,1536,0,1,1,343.7486707786099,0.872652981793634,0.0115580204519195,123.39801945132749
1536,1536,35.582864621988314,108237,5734,41992192,28268792,0.9589473212224136,0.1685326097097592,0.7487996005780596,1536,0,1,1,164.79445148750943,0.567492605913534,0.1116031007872696,123.39801945132749
1536,2048,38.23205138883831,115775,30,42782720,27903864,0.9821418479511763,0.0700703892183882,0.9033358330312442,1536,0,1,1,136.60259555657353,0.5307067806179879,0.0689357989534977,123.39801945132749
1536,256,156.23567747378152,71624,238,27566080,24314400,0.8574608230698767,0.3680778427100493,0.2690447506193237,1536,0,1,1,458.652395808776,0.8722878695266554,0.0123199369080084,123.39801945132749
1536,512,58.90453274397071,14386,429,28090368,24048224,0.7361077672352168,0.2449746954212796,0.5151964166554576,1536,0,1,1,239.51645520440616,0.8769950680195198,0.0121612327498341,123.39801945132749
2048,1024,34.20149373791621,22253,5452,33738752,28307472,0.8489681231918843,0.2169534874840738,0.5980395249774288,2048,0,1,1,206.33756515672567,0.6684435820721439,0.0907633515020255,123.39801945132749
2048,128,72.20752140934135,95510,1296,28352512,24383712,0.7853724578810239,0.1962991576327593,0.37949228294021875,2048,0,1,1,325.16608373500526,0.865339405944218,0.011532495059675,123.39801945132749
2048,1536,31.690145054413115,68760,4103,42258432,28326056,0.972633754039051,0.1533699055278179,0.8359251269703185,2048,0,1,1,147.61850729211184,0.5630963557901951,0.1030104964437498,123.39801945132749
2048,2048,26.50635672449432,30517,125,42254336,28092792,0.976225690137301,0.110919842225628,0.8140407034239967,2048,0,1,1,151.58703850101594,0.5339846321710888,0.0807181171254501,123.39801945132749
2048,256,111.54075192204388,33707,362,27828224,24732432,0.7548573884002965,0.2892836408493058,0.3179033749946685,2048,0,1,1,388.16203021876373,0.872317405811974,0.0149536700640629,123.39801945132749
2048,512,69.41680801004212,133840,30,28090368,23825056,0.7636209709392975,0.2669730355532209,0.4858837372283214,2048,0,1,1,253.96614456627015,0.8810139880628256,0.0135073859259302,123.39801945132749
256,1024,33.51311144183022,14468,3702,25530368,14907160,0.9146305176952473,0.2090193668410616,1.0,256,0,1,1,115.97436645092556,0.6659921040647355,0.0605390843923029,123.39801945132749
256,128,192.4368807069125,52057,31,27828224,24331352,0.6326852808573145,0.2940837822462578,0.20083409176840678,256,0,1,1,614.4276520224702,0.8683748934798803,0.0118245081411885,123.39801945132749
256,1536,34.21883406992544,25495,7,34312192,16204944,0.990165017833814,0.0886184647346761,0.621282797256341,256,0,1,1,198.61811721854826,0.5341586533859344,0.0612037914195355,123.39801945132749
256,2048,27.5723332192923,23053,20,42778624,27988000,0.9686634022528297,0.084977441620461,0.7143867811580834,256,0,1,1,172.73278664435603,0.5214213388299278,0.0580210726615546,123.39801945132749
256,256,147.3292734540848,109657,30,27828224,24718904,0.7224377640436972,0.2646771502851006,0.3026246762641713,256,0,1,1,407.75927784424687,0.8632764166069545,0.0153214736371202,123.39801945132749
256,512,85.68392597710776,109157,5,27828224,24295976,0.8098910062172193,0.3008070779364056,0.5671901791571391,256,0,1,1,217.5602187518488,0.8775212651010926,0.0140844257388738,123.39801945132749
512,1024,40.37761419060447,40541,172,33734656,28343376,0.9159620629765324,0.1532451484724746,0.7044863306045318,512,0,1,1,175.1602750694077,0.689136960634902,0.0836193169192934,123.39801945132749
512,128,168.14028695805115,15917,2095,28090368,23828256,0.7561552868074679,0.3303050095859275,0.27213213373275136,512,0,1,1,453.44891012581076,0.8725246923027643,0.0135679046133653,123.39801945132749
512,1536,29.474995681833526,121410,12238,34312192,14960192,0.9857351774767552,0.0658311924325548,0.6743083532373296,512,0,1,1,182.99939316916087,0.5214320641004648,0.0515821140654107,123.39801945132749
512,2048,26.83843083911714,28453,684,34574336,15500296,0.9943238864693885,0.1109845129182103,1.0,512,0,1,1,101.61025931451192,0.5239155406991485,0.0596079584710131,123.39801945132749
512,256,111.05442765327687,76285,26,28352512,24348824,0.6803386822790849,0.2496178385136216,0.25465631986703174,512,0,1,1,484.56688416670556,0.8704014123714183,0.0127649565062538,123.39801945132749
512,512,62.98640235917743,37073,309,27828224,24650024,0.7653932157818086,0.2588078809755634,0.46119056566143685,512,0,1,1,267.56405841552885,0.8746749407672507,0.0134805913298596,123.39801945132749
