cpu,memory,duration_std,userDiff,sysDiff,heapTotal,heapUsed,avg_cpu_util,cpu_util_std,slo_preservation,total_cpu_shares,cpu_shares_others,num_containers,arrival_rate,latency,memory_util,memory_util_std,slo_duration
1024,1024,551.8475357767163,1873591,178912,44486656,38553128,0.9660882492629794,0.1791034517837682,0.4898474368693799,1024,0,1,1,859.1224289372948,0.8544826198537013,0.0311891010721754,420.83891977192985
1024,128,957.5263264666258,2156922,229285,35962880,32872776,0.9468179213272707,0.1849657387805899,0.23487755065058225,1024,0,1,1,1791.7375185761996,0.9148769103164373,0.0186334299475944,420.83891977192985
1024,1536,326.3743398483531,276215,54078,52219904,33301448,1.0830549901479725,0.2184953697973434,0.7480567012968051,1024,0,1,1,562.5762312434045,0.7367195210218467,0.049850677228743,420.83891977192985
1024,2048,201.90619379509053,1433347,111019,53530624,36153176,1.0804415165281256,0.2358052447264979,1.0,1024,0,1,1,326.1825102929129,0.7881927135842199,0.0506846861331247,420.83891977192985
1024,256,348.7177945543176,1612170,138695,36749312,34169200,1.117456054212964,0.2486160249878126,0.5998435175950505,1024,0,1,1,701.5811748023838,0.9153670331530966,0.0173507264067788,420.83891977192985
1024,512,517.719948885799,1803711,134021,36749312,34651448,0.9927820637767394,0.1804986646698214,0.4247734148143267,1024,0,1,1,990.7374263426617,0.9131174526758372,0.026010814825746,420.83891977192985
128,1024,569.4983354532018,1842958,119431,44224512,35975976,1.007608580188288,0.1821566641945762,0.45079997283407497,128,0,1,1,933.538032680466,0.8482248976902055,0.0457390155826571,420.83891977192985
128,128,1100.7004544902547,2254244,212060,36487168,33493352,0.8707884544984809,0.1689454886647512,0.26453690101164234,128,0,1,1,1590.8514772893957,0.9138754383699405,0.0205779655987932,420.83891977192985
128,1536,330.7544964748053,1657839,97506,52482048,35762400,1.0379434720856646,0.1990614961269736,0.747484280396918,128,0,1,1,563.0070501930318,0.7546756590815883,0.059554218059764,420.83891977192985
128,2048,182.1073746953808,226492,20082,54808576,42695552,1.0978538315425708,0.2324828622448007,1.0,128,0,1,1,402.21676352120164,0.7543038424757433,0.0617660538654752,420.83891977192985
128,256,369.1821134133954,1755452,105192,35962880,32489192,1.1079454647589897,0.2263810431128176,0.5715471253437365,128,0,1,1,736.3153467333623,0.9227239790149696,0.0216504633627199,420.83891977192985
128,512,544.191121059265,1687203,184994,36749312,34575328,1.0602736128040593,0.1386910417916775,0.3973297750925029,128,0,1,1,1059.1678403008025,0.919313241020986,0.0183208056605138,420.83891977192985
1536,1024,580.8781495429299,429071,42194,43175936,34084608,0.9346009059866347,0.1507723889346957,0.43999027263025287,1536,0,1,1,956.473235774426,0.8363546260621312,0.0365891427858164,420.83891977192985
1536,128,1042.967083934739,2180250,253098,37273600,33683560,0.8805742434392428,0.1258600009643595,0.2630112097684986,1536,0,1,1,1600.0797842128118,0.9128073948204768,0.0228752739446065,420.83891977192985
1536,1536,319.7201194757341,1631754,171775,71188480,55471624,1.0611531407165433,0.2039465279766487,0.6769836607963359,1536,0,1,1,621.638222814561,0.761848567871521,0.0589820074351082,420.83891977192985
1536,2048,187.14828964086772,1329947,147249,52744192,39174024,1.1139972108486025,0.2750847353538166,1.0,1536,0,1,1,360.46929672297665,0.7645742520720413,0.0623147298021843,420.83891977192985
1536,256,340.3785689366751,1659601,146746,37011456,35118160,1.1155192829257814,0.1654531867555952,0.5505005416456342,1536,0,1,1,764.4659504128707,0.9188684462419472,0.0211464755745837,420.83891977192985
1536,512,578.3912937580784,1686531,139744,36749312,33985312,0.998727470454504,0.240661078273619,0.4379318392916321,1536,0,1,1,960.9689956607161,0.922021819712728,0.0152943281674605,420.83891977192985
2048,1024,563.817965078427,139428,23496,47403008,38710016,1.004069776303704,0.1665836933430404,0.49542180306143063,2048,0,1,1,849.4557913506832,0.8375990338497104,0.030890416810413,420.83891977192985
2048,128,933.6502565385676,1784534,211304,37011456,34419176,0.9284026551134658,0.2104835234789799,0.2875631289203459,2048,0,1,1,1463.4662008024711,0.9225314002463564,0.013475327815028,420.83891977192985
2048,1536,339.03387176381443,1678913,138847,53006336,37176840,1.0459575800564116,0.2294489265704552,0.6843554898182149,2048,0,1,1,614.9419797651029,0.7544487448149754,0.0503905504355189,420.83891977192985
2048,2048,286.9136580558158,1535028,139705,70926336,53492528,1.0911865093172213,0.2429396093091607,1.0,2048,0,1,1,396.01438005680325,0.7383638043705828,0.0580123323235891,420.83891977192985
2048,256,348.2587307636531,1883360,155130,37011456,33131392,1.153221367207702,0.1845688994950294,0.5653111528282104,2048,0,1,1,744.437674131323,0.9176659540609002,0.0254263942226808,420.83891977192985
2048,512,572.6097886949873,2031259,148264,37011456,33919728,0.987784464362315,0.2069853491388134,0.40769511881964515,2048,0,1,1,1032.239289472826,0.9112794443528895,0.0197962638595857,420.83891977192985
256,1024,499.812472412323,1702418,113580,43438080,37582792,0.9688386247910433,0.219487961680223,0.4507711721342166,256,0,1,1,933.5976783507033,0.8324656301876263,0.0393629464390706,420.83891977192985
256,128,938.9150118097996,1934269,210766,37535744,35558176,0.9076887172505211,0.1450317955883134,0.2826388307062094,256,0,1,1,1488.9635607407865,0.9200089767640592,0.0188304076581023,420.83891977192985
256,1536,393.2114070387983,1809890,172691,71188480,60994336,1.0408940831458358,0.2537263611294704,0.6805734974320966,256,0,1,1,618.3592534234975,0.7758058381555155,0.0487271985745286,420.83891977192985
256,2048,236.3843490463809,1646650,135058,71974912,60992560,1.1044669848422808,0.2902698571881997,1.0,256,0,1,1,398.535147179519,0.7774170894914219,0.0560694945025605,420.83891977192985
256,256,544.3057150534637,2006621,135810,36749312,32221560,1.0232635672638186,0.1244854647494917,0.4026359806733112,256,0,1,1,1045.2094198540792,0.9157348192450282,0.0227098395949415,420.83891977192985
256,512,797.3570094476382,2025316,164773,35962880,32834304,0.8951192394780366,0.1253403918733764,0.3163518606228939,256,0,1,1,1330.2874809817838,0.9185004061422904,0.0244844567843189,420.83891977192985
512,1024,870.5480073132424,1763033,136692,42651648,37291096,0.8836936874750413,0.1330471641629508,0.31052367730841507,512,0,1,1,1355.2554942660577,0.8240999061504387,0.0316485856217038,420.83891977192985
512,128,1298.4341460679248,2084749,266454,37535744,34693408,0.7946785452519968,0.2200523838017424,0.21329757495711174,512,0,1,1,1973.0131477422983,0.9126197077183684,0.0193725041497634,420.83891977192985
512,1536,498.6681907080301,1742820,138644,51695616,36583296,0.9762386814675065,0.1662089768390841,0.46042183894987365,512,0,1,1,914.0290146353088,0.7449015790975718,0.057504462867082,420.83891977192985
512,2048,362.5601430712542,1506835,123592,69615616,55583632,1.069733254503516,0.2318425579878682,0.8123981269282528,512,0,1,1,518.0205441427568,0.7863648362521478,0.0650346557793343,420.83891977192985
512,256,552.1976716783427,1850216,158566,36225024,33237376,1.0317066489390723,0.1416849520482099,0.4008673260679455,512,0,1,1,1049.8209567237197,0.9124029655475324,0.0198434857813331,420.83891977192985
512,512,545.8191607439281,1926076,122540,35700736,32824712,1.049571965023231,0.1745862185159064,0.4242585304004609,512,0,1,1,991.9397952345159,0.9222551650767572,0.0144308673895897,420.83891977192985
