cpu,memory,duration_std,userDiff,sysDiff,heapTotal,heapUsed,avg_cpu_util,cpu_util_std,slo_preservation,total_cpu_shares,cpu_shares_others,num_containers,arrival_rate,latency,memory_util,memory_util_std,slo_duration
1024,1024,809.1264147186774,1921349,174315,56815616,48818112,0.9371873001207695,0.1285278860067666,1.0,1024,0,1,1,1304.8962538343696,0.8530109109980122,0.0772989919468019,1822.9384983402065
1024,1536,363.8975288577709,1848556,151676,58773504,32821296,1.0947744182509513,0.2686218556711162,1.0,1024,0,1,1,625.8133421344788,0.7849751268237479,0.0914778688331846,1822.9384983402065
1024,2048,213.603109666738,1545819,138730,93384704,47702568,1.233439110801303,0.3093274668753399,1.0,1024,0,1,1,352.78259432552807,0.7650373551277665,0.1037722972856846,1822.9384983402065
1024,256,3947.49442317036,2453224,194324,50126848,46818888,0.6721418394966692,0.3765484994660742,0.20957790495726053,1024,0,1,1,8698.142577157456,0.9296653345827116,0.041795291314312,1822.9384983402065
1024,512,3055.566328209437,2155482,200863,51175424,47119768,0.7701466125709472,0.3575581208477529,0.412848553769714,1024,0,1,1,4415.513828727222,0.92694843787427,0.0453784638119999,1822.9384983402065
128,1024,850.1938899612691,1971468,165588,56553472,47470040,0.9171071960501778,0.1238186511813681,1.0,128,0,1,1,1423.2822457338573,0.8700322272573449,0.0496685006221315,1822.9384983402065
128,1536,361.0837725319144,1827823,96677,94171136,48766096,1.1117248203616474,0.2733922413083537,1.0,128,0,1,1,579.0256095069584,0.7445673079204979,0.1108460991383239,1822.9384983402065
128,2048,204.72988238451012,1449572,142638,90501120,48657840,1.222662178996246,0.2201731565434386,1.0,128,0,1,1,384.19218534145875,0.767374260630849,0.0903256923901121,1822.9384983402065
128,256,4238.027292002943,2390507,247733,49864704,47441832,0.6443856981698121,0.304235804700172,0.20963928039221041,128,0,1,1,8695.596049221802,0.9303974932086374,0.0388583106232798,1822.9384983402065
128,512,1967.650034042052,2263413,283783,50913280,47283048,0.7046101050203942,0.1122392035796541,0.5143759322996614,128,0,1,1,3543.9809366473473,0.924642355692772,0.0517333167518227,1822.9384983402065
1536,1024,844.5052725753925,2004542,218774,58650624,47254080,0.9312543014000809,0.151361145953624,1.0,1536,0,1,1,1365.9425604354994,0.8435916126309493,0.0762501246301248,1822.9384983402065
1536,1536,381.86344542864185,1777643,142644,94433280,49219344,1.1315243123884462,0.1521030606490993,1.0,1536,0,1,1,583.2349570924952,0.791996803185905,0.096825360023782,1822.9384983402065
1536,2048,214.33309101553857,1563522,138107,94171136,47376104,1.2161744226778524,0.2214812444538708,1.0,1536,0,1,1,336.33020346266653,0.7497326007941711,0.1170612683273048,1822.9384983402065
1536,256,3132.729356767177,1989249,178176,50388992,47729728,0.6219350567557872,0.1884734940178592,0.31810149201470805,1536,0,1,1,5730.682012192257,0.9353161344188464,0.0317095139480931,1822.9384983402065
1536,512,1553.0259263001983,2088696,191092,49864704,47040584,0.7377066232497682,0.1342242559253276,0.6756167993055509,1536,0,1,1,2698.184089285462,0.9365268139222008,0.0290263880277688,1822.9384983402065
2048,1024,934.1086764772552,2331749,150725,60223488,47756632,0.8865300273461147,0.0911309012694773,1.0,2048,0,1,1,1323.026456284977,0.8783059484633281,0.0649487915993848,1822.9384983402065
2048,1536,377.2008817494009,1905649,168915,78704640,48255152,1.0979525273356077,0.1954024273325194,1.0,2048,0,1,1,630.7556765492832,0.8210904311692684,0.0846373122595809,1822.9384983402065
2048,2048,222.0912493426777,1621812,139869,90501120,48065632,1.2094166053724789,0.1915633783802377,1.0,2048,0,1,1,352.61205294014616,0.7774521083156295,0.1038256708985923,1822.9384983402065
2048,256,2609.6565147219417,2093137,162775,51175424,47058200,0.650978456666221,0.1478820675816213,0.3991652416657113,2048,0,1,1,4566.876842114579,0.9185468000319024,0.061887153476241,1822.9384983402065
2048,512,1552.480577274469,2023414,186343,51437568,46810216,0.7544084407904855,0.0838097378374932,0.7577172790721767,2048,0,1,1,2405.8293887297796,0.9198359861231842,0.0557414976327962,1822.9384983402065
256,1024,710.0502457483218,2004874,174136,57864192,47389320,1.066813915034852,0.2497176387205306,1.0,256,0,1,1,1104.5890800423763,0.8424454074303938,0.0799810369855641,1822.9384983402065
256,1536,362.97610104461177,1671384,121098,78704640,48672560,1.087762118116244,0.2572006312805331,1.0,256,0,1,1,578.6775350853802,0.7715689665248925,0.0856730649147089,1822.9384983402065
256,2048,230.72998380292847,1702452,140221,94433280,47829392,1.225753612210319,0.3531270579833312,1.0,256,0,1,1,387.45158328267,0.7502042946915176,0.1190354881305518,1822.9384983402065
256,256,3702.096784342045,2114637,218746,49864704,46962744,0.6729291867153346,0.4388842845560845,0.2917677138697487,256,0,1,1,6247.9102782222335,0.9333328274844348,0.027990620211191,1822.9384983402065
256,512,1469.3074251462474,2139078,194916,49864704,47184192,0.7441288985649791,0.0893576144889828,0.7175138115376539,256,0,1,1,2540.6319279535455,0.930891322306132,0.0275180895730438,1822.9384983402065
512,1024,649.765371941378,1921294,144274,56029184,48907448,0.9871338938294371,0.1847253337973405,1.0,512,0,1,1,958.2732899115829,0.8766445756004764,0.0507310826600998,1822.9384983402065
512,1536,229.4228356669116,1676425,154105,78966784,49595768,1.238991299831989,0.3035273780292491,1.0,512,0,1,1,398.61400498184616,0.7694839109442275,0.097512855956117,1822.9384983402065
512,2048,220.3117730536802,1533260,143786,93384704,49380520,1.2331242691911,0.2831980128175933,1.0,512,0,1,1,364.2947826831368,0.7461953999674098,0.1024063761759718,1822.9384983402065
512,256,2926.932682545326,2123131,175247,50126848,47231960,0.5504661332931418,0.099999721136695,0.35213917715184784,512,0,1,1,5176.755716544789,0.9347288194818214,0.0352895001271065,1822.9384983402065
512,512,1160.6935022810817,2237459,208114,50913280,47479984,0.8008896919837731,0.0896557738178984,0.9238938939355125,512,0,1,1,1973.10374092314,0.9168525653172545,0.0510130245001595,1822.9384983402065
