cpu,memory,duration_std,userDiff,sysDiff,heapTotal,heapUsed,avg_cpu_util,cpu_util_std,slo_preservation,total_cpu_shares,cpu_shares_others,num_containers,arrival_rate,latency,memory_util,memory_util_std,slo_duration
1024,1024,32.97300040788856,15569,24,33722368,28135336,0.9324433957329997,0.1146492958216048,0.6361621568283281,1024,0,1,1,90.21842899480733,0.6868454349838361,0.0810855307213443,57.393550375
1024,128,38.79780653525276,29121,168,28340224,24557304,0.9353690691390208,0.0958354984405472,0.4649190398481866,1024,0,1,1,123.44848340420975,0.8735125050707676,0.0125714832750364,57.393550375
1024,1536,23.866725670678186,41358,10230,34312192,15067720,0.9948322447408754,0.1057904527112919,0.7211484736327497,1024,0,1,1,79.58631609643827,0.5241381480172628,0.046199547276726,57.393550375
1024,2048,20.96991275065117,25275,7495,34836480,15317800,1.0003926243846852,0.0691738787756185,0.6445663132788649,1024,0,1,1,89.04211900718627,0.5407724857398876,0.0662995772662277,57.393550375
1024,256,28.951710696799733,54354,4,28602368,24459552,0.993874306444919,0.0839348870271166,0.5624808541449249,1024,0,1,1,102.03645146686605,0.878215134984868,0.0145768475660367,57.393550375
1024,512,40.57118509498546,25796,469,28340224,24405344,0.9010391079400086,0.2018802594303126,0.5261458670549339,1024,0,1,1,109.08296343038201,0.877724771534975,0.0127562105494571,57.393550375
128,1024,37.18286263516625,76354,3910,33722368,28146376,0.9194317907968033,0.1323256928777227,0.42332856991338924,128,0,1,1,135.57684138054375,0.6634144203833607,0.0765293572365104,57.393550375
128,128,44.27644727752455,10286,3139,27815936,24086280,0.9360531802397826,0.1467034831400431,0.4112497368354433,128,0,1,1,139.5588744120348,0.8737673544360515,0.0134022093798882,57.393550375
128,1536,34.59011842030238,76995,3617,34574336,15140360,0.9643363651568329,0.1327206255188687,0.5903744600285327,128,0,1,1,97.21550348269838,0.5323746372366817,0.0634400813969028,57.393550375
128,2048,22.88399501738108,51893,209,34836480,15458976,1.0097071145023133,0.0556984040808979,0.7662325841029103,128,0,1,1,74.90356265936565,0.5337733392540096,0.0640089640761475,57.393550375
128,256,28.409419306322388,22712,9,28340224,24592824,0.9455909924252665,0.1268659108191168,0.5156611214122605,128,0,1,1,111.30090672303183,0.8852565266393346,0.0151444086771902,57.393550375
128,512,28.614606594763615,76279,8620,28602368,24254072,0.9548506836972254,0.0758757356342686,0.4403984076104347,128,0,1,1,130.32188441918456,0.8787963382439623,0.0150216521453071,57.393550375
1536,1024,28.334295642883507,84639,3,25792512,16175216,0.9155978597462331,0.1461667910501853,0.49964037613223106,1536,0,1,1,114.86972053637766,0.6667311859925259,0.0583673297028996,57.393550375
1536,128,46.903868763266495,78412,11186,28078080,23805656,0.8152869641844517,0.174234980808936,0.38952644743021003,1536,0,1,1,147.34185766752842,0.8720026518283343,0.0143107429897112,57.393550375
1536,1536,32.18819115609204,91996,6200,34836480,15460800,0.9719758655927438,0.0695041130687936,0.5462300339257754,1536,0,1,1,105.07212494800119,0.5354144504438977,0.0752631090705356,57.393550375
1536,2048,17.453509579093332,18984,23,42504192,27770336,1.011253070386884,0.0390062274407928,0.862049290495477,1536,0,1,1,66.57803794724094,0.5185498244614617,0.0532289067042392,57.393550375
1536,256,30.193210205294665,12454,118,28602368,24326304,0.9325219106741689,0.1481130660073781,0.6263784121434751,1536,0,1,1,91.62759964635198,0.8737287012421241,0.0164266464676464,57.393550375
1536,512,33.79842976676603,32965,1064,28340224,24240392,0.965853546067821,0.085470441970639,0.47100102277962314,1536,0,1,1,121.85440710147648,0.8805307044113736,0.0153030505324378,57.393550375
2048,1024,37.11985098012505,37563,400,33722368,27971416,0.8772347883314382,0.1477192197129837,0.38328147413299174,2048,0,1,1,149.74256322935523,0.6773214511721265,0.0891747325325875,57.393550375
2048,128,51.35464176359864,16113,59,28340224,24425712,0.888927921832285,0.1197917112358823,0.37013509607154416,2048,0,1,1,155.0610871115726,0.8794558599909041,0.0137491451409535,57.393550375
2048,1536,20.049555626413376,14572,569,34574336,15470264,0.9766929739331849,0.0883964832993373,0.5396128680320582,2048,0,1,1,106.36060363851492,0.5251289260682547,0.0520195445870131,57.393550375
2048,2048,20.360015074734008,54012,385,34836480,15480568,1.008345884390024,0.0253502690291982,0.7806118931450451,2048,0,1,1,73.52379700975902,0.5462316905454542,0.0639661455190808,57.393550375
2048,256,39.471287142279,66176,3008,28602368,24197464,0.9211947928608838,0.1655810022888475,0.4402321710185014,2048,0,1,1,130.37109542043885,0.8731956589604687,0.0128535199821097,57.393550375
2048,512,28.89686467968697,31697,30,29126656,26497368,0.9583890920512927,0.086464039692407,0.49403717432191996,2048,0,1,1,116.17253388628957,0.879070916849038,0.0142063203711312,57.393550375
256,1024,41.89665263890876,72664,5,25792512,16327384,0.8901130161843742,0.14300399011683,0.4251955324444004,256,0,1,1,134.98154612549914,0.653198997720968,0.0728229808896137,57.393550375
256,128,43.44064494949178,46726,510,28078080,23989376,0.8473402863896748,0.1433592630158963,0.507257641127003,256,0,1,1,113.14477244243281,0.8746190094811764,0.0114017971094891,57.393550375
256,1536,23.37240832041573,54875,15727,34312192,15071120,0.9694961234486165,0.1207607766329084,0.6601054947149004,256,0,1,1,86.946027316116,0.527442248006812,0.0453841537342499,57.393550375
256,2048,17.307399365002357,70504,4547,35098624,15323024,1.0088677618107698,0.0482795392716563,0.813298621759277,256,0,1,1,70.568852374113,0.5187742405647452,0.0535405082705474,57.393550375
256,256,32.86137064810581,28916,114,28602368,24326872,0.9516504148680109,0.1463906737737726,0.4883674728054041,256,0,1,1,117.52123876167558,0.8761294233782733,0.01391147943615,57.393550375
256,512,23.05479640182297,21188,8111,27815936,24310408,0.955915836717822,0.0691314579348228,0.4765444241073304,256,0,1,1,120.43693614191456,0.8869642684305031,0.0151410559407981,57.393550375
512,1024,42.94664224471782,110031,4201,25792512,15260376,0.8918341689524407,0.1647799940114942,0.44309512357351055,512,0,1,1,129.5287339479787,0.6591750560430223,0.0670302704188617,57.393550375
512,128,39.282355422764304,135123,38,28340224,24427312,0.8931684220835441,0.1105607585134641,0.41836795360118334,512,0,1,1,137.18438489605592,0.8753800193634248,0.011876465219983,57.393550375
512,1536,23.26151898558252,48703,13047,34574336,15318328,0.9703198181963409,0.085091683077802,0.5247746381887761,512,0,1,1,109.36799570400338,0.515036190590433,0.0508199599986398,57.393550375
512,2048,28.113962934955488,58373,2845,35360768,15271136,0.9942409628598677,0.1009066162962457,0.6571712690932316,512,0,1,1,87.33423549418391,0.5087208347447099,0.0530681364613134,57.393550375
512,256,26.106401352675597,30679,11081,28340224,24283304,0.9759219936646875,0.1963032043382032,0.6950420168533984,512,0,1,1,82.57565583564673,0.8860147814674104,0.0132227446653455,57.393550375
512,512,25.28342480280824,87776,3869,28340224,24331728,1.0034414596324432,0.064601757767799,0.6158017350838284,512,0,1,1,93.20134566880861,0.8816901369938046,0.0145305557209124,57.393550375
