cpu,memory,duration_std,userDiff,sysDiff,heapTotal,heapUsed,avg_cpu_util,cpu_util_std,slo_preservation,total_cpu_shares,cpu_shares_others,num_containers,arrival_rate,latency,memory_util,memory_util_std,slo_duration
1024,1024,733.4832654228732,1742902,181400,43700224,36338384,0.9244581403532562,0.1608170983525924,1.0,1024,0,1,1,756.695626655182,0.81821886350134,0.0355376033873644,3129.368459085472
1024,128,2719.308121918433,2050376,239388,36487168,33881536,0.20276730206520258,0.036092134092798,0.21459479501694217,1024,0,1,1,14582.685748917673,0.9157001315873166,0.0090674373118841,3129.368459085472
1024,1536,494.1208404718456,1671924,138252,51433472,38897304,1.0912558743017928,0.162016315091106,1.0,1024,0,1,1,475.9667427903825,0.7467324549274111,0.0580840661955816,3129.368459085472
1024,2048,314.9872948047968,1496484,141482,52482048,38060784,1.0308298046129705,0.2256780888143687,1.0,1024,0,1,1,315.7307570299074,0.7638815802967969,0.0590769373040103,3129.368459085472
1024,256,2793.2681927296576,2163844,240080,35962880,32671704,0.36369365213803956,0.067843131498947,0.5541218980592763,1024,0,1,1,5647.436908820219,0.9134365320572448,0.0119905994424926,3129.368459085472
1024,512,1996.6519994934329,2086017,133558,35962880,33021480,0.5299746682996359,0.0643742765530433,1.0,1024,0,1,1,2457.36948511015,0.909225342519046,0.0186631166503616,3129.368459085472
128,1024,863.2248612099623,1914346,150649,43700224,36529384,0.7894868296443143,0.1732135435809228,1.0,128,0,1,1,789.5724929756125,0.843773017278331,0.0380399520642261,3129.368459085472
128,128,2111.1797439438883,2105141,234037,37273600,34974432,0.16550525293842402,0.0158771355058922,0.17933240677488865,128,0,1,1,17450.100154032323,0.9255131575149652,0.0139348910509359,3129.368459085472
128,1536,551.7345726109096,1769174,181731,70926336,55826040,1.0459204950085024,0.1741271163877614,1.0,128,0,1,1,509.9408845083392,0.7672565402369496,0.0507510188029331,3129.368459085472
128,2048,316.8579458121297,1556813,127976,53268480,35737408,1.0633967176750159,0.2420789019933745,1.0,128,0,1,1,328.48528422488044,0.7669770484778735,0.0486667350358304,3129.368459085472
128,256,4370.513052219106,2035577,187905,37535744,35314832,0.29059596429904977,0.1265195285209051,0.3180721605757767,128,0,1,1,9838.548753907493,0.9241340724683332,0.0197024955038491,3129.368459085472
128,512,1754.0955342166585,1945516,163727,36749312,33992184,0.5250828888151958,0.0580002316115296,1.0,128,0,1,1,2339.674838804435,0.9155572758829288,0.0184770090444638,3129.368459085472
1536,1024,780.3178174973473,1813392,188884,43175936,36211328,0.8510003839473117,0.158786824071767,1.0,1536,0,1,1,829.6471281687285,0.8465077840538534,0.0206305793723364,3129.368459085472
1536,128,2287.2395726538475,1787872,177337,36487168,33738880,0.31961454698865877,0.0774235959489771,0.34491211412522355,1536,0,1,1,9072.944471730922,0.9272797063451816,0.0106150446161544,3129.368459085472
1536,1536,344.1102615433493,1534954,149966,52219904,35871072,1.121132672576319,0.1726552551237989,1.0,1536,0,1,1,298.30297022414084,0.7868674935521964,0.0551387003232236,3129.368459085472
1536,2048,201.5451353760821,1409328,131687,53530624,35962120,1.1028512768078265,0.1888509168066575,1.0,1536,0,1,1,173.3363915169561,0.756779213081301,0.0614934813965537,3129.368459085472
1536,256,3197.2963493259604,1898831,137569,36487168,34608088,0.36344073856080983,0.10283426086001,0.4875663624638158,1536,0,1,1,6418.343634847686,0.917840992831535,0.0187681582981803,3129.368459085472
1536,512,1956.702441297168,1865218,152546,36749312,33874256,0.528818182829506,0.0825069818329124,1.0,1536,0,1,1,2369.7709504205955,0.9134159514943846,0.0179605194104331,3129.368459085472
2048,1024,725.3462418763272,1822376,127755,43438080,34036208,0.8436237930961515,0.1244826194828781,1.0,2048,0,1,1,808.0908933527897,0.8328900464146688,0.033734241090215,3129.368459085472
2048,128,3866.276826339761,2194071,252588,36749312,33465392,0.43525052407113723,0.1922390770805592,0.3896314292774519,2048,0,1,1,8031.61199005095,0.9202106642540298,0.0098942166106543,3129.368459085472
2048,1536,333.17547107607845,1642847,128409,53268480,41705192,1.1463285394628162,0.2286767732949533,1.0,2048,0,1,1,284.7383071014541,0.7531549406660887,0.0436521274854862,3129.368459085472
2048,2048,196.59622986338792,1371647,115626,52744192,40552368,1.1199075044480316,0.1896212801737581,1.0,2048,0,1,1,175.67220731602842,0.7572335274280295,0.0503763967980268,3129.368459085472
2048,256,2917.9564959810864,2058192,160729,35700736,32811272,0.3518018902501778,0.0946322827626734,0.5283434715084337,2048,0,1,1,5922.981219302374,0.9157510064977328,0.0113211794724276,3129.368459085472
2048,512,1578.4134710620688,2092181,194596,36487168,33581744,0.6615144978708797,0.1969505821463928,1.0,2048,0,1,1,1754.735094899847,0.9112305946856962,0.0230507324707148,3129.368459085472
256,1024,824.342945259817,2035470,197444,43962368,34886472,0.8913238626815657,0.1125430088576223,1.0,256,0,1,1,846.3895561541012,0.8321404257597008,0.0373209531867632,3129.368459085472
256,128,1516.5860809305902,1961370,172527,36749312,33809376,0.19070412049577917,0.0183747024660782,0.20577092959030496,256,0,1,1,15208.02022577301,0.921002864351904,0.009870423746351,3129.368459085472
256,1536,536.3713677123824,1671250,184351,74780672,60202376,0.971105927682649,0.2144247247251842,1.0,256,0,1,1,526.7642836720099,0.7613762448389483,0.0469039243826771,3129.368459085472
256,2048,323.8476535606436,1490099,149737,70664192,60458456,1.1318320994292794,0.1821836370823311,1.0,256,0,1,1,294.521523288445,0.7751480259591422,0.0378220536192587,3129.368459085472
256,256,3182.328234266109,2146030,196683,37535744,34843752,0.26353531074838016,0.0241630300990397,0.3407191159178474,256,0,1,1,9184.599022732878,0.9235968483779884,0.017682741856808,3129.368459085472
256,512,980.943961481606,2125880,236467,36749312,32828560,0.7201178562165635,0.2530816306606691,1.0,256,0,1,1,1538.0655154013853,0.9087872529660416,0.0237235919861676,3129.368459085472
512,1024,776.6401195133895,1891318,167517,43175936,36471832,0.8766206553603546,0.1135219906709969,1.0,512,0,1,1,772.907069597151,0.8338848496187928,0.0325706634285057,3129.368459085472
512,128,3614.2474420713575,1959881,213849,37011456,31963704,0.3442299992343467,0.1425650999347604,0.32604808873931124,512,0,1,1,9597.873955297218,0.9125792519260412,0.0190875733353893,3129.368459085472
512,1536,507.8894043126702,1772300,153213,51957760,38847768,1.0061872834946075,0.1164821619451393,1.0,512,0,1,1,437.15384475364965,0.7579039280395204,0.0445812041121322,3129.368459085472
512,2048,344.38081843917286,1464666,128467,51695616,41491632,1.079701704279775,0.2555723607784651,1.0,512,0,1,1,330.82333555179963,0.7694990226657442,0.052425690134342,3129.368459085472
512,256,3122.520432205428,1899339,161382,36749312,33829680,0.29900496576486535,0.0262837735440634,0.39927523443275714,512,0,1,1,7837.622244543434,0.91170667782784,0.0194590548954219,3129.368459085472
512,512,1423.1661964172677,2134564,247852,37535744,35294440,0.6098913160616523,0.2200561968583277,1.0,512,0,1,1,1819.4153755976795,0.9080974337597454,0.0190824325500744,3129.368459085472
