cpu,memory,duration_std,userDiff,sysDiff,heapTotal,heapUsed,avg_cpu_util,cpu_util_std,slo_preservation,total_cpu_shares,cpu_shares_others,num_containers,arrival_rate,latency,memory_util,memory_util_std,slo_duration
1024,1024,94.17431901133745,244920,37163,38645760,30798640,1.0786634915053386,0.1428175356674921,0.7512738942150071,1024,0,1,1,264.3322119214134,0.7819740672088988,0.0891532870575941,198.58589021666677
1024,128,283.9594239896452,235511,40107,32481280,29655696,1.1131583690964078,0.3566538179990473,0.5673050876335304,1024,0,1,1,350.0513119758058,0.8735200062515329,0.0678667663153389,198.58589021666677
1024,1536,53.04948305572464,240939,50124,36671488,15966688,1.1984567778678132,0.268255151369935,1.0,1024,0,1,1,193.83970414134845,0.7174021271389596,0.09967308913885,198.58589021666677
1024,2048,39.20582362831068,311343,18708,49786880,30324040,1.5258367306362424,0.4850789689348145,1.0,1024,0,1,1,127.27804917163422,0.701803486655124,0.1558415740656534,198.58589021666677
1024,256,65.72531798214273,319977,48236,33005568,29753112,0.9479983802426901,0.1003023129639925,0.6124763237031354,1024,0,1,1,324.23439491666045,0.8814316281558991,0.0576247098934202,198.58589021666677
1024,512,59.88411247441975,266289,41403,32481280,30084744,1.1006285101231335,0.1498864676904679,0.7092007176934523,1024,0,1,1,280.0136622288421,0.8879686276372597,0.0564321384388294,198.58589021666677
128,1024,85.76713169929754,283446,28737,38121472,30570952,1.011283787025219,0.1949018710815637,0.6882959732492671,128,0,1,1,288.5181636021989,0.7999661208229428,0.0822471726383855,198.58589021666677
128,128,430.7204673003591,267676,36560,32481280,29766320,0.9623957902747478,0.3579982364150815,0.41353800861282636,128,0,1,1,480.21194202391246,0.887340859301449,0.0561562878258099,198.58589021666677
128,1536,60.29734905111666,266764,43182,49786880,30290736,1.2819649181169315,0.4290114970674591,1.0,128,0,1,1,185.23875344970577,0.7850285712837441,0.0921686302841726,198.58589021666677
128,2048,37.99167676055482,235744,46650,49786880,30326816,1.6095934249745694,0.2010432417026906,1.0,128,0,1,1,119.27768541503855,0.673873534533403,0.134064394281672,198.58589021666677
128,256,48.06493473047186,284010,18085,33005568,29600312,1.2219297676458327,0.2047828989111797,0.8398856743315157,128,0,1,1,236.4439545593224,0.8672959833642144,0.076800248501896,198.58589021666677
128,512,57.400742519745215,315793,28359,32481280,30490664,1.1062345015950061,0.1361540580571665,0.7380363853821447,128,0,1,1,269.07330607262924,0.8760069457178397,0.069565985239459,198.58589021666677
1536,1024,81.975231747614,252931,34554,38645760,30450848,1.0495728947332101,0.154039841118308,0.7288837899440703,1536,0,1,1,272.4520602000285,0.7844129650224021,0.0945567437200529,198.58589021666677
1536,128,94.75676866803914,296779,13562,32743424,30166656,1.1034624247962452,0.1935558146961592,0.6879284859086267,1536,0,1,1,288.67228830388007,0.8768523545985945,0.0704874258768515,198.58589021666677
1536,1536,59.680246866588845,232113,58516,38244352,15690904,1.1540339533144943,0.2120775632730663,0.9754081705223326,1536,0,1,1,203.59260483775086,0.6834218187659529,0.1411548874566726,198.58589021666677
1536,2048,34.04847766488471,251956,28810,50311168,30325984,1.5176824254476664,0.3933162652573109,1.0,1536,0,1,1,125.25084369017972,0.7235580613140132,0.1108999667393196,198.58589021666677
1536,256,66.41869724688497,285481,38200,32743424,29758760,0.9889693756250844,0.1684236633591652,0.6152680197379037,1536,0,1,1,322.76322488086055,0.8904027272953062,0.0547261266823695,198.58589021666677
1536,512,64.98713767562896,304158,39896,33005568,30245784,1.1217392820480017,0.1150133022467688,0.6971300442616617,1536,0,1,1,284.86204525439916,0.8843294818731948,0.0467785840592895,198.58589021666677
2048,1024,85.2344564315201,322103,37827,38645760,31984168,1.0483507658314208,0.232025009521937,0.7229456628386918,2048,0,1,1,274.6899254321642,0.79120122101478,0.0933110551872085,198.58589021666677
2048,128,238.2222175743922,276806,31330,32481280,30373176,1.0640056086007765,0.2932002777537517,0.5754440429366714,2048,0,1,1,345.10026240470006,0.8712021536050137,0.0701993593840557,198.58589021666677
2048,1536,60.10375025216328,286836,35081,50573312,30279888,1.181987825024147,0.2377395314114086,0.9022048955138804,2048,0,1,1,220.11174091840374,0.7506607795356204,0.1057566967220774,198.58589021666677
2048,2048,44.66621110801648,365776,31059,50835456,30671016,1.5786677226927626,0.3711601399012604,1.0,2048,0,1,1,117.0368436807813,0.687431401423018,0.1449688501312016,198.58589021666677
2048,256,46.54134375527151,306984,43170,33267712,29536824,1.2059351398741425,0.1580364355462636,0.8425940039482395,2048,0,1,1,235.68395844989408,0.8443771004043839,0.0682507415853369,198.58589021666677
2048,512,48.32648881622393,347896,35884,32743424,29974584,1.1356776429087019,0.0887748487900299,0.7284011303598903,2048,0,1,1,272.63259478818895,0.8759651868161784,0.0701196707172667,198.58589021666677
256,1024,101.68209581766382,364479,47559,40480768,31971472,1.1110816982745697,0.2039397305396724,0.7607299296780186,256,0,1,1,261.04650608491096,0.8030008165216873,0.0915833721287579,198.58589021666677
256,128,96.58122195605216,336064,47698,33267712,30042384,1.1755917588392113,0.1709558892481326,0.7344696542371224,256,0,1,1,270.37997971874495,0.8493506823143692,0.0672403879172606,198.58589021666677
256,1536,63.317485985726606,302539,47341,49786880,29795608,1.257183174589574,0.2186669826989939,1.0,256,0,1,1,196.13911378909296,0.7066840298226451,0.1048088505352506,198.58589021666677
256,2048,30.480700703217263,291241,51877,49524736,30397184,1.6060939696604617,0.3816469331509379,1.0,256,0,1,1,118.06911452312308,0.669489907291507,0.1305361689707157,198.58589021666677
256,256,64.02126883735579,308092,41173,32481280,30490664,0.9956888851153362,0.1661367021636961,0.6483804056458015,256,0,1,1,306.27990680697815,0.8881642952809459,0.078180221591553,198.58589021666677
256,512,45.63995825128366,228419,26187,33005568,30087360,1.0615036486551417,0.1445820881488548,0.6180940315040477,256,0,1,1,321.28750658445125,0.8833472895113774,0.0598948058681244,198.58589021666677
512,1024,77.69334140466879,283179,51533,39694336,30297328,1.0993642404983512,0.180238033241831,0.9472874650933338,512,0,1,1,209.63635383595053,0.804586586480832,0.0730199393197894,198.58589021666677
512,128,93.03130502819906,268935,87374,32481280,29809264,0.8955768795744645,0.1513478054401458,0.5492662056082707,512,0,1,1,361.5476215157784,0.8888294958996064,0.064998781491594,198.58589021666677
512,1536,55.5191479898393,327324,34781,68358144,52144560,1.3039062847888039,0.3273419217202316,1.0,512,0,1,1,182.37060807068758,0.6875501610535424,0.1340753217466925,198.58589021666677
512,2048,37.688050941608886,263775,51710,50311168,30328696,1.449078730405508,0.3722821401470719,1.0,512,0,1,1,141.82830386725462,0.7350456751033748,0.1349311855941476,198.58589021666677
512,256,36.85095825101343,324577,26577,32743424,29688232,1.2188194720147612,0.1637161300168072,0.8024887103027015,512,0,1,1,247.462534571682,0.8516689829262424,0.066184755223962,198.58589021666677
512,512,44.77460483039888,239464,29336,33005568,30086400,1.24877619005599,0.1843375421346787,0.915794870233192,512,0,1,1,216.84538390797076,0.8735740269622969,0.0699904769479125,198.58589021666677
