cpu,memory,duration_std,userDiff,sysDiff,heapTotal,heapUsed,avg_cpu_util,cpu_util_std,slo_preservation,total_cpu_shares,cpu_shares_others,num_containers,arrival_rate,latency,memory_util,memory_util_std,slo_duration
1024,1024,139.4871667150426,302854,43143,37072896,30251000,0.5525504488818501,0.1405015078122325,1.0,1024,0,1,1,637.8043018841429,0.8156512799617758,0.0593198644333486,906.5509163333338
1024,128,996.2340898726302,335092,62090,32481280,30336904,0.2575373646223184,0.1114809363452291,0.34511383248459465,1024,0,1,1,2626.817099177851,0.9185849000297416,0.0102701262389082,906.5509163333338
1024,1536,133.8633177391289,302974,85170,60366848,48519624,0.6410441483543554,0.2384098151455999,1.0,1024,0,1,1,445.7617271779603,0.7152955122604714,0.1270894771328249,906.5509163333338
1024,2048,142.62248767992665,256339,58280,43233280,31173056,0.5485064727193644,0.1784042407688196,1.0,1024,0,1,1,433.6521224449217,0.6853057592561986,0.1244180543762036,906.5509163333338
1024,256,258.94732598242075,497778,104700,32743424,29731736,0.41349794559345693,0.111928317818029,0.6265069149274841,1024,0,1,1,1446.992674355819,0.9087315133304904,0.0117058224866347,906.5509163333338
1024,512,222.1568526696138,345083,56805,32743424,29641688,0.499381306881402,0.10949783061034,0.9533161590479907,1024,0,1,1,950.9446658689201,0.9063014634219372,0.0485508833521466,906.5509163333338
128,1024,165.73464136828588,321715,53255,27103232,15414928,0.6418210284698322,0.2196725678764624,1.0,128,0,1,1,574.4881894493601,0.7554986265475098,0.0924355012652077,906.5509163333338
128,128,693.9632042542992,343399,69314,32481280,30217584,0.27659517588097904,0.0746136534363278,0.4046363037509686,128,0,1,1,2240.409246351919,0.918043139691675,0.0134688908149064,906.5509163333338
128,1536,166.2730507303143,319067,69195,60104704,48402792,0.6166450129526238,0.2105923130445625,1.0,128,0,1,1,510.4415138164875,0.6551850461458786,0.1223473464104696,906.5509163333338
128,2048,165.2973667032939,330773,78663,42971136,31137248,0.538492849033725,0.1837838329510508,1.0,128,0,1,1,478.48713455179677,0.6786063484844095,0.1373020370310929,906.5509163333338
128,256,447.7075809558033,348304,40532,32219136,29880792,0.27876290360984995,0.03453609911235,0.46200874801444175,128,0,1,1,1962.1942662977376,0.9155670659680152,0.0129038191116691,906.5509163333338
128,512,298.64136150467414,304489,65224,32481280,29877816,0.4619196586477376,0.1154219075647995,0.8026788567610728,128,0,1,1,1129.4067467921107,0.9144695388541604,0.0074743935041415,906.5509163333338
1536,1024,193.7534777351679,390734,108648,39694336,29988856,0.7162663823064379,0.1717155394864049,1.0,1536,0,1,1,561.4300430601389,0.8007762520951422,0.0551604151113527,906.5509163333338
1536,128,428.3978262076525,351146,83049,20938752,15236000,0.2985651955346942,0.0715010057509224,0.4470562990699905,1536,0,1,1,2027.822710963313,0.9016067448450554,0.0491992523580558,906.5509163333338
1536,1536,122.30288593062004,243780,55047,42971136,31508360,0.6273054716292452,0.2437273075070541,1.0,1536,0,1,1,495.5951337340308,0.6701971874842589,0.1059927379764228,906.5509163333338
1536,2048,131.23575147476134,266363,40891,43495424,30821184,0.6322773296961616,0.2719861606327957,1.0,1536,0,1,1,442.89925229416326,0.6772749516890663,0.1073273601705878,906.5509163333338
1536,256,510.4014718886354,287409,49613,20414464,15236656,0.42397536319283063,0.1613094828004658,0.6504390474009795,1536,0,1,1,1393.752296938083,0.9057873710428652,0.04025148724355,906.5509163333338
1536,512,236.6331922315013,313335,56853,32219136,29809672,0.4279245065335162,0.0883205284897042,0.7319745760571449,1536,0,1,1,1238.50055177676,0.9112671932716884,0.0131475083919555,906.5509163333338
2048,1024,166.42612539788374,359682,69982,39432192,29766552,0.61128273002939,0.1546164026067834,1.0,2048,0,1,1,680.939027502553,0.8029223974677882,0.0749326309700594,906.5509163333338
2048,128,2148.690175943635,370801,83935,32743424,29624840,0.325601421857126,0.1365380442448268,0.35130616994779484,2048,0,1,1,2580.515214031254,0.9174579431067272,0.0083666079918161,906.5509163333338
2048,1536,113.14004971484913,271049,39177,63803392,52369792,0.5656509725703289,0.1657120324727284,1.0,2048,0,1,1,509.852716823102,0.6916851163658301,0.1229157752075759,906.5509163333338
2048,2048,154.79518114252923,240849,77839,43495424,30756728,0.6283594322045639,0.2655303925571218,1.0,2048,0,1,1,438.0822145488003,0.678134285222552,0.1183681557382497,906.5509163333338
2048,256,416.2592798370726,271596,39286,32481280,29660096,0.43432570665603765,0.1753407422615145,0.7222532268570607,2048,0,1,1,1255.1704618590052,0.911492931618064,0.0189367936835177,906.5509163333338
2048,512,285.39116203717043,391206,38070,32743424,30195456,0.4639697373590033,0.0966748142448084,0.8300597625565339,2048,0,1,1,1092.151381415251,0.9088518296404224,0.0128431456716491,906.5509163333338
256,1024,170.4425605315928,375363,65395,39170048,29825600,0.6343383823067558,0.1539817277730265,1.0,256,0,1,1,636.0640530602906,0.7732915283280152,0.0722588027794853,906.5509163333338
256,128,1346.9035614847614,385007,51130,31956992,29870520,0.392189609637258,0.1749035081079886,0.4882240038221364,256,0,1,1,1856.8339721854336,0.8827125041443475,0.0736411985939327,906.5509163333338
256,1536,164.8246739095871,348771,39903,49000448,29858064,0.5723922662120418,0.197908581079096,1.0,256,0,1,1,615.4916564813248,0.6204002890956196,0.1177030915381027,906.5509163333338
256,2048,136.61032687216385,264857,39052,45068288,31698680,0.5416848092810254,0.1663065286270167,1.0,256,0,1,1,555.2458169057826,0.6990772170038143,0.1073412809282569,906.5509163333338
256,256,326.6309225510522,247416,44889,32743424,29939224,0.29532624035673744,0.0432614415374174,0.4779377896651834,256,0,1,1,1896.7968968689688,0.9163668111067352,0.0085678823110279,906.5509163333338
256,512,273.6085080877056,385314,28223,33005568,30146584,0.4789058036848261,0.1168619066190769,0.8008655994686084,256,0,1,1,1131.9638612706676,0.8972621291012148,0.0443869970511578,906.5509163333338
512,1024,201.6466977657682,371276,52576,39432192,30775072,0.6802807367983036,0.2023365011611561,1.0,512,0,1,1,620.934061323371,0.7661190561416419,0.1070636875942224,906.5509163333338
512,128,802.3007189323173,450351,66492,33005568,29944056,0.38500634808690426,0.1994070814390251,0.48543604313838773,512,0,1,1,1867.4981578879074,0.9174555276753584,0.0102484547207246,906.5509163333338
512,1536,133.3503383470792,203703,63748,44281856,30239152,0.6354738289970288,0.1904222655825438,1.0,512,0,1,1,440.02160199335395,0.6726643713278786,0.0974101399863672,906.5509163333338
512,2048,145.86866659857057,272478,58883,42446848,31107712,0.5913291193379417,0.1768738960859534,1.0,512,0,1,1,483.6739381302085,0.6643477632801777,0.1253907248213061,906.5509163333338
512,256,338.1382270809785,351502,65617,32219136,29663040,0.3660428145387225,0.0824728464921391,0.6333316886458664,512,0,1,1,1431.399900850754,0.918194142402852,0.0111119904254857,906.5509163333338
512,512,261.5121025256263,301203,49272,32481280,30063080,0.45285158866339414,0.0694659556512197,0.8061044173669158,512,0,1,1,1124.6073049624508,0.9101999871953008,0.0127998454923721,906.5509163333338
