cpu,memory,duration_std,userDiff,sysDiff,heapTotal,heapUsed,avg_cpu_util,cpu_util_std,slo_preservation,total_cpu_shares,cpu_shares_others,num_containers,arrival_rate,latency,memory_util,memory_util_std,slo_duration
1024,1024,25.376804884714662,21518,35,33902592,28413968,0.7820388947789519,0.2212228416222649,0.9665848657967578,1024,0,1,1,46.07153435073678,0.6559421462647939,0.0785892139798318,44.53204784745763
1024,128,35.97517211375625,19954,1050,28258304,24800088,0.5325702976101675,0.3056496683635111,0.5805580671680547,1024,0,1,1,76.70558789180842,0.8756474598366705,0.0080209607857245,44.53204784745763
1024,1536,18.25337608196772,13432,4337,41897984,29087792,0.8339344774453535,0.2013802126279068,1.0,1024,0,1,1,29.27764950708677,0.5735209869820368,0.0932894655521199,44.53204784745763
1024,2048,15.38170540890949,15635,23,42422272,28130512,0.8812674738616639,0.1905237259766367,1.0,1024,0,1,1,24.013792158961117,0.5342151186728622,0.0622342187263115,44.53204784745763
1024,256,50.71824814747384,29057,31,27471872,24444200,0.3974822352622362,0.2310190102804116,0.5666118533597875,1024,0,1,1,78.59356909566918,0.880704619701894,0.0101596237142467,44.53204784745763
1024,512,19.38038938640368,21747,1805,27996160,24575320,0.5625720810870039,0.2105528601998781,0.9877390305833754,1024,0,1,1,45.084831588720604,0.8759069920330379,0.0100821342401085,44.53204784745763
128,1024,21.77701028020008,15258,855,34426880,29238168,0.6362366463426333,0.2003569836637437,1.0,128,0,1,1,43.70499275292502,0.6712224577849113,0.0823431507777609,44.53204784745763
128,128,52.97242270639555,23714,31,28258304,24864080,0.3750374580909373,0.2034981343782663,0.39599151522460896,128,0,1,1,112.45707580931062,0.8773906998534277,0.0092556530393055,44.53204784745763
128,1536,17.773709669647367,16885,4192,42422272,28664992,0.8591053598422038,0.2616564179373488,1.0,128,0,1,1,32.18048541740238,0.58510018499498,0.0859153930990708,44.53204784745763
128,2048,10.929652381785823,29642,6324,35098624,14968888,1.0498978367491298,0.2863772352484136,1.0,128,0,1,1,20.3546441420978,0.52041613316103,0.0544083090900218,44.53204784745763
128,256,81.92513369458206,24119,38,27996160,24897568,0.29422756138886086,0.1171894919024876,0.3242276135784501,128,0,1,1,137.34810356207572,0.8717741773736887,0.0125271856948346,44.53204784745763
128,512,45.13533859172898,19012,7893,28258304,24233856,0.4943464115558056,0.2498571781595684,0.5656234870182528,128,0,1,1,78.73090292309692,0.8809663959272734,0.0095609670319262,44.53204784745763
1536,1024,27.39856601545311,21610,35,33902592,28337528,0.7722356755064742,0.2559359335907854,1.0,1536,0,1,1,39.898516450472854,0.6734859087703265,0.075796606787169,44.53204784745763
1536,128,43.966086729124505,20024,6081,27996160,24893072,0.5094268589409736,0.2593975088910234,0.5457346736284221,1536,0,1,1,81.60018045285219,0.872737526783809,0.0107831606461615,44.53204784745763
1536,1536,7.950543892263041,13935,4484,42160128,28829104,0.9796695833294404,0.1247150070424923,1.0,1536,0,1,1,15.797345138210309,0.5696281974957953,0.0730406534031267,44.53204784745763
1536,2048,11.167777518382804,29861,7468,34574336,15158152,0.930069120504494,0.1625850051910798,1.0,1536,0,1,1,21.988893270886813,0.5489169213108007,0.0655354538350333,44.53204784745763
1536,256,40.69487670579155,17522,7677,27996160,24970512,0.44803855999619707,0.2221136099455465,0.5701193291508938,1536,0,1,1,78.1100474417897,0.877205848990218,0.0104934591126286,44.53204784745763
1536,512,26.96895321063853,21876,2384,28520448,24610016,0.6448511463807793,0.2891563818404228,1.0,1536,0,1,1,37.45396404143759,0.8764572488883277,0.0119750512622263,44.53204784745763
2048,1024,27.570902568412027,15098,8535,26054656,14967176,0.712725280691541,0.188882000422383,0.8875251574057721,2048,0,1,1,50.17553302671938,0.6515022139751153,0.0722001873381402,44.53204784745763
2048,128,34.15962351388378,25562,35,28520448,24543152,0.4900085157687464,0.1852905471788095,0.5818985240101094,2048,0,1,1,76.5288895056279,0.8730395313922924,0.010046695909518,44.53204784745763
2048,1536,19.22800049154036,35486,837,34050048,15175296,0.8987536235657224,0.2274644954209783,1.0,2048,0,1,1,28.890713881382112,0.5349517225845368,0.0768411558001959,44.53204784745763
2048,2048,15.366157653102274,28838,15387,34836480,14966408,0.9388856689226921,0.1967155328500507,1.0,2048,0,1,1,21.660854947859793,0.5275077826356273,0.055167639475775,44.53204784745763
2048,256,24.329389037609523,18490,3723,28520448,24526040,0.4885073401215019,0.2544331798752051,0.7660343132165933,2048,0,1,1,58.13322860234116,0.8710993052457436,0.0091630215728691,44.53204784745763
2048,512,25.260905840464886,19188,3262,27996160,24896696,0.7401516059271654,0.3331955754487176,1.0,2048,0,1,1,34.39008708004507,0.8849256628512331,0.0134027515362272,44.53204784745763
256,1024,34.971069122038536,16317,4061,33902592,28469400,0.7640338372007673,0.2453912871304908,0.8522669068772186,256,0,1,1,52.25129297889437,0.7180171688735422,0.0937310494467783,44.53204784745763
256,128,49.25920517417256,19367,3901,27471872,24680200,0.34610698859468064,0.1675906401791125,0.397588220070762,256,0,1,1,112.00545086454498,0.878458131785268,0.0120339827943795,44.53204784745763
256,1536,11.24695756263588,18145,3519,42422272,28295112,0.9657442736651596,0.1621384036333545,1.0,256,0,1,1,24.9487828444983,0.5704774143282605,0.0823566530383107,44.53204784745763
256,2048,15.70698045728562,12308,4069,42422272,28072488,0.9797364844218799,0.1417553858450916,1.0,256,0,1,1,24.603051098160634,0.5377605523854959,0.0624456550805833,44.53204784745763
256,256,82.14068048303133,16097,9679,28258304,24299464,0.3562243726378277,0.2800533435284852,0.3086539298108631,256,0,1,1,144.2782467559897,0.8790199966999884,0.0118600662746277,44.53204784745763
256,512,47.111111496307856,25728,289,28258304,24214960,0.5015124856956983,0.2865577144517436,0.5702999029348259,256,0,1,1,78.08531549504187,0.8815641576079152,0.0130989114508288,44.53204784745763
512,1024,30.425160775035263,21142,4250,34164736,28309648,0.8480136521167424,0.203319480252532,1.0,512,0,1,1,38.52726127303351,0.6788068226491247,0.0782323824903787,44.53204784745763
512,128,71.69661619402387,22227,1289,27996160,24854904,0.3649158206534437,0.2749105443639527,0.3364916467450319,512,0,1,1,132.3422090213154,0.8820507387875353,0.0059675366470229,44.53204784745763
512,1536,13.594907878048248,23112,31,42160128,28700624,1.0039073939575727,0.2553592244419531,1.0,512,0,1,1,22.986074129432335,0.5778942399438717,0.0860646628235334,44.53204784745763
512,2048,11.777502926834991,33251,8966,34312192,15129616,0.9660303866648897,0.1883891896862552,1.0,512,0,1,1,21.319999849759807,0.5375481179749496,0.0594348435180096,44.53204784745763
512,256,62.5788614155164,17402,8113,27996160,24249400,0.4066410536484565,0.254637970329406,0.3974084769811117,512,0,1,1,112.0561095871495,0.8817809670542122,0.008804756226987,44.53204784745763
512,512,22.044274509002584,12394,14458,28520448,24658720,0.599906224203194,0.3015844864619748,0.9047211646631068,512,0,1,1,49.221848218882045,0.8769315043456631,0.0097121306467195,44.53204784745763
