cpu,memory,duration_std,userDiff,sysDiff,heapTotal,heapUsed,avg_cpu_util,cpu_util_std,slo_preservation,total_cpu_shares,cpu_shares_others,num_containers,arrival_rate,latency,memory_util,memory_util_std,slo_duration
1024,1024,790.8832676703325,2075226,175418,59174912,50766248,0.8455325763323196,0.131127591629887,1.0,1024,0,1,1,1487.2891545480757,0.8089683830146882,0.0841373421258564,2014.6119297809528
1024,128,1244.571591907844,2290578,259402,46448640,34283992,0.6947329952684888,0.1363918774214937,0.2654291122244864,1024,0,1,1,7590.018716850836,0.8194414852397554,0.1038076417071441,2014.6119297809528
1024,1536,549.5351451433863,2001582,183252,53006336,38795360,1.0177376055171214,0.189537980977212,1.0,1024,0,1,1,999.0371920087848,0.7629821610636055,0.0986975262443831,2014.6119297809528
1024,2048,371.0799320597513,1685267,149268,52482048,39401264,1.140478127694303,0.2783437936805908,1.0,1024,0,1,1,715.0905598844363,0.7355449266648673,0.1127623813844922,2014.6119297809528
1024,256,2846.147390756645,2008610,162306,37273600,34082880,0.5543150497766699,0.1839314062047669,0.26807706315356183,1024,0,1,1,7515.047748142959,0.8849961750954585,0.0955041567051361,2014.6119297809528
1024,512,1779.6525750441815,2124901,186626,51699712,48489488,0.6416054946234326,0.0613455960976687,0.6082357931121379,1024,0,1,1,3312.2219254359584,0.9018745818734978,0.0577733317772416,2014.6119297809528
128,1024,802.5812303654559,1911979,153682,48156672,36384896,0.9289136154548813,0.136273993626193,1.0,128,0,1,1,1443.158558267423,0.8065615958162077,0.082431636302812,2014.6119297809528
128,128,2304.0721853707414,1946238,187319,37797888,35088520,0.7370368613044408,0.180182119175583,0.2806521531337356,128,0,1,1,7178.323441619759,0.9364382771777414,0.0050336790163185,2014.6119297809528
128,1536,576.2599197015362,2106831,156111,57200640,35474536,1.055403144992052,0.2278748130398863,1.0,128,0,1,1,1006.9195986175466,0.7728197059407717,0.0880184875478106,2014.6119297809528
128,2048,333.3385862787904,1655571,166741,69529600,55596792,1.1018070102023951,0.2417149155334884,1.0,128,0,1,1,659.9484133510889,0.7315679022921207,0.1020665611754965,2014.6119297809528
128,256,4362.726872247971,2131639,242615,38322176,35919856,0.5177643178833695,0.2974638011188662,0.18238571936509218,128,0,1,1,11045.88635993033,0.933872181920902,0.013443420016574,2014.6119297809528
128,512,2099.2667501899195,2053119,157638,36749312,32961080,0.5738562334666566,0.0686135668168813,0.5323388488231727,128,0,1,1,3784.454082647925,0.9098682791341464,0.0628394220554988,2014.6119297809528
1536,1024,831.1447424789169,2021722,158598,58650624,52636856,0.8836338236232861,0.1719615226915229,1.0,1536,0,1,1,1417.6623602450913,0.8012900070005682,0.0942147345696171,2014.6119297809528
1536,128,58.88086950000002,1886099,186629,44351488,34024976,0.8016352974070471,0.0347322633583347,0.4017754872634307,1536,0,1,1,5014.272880366241,0.7333914571783908,0.0337750469082364,2014.6119297809528
1536,1536,384.4365289396308,1984778,135804,61657088,40078256,1.202797797880356,0.2432806521289335,1.0,1536,0,1,1,682.3554596984924,0.7421635819006825,0.1167077734148684,2014.6119297809528
1536,2048,199.76946637812927,1473113,163864,52219904,39026184,1.2389571580077612,0.3529225012305766,1.0,1536,0,1,1,415.5858952329854,0.7317062801224601,0.1070830235024329,2014.6119297809528
1536,256,3419.6646774840788,1985060,198154,51961856,49236728,0.5460919599730585,0.1846015206922326,0.25749243714190173,1536,0,1,1,7823.965442024686,0.8831030497368162,0.0858442693443181,2014.6119297809528
1536,512,2051.112510480702,2211711,200068,43302912,34293608,0.6453558000518994,0.1082767548315999,0.5585575932882413,1536,0,1,1,3606.8114622180437,0.901573538709148,0.0621267263585962,2014.6119297809528
2048,1024,855.7331379643009,1993954,151207,46059520,37898712,0.915648024312484,0.1259097441567412,1.0,2048,0,1,1,1424.7525155477863,0.8109735187248219,0.0779395892955309,2014.6119297809528
2048,128,1208.0378539864,2020646,190368,37535744,34516912,0.8383348491947482,0.2632243542641523,0.31404648957369363,2048,0,1,1,6415.011779038553,0.895978308488181,0.0809067035647937,2014.6119297809528
2048,1536,601.6781911673892,1980690,126910,53268480,35825664,1.0602322364661294,0.1998921208668234,1.0,2048,0,1,1,996.1672648566642,0.7515274278049457,0.0974343075654319,2014.6119297809528
2048,2048,372.5579769529668,1995856,137495,66375680,35420296,1.1035650335156957,0.1935898718841944,1.0,2048,0,1,1,687.889027263638,0.7270187249558564,0.0963067946527968,2014.6119297809528
2048,256,3266.8001144414698,1864872,175718,37535744,34963864,0.5535004416518775,0.1886284140713218,0.24077504445424236,2048,0,1,1,8367.19575464066,0.9317952926170272,0.0205440943117257,2014.6119297809528
2048,512,2017.4286415343568,2386181,133786,37535744,34202576,0.6659670719524704,0.1451277091465128,0.5957020857562612,2048,0,1,1,3381.9118279959425,0.910570662535525,0.0530731363266218,2014.6119297809528
256,1024,809.6640646697333,2069189,141298,43962368,33978144,0.9305523535238274,0.1233944476350784,1.0,256,0,1,1,1427.901172938832,0.8077741257258186,0.0732500198563453,2014.6119297809528
256,128,517.095563847947,2108407,155968,37273600,34487952,0.6836850573478505,0.0351922731570394,0.2937088714831606,256,0,1,1,6859.213750022725,0.9337229348470156,0.0204849893287221,2014.6119297809528
256,1536,376.1790707670749,1831742,148197,62181376,39057256,1.1969295639880715,0.30247435987375,1.0,256,0,1,1,682.779091984723,0.7079359081858911,0.1092481470436715,2014.6119297809528
256,2048,222.5247503742083,1703958,157017,65851392,40139936,1.2470168509693607,0.3348977589121647,1.0,256,0,1,1,411.266971908556,0.7486399353129759,0.1014241850342786,2014.6119297809528
256,256,3474.4877195696054,1896681,235579,37273600,34829568,0.4326026048201393,0.055234054073023,0.20808772974889028,256,0,1,1,9681.55081614896,0.9390995280194716,0.0136421295412273,2014.6119297809528
256,512,1663.5837087547604,1999170,145877,37535744,35054736,0.6514397238057859,0.0741710914666874,0.6933541878755051,256,0,1,1,2905.60288667743,0.9336202944775068,0.0291994695283823,2014.6119297809528
512,1024,837.4910325877092,2085220,188552,49991680,34805928,0.8841644604488336,0.1491309582582297,1.0,512,0,1,1,1563.4197644598846,0.8159741716835859,0.0824949810180127,2014.6119297809528
512,128,2308.815926129232,2346605,181735,38060032,34911888,0.7089789766216961,0.3046860192012591,0.2440873364131889,512,0,1,1,8253.651989428225,0.9436982479790096,0.0162240352894283,2014.6119297809528
512,1536,375.68530401034775,1718022,150745,52744192,38210592,1.1771576564799542,0.2582421407243793,1.0,512,0,1,1,671.1555934731089,0.7525084009656008,0.1133099424464657,2014.6119297809528
512,2048,206.25821162852344,1569132,151109,64802816,37064384,1.2515929634929062,0.3636235336803314,1.0,512,0,1,1,420.401743239112,0.704230656174915,0.1556517298353936,2014.6119297809528
512,256,4643.748122783826,1977900,169136,51961856,49288952,0.5883655765969604,0.3584291584832246,0.18985629565826742,512,0,1,1,10611.246378719836,0.917169282151128,0.0594597203931592,2014.6119297809528
512,512,2078.977942702179,1993945,157961,37273600,34247872,0.6230817026965082,0.0702983190963451,0.557119293550313,512,0,1,1,3616.123069338676,0.8993008335824139,0.0628648463872709,2014.6119297809528
