cpu,memory,duration_std,userDiff,sysDiff,heapTotal,heapUsed,avg_cpu_util,cpu_util_std,slo_preservation,total_cpu_shares,cpu_shares_others,num_containers,arrival_rate,latency,memory_util,memory_util_std,slo_duration
1024,1024,130.25335893761263,20464,2520,33894400,28440376,0.2651273882065098,0.101210491212884,0.9570834439974355,1024,0,1,1,361.72672343606894,0.6650986119264294,0.0821794941424804,346.2026582521007
1024,128,142.07282519635322,24205,975,28512256,24464400,0.2113183228097463,0.0355467464871829,0.8367752062703224,1024,0,1,1,413.7343645675121,0.8735069379715693,0.0119438165044038,346.2026582521007
1024,1536,128.4649983879627,20363,3250,42151936,28858840,0.26407430164380913,0.091455354653876,1.0,1024,0,1,1,341.62390879287045,0.5327933331754856,0.0876724141292951,346.2026582521007
1024,2048,121.76097974936056,63056,9459,34574336,14706144,0.2535433343388517,0.1208316658940081,1.0,1024,0,1,1,340.7435773547073,0.5229579922606507,0.0590860404615902,346.2026582521007
1024,256,138.82883215075088,23823,7265,27987968,24868088,0.1851572176963028,0.0435212364083597,0.7510887065399673,1024,0,1,1,460.93444787227463,0.8782737191056403,0.0139488231139681,346.2026582521007
1024,512,136.9719796878733,22753,37,27987968,24829576,0.2837616177254138,0.0897051965007895,0.960446573105884,1024,0,1,1,360.4600900730516,0.8807089591444125,0.012253555937588,346.2026582521007
128,1024,137.0810709410498,19933,3999,33894400,28533696,0.27955595454353055,0.1176712667093417,0.8303202110076571,128,0,1,1,416.9507783412345,0.6638963452992324,0.0822895169607516,346.2026582521007
128,128,148.46857138614715,16094,8151,28512256,24794568,0.17461644580453667,0.0356020822500898,0.679792407482105,128,0,1,1,509.27702993095613,0.8741439141584387,0.0115573390577795,346.2026582521007
128,1536,146.4953395502623,19535,3856,42414080,28402480,0.25699698614832317,0.1273828771883241,0.8544902898418983,128,0,1,1,405.1569249735497,0.5184863358086939,0.0734849538522917,346.2026582521007
128,2048,118.6555317948228,66918,2854,34574336,14705808,0.29712987463626295,0.1629989392245707,1.0,128,0,1,1,305.5541599421289,0.5340281609747272,0.0566560231733977,346.2026582521007
128,256,140.9530839134357,23150,476,28250112,24754616,0.20317702416092384,0.037204092091845,0.7580361798767814,128,0,1,1,456.7099400300074,0.8804534001384609,0.0089144381474113,346.2026582521007
128,512,121.85237424933732,21031,924,28250112,24877680,0.28022647949455,0.0794819931059756,0.8865460379630998,128,0,1,1,390.50725334865297,0.8796929784035437,0.0107307119917921,346.2026582521007
1536,1024,150.5360027798514,14251,11504,33894400,28469088,0.2560551408495053,0.1148710117781183,0.8789249707133783,1536,0,1,1,393.8933012349232,0.663304284634602,0.0703774047117535,346.2026582521007
1536,128,186.12087795624504,14968,13263,28250112,24289920,0.23330034398133426,0.0500917753313772,0.7851937415257144,1536,0,1,1,440.9136751133451,0.8738956583819231,0.0111564212467265,346.2026582521007
1536,1536,134.1134721543731,71420,11851,34574336,14632408,0.23210778258349038,0.0825505273044329,0.8672319075200902,1536,0,1,1,399.204244274281,0.5035030447285896,0.0508620615821333,346.2026582521007
1536,2048,141.26429035649446,72406,5747,34836480,14703624,0.22782921261257816,0.1293893067482678,0.8673622932734165,1536,0,1,1,399.1442341187503,0.5290637900755006,0.0535817951205521,346.2026582521007
1536,256,140.61072133705022,23458,94,28774400,24664712,0.16973270004025245,0.0447310769125379,0.7724106775929921,1536,0,1,1,448.210606475492,0.8743349597224848,0.0112773354007024,346.2026582521007
1536,512,152.06441035617138,21956,4314,27987968,24869120,0.2756599376939689,0.0984357298619057,0.8454890280265341,1536,0,1,1,409.4703145470455,0.8797871529390381,0.0136783335237365,346.2026582521007
2048,1024,135.41846683617123,19298,4611,33894400,28510248,0.36891299449031534,0.2484818674747394,0.8568170634260756,2048,0,1,1,404.0566802763848,0.6721166891443439,0.0867644556396053,346.2026582521007
2048,128,171.407017908689,23141,4660,27987968,24859720,0.20192261298411618,0.0456152102370338,0.7302756125597156,2048,0,1,1,474.0712305024307,0.8774573389097773,0.0103003729512881,346.2026582521007
2048,1536,139.14123561479616,17116,1205,42151936,28885904,0.22266325711274443,0.0803371226914449,0.8642858889050846,2048,0,1,1,400.56497820493803,0.5159005971039765,0.0606088638001478,346.2026582521007
2048,2048,135.49561361186224,31573,7139,34836480,14970944,0.19200340843114236,0.0660824388218285,0.9167580598952637,2048,0,1,1,377.6379760344328,0.5477200949191161,0.083883716749409,346.2026582521007
2048,256,120.8846558424475,19030,7258,27987968,24781856,0.13964490723183812,0.0286294066502339,0.7085654377044394,2048,0,1,1,488.59659225505527,0.8757400854058507,0.0128876618180503,346.2026582521007
2048,512,130.06238924932944,16949,8765,28512256,24502304,0.24734761726160753,0.0815456390305715,1.0,2048,0,1,1,343.3416679492485,0.8783609410336839,0.012682180321372,346.2026582521007
256,1024,116.00931284788903,17772,5261,25792512,15105296,0.3555634538363942,0.2308263670455259,0.8486694405186297,256,0,1,1,407.9358130776255,0.6508987312293008,0.0859730320324338,346.2026582521007
256,128,131.23526169659567,20488,2773,27987968,24887096,0.20212441349032143,0.0321460171957319,0.8062164452602317,256,0,1,1,429.4165174717478,0.8713300307888626,0.0108443188269089,346.2026582521007
256,1536,150.5047695237652,40407,1023,34836480,15168600,0.28143163680468297,0.0982748119997286,0.9513796694997013,256,0,1,1,363.8953714810377,0.5125992999057434,0.0580239833758426,346.2026582521007
256,2048,118.3263237231878,26856,10952,34574336,14963496,0.16677023646128064,0.060849811091879,1.0,256,0,1,1,323.2322862386238,0.5360786079180272,0.0529730171649885,346.2026582521007
256,256,154.58355730097833,23553,2507,28250112,24883456,0.2365861054960148,0.0487232163463254,0.7837734976880913,256,0,1,1,441.71263671621966,0.87728657945474,0.0118998904831202,346.2026582521007
256,512,129.69835499718727,20828,3433,27987968,24966104,0.2974683038039969,0.1188024534497754,0.9731048166972498,256,0,1,1,355.771189610513,0.8752764263386338,0.0125723112906664,346.2026582521007
512,1024,104.0653019460148,22204,467,26054656,14918616,0.31292062706482326,0.1354465555622817,1.0,512,0,1,1,339.3713248330524,0.643870345468786,0.0471113644370377,346.2026582521007
512,128,181.75059190956205,11867,12571,28250112,24809656,0.14649623736703393,0.018366219691274,0.5639475883888037,512,0,1,1,613.8915483993833,0.8770368645296551,0.0118966974612694,346.2026582521007
512,1536,142.44307832662608,66132,11441,34574336,14623976,0.2851757181489129,0.1297144908261287,1.0,512,0,1,1,328.13653937883987,0.4979760893921743,0.0408481198535138,346.2026582521007
512,2048,142.22515357069355,35335,1996,35098624,14969008,0.17911635944437126,0.0404503123145287,0.8494373001206615,512,0,1,1,407.56705433458484,0.5290971199726698,0.0538925745057462,346.2026582521007
512,256,177.6621708754342,21184,2768,27987968,24810032,0.245289738155428,0.0502752204941645,0.8104952356708229,512,0,1,1,427.1495290969342,0.8845817159681473,0.0093623298747894,346.2026582521007
512,512,148.9224411581463,22330,3707,28250112,24927416,0.2526861666690196,0.0918210370664104,0.8276648411944726,512,0,1,1,418.2884677721318,0.8816655471576306,0.0130588413753478,346.2026582521007
