cpu,memory,duration_std,userDiff,sysDiff,heapTotal,heapUsed,avg_cpu_util,cpu_util_std,slo_preservation,total_cpu_shares,cpu_shares_others,num_containers,arrival_rate,latency,memory_util,memory_util_std,slo_duration
1024,1024,343.6003791714051,1510933,145725,43175936,37439920,1.02223094118773,0.1724969539174128,0.5999513859263451,1024,0,1,1,262.22350210163097,0.8368841323712614,0.036593224352849,157.32135350833337
1024,128,342.88217866801574,1498334,160131,36225024,33038208,1.056003025700171,0.2258151898029321,0.6336152615935984,1024,0,1,1,248.29161013681437,0.9292201303167976,0.0131464777816393,157.32135350833337
1024,1536,326.718820115226,1684309,92751,53268480,41904160,1.0881308182456593,0.203231030768286,0.5833175791165255,1024,0,1,1,269.7010327489313,0.7173060050094612,0.0487024206285241,157.32135350833337
1024,2048,208.06478757326215,1415293,136225,52482048,36091688,1.0928401223767656,0.1567407128271105,1.0,1024,0,1,1,138.1498538435854,0.7467506615750905,0.0549758435183433,157.32135350833337
1024,256,354.7120061208212,1515458,103486,35962880,32871648,1.0890870193147375,0.1650283910859408,0.6145375096555264,1024,0,1,1,255.9995948766715,0.9275905496075222,0.0118209375405082,157.32135350833337
1024,512,359.28164739291714,1769306,85928,36487168,33448976,1.0096004342357192,0.2021173365130507,0.5485162405871914,1024,0,1,1,286.8125715656468,0.9256776341029312,0.0374626098588956,157.32135350833337
128,1024,342.0933188635868,1458229,119610,42389504,36551056,1.041462949744177,0.2351209127787075,0.6540570661673439,128,0,1,1,240.53154020674074,0.8425562695746474,0.0251220320992617,157.32135350833337
128,128,357.54911488612737,1663202,144552,36487168,33296040,1.0412241400339572,0.2274009508325699,0.5995760224868373,128,0,1,1,262.3876666311937,0.9294023006274827,0.0103826875658129,157.32135350833337
128,1536,321.07232466252333,1461194,152823,50909184,41170528,1.0437598835045963,0.2522600930685261,0.7074619098347892,128,0,1,1,222.3743092332307,0.7344506834273312,0.0440245014013082,157.32135350833337
128,2048,185.34391912769595,1322758,124080,51433472,41011680,1.0691605426822381,0.2343023376446809,1.0,128,0,1,1,135.12262617754408,0.7146302616548595,0.0738040930594218,157.32135350833337
128,256,337.52986275324065,1657125,113126,36225024,33153904,0.9768514217611964,0.2775732424337868,0.5752228654962356,128,0,1,1,273.4963488849053,0.9284630294647078,0.0361261975469059,157.32135350833337
128,512,324.60954743677166,1473579,118024,36225024,32511760,1.056119734595167,0.1670876184187378,0.6174871711621119,128,0,1,1,254.77671578545397,0.9314390895515592,0.0133294594046048,157.32135350833337
1536,1024,357.3818819356565,205699,14772,44486656,35402184,1.0482070527499774,0.1736862174428418,0.623776889528547,1536,0,1,1,252.2077302787499,0.8444377051790731,0.0309713333294451,157.32135350833337
1536,128,375.9711516104777,54252,4332,36487168,33374736,1.0447561727642447,0.2493176085042885,0.539411078660282,1536,0,1,1,291.65391615438705,0.9241254028787134,0.0330449691338544,157.32135350833337
1536,1536,330.45077102954144,1553914,114298,52219904,37575480,1.0730547808354276,0.2481960328702875,0.6253550177214794,1536,0,1,1,251.57126600110078,0.7145607917633354,0.0397912537751427,157.32135350833337
1536,2048,185.97288496358144,1349779,92432,51695616,35208512,1.136524028887219,0.3747690577980892,1.0,1536,0,1,1,145.32594865620078,0.7080838187010801,0.0600783083272893,157.32135350833337
1536,256,347.1932184917601,1648648,95543,36225024,32724512,1.0694324615682944,0.2002429317298345,0.5391677274842116,1536,0,1,1,291.78555297143635,0.9227158546064944,0.0422987680761707,157.32135350833337
1536,512,359.621773135326,1593372,102914,36225024,32955296,1.0648850028912356,0.2034674264029923,0.6373045490340966,1536,0,1,1,246.85427672965895,0.9323688132234654,0.0109061681733972,157.32135350833337
2048,1024,334.17969803694564,1473206,121285,43438080,34142680,1.0761089656053129,0.167042159923609,0.6220164195248279,2048,0,1,1,252.9215444642356,0.8372041503976775,0.0236253010360314,157.32135350833337
2048,128,359.2695577400748,1558243,124708,35962880,32630344,0.9980640138637675,0.2012354480417764,0.6071677617069299,2048,0,1,1,259.10689504669364,0.929346894254734,0.0139612912980238,157.32135350833337
2048,1536,342.4809721247309,54271,7053,52744192,37725232,1.04369752508901,0.1682973194335866,0.5950613499504805,2048,0,1,1,264.3783763160307,0.731544320620259,0.0494535538418069,157.32135350833337
2048,2048,183.89464647044352,1342031,101584,51957760,39900576,1.0885377665151168,0.2172388591142028,1.0,2048,0,1,1,147.8529428409108,0.7371196132177184,0.0586936642692134,157.32135350833337
2048,256,373.0226689970367,1745180,136817,36749312,33517584,1.0548725952970421,0.2151519347434494,0.5881603153518687,2048,0,1,1,267.48039505898214,0.9343024952285692,0.0102124173765566,157.32135350833337
2048,512,332.6715263823862,131620,7690,37011456,34841840,1.0464514259816473,0.2186901535722255,0.6069342896457873,2048,0,1,1,259.2065668264478,0.93526581300265,0.0107744038507673,157.32135350833337
256,1024,362.0957848721432,1686288,75542,43700224,34764880,1.0254582218737258,0.1970523170504467,0.6219074230401759,256,0,1,1,252.96587189661224,0.8363261864717966,0.0412190595977964,157.32135350833337
256,128,345.44492515460263,1595460,135871,36225024,33593368,0.9882813715002002,0.2495455845097288,0.5858429647643536,256,0,1,1,268.53843601521015,0.9371803133412124,0.0109798292565522,157.32135350833337
256,1536,316.130062489833,216814,24053,53268480,37059544,1.1139722800405196,0.4371182396257074,0.5784327520176524,256,0,1,1,271.9786404894519,0.725100865965514,0.0513544980419793,157.32135350833337
256,2048,204.5714397496348,1415318,111113,52744192,40720832,1.0735730548090805,0.1737309301264008,1.0,256,0,1,1,143.24649511827266,0.7191545773983984,0.0590832536459052,157.32135350833337
256,256,324.497539937597,1522896,127227,36225024,32812808,1.0610163502299033,0.2354559140975441,0.6917526187034231,256,0,1,1,227.4242977254014,0.9267694541975856,0.0105987301388318,157.32135350833337
256,512,348.7121145029644,1631640,107614,36225024,33194720,1.0529264421744091,0.1952617703815895,0.6049328324119808,256,0,1,1,260.0641675887612,0.9307064028526026,0.0110094760667518,157.32135350833337
512,1024,330.9651032488935,1525973,140027,42913792,33595840,1.0213537612962187,0.2121231616682618,0.6069479293960316,512,0,1,1,259.20074175865864,0.8485295680102627,0.0274921539888618,157.32135350833337
512,128,434.28875357416126,166098,6158,37535744,34903360,1.025279404389651,0.1549786141891808,0.5237009720098006,512,0,1,1,300.4030198847697,0.9332866149318182,0.0158617962661013,157.32135350833337
512,1536,350.6995764278218,163415,3,53006336,37715448,1.04199077616294,0.3052504997259862,0.6053701172974488,512,0,1,1,259.8763120496638,0.7267394378341416,0.0363243766587331,157.32135350833337
512,2048,207.27861131368164,1437097,93722,52482048,40839024,1.0605964007548327,0.1574688503300806,1.0,512,0,1,1,135.19198275802276,0.7213554897526409,0.0662641246431885,157.32135350833337
512,256,329.8136563025246,1553937,121830,35962880,32691192,1.0319853955937974,0.1627081294817626,0.6088005392759386,512,0,1,1,258.4119811973878,0.93103027845371,0.0150046350516397,157.32135350833337
512,512,352.6005098534138,1548176,153470,35700736,33293736,1.0140701379844603,0.220364385182729,0.6404720545287819,512,0,1,1,245.63343926704235,0.9326362366926574,0.011794764113229,157.32135350833337
