cpu,memory,duration_std,userDiff,sysDiff,heapTotal,heapUsed,avg_cpu_util,cpu_util_std,slo_preservation,total_cpu_shares,cpu_shares_others,num_containers,arrival_rate,latency,memory_util,memory_util_std,slo_duration
1024,1024,83.42896297358222,260523,46726,37072896,30174544,0.9796593983986008,0.1983134216857556,0.2754794329218413,1024,0,1,1,540.3327864185718,0.797155629600607,0.0910331604952084,148.85056959166656
1024,128,71.99552653267509,223275,36920,33267712,29660776,1.0211365381230022,0.2864823699422357,0.2311182634634316,1024,0,1,1,644.0450328808319,0.8761066947169962,0.0517138804093563,148.85056959166656
1024,1536,44.20336307848381,287896,32524,42708992,31275808,1.0991548897311427,0.2904586887451748,0.41977424423452175,1024,0,1,1,354.5967186793526,0.7835779680840756,0.1111424715592063,148.85056959166656
1024,2048,29.28558162523341,263140,23981,68497408,51165864,1.196475515020772,0.1885844693874542,0.5915327137161434,1024,0,1,1,251.63539757007408,0.7351878543416538,0.1200333610070948,148.85056959166656
1024,256,49.81749256975686,227304,59754,33267712,29682920,1.0940231760846801,0.2724753641741929,0.27504346137641345,1024,0,1,1,541.1892682224343,0.8760772948005414,0.0648818233842589,148.85056959166656
1024,512,56.177293288118,292412,24861,32743424,30156968,1.0345985385892762,0.1486849992963494,0.2720737102304778,1024,0,1,1,547.0964815585194,0.8910310352597867,0.0621455177896176,148.85056959166656
128,1024,74.30235316909577,255089,32045,38383616,30768984,0.9871156779292178,0.1573184488088852,0.27461775147947953,128,0,1,1,542.0282148176763,0.8099475789130895,0.0802140635217439,148.85056959166656
128,128,150.28760045300592,196083,38507,33005568,29691704,0.9587451376980877,0.3239686856616993,0.200218249008115,128,0,1,1,743.4415710309879,0.8871609730009528,0.0601396248627697,148.85056959166656
128,1536,50.83978231546641,181791,21960,69021696,51561432,1.0900607087842784,0.2940017220571654,0.379741984455455,128,0,1,1,391.97817382535754,0.7241736691118195,0.1181917246915512,148.85056959166656
128,2048,31.53402752656614,216955,49110,50311168,29889864,1.2069491471777538,0.2865052853285182,0.5620916548178136,128,0,1,1,264.8154768280848,0.6990081869849666,0.1442357976838125,148.85056959166656
128,256,43.9639561798025,239265,21853,33267712,29579496,0.9838550809288854,0.1224413127266195,0.248230199800708,128,0,1,1,599.6473020251825,0.9008508088121774,0.0509160898745787,148.85056959166656
128,512,45.9329510877155,239478,38283,32743424,29785464,1.0320746117720527,0.1471520006357988,0.2577825608859143,128,0,1,1,577.4268402025175,0.8991576186792869,0.0349678561392177,148.85056959166656
1536,1024,81.81036029960332,339467,30725,39694336,30398824,1.0012419528605476,0.1474082499691025,0.285906041901292,1536,0,1,1,520.6275761148715,0.7721944263222105,0.1042685643433403,148.85056959166656
1536,128,76.30497430556206,236346,70575,33529856,29678632,0.9984326341855055,0.2867855071942751,0.2189588785129176,1536,0,1,1,679.8106137673017,0.8984767979438008,0.0428003779468011,148.85056959166656
1536,1536,51.64635654817773,217639,32836,69021696,51644496,1.093666120526138,0.2448773104840881,0.39225879905707073,1536,0,1,1,379.47031385779036,0.7132775864932308,0.1105626608814607,148.85056959166656
1536,2048,30.89131970972822,255743,31691,50573312,29936144,1.2124623665013046,0.2759906025924161,0.5630464071427769,1536,0,1,1,264.36643179559644,0.719680732537569,0.1313524389831908,148.85056959166656
1536,256,39.54626240168561,233407,43286,32743424,30452256,1.1021725447581856,0.2093871296486787,0.2976267253989546,1536,0,1,1,500.1250119327806,0.893678177076121,0.0506909775278298,148.85056959166656
1536,512,41.57351972610961,309922,22203,33529856,29993296,1.0466582946467742,0.0955968289821057,0.25282960605077925,1536,0,1,1,588.7386841941717,0.8840350931835295,0.0599618556136957,148.85056959166656
2048,1024,67.94512638551329,301691,26595,39694336,31142312,1.0116417355184883,0.2132740571847457,0.2868865090862743,2048,0,1,1,518.8482723211753,0.7972181965985715,0.0890107418088283,148.85056959166656
2048,128,252.5159696517605,279162,41394,33005568,30226616,0.9691070127653802,0.299055744070366,0.17810255637373035,2048,0,1,1,835.7576253948796,0.8857611072140095,0.0781219661582387,148.85056959166656
2048,1536,44.92523459924373,267451,39573,51097600,30493032,1.1020449976380677,0.1883746620637599,0.43326645341629433,2048,0,1,1,343.55433802452006,0.7424750156314892,0.112334748625563,148.85056959166656
2048,2048,31.480163327962355,197509,22100,37720064,15549864,1.1820401587393223,0.3496997705356511,0.4927969139068147,2048,0,1,1,302.052560377465,0.635314049287098,0.1251820125523066,148.85056959166656
2048,256,58.281838070656256,253338,18312,33005568,30180920,1.0091409147406107,0.2288867444685445,0.24407808664290456,2048,0,1,1,609.8481499875102,0.8842342400240486,0.058384405303625,148.85056959166656
2048,512,51.06420244881233,200168,50038,33529856,29939104,1.0390628298474576,0.1479582084211617,0.28014252642542137,2048,0,1,1,531.3387135147904,0.8905473280222234,0.0562106242140018,148.85056959166656
256,1024,79.47364692261779,219468,60306,39432192,30070640,0.998424317005417,0.1861216673281484,0.29620529623286973,256,0,1,1,502.5250104732891,0.7710646769499176,0.103285062221324,148.85056959166656
256,128,90.93974167965432,301188,42878,33005568,30396464,0.9650692587179129,0.1430244055416316,0.21605676862247727,256,0,1,1,688.941941234703,0.8895896464470174,0.0534166959296926,148.85056959166656
256,1536,50.36824782242397,284551,40385,44019712,31952984,1.0935644588510876,0.2384111767379905,0.3906193258824485,256,0,1,1,381.06299337698687,0.7529769383626214,0.080139210293155,148.85056959166656
256,2048,28.16298156409865,264621,26993,69545984,51067880,1.1970440906082,0.2672989503185788,0.5749764100698361,256,0,1,1,258.88117666181694,0.7292386818497795,0.1193957228215841,148.85056959166656
256,256,46.264681664943545,246169,23567,32743424,30264968,1.1087304600942158,0.2418021051719475,0.29921007352899526,256,0,1,1,497.47847001294906,0.8755382458450084,0.0715306452739548,148.85056959166656
256,512,52.98355292588133,252291,33931,33005568,30161272,1.033585996893289,0.1240741186701138,0.23848772592539919,256,0,1,1,624.1435235884138,0.8556857002628068,0.0942011682667941,148.85056959166656
512,1024,79.33753858219526,231352,19949,38907904,30100552,0.9871672211251771,0.171037033055946,0.2820689015355974,512,0,1,1,527.709962995979,0.7605574466160833,0.0893378907004678,148.85056959166656
512,128,60.93993001469158,252434,41057,32743424,29701072,1.060591196513093,0.2639919687323843,0.2406034865525685,512,0,1,1,618.6550815386659,0.8647564240724632,0.0688589399863672,148.85056959166656
512,1536,40.545159326567344,219153,45571,48476160,29783568,1.1086753731336962,0.2015430721948356,0.3993825458339517,512,0,1,1,372.70173958366485,0.6542973729322089,0.1235335617433042,148.85056959166656
512,2048,26.223370518354063,204309,28303,62992384,51752128,1.1710557938365516,0.3292319729931172,0.538312381783814,512,0,1,1,276.5133677557595,0.6912622277470034,0.12697449290697,148.85056959166656
512,256,46.88970187324018,246524,38488,33267712,29779248,1.0124104990892562,0.1677437502500355,0.2492516747803794,512,0,1,1,597.1898472610936,0.8802071383704059,0.0489503216181185,148.85056959166656
512,512,41.85174319042156,219176,27193,33005568,29693000,1.0374772293687666,0.1299699232003921,0.24953142094821015,512,0,1,1,596.520346119298,0.8673286083884788,0.0730436181798372,148.85056959166656
