cpu,memory,duration_std,userDiff,sysDiff,heapTotal,heapUsed,avg_cpu_util,cpu_util_std,slo_preservation,total_cpu_shares,cpu_shares_others,num_containers,arrival_rate,latency,memory_util,memory_util_std,slo_duration
1024,1024,121.66197812510586,242998,45555,36810752,30546112,0.890857354560156,0.1598498151343225,0.8935234670435679,1024,0,1,1,487.0665101744122,0.7325053355511665,0.1295836459160445,435.205356851852
1024,128,289.4071370915947,295177,82918,32743424,30157832,0.7360917184228529,0.2636905643193376,0.384681568289842,1024,0,1,1,1131.339249724443,0.9250796224437704,0.00876069532508,435.205356851852
1024,1536,41.68912497949527,225743,35385,39030784,15908648,1.1536520109017756,0.2539416363917513,1.0,1024,0,1,1,274.616475721343,0.735098549575546,0.1161652575680383,435.205356851852
1024,2048,28.84460591772818,289555,16476,50573312,30447504,1.2472118806608592,0.2760577724844247,1.0,1024,0,1,1,204.56303034536117,0.7361301799637656,0.0932303389689009,435.205356851852
1024,256,298.55322394530293,260934,42692,32743424,30182160,0.6680731650351771,0.2254747574375578,0.41392684540506486,1024,0,1,1,1051.406454263589,0.888303196662283,0.0740738158020308,435.205356851852
1024,512,144.0201745969328,319737,23197,33529856,30115384,0.6899560351308737,0.14543365285937,0.5469608713067803,1024,0,1,1,795.6791421150003,0.8800982881502364,0.0529101311660748,435.205356851852
128,1024,100.76627833471233,239550,41733,36286464,30629512,0.8975418441172013,0.1389154978568766,0.9065795830599727,128,0,1,1,480.05201637445435,0.7476793015159778,0.1223519125340729,435.205356851852
128,128,781.9887119882985,246955,56496,32743424,30438144,0.555142531154931,0.2595825421555374,0.21886777434566326,128,0,1,1,1988.4396328009507,0.9208293733093006,0.0084956430821575,435.205356851852
128,1536,55.57959133807877,299487,37262,49786880,31607688,1.1603520052766798,0.3001946758725377,1.0,128,0,1,1,264.64625878517376,0.7220521255179327,0.1402992236261565,435.205356851852
128,2048,25.15637742810866,250653,40818,50049024,30397296,1.2513847957462543,0.2832269805107673,1.0,128,0,1,1,209.3609630280439,0.7458882027801274,0.087875455489869,435.205356851852
128,256,254.69631568670923,314713,29824,32481280,30713896,0.41709125428701554,0.06398507093204,0.30229902374762924,128,0,1,1,1439.6518766636111,0.9177122292264798,0.0301208123166413,435.205356851852
128,512,180.5296432012971,256898,36261,32743424,30484008,0.6406575277584626,0.1480924032545969,0.4801815407498154,128,0,1,1,906.3350418932557,0.902940917111238,0.0481171906789428,435.205356851852
1536,1024,112.60073040860132,235818,39553,37597184,30550672,0.8861496157446398,0.1999687113353444,0.8597344065909663,1536,0,1,1,506.20907284324676,0.7936432958585318,0.1046605804565908,435.205356851852
1536,128,505.69424777317687,278196,51334,33005568,30130336,0.7671676323925244,0.3690045693656335,0.34787170946735557,1536,0,1,1,1251.051307156358,0.9278056538395552,0.0138812367353043,435.205356851852
1536,1536,75.42722367729542,308656,26405,49786880,30378328,1.0522036794510907,0.20805233735714,1.0,1536,0,1,1,342.855394302231,0.6939567534255014,0.129170324251112,435.205356851852
1536,2048,50.581220534702965,301915,56850,50311168,31218312,1.0850507287414908,0.2374954743903098,1.0,1536,0,1,1,307.2789957122832,0.742348126419973,0.1068898976440666,435.205356851852
1536,256,264.0200980831344,311486,54936,33267712,30210624,0.7472994456371633,0.2202994856202883,0.48985185878763554,1536,0,1,1,888.4427996843137,0.9014213003881564,0.0502912016535609,435.205356851852
1536,512,90.60105159033384,298505,38352,32743424,30499728,0.7797649958965353,0.2164683103004736,0.6704271786302077,1536,0,1,1,649.1463513472822,0.8734712046522217,0.0718282590334432,435.205356851852
2048,1024,89.57456622466749,295060,42470,37859328,30405824,0.9207488616561992,0.1882337888536204,0.8957381801811418,2048,0,1,1,485.8622379631535,0.7243325234655,0.1233408589522566,435.205356851852
2048,128,1296.0888454533228,310414,39280,32481280,30117016,0.4674431519015801,0.1957109048153869,0.17294229302002934,2048,0,1,1,2516.4773130505946,0.9211720795444378,0.0082108904365346,435.205356851852
2048,1536,56.07568843518693,240560,58659,37720064,16134120,1.1663689611013726,0.3860696707184821,1.0,2048,0,1,1,266.3052918390627,0.7399055698925825,0.1229420050302476,435.205356851852
2048,2048,26.16207069883897,255928,45644,50049024,30441976,1.2438049028488183,0.2288409404995929,1.0,2048,0,1,1,209.00661614366697,0.7254636390132962,0.1198289499249047,435.205356851852
2048,256,162.568396804616,255766,35770,32743424,30349240,0.6980809584345511,0.1843118294578474,0.505276797297287,2048,0,1,1,861.3206843847859,0.8766474465919414,0.087502498545926,435.205356851852
2048,512,146.8194223303476,319062,43272,32743424,30385040,0.771646822747272,0.2159027860092489,0.6330981031645837,2048,0,1,1,687.4216723702829,0.8832358283336044,0.060356702045293,435.205356851852
256,1024,106.48007904015876,283867,53072,37859328,31439864,0.897547676166065,0.1246481077144713,0.8557863173240208,256,0,1,1,508.544420542626,0.7823214319185924,0.0919458857083613,435.205356851852
256,128,967.6505222073652,304901,35482,32743424,29966648,0.5615843326224781,0.2952956827591357,0.22845719393234803,256,0,1,1,1904.975498301565,0.91920691493939,0.0101153962976141,435.205356851852
256,1536,56.93036058971712,273408,57014,50573312,30499528,1.1224170379699643,0.264084074360554,1.0,256,0,1,1,281.5008751178842,0.720884627247999,0.132077388631326,435.205356851852
256,2048,27.46138322195537,269302,40140,50311168,30392384,1.2551116353373402,0.2367285514838352,1.0,256,0,1,1,207.41140905049335,0.7247196923732874,0.0803221279317299,435.205356851852
256,256,245.36958919279508,314264,55981,32481280,30555384,0.4848252062950841,0.0916636474818386,0.33622803432472104,256,0,1,1,1294.3755797339047,0.8949198142493945,0.0617065933585617,435.205356851852
256,512,394.15520800856086,325540,47903,32743424,30577400,0.9412350603575205,0.604809301649111,0.4544171240795044,256,0,1,1,957.7221759268668,0.8986503483554406,0.034031544171225,435.205356851852
512,1024,112.843729809528,248947,52209,36810752,30914848,0.8731786368668757,0.1210450882474009,0.8098602238015613,512,0,1,1,537.3832966001917,0.7849928929633357,0.0987490205030561,435.205356851852
512,128,668.8089156791016,270127,40346,31956992,30192600,0.3819030061261003,0.085783510338376,0.19898569429321047,512,0,1,1,2187.1188197608108,0.9273186997253838,0.0147164354121681,435.205356851852
512,1536,68.1482536097893,223748,51925,50835456,30401456,1.2157529779327276,0.3019126868144689,1.0,512,0,1,1,278.18925014838703,0.7636116321081194,0.1085378228979661,435.205356851852
512,2048,32.64704412212205,263865,42967,48738304,30366816,1.2453981383878827,0.2102382187197292,1.0,512,0,1,1,227.27535793988827,0.7248927805353217,0.1353118800028495,435.205356851852
512,256,196.75689876288817,269290,44808,32481280,30400904,0.5232325052486767,0.0892141516162835,0.3743327848440997,512,0,1,1,1162.616191988378,0.8871564564007173,0.0671086382773357,435.205356851852
512,512,141.94794357221446,278903,60895,33005568,30519856,0.6400813508785395,0.0596932403445597,0.4970504580456841,512,0,1,1,875.575808868588,0.8844811167535866,0.0656616581625249,435.205356851852
