cpu,memory,duration_std,userDiff,sysDiff,heapTotal,heapUsed,avg_cpu_util,cpu_util_std,slo_preservation,total_cpu_shares,cpu_shares_others,num_containers,arrival_rate,latency,memory_util,memory_util_std,slo_duration
1024,1024,62.22374713681191,124615,23319,48435200,38794992,0.9581671443863923,0.1759374668940255,0.3160780447085975,1024,0,1,1,324.09952992077234,0.7554667752843498,0.0539987637952088,102.44074570833332
1024,128,57.930821382910885,27736,26404,26140672,21697216,1.0307473842904598,0.1695269557812997,0.2542050383695848,1024,0,1,1,402.984718026699,0.8850380681467425,0.0415149229566324,102.44074570833332
1024,1536,40.65165588091081,23276,7824,50913280,39523288,1.008646903342546,0.1357745802608586,0.35982637979274323,1024,0,1,1,284.6949291692796,0.6784284812371785,0.0531522728512189,102.44074570833332
1024,2048,17.86925692525703,38483,20803,55136256,37101864,1.044091532341743,0.1306908026518686,0.44182820560870106,1024,0,1,1,231.85650985591113,0.6831044843283954,0.0607135932861752,102.44074570833332
1024,256,49.60762156826869,42854,8538,26140672,21684248,1.0310368179950578,0.2246023951253676,0.30921307161078165,1024,0,1,1,331.29500371601176,0.8813526234611085,0.0218949686002469,102.44074570833332
1024,512,39.36899607649584,114680,22325,45191168,40380168,1.0726716548809931,0.2162655674083599,0.2868868756608934,1024,0,1,1,357.0771422441107,0.8910215850471694,0.0220347268042637,102.44074570833332
128,1024,46.71863826482117,171103,17981,61181952,50521080,0.9757576384247716,0.1902216763958947,0.32995883370499723,128,0,1,1,310.4652315504346,0.7758622002197306,0.0517283349758197,102.44074570833332
128,128,69.68118171076866,116474,11411,27844608,22772576,0.9687021718385908,0.2050167379088133,0.2358303824706334,128,0,1,1,434.3831555337857,0.8666145296772754,0.0396334718024439,102.44074570833332
128,1536,40.18377343881525,20472,8144,50126848,39502152,1.0123711027602975,0.1016512364859146,0.41932684500416284,128,0,1,1,244.2980861559587,0.6663834921906704,0.0578015686412814,102.44074570833332
128,2048,25.15210846222492,23613,7939,50651136,39347256,1.0403740266583588,0.1697302541257964,0.5599109340866838,128,0,1,1,182.95900199811734,0.6627454020482875,0.0597252058883491,102.44074570833332
128,256,42.697731726044026,79618,22175,35921920,31462664,1.0650700522460559,0.2394808221730009,0.28135809180130894,128,0,1,1,364.0938316452456,0.8834739830590715,0.0213963011617148,102.44074570833332
128,512,38.91686286212729,133482,32064,57675776,52762144,1.0965855119308778,0.1716279189542617,0.247689925234126,128,0,1,1,413.58462848863314,0.8883161168704996,0.0255134186899755,102.44074570833332
1536,1024,59.03618617187552,49052,30963,40542208,29504848,0.9512244700001165,0.1711685663269036,0.291293137974258,1536,0,1,1,351.6757944273516,0.7613741630098623,0.0486557601361334,102.44074570833332
1536,128,59.94778357764129,147852,47949,37212160,32770688,1.0200699435644784,0.1252787440569787,0.29463325974452337,1536,0,1,1,347.6890076740139,0.8881764633566893,0.0214341569148438,102.44074570833332
1536,1536,40.517797034369245,89195,11117,64143360,46035912,1.0102482694470174,0.1202740583280648,0.4406847741006815,1536,0,1,1,232.45810095750912,0.6584004001880672,0.0461534068057831,102.44074570833332
1536,2048,23.49330050877577,34943,25058,55136256,37113928,1.0578052900996795,0.1472022158167144,0.5485919865737103,1536,0,1,1,186.73394474486932,0.6618475419155277,0.0509595312801841,102.44074570833332
1536,256,58.02287496279958,64589,11363,36241408,31730384,1.0386606232495081,0.146387908555596,0.3356010161944816,1536,0,1,1,305.2456362318303,0.8744460851929586,0.0255869046784662,102.44074570833332
1536,512,41.8098310523606,127312,31908,57937920,52771016,1.0721349201778287,0.2383363821488118,0.40965092724049373,1536,0,1,1,250.06838480361463,0.8779783729011073,0.0299099638064799,102.44074570833332
2048,1024,63.52042847787502,135249,48107,43900928,32920024,0.9487262313583346,0.1775040469712672,0.2680533158600175,2048,0,1,1,382.1655605328524,0.7759470051622479,0.0491612434282474,102.44074570833332
2048,128,50.10571197590716,53533,17913,45469696,41246624,1.03953121116155,0.1486808391961794,0.28411546498380635,2048,0,1,1,360.56025923887006,0.8797420063796182,0.0400501382473993,102.44074570833332
2048,1536,37.15016897116232,32885,27632,55136256,37190864,1.0085869542960535,0.1067098932115167,0.35224178603964335,2048,0,1,1,290.82508029528344,0.6605463343165116,0.0507875012824153,102.44074570833332
2048,2048,26.239321290244067,96220,21269,64143360,46073216,1.0492618931238358,0.1672407478309904,0.4059384294622327,2048,0,1,1,252.35537774544233,0.672592188968016,0.0490389535334395,102.44074570833332
2048,256,40.51638081788408,110016,19614,44929024,40384624,1.0696276577715293,0.2089662117342278,0.29708872059402297,2048,0,1,1,344.8153316070199,0.8921778167519175,0.0187659528996821,102.44074570833332
2048,512,37.83958907072012,135056,27836,57675776,53155288,1.0943215397315695,0.2099290617340014,0.2946497633456606,2048,0,1,1,347.6695332965792,0.8927360814335377,0.0366676939549955,102.44074570833332
256,1024,51.996631375169045,32855,19143,40845312,31262672,0.998376337698425,0.168068320144345,0.3474034921672365,256,0,1,1,294.8754057400764,0.7821459858992513,0.0371665130265873,102.44074570833332
256,128,81.45389692871373,38754,8591,36155392,33607712,0.9202293318396062,0.2347409767463453,0.25599089858881346,256,0,1,1,400.173390042586,0.8874001193658083,0.022180455043896,102.44074570833332
256,1536,30.40621024745882,99921,46727,76365824,58505800,1.0299523084187494,0.15181384250843,0.42423809544652125,256,0,1,1,241.4699358870916,0.6730933164442642,0.0487699554905619,102.44074570833332
256,2048,19.536592846307656,23121,35672,55136256,37131640,1.0348673467847296,0.1307962044604807,0.5366583595106534,256,0,1,1,190.88633185876932,0.6709560347537232,0.0380828297132827,102.44074570833332
256,256,63.67591898790228,155292,28476,44171264,39543328,1.0043614106082195,0.1903440653062077,0.24355674664085797,256,0,1,1,420.6031946197311,0.8841814997623372,0.0263462534179866,102.44074570833332
256,512,48.43091929213953,110006,30625,36589568,32332408,1.0273154864685776,0.1306251096991127,0.23659453027556385,256,0,1,1,432.98019438158457,0.8865026260402242,0.0272747269951861,102.44074570833332
512,1024,37.96975624034142,113150,38042,62033920,51028224,0.9625444767992781,0.1830305205494589,0.28869922163032635,512,0,1,1,354.835545208039,0.7790340424650191,0.0412175491147957,102.44074570833332
512,128,78.0387055585399,140458,37398,49074176,44837440,0.9420191182352442,0.1440957102674697,0.22717209872850203,512,0,1,1,450.93894136516445,0.8812912267645648,0.0216775272438801,102.44074570833332
512,1536,37.247585518318346,37406,25109,54874112,37086888,0.9893286122536944,0.1603234647302329,0.38946666073588204,512,0,1,1,263.02827953174614,0.676852079336102,0.0559472061599681,102.44074570833332
512,2048,29.932230800883254,114956,48500,59641856,41163208,1.0474361126330591,0.1908584387775217,0.48561368893795576,512,0,1,1,210.9511079318475,0.672159461414052,0.0558870358014974,102.44074570833332
512,256,45.36270531730813,93356,35578,54681600,49889408,1.0477347187801733,0.2271294705555408,0.3327093967698086,512,0,1,1,307.8985646420108,0.888689166901736,0.0169476248341625,102.44074570833332
512,512,49.73188079207336,93496,20354,35921920,31383784,1.0259772184453926,0.097357584044384,0.280118841696664,512,0,1,1,365.7045884091749,0.8837897318041115,0.0243717353175017,102.44074570833332
