cpu,memory,duration_std,userDiff,sysDiff,heapTotal,heapUsed,avg_cpu_util,cpu_util_std,slo_preservation,total_cpu_shares,cpu_shares_others,num_containers,arrival_rate,latency,memory_util,memory_util_std,slo_duration
1024,1024,118.50342018929256,422429,54249,36548608,30223336,0.8116970779212379,0.1155660363184759,1.0,1024,0,1,1,652.4688677089947,0.7894241814534485,0.0885143027503018,885.1582426055043
1024,128,1290.9973480693882,490639,122503,34578432,29632832,0.59461568755863,0.3626020053080169,0.4398654655276293,1024,0,1,1,2012.3385716215196,0.838662007776596,0.0832893940523713,885.1582426055043
1024,1536,65.54009341393031,454948,57574,58970112,44505072,1.3678147243927539,0.1813706197224968,1.0,1024,0,1,1,304.5328268772827,0.7117581906833925,0.1196617244824882,885.1582426055043
1024,2048,50.89852469414959,450275,93005,57913344,31584112,1.584801588431345,0.146511449603481,1.0,1024,0,1,1,217.88433298475815,0.6563415100885,0.1573775944556141,885.1582426055043
1024,256,483.6907907007292,670811,81534,33792000,29754912,0.4038939748189168,0.091743403029441,0.4573225668424138,1024,0,1,1,1935.5227727271022,0.8686211913620249,0.0678067202479123,885.1582426055043
1024,512,255.3411686366383,472311,73897,32481280,30152368,0.5275093973511267,0.057281384652053,0.6496845683855126,1024,0,1,1,1362.443077269253,0.8862121590433283,0.0580507637444637,885.1582426055043
128,1024,126.62416034992036,490878,81737,50712576,44521904,0.8753229778287194,0.1405655426015318,1.0,128,0,1,1,662.2972023438789,0.8186641553947872,0.0651921911727495,885.1582426055043
128,128,544.6942009470176,520902,114169,36413440,29682672,0.4974242355486149,0.1198445555211595,0.5548095679170905,128,0,1,1,1595.4271407550425,0.8742586577348894,0.0669896452252839,885.1582426055043
128,1536,93.3984422623961,400597,53518,62902272,44996208,1.0842639691831752,0.1370287030433853,1.0,128,0,1,1,432.1839154668729,0.6639661590668051,0.1310113764831625,885.1582426055043
128,2048,62.80622132971308,333531,79063,62377984,44733528,1.3626780564375458,0.2095689723795519,1.0,128,0,1,1,318.4519159921706,0.7258565596853093,0.1188295447678173,885.1582426055043
128,256,498.8387218328531,463809,88086,32743424,29613728,0.30970515547293537,0.0617388307781202,0.3457753070220278,128,0,1,1,2559.9232352040535,0.8793751148028954,0.0687775699501011,885.1582426055043
128,512,256.1774017487031,444333,73011,32743424,30075904,0.5081588471391537,0.0773695422092149,0.6287901847012811,128,0,1,1,1407.7163800290803,0.869673438684791,0.0613321806259467,885.1582426055043
1536,1024,121.8888351145873,513957,67541,53858304,44093688,0.889726932849378,0.0901132684543372,1.0,1536,0,1,1,675.2034256995015,0.813116178205548,0.0873575280519189,885.1582426055043
1536,128,714.3566625644929,552504,104866,32481280,30295240,0.41389599800210475,0.1352338870749636,0.39774209254353987,1536,0,1,1,2225.4578009206007,0.8480949261952236,0.0618138734631243,885.1582426055043
1536,1536,78.12893826391299,371348,36332,44806144,31742584,1.2637228678931527,0.1343197654153621,1.0,1536,0,1,1,320.6181884514234,0.716920135343845,0.1016423499902792,885.1582426055043
1536,2048,50.94972468746936,401290,71112,76627968,63918328,1.5987532699473046,0.1837042040578682,1.0,1536,0,1,1,220.12837089648917,0.6839006785193719,0.1561202900444902,885.1582426055043
1536,256,400.3801228208207,560929,64072,33005568,29617464,0.49496571775017856,0.1424295579360174,0.5745903299671161,1536,0,1,1,1540.5032010478874,0.8800069639536441,0.0668806701505364,885.1582426055043
1536,512,261.26682302205256,542670,60418,32481280,29953688,0.5304834007228024,0.105214685390519,0.6217578126639344,1536,0,1,1,1423.6383115364893,0.8838413342484973,0.0651285105855701,885.1582426055043
2048,1024,111.59184386922446,610218,59472,53858304,45180592,0.8795203669894379,0.0777988864676894,1.0,2048,0,1,1,643.5746970567438,0.779452740865804,0.0801001931317623,885.1582426055043
2048,128,892.61469405056,570898,71005,33005568,29885616,0.5191282790246068,0.3812447971835864,0.4017974326971523,2048,0,1,1,2202.996262727932,0.8365510473565229,0.0874697598463869,885.1582426055043
2048,1536,75.68682257502101,434972,56838,76890112,62377176,1.305798089900653,0.1736382286986495,1.0,2048,0,1,1,333.8915115960209,0.720685594475772,0.1006551759457921,885.1582426055043
2048,2048,40.48964567010908,357548,49213,61591552,45996176,1.6171855568256988,0.2062772205105462,1.0,2048,0,1,1,235.52305286563288,0.673331967108516,0.1350679393145477,885.1582426055043
2048,256,278.2215807532102,438967,81151,32743424,29785464,0.5200600289693983,0.1163879197866996,0.6252591565494315,2048,0,1,1,1415.6661815084121,0.8742604784685634,0.0532182194139686,885.1582426055043
2048,512,223.0196108645191,540658,80041,42967040,29884608,0.8361412066542517,0.2788896296831701,0.9975327301266486,2048,0,1,1,887.3475685285264,0.8719509480960317,0.0775948132314505,885.1582426055043
256,1024,137.48148279064293,492623,74276,53858304,44291320,0.8736007993377394,0.1084966509943928,1.0,256,0,1,1,654.1043884500476,0.8225447946606588,0.0667171528350412,885.1582426055043
256,128,1165.1054213627756,600324,110857,33005568,29750640,0.477328099203015,0.2290818907478495,0.3802715187290902,256,0,1,1,2327.700600780731,0.8485205683244506,0.078729244547391,885.1582426055043
256,1536,75.2241252721148,454338,88152,56078336,29894952,1.398704093611477,0.1832517210179111,1.0,256,0,1,1,322.9940472718881,0.697000750008272,0.1378966353289207,885.1582426055043
256,2048,43.367517321972855,329656,67146,62115840,44664056,1.5607152060154166,0.1766635505755058,1.0,256,0,1,1,235.00231596171452,0.7007589282864229,0.1472177210085133,885.1582426055043
256,256,285.6574406174513,516563,105819,32481280,29675520,0.29592515788276386,0.0271993190935051,0.35140213749023275,256,0,1,1,2518.9324371429225,0.8452753220186784,0.0788145443286689,885.1582426055043
256,512,295.84677885644504,605393,73573,33005568,29512800,0.4852963192780966,0.0627439849356723,0.5966131400806108,256,0,1,1,1483.6385308005567,0.8626604706128933,0.0764177946091252,885.1582426055043
512,1024,123.86284837602294,457509,110683,53858304,44198656,0.8154886918295733,0.1067952822209466,1.0,512,0,1,1,701.3771873482942,0.8224846825614771,0.0431074388480456,885.1582426055043
512,128,796.1155689503162,588732,100752,46907392,44513608,0.5139315505826934,0.2560622020985961,0.46470106773471775,512,0,1,1,1904.7906365276772,0.876257269433459,0.0623584300631993,885.1582426055043
512,1536,77.74325257492451,396170,55040,57389056,29905416,1.308027188921595,0.1657603152947226,1.0,512,0,1,1,335.6477875109502,0.6886819944313103,0.1455473380440135,885.1582426055043
512,2048,48.123863169894754,401554,60581,44806144,31711696,1.58388343633271,0.2119116105857472,1.0,512,0,1,1,246.27618705717174,0.7171578551809208,0.120000165535591,885.1582426055043
512,256,428.5091250685496,466128,66552,32481280,29807112,0.3658337630274372,0.0685126963983167,0.43443505594077075,512,0,1,1,2037.4926712318156,0.8739953797884022,0.0646067696510262,885.1582426055043
512,512,403.5482024232363,507549,98950,40869888,29851512,0.5974169193551641,0.3122578713660898,0.6497600461897034,512,0,1,1,1362.2848123645235,0.8655298257119703,0.0806663436524312,885.1582426055043
