cpu,memory,duration_std,userDiff,sysDiff,heapTotal,heapUsed,avg_cpu_util,cpu_util_std,slo_preservation,total_cpu_shares,cpu_shares_others,num_containers,arrival_rate,latency,memory_util,memory_util_std,slo_duration
1024,1024,80.18749899851942,251676,26609,39694336,31032472,0.9121542948635623,0.1801278207210966,1.0,1024,0,1,1,368.9427078720345,0.8037926686407391,0.0862226365763595,470.8049804107141
1024,128,688.5616150924915,326004,36971,33529856,29902048,0.8338649437037563,0.3726293796060397,0.3807320189615361,1024,0,1,1,1236.578372617192,0.9096332951831528,0.0126880575969385,470.8049804107141
1024,1536,56.009734856639184,277618,25061,70238208,55475288,1.1079818357772986,0.1805579871354186,1.0,1024,0,1,1,238.49061424144702,0.7185984895097888,0.1084678721304501,470.8049804107141
1024,2048,32.90305529858371,271073,47927,50835456,30749440,1.1380998703792535,0.1874809585331972,1.0,1024,0,1,1,181.24471041527477,0.7454566539411774,0.0952112524070056,470.8049804107141
1024,256,607.8327881384253,251744,20602,55549952,52740792,0.7441650671849266,0.3007821003310836,0.421733412912925,1024,0,1,1,1116.3568405900078,0.8986799481628568,0.0537347494484021,470.8049804107141
1024,512,161.71728246230748,274775,49699,33267712,30075144,0.6592210428198132,0.1408866240019699,0.5865352035409984,1024,0,1,1,802.6883596558159,0.895005549353075,0.0421826346223087,470.8049804107141
128,1024,104.28828369712232,230264,30567,63025152,53766672,0.8377648229229081,0.138924949840533,1.0,128,0,1,1,451.20117394727254,0.7915570855595156,0.1056396695218865,470.8049804107141
128,128,1320.9205594090688,328991,61536,33005568,29986952,0.4008833494861878,0.2489615796795919,0.1541718051138475,128,0,1,1,3053.7683596754296,0.9114639564838374,0.0084212553237676,470.8049804107141
128,1536,41.94507565540388,209789,47421,38506496,15686568,1.0911799863519334,0.1989664006494337,1.0,128,0,1,1,221.37378708509473,0.7295526435672924,0.1330636994880441,470.8049804107141
128,2048,28.21683440428794,248095,37423,50835456,30164664,1.1771806840761532,0.22885312133665,1.0,128,0,1,1,179.3504661886889,0.7299952863287962,0.1190366153073069,470.8049804107141
128,256,470.1662259174835,244953,58662,32481280,30127960,0.5973724948975185,0.2001130287645101,0.37389039249923045,128,0,1,1,1259.2058791980944,0.8951283667708196,0.0524016582904657,470.8049804107141
128,512,158.31250234848963,311805,30941,32743424,30095648,0.5739491842933885,0.0615317524311849,0.49784842695619114,128,0,1,1,945.6793572477095,0.8982582416133246,0.0436196785321447,470.8049804107141
1536,1024,122.56884335130364,292474,29715,39694336,30215536,0.8858948860685391,0.1198727269760256,1.0,1536,0,1,1,416.78180244720227,0.7982738314343424,0.0925411320303902,470.8049804107141
1536,128,437.458913847384,275964,38974,33267712,30354400,0.6682790386217022,0.258501221134165,0.3500794246890132,1536,0,1,1,1344.8519027616242,0.9057563178232334,0.009870016922757,470.8049804107141
1536,1536,49.46756907312124,196985,43898,73379840,55450896,1.1309257118022107,0.2016091581638792,1.0,1536,0,1,1,229.84854460973122,0.749090787550107,0.0804002438602515,470.8049804107141
1536,2048,29.237104454224223,274137,36965,50835456,30751160,1.2084430666997983,0.1743162167059397,1.0,1536,0,1,1,183.14749653644787,0.7389163327012935,0.0933671896082573,470.8049804107141
1536,256,312.5908214546803,246432,66129,33529856,30023984,0.7185630163909815,0.3400575634483395,0.4406609149092294,1536,0,1,1,1068.4064878041067,0.8929785334738206,0.0531191823600664,470.8049804107141
1536,512,119.4637513692938,277062,36755,33267712,30312736,0.8052283715675441,0.2679043225494844,0.7223457242073911,1536,0,1,1,651.7723641644237,0.8927422222492227,0.0478457524304498,470.8049804107141
2048,1024,99.03492929265757,352355,21701,40218624,30133680,0.8505185169939504,0.1578704550967619,1.0,2048,0,1,1,450.6274935768355,0.7850807717663161,0.1142036975078747,470.8049804107141
2048,128,1586.5296106116734,281129,80234,33005568,30015336,0.44901079710604,0.2074515344869588,0.18228922222823518,2048,0,1,1,2582.7362400024003,0.9103666580696316,0.0114672363688558,470.8049804107141
2048,1536,43.7770577532421,245166,40336,72597504,55580024,1.1888438996510993,0.2509807249680567,1.0,2048,0,1,1,216.73370344423407,0.7581888022179724,0.0907958011560878,470.8049804107141
2048,2048,31.2278911232017,280669,40656,50573312,30883536,1.1956690472300988,0.1439385534602551,1.0,2048,0,1,1,179.97573871984528,0.7595226624544323,0.1019737310647955,470.8049804107141
2048,256,672.107720863612,353951,64261,33005568,29833720,0.7277142404057552,0.2065904712908051,0.4139335558478843,2048,0,1,1,1137.3926413052857,0.9030885602945612,0.0356225330631933,470.8049804107141
2048,512,126.27447938440928,255435,39774,32743424,29876240,0.9346410536314763,0.2350739410878919,0.8590152870490895,2048,0,1,1,548.0752060048139,0.8772526979464612,0.0676628181878623,470.8049804107141
256,1024,108.1259484753463,296208,38217,38645760,31327440,0.8310633049112376,0.1653266097290117,0.9530998492479892,256,0,1,1,493.97235849128157,0.7955489773037746,0.0841894605656282,470.8049804107141
256,128,919.1484127703212,292635,63504,32481280,30203568,0.3260868369471197,0.1268077380770756,0.176885025724312,256,0,1,1,2661.64407350398,0.9258005501861672,0.0047445391723611,470.8049804107141
256,1536,72.61022017669808,231508,31747,110084096,95665616,1.021670425908533,0.1989348764275638,1.0,256,0,1,1,304.36171611854076,0.7350246532397429,0.1119051510139818,470.8049804107141
256,2048,60.296882389941246,286926,35011,49524736,31907048,1.0681964555265657,0.1935139793441009,1.0,256,0,1,1,260.9761255388024,0.7399599508843592,0.0872563154000306,470.8049804107141
256,256,610.8656489883314,291046,44625,33267712,29767048,0.6292625409873813,0.4438096215779841,0.2893055850530466,256,0,1,1,1627.3622243566024,0.8968864875306776,0.0303486654779979,470.8049804107141
256,512,100.424256104909,275521,24086,32743424,29757928,0.6425276502107401,0.0711004364145924,0.6065267584791126,256,0,1,1,776.2311783098809,0.8872411080799049,0.0630639280653413,470.8049804107141
512,1024,105.64071369186088,245668,60625,37859328,31053696,0.8929864685042149,0.1290610841918977,1.0,512,0,1,1,426.34464292616195,0.7805687115411187,0.0889653893132122,470.8049804107141
512,128,1602.2106731667498,250507,57289,33267712,29733688,0.534322071854079,0.3829421087030009,0.14860284824577827,512,0,1,1,3168.2096673681317,0.9146583592300898,0.011531273839841,470.8049804107141
512,1536,50.08762210597619,283109,26816,51359744,31802424,1.1832865149757659,0.2140931750798278,1.0,512,0,1,1,231.98519208284907,0.70955770167038,0.1220107505272813,470.8049804107141
512,2048,27.552421209026484,241186,58986,50573312,30710288,1.198539591140929,0.2022603099422447,1.0,512,0,1,1,174.86798855044128,0.725589662104043,0.1127281706915288,470.8049804107141
512,256,306.94360077447425,317182,40934,33005568,29832112,0.5391073877538574,0.1874344496159332,0.36271970024510913,512,0,1,1,1297.9856900316304,0.910535409576898,0.0138061247172685,470.8049804107141
512,512,138.03087204917884,328465,50188,33267712,29779832,0.6855373083312999,0.1216753271413003,0.5948313297319221,512,0,1,1,791.4932467038949,0.8851867766464208,0.0530372483493845,470.8049804107141
