cpu,memory,duration_std,userDiff,sysDiff,heapTotal,heapUsed,avg_cpu_util,cpu_util_std,slo_preservation,total_cpu_shares,cpu_shares_others,num_containers,arrival_rate,latency,memory_util,memory_util_std,slo_duration
1024,1024,52.99209920306084,29778,7502,33902592,28516624,0.7681918115636741,0.1721129300132384,0.9430372654650432,1024,0,1,1,143.3709501819623,0.671098814252585,0.0833056905972161,135.20414880672266
1024,128,139.52741034099185,41563,5423,27996160,24087288,0.5609744123433525,0.2173246897701754,0.5742446645863473,1024,0,1,1,235.44693950986192,0.8657564256072081,0.0119733317985995,135.20414880672266
1024,1536,31.257888453197,116666,4031,42684416,28073912,0.9766318923437439,0.0611086603610958,1.0,1024,0,1,1,112.77537185970405,0.5231785333857215,0.0622338504864243,135.20414880672266
1024,2048,25.93791871115129,122618,1303,42684416,28156704,0.9760083634448395,0.1262887589821919,1.0,1024,0,1,1,98.36013862628151,0.5397692092651186,0.0563447993923733,135.20414880672266
1024,256,132.07013460321278,47722,3452,28258304,24097304,0.5314156155329058,0.251833201244717,0.588140912314272,1024,0,1,1,229.88393763445004,0.8709873956454935,0.0123800934034404,135.20414880672266
1024,512,94.68555766305082,100565,7242,27734016,24456632,0.6400758499140392,0.2503271524583692,0.577215867081848,1024,0,1,1,234.234982988697,0.8815836693048353,0.0183976322681582,135.20414880672266
128,1024,39.19254998208344,108673,4927,33902592,28377088,0.7849178320133372,0.1505418852790151,0.901901645936371,128,0,1,1,149.91008101149566,0.6815647368186893,0.0844588306512228,135.20414880672266
128,128,262.56422391775976,40154,2653,28258304,24586168,0.40554379103299437,0.1538776528947618,0.3322823680104253,128,0,1,1,406.8953451134688,0.862408060733415,0.0084569658258276,135.20414880672266
128,1536,38.42985227526143,64945,4139,34312192,15035200,0.95127231514476,0.104207962219432,1.0,128,0,1,1,116.41759161703945,0.5497180294076432,0.0863604007302651,135.20414880672266
128,2048,27.213463024202028,84801,51,42422272,28405664,0.9612457429659356,0.1077163480480641,1.0,128,0,1,1,100.02662238296068,0.5404843878429665,0.0592290821432436,135.20414880672266
128,256,144.6561400400922,72172,32,27996160,24063104,0.4569776329022796,0.1907520060860207,0.40610825098297076,128,0,1,1,332.9263773377314,0.8660565657063791,0.0119317710709237,135.20414880672266
128,512,86.02385488759289,87092,1427,28520448,24621976,0.6421548560031393,0.2270821721627324,0.9278448699663402,128,0,1,1,145.7184850433322,0.8755658418823249,0.0144932071474387,135.20414880672266
1536,1024,74.60462317366841,102036,7946,25792512,15069896,0.7855522989181598,0.1412136246769643,0.7576665611436925,1536,0,1,1,178.44808751046492,0.6739280781171875,0.0781138274114036,135.20414880672266
1536,128,110.8320264887856,64142,7454,28258304,24181032,0.6433794377898305,0.186695945939705,0.5646925065634489,1536,0,1,1,239.42968471378344,0.8676418834123799,0.0103554182958759,135.20414880672266
1536,1536,31.55695088966132,68388,3941,42160128,28374672,0.9366076694818372,0.1649806120209463,1.0,1536,0,1,1,95.89508084500379,0.5896656337046429,0.0828635753076423,135.20414880672266
1536,2048,38.69827876370907,30048,8555,34574336,15129088,0.944378170144582,0.1180209333666206,1.0,1536,0,1,1,98.10729606047457,0.532942444189674,0.0554118111480613,135.20414880672266
1536,256,134.73970745986077,65767,6381,28258304,24076712,0.560091575602841,0.2965538966399919,0.5287563975118197,1536,0,1,1,255.7021521497531,0.8705568683004115,0.0122860550754225,135.20414880672266
1536,512,92.46848170758828,120648,40,28258304,24195032,0.6706228513045894,0.2696335009175444,0.7005368308102197,1536,0,1,1,193.00077149455458,0.8743692247937712,0.0123321472591796,135.20414880672266
2048,1024,37.06963740734361,64130,8102,34689024,26937832,0.860565971042787,0.1281927342754207,0.9400955149492142,2048,0,1,1,143.81958711293996,0.6802920605112044,0.076872648595988,135.20414880672266
2048,128,78.01834998911863,75903,11981,27996160,24463952,0.7839763979012399,0.2486568427415824,0.8002256378754332,2048,0,1,1,168.95753198520885,0.8682078847713329,0.0106616410342403,135.20414880672266
2048,1536,35.773636522647614,55086,25,42160128,28531064,0.929497847317986,0.1452162119618666,1.0,2048,0,1,1,118.53562551581305,0.5845936254185359,0.0925194418950945,135.20414880672266
2048,2048,39.26046123150441,39352,7812,34312192,15128112,0.976401827564433,0.1343587273834548,1.0,2048,0,1,1,82.20306052648237,0.5378146304516706,0.051354338735744,135.20414880672266
2048,256,99.36159921358367,111535,24,27734016,24440776,0.5926109896105949,0.2193203416817001,0.5690791086491515,2048,0,1,1,237.5841016685058,0.8658086976211573,0.011248639010043,135.20414880672266
2048,512,42.548619599988456,41791,2345,27996160,24537472,0.6415388064898555,0.1963835273683676,0.7663286642982896,2048,0,1,1,176.43102118661596,0.8788456127249227,0.0139812571446717,135.20414880672266
256,1024,62.40171607755293,120340,833,25530368,14956216,0.7520892103508453,0.1303005543952935,0.8276880027924477,256,0,1,1,163.3515870117386,0.6702960375844349,0.070464353455896,135.20414880672266
256,128,182.25465783529768,137311,5316,28258304,24069792,0.4924677385977118,0.2199796143483932,0.3961945522174468,256,0,1,1,341.25696087945556,0.8637417560124169,0.0104444755824689,135.20414880672266
256,1536,36.13523518822722,25854,310,42160128,28496264,0.9624490025167913,0.0844270074669367,1.0,256,0,1,1,84.7908463461287,0.5734634103277119,0.0910677632354037,135.20414880672266
256,2048,28.409818246732662,33200,38,42422272,28407232,0.9930388011018458,0.166878681553037,1.0,256,0,1,1,72.1595647088288,0.5370983715633079,0.0619015920009988,135.20414880672266
256,256,135.9066577516068,57218,1809,27996160,24035288,0.5000911453817906,0.2567403350876954,0.4942682432888114,256,0,1,1,273.5440737747742,0.8717698954607256,0.0127370499879349,135.20414880672266
256,512,87.71858169047924,65395,29,28258304,24202600,0.6077353760154137,0.2405658199739983,0.7090522727806294,256,0,1,1,190.68290730738954,0.870350175086225,0.0135863526286222,135.20414880672266
512,1024,66.83581509558745,58594,2980,25792512,15019928,0.7711578634277639,0.1520218951453497,0.8073642163895124,512,0,1,1,167.4636379245888,0.6701346810117622,0.0795874582864254,135.20414880672266
512,128,165.44989423732483,126050,6989,27996160,24082720,0.49386086299541043,0.2040457817308045,0.44492782923080565,512,0,1,1,303.87883140612837,0.8678983328602721,0.0086672048491844,135.20414880672266
512,1536,35.01832662028384,66666,6774,42160128,28426704,0.9131261844755011,0.1881960886795423,1.0,512,0,1,1,91.47497856837188,0.6047213059381542,0.0880040561665562,135.20414880672266
512,2048,29.27506075896091,82154,248,42422272,28220296,0.9729655076886299,0.1191695699728982,1.0,512,0,1,1,79.8711426786765,0.5438998790529459,0.087806044616512,135.20414880672266
512,256,158.8006198942571,13860,6917,27996160,24129352,0.49698159534039815,0.2725899742710343,0.41040711081050046,512,0,1,1,329.43909899541484,0.872502731949891,0.0126602012530234,135.20414880672266
512,512,105.25275106492585,142132,1039,27996160,24115608,0.6036866592307086,0.1918296784736279,0.5731931709799978,512,0,1,1,235.8788548990594,0.8711710682757653,0.0137942908927519,135.20414880672266
