cpu,memory,duration_std,userDiff,sysDiff,heapTotal,heapUsed,avg_cpu_util,cpu_util_std,slo_preservation,total_cpu_shares,cpu_shares_others,num_containers,arrival_rate,latency,memory_util,memory_util_std,slo_duration
1024,1024,84.13543768330243,228313,31323,37072896,30214424,1.0278304294837113,0.2764339166733577,0.3293291641413381,1024,0,1,1,575.0650179618742,0.781159369616401,0.1019246951818968,189.38568169230763
1024,128,312.1479269386879,310250,67653,33267712,29820640,0.9699206266555563,0.3999979338367209,0.19598779723947854,1024,0,1,1,966.3136397257236,0.8855944980231385,0.0532780831151771,189.38568169230763
1024,1536,65.29783385103505,250899,50733,50049024,30005624,1.0920644958619716,0.3079651925652233,0.46405379563874866,1024,0,1,1,408.11148076405016,0.7210216048104727,0.1139234435244364,189.38568169230763
1024,2048,21.201646523594064,176791,47111,37982208,15722064,1.1571741550566066,0.191700651937367,0.6371545459768336,1024,0,1,1,297.2366482953627,0.7189451157319459,0.1183975565970001,189.38568169230763
1024,256,71.6829523437809,245578,39881,32743424,29857880,0.9663292307473014,0.127434291544317,0.2794931854643214,1024,0,1,1,677.6039329104988,0.8827850281462755,0.0545886168471748,189.38568169230763
1024,512,65.5168611443747,239793,35501,33005568,29812064,0.919563271630957,0.1268252376481378,0.2590671845484719,1024,0,1,1,731.0292193987744,0.8862245520436243,0.0638586391651305,189.38568169230763
128,1024,106.9144351248706,291828,45576,38383616,31752200,0.9282820103141727,0.1137025105660888,0.2846437506187585,128,0,1,1,665.3428409393183,0.7926615788984926,0.0843963044739144,189.38568169230763
128,128,99.92214559119292,189487,26176,33529856,30141320,0.8970360439899837,0.1737651954023702,0.2324996872046118,128,0,1,1,814.5631676727306,0.8879222734473909,0.0622810855101608,189.38568169230763
128,1536,70.44945002386844,298514,37974,68792320,51893656,0.9970201809600736,0.1546542063930206,0.37898322975639076,128,0,1,1,499.72048054486254,0.6735091726962219,0.11901745345074,189.38568169230763
128,2048,50.140035202148376,78209,15566,59232256,45154024,1.0804624527429005,0.201092879512584,0.5007884006427497,128,0,1,1,378.17505646943044,0.7173940732604687,0.1073391120784643,189.38568169230763
128,256,57.47738047951438,241195,33023,32743424,29994072,0.9101483574467908,0.0984813956851042,0.25957209310070944,128,0,1,1,729.607252574834,0.8883909151154252,0.0535374699622084,189.38568169230763
128,512,74.74665429636943,263332,33398,33005568,29841472,0.8818048747763029,0.1178625903735452,0.23556094383373657,128,0,1,1,803.9774277096617,0.8760547330418786,0.0638926862357737,189.38568169230763
1536,1024,73.16029467634064,242685,26283,38121472,30551240,1.0047703030323578,0.2339892548381941,0.3367217183316324,1536,0,1,1,562.4397577639598,0.7828540203550876,0.0971295515314027,189.38568169230763
1536,128,218.83059029235423,217498,45773,32481280,30016992,0.9875499398330765,0.3125406038809402,0.2177251186014109,1536,0,1,1,869.8384591950356,0.8709381790690081,0.0571596022142554,189.38568169230763
1536,1536,51.88426063693433,236671,51603,68530176,51892520,1.087066810444092,0.1932309822670632,0.4747545793700215,1536,0,1,1,398.9128065781148,0.7249568075551567,0.1085953900198832,189.38568169230763
1536,2048,26.89917619949391,263176,36129,50311168,30102248,1.1627460579422162,0.2337802318761012,0.5915100604094664,1536,0,1,1,320.1732216713397,0.724946093721736,0.1285250511326091,189.38568169230763
1536,256,32.18524641316885,214725,34330,33005568,29981040,1.0654081214191318,0.1468639686411529,0.3642819241617641,1536,0,1,1,519.8876725165437,0.8832047261499231,0.0505928269698566,189.38568169230763
1536,512,51.577720703856734,287906,36306,32743424,29935944,1.0018754572807005,0.176414673725876,0.3015650405276018,1536,0,1,1,628.0094050721818,0.894464665328021,0.0495124354850784,189.38568169230763
2048,1024,70.59066270375527,278638,41658,39432192,29959840,0.981725803046808,0.1831844061747753,0.3306724761454332,2048,0,1,1,572.7288944635774,0.7765559080353904,0.0898799956250172,189.38568169230763
2048,128,74.14306706242567,266651,34894,33792000,30072408,0.8776013094870333,0.0981151543371302,0.2438830056710035,2048,0,1,1,776.543167373407,0.8877369546345358,0.0358499632736917,189.38568169230763
2048,1536,58.56142585887648,247031,45052,50573312,30050304,1.1226640430608084,0.2935353951088084,0.4838282710724327,2048,0,1,1,391.43161533848274,0.7307399681849099,0.1294797331862799,189.38568169230763
2048,2048,29.29287978485586,276592,48923,49786880,30118328,1.1535397153919527,0.2174267365805116,0.5799102878129289,2048,0,1,1,326.5775511701232,0.7338975992132623,0.0933298766804285,189.38568169230763
2048,256,65.32645916750253,297048,27194,33267712,29892952,1.0073362174105573,0.1311043108349773,0.2929597942930598,2048,0,1,1,646.4562215757746,0.8934294946236168,0.0426182303660598,189.38568169230763
2048,512,59.49566020789593,228252,42325,32481280,30217960,0.9344228093005348,0.1842774179726855,0.2573056710204239,2048,0,1,1,736.033842321629,0.8947495011468417,0.0516094944618892,189.38568169230763
256,1024,119.285935293282,238445,40837,36548608,30231208,0.9054871723808751,0.1805873659046829,0.2729148274828472,256,0,1,1,693.9369452332545,0.7918448418359632,0.0862687973857241,189.38568169230763
256,128,118.47351112251717,280491,40384,33267712,30358480,1.039277451113823,0.2878485379033375,0.24616169115491462,256,0,1,1,769.354812293369,0.8775820286775684,0.0523835023345144,189.38568169230763
256,1536,49.75976237590442,321128,26801,49262592,29986088,1.0848127310543862,0.2882246810823271,0.5104439245205507,256,0,1,1,371.02152184531076,0.7218147734547247,0.0996436981159389,189.38568169230763
256,2048,26.5230902345168,176447,50986,37457920,15719112,1.1521845017908052,0.2403615718938127,0.5931439528440953,256,0,1,1,319.2912627435766,0.7072167500094686,0.1157483510443647,189.38568169230763
256,256,71.52898440644319,231962,39609,32219136,30089040,0.9782933041783446,0.1427819028043802,0.2747560246826904,256,0,1,1,689.2867296031995,0.8954971164235538,0.0671992972677474,189.38568169230763
256,512,49.38973058559121,233248,33561,33005568,30423248,1.008238587139435,0.1565306576371327,0.28805847717975536,256,0,1,1,657.4556789527372,0.8884179973998846,0.0531527986090606,189.38568169230763
512,1024,75.7833734490729,226608,25768,38645760,30205752,1.0198759428700277,0.1476012506971402,0.3589116261512179,512,0,1,1,527.6666117595059,0.767386994527739,0.1145445452973505,189.38568169230763
512,128,85.67621290492757,293261,26190,33005568,30590200,1.0193961174969282,0.1686687235454686,0.23867830474205523,512,0,1,1,793.4767338698035,0.8845567336852916,0.0598353818398304,189.38568169230763
512,1536,40.5455500956707,202940,35315,69578752,51825224,1.0927251465403003,0.1970027268710861,0.4522000959564446,512,0,1,1,418.80946816638675,0.7257456764849363,0.1119823459018475,189.38568169230763
512,2048,25.924192111126484,260449,42844,50311168,30103168,1.145977836451445,0.1797149104149363,0.5981209071475627,512,0,1,1,316.6344453590287,0.6936656034974248,0.1281752400134029,189.38568169230763
512,256,55.64801067051551,224660,40072,33529856,29777768,1.0004818130678328,0.1405758733864358,0.2943583295283618,512,0,1,1,643.3848228305702,0.8602653586365406,0.0545785261371931,189.38568169230763
512,512,47.78528509513977,240752,51906,33005568,30223976,1.0033818147080282,0.1469945846727241,0.30065530216344716,512,0,1,1,629.909668412735,0.8976599616430947,0.0364027138003298,189.38568169230763
