cpu,memory,duration_std,userDiff,sysDiff,heapTotal,heapUsed,avg_cpu_util,cpu_util_std,slo_preservation,total_cpu_shares,cpu_shares_others,num_containers,arrival_rate,latency,memory_util,memory_util_std,slo_duration
1024,1024,92.34293785878783,347123,44374,39170048,29943176,0.8737606321574773,0.1082245645597592,1.0,1024,0,1,1,401.9989998667478,0.799242784892839,0.102589029360468,454.9165310283018
1024,128,636.282475217742,320940,57659,33267712,29623872,0.6793534049137351,0.3683030298878763,0.3414357141402235,1024,0,1,1,1332.3636403234404,0.9073018306340304,0.0118863473644744,454.9165310283018
1024,1536,79.91072371750214,253979,29563,71929856,55073800,0.9550241648543986,0.1805461240227383,1.0,1024,0,1,1,308.0268927827895,0.7142933959377875,0.0970380063122147,454.9165310283018
1024,2048,50.35452015098615,298906,40395,50311168,29970032,1.1147766842217555,0.1610693814521085,1.0,1024,0,1,1,250.314933674154,0.7133159207556974,0.0733181553867452,454.9165310283018
1024,256,268.8514713946691,366468,41731,33267712,30378288,0.6336189961203957,0.1680931709402532,0.5027155268572355,1024,0,1,1,904.918401610245,0.9045307355654992,0.0323294949601429,454.9165310283018
1024,512,151.160695314332,260227,65394,32743424,29685544,0.5841930955999246,0.1177377517212208,0.5546249231809591,1024,0,1,1,820.2237440380494,0.9012085805386986,0.0382688026842156,454.9165310283018
128,1024,120.70144365094744,271547,42296,38383616,30407728,0.8599769082139634,0.1174111635026525,0.9859779390813841,128,0,1,1,461.38611524324614,0.7710706700997089,0.1120345322519962,454.9165310283018
128,128,1586.3310240883918,377793,63734,32481280,30288104,0.22394853647269272,0.1740303739049613,0.1092710923493843,128,0,1,1,4163.191940771928,0.921876023721952,0.0059073813830971,454.9165310283018
128,1536,81.09871589937842,325838,44049,49000448,31030440,1.0053015512148216,0.1427464716913763,1.0,128,0,1,1,333.28836646152365,0.7326068843063179,0.057202304452453,454.9165310283018
128,2048,61.45288927105326,298933,39275,49524736,30267008,1.1832302033429347,0.138702331422983,1.0,128,0,1,1,230.83517090149064,0.7390681772258623,0.0853289664809416,454.9165310283018
128,256,574.1238542237261,270404,35797,32481280,29662312,0.45718385236558934,0.2410375482596863,0.30052073548950153,128,0,1,1,1513.7608733963516,0.9065088615145296,0.0268249383598575,454.9165310283018
128,512,190.1523639088944,301713,28844,32743424,29597128,0.52723733792075,0.0681380226061487,0.4846241207545794,128,0,1,1,938.699729431499,0.89769702117316,0.0469517669550997,454.9165310283018
1536,1024,121.86818002437138,402304,46744,39432192,30195664,0.851794272222338,0.1123770636439619,1.0,1536,0,1,1,433.9084609993528,0.7892691231082697,0.0973489969228918,454.9165310283018
1536,128,682.6532337660606,288765,56380,32743424,29744560,0.6426167697398585,0.3940208232558982,0.3070118229299566,1536,0,1,1,1481.755740501528,0.9138645794534614,0.0050281247826192,454.9165310283018
1536,1536,83.00377809511541,324164,33923,69570560,55082680,0.9259271634993074,0.1700058936771042,1.0,1536,0,1,1,340.16327922764197,0.742959360113733,0.1127779978200609,454.9165310283018
1536,2048,58.42002191703249,329595,54424,50049024,31180976,1.2104655500635388,0.1724355417249554,1.0,1536,0,1,1,213.78593382965252,0.7333423021704704,0.0903226629394312,454.9165310283018
1536,256,393.7318978364627,332925,38820,33267712,29586800,0.6685397755257466,0.2942873863591503,0.4716275151502851,1536,0,1,1,964.5674105407986,0.90316449974034,0.0260899404853176,454.9165310283018
1536,512,180.4753376030105,281557,58841,33267712,29600040,0.6681715895982085,0.2236202528124718,0.6034311952429231,1536,0,1,1,753.8830186682115,0.8947953531612303,0.0641506827978653,454.9165310283018
2048,1024,125.50554822326866,236504,45047,37072896,30400160,0.89769652747349,0.1491546512267211,1.0,2048,0,1,1,451.25972803055305,0.7979587509784289,0.0840783329249622,454.9165310283018
2048,128,969.4073397637396,398526,62361,32481280,30262088,0.530367508017346,0.3334053270400932,0.24852102970779114,2048,0,1,1,1830.495115697809,0.9148280324877188,0.0099815467486844,454.9165310283018
2048,1536,65.63516509815643,225323,49668,42184704,30700456,0.9802140295594516,0.1602947680376847,1.0,2048,0,1,1,318.2485616086324,0.7288201745810026,0.0661912775318632,454.9165310283018
2048,2048,44.94823256014703,264420,40940,50049024,29971816,1.0893473303306047,0.1467709737593502,1.0,2048,0,1,1,261.566866748458,0.7318488072679501,0.0913055982703006,454.9165310283018
2048,256,291.8191730770065,325488,43844,33005568,30214920,0.7921985991656934,0.2222014378958319,0.5958672990641417,2048,0,1,1,763.4527549049686,0.9144008590959808,0.0107162753473217,454.9165310283018
2048,512,139.57384384845014,309989,44217,32743424,30266528,0.8661245018458742,0.2478647661660257,0.7820073457300096,2048,0,1,1,581.7292299263939,0.8883185955869797,0.0524100094045958,454.9165310283018
256,1024,133.1313434829466,356239,49673,43626496,30852752,0.8500431241343297,0.1357355782152187,1.0,256,0,1,1,450.01987905475147,0.7905891094938287,0.0770130850284042,454.9165310283018
256,128,791.7851247326565,379457,43225,33005568,29604144,0.20692074671713692,0.0587787531306279,0.145818392500031,256,0,1,1,3119.7472639002317,0.9084593392647246,0.009545310787453,454.9165310283018
256,1536,76.53277156182732,206358,17238,72192000,55095264,0.9845839292178264,0.1517054390168022,1.0,256,0,1,1,307.3661399677385,0.722829651647785,0.0874742911924943,454.9165310283018
256,2048,66.32337045701158,364040,42808,50573312,30445968,1.1286300869154438,0.1964959825026597,1.0,256,0,1,1,267.4328389329977,0.7410103459947692,0.099010556594121,454.9165310283018
256,256,341.814477922952,413723,37084,32743424,29708480,0.3251560306935131,0.0500874823884903,0.2602276774789867,256,0,1,1,1748.1481425627226,0.9196786397655196,0.0161568258766354,454.9165310283018
256,512,190.01815062254624,391077,22863,32481280,29606520,0.5183234948497596,0.0530096576831225,0.48439781635071216,256,0,1,1,939.1382778219103,0.8841273844419705,0.0635173887509902,454.9165310283018
512,1024,127.12043207337916,343772,40447,38121472,30416888,0.824998665659627,0.142334232298405,1.0,512,0,1,1,441.25230557206163,0.7983694362061737,0.0768444086450104,454.9165310283018
512,128,1294.1585306582049,350752,65957,32219136,29931240,0.3258717999098779,0.1282879930497007,0.1841324431633087,512,0,1,1,2470.5941180872305,0.9165320468292576,0.0096298299900762,454.9165310283018
512,1536,50.917130445932514,366191,28263,50835456,31215696,1.1139711388851603,0.1556452040787503,1.0,512,0,1,1,252.11708500522622,0.7061826387183845,0.1129725234051486,454.9165310283018
512,2048,24.663350879665625,212446,61002,50311168,30080864,1.305868216048565,0.1722867469473765,1.0,512,0,1,1,179.56306966891805,0.7140175941247345,0.0939522897270869,454.9165310283018
512,256,240.45292852709883,300742,57940,32743424,30206784,0.5360060268753031,0.1707776153689912,0.41374564933870284,512,0,1,1,1099.5077090367067,0.9044864234738522,0.017697798687016,454.9165310283018
512,512,153.61778842190822,367939,21931,32219136,29714288,0.6027429691743502,0.1212004401665029,0.5741506821624761,512,0,1,1,792.3295141179806,0.9026350469897266,0.0381639467074071,454.9165310283018
