cpu,memory,duration_std,userDiff,sysDiff,heapTotal,heapUsed,avg_cpu_util,cpu_util_std,slo_preservation,total_cpu_shares,cpu_shares_others,num_containers,arrival_rate,latency,memory_util,memory_util_std,slo_duration
1024,1024,21.405257987238933,20488,1021,33902592,28380976,0.697690767331319,0.1601175594619664,0.919222931773424,1024,0,1,1,52.09411336275136,0.6699542358533849,0.0783573346680334,47.88610361344541
1024,128,32.334957559532654,21351,3393,28258304,24899824,0.5671632980829606,0.1612727859672771,0.47167324327006405,1024,0,1,1,101.52389243336293,0.8782400997246143,0.0095683295346752,47.88610361344541
1024,1536,21.900615667113826,66450,6570,34836480,14842384,0.9337259292860465,0.265968272428865,1.0,1024,0,1,1,43.75965521580923,0.5381917997631701,0.0711065679824674,47.88610361344541
1024,2048,11.219715664364752,63711,6986,34312192,14981416,0.9646701965538631,0.3192752236087436,1.0,1024,0,1,1,33.8367410880996,0.5326590053722736,0.0607547013052058,47.88610361344541
1024,256,48.96454771403332,18029,4427,27996160,24478528,0.5602505245388724,0.3072227573012134,0.4359922847957968,1024,0,1,1,109.8324564065934,0.877728588775193,0.0114037095219122,47.88610361344541
1024,512,34.212066750406514,27046,38,28258304,24919808,0.6292151830837784,0.2573885689788457,0.5602853490976053,1024,0,1,1,85.46734925439455,0.8792827805838179,0.0120894473750399,47.88610361344541
128,1024,42.85099950262327,16974,4181,33902592,28290400,0.8055198377295951,0.2253017190387031,0.6457893067214822,128,0,1,1,74.15127986022516,0.6802012584195938,0.0782565709914213,47.88610361344541
128,128,70.1870162677652,21083,5917,27734016,24473128,0.4978410618547128,0.2188625672457652,0.31118627614246586,128,0,1,1,153.8824404695868,0.8762830658085377,0.010607576980861,47.88610361344541
128,1536,9.88537279341152,8428,7994,41897984,29578880,0.9430999496927364,0.1744008246724402,1.0,128,0,1,1,38.466557067700606,0.5429219018533499,0.0739444155570003,47.88610361344541
128,2048,17.060034938805114,37091,4980,34312192,15154472,0.9702565489226417,0.214258952293371,1.0,128,0,1,1,37.44907351404267,0.5373099419888318,0.0580177540405167,47.88610361344541
128,256,82.28257195016538,18275,5532,27996160,24900624,0.45015474913364906,0.1861469696272321,0.2757048853343178,128,0,1,1,173.686090311309,0.8769575476709804,0.0122959804843145,47.88610361344541
128,512,47.24283981144384,22296,4458,27996160,24507168,0.6805119197373165,0.2976825300142299,0.49084944682083903,128,0,1,1,97.55761959924124,0.8812607355455737,0.0136061351368557,47.88610361344541
1536,1024,27.604868565593133,17778,4375,25792512,15053984,0.7966689389804905,0.2243796587325365,0.9329320181425174,1536,0,1,1,51.32860989034057,0.6652625375606547,0.0612801252336006,47.88610361344541
1536,128,53.71117760758411,18241,4429,27996160,24844208,0.5450797133258439,0.2032756387314312,0.39625673981167964,1536,0,1,1,120.84615554098386,0.8760953756765674,0.0105222924174024,47.88610361344541
1536,1536,21.46409291020571,43456,14331,42160128,28831680,0.9245901990443585,0.2720972438439736,1.0,1536,0,1,1,46.85602554042417,0.5371252413770693,0.0774259150462744,47.88610361344541
1536,2048,15.651139991360983,47631,6241,42946560,28079592,1.0110596977318358,0.3848982785614896,1.0,1536,0,1,1,35.63713585053527,0.5441326478287845,0.0560403582952618,47.88610361344541
1536,256,43.7849285616068,21885,2868,27996160,24883896,0.5964532823511135,0.310064745643326,0.5060334042394881,1536,0,1,1,94.6303212638954,0.8793391637518171,0.012812048184301,47.88610361344541
1536,512,34.3372248383361,19022,6804,27996160,24264072,0.6647487912247919,0.3032175410440429,0.72735648639959,1536,0,1,1,65.83581023726249,0.8782174855729469,0.0094064224716841,47.88610361344541
2048,1024,35.585055927062065,20841,4170,25792512,15028128,0.8167597804804072,0.2301033689937625,0.8932825581225535,2048,0,1,1,53.60689423298433,0.6520071924897983,0.0702830708262804,47.88610361344541
2048,128,152.03656024190727,25684,4648,27996160,24548840,0.5319289802821524,0.2572511364947205,0.28336057851791735,2048,0,1,1,168.99352713037143,0.8744073236931087,0.0127006469949441,47.88610361344541
2048,1536,22.465039991190707,17543,4316,42422272,28407208,0.8620256405708244,0.2766241144940743,1.0,2048,0,1,1,46.033817691882994,0.5605037532768066,0.0924246843232726,47.88610361344541
2048,2048,10.278035320255368,32520,8171,34312192,15196200,0.9636878055503572,0.2571741035015155,1.0,2048,0,1,1,26.974069155719416,0.5400552640627658,0.056592155083972,47.88610361344541
2048,256,28.716858329213824,25607,438,28258304,24774304,0.7619435205562812,0.2824440438181348,0.6760125202058374,2048,0,1,1,70.83611942403772,0.8775872653660777,0.0106421429539677,47.88610361344541
2048,512,50.17773577698898,27173,0,27996160,24918272,0.7219914982622521,0.3478790154445043,0.6464625232362279,2048,0,1,1,74.07405981359116,0.8837828952467129,0.0124885108604833,47.88610361344541
256,1024,18.90274180689636,24661,24,33902592,28354032,0.7784767430042012,0.205382751019726,0.9307623178171992,256,0,1,1,51.44826202864198,0.6580595291694692,0.0601715803547301,47.88610361344541
256,128,68.26724272794121,21624,1149,27996160,24859368,0.48463643129043477,0.2154353946539754,0.305189661761021,256,0,1,1,156.90604765944744,0.8775781866211818,0.0101991082618278,47.88610361344541
256,1536,20.143790988299983,11446,11893,42684416,28120328,0.8950897282979585,0.3369875090389968,0.9138993536290313,256,0,1,1,52.39756809466272,0.545291731536252,0.0717777705477099,47.88610361344541
256,2048,18.897623663290112,9351,7422,42422272,28067000,0.9232917101400978,0.1792967300741192,1.0,256,0,1,1,45.04887884378717,0.5371949903234954,0.0610301355937824,47.88610361344541
256,256,57.20963220275299,12381,13362,27996160,24833832,0.45777609613332587,0.2146865429262035,0.30123214299842926,256,0,1,1,158.9674433040006,0.8806684659581339,0.009142824156637,47.88610361344541
256,512,53.93297598078399,21558,3515,27996160,24288520,0.6069501108441078,0.2934931519170524,0.38073853836154437,256,0,1,1,125.77162222536397,0.8780911724535363,0.0140160893628896,47.88610361344541
512,1024,56.46751098180846,14620,7707,25792512,15048568,0.696977451700347,0.1996121008316245,0.5315475496526821,512,0,1,1,90.08809022774088,0.658343244440483,0.0775874084882974,47.88610361344541
512,128,89.82890042417438,25402,139,27996160,24893416,0.44517292164138417,0.2335862482021369,0.2701821529131254,512,0,1,1,177.23636849115917,0.8794176374992502,0.0077468849085821,47.88610361344541
512,1536,15.097992733806509,16788,169,42160128,28916904,0.8461541494468415,0.2342287938421619,1.0,512,0,1,1,40.3268387867347,0.5693885622363595,0.0808353886607554,47.88610361344541
512,2048,12.361071299323193,25374,7604,42684416,28060640,0.9444471413609368,0.1749916545551905,1.0,512,0,1,1,38.12739539343295,0.5418320356232392,0.0624281243120656,47.88610361344541
512,256,79.78747886015506,19114,3816,27996160,24914128,0.5024868742451454,0.2861906537829471,0.2820072059846515,512,0,1,1,169.80453902320372,0.8802934882061069,0.013459840046555,47.88610361344541
512,512,43.81657215329962,18533,4566,28258304,24909312,0.6233385861799717,0.2834178623438134,0.4622448107874607,512,0,1,1,103.59468077503924,0.8808390926814404,0.0110406069854064,47.88610361344541
