cpu,memory,duration_std,userDiff,sysDiff,heapTotal,heapUsed,avg_cpu_util,cpu_util_std,slo_preservation,total_cpu_shares,cpu_shares_others,num_containers,arrival_rate,latency,memory_util,memory_util_std,slo_duration
1024,1024,162.1246049965999,229388,47661,38121472,30269776,0.6181153115525837,0.1771081766141788,0.9560065711775636,1024,0,1,1,697.297509883124,0.7531962831244506,0.1318664573837136,666.6210015140186
1024,128,324.0195296646034,257381,32276,31956992,29728848,0.6767485987367496,0.2474389552358459,0.7462950543688455,1024,0,1,1,893.240545561154,0.8591599787719764,0.0808895743747164,666.6210015140186
1024,1536,108.08812730537092,219325,58605,69337088,51898696,0.621369855317251,0.2419928753954932,1.0,1024,0,1,1,488.35429502009833,0.7324147988067455,0.142490539135996,666.6210015140186
1024,2048,149.34647763451107,284721,31047,50049024,30041736,0.5640161638264034,0.1523682211336248,1.0,1024,0,1,1,508.4165106937462,0.7102702518263437,0.1144952996694908,666.6210015140186
1024,256,146.1332366760741,190244,46445,32481280,29944592,0.6932718094183159,0.1752167766934291,1.0,1024,0,1,1,664.2726670751651,0.8895316789845225,0.0531119224986092,666.6210015140186
1024,512,110.5866134696964,244812,30011,33005568,30393928,0.6537647620644408,0.1615765782149984,1.0,1024,0,1,1,666.0374943646514,0.8984868524129508,0.0256382999983427,666.6210015140186
128,1024,177.06131275678803,256426,39815,39432192,30647376,0.6812373122558598,0.2994016708730945,1.0,128,0,1,1,653.8328939795493,0.7910310500039766,0.1071188367337255,666.6210015140186
128,128,346.0082648177106,281480,32399,33005568,29718280,0.6137476906312925,0.1420842897434137,0.7014040190194625,128,0,1,1,950.40944083259,0.8529711691739503,0.0916743854046946,666.6210015140186
128,256,273.86987798351265,289630,34532,32481280,30025648,0.34715628244508495,0.0237150804320833,0.38439847358771284,128,0,1,1,1734.192634253288,0.9000660145204501,0.0502114380291079,666.6210015140186
128,512,196.2536822742048,236874,46249,32743424,30271208,0.4921554270189026,0.0611811380579053,0.5766113016250022,128,0,1,1,1156.1011718558962,0.8787481777633331,0.0749406063618672,666.6210015140186
1536,1024,191.82818458220112,215282,34140,37072896,30163824,0.6389189171398899,0.1940930282507871,1.0,1536,0,1,1,643.6447245002518,0.7924553185540771,0.0933975754018545,666.6210015140186
1536,128,459.4969579673674,290056,32045,33005568,29772224,0.40555030747740306,0.0980399822690046,0.36450082830062397,1536,0,1,1,1828.8600457286739,0.9190576615069131,0.0121620130192385,666.6210015140186
1536,1536,174.74528275219637,291894,36932,51359744,30896944,0.5766326547328628,0.2286203568934671,1.0,1536,0,1,1,587.278723780976,0.7506325722134526,0.1355571149062394,666.6210015140186
1536,2048,150.02756274705337,189906,30537,37720064,15606216,0.5909396086347567,0.1833189608631723,1.0,1536,0,1,1,512.1162401711093,0.7057898010689837,0.1457990299014833,666.6210015140186
1536,256,275.68794343814204,264713,17187,33529856,29624160,0.5347568099598938,0.1355601291292963,0.5433100902900527,1536,0,1,1,1226.9623064760951,0.9001489767379866,0.0418425190124148,666.6210015140186
1536,512,157.2493717810115,268504,53588,32481280,29728320,0.5060374520237897,0.1071256309121396,0.669736738850552,1536,0,1,1,995.3478177979594,0.9026292380009971,0.0216657054703614,666.6210015140186
2048,1024,190.70716806865667,241459,33700,37859328,30324992,0.6281712032805289,0.1875299992436425,1.0,2048,0,1,1,635.4861129061662,0.798099996510472,0.1122303497544031,666.6210015140186
2048,128,385.3810556150863,268484,44052,32481280,29901376,0.6405151525824514,0.2051896481123098,0.576674077993561,2048,0,1,1,1155.975319427245,0.9107233455249027,0.0138217411219165,666.6210015140186
2048,1536,167.4555696600396,313269,47685,51097600,31236576,0.573898144758845,0.2349995802508032,1.0,2048,0,1,1,599.2453251212474,0.7074735892725159,0.1207462089285773,666.6210015140186
2048,2048,155.8147322330738,186040,22744,63307776,51947856,0.5666296531631206,0.223155116605593,1.0,2048,0,1,1,535.6221772650994,0.7376047161762864,0.1065591183665712,666.6210015140186
2048,256,197.78707792683088,277187,39179,32743424,29881064,0.5280502842435664,0.0859131773529426,0.5984737555267617,2048,0,1,1,1113.8683949929857,0.9108095592209124,0.0106540076702856,666.6210015140186
2048,512,217.8282243034674,254657,24301,32219136,29928624,0.5394155592936442,0.1183251636371578,0.6920961030509248,2048,0,1,1,963.1913813347512,0.8750321564461855,0.0712344906079028,666.6210015140186
256,1024,173.82640097492126,262341,30025,39432192,29793880,0.6581990898688711,0.2385201949574767,0.9919119053751536,256,0,1,1,672.0566593682472,0.7907994099138409,0.1030230333635201,666.6210015140186
256,128,490.4012910020705,307335,27358,33005568,29878320,0.5001332911668093,0.1748235199447322,0.4076860215733264,256,0,1,1,1635.133328686179,0.9069686123817357,0.0130827579647115,666.6210015140186
256,1536,146.1740720429051,284631,39879,49000448,29945560,0.5429836778074935,0.1578748880956863,1.0,256,0,1,1,553.5684092312005,0.7284798002799592,0.1159893704718866,666.6210015140186
256,2048,103.56804730517077,243265,45360,49786880,29948672,0.5197588625060485,0.1260907644319489,1.0,256,0,1,1,493.28738872654367,0.6971344191753863,0.1403346971140326,666.6210015140186
256,256,237.39142794037045,246993,35609,32481280,29680664,0.36549098136529196,0.0365093382608112,0.41087615474333267,256,0,1,1,1622.4377925519807,0.8933484735298913,0.069117735060986,666.6210015140186
256,512,236.9732139354473,237398,44360,32481280,29929528,0.48927677766685734,0.0858684146315571,0.5861404399746962,256,0,1,1,1137.3059356607382,0.8780427885330763,0.0628814291388986,666.6210015140186
512,1024,172.84173066617203,229520,32373,39694336,30453072,0.6936881223035203,0.2316452760298542,1.0,512,0,1,1,645.9237710430212,0.7713325940849391,0.0930301336224836,666.6210015140186
512,128,513.1350103863573,312267,53801,32743424,29752824,0.3934674570077787,0.0857688151675513,0.35234830661954103,512,0,1,1,1891.9375770800093,0.9203397006483464,0.0099057015618454,666.6210015140186
512,1536,156.40911011874442,226872,30164,49786880,30238424,0.6394037899813018,0.286743691432734,1.0,512,0,1,1,554.5623325598054,0.7452721113353846,0.128183329378559,666.6210015140186
512,2048,135.64667472248152,226178,32740,64094208,52613744,0.5604238135056372,0.1498827631033099,1.0,512,0,1,1,536.9458458342087,0.7315660598228723,0.1473408564303421,666.6210015140186
512,256,297.0646850376802,315119,47104,32743424,29919168,0.4674145583277712,0.1183139667984469,0.48623030598361044,512,0,1,1,1370.998461655923,0.9081883755177976,0.0292814264263609,666.6210015140186
512,512,222.40120200019336,252110,36129,32743424,29655472,0.5389651688788195,0.1019076398767969,0.6481181804308808,512,0,1,1,1028.548529638278,0.9003172708088517,0.0253915900679551,666.6210015140186
128,1536,187.2388651036701,253154,43868,50835456,31222672,0.6371699768799921,0.2600259662947808,1.0,128,0,1,1,581.7309245836799,0.7135954096594366,0.1360626119016611,666.6210015140186
128,2048,158.4812459379143,268532,49773,50835456,30941192,0.5568743597297738,0.1670451020549651,1.0,128,0,1,1,594.8661415504,0.6327623954888095,0.1326676393614783,666.6210015140186
