cpu,memory,duration_std,userDiff,sysDiff,heapTotal,heapUsed,avg_cpu_util,cpu_util_std,slo_preservation,total_cpu_shares,cpu_shares_others,num_containers,arrival_rate,latency,memory_util,memory_util_std,slo_duration
1024,1024,83.29884010513709,217616,40275,37859328,30313912,1.0366196964781575,0.18352595712942893,0.9728024597163651,1024,0,1,1,172.7152309,0.8154332441523332,0.08928074004240594,168.01780144999995
1024,128,291.7014717978821,295830,58248,32743424,29600824,0.8396271193327043,0.19262941333356137,0.4914122921724433,1024,0,1,1,341.9080151764706,0.8901395628881956,0.038338424869711535,168.01780144999995
1024,1536,63.297099855144886,246045,32487,67489792,55945840,1.2841177515044782,0.22903967190505115,1.0,1024,0,1,1,104.52556204999996,0.729497641262359,0.10995211987698708,168.01780144999995
1024,2048,38.38000954983282,249623,67504,50573312,30517184,1.8787663518583273,0.2126563142068574,1.0,1024,0,1,1,56.558655999999985,0.7202848221677532,0.11800699174021889,168.01780144999995
1024,256,59.685134824317075,266246,35434,33005568,30365440,1.3980405845474069,0.28114184713054624,1.0,1024,0,1,1,147.2084914444444,0.8739053837074233,0.06777968254760562,168.01780144999995
1024,512,63.402399162912396,298073,33770,32743424,29750984,1.0498444391937483,0.13414467762437432,0.7865446962559214,1024,0,1,1,213.61507139999998,0.8708586250974987,0.06185976305293613,168.01780144999995
128,1024,79.79457627442571,326856,24602,39432192,29967344,1.0567901272001463,0.17060541306993215,0.993635368163027,128,0,1,1,169.09402264999997,0.7777468710444475,0.1033727276788382,168.01780144999995
128,128,87.37561244770305,232946,53064,33529856,29536064,1.0512211595349734,0.3448578733877451,0.7566837862211664,128,0,1,1,222.0449341052632,0.8888928482199947,0.047270480477804834,168.01780144999995
128,1536,56.34508673579698,268660,28796,72470528,55291112,1.3507108153240406,0.1783232903803155,1.0,128,0,1,1,107.12288019999997,0.7385330634595677,0.1020219636789139,168.01780144999995
128,2048,34.854664816677975,224546,40176,94363648,77723952,1.622518871421148,0.28011146891380617,1.0,128,0,1,1,67.39011259999998,0.7321276045093889,0.13693740034748125,168.01780144999995
128,256,61.208033851138225,281252,39648,33005568,29626056,1.0611699923231153,0.17006199750786388,0.8829794132734443,128,0,1,1,190.28507224999998,0.8859187109554268,0.06334157858548761,168.01780144999995
128,512,53.343080201356486,228778,30831,32481280,29594096,1.1168587299809576,0.11138418154697151,0.937900191655479,128,0,1,1,179.14251744999996,0.877157834273417,0.0616651306232654,168.01780144999995
1536,1024,85.9713056574944,259958,25979,38383616,31455160,0.9485568543288382,0.1725662766537043,0.9176967976004755,1536,0,1,1,183.08639834999997,0.7899622997651897,0.0916852708242433,168.01780144999995
1536,128,73.3182093215721,243130,48561,32481280,29608728,1.1010931921474136,0.23279815406256488,0.8080121063265124,1536,0,1,1,207.939708,0.8840596146255353,0.0798973373992881,168.01780144999995
1536,1536,58.66742593384049,188636,37274,72994816,55219424,1.3112477440184,0.1791230592207582,1.0,1536,0,1,1,109.28729950000002,0.7422377006229461,0.09269054540710098,168.01780144999995
1536,2048,35.749645442372206,256686,55014,50311168,30370520,1.9463533511962314,0.2513891228372498,1.0,1536,0,1,1,55.423509149999994,0.7514647995024861,0.09732673158294844,168.01780144999995
1536,256,54.73820959083462,252817,25967,32743424,29876832,0.8887343801201514,0.09084271457679455,0.6914888165446937,1536,0,1,1,242.97978135,0.8649933381816366,0.0590425348842703,168.01780144999995
1536,512,47.23852272669704,239968,41179,32743424,30003960,1.1331942178709342,0.11691107773743524,0.9385926921582016,1536,0,1,1,179.0103448,0.8988247786583743,0.04036987194897283,168.01780144999995
2048,1024,68.73174402640446,258627,45184,39694336,29649360,0.9614777924726401,0.18595536003950555,0.963240813472235,2048,0,1,1,174.42969515,0.7837312681015056,0.1099198724143863,168.01780144999995
2048,128,236.71908783540223,272814,41791,32743424,30130976,0.8471464039126225,0.21715183080724765,0.5375565027415931,2048,0,1,1,312.55840194117644,0.909309004762281,0.024356754832340115,168.01780144999995
2048,1536,59.48839576540392,283499,40692,73519104,55265504,1.1536131641235439,0.2918679049606327,1.0,2048,0,1,1,127.01368364999996,0.7587423548829725,0.09674668215844655,168.01780144999995
2048,2048,37.43803313851188,300945,16689,50573312,31115200,1.8646725739636831,0.23286089490162784,1.0,2048,0,1,1,56.23635370000001,0.7473978301101432,0.09701758487542689,168.01780144999995
2048,256,67.48770535324977,332207,57415,33267712,29565832,1.053524567865133,0.20507955288824947,0.8139573264716504,2048,0,1,1,206.42089700000002,0.8976292676566098,0.048205688317826324,168.01780144999995
2048,512,49.097874355475085,258070,37107,33529856,30061376,1.1194669965194521,0.11713555104982021,0.9013284912509216,2048,0,1,1,186.41128410000005,0.85802610393323,0.07912955094838638,168.01780144999995
256,1024,99.12192630951677,237917,47029,39170048,30005144,0.9629220936964458,0.17684152470368178,0.9207005773271196,256,0,1,1,182.48908014999995,0.7971332391389269,0.1023379451278787,168.01780144999995
256,128,105.83430434244812,261028,74633,32743424,29963544,0.9056469497544437,0.1769221209421878,0.650264954845833,256,0,1,1,258.38360225,0.8690043907693698,0.0709981388917035,168.01780144999995
256,1536,52.188446608295756,244726,27607,50049024,29819264,1.2281391990902735,0.20609832090417077,1.0,256,0,1,1,113.36366775000002,0.7064788059160638,0.11521145779014164,168.01780144999995
256,2048,32.79265772495051,207556,58126,50311168,29883376,1.8681291727973899,0.22555516336669454,1.0,256,0,1,1,56.460379550000006,0.7368621644133364,0.09228801911716307,168.01780144999995
256,256,42.396348614520406,256983,32229,32481280,29817568,1.0557674701395752,0.1450725199733761,0.8243791422452258,256,0,1,1,203.81132035000002,0.8593674964253732,0.07281530383708537,168.01780144999995
256,512,58.23329428038937,278941,40340,32743424,29905128,1.060550462747179,0.1496654710700753,0.8678661093780725,256,0,1,1,193.59875864999998,0.8931130264741768,0.055036805301880744,168.01780144999995
512,1024,67.06763407348552,377316,49565,39694336,30005336,0.9514664037834377,0.20017365262983053,0.949478167611007,512,0,1,1,176.95804620000004,0.8092794088285891,0.088969473468859,168.01780144999995
512,128,248.9372014819215,255781,57927,31956992,29732880,0.8983320003506139,0.3102345170141826,0.530991146001821,512,0,1,1,316.42298127777775,0.8873532951551505,0.049667509436587216,168.01780144999995
512,1536,55.18007092208855,216922,21956,67227648,55885616,1.2216677354728411,0.2437090361000827,1.0,512,0,1,1,115.43854074999999,0.7322863771432402,0.10216529563891344,168.01780144999995
512,2048,31.061641460223694,268042,35179,50311168,30367128,1.7329698225679402,0.30748104370888635,1.0,512,0,1,1,58.820083999999994,0.759890116393661,0.09935783358597679,168.01780144999995
512,256,69.07616770917353,202623,55401,33267712,29665024,0.9437692146339753,0.17186737084510054,0.7257879356628893,512,0,1,1,231.4970988,0.8772753959256263,0.057631717327804005,168.01780144999995
512,512,62.15779139843998,285706,26144,33267712,29637928,1.0493819655242673,0.12397730817451062,0.8200111368603632,512,0,1,1,204.89697504999998,0.8651659718324263,0.0707064654510463,168.01780144999995
