cpu,memory,duration_std,userDiff,sysDiff,heapTotal,heapUsed,avg_cpu_util,cpu_util_std,slo_preservation,total_cpu_shares,cpu_shares_others,num_containers,arrival_rate,latency,memory_util,memory_util_std,slo_duration
1024,1024,47.29879843991045,253076,51944,39170048,31867360,1.3117256590048634,0.24977344417294217,1,1024,0,1,1,124.55758030000004,0.7792524537075556,0.11294354957822952,139.27106992499998
1024,128,87.40826961057589,324353,50937,32481280,30012648,1.2629801971312244,0.26844069013881894,0.72141987636996,1024,0,1,1,193.05133457894735,0.8856834925927309,0.06174880229357375,139.27106992499998
1024,1536,57.287869575503386,227508,42232,38244352,15633424,1.4124913480279275,0.27969912453883994,1,1024,0,1,1,99.96279765,0.7280436627031659,0.12723741011447914,139.27106992499998
1024,2048,32.43494063940972,259222,38715,50049024,30503728,1.8000279208583074,0.3294206807016528,1,1024,0,1,1,67.5685421,0.7426017978043652,0.10905113924887222,139.27106992499998
1024,256,41.08261394534389,260477,22059,33005568,30155992,1.37927446525198,0.25965727703742536,0.9779925930006876,1024,0,1,1,142.4050355,0.8702718363742813,0.08066210213945435,139.27106992499998
1024,512,57.633129867896415,328645,23017,33529856,30422384,1.127414836092299,0.12908264448073992,0.722160282040505,1024,0,1,1,192.85340580000002,0.8849009299469431,0.054354150794906936,139.27106992499998
128,1024,73.4861458757788,247384,29468,39694336,30134640,0.9466699405890763,0.2065720551783852,0.7065699786780535,128,0,1,1,197.10867165000005,0.788120482387318,0.07463490276218826,139.27106992499998
128,128,86.95467734061255,256364,42460,33005568,29826920,1.144876876575595,0.23866695766854412,0.732809746317903,128,0,1,1,190.05078824999998,0.8693819167114147,0.07362828926193193,139.27106992499998
128,1536,55.41893565473834,253010,51077,50573312,30366040,1.245901953701486,0.20411920478205717,1,128,0,1,1,117.1318987,0.7402675707758248,0.11789769976567176,139.27106992499998
128,2048,29.317138854254154,255294,47513,50049024,30119352,1.9997211724122899,0.2547719683049327,1,128,0,1,1,56.18608725,0.7121529102852096,0.12287427112014895,139.27106992499998
128,256,40.329711168273455,220538,42339,32743424,29889040,1.2903044679290747,0.20367456632756067,0.9460865866974988,128,0,1,1,147.20753035,0.8857165514912726,0.07508130410632714,139.27106992499998
128,512,46.14496209531722,283116,35974,33005568,29958528,1.463787564004192,0.16296728962176651,1,128,0,1,1,127.94144334999999,0.8877436148924127,0.06686075762047022,139.27106992499998
1536,1024,51.96677236126554,249324,41964,38907904,31891200,1.3957721558512812,0.22472593226693294,1,1536,0,1,1,115.8979328,0.7516611917575028,0.1259336648907717,139.27106992499998
1536,128,277.4356189785167,268331,51096,32481280,29964000,1.1855873741764165,0.42426262274475085,0.5833547187406662,1536,0,1,1,238.74165315000005,0.8823408018543276,0.0822384684348373,139.27106992499998
1536,1536,55.84477317754446,245711,53260,50835456,30144432,1.4572798877975746,0.2133141489188314,1,1536,0,1,1,102.45534890000002,0.7097320914477211,0.12276498080664094,139.27106992499998
1536,2048,24.17843423927427,253462,43519,49524736,29991192,1.5834635041916325,0.19327298532396694,1,1536,0,1,1,77.9126007,0.7402692035545797,0.09258184899322175,139.27106992499998
1536,256,41.75940873281378,267893,44604,33005568,29952600,1.2866291765768811,0.21942751507724736,0.9234104225002456,1536,0,1,1,150.8225016,0.8741693276197575,0.08121038551193165,139.27106992499998
1536,512,65.22961148010987,309264,42966,33267712,30307760,1.1577959472722643,0.15878774364352374,0.7616924940973502,1536,0,1,1,182.84421995,0.8911608373798181,0.06886171384249241,139.27106992499998
2048,1024,70.09665347601299,233420,52298,38383616,31821960,0.9146846045032136,0.18610216543641922,0.7070321241882764,2048,0,1,1,196.97983324999998,0.7665353406065407,0.1262723323813755,139.27106992499998
2048,128,130.6491937057392,260520,54246,33267712,29823816,1.0105326133067867,0.22449314766065265,0.5840920640533008,2048,0,1,1,238.44027079999995,0.902638130620072,0.042035687011459134,139.27106992499998
2048,1536,52.51678534451028,309701,35461,50311168,30557392,1.4592031909687715,0.23677654367919013,1,2048,0,1,1,99.27092229999997,0.7186998654730908,0.13550336921675574,139.27106992499998
2048,2048,28.565978555041184,243122,54855,49524736,30115080,1.8482750424451027,0.3475707920154175,1,2048,0,1,1,65.04309144999999,0.7075153260455298,0.11801771941103294,139.27106992499998
2048,256,45.179323022059926,242406,62159,33005568,29848528,1.3324388363410047,0.21645980529191966,0.999528079711717,2048,0,1,1,139.33682579999996,0.9143879703868073,0.041601045888054765,139.27106992499998
2048,512,43.790263619207245,277441,30227,32743424,30558552,1.5075897624427341,0.16562380050186604,1,2048,0,1,1,127.64509869999999,0.8912013763847577,0.07738208640437673,139.27106992499998
256,1024,53.110690258342984,278839,47415,39694336,31259312,1.219883790774945,0.2903176892700523,1,256,0,1,1,132.56912094999998,0.7762697181741697,0.10993246634463673,139.27106992499998
256,128,57.67030294482589,292361,67310,33005568,30594040,1.2858152186390368,0.19827290515106896,0.7637428870097336,256,0,1,1,182.3533446842105,0.8931907983472898,0.04522797245479017,139.27106992499998
256,1536,59.97950181920339,278374,38397,50311168,30055624,1.382200274880784,0.2326870617548997,1,256,0,1,1,108.20242295,0.6897007342821225,0.13429871309427083,139.27106992499998
256,2048,34.478938784491895,260331,69800,50835456,31145320,1.9959239565729294,0.28660386268359217,1,256,0,1,1,60.237738650000004,0.7274370036961388,0.11714564859623527,139.27106992499998
256,256,39.986581436349866,218686,46736,32743424,29671584,1.3205896048810362,0.24742342227710093,0.9049644366848628,256,0,1,1,153.8967326,0.8727095837243601,0.06714040577349399,139.27106992499998
256,512,53.988061505187254,266168,44740,33267712,29955896,1.161842386139011,0.12015120283790821,0.7459290462445435,256,0,1,1,186.70820049999998,0.8682733893998996,0.08323238636726825,139.27106992499998
512,1024,91.39003008812105,203368,47154,39956480,30456664,1.0195747894772182,0.18693854392051862,0.7241285589977127,512,0,1,1,192.3292048,0.7396445801822757,0.11156153835676433,139.27106992499998
512,128,214.04723978441166,255180,46007,32743424,30153104,0.9925624965875345,0.29874421591028094,0.49384855457716303,512,0,1,1,282.011699,0.8668165801147714,0.07084961138748937,139.27106992499998
512,1536,61.20160562232154,313710,53142,50311168,30167416,1.4020835548815545,0.27833872171949836,1,512,0,1,1,111.31632369999997,0.6889091141951583,0.1424753412232074,139.27106992499998
512,2048,34.291648940990434,293560,44897,50573312,30772832,1.9749387258102682,0.3055191116858061,1,512,0,1,1,64.13606204999999,0.7224683307915674,0.10753938816675228,139.27106992499998
512,256,33.19273565301672,208676,27229,33267712,29906520,1.2997896608835382,0.17485761011164047,0.9530634088754714,512,0,1,1,146.12990975,0.8975660387258942,0.04858003730420048,139.27106992499998
512,512,35.30539798167894,223549,36180,32219136,29724656,1.4992162660244284,0.1416743185507195,1,512,0,1,1,130.222793,0.8784960741414276,0.05297804280951387,139.27106992499998
