cpu,memory,duration_std,userDiff,sysDiff,heapTotal,heapUsed,avg_cpu_util,cpu_util_std,slo_preservation,total_cpu_shares,cpu_shares_others,num_containers,arrival_rate,latency,memory_util,memory_util_std,slo_duration
1024,1024,70.41152375363288,240700,44872,39432192,30568160,1.0920016693797296,0.12969061530892545,0.9744987213047068,1024,0,1,1,160.7304029,0.8052484728497046,0.07938613932446052,156.63157210084034
1024,128,224.8012754056411,220758,46898,33005568,30400704,0.9992228054771107,0.32769564061545237,0.5980578253154988,1024,0,1,1,261.90038065,0.9034326329349304,0.036791786123499794,156.63157210084034
1024,1536,46.02281936665322,249596,40998,50835456,30013704,1.3816963227359846,0.17413083651150735,1.0,1024,0,1,1,96.873244,0.7204811325829246,0.10976479645643678,156.63157210084034
1024,2048,25.596507252318663,261263,22191,50573312,30051400,1.5004712269125604,0.16386648594637368,1.0,1024,0,1,1,73.64312540000002,0.71956910789744,0.11306696333607029,156.63157210084034
1024,256,41.296088574243996,293991,21399,33005568,30516704,0.9328823613094996,0.1560188645329624,0.6945051229522973,1024,0,1,1,225.52975770000003,0.896700121949403,0.02317441695949631,156.63157210084034
1024,512,58.047409233501156,227202,50926,32743424,29862712,1.0336814449331855,0.1845340017659466,0.8052495727117763,1024,0,1,1,194.51307694999997,0.8878995011840706,0.05824602729630339,156.63157210084034
128,1024,76.79674582129432,231581,34703,38121472,30200040,1.0353511363515868,0.17053118171606288,0.9138577441207877,128,0,1,1,171.39601114999996,0.7814737625381438,0.08811618947959723,156.63157210084034
128,128,233.33985376663423,288646,45009,33005568,29918808,0.8083480291109278,0.33865635567768837,0.4247510843237644,128,0,1,1,368.7608528421053,0.8856115635363003,0.04186377224252279,156.63157210084034
128,1536,50.63005500820265,281655,53229,50835456,30882176,1.4481954648032378,0.19217904935974384,1.0,128,0,1,1,94.6880504,0.6889705316916162,0.11094941642120225,156.63157210084034
128,2048,28.169885849259376,231104,37604,68173824,51517608,1.467429158614745,0.17890706550487787,1.0,128,0,1,1,74.71434879999998,0.7468195098239798,0.0967774667748019,156.63157210084034
128,256,36.576338721915455,221311,36268,33005568,29836808,1.43401115199812,0.20247837446407496,1.0,128,0,1,1,134.00519989999998,0.8681392347480734,0.06874667091219383,156.63157210084034
128,512,49.864497362293235,232986,35523,32743424,30117224,1.0334137720408916,0.16650100657677158,0.7660555939136046,128,0,1,1,204.46501969999997,0.9041760400685416,0.0424382083569709,156.63157210084034
1536,1024,69.52476262938188,256359,46624,39432192,31288656,0.9461077363960018,0.14518003771322513,0.8506214128700622,1536,0,1,1,184.13781939999998,0.7950888675190322,0.09970777452664255,156.63157210084034
1536,128,192.36654608318432,338827,31154,33267712,30372760,1.214536618978373,0.43869489142418205,0.6734798280360856,1536,0,1,1,232.57054714999998,0.8766167410089762,0.06630298316004136,156.63157210084034
1536,1536,52.243396909989336,268974,26616,50573312,30472776,1.4498571246409602,0.15330772397533302,1.0,1536,0,1,1,97.62735714999998,0.6907755586212272,0.1168200238456511,156.63157210084034
1536,2048,26.2924610908624,268841,38963,50573312,30427008,1.5551396133006887,0.2051269583719858,1.0,1536,0,1,1,68.20227295,0.7145442357546551,0.11676970402358419,156.63157210084034
1536,256,69.48687390876904,301071,47732,33267712,29977464,0.9894237478719983,0.18165210388735112,0.7252490777951968,1536,0,1,1,215.96935025,0.8829179127587491,0.03809070615483925,156.63157210084034
1536,512,43.77608627353533,256774,55973,33267712,30149376,1.1435853583287863,0.16934856815386568,0.8539503517056941,1536,0,1,1,183.41999835000001,0.8867858303456213,0.04299562934677557,156.63157210084034
2048,1024,75.90835462305904,246004,52392,39956480,30283864,0.9583496197859764,0.20959367335981016,0.8954794875491682,2048,0,1,1,174.91363485000002,0.7778886091319438,0.10871420091425785,156.63157210084034
2048,128,238.37346629163267,274148,45667,32481280,30234920,0.9772830355288642,0.3663239484154602,0.5424115959390766,2048,0,1,1,288.76884873684213,0.8942081107343212,0.06463190141683232,156.63157210084034
2048,1536,49.51619936941738,275752,40650,50573312,30786784,1.48738298874702,0.15067993158235476,1.0,2048,0,1,1,91.90620474999997,0.752409682124208,0.12804487346703886,156.63157210084034
2048,2048,21.918577879719102,178389,31114,68698112,51480336,1.4553457318257768,0.11685076559667082,1.0,2048,0,1,1,72.9127836,0.7419540507743803,0.0832966454515416,156.63157210084034
2048,256,37.67273942339549,244839,19955,33005568,29955256,1.3093918821683521,0.18102111791120182,1.0,2048,0,1,1,134.67702265,0.8962076153174442,0.051586834044985826,156.63157210084034
2048,512,56.767815005374,270849,24691,33267712,29920208,1.104389844126159,0.08275471880387641,0.8548927588874481,2048,0,1,1,183.21780185000006,0.8901147475073321,0.056263180620391685,156.63157210084034
256,1024,65.74624012752031,270587,37409,37335040,31101904,0.978295857984922,0.16945797451938938,0.8086324560051039,256,0,1,1,193.69933885,0.7591535909118875,0.11179277597173513,156.63157210084034
256,128,101.08094045193346,271500,46156,33267712,29987256,1.1872732951875475,0.42034424149919025,0.7982855187676701,256,0,1,1,196.209963,0.8815280025104804,0.09767543882076193,156.63157210084034
256,1536,42.4305109182987,205938,23679,68435968,52172304,1.3166510528900024,0.19752275887083684,1.0,256,0,1,1,103.24661370000004,0.7550281426734055,0.10098331963231277,156.63157210084034
256,2048,26.29192978291361,249147,29147,49786880,29989280,1.695347253961695,0.38643046427665867,1.0,256,0,1,1,62.605669850000005,0.7350920197584324,0.09322031839556678,156.63157210084034
256,256,37.85129519800672,229820,22862,32481280,29894952,1.2003351239860351,0.18329675080831095,1.0,256,0,1,1,153.92178854999997,0.8906014688546249,0.06338667569944192,156.63157210084034
256,512,37.592849011301254,269226,19190,33005568,30544160,1.4665441710800713,0.2106778002165787,1.0,256,0,1,1,126.77672609999998,0.8877302861420329,0.036177322825467366,156.63157210084034
512,1024,68.71493474339806,253267,12212,37859328,30337624,1.066555711404242,0.19162300256470294,1.0,512,0,1,1,147.40297595,0.8049476745377376,0.0974102260719412,156.63157210084034
512,128,115.25327768883226,226914,48451,32219136,29786664,0.9848967613535511,0.25646957711896934,0.6760208897354583,512,0,1,1,231.69634914999992,0.8863379509536378,0.05690587743585199,156.63157210084034
512,1536,49.778315947290466,299033,31660,50311168,31831512,1.457531195029755,0.26864493647524995,1.0,512,0,1,1,90.54274984999998,0.7625094391818167,0.09531302739561451,156.63157210084034
512,2048,24.3614068105688,230875,52504,50311168,30055456,1.4700481166730217,0.17432111840558126,1.0,512,0,1,1,75.44961325000001,0.702340103794436,0.1189459479919724,156.63157210084034
512,256,57.562550829559235,227232,49078,33529856,30050512,1.022017395813765,0.1694800902675569,0.8055105130334314,512,0,1,1,194.45006559999996,0.9094222642571215,0.04586469456383876,156.63157210084034
512,512,55.344520645425746,279079,36248,32743424,30500632,1.0455801320790965,0.16122623176356865,0.8021461802568193,512,0,1,1,195.26562109999998,0.9010289488299975,0.04804614411308992,156.63157210084034
