cpu,memory,duration_std,userDiff,sysDiff,heapTotal,heapUsed,avg_cpu_util,cpu_util_std,slo_preservation,total_cpu_shares,cpu_shares_others,num_containers,arrival_rate,latency,memory_util,memory_util_std,slo_duration
1024,1024,25.234426330992786,17202,4890,25530368,15023104,0.615238165971902,0.22116853800416678,1,1024,0,1,1,30.306274150000007,0.6589314408977336,0.050696887513672746,41.34798498260868
1024,128,103.54280606717647,22149,3768,24567808,21582104,0.4716816614136155,0.3196880254586652,0.4055567581512225,1024,0,1,1,101.95363324999998,0.8682944334130124,0.010291516655733529,41.34798498260868
1024,1536,19.52061855986471,21030,11307,34574336,15183248,0.8207584557391122,0.2285860610151188,1,1024,0,1,1,23.558497850000002,0.5182247008792961,0.05499141025846863,41.34798498260868
1024,2048,13.89684287023322,42817,2486,39256064,24508144,0.9701674356953998,0.3308668581369301,1,1024,0,1,1,15.775545350000002,0.5268074564779734,0.049216636672781054,41.34798498260868
1024,256,65.4272444099608,25258,303,24567808,20921144,0.45088911454404323,0.3936794793749505,0.42159738302820327,1024,0,1,1,98.07457694736843,0.8613383281044127,0.011849137995933607,41.34798498260868
1024,512,32.65845407074979,19697,4802,24567808,20939944,0.4482149482722436,0.32267572731664207,0.7353713458152179,1024,0,1,1,56.227354000000005,0.8687568428489554,0.012743009124313753,41.34798498260868
128,1024,30.56292395761773,22658,500,25530368,15067248,0.6129088432330512,0.24509837627325268,1,128,0,1,1,41.1439359,0.6382197574066905,0.04191526272454912,41.34798498260868
128,128,64.12535189869544,23856,2647,24567808,20912320,0.40334836556377196,0.3014054869138476,0.41205742211086116,128,0,1,1,100.34520133333332,0.8596420130361412,0.00894159575191252,41.34798498260868
128,1536,9.093544458410832,12445,4095,38993920,24584800,0.8944210868700386,0.21334455291596857,1,128,0,1,1,14.67084045,0.5644813883302444,0.07169375035921766,41.34798498260868
128,2048,12.23594205753346,21421,1190,34050048,15218712,0.9491703466828009,0.13169040762654244,1,128,0,1,1,14.95603325,0.5336738794454684,0.054635214757799644,41.34798498260868
128,256,82.13079977516486,22124,283,24829952,21233000,0.3679156269515893,0.25713050829566647,0.4358321723614938,128,0,1,1,94.87134636842109,0.8669159385317331,0.011973933032901339,41.34798498260868
128,512,46.346905554026755,18861,4511,25092096,21230584,0.5226315901115991,0.25689150929248944,0.7611497906001331,128,0,1,1,54.323059,0.8648239954251701,0.013906172231671213,41.34798498260868
1536,1024,22.736285403495927,44721,6694,26316800,14849888,0.7440367791557254,0.25997745935314076,1,1536,0,1,1,29.3492796,0.6674558999935603,0.08151753047385192,41.34798498260868
1536,128,29.875324236857082,25304,3590,24567808,20934744,0.47060993021278685,0.2501470162735273,0.625458960028053,1536,0,1,1,66.10823031578946,0.8640137369500122,0.009696224917566476,41.34798498260868
1536,1536,10.64088551425889,12842,4228,38731776,25209816,0.8806281345698483,0.1797449939341416,1,1536,0,1,1,17.331747,0.6016215147020424,0.10922889417066702,41.34798498260868
1536,2048,11.448245246228321,6990,7788,38993920,24444856,0.9905953313424671,0.12993862376549753,1,1536,0,1,1,12.389510500000002,0.525603257315862,0.0515350267366909,41.34798498260868
1536,256,50.09800630912937,23703,33,24829952,20906200,0.5477538960825734,0.3560100106024832,0.6344243051103462,1536,0,1,1,65.17402415000001,0.8639574799857689,0.013270858606511352,41.34798498260868
1536,512,46.21221969288126,26269,18,24567808,21064720,0.5274939464811896,0.33055503425572696,0.7173037390384118,1536,0,1,1,57.64362115,0.8673396065873419,0.014464109773778284,41.34798498260868
2048,1024,17.959245354963578,14662,7757,25792512,15044072,0.7695292861817781,0.23195714200245612,1,2048,0,1,1,19.54510595,0.6491720659261596,0.04412361955977544,41.34798498260868
2048,128,49.96729109358458,22975,24,24567808,21594456,0.41409573728911814,0.3220765494432598,0.45287712744889524,2048,0,1,1,91.3006696,0.8587011241178184,0.013289835634566352,41.34798498260868
2048,1536,8.678202114482039,17414,4344,38469632,25796112,0.9734563327229452,0.20837659145838683,1,2048,0,1,1,11.49003245,0.5723340167713065,0.07399352620942201,41.34798498260868
2048,2048,6.436496111265172,17046,130,34312192,15167032,0.9766439658401959,0.25020421829957745,1,2048,0,1,1,12.40597425,0.6060157985206414,0.08535473012589812,41.34798498260868
2048,256,25.243783770047244,24681,281,24305664,21171448,0.6338926676638825,0.32164022391961355,1,2048,0,1,1,40.05728319999999,0.8631804823398097,0.01577160277817388,41.34798498260868
2048,512,29.43538280383004,14537,8652,24829952,21577024,0.5660394696757817,0.348982957500482,1,2048,0,1,1,33.904309299999994,0.8642937436354667,0.015128470590522802,41.34798498260868
256,1024,23.106981649616117,18170,4927,25530368,15012592,0.6776824319262209,0.3030701323830535,1,256,0,1,1,26.929544400000005,0.6549417073381298,0.04563702282090888,41.34798498260868
256,128,98.58984056010323,21269,3054,24829952,21570776,0.31277771767554946,0.2517175382817803,0.2868426909993166,256,0,1,1,144.14864411764702,0.8616656343001947,0.00935883467471492,41.34798498260868
256,1536,25.354369169607757,13789,2944,38207488,26000304,0.880385061238453,0.32841269199332906,1,256,0,1,1,22.47054215,0.5600520580723283,0.08363085879454318,41.34798498260868
256,2048,12.799094615031484,20734,17403,34574336,15130904,0.9355379764497803,0.14049602819656654,1,256,0,1,1,15.62670185,0.5268293488998792,0.053047986590728145,41.34798498260868
256,256,73.92186752445198,17350,4336,24829952,21498672,0.3605602079215875,0.191630138277583,0.4126918252117438,256,0,1,1,100.19094747368419,0.8636208113722427,0.012401246266332383,41.34798498260868
256,512,25.146929678317623,19276,5031,24567808,21224912,0.38152654743058906,0.2324944143063635,0.6948738289270189,256,0,1,1,59.504306050000004,0.8709680189353743,0.01562595084224233,41.34798498260868
512,1024,14.16540874655564,19902,3981,30474240,24935392,0.6928734594926349,0.20528188890241636,1,512,0,1,1,31.481757999999996,0.6767972553482593,0.08621121717366464,41.34798498260868
512,128,42.79019676029784,7585,7844,24829952,21479224,0.6433231160805795,0.35153638714474283,0.7623161198056448,512,0,1,1,54.239945750000004,0.857104920084825,0.013807048140558924,41.34798498260868
512,1536,9.303668036389066,20859,153,38993920,24867784,0.9004669018104636,0.21500874427741426,1,512,0,1,1,16.799678099999998,0.6212616517621357,0.09321532445503643,41.34798498260868
512,2048,8.826342304308472,38817,667,34836480,15175960,0.8735606428285765,0.1780822258353667,1,512,0,1,1,15.19725,0.5260865531223866,0.051036072540388625,41.34798498260868
512,256,41.85516805491178,22557,1347,24829952,21589680,0.6248746886103981,0.35091051551066865,0.7155147084907214,512,0,1,1,57.787749842105264,0.8671957001336835,0.012299023513585661,41.34798498260868
512,512,45.67320192895507,25155,3366,24567808,20916200,0.38668133300357155,0.25037060807692757,0.5441819736364016,512,0,1,1,75.9819086,0.8671730253375405,0.012320616730777391,41.34798498260868
