cpu,memory,duration_std,userDiff,sysDiff,heapTotal,heapUsed,avg_cpu_util,cpu_util_std,slo_preservation,total_cpu_shares,cpu_shares_others,num_containers,arrival_rate,latency,memory_util,memory_util_std,slo_duration
1024,1024,520.4548993685398,1963830,129934,44224512,34839504,0.42036888797855243,0.3112220347883032,0.9114828078492091,1024,0,1,1,608.1798671000001,0.824588736945446,0.025269607262961524,554.345492941667
1024,128,576.9227452116439,1730206,120351,35700736,32915592,0.38986684094362134,0.3033149371742789,0.9054743423671945,1024,0,1,1,612.2155725500003,0.9333909444376747,0.007104206745673456,554.345492941667
1024,1536,388.5464846035543,1513305,129032,51695616,40072576,0.4484518622846229,0.31622299956076394,1.0,1024,0,1,1,477.65768449999996,0.6864738061323858,0.05728224513294523,554.345492941667
1024,2048,241.7386190680224,1337823,86748,52219904,33745744,0.3287268364343624,0.23849988203574554,1.0,1024,0,1,1,454.5726258000001,0.6943467267186929,0.06045578573509653,554.345492941667
1024,256,342.68179269739574,1554791,167480,35700736,32246600,0.37265380318836483,0.32403000981892155,1.0,1024,0,1,1,495.56340820000014,0.9264197181051692,0.013395659567482891,554.345492941667
1024,512,579.4960934817931,1858518,134356,36225024,33016640,0.3884627171860778,0.29919559879180196,0.833783904596193,1024,0,1,1,664.855114,0.9282331626066214,0.012051968129980248,554.345492941667
128,1024,532.8386750621635,1852075,143271,43438080,35001320,0.42683239605670326,0.31937120743451464,0.9206424897915877,128,0,1,1,602.128947,0.8268699899227698,0.028889204072018247,554.345492941667
128,128,557.5424601229508,1917785,152614,36225024,33297024,0.400373856307069,0.302413403858966,0.8839562786125013,128,0,1,1,627.1186780999999,0.9275765732884003,0.010291869673836945,554.345492941667
128,1536,320.4610354232586,1787992,128472,52219904,35331720,0.42994567829585917,0.3538660375180517,1.0,128,0,1,1,480.14558535,0.6734629269329133,0.04107773091537329,554.345492941667
128,2048,217.92941847602603,1351292,123419,52219904,33772704,0.2811897476128812,0.2676889648230033,1.0,128,0,1,1,452.32858185,0.6982147745098328,0.07716974260307087,554.345492941667
128,256,417.2567940766416,1700031,130767,35962880,32530976,0.41576628833824475,0.29869207220272725,1.0,128,0,1,1,531.5482824,0.9253549174691604,0.029513654339511388,554.345492941667
128,512,619.8592877694265,1855414,125830,35962880,32732848,0.4020507164976991,0.3043390522059082,0.8760160673690673,128,0,1,1,632.8028829499997,0.9351655901419369,0.010205545538709808,554.345492941667
1536,1024,533.5978704321261,1728323,127510,43175936,37262408,0.47126747957386417,0.301336804556914,0.9037695540105783,1536,0,1,1,613.3704001,0.7929844921650526,0.06474720694328061,554.345492941667
1536,128,827.429161881157,1923730,202299,36225024,32918736,0.41897299027707957,0.31546202953845087,0.6510376124575871,1536,0,1,1,851.4799795499999,0.9284375243371004,0.013075352224948796,554.345492941667
1536,1536,396.8866356360628,1632791,113389,53006336,38864208,0.42134086374291824,0.2915576553880034,1.0,1536,0,1,1,473.83439914999997,0.6721951793949905,0.0479209838725583,554.345492941667
1536,2048,292.496128894423,1579826,105903,53006336,38460520,0.2848368985767257,0.2511250103037323,1.0,1536,0,1,1,463.32170875,0.709102341183501,0.05838831047017823,554.345492941667
1536,256,544.7915772018614,1736889,86818,35962880,32867496,0.3924024771110909,0.28025167619591723,0.8460517729460048,1536,0,1,1,655.2146223999999,0.9287444734486412,0.011364510296491055,554.345492941667
1536,512,603.2363245584464,1796079,114582,35962880,32094408,0.41525146026555415,0.2968144138445532,0.8368434143183404,1536,0,1,1,662.4243955999999,0.9253432029394446,0.011753537526063734,554.345492941667
2048,1024,509.8854646080411,1574296,118641,42913792,34594752,0.4130711899425652,0.2835909778497638,0.8130268212730486,2048,0,1,1,681.8292809500001,0.804908865677846,0.036744094528849275,554.345492941667
2048,128,1076.5726250231614,2104065,132070,36487168,33229584,0.3965079547040582,0.22404031689527365,0.5872034809607775,2048,0,1,1,944.0432676500001,0.9283442332756577,0.011311383376292141,554.345492941667
2048,1536,320.44252105507206,1591890,120548,52219904,40552544,0.45646055246906236,0.3980915956084967,1.0,2048,0,1,1,482.3782785,0.6864831563073069,0.057245115507726145,554.345492941667
2048,2048,275.9172897312442,1380282,112660,51695616,38799624,0.3226515460205273,0.2192423738134853,1.0,2048,0,1,1,434.6498219000001,0.6961235835497945,0.05894351396062078,554.345492941667
2048,256,349.76656723469324,1701913,126519,36225024,33145256,0.44550016897768624,0.35630800088551373,1.0,2048,0,1,1,471.64514495000003,0.9253302201159455,0.036300107586280043,554.345492941667
2048,512,423.8447629259687,1750762,118804,36487168,33395688,0.3531209646264073,0.3378533510285421,0.9775024953108277,2048,0,1,1,567.1039159500001,0.9127341380707925,0.050118468525003755,554.345492941667
256,1024,537.6570373704724,1724930,109166,42651648,33254296,0.4851216328975897,0.3229946910874136,0.9240593616760779,256,0,1,1,599.9024694000001,0.7905603734519551,0.05160698046464608,554.345492941667
256,128,771.0517310276852,1755677,167956,35962880,32467352,0.4636326633415189,0.23907981025168068,0.9347102988403193,256,0,1,1,593.0666364,0.9295549839433503,0.011172047731531127,554.345492941667
256,1536,426.96528728488437,1760427,128244,52482048,41144440,0.3863855663068633,0.2845482088011856,1.0,256,0,1,1,541.9041067,0.6880069515293379,0.05435263578672992,554.345492941667
256,2048,272.8320207805668,1425677,90005,51957760,37676272,0.3111902136280579,0.31639022716646953,1.0,256,0,1,1,428.9779601500001,0.7127300170887062,0.055305454576784215,554.345492941667
256,256,411.98035307902035,1670100,77865,37011456,31267328,0.38243932066116176,0.31918885417915355,1.0,256,0,1,1,525.1542271500002,0.9207305605800957,0.021266314911679574,554.345492941667
256,512,321.0707718574261,1534557,144062,35962880,32182552,0.4440658422546394,0.37298438437795206,1.0,256,0,1,1,465.9586836,0.9209742483377876,0.03549147420581548,554.345492941667
512,1024,583.6381917166053,1847691,145199,43438080,34153600,0.41347888883307915,0.27761149331266644,0.8506280867921805,512,0,1,1,651.689618,0.796061861918624,0.04469172984942497,554.345492941667
512,128,652.8135361207388,1814948,163788,35700736,33003712,0.4352574779751732,0.25984728593554596,0.8604506384479537,512,0,1,1,644.2501965499998,0.9270849146809559,0.013613377880453185,554.345492941667
512,1536,371.77507471868904,1555281,120322,51957760,33988960,0.3991013923770902,0.2853842218081194,1.0,512,0,1,1,508.1384966499998,0.710730649280527,0.05196015313967307,554.345492941667
512,2048,221.55737126322782,1322294,110593,51695616,38287816,0.31055177052081256,0.28711732031907744,1.0,512,0,1,1,383.1652880000001,0.7303148411082524,0.06510849280149231,554.345492941667
512,256,399.9161709490366,1731674,114870,36225024,33013352,0.3973641460874315,0.29263891202849573,1.0,512,0,1,1,471.8628065,0.9295140549257036,0.0093006776230044,554.345492941667
512,512,514.1222848083189,1708570,144795,35700736,32919856,0.42817537712038056,0.29115051237847145,0.8165696145522776,512,0,1,1,678.8710761000001,0.9325734804151473,0.010024346617855073,554.345492941667
