cpu,memory,duration_std,userDiff,sysDiff,heapTotal,heapUsed,avg_cpu_util,cpu_util_std,slo_preservation,total_cpu_shares,cpu_shares_others,num_containers,arrival_rate,latency,memory_util,memory_util_std,slo_duration
1024,1024,105.88274429633512,542386,41010,41529344,30487776,1.023943926165219,0.08440154048175519,0.9656320830004763,1024,0,1,1,382.2422757999999,0.7567054579898587,0.1133171691060745,369.10540499159646
1024,128,289.5103062815328,536547,42917,43753472,30477192,0.9822655568829808,0.29127314758879624,0.598425418633798,1024,0,1,1,616.7943297499999,0.8900955392218556,0.07227815350529482,369.10540499159646
1024,1536,77.92678147234443,436189,59472,60272640,31546760,1.3490237171222188,0.16155340774114169,1.0,1024,0,1,1,254.90477139999993,0.7149739803477072,0.1371890095635794,369.10540499159646
1024,2048,38.07929692517862,372947,55184,59232256,45971360,1.766074670689531,0.21255633845433738,1.0,1024,0,1,1,157.36769175,0.6962209700645757,0.15134504275482438,369.10540499159646
1024,256,65.63597551168438,470426,41313,34578432,29717344,1.4972601041140485,0.14848423197059088,1.0,1024,0,1,1,253.97773695,0.8628950666472834,0.08356281785394679,369.10540499159646
1024,512,63.80094670277547,513395,39360,33267712,30231984,1.1382300764930786,0.11684284193991805,0.9346510035203821,1024,0,1,1,394.9125434,0.8908554724472741,0.05708481059108818,369.10540499159646
128,1024,110.7419625085759,476273,62015,39694336,30644576,1.0842093832990973,0.12279539465384628,1.0,128,0,1,1,366.2280603,0.787816873463836,0.10847513986520042,369.10540499159646
128,128,351.31565460103445,579370,72943,33005568,30460504,1.0549479076325263,0.4402803890457668,0.643937604081806,128,0,1,1,573.2005751052632,0.8905981425915491,0.04846138108724379,369.10540499159646
128,1536,76.89591965033023,433528,58009,58970112,46273648,1.3736210347630196,0.1693730957726909,1.0,128,0,1,1,260.66490195,0.686036684181364,0.13927146642500912,369.10540499159646
128,2048,44.83979970320187,392931,64700,58970112,46532176,1.735527683144364,0.31401222302429954,1.0,128,0,1,1,163.2644671,0.6980416094808354,0.15939620303790905,369.10540499159646
128,256,85.00777009994539,467184,71478,34578432,30520040,1.050439306894803,0.1323512706351626,0.8440183744819924,128,0,1,1,437.31915815000013,0.8814492214952809,0.05381262628798742,369.10540499159646
128,512,90.45334286937228,507183,67729,32481280,29741488,1.0714465314853512,0.1387225201319142,0.8702031839325822,128,0,1,1,424.16002585000007,0.8595660240410139,0.10630058974503846,369.10540499159646
1536,1024,114.73697424081752,520348,33985,41529344,30831128,1.1007117187454403,0.15182215719800507,1.0,1536,0,1,1,365.7757210999999,0.7202937172652492,0.11144258578588424,369.10540499159646
1536,128,290.5855096225476,473581,48999,34054144,30161152,1.0537814279063111,0.3088061027251035,0.6805612145353391,1536,0,1,1,542.354452631579,0.861199793357418,0.07243552245058656,369.10540499159646
1536,1536,63.554631119010494,341906,58522,56086528,45133984,1.3605597774123452,0.1605972866999222,1.0,1536,0,1,1,238.09472190000002,0.7425024544554834,0.12461783968344217,369.10540499159646
1536,2048,41.505467665114345,413025,65337,59494400,44980336,1.8280424249508667,0.2712995332699397,1.0,1536,0,1,1,150.76659864999996,0.6907333409491326,0.16965703006173508,369.10540499159646
1536,256,81.69042476964289,470279,39640,32743424,30104912,1.0976926754722744,0.08461966552057988,0.9563439950192937,1536,0,1,1,385.9546428,0.87200159048492,0.07723603804705328,369.10540499159646
1536,512,75.65336944267428,397121,61293,33267712,30253144,1.1120490074029257,0.13756878658876504,0.9073628684854497,1536,0,1,1,406.78918855,0.8962444980622186,0.06142838412505233,369.10540499159646
2048,1024,90.8093343258454,453425,61005,50974720,44843160,1.0776415991340345,0.07759534073220745,0.9941576106045986,2048,0,1,1,371.2745354,0.7338546351174233,0.11814392848252699,369.10540499159646
2048,128,310.4576568181145,519578,86327,34316288,30483192,0.6878692573705748,0.13300078871037174,0.45600164375967955,2048,0,1,1,809.4387598000001,0.8935181285802631,0.06680433968259675,369.10540499159646
2048,1536,103.28396132151575,412487,84430,60018688,45964312,1.0588705180786502,0.11485853151848387,1.0,2048,0,1,1,341.54970315,0.7191559348993873,0.12528631695453712,369.10540499159646
2048,2048,65.00625929358436,421467,28092,56086528,45755592,1.303108049253122,0.20227063326033007,1.0,2048,0,1,1,252.67207319999997,0.7394463671748485,0.12872352009328825,369.10540499159646
2048,256,99.88961340042597,587048,39457,33005568,30096000,1.1086621761881719,0.12694625155155664,0.9222233460915495,2048,0,1,1,400.23428875,0.8671041005014539,0.07336766191673398,369.10540499159646
2048,512,72.81409436827357,516031,29471,39821312,30556608,1.0967936421595488,0.11692019022983452,0.929143356405399,2048,0,1,1,397.2534512000001,0.8495988987519896,0.08140058331152795,369.10540499159646
256,1024,118.1846421962444,552512,32571,41791488,31432896,1.1246839280693395,0.1641749206569987,1.0,256,0,1,1,361.22681105000004,0.7738976738538156,0.10748564014097507,369.10540499159646
256,128,138.3234088749627,566104,40604,34316288,30159104,0.8270608156328659,0.109373113822173,0.6111315638592659,256,0,1,1,603.97044895,0.8766859150818208,0.07210482636889923,369.10540499159646
256,1536,77.82584013630219,383419,28423,52670464,31371056,1.3973291819533658,0.24350020320122506,1.0,256,0,1,1,233.3127847,0.654911876037114,0.1485517319186207,369.10540499159646
256,2048,42.904146122036344,424636,40598,59756544,46028200,1.8368225825599218,0.23247516975358656,1.0,256,0,1,1,149.5270445,0.684477843403971,0.1542584711256396,369.10540499159646
256,256,72.67073791753971,482171,83072,35889152,29694648,0.9948114370291469,0.11999911209117062,0.8140874231698358,256,0,1,1,453.39774879999993,0.8504767284071223,0.08668094056635327,369.10540499159646
256,512,120.38363627024228,480165,66066,33267712,30104680,1.021173627630956,0.19733973136333324,0.7758669509527732,256,0,1,1,475.73286185000006,0.8828059601018751,0.06414917796711976,369.10540499159646
512,1024,158.03365707856454,451335,65879,40480768,29803960,0.8470811104157361,0.14148732701575784,0.6966780803038554,512,0,1,1,529.80769085,0.7687157036900395,0.1126051797834243,369.10540499159646
512,128,206.3374913977043,589127,118049,33267712,30056816,0.9656924845031618,0.2908687554184576,0.6947211675598542,512,0,1,1,531.3000700526314,0.8626718126609269,0.06628295480327394,369.10540499159646
512,1536,67.50182776738646,375368,77942,59494400,45019056,1.3984982402977908,0.23872369218791697,1.0,512,0,1,1,244.445848,0.730005018738896,0.11516385534117907,369.10540499159646
512,2048,38.44617160118088,376352,42981,45068288,31019640,1.7557766272565378,0.1815460940536888,1.0,512,0,1,1,147.17387624999998,0.660760085826448,0.15390616988679626,369.10540499159646
512,256,73.65708136095071,403979,57307,38772736,30167320,1.1200459250762145,0.17462621178136417,0.9326178319267472,512,0,1,1,395.77348014999995,0.8653859413422167,0.07584552550564,369.10540499159646
512,512,73.57619800799469,413871,55599,35364864,29799848,1.059481108671714,0.17933427746649336,0.8852046908373529,512,0,1,1,416.9718132,0.9065310485981619,0.04505400939068173,369.10540499159646
