cpu,memory,duration_std,userDiff,sysDiff,heapTotal,heapUsed,avg_cpu_util,cpu_util_std,slo_preservation,total_cpu_shares,cpu_shares_others,num_containers,arrival_rate,latency,memory_util,memory_util_std,slo_duration
1024,1024,75.7944385616391,280811,51364,38645760,31502552,1.0463281764496455,0.2058854359763092,0.8344168104650163,1024,0,1,1,181.52048245,0.7785005616249283,0.10559972594901718,151.46374199999997
1024,128,279.04151328795746,234194,31198,32743424,30426008,0.8061081464859814,0.28475949782380733,0.43526342178234007,1024,0,1,1,347.98178394999996,0.8707763488253091,0.06569060167882403,151.46374199999997
1024,1536,55.73651706990294,247635,37779,50573312,30397008,1.368775135467075,0.3058409504248203,1.0,1024,0,1,1,106.46392765,0.7122000249505339,0.10838441456245533,151.46374199999997
1024,2048,28.25995466637616,295927,41726,50311168,31435000,1.6103108138616122,0.18581244650421533,1.0,1024,0,1,1,79.7827718,0.7158296230985381,0.13736788265195987,151.46374199999997
1024,256,43.247904018637904,236638,44718,33267712,29939272,1.4645338329335338,0.27184230026486955,1.0,1024,0,1,1,131.6298314,0.8687402920619673,0.06506050950755518,151.46374199999997
1024,512,37.23947547666067,219811,33967,33005568,30253064,1.5462048156878774,0.22164302462439917,1.0,1024,0,1,1,125.9007699,0.8859510319381705,0.05310464223279912,151.46374199999997
128,1024,84.0122670576525,249143,26634,39694336,30270392,1.055416360355387,0.23531435135495848,0.8022265132912331,128,0,1,1,188.80420865,0.7816301372501268,0.1074426393088838,151.46374199999997
128,128,110.1235704386745,257434,32478,32481280,30252648,1.1986644255175674,0.27531103784432714,0.8199102825838559,128,0,1,1,184.73209230000003,0.8901938464775296,0.07304332695726963,151.46374199999997
128,1536,52.53080886188873,279580,41473,50311168,30399048,1.4582556653390986,0.23095550696645126,1.0,128,0,1,1,98.93939294999998,0.7304317894008698,0.13754665898456778,151.46374199999997
128,2048,30.20044291611475,254537,45370,50311168,30288672,2.1012129390049834,0.2318434873573461,1.0,128,0,1,1,54.257342449999996,0.7130787783649719,0.1402661147806421,151.46374199999997
128,256,44.78128744778203,209318,35341,33005568,30463208,1.4822200986734875,0.2179337723414862,1.0,128,0,1,1,132.81341285000002,0.8859736570637062,0.06512618993174489,151.46374199999997
128,512,46.52531523989166,268483,19423,33005568,30342472,1.179063553567346,0.16724743652291044,0.8017944364107421,128,0,1,1,188.90595285,0.8847884737355514,0.04532507620010083,151.46374199999997
1536,1024,77.2468362695102,321095,33821,39694336,30749072,1.060751329127985,0.17927697956217298,0.8241711774499649,1536,0,1,1,183.77704310000001,0.7824573459645813,0.11515910426973577,151.46374199999997
1536,128,132.8139213048868,316383,39644,32743424,30534472,1.0195450955848373,0.31702628248412945,0.5943735211430393,1536,0,1,1,254.82922205000006,0.888883701337844,0.05503788186463397,151.46374199999997
1536,1536,42.01407955219327,255354,39909,50311168,30364944,1.1108777408464583,0.2302064162732298,1.0,1536,0,1,1,125.37905140000001,0.7399613431382465,0.13413616232338155,151.46374199999997
1536,2048,35.62156007796922,306346,37709,50573312,31488496,2.0985606212081,0.27989653145563076,1.0,1536,0,1,1,54.3548689,0.727873272670731,0.11786989450270101,151.46374199999997
1536,256,41.53477216186905,271873,32188,33267712,30515752,1.3287604197768519,0.2838683654355984,1.0,1536,0,1,1,149.79400505000004,0.8803537904397448,0.06060614180602534,151.46374199999997
1536,512,35.163836516447454,263428,34860,33267712,30258192,1.4318811584909887,0.24039247178164092,1.0,1536,0,1,1,140.6482615,0.8836656451181122,0.04963493912609753,151.46374199999997
2048,1024,79.56030881882018,317434,29554,39694336,30008936,1.091426399054277,0.19807658015339782,0.8911915259205685,2048,0,1,1,169.95644324999995,0.7580345202821439,0.11133106152957718,151.46374199999997
2048,128,539.9471268981032,273236,53519,33005568,30256968,0.995615913721038,0.3888969138326105,0.3870765129419638,2048,0,1,1,391.30181485,0.8888264960442938,0.04469441264213298,151.46374199999997
2048,1536,62.700996662724904,299748,32693,50573312,31585464,1.3417190040812699,0.2621930588146102,1.0,2048,0,1,1,105.29373139999998,0.6979439807453605,0.10779281277508306,151.46374199999997
2048,2048,27.82273811009322,312195,24177,50311168,30719240,1.7807187346319115,0.3988978717783924,1.0,2048,0,1,1,69.20923444999998,0.7378836383967584,0.1383418774714043,151.46374199999997
2048,256,42.83637854947978,261006,43208,33267712,30534976,1.3953149814931438,0.25421526558873403,1.0,2048,0,1,1,143.90511629999997,0.8558113904323286,0.09030946703483067,151.46374199999997
2048,512,46.912887069876646,256011,33559,32743424,30063896,1.0921519225417629,0.1740070074820123,0.7692668095792395,2048,0,1,1,196.89363965,0.8819120638848826,0.060680454296777035,151.46374199999997
256,1024,72.65813298925963,233325,62283,37597184,30925936,1.0774356372870135,0.13902414643314104,0.816003430245837,256,0,1,1,185.61655059999998,0.7473266248918948,0.14184558140930997,151.46374199999997
256,128,149.27716370153132,281585,41067,32743424,30315592,0.8640079502546454,0.35053800357907045,0.5216524918523358,256,0,1,1,290.35372084999995,0.9024969692679354,0.05132418937871052,151.46374199999997
256,1536,44.51703590297656,297840,35292,50835456,31294432,1.3653314836578474,0.3226907956933599,1.0,256,0,1,1,111.638301,0.7405974466002256,0.10027413703641709,151.46374199999997
256,2048,30.72501790025883,307618,33985,50049024,30452896,1.8385649337017487,0.3609299479711262,1.0,256,0,1,1,71.39686444999998,0.7137424682705953,0.11273459693934215,151.46374199999997
256,256,45.897718769807625,267118,37997,33005568,30233496,1.3295809837875583,0.22942174960827538,0.982972440882794,256,0,1,1,154.0874756,0.8746607270673362,0.06463051482387314,151.46374199999997
256,512,37.48339765180878,255197,35858,33005568,30495840,1.5540227672007383,0.17945899399521173,1.0,256,0,1,1,125.79207449999998,0.8799051265447382,0.058794549542622636,151.46374199999997
512,1024,77.38483897055046,297434,41054,39694336,30428336,1.0520280101971047,0.1552424656390411,0.8095650939412431,512,0,1,1,187.09272810000002,0.7771944090877905,0.10514784018779418,151.46374199999997
512,128,52.766653413262226,266979,21443,33267712,30138248,1.125444607541848,0.12778066342487335,0.782668562865313,512,0,1,1,193.5221998,0.8690892271973347,0.06467178230351646,151.46374199999997
512,1536,52.83024645353232,329104,38860,51359744,31412856,1.2883119203938116,0.24853250455294923,1.0,512,0,1,1,109.280907,0.7052896022186639,0.14306498993405314,151.46374199999997
512,2048,29.78763861483453,249785,52760,49786880,30380472,1.7977227982919075,0.3288490931811668,1.0,512,0,1,1,66.33679895,0.7378905992719895,0.14483805799634444,151.46374199999997
512,256,47.46534046593814,282060,27586,33005568,30351528,1.3214944102548487,0.2206734890186705,1.0,512,0,1,1,144.772487,0.865074736186289,0.07866160058448896,151.46374199999997
512,512,49.43675050922366,278321,34537,32743424,30105304,1.1472604848912344,0.12333355756432676,0.7806755797031099,512,0,1,1,194.01624175,0.8897457925747462,0.06605577839017306,151.46374199999997
