cpu,memory,duration_std,userDiff,sysDiff,heapTotal,heapUsed,avg_cpu_util,cpu_util_std,slo_preservation,total_cpu_shares,cpu_shares_others,num_containers,arrival_rate,latency,memory_util,memory_util_std,slo_duration
1024,1024,239.39120003796694,1594338,157972,47108096,37766960,0.5902253479282482,0.328117167578243,1,1024,0,1,1,458.36086045,0.7452453634828238,0.09850823220428773,545.920147319328
1024,128,582.3613750791889,1943448,196626,37535744,35232912,0.7978805811809851,0.2655707127557259,0.7487913284142055,1024,0,1,1,729.068468882353,0.8906554692323634,0.06397800633405379,545.920147319328
1024,1536,278.9086005434409,1618563,80921,63492096,39377968,0.5845096956182029,0.2540626726457392,1,1024,0,1,1,469.6170603500001,0.7066651924860514,0.1191800238604935,545.920147319328
1024,2048,260.40987462711547,1753033,131237,64802816,37319128,0.5962400627428117,0.3629443214047395,1,1024,0,1,1,460.42763104999983,0.722459347111766,0.11679728026817836,545.920147319328
1024,256,435.72055934153957,1667228,158975,52224000,50217136,0.8856382044147928,0.25198394249382733,1,1024,0,1,1,535.0401357,0.830376354432459,0.0840475327905814,545.920147319328
1024,512,361.8820642743512,1715230,98670,37535744,34918440,0.9044986614495112,0.435703373550244,1,1024,0,1,1,535.6796351999999,0.8816130302928519,0.08548656563859594,545.920147319328
128,1024,239.13928464701496,1673263,116542,59174912,52253160,0.6601667444467106,0.3550644710068614,1,128,0,1,1,430.77038965,0.7574015532983223,0.1215590302541796,545.920147319328
128,128,627.0891276595097,1939080,176839,37273600,34858320,0.699773642071193,0.3079176733688349,0.7027026401183583,128,0,1,1,776.8864326842105,0.8961655761265664,0.06885806437413916,545.920147319328
128,1536,240.63806869041673,1685676,124661,62705664,42682872,0.636784058775986,0.44438942875783,1,128,0,1,1,436.04414424999993,0.6979658575568203,0.1047974060644779,545.920147319328
128,2048,261.60861545787714,1644864,174502,64540672,41800096,0.6062373400069487,0.38509773118000573,1,128,0,1,1,442.2880435,0.713585209289286,0.11064191538820514,545.920147319328
128,256,409.5201547223668,1759926,108590,52224000,50006608,0.7222991658245351,0.3737858912156839,0.8706188368693502,128,0,1,1,627.0483984500001,0.8875701523340134,0.10151963780463971,545.920147319328
128,512,424.9269452068807,1969887,185875,47235072,34686008,0.7617787122610655,0.26247527695312567,0.9510277255762917,128,0,1,1,574.0317896500002,0.8603196875595167,0.09592159379676629,545.920147319328
1536,1024,277.925989679195,1534733,112412,54710272,34337576,0.6085725151811864,0.34771246102111264,1,1536,0,1,1,500.78762559999996,0.7560624249339176,0.121903410593134,545.920147319328
1536,128,454.9634293856223,1886396,143441,48021504,34020744,0.7665417611773886,0.329777211870533,0.8929663415016512,1536,0,1,1,611.3557946666666,0.8451429397003445,0.09807097212838779,545.920147319328
1536,1536,200.74045005198766,1608322,89831,63754240,33555016,0.5180427422276351,0.28708177358845627,1,1536,0,1,1,494.71333699999997,0.6733559262518091,0.13660569527165659,545.920147319328
1536,2048,232.92756169167512,1558539,121662,52219904,37920696,0.6905325722951831,0.41971363772802456,1,1536,0,1,1,352.13804960000004,0.7430424324430386,0.09312406605602572,545.920147319328
1536,256,389.15602633581193,1780692,152527,52486144,50663840,0.7660145258027413,0.3081006581432516,1,1536,0,1,1,529.4478531000001,0.8979232790898708,0.06543233361830424,545.920147319328
1536,512,391.1484062266528,1788388,189792,46448640,34543192,0.7409789589390834,0.3554110632425994,0.9180153156689177,1536,0,1,1,594.67433495,0.8551129381735786,0.09361891142673827,545.920147319328
2048,1024,238.26929219781783,1657586,124530,48418816,35957160,0.6522313609731382,0.43367544596423757,1,2048,0,1,1,414.1474305,0.772465625222386,0.10826821288257113,545.920147319328
2048,128,406.140431725971,1682965,163964,51961856,49544568,0.8879757711272952,0.4241338408954744,0.9976550896090698,2048,0,1,1,547.2032900000002,0.8810236113523306,0.07625317110995412,545.920147319328
2048,1536,248.48396848905458,1488659,140486,53006336,38850056,0.4764232651259669,0.22922030077776856,1,2048,0,1,1,536.6959759,0.7089996920121215,0.10406879623936101,545.920147319328
2048,2048,264.3266791117097,1524962,121257,52482048,38986672,0.6859549285340558,0.41131708801496747,1,2048,0,1,1,437.2159694,0.7426572542979197,0.08760866441425198,545.920147319328
2048,256,544.6478697425531,1946909,154748,51961856,49888688,0.7669743895578607,0.3904006506491288,0.7679533118781723,2048,0,1,1,710.8767406499999,0.8853562053614035,0.09756779083663521,545.920147319328
2048,512,630.4224191328221,2030938,142095,51961856,47545040,0.7574011874937296,0.22503554628752373,0.7467172417503346,2048,0,1,1,731.0935342,0.8852983027646518,0.046027973861436915,545.920147319328
256,1024,379.6352875151862,1670815,98714,47632384,38597928,0.6133851215478946,0.30388380326883196,0.9307922160602586,256,0,1,1,586.51129425,0.8157139432579037,0.09788950347436763,545.920147319328
256,128,1192.03042684585,2122559,188803,37797888,35178208,0.677471182409985,0.2814009209881004,0.5009236728819232,256,0,1,1,1089.8270073333333,0.8998273240251984,0.08845840535208682,545.920147319328
256,1536,244.47840477304558,1624635,147090,63754240,34671256,0.6666517528262896,0.3151157916312551,1,256,0,1,1,423.40839555,0.6782106603909508,0.12059824065110439,545.920147319328
256,2048,283.91159313146335,1615536,145638,52482048,41785680,0.6175668941202166,0.3123016866525029,1,256,0,1,1,433.1946774499999,0.7508184803129458,0.11915856740104075,545.920147319328
256,256,580.9417298139697,1884534,144675,45400064,34236568,0.6683321845463902,0.2658675863733178,0.69786129209046,256,0,1,1,782.2760102999999,0.8753379034155445,0.08181628182858648,545.920147319328
256,512,600.0533433166306,1723500,138961,37011456,34205312,0.6996060302415611,0.2832512185858299,0.7245119296408818,256,0,1,1,753.5005636,0.8911621847190698,0.06652204908718498,545.920147319328
512,1024,340.684113205402,1532518,140342,46583808,36865008,0.6472895519544617,0.33973450750016165,0.9755042506892987,512,0,1,1,559.6286709500001,0.810454121996942,0.09473464225034488,545.920147319328
512,128,740.292626339771,1892932,199919,46186496,34403568,0.6883829260729641,0.22328676344863954,0.5562476221951436,512,0,1,1,981.4336736666669,0.8446716188262308,0.09450611309472777,545.920147319328
512,1536,283.8915787518307,1525664,106667,56152064,40748384,0.6025494842852537,0.3793783076239735,1,512,0,1,1,440.8905865,0.7048201414196005,0.11922276645359133,545.920147319328
512,2048,256.32994059457275,1673645,152671,64540672,38463984,0.5880136756052722,0.41077520942597684,1,512,0,1,1,462.3612394999999,0.6860358093960678,0.12684826625350512,545.920147319328
512,256,593.0596202773569,1907069,138396,41205760,34438432,0.7563412069966704,0.3163883378785385,0.7390883929018494,512,0,1,1,738.63986035,0.8940876933933986,0.08693769849382282,545.920147319328
512,512,650.3222328158038,1782389,170942,37273600,33383464,0.7083300513870896,0.34413859057064294,0.7212746133424917,512,0,1,1,756.8825204999999,0.9147869105315495,0.0666534522542452,545.920147319328
