cpu,memory,duration_std,userDiff,sysDiff,heapTotal,heapUsed,avg_cpu_util,cpu_util_std,slo_preservation,total_cpu_shares,cpu_shares_others,num_containers,arrival_rate,latency,memory_util,memory_util_std,slo_duration
1024,1024,143.25605458535654,358063,30427,39694336,30304320,0.5689459047749778,0.31055778243523424,1,1024,0,1,1,450.77673864999997,0.6839591510366974,0.14658349468334422,454.4967082916666
1024,128,234.72303538027148,356932,29020,33005568,30201080,0.4714469651955552,0.12049883403825934,0.748686208103009,1024,0,1,1,607.05901,0.8433387672396717,0.07746825018947968,454.4967082916666
1024,1536,120.94577377908199,305294,51756,49786880,30379104,0.5316339654131269,0.24009243974561603,1,1024,0,1,1,434.5202456500001,0.6448598254427231,0.16461059895454233,454.4967082916666
1024,2048,125.070923982864,314869,36444,50573312,30378648,0.6283529247160755,0.3248114366578295,1,1024,0,1,1,360.3031547,0.5762844739368165,0.16732510532043102,454.4967082916666
1024,256,156.31044032244586,266837,39093,33529856,30114976,0.6913676092810215,0.24233844102089602,1,1024,0,1,1,396.6698889,0.8255627588886826,0.07147029548260614,454.4967082916666
1024,512,156.23431542806415,257079,27909,33005568,30172912,0.5725801422995769,0.16081659092321288,0.929788216611124,1024,0,1,1,488.81745345,0.8463252336943011,0.08673020142627405,454.4967082916666
128,1024,148.2058526825679,347379,26951,37072896,30565552,0.6185397853648544,0.25813988596645926,1,128,0,1,1,427.92100745,0.7248594276454294,0.12493117609290688,454.4967082916666
128,128,220.4220326611669,363752,36522,33005568,30399600,0.559167001218098,0.19992232423468959,0.8442726065160175,128,0,1,1,538.329332,0.8487374609864566,0.08297626971213401,454.4967082916666
128,1536,147.6305054668575,341748,36456,50049024,32181792,0.6676666995307527,0.2899388345645378,1,128,0,1,1,354.64222255,0.6423639633247009,0.15519147247245008,454.4967082916666
128,2048,142.01439099286634,274265,46143,50049024,30421760,0.5457155438752314,0.26844082662346036,1,128,0,1,1,407.92257140000004,0.5915280308748161,0.17256591153103584,454.4967082916666
128,256,135.05286563729774,248605,38452,33529856,30085512,0.5135606921227708,0.15299023426096944,0.8620023583705024,128,0,1,1,527.2569197499998,0.8615017664959362,0.062273784592182475,454.4967082916666
128,512,160.77517998869044,406201,25692,33005568,30142584,0.6090890613189326,0.21842820667508941,0.9651492829667739,128,0,1,1,470.9081966,0.8533005154856314,0.09525911939719509,454.4967082916666
1536,1024,149.82229669412442,310594,29830,39694336,30192976,0.5686926649950876,0.28511511895182207,0.9926231027478942,1536,0,1,1,457.8744007,0.7454490243945713,0.13582006431461102,454.4967082916666
1536,128,220.71960465904928,361419,40508,33005568,29739328,0.6130203296695461,0.17724860976701046,0.8901515111824972,1536,0,1,1,510.5835384,0.8522028218114258,0.07498623529259284,454.4967082916666
1536,1536,184.11754821638127,342557,34658,51097600,31568448,0.6551317855986536,0.3603224774642001,1,1536,0,1,1,405.5355944,0.5247412574153877,0.1619496060181763,454.4967082916666
1536,2048,145.1241982950565,219334,39494,36933632,16040512,0.5689785664741176,0.1987994374771718,1,1536,0,1,1,378.56873915,0.5464558273381778,0.16400102251827908,454.4967082916666
1536,256,175.57157525426757,263202,26778,33005568,30486792,0.5880351131955572,0.24316434282677393,0.9844593712148224,1536,0,1,1,461.67137170000007,0.8648042965032937,0.05921602607072306,454.4967082916666
1536,512,152.04957474666935,315759,36029,33005568,30402608,0.5589541894041921,0.1993843968430984,0.9185313885628391,1536,0,1,1,494.80803155,0.8799462755414995,0.07714462172214111,454.4967082916666
2048,1024,131.45063725829763,327077,33335,39694336,30882888,0.46544703166017937,0.1883951391831482,0.8311436425748642,2048,0,1,1,546.8329239499999,0.7249803089853717,0.1285413627132855,454.4967082916666
2048,128,168.4418164660172,255784,27291,33267712,30047088,0.6056756150875344,0.2211427683611506,0.898373210266455,2048,0,1,1,505.91079864999995,0.8802726359970101,0.08622066349472587,454.4967082916666
2048,1536,142.03668208000647,329118,18156,49786880,30351320,0.6230715020934973,0.332411884719164,1,2048,0,1,1,353.60649545000007,0.598031742920291,0.16245619211430648,454.4967082916666
2048,2048,119.79607147844797,307923,64546,49786880,30431328,0.653600556058694,0.3256320667927166,1,2048,0,1,1,354.28537115,0.5742881106211353,0.17172131557864084,454.4967082916666
2048,256,134.1353491531997,359393,34369,33792000,30320200,0.6284330668550941,0.18822720837211981,1,2048,0,1,1,446.57030985,0.8565908816732757,0.07147641594765124,454.4967082916666
2048,512,142.3389046614448,313005,29146,33005568,30561672,0.5906676633477209,0.25136945517288095,0.9605122626891232,2048,0,1,1,473.18157814999995,0.8491290696089443,0.10056293662204636,454.4967082916666
256,1024,157.92240027202894,337523,30720,38907904,32086760,0.5901274932722644,0.28970417554868727,0.9962133452471054,256,0,1,1,456.22427209999995,0.7190184217941008,0.11954065303137121,454.4967082916666
256,128,339.6433041615036,312035,49588,33005568,30185904,0.4730843674058053,0.17103663445007847,0.6680726138840817,256,0,1,1,680.3103417894736,0.847631051952655,0.06864947630048346,454.4967082916666
256,1536,154.73966892489193,352828,20196,51097600,31848192,0.5304742214980976,0.21616437749458378,1,256,0,1,1,425.9172856,0.65972454557411,0.1571640926183819,454.4967082916666
256,2048,160.47892899194179,287460,51112,50835456,30329440,0.6719065284976394,0.3411777831741917,1,256,0,1,1,348.86907444999997,0.5997153674374635,0.1951553842549078,454.4967082916666
256,256,124.81207503567762,295111,6900,33005568,30329888,0.5030040068589751,0.11480339013373558,0.9163749406239511,256,0,1,1,495.9724324,0.8413235685111202,0.09941802556602063,454.4967082916666
256,512,160.32041378061155,261456,16821,33267712,29882928,0.5658193375010145,0.24241383010098397,0.9292618924762959,256,0,1,1,489.0943145,0.8380076670779578,0.09933168142456866,454.4967082916666
512,1024,220.30668914541508,343589,42052,39432192,31485136,0.5865690972085017,0.2603309686961782,0.9992105413192623,512,0,1,1,454.85579815,0.7036339707306047,0.12583729594831222,454.4967082916666
512,128,152.9525207213346,291203,46400,33529856,29800832,0.4913621485415799,0.19443548705187022,0.8741221549015058,512,0,1,1,519.94644655,0.8951028649975937,0.04400101206411587,454.4967082916666
512,1536,128.36519272865863,277179,34330,38506496,16039264,0.512997554565852,0.21179695078531544,1,512,0,1,1,450.69195909999996,0.6042649236980283,0.15888454414509193,454.4967082916666
512,2048,130.51627130828467,331632,41041,50573312,30426064,0.4558754736467499,0.18382353234368282,1,512,0,1,1,418.59322735000006,0.6233021077396341,0.17372389240084865,454.4967082916666
512,256,221.51348178826507,298360,53504,33005568,30421760,0.5747261506851068,0.23817558306288925,0.8254241520268696,512,0,1,1,550.62201315,0.853833658459567,0.08100537355580595,454.4967082916666
512,512,136.25066394405945,253708,41420,32743424,30162968,0.5455736189037707,0.19756569258959666,0.9103680833135537,512,0,1,1,499.244994,0.8909919529137766,0.036757575133232766,454.4967082916666
