cpu,memory,duration_std,userDiff,sysDiff,heapTotal,heapUsed,avg_cpu_util,cpu_util_std,slo_preservation,total_cpu_shares,cpu_shares_others,num_containers,arrival_rate,latency,memory_util,memory_util_std,slo_duration
1024,1024,563.3784156846175,1676057,146790,43175936,36728432,0.9061950508864264,0.17353176011979493,0.9933150714748297,1024,0,1,1,289.49246165,0.8388826674888759,0.02644794312813473,287.55722523529414
1024,128,1097.8527224584052,1934403,226433,36225024,33137928,0.6966461892279773,0.2843052238399488,0.3677654598762277,1024,0,1,1,781.9038398333333,0.9343870686836276,0.013163155403401135,287.55722523529414
1024,1536,330.34824776503723,1587900,140040,51695616,36119224,1.057761440691341,0.14650228064576878,1.0,1024,0,1,1,175.98114565000003,0.7358824739653229,0.0437216099330793,287.55722523529414
1024,2048,198.08407871740624,1483345,61705,53268480,38532992,1.1011383576755178,0.14270169697772847,1.0,1024,0,1,1,77.60864594999998,0.7457144946849618,0.051610644696742036,287.55722523529414
1024,256,348.37666134201856,1532100,107419,35962880,32345568,1.1518254420748795,0.1723412405174174,1.0,1024,0,1,1,163.65130939999997,0.928324751681296,0.011525448810999211,287.55722523529414
1024,512,558.4773898692121,1674877,117621,35962880,32765512,0.8707160225531076,0.19469423723978255,0.8483849340338557,1024,0,1,1,338.94664285000005,0.9304865171488045,0.01227407563956791,287.55722523529414
128,1024,547.6975534693407,1584755,144682,43175936,35009272,0.9145563790586912,0.20623163384660553,0.9339155211165212,128,0,1,1,307.90496435,0.8349779184438203,0.03357315019586545,287.55722523529414
128,128,846.6622844218057,1752858,157660,35962880,32724760,0.7680024392669362,0.16242996547155839,0.5644387895416298,128,0,1,1,509.45688099999995,0.9277699838242714,0.009717401346249724,287.55722523529414
128,1536,387.21950758216434,1784932,136351,51957760,40841488,1.0369516525889788,0.16844009230682033,1.0,128,0,1,1,170.24436289999994,0.7379843477285096,0.03517560937524705,287.55722523529414
128,2048,187.79674426067797,1305761,150171,51433472,40618696,1.0790369407531792,0.195348365510374,1.0,128,0,1,1,81.69631850000002,0.7600569817789036,0.03867010089690273,287.55722523529414
128,256,389.5817990064892,1605492,123444,35962880,33303416,1.0427704265936537,0.18482939473188545,1.0,128,0,1,1,195.08805205263155,0.9369763408678992,0.007393668690284998,287.55722523529414
128,512,575.0842811157764,1687628,124272,35962880,32961888,0.8842118664845783,0.28913104038136433,0.8897840469838932,128,0,1,1,323.17642265,0.9331727686300747,0.008367975161146634,287.55722523529414
1536,1024,565.1790563218711,1615990,124869,43438080,36865264,0.9121022472229683,0.16048517066220058,0.9915284897770237,1536,0,1,1,290.0140825,0.8294524214700362,0.03405764776886487,287.55722523529414
1536,128,1040.7369493184233,69644,5,36487168,34118712,0.7331212565194183,0.13657126497515917,0.45181277080557564,1536,0,1,1,636.4521851000001,0.9239147479653029,0.014480443429994161,287.55722523529414
1536,1536,387.39542872859954,1585624,153001,51695616,40792168,1.0430672821854068,0.19238442488521657,1.0,1536,0,1,1,172.40675240000002,0.7283578348352403,0.05110380997692783,287.55722523529414
1536,2048,221.30869862032768,1552337,131711,52219904,39887768,1.0697451828176958,0.16515764145636025,1.0,1536,0,1,1,90.7544499,0.7647198744573698,0.0424866849212644,287.55722523529414
1536,256,370.32880428042625,13710,210,37011456,33678808,1.0991797242889105,0.18008463241280617,1.0,1536,0,1,1,168.59343099999995,0.9277673152518879,0.013942493104458675,287.55722523529414
1536,512,593.2043847918463,1789531,121663,35700736,33107488,0.9459900173725366,0.2652964756485844,0.8786701136415477,1536,0,1,1,327.264147,0.9346371908803347,0.008539330547398001,287.55722523529414
2048,1024,603.2745746441205,1885665,109008,43438080,37022200,0.8602986220829163,0.21045663274007137,0.8437251292812779,2048,0,1,1,340.8186093500001,0.8334079151312579,0.041022120339070704,287.55722523529414
2048,128,803.3152816806095,1853880,265447,35700736,33299424,0.9815401815514746,0.17409447769853867,0.5670196769947908,2048,0,1,1,507.1380005000001,0.9304747221977645,0.011201729439471142,287.55722523529414
2048,1536,374.1598856961395,1629592,115433,52744192,37018448,1.0057831505217258,0.17354360200105765,1.0,2048,0,1,1,188.80080884999998,0.7473017202073737,0.04627156403271512,287.55722523529414
2048,2048,222.48208371453475,1578860,74134,53006336,42983648,1.1042195294994648,0.2511664351281648,1.0,2048,0,1,1,89.69419495000002,0.7300089274169759,0.06576332397720473,287.55722523529414
2048,256,585.653671148075,79100,8952,37535744,34229824,0.875656781958574,0.170544690206208,0.8228825275306506,2048,0,1,1,349.45112530000006,0.9249641478943065,0.033162342596979005,287.55722523529414
2048,512,586.6164558340795,1764875,162001,36487168,33328712,0.8776281930799851,0.2087086713289815,0.8663808441329295,2048,0,1,1,331.90625945000005,0.9292224346640747,0.010780442484253803,287.55722523529414
256,1024,572.1284819987993,1908965,126175,43700224,36346040,0.8885231634150552,0.1857071601358074,0.8826530158903301,256,0,1,1,325.7873933,0.8272567915579987,0.03337552156998578,287.55722523529414
256,128,817.0866516962441,2061018,175455,36225024,33750632,0.6918763241098593,0.2564007561343038,0.5487696334068559,256,0,1,1,524.0035303157896,0.9295130248689979,0.010943896638619442,287.55722523529414
256,1536,350.72356612073065,1560195,154584,52744192,38182584,0.9930999116903155,0.24040936570897786,1.0,256,0,1,1,171.80877109999997,0.741011107244377,0.04238156092290231,287.55722523529414
256,2048,211.33182778554146,1484990,134848,53268480,42318768,1.0806927962053896,0.23402115710073665,1.0,256,0,1,1,94.8969332,0.70812087145681,0.06686574272350158,287.55722523529414
256,256,574.0365608192764,1668890,122408,35700736,33847696,0.9054563071452337,0.15659131643071955,0.91941436339241,256,0,1,1,312.76129315,0.9345347687647279,0.012251341647441764,287.55722523529414
256,512,537.8310091830803,1628638,161357,36225024,32865008,0.8610865443648859,0.18580610994284794,0.9339070853022874,256,0,1,1,307.90774559999994,0.9241960371719182,0.009936347328963388,287.55722523529414
512,1024,560.9159374992994,1853719,157553,44486656,37162464,0.8997034938216911,0.15983515281484292,0.9036098200326645,512,0,1,1,318.23162925,0.8389492667467822,0.031720833171898374,287.55722523529414
512,128,825.7741239799902,1781413,112136,35962880,33022816,0.7638239356656542,0.16848479408327635,0.5624295061646725,512,0,1,1,511.27691930000003,0.9275268548837889,0.010626570498112598,287.55722523529414
512,1536,326.72236434031475,1471704,112776,51957760,40411328,1.07587851794933,0.28457234555341615,1.0,512,0,1,1,157.92141399999997,0.727818387728018,0.03639794907556937,287.55722523529414
512,2048,219.90142171783552,1551649,113672,53530624,39559656,1.077836579185292,0.210823658228211,1.0,512,0,1,1,96.47336125000001,0.7225816990052746,0.03790419333766362,287.55722523529414
512,256,597.9617504011101,1615950,76503,36225024,33086856,0.9321508579866814,0.23545644911024488,0.9002181873710158,512,0,1,1,319.43058835000005,0.9277663028914883,0.008552601502440397,287.55722523529414
512,512,609.5245231086424,1909253,106305,36487168,33349944,0.9183634464333146,0.1235678788160049,0.8653982183714442,512,0,1,1,332.28312600000004,0.9317820029623365,0.009653490767669885,287.55722523529414
