cpu,memory,duration_std,userDiff,sysDiff,heapTotal,heapUsed,avg_cpu_util,cpu_util_std,slo_preservation,total_cpu_shares,cpu_shares_others,num_containers,arrival_rate,latency,memory_util,memory_util_std,slo_duration
1024,1024,386.2314962076037,1630148,144480,43962368,35890336,0.39102236012132446,0.3627798409348055,0.9739720913435688,1024,0,1,1,510.26012790000004,0.8248626981582298,0.05289287847136367,496.97912389999993
1024,128,856.6988955445179,1975044,178104,36749312,33801760,0.3679993312009158,0.25662741952774887,0.6123679801438865,1024,0,1,1,811.5694157999999,0.9336540280054308,0.009951731708638322,496.97912389999993
1024,1536,264.72623256557324,1336440,112606,52482048,40127880,0.27929016075914337,0.30885952658890775,1.0,1024,0,1,1,369.13866620000005,0.7038751623921286,0.05250369369595584,496.97912389999993
1024,2048,202.86713948766177,1514646,107323,52482048,41648416,0.24816178172065245,0.33753423803899923,1.0,1024,0,1,1,407.2786344,0.7027560251174712,0.06146613767138568,496.97912389999993
1024,256,454.9855061037747,1568469,111187,35962880,33138816,0.37016783042057516,0.35876337442402756,0.927619745273149,1024,0,1,1,535.7573795000001,0.929702038874669,0.0373954559141262,496.97912389999993
1024,512,539.9768206993546,1698744,167450,35962880,33413528,0.3497578729174244,0.327609200835,0.7933632031370369,1024,0,1,1,626.4206884500001,0.9383042195116816,0.010971342896168867,496.97912389999993
128,1024,360.3815775381377,1604489,124490,43438080,34008248,0.29777193379036626,0.29566216014892754,0.9075360932525398,128,0,1,1,547.61361845,0.8094673730580724,0.044447218591222665,496.97912389999993
128,128,595.3163277564818,1695986,183250,35962880,32985504,0.3478481902237873,0.33376777007891445,0.7787275978464117,128,0,1,1,638.1937987999997,0.9338188526947848,0.010287294027658113,496.97912389999993
128,1536,313.6552123298849,1453399,104740,53006336,39702320,0.23476971367803062,0.2152445429595948,1.0,128,0,1,1,346.3318493,0.6990793245536547,0.06761674998934579,496.97912389999993
128,2048,295.0446814729342,1420994,131400,52744192,41462528,0.26195783394344474,0.2358487448924539,1.0,128,0,1,1,390.22375705,0.7029761930317975,0.07506294812050808,496.97912389999993
128,256,629.9561034468794,1702846,137467,36225024,32975216,0.33778542125127164,0.3080188067867001,0.829548314372931,128,0,1,1,599.0960565999999,0.9323941858591299,0.010437062653098385,496.97912389999993
128,512,579.7980755248636,1751373,87639,35962880,32809096,0.3277690914606716,0.3059286368353567,0.8015086177655173,128,0,1,1,620.0546231000002,0.9346173387703764,0.012028539961960759,496.97912389999993
1536,1024,336.0271066217488,1534753,128321,43962368,34816240,0.3434380547301243,0.33711452189930274,1.0,1536,0,1,1,461.9065398000001,0.792439397955014,0.056593335813612804,496.97912389999993
1536,128,692.807858990403,1702722,140480,36487168,33046736,0.3591299568714504,0.27979889974008504,0.8881628730480658,1536,0,1,1,559.5585437999999,0.9240777426013128,0.010168985174602001,496.97912389999993
1536,1536,246.2839109803263,1436904,88671,53268480,38944960,0.26759098316262386,0.337489075552761,1.0,1536,0,1,1,390.4132052,0.7249673890562606,0.05276447171576194,496.97912389999993
1536,2048,228.3360691680437,1370970,121568,52482048,34863872,0.27516394413995976,0.27457068391856393,1.0,1536,0,1,1,428.67294875000005,0.7036109467567658,0.05575082505609139,496.97912389999993
1536,256,500.6586994632489,1672473,161875,35700736,32560904,0.33752213486971927,0.33092304279307183,0.873364693000831,1536,0,1,1,569.03963245,0.9322923195520207,0.009543958659240459,496.97912389999993
1536,512,535.7503020207052,1671873,157047,35962880,32587656,0.30918734726352387,0.3341149313595455,0.8684136439969793,1536,0,1,1,572.2838734,0.929074670923556,0.010525299971898225,496.97912389999993
2048,1024,348.95816554228225,1444200,162101,43175936,36654608,0.31443000851013514,0.3351256200836729,1.0,2048,0,1,1,456.37916465,0.8155740195198178,0.04731862383723323,496.97912389999993
2048,128,586.8059122462599,1766460,168514,35962880,33375704,0.3260009829250857,0.3491262275182974,0.7971511567435263,2048,0,1,1,623.4440227500002,0.9318296885051941,0.009396163244490337,496.97912389999993
2048,1536,230.60657867080968,1348578,106049,51957760,35185176,0.3280273378026227,0.344619669688853,1.0,2048,0,1,1,393.31056895,0.6971626534122976,0.05838548420648813,496.97912389999993
2048,2048,268.93307262965834,1330712,102610,52219904,35141520,0.2755742502550785,0.2599825744647699,1.0,2048,0,1,1,327.94236494999996,0.7080382657213404,0.06890053333014401,496.97912389999993
2048,256,417.6358769837866,1791209,144593,37011456,33545264,0.2877566756792271,0.306330314742573,1.0,2048,0,1,1,470.0361296000001,0.9192884431182792,0.04481014244971668,496.97912389999993
2048,512,442.126604497183,1544708,133223,35962880,32839680,0.3670597048925215,0.36367248363275817,0.9047845329761105,2048,0,1,1,549.2789783500001,0.9196565933844398,0.03383565098776462,496.97912389999993
256,1024,355.16933550906407,1485844,133600,42913792,34159808,0.30847855590664786,0.3208411465142282,1.0,256,0,1,1,478.54612915000007,0.8301984244523682,0.023400186713025503,496.97912389999993
256,128,816.250188588135,1805937,238386,36487168,33145936,0.3598348402314374,0.3558889186688776,0.6754483659484108,256,0,1,1,735.7766321666667,0.9302164418942712,0.011063564791413367,496.97912389999993
256,1536,252.42622015852263,1524929,158842,53268480,39263152,0.2650075523003935,0.3393884687881513,1.0,256,0,1,1,425.9059498,0.6988900313291777,0.05816797679366164,496.97912389999993
256,2048,217.0152645171563,1437516,129106,52219904,35015488,0.29083374587885985,0.288073394171043,1.0,256,0,1,1,376.6132809,0.6967147454952796,0.06008266167263758,496.97912389999993
256,256,407.02098532624797,1742972,142401,36749312,33517848,0.3188155021999684,0.3284728426872223,1.0,256,0,1,1,446.9525954999999,0.9309687390803043,0.01036760914566581,496.97912389999993
256,512,512.5913420884972,1628187,176028,35962880,32682112,0.4024501999772081,0.3514154325504919,0.9875224389462937,256,0,1,1,503.2585633500001,0.9272595074716404,0.013704073443637305,496.97912389999993
512,1024,362.84594297182537,1502086,90479,42913792,34017808,0.3562773598078294,0.3411350617578617,1.0,512,0,1,1,440.66311465000007,0.8266707985053061,0.019810194583987733,496.97912389999993
512,128,969.7457642081148,1966155,238690,36749312,34143536,0.38569487452926043,0.2469008721583387,0.5523596024939235,512,0,1,1,899.73836185,0.9215961323190474,0.03651973444305182,496.97912389999993
512,1536,282.05126446854126,1429960,123598,53792768,39123176,0.2725573410649422,0.3111320000823811,1.0,512,0,1,1,395.6714889499999,0.7195233411303867,0.05434236551423,496.97912389999993
512,2048,231.3153387663285,1458250,141456,52482048,35222176,0.28160098569634556,0.34154454761032343,1.0,512,0,1,1,414.20622615,0.7164620364124425,0.062304062040342355,496.97912389999993
512,256,375.8322188253229,1871890,137885,36487168,33874224,0.28871475719208106,0.35441885795558753,1.0,512,0,1,1,487.28247435000014,0.9347467082995825,0.013379031758025814,496.97912389999993
512,512,614.4096684521768,1653339,116505,35962880,32740952,0.3651217683707769,0.3048202211189851,0.841912001375279,512,0,1,1,590.2981821000001,0.9287911638168644,0.010841183838630924,496.97912389999993
