cpu,memory,duration_std,userDiff,sysDiff,heapTotal,heapUsed,avg_cpu_util,cpu_util_std,slo_preservation,total_cpu_shares,cpu_shares_others,num_containers,arrival_rate,latency,memory_util,memory_util_std,slo_duration
1024,1024,24.25964301161339,15669,12382,34185216,28505056,0.6529505935488542,0.2203329948669766,1,1024,0,1,1,33.268192,0.6716817411027334,0.0896221904250862,50.698668222222224
1024,128,58.67570550444586,28239,2759,28278784,24636144,0.33320825975008683,0.26950716801747543,0.40758096589390747,1024,0,1,1,124.38919494444445,0.8799977247336151,0.009833855842569362,50.698668222222224
1024,1536,13.268555920706094,10640,16295,42442752,28209024,0.8062860085003318,0.2726197828742295,1,1024,0,1,1,19.641588149999997,0.5641644678207899,0.07925465084874372,50.698668222222224
1024,2048,9.327948523916383,38401,5306,34836480,15045056,0.8766749069576525,0.18766393139235368,1,1024,0,1,1,15.71818055,0.5350828442465619,0.05543403165744172,50.698668222222224
1024,256,67.52993486575173,22469,7523,28016640,24407264,0.4493778531491777,0.3494756243798655,0.6603265587285203,1024,0,1,1,76.77817521052631,0.8726989344479389,0.008110582106843312,50.698668222222224
1024,512,27.97409802093624,18157,11287,28540928,25049960,0.5246026650409191,0.30152103725909984,1,1024,0,1,1,43.06970650000001,0.8823659952491608,0.012084169877004199,50.698668222222224
128,1024,28.549260542513736,22057,4519,33923072,28653344,0.7311036189904266,0.3347003746460883,1,128,0,1,1,39.94447355000001,0.6643635199330247,0.07710166041606238,50.698668222222224
128,128,130.82249633240684,29097,857,28016640,24401944,0.35880787634099603,0.2767613659094509,0.31921875737935795,128,0,1,1,158.8210813125,0.8800444129004346,0.009486933945280704,50.698668222222224
128,1536,9.66650600417536,25953,27,42180608,29212808,0.8824428527009307,0.20811876540487464,1,128,0,1,1,17.463472700000004,0.5601458875985159,0.07590767628019453,50.698668222222224
128,2048,19.10540983995389,20481,4125,42442752,28497928,0.9197726338925957,0.19267746040806524,1,128,0,1,1,21.5272604,0.5399884003862904,0.06177741857566554,50.698668222222224
128,256,48.373814580588586,25995,3637,28016640,24336488,0.2894269097787622,0.11266945337025702,0.4260110766256319,128,0,1,1,119.0078638888889,0.8814459323840371,0.009847813761047805,50.698668222222224
128,512,45.73075336019443,23205,4584,28540928,24881648,0.6147086227704992,0.3283962245951344,0.9858180173985159,128,0,1,1,51.428019500000005,0.8779693125968979,0.012755108503154585,50.698668222222224
1536,1024,30.388097699374896,37433,4917,25792512,15069984,0.6406564533614766,0.19153809180207412,1,1536,0,1,1,37.152140149999994,0.6585970312242728,0.07593924882095235,50.698668222222224
1536,128,55.28026093950155,31898,3960,28278784,24694720,0.41959496990974116,0.17826799297851076,0.5663689372270899,1536,0,1,1,89.51526980000001,0.8713348840933458,0.010848954498318915,50.698668222222224
1536,1536,11.809026267305178,46873,14671,42442752,28502472,0.8653620126817303,0.2556061494254713,1,1536,0,1,1,19.076982750000003,0.5632612299939638,0.09733006483360124,50.698668222222224
1536,2048,15.022363814149465,19127,22,42442752,28294904,0.9246504989975252,0.2464755694007061,1,1536,0,1,1,18.856749,0.5397501587699358,0.06550475662417873,50.698668222222224
1536,256,51.8872383628703,24802,4148,28016640,25024272,0.4945146910914882,0.31726230032020786,0.7929665712207358,1536,0,1,1,63.935442,0.8843899874591886,0.010570636818594473,50.698668222222224
1536,512,18.076460628478223,15382,8724,28540928,25011936,0.4927792140985162,0.2785685858336031,1,1536,0,1,1,36.170122250000006,0.8805097275578341,0.010181055733159115,50.698668222222224
2048,1024,29.160646586315586,27717,47,26054656,15061056,0.6241542045003459,0.2542517616319521,1,2048,0,1,1,36.93880465,0.6576493902778123,0.07203036015225525,50.698668222222224
2048,128,30.507632959093584,26078,2950,28540928,24650960,0.48594889827049836,0.2046184344210629,0.7492771657622638,2048,0,1,1,67.66343689473686,0.8788705438304731,0.0104344790605434,50.698668222222224
2048,1536,12.081906603393067,40620,4935,34574336,15138000,0.7104074884947202,0.2661779638435858,1,2048,0,1,1,20.691669150000003,0.5489731067613408,0.0717999101497292,50.698668222222224
2048,2048,14.893313210811362,12745,12098,42442752,28105512,0.909657397590556,0.20832424570037467,1,2048,0,1,1,19.297449750000002,0.5356280066442137,0.06240430266313568,50.698668222222224
2048,256,50.290195813859185,10992,18377,28278784,24333984,0.5587039302410449,0.28443914792372177,0.8770299272557692,2048,0,1,1,57.807227149999996,0.8753590187451732,0.011636690805315746,50.698668222222224
2048,512,26.8664675875494,17632,7459,28278784,25051472,0.5911396645628337,0.3143147070590746,1,2048,0,1,1,31.044266499999992,0.886425794264385,0.015535006750616389,50.698668222222224
256,1024,25.017539752276228,13360,12141,33923072,28641912,0.7038707291603872,0.2798534777360556,1,256,0,1,1,38.322706049999994,0.6611478855344253,0.07902485220767842,50.698668222222224
256,128,107.95985199642071,27499,3913,28016640,24954712,0.3266854024224384,0.30689195750139503,0.3018514268700054,256,0,1,1,167.95901463157898,0.8813865804530984,0.01081505663083403,50.698668222222224
256,1536,19.34593814425948,69831,12403,34312192,14640952,0.8302843657627609,0.239194369843287,1,256,0,1,1,27.060139900000003,0.5292450457602584,0.06141964937076783,50.698668222222224
256,2048,11.246159385885136,15377,3877,42704896,28306104,0.9188118123599581,0.21088463136565935,1,256,0,1,1,15.202391850000003,0.6213860038427592,0.0925371441296244,50.698668222222224
256,256,45.596355211156016,19725,7964,27754496,24662496,0.3898020113644568,0.19788936664541926,0.6276522723417487,256,0,1,1,80.77508910000002,0.8833016011739268,0.011612147717127078,50.698668222222224
256,512,24.150733839094197,23284,3857,28278784,25030856,0.4895562031290249,0.28333221561218,1,256,0,1,1,50.477291684210535,0.8777197599286447,0.01139075357659724,50.698668222222224
512,1024,18.27030888959349,27393,35,25530368,15212192,0.7588396031575279,0.17783291729231615,1,512,0,1,1,26.118120649999998,0.673396578411875,0.05074395507991626,50.698668222222224
512,128,68.97091760432853,19055,8172,28278784,24982000,0.3870503384185178,0.33474615684291215,0.4013376274569042,512,0,1,1,126.32423364705883,0.8771483362542264,0.010769838760754285,50.698668222222224
512,1536,16.18175732783237,26302,33,42180608,29101256,0.8882527609981008,0.3121734377053537,1,512,0,1,1,20.5023592,0.5645234614779923,0.08755162706297205,50.698668222222224
512,2048,14.694407238461148,18398,7610,42967040,28286152,0.8785758495002352,0.20585518648426648,1,512,0,1,1,20.04036595,0.5452179537374426,0.06666110059379564,50.698668222222224
512,256,53.306307990575355,17665,10145,28278784,24832432,0.3567812420741919,0.30039044415647365,0.4732178695276302,512,0,1,1,107.13599694117646,0.8732251484448256,0.008743426807730253,50.698668222222224
512,512,26.853327765201662,25229,6236,28016640,24517464,0.40363779418499196,0.20962062323507585,0.9002720733132903,512,0,1,1,56.31482939999999,0.8832638764123859,0.01212431828686663,50.698668222222224
