cpu,memory,duration_std,userDiff,sysDiff,heapTotal,heapUsed,avg_cpu_util,cpu_util_std,slo_preservation,total_cpu_shares,cpu_shares_others,num_containers,arrival_rate,latency,memory_util,memory_util_std,slo_duration
1024,1024,855.0566993640471,1669044,108999,43175936,34540792,0.7579350742071872,0.18594117448772973,1,1024,0,1,1,527.0781197,0.8192584057417539,0.04282183280246557,1838.5824948737868
1024,128,1409.2235007832987,1600083,195033,35700736,32464736,0.36613893541553366,0.07322419333023646,0.30979926197165225,1024,0,1,1,5934.7542766,0.9173034035193064,0.008154933938322137,1838.5824948737868
1024,1536,517.1784254865264,1720830,183739,52482048,39042832,1.0003628118892094,0.12661263581049564,1,1024,0,1,1,306.7355121500001,0.7530625922132073,0.04564173186665793,1838.5824948737868
1024,2048,360.86272570575215,1722399,140975,53006336,35266720,0.9946544414474163,0.1617980384553391,1,1024,0,1,1,202.7288119,0.7231454685517761,0.05263185283850871,1838.5824948737868
1024,256,2558.469493317525,2031587,131780,36225024,33266064,0.30101365862828333,0.07336147856490705,0.3223331137320431,1024,0,1,1,5703.982670555555,0.9180234002054183,0.007483037854478331,1838.5824948737868
1024,512,1828.9012484611617,1901107,136631,36225024,32526136,0.40995684123953274,0.10399881420753236,1,1024,0,1,1,1814.8844321999998,0.9222202318477167,0.008990311441322564,1838.5824948737868
128,1024,814.6508041774761,1758470,141387,43700224,34507712,0.7562024482300432,0.1675710095910767,1,128,0,1,1,578.0589008888888,0.8381088375918124,0.04029435951800706,1838.5824948737868
128,128,1018.1813548058665,1925675,231496,36225024,32935016,0.28536834933933036,0.03997594869443726,0.23311045576691308,128,0,1,1,7887.173009142857,0.9170329604807534,0.008493348740318011,1838.5824948737868
128,1536,524.3009918186183,1599015,151189,52219904,40124240,0.7976033033921077,0.19623675719240347,1,128,0,1,1,328.5897033,0.7613745300535242,0.03554623727916625,1838.5824948737868
128,2048,348.06688917985423,1612419,148059,51957760,40709496,1.013799414817211,0.17714364539994096,1,128,0,1,1,189.43639939999997,0.7621938054065946,0.02851295093645071,1838.5824948737868
128,256,4559.829436322513,1787726,223606,35700736,33124824,0.29767002128932485,0.1886069481787958,0.2506128544604421,128,0,1,1,7336.345531166667,0.9238531320302348,0.011464173675914267,1838.5824948737868
128,512,1187.973196514706,2052700,194821,36225024,33010720,0.6934931011937036,0.2848769807425973,1,128,0,1,1,1105.2543784499999,0.9291438374213449,0.0093202737928017,1838.5824948737868
1536,1024,1406.421186744059,1678608,148838,42913792,37238552,0.7597230044215928,0.21238672418002646,1,1536,0,1,1,758.1548798499999,0.8299350868640101,0.035605504736101405,1838.5824948737868
1536,128,1180.9776677599123,2312595,161527,37011456,33750384,0.4220928734953347,0.0719419518139101,0.3374752293165915,1536,0,1,1,5448.051694333334,0.9155350421282812,0.004135368586023095,1838.5824948737868
1536,1536,521.1653221049658,1603895,122545,51695616,34435512,1.0394530562935926,0.21137923832089528,1,1536,0,1,1,300.72025995,0.7352735626018431,0.04217642135823523,1838.5824948737868
1536,2048,335.0646250517173,1418518,114583,51171328,40630720,1.0274060504125806,0.1639849543968865,1,1536,0,1,1,172.67196099999995,0.7353070563259438,0.041300550277052456,1838.5824948737868
1536,256,2565.6432142710946,1981748,140943,35962880,32515816,0.3342616329253496,0.07474281580369739,0.39447502550725466,1536,0,1,1,4660.833705529411,0.9206070787785466,0.010462093453559656,1838.5824948737868
1536,512,1864.4431955131322,1833050,108226,36225024,33102288,0.4952792979728202,0.2716679838983177,1,1536,0,1,1,1630.743747631579,0.9308730146801117,0.012193172160663566,1838.5824948737868
2048,1024,891.6072753819408,1803148,123008,43438080,37232920,0.6795371738386812,0.15865412878860796,1,2048,0,1,1,568.9175077000001,0.8146832753523304,0.03482230830779425,1838.5824948737868
2048,128,1185.2290538373434,1708418,209946,35962880,33461456,0.40899385767116175,0.11299091107384142,0.35237916518819185,2048,0,1,1,5217.6254345,0.9276263127994434,0.009386716314614511,1838.5824948737868
2048,1536,314.1998728963955,1500284,122934,51695616,36951808,1.1090004665380406,0.15209004373600565,1,2048,0,1,1,164.45649439999994,0.7311616226145363,0.04978923130678205,1838.5824948737868
2048,2048,215.17243929970218,1502304,100280,52219904,37518280,1.0388595082644896,0.13330304859096723,1,2048,0,1,1,99.9202149,0.7647786638049532,0.043426157555579145,1838.5824948737868
2048,256,2897.422518524275,1912780,81355,36225024,32677656,0.32178949585329325,0.14643660962378272,0.38051064402030943,2048,0,1,1,4831.881903349999,0.9205710592486799,0.01290228038362326,1838.5824948737868
2048,512,1685.14967466869,1946128,135039,36487168,33923000,0.48868763244799635,0.25758464654853325,1,2048,0,1,1,1493.6505534210526,0.9293889063663682,0.014310207425996865,1838.5824948737868
256,1024,773.0886549706786,1483950,123795,42127360,37059816,0.7205091699785402,0.1666999025946138,1,256,0,1,1,499.0678266,0.845692805183767,0.026477051640509387,1838.5824948737868
256,128,1699.6431904922651,1885406,164011,35700736,32595448,0.37463935344359367,0.09775281793899047,0.2971965519500393,256,0,1,1,6186.419333636362,0.921313745137735,0.00489074045342791,1838.5824948737868
256,1536,353.74616917179526,1561031,93892,52219904,40272128,0.9556259438532704,0.17094510532247295,1,256,0,1,1,195.49650860000003,0.7345142347739768,0.051257824161501,1838.5824948737868
256,2048,203.4493115478918,1420512,107308,53006336,43328336,1.027208861426273,0.17369137612071484,1,256,0,1,1,84.11288235,0.7387957287206585,0.05137878121960017,1838.5824948737868
256,256,3249.036689382437,2164815,133482,36487168,33666008,0.24757854775675803,0.05124048123531544,0.2514288005663173,256,0,1,1,7312.537349470587,0.9216918492712823,0.01075829697638419,1838.5824948737868
256,512,1980.2918736898037,1946067,146644,36749312,33886240,0.41162257055604606,0.12640250392863916,0.988987803164756,256,0,1,1,1859.0547719499998,0.9232200469236164,0.02835416361766579,1838.5824948737868
512,1024,819.0622269858476,1611029,180417,43175936,34252792,0.7698400113999272,0.1784126316242567,1,512,0,1,1,524.3828967000001,0.8429968556511254,0.03187461368714528,1838.5824948737868
512,128,1134.6156515253494,1917808,210504,35962880,33654800,0.3815223344479464,0.0683614974377091,0.31937592404732706,512,0,1,1,5756.7974178333325,0.9184303379507736,0.008544089069625078,1838.5824948737868
512,1536,338.61715222298426,1470775,150813,52219904,39664120,0.9765796233283348,0.18061273893952673,1,512,0,1,1,187.86064304999996,0.7467782112619952,0.0538590528585393,1838.5824948737868
512,2048,216.2389241817352,1522787,108665,52482048,35084464,1.0732572479007199,0.13251746006723772,1,512,0,1,1,105.23283495000003,0.723183489292239,0.05991020623339113,1838.5824948737868
512,256,3576.1105018199246,1824269,169269,35700736,32532312,0.24520268702279782,0.030558094018173713,0.3005715809915732,512,0,1,1,6116.953867722222,0.9229159444495948,0.011041016643714176,1838.5824948737868
512,512,1204.5437504342456,1838359,187464,35962880,32731024,0.5707306089985138,0.26652113132971894,1,512,0,1,1,1150.6995587,0.9234669484287054,0.010113173862899928,1838.5824948737868
