cpu,memory,duration_std,userDiff,sysDiff,heapTotal,heapUsed,avg_cpu_util,cpu_util_std,slo_preservation,total_cpu_shares,cpu_shares_others,num_containers,arrival_rate,latency,memory_util,memory_util_std,slo_duration
1024,1024,91.11135925112193,224714,31440,38383616,30402096,1.0198493992810491,0.1720517028097497,1,1024,0,1,1,181.7967501,0.7788000212305671,0.09351903164721569,190.78366322033904
1024,128,206.03868655480485,238496,52588,33005568,29990432,0.8403084201771946,0.23577122572452724,0.5962440100503087,1024,0,1,1,319.97581527777777,0.8781751597911106,0.06255206258209517,190.78366322033904
1024,1536,43.71149933561443,169787,32931,109273088,94042200,1.207429667100617,0.22815921680903498,1,1024,0,1,1,119.8799655,0.7200224233955255,0.10281325165349997,190.78366322033904
1024,2048,22.428643565437326,228117,37303,49786880,29956768,1.6409005786554989,0.2133643843480419,1,1024,0,1,1,73.37148405000002,0.7192832315109066,0.1009130602027175,190.78366322033904
1024,256,48.84569545493539,261626,42277,33267712,29776344,1.0280416997802582,0.14475214101185832,0.8755937482075582,1024,0,1,1,217.89061834999998,0.8541539221753839,0.04653969725330096,190.78366322033904
1024,512,64.46535078253167,212159,55960,33005568,30142112,0.9709138880467,0.13877628567450884,0.805341092390691,1024,0,1,1,236.89796165,0.8664522978279112,0.07708506500052525,190.78366322033904
128,1024,58.96177727646795,266995,29333,37859328,30948400,0.9752699515758658,0.17659555232083116,1,128,0,1,1,173.12173869999998,0.7929615440605077,0.08197858478926531,190.78366322033904
128,128,307.13048386198625,223845,53579,33267712,29608688,0.8481354040446459,0.3332074237322641,0.5004122762344975,128,0,1,1,381.25296336842104,0.851421611955803,0.08060808946737522,190.78366322033904
128,1536,46.945862380793166,283082,55289,51359744,30209856,1.3071197418146085,0.2392349319740898,1,128,0,1,1,109.50938475000001,0.7262559248746286,0.08380364251740885,190.78366322033904
128,2048,24.931553764533874,271270,31680,50835456,30263312,1.6218653262890226,0.23356556979109527,1,128,0,1,1,72.74348595000001,0.7336989326408676,0.08398011020158372,190.78366322033904
128,256,60.538329457660694,319178,41963,33529856,29830928,1.0565456635791752,0.14221540512911857,0.9968020862907365,128,0,1,1,191.39573025,0.8955787604688925,0.04904085829520982,190.78366322033904
128,512,77.1924882498007,283580,35871,32743424,29798144,0.8471461921931873,0.15555527184045928,0.6758898641889753,128,0,1,1,282.2703421499999,0.8967497454636286,0.03788080617030969,190.78366322033904
1536,1024,75.55251097319048,251011,43118,39170048,30047688,0.8293851681747565,0.15583430633652814,0.8018113911118389,1536,0,1,1,237.94082415789475,0.7765007176604689,0.09288008699867421,190.78366322033904
1536,128,142.5030192531855,266421,57886,33529856,29626064,0.9028258896774596,0.2416349489301699,0.7004822733614172,1536,0,1,1,272.3604443333333,0.8990468342771083,0.0619735340327426,190.78366322033904
1536,1536,42.98437963253822,203706,52688,37457920,15555000,1.2517195562257435,0.2407323651775075,1,1536,0,1,1,121.78444929999998,0.6895965271903786,0.12168736742748332,190.78366322033904
1536,2048,23.859744777481723,214944,45096,50049024,29914864,1.6282969100234943,0.1279531767335249,1,1536,0,1,1,74.37081275,0.6974937863504161,0.11915782353756807,190.78366322033904
1536,256,57.833349793476735,253062,22937,33267712,29626488,1.0123407020623518,0.19893193542003518,0.9641005103497733,1536,0,1,1,197.88773179999998,0.8851868153319448,0.050915620440183336,190.78366322033904
1536,512,65.42876962537582,249527,44783,33005568,29701080,0.987826884456408,0.2063404792191696,0.8436048851375384,1536,0,1,1,226.15286680000003,0.8841924268124235,0.06185158589020252,190.78366322033904
2048,1024,74.48730648280672,239622,34757,38907904,30904664,1.0026408613388322,0.20653997213627967,1,2048,0,1,1,175.99267635,0.8070333524916556,0.0832947359518908,190.78366322033904
2048,128,465.1358820748986,252389,42741,33005568,29668712,0.7381407469152909,0.2952004787951276,0.3917926293152194,2048,0,1,1,486.95061863157906,0.8867266988843077,0.04659553295174485,190.78366322033904
2048,1536,37.46305244632502,209408,33086,37720064,15522784,1.3995494884497122,0.24058177832562933,1,2048,0,1,1,94.50658349999999,0.725903686567135,0.12069545762791346,190.78366322033904
2048,2048,23.728165401126127,232734,34120,50311168,29955608,1.5882886150233728,0.21567630220990594,1,2048,0,1,1,72.24549144999999,0.7272160983009476,0.11058031826017231,190.78366322033904
2048,256,55.11508066058127,265344,44352,33267712,29742968,1.0557798114429544,0.1349412146797564,0.944355109080264,2048,0,1,1,202.02534129999998,0.8674101139919079,0.07175287000392475,190.78366322033904
2048,512,66.08215450628543,235641,38740,32481280,29613904,0.8682043374590067,0.13571063751036105,0.7320255201479166,2048,0,1,1,260.6243334,0.8968653611889336,0.0428419944482681,190.78366322033904
256,1024,88.26858770295742,226579,28535,38645760,30069952,0.7818650719174138,0.12327508326262275,0.7521515498678918,256,0,1,1,253.65056184999997,0.7822700355367187,0.09131596757201214,190.78366322033904
256,128,216.24708872964192,320685,27183,33529856,30285664,0.9946566846708192,0.3306123043290217,0.6486813101257485,256,0,1,1,294.11000477777776,0.8681992345111309,0.0713832512675658,190.78366322033904
256,1536,55.33989200589141,276121,47005,49786880,29995384,1.3652735266060927,0.29396454291321916,1,256,0,1,1,117.18230530000001,0.7409840575083664,0.11333889168074283,190.78366322033904
256,2048,29.335071944065977,275921,37539,50573312,31346496,1.5908016785722663,0.2810401812737165,1,256,0,1,1,77.9206139,0.7429672796145826,0.10258830493516655,190.78366322033904
256,256,31.597844229768246,263606,36847,32743424,30182352,1.086239979398083,0.1556455849111282,1,256,0,1,1,177.8119422,0.862536891764465,0.060672096821662434,190.78366322033904
256,512,63.43393528889659,244948,19802,33005568,29933600,0.9388500277266463,0.18035204656231354,0.8140652257943707,256,0,1,1,234.35918544999998,0.897579330102003,0.04563352488945275,190.78366322033904
512,1024,70.84753641763051,259994,29130,40218624,30767024,1.0802403129535048,0.1791746501163463,1,512,0,1,1,170.94955929999998,0.788634047307474,0.07945684426700114,190.78366322033904
512,128,216.83030827528447,223678,40971,33005568,29653080,0.6926830436113337,0.17195032879803615,0.5452272318364323,512,0,1,1,349.91587375,0.8841905764866558,0.051921156221236955,190.78366322033904
512,1536,46.411914468520834,222146,46377,42708992,31190592,1.3782030274839188,0.2364029165101809,1,512,0,1,1,104.76793640000001,0.7222674727334388,0.113437850518719,190.78366322033904
512,2048,27.127669099532685,242876,31830,93544448,77231048,1.612235134051407,0.15648071001452718,1,512,0,1,1,74.44423689999999,0.7681652796280076,0.10137547813092936,190.78366322033904
512,256,56.740289933047826,230015,48776,33005568,29621920,0.9960643833970526,0.14043282922559075,0.868770239613165,512,0,1,1,219.6019782,0.8748459833983461,0.04282997880955494,190.78366322033904
512,512,48.20058766743675,311259,47667,22249472,15283984,0.9646613017760879,0.14846639259241318,0.842594088698796,512,0,1,1,226.42416529999997,0.8661731684838854,0.07568179055556401,190.78366322033904
