cpu,memory,duration_std,userDiff,sysDiff,heapTotal,heapUsed,avg_cpu_util,cpu_util_std,slo_preservation,total_cpu_shares,cpu_shares_others,num_containers,arrival_rate,latency,memory_util,memory_util_std,slo_duration
1024,1024,189.79189518613939,262082,57058,39956480,30172528,0.47347750043350023,0.22498043387595115,1,1024,0,1,1,461.82291404999995,0.781184854430133,0.10213998527135622,640.4866471834868
1024,128,587.2996415494518,268311,67063,32743424,30250176,0.30171803070549996,0.2597552765780675,0.42720853061909947,1024,0,1,1,1499.2365584444444,0.9134169657140612,0.009817803149098523,640.4866471834868
1024,1536,142.08119594198538,240189,43055,42708992,31258864,0.4882268469155018,0.2560551045327577,1,1024,0,1,1,350.84286280000003,0.7484036457058842,0.11214997309345467,640.4866471834868
1024,2048,141.98808516481336,242489,15827,50311168,29950536,0.4766173266330993,0.2417682923741623,1,1024,0,1,1,311.87543465000005,0.7436004320121908,0.09979267657769487,640.4866471834868
1024,256,347.43516184200587,310338,45755,32743424,30309520,0.3029637503663405,0.15896378746029793,0.6110715947456875,1024,0,1,1,1048.13683485,0.8983269839258613,0.05283040649145334,640.4866471834868
1024,512,143.99102471406636,261035,40107,32481280,29792048,0.40768600451367415,0.10158920742617547,0.9955992471733778,1024,0,1,1,643.3177295,0.8851110989161987,0.05382707708182867,640.4866471834868
128,1024,135.48200053007884,280212,44489,39694336,30320584,0.486127945134086,0.23470294359912525,1,128,0,1,1,428.18588600000004,0.7934201306026955,0.10771653053984309,640.4866471834868
128,128,1004.4553304897519,246282,55707,33005568,29692920,0.15573511731428455,0.10703754487624526,0.25872987857238156,128,0,1,1,2475.5032187142856,0.9072499055725378,0.013045481058168553,640.4866471834868
128,1536,149.80021601348838,236238,41242,50311168,29890792,0.37014204957741126,0.1851464194279296,1,128,0,1,1,432.87593685,0.6981582911840452,0.12573991538959212,640.4866471834868
128,2048,156.44524376260387,218902,31676,93294592,77387168,0.42317003585305757,0.2202198921243477,1,128,0,1,1,328.1197256000001,0.7753459897623011,0.0938796811634173,640.4866471834868
128,256,286.15745189876714,354392,20383,32481280,29707152,0.2755264554214733,0.0653184649661406,0.5729452645826726,128,0,1,1,1117.8845288999999,0.915651539806275,0.01325619269837007,640.4866471834868
128,512,224.40612215402433,307032,22193,32481280,29737480,0.42754946767390434,0.1159809964746624,0.9911967784196396,128,0,1,1,646.1750695000001,0.8690449101979034,0.06292373311946992,640.4866471834868
1536,1024,185.77497442961266,233385,32038,38121472,30065456,0.4969098380346744,0.22976603922409244,1,1536,0,1,1,457.7477688000001,0.7970323545639109,0.07424555560160806,640.4866471834868
1536,128,308.5477619511781,284152,63833,32481280,29714080,0.21851550428531752,0.04221055494552691,0.4132031439351491,1536,0,1,1,1550.0526958333332,0.913139388586817,0.009347738080983471,640.4866471834868
1536,1536,174.88000762174892,243360,32796,50311168,29850112,0.43272833460557747,0.2507069984921427,1,1536,0,1,1,414.61358575,0.7430283646640692,0.12155567882885986,640.4866471834868
1536,2048,130.0920410382319,286371,40475,50311168,31180544,0.38930410080714556,0.18259444161476893,1,1536,0,1,1,380.79718885,0.7469639995391439,0.14004452171135934,640.4866471834868
1536,256,266.7357560857505,263594,46928,33005568,29754488,0.3157287087267936,0.10165813907189533,0.6701601573584369,1536,0,1,1,955.72176315,0.9102389468508167,0.016574666375240063,640.4866471834868
1536,512,142.23101107490237,224458,47194,32743424,29912968,0.36465739029607724,0.07400139224403479,0.9236340148197694,1536,0,1,1,693.4420310500001,0.8684537386534412,0.07407583438985042,640.4866471834868
2048,1024,188.531214834891,259715,32809,38907904,30306512,0.5564896291436795,0.2112142816758166,1,2048,0,1,1,403.10267425,0.7860510953009746,0.10294609192583948,640.4866471834868
2048,128,719.3996280994569,280616,61492,32481280,29780728,0.2564927422619756,0.13844021966452344,0.4043037866171822,2048,0,1,1,1584.17177475,0.9124495237810057,0.012722074412227372,640.4866471834868
2048,1536,172.96675844845146,313790,35222,49786880,29900032,0.4995790915218773,0.188906300711101,1,2048,0,1,1,373.0281927,0.7344902320980831,0.12869583132796045,640.4866471834868
2048,2048,146.40492573608097,254009,50379,50311168,31211112,0.44724960786369367,0.27978069171082554,1,2048,0,1,1,389.5142782,0.7107335774387936,0.11991254847478594,640.4866471834868
2048,256,332.9367922038305,241703,38843,32481280,29680248,0.34920977138508447,0.1596552252626346,0.6938823684433916,2048,0,1,1,923.04787715,0.9031449463873003,0.027537238632667955,640.4866471834868
2048,512,159.99191640926668,253116,45403,32481280,29624784,0.3897096680898684,0.0851540565887407,0.9040939636225842,2048,0,1,1,708.4292926999999,0.8715018400716075,0.06302459786077634,640.4866471834868
256,1024,153.89039824535243,245025,28425,37859328,30409816,0.5291294819101595,0.19135401182462078,1,256,0,1,1,406.58578530000005,0.7920116167619017,0.10628614570317382,640.4866471834868
256,128,1310.612782124392,230828,51157,32481280,29598528,0.2228715450690684,0.13272721207978413,0.29924713148882615,256,0,1,1,2140.3267727142857,0.9090536488338309,0.009352992112950946,640.4866471834868
256,1536,157.02894345090127,303676,15072,72196096,55198160,0.4308681973067657,0.14377084158555228,1,256,0,1,1,390.0784963,0.6839704102668972,0.17543730382429346,640.4866471834868
256,2048,111.21062434268804,231032,40992,50573312,30072080,0.5165430336972827,0.21525145522810082,1,256,0,1,1,254.35176375,0.7451120315809353,0.09780014257676482,640.4866471834868
256,256,278.35482741481945,290152,53919,32481280,29755256,0.2769683106994267,0.06033611171997399,0.5875248923287971,256,0,1,1,1090.14384845,0.897997947931306,0.050444892843747834,640.4866471834868
256,512,162.3611869171613,258509,41615,32743424,29649128,0.40636862027900217,0.09009559211246367,0.9743539937304228,256,0,1,1,657.3449191000001,0.8793553516925995,0.06307065089886994,640.4866471834868
512,1024,146.24441049426486,240845,28279,40742912,30076952,0.4091293528930239,0.14548740765273274,1,512,0,1,1,484.73698195,0.7826195730669074,0.12625235740266014,640.4866471834868
512,128,535.58526920341,306569,45739,33005568,30269456,0.1743184912517059,0.03365600003030874,0.3308237622868378,512,0,1,1,1936.0357997142855,0.9118517053525974,0.009626203107936222,640.4866471834868
512,1536,139.08827799413424,263110,30199,72458240,55090488,0.4189348167665591,0.1889403002874512,1,512,0,1,1,401.54828335,0.7330164257596717,0.1402964154049739,640.4866471834868
512,2048,139.01561418048223,220379,66060,50573312,29970280,0.43006512766986216,0.20794011760589282,1,512,0,1,1,384.41719255000004,0.735498316819227,0.11001876293049341,640.4866471834868
512,256,448.6319656078082,268006,27021,32481280,29637824,0.2877951214871771,0.15836689715158977,0.5381075839497078,512,0,1,1,1190.2576107222221,0.9166515359547353,0.008518173902515691,640.4866471834868
512,512,185.22407585600922,291254,34073,32743424,29957592,0.3523869636908874,0.10101768236246222,0.8434383095544511,512,0,1,1,759.3758072500001,0.8736884988330829,0.06745434796987888,640.4866471834868
