cpu,memory,duration_std,userDiff,sysDiff,heapTotal,heapUsed,avg_cpu_util,cpu_util_std,slo_preservation,total_cpu_shares,cpu_shares_others,num_containers,arrival_rate,latency,memory_util,memory_util_std,slo_duration
1024,1024,95.118772470141,328434,75161,39170048,29764192,0.9225915308489343,0.1421433031161819,0.869839335733261,1024,0,1,1,773.5365706347953,0.7478772748288622,0.1231436138667747,672.8525367663551
1024,128,920.5797676473768,447538,122278,32481280,29717848,0.621743613669771,0.5169302708460506,0.23392884940789355,1024,0,1,1,2876.3127697564387,0.9170866029104326,0.0093016765099907,672.8525367663551
1024,1536,73.05137316179722,280990,42721,44806144,30284800,1.0369547298426691,0.1673446655067362,1.0,1024,0,1,1,553.7841857765136,0.6799534215041413,0.1371008568873945,672.8525367663551
1024,2048,65.04007992438424,232661,60025,45592576,30599936,1.1034846089046515,0.1763779852117204,1.0,1024,0,1,1,427.1548686209575,0.6913974380173402,0.1275067664814879,672.8525367663551
1024,256,410.7822500825378,337348,64271,33005568,30150496,0.6033458449029381,0.1234464108052119,0.4302615372148207,1024,0,1,1,1563.8221838788572,0.9141732538858957,0.0116237906052366,672.8525367663551
1024,512,209.00799414453755,416115,84907,31956992,29747776,0.6332504591402145,0.0759130454847689,0.5092579386638156,1024,0,1,1,1321.2411347612506,0.9154244900190768,0.0166533028606721,672.8525367663551
128,1024,122.3987665487278,370121,94581,27627520,15283760,0.8680499167999713,0.1013736071545167,0.9408171204032959,128,0,1,1,715.1788824569077,0.7890528679630575,0.095634945639884,672.8525367663551
128,128,1243.856003257507,339946,51540,32481280,29748536,0.5517695363282902,0.2126485632583826,0.27388775007212296,128,0,1,1,2456.67262076954,0.910047198065162,0.0073381712131435,672.8525367663551
128,1536,87.11575950861621,289142,38074,44019712,30292512,0.9952006870437088,0.1301308488404245,1.0,128,0,1,1,537.0515863633693,0.6872813339706121,0.115948935362596,672.8525367663551
128,2048,37.74052542293051,197479,37810,47681536,36174656,1.1531423230114932,0.2304446222282366,1.0,128,0,1,1,415.02690091899575,0.7420154864017182,0.0896899492891502,672.8525367663551
128,256,390.9450824301947,375521,49054,33005568,29675720,0.4369932721797935,0.0609619909389068,0.33770803776115627,128,0,1,1,1992.4090087610812,0.9197997781919164,0.00952397889596,672.8525367663551
128,512,254.92249910382375,321496,63388,32481280,29615064,0.6215078211016706,0.0813556803568559,0.5041123816851433,128,0,1,1,1334.7272576744663,0.8938850601648133,0.0653518389346476,672.8525367663551
1536,1024,109.62262206212364,357276,60342,39170048,29775744,0.9146744794281115,0.1258998791798415,0.9546508564719326,1536,0,1,1,704.8153072977811,0.7787372177867561,0.0920007722385224,672.8525367663551
1536,128,1079.221822995538,474974,104818,32219136,29629392,0.6462334101445009,0.4525183021208757,0.2309224953201363,1536,0,1,1,2913.7591633658512,0.9192010765117088,0.0094143402754534,672.8525367663551
1536,1536,97.05396657869208,314086,43957,42446848,30611376,1.0203746382096448,0.1222647783101803,1.0,1536,0,1,1,563.1462205018541,0.6996783920547408,0.0978072019179041,672.8525367663551
1536,2048,61.98257963804364,385367,65552,42971136,31158928,1.125645820530649,0.2294256520971641,1.0,1536,0,1,1,431.88877204107536,0.7430729303511845,0.0850560109616248,672.8525367663551
1536,256,323.4441319165861,407254,76465,32219136,29692584,0.6138283703751692,0.1368321164655534,0.4242541641606531,1536,0,1,1,1585.9656630537274,0.91905173533284,0.0115675481027563,672.8525367663551
1536,512,297.03312345035044,433126,90932,32743424,29589880,0.6670713610798289,0.2209577184774267,0.4877039516788836,1536,0,1,1,1379.6331451695473,0.9162594926440852,0.0118131912167552,672.8525367663551
2048,1024,107.91861815442444,359643,53259,39694336,29844496,0.8797906808434476,0.1322320445892045,0.9232773688488785,2048,0,1,1,728.765330406888,0.7891093576539612,0.0654658674532467,672.8525367663551
2048,128,1186.2603679436645,436041,71625,32219136,29645544,0.555504486315956,0.3275573203119146,0.2531186780996772,2048,0,1,1,2658.2492521606337,0.9150415007414606,0.0067995070084271,672.8525367663551
2048,1536,80.58740335338427,288374,62721,44544000,30609840,1.030971692453427,0.142744641198346,1.0,2048,0,1,1,567.3336167979566,0.620218576822728,0.1295265037780149,672.8525367663551
2048,2048,64.34616637580167,340643,67378,48214016,29856336,1.153346563037384,0.1277580392738045,1.0,2048,0,1,1,456.9369475282508,0.7149473978225706,0.0736991303266064,672.8525367663551
2048,256,507.1559464008338,380192,33168,32743424,29776152,0.7003966308470926,0.2826492026448052,0.4419389691654332,2048,0,1,1,1522.5010322963462,0.9159672522330526,0.0094958778167287,672.8525367663551
2048,512,332.431572629006,360373,37984,32481280,29800136,0.733551122137911,0.1655570775285656,0.5214604132061369,2048,0,1,1,1290.3233298754203,0.9102634744610788,0.0217083372678971,672.8525367663551
256,1024,132.54652861751353,392653,76292,54386688,45888504,0.8592870683187512,0.1186826183316306,0.8347341472457113,256,0,1,1,806.0680624921112,0.7963620604703909,0.1015622892256432,672.8525367663551
256,128,957.908738471768,456207,103703,32219136,29713208,0.44327119937655435,0.1465447197365088,0.2419161465606544,256,0,1,1,2781.3461248137655,0.9191963328090438,0.0113901877399773,672.8525367663551
256,1536,57.8573418660007,305354,60024,44806144,31184672,1.1051232394200443,0.2173225672259843,1.0,256,0,1,1,421.57042938013933,0.7006078769813977,0.1286003898963592,672.8525367663551
256,2048,33.84895855564004,206419,67413,36671488,15626496,1.2447390685620303,0.1627697325285198,1.0,256,0,1,1,360.3188338921126,0.6738915592486808,0.0995625616495877,672.8525367663551
256,256,300.6314575727874,297368,52192,20152320,15284520,0.4903550953663238,0.0769392769500835,0.3686974119758907,256,0,1,1,1824.9451037924653,0.9081255672348708,0.0387426500676208,672.8525367663551
256,512,301.37448948633147,401275,32383,32481280,29722136,0.6459265053380066,0.1376118605006892,0.5165809278137062,256,0,1,1,1302.511379221892,0.9178934803290794,0.0083112526706279,672.8525367663551
512,1024,98.70237372799808,375721,106199,38383616,31169656,0.9013321028467437,0.1423614248478319,0.8631008993955875,512,0,1,1,779.5757567134276,0.7866974737391708,0.0986383257610113,672.8525367663551
512,128,719.7047689076629,462562,101223,31956992,29656760,0.4396865333282288,0.1012348012659084,0.2711582165474748,512,0,1,1,2481.401984912934,0.901076144423293,0.048406324528572,672.8525367663551
512,1536,61.22094007454783,302986,71783,36933632,15583120,1.1183097973301204,0.2053932326823217,1.0,512,0,1,1,436.3534250862592,0.751449491791522,0.1189563876225703,672.8525367663551
512,2048,39.616834391069496,258790,50700,46116864,31746632,1.2422296050473605,0.1820126369585635,1.0,512,0,1,1,327.406562532053,0.676704101590522,0.1265264282968634,672.8525367663551
512,256,566.1735291266,353520,37813,32743424,30056256,0.5703807723989446,0.1762188805377121,0.3545346243222001,512,0,1,1,1897.8471793910558,0.9155840100436898,0.0111930558076639,672.8525367663551
512,512,536.8378872919931,431833,54704,31956992,29628856,0.603386014687056,0.1911372398371791,0.40174918548258887,512,0,1,1,1674.8074696358417,0.914188016360824,0.017074959389284,672.8525367663551
