cpu,memory,duration_std,userDiff,sysDiff,heapTotal,heapUsed,avg_cpu_util,cpu_util_std,slo_preservation,total_cpu_shares,cpu_shares_others,num_containers,arrival_rate,latency,memory_util,memory_util_std,slo_duration
1024,1024,95.118772470141,328434,75161,39170048,29764192,0.8773170192361058,0.1421433031161819,1.0,1024,0,1,1,488.0732550869591,0.7478772748288622,0.1231436138667747,672.8525367663551
1024,128,920.5797676473768,447538,122278,32481280,29717848,0.4965325433163134,0.5169302708460506,0.3113643737756004,1024,0,1,1,2160.981131551288,0.9170866029104326,0.0093016765099907,672.8525367663551
1024,1536,73.05137316179722,280990,42721,44806144,30284800,1.063146935020499,0.1673446655067362,1.0,1024,0,1,1,324.0845334753027,0.6799534215041413,0.1371008568873945,672.8525367663551
1024,2048,65.04007992438424,232661,60025,45592576,30599936,1.1852550454590476,0.1763779852117204,1.0,1024,0,1,1,238.61133936419145,0.6913974380173402,0.1275067664814879,672.8525367663551
1024,256,410.7822500825378,337348,64271,33005568,30150496,0.4771659424161556,0.1234464108052119,0.5671323051418432,1024,0,1,1,1186.4119371547185,0.9141732538858957,0.0116237906052366,672.8525367663551
1024,512,209.00799414453755,416115,84907,31956992,29747776,0.5088393852090245,0.0759130454847689,0.6820116029454898,1024,0,1,1,986.5705126722504,0.9154244900190768,0.0166533028606721,672.8525367663551
128,1024,122.3987665487278,370121,94581,27627520,15283760,0.7978644007583664,0.1013736071545167,1.0,128,0,1,1,466.8544946913816,0.7890528679630575,0.095634945639884,672.8525367663551
128,128,1243.856003257507,339946,51540,32481280,29748536,0.42482361297882903,0.2126485632583826,0.35145707242964414,128,0,1,1,1914.4657756205745,0.910047198065162,0.0073381712131435,672.8525367663551
128,1536,87.11575950861621,289142,38074,44019712,30292512,0.9920266561212361,0.1301308488404245,1.0,128,0,1,1,323.2619432726738,0.6872813339706121,0.115948935362596,672.8525367663551
128,2048,37.74052542293051,197479,37810,47681536,36174656,1.284258547929708,0.2304446222282366,1.0,128,0,1,1,223.59286706379916,0.7420154864017182,0.0896899492891502,672.8525367663551
128,256,390.9450824301947,375521,49054,33005568,29675720,0.3177352256927865,0.0609619909389068,0.4092425308253623,128,0,1,1,1644.1412758574795,0.9197997781919164,0.00952397889596,672.8525367663551
128,512,254.92249910382375,321496,63388,32481280,29615064,0.4962819340558794,0.0813556803568559,0.6709002935279557,128,0,1,1,1002.9098858015601,0.8938850601648133,0.0653518389346476,672.8525367663551
1536,1024,109.62262206212364,357276,60342,39170048,29775744,0.8654447943582144,0.1258998791798415,1.0,1536,0,1,1,446.9446775795562,0.7787372177867561,0.0920007722385224,672.8525367663551
1536,128,1079.221822995538,474974,104818,32219136,29629392,0.5229083966241468,0.4525183021208757,0.3114233698350027,1536,0,1,1,2160.5717551731705,0.9192010765117088,0.0094143402754534,672.8525367663551
1536,1536,97.05396657869208,314086,43957,42446848,30611376,1.0344253328170034,0.1222647783101803,1.0,1536,0,1,1,333.29817210037083,0.6996783920547408,0.0978072019179041,672.8525367663551
1536,2048,61.98257963804364,385367,65552,42971136,31158928,1.228554295551315,0.2294256520971641,1.0,1536,0,1,1,237.42725556821506,0.7430729303511845,0.0850560109616248,672.8525367663551
1536,256,323.4441319165861,407254,76465,32219136,29692584,0.4881541748912289,0.1368321164655534,0.5623217917939941,1536,0,1,1,1196.5613756844298,0.91905173533284,0.0115675481027563,672.8525367663551
1536,512,297.03312345035044,433126,90932,32743424,29589880,0.5459061637059849,0.2209577184774267,0.6651976805357291,1536,0,1,1,1011.5076411939094,0.9162594926440852,0.0118131912167552,672.8525367663551
2048,1024,107.91861815442444,359643,53259,39694336,29844496,0.8145157577245469,0.1322320445892045,1.0,2048,0,1,1,472.30095192137753,0.7891093576539612,0.0654658674532467,672.8525367663551
2048,128,1186.2603679436645,436041,71625,32219136,29645544,0.42852077755388823,0.3275573203119146,0.32542975326813456,2048,0,1,1,2067.581498032127,0.9150415007414606,0.0067995070084271,672.8525367663551
2048,1536,80.58740335338427,288374,62721,44544000,30609840,1.0527077870016557,0.142744641198346,1.0,2048,0,1,1,333.3716571595913,0.620218576822728,0.1295265037780149,672.8525367663551
2048,2048,64.34616637580167,340643,67378,48214016,29856336,1.2846808221558068,0.1277580392738045,1.0,2048,0,1,1,246.13428434565017,0.7149473978225706,0.0736991303266064,672.8525367663551
2048,256,507.1559464008338,380192,33168,32743424,29776152,0.5837924979909129,0.2826492026448052,0.6139394056778447,2048,0,1,1,1095.9591949037138,0.9159672522330526,0.0094958778167287,672.8525367663551
2048,512,332.431572629006,360373,37984,32481280,29800136,0.6229032138980315,0.1655570775285656,0.7380066580772691,2048,0,1,1,911.716079255084,0.9102634744610788,0.0217083372678971,672.8525367663551
256,1024,132.54652861751353,392653,76292,54386688,45888504,0.7855917861007846,0.1186826183316306,1.0,256,0,1,1,529.0105175784223,0.7963620604703909,0.1015622892256432,672.8525367663551
256,128,957.908738471768,456207,103703,32219136,29713208,0.3232836525959484,0.1465447197365088,0.29405450354869783,256,0,1,1,2288.1898717627537,0.9191963328090438,0.0113901877399773,672.8525367663551
256,1536,57.8573418660007,305354,60024,44806144,31184672,1.1884095469773557,0.2173225672259843,1.0,256,0,1,1,235.21551795602787,0.7006078769813977,0.1286003898963592,672.8525367663551
256,2048,33.84895855564004,206419,67413,36671488,15626496,1.4874266824381852,0.1627697325285198,1.0,256,0,1,1,180.9176620184225,0.6738915592486808,0.0995625616495877,672.8525367663551
256,256,300.6314575727874,297368,52192,20152320,15284520,0.366001297718594,0.0769392769500835,0.4586598994749994,256,0,1,1,1466.9966516290813,0.9081255672348708,0.0387426500676208,672.8525367663551
256,512,301.37448948633147,401275,32383,32481280,29722136,0.5225735445744254,0.1376118605006892,0.6965486121518089,256,0,1,1,965.9807298843784,0.9178934803290794,0.0083112526706279,672.8525367663551
512,1024,98.70237372799808,375721,106199,38383616,31169656,0.845702948484557,0.1423614248478319,1.0,512,0,1,1,498.5130942626855,0.7866974737391708,0.0986383257610113,672.8525367663551
512,128,719.7047689076629,462562,101223,31956992,29656760,0.32011138628227637,0.1012348012659084,0.3290254382813694,512,0,1,1,2044.9863702968723,0.901076144423293,0.048406324528572,672.8525367663551
512,1536,61.22094007454783,302986,71783,36933632,15583120,1.2140671568443981,0.2053932326823217,1.0,512,0,1,1,241.1621009372518,0.751449491791522,0.1189563876225703,672.8525367663551
512,2048,39.616834391069496,258790,50700,46116864,31746632,1.4814662636746223,0.1820126369585635,1.0,512,0,1,1,164.72091258641052,0.676704101590522,0.1265264282968634,672.8525367663551
512,256,566.1735291266,353520,37813,32743424,30056256,0.4433885952007649,0.1762188805377121,0.4593323636743677,512,0,1,1,1464.848963360564,0.9155840100436898,0.0111930558076639,672.8525367663551
512,512,536.8378872919931,431833,54704,31956992,29628856,0.4772078182694856,0.1911372398371791,0.5295610870130484,512,0,1,1,1270.5853078471682,0.914188016360824,0.017074959389284,672.8525367663551
