cpu,memory,duration_std,userDiff,sysDiff,heapTotal,heapUsed,avg_cpu_util,cpu_util_std,slo_preservation,total_cpu_shares,cpu_shares_others,num_containers,arrival_rate,latency,memory_util,memory_util_std,slo_duration
1024,1024,317.68759821254133,1467367,97571,43438080,34536280,1.0695149033015283,0.3876664927226012,1.0,1024,0,1,1,342.3950870684838,0.8158884966950891,0.0412542855193832,872.4688282110098
1024,128,2731.79692127076,1866953,150386,35700736,32336880,0.7015999301897392,0.3228683668023073,0.12546420320170273,1024,0,1,1,6953.926346691764,0.9217799469780826,0.0100961346190387,872.4688282110098
1024,1536,186.76288685963672,88300,16063,53268480,35399352,1.1237894713376106,0.3569175118166858,1.0,1024,0,1,1,171.0940679163684,0.7251903791349917,0.0619419690874126,872.4688282110098
1024,2048,188.62743555484485,1323794,104941,52482048,39579360,1.0440891922042197,0.140952824058387,1.0,1024,0,1,1,194.54992911821006,0.7525262646841978,0.0442323928260571,872.4688282110098
1024,256,1992.310161162226,1731724,153703,35962880,32713632,0.6164995222584974,0.0942759932266062,0.284659448503728,1024,0,1,1,3064.95650433182,0.9237049083321264,0.0155576818263327,872.4688282110098
1024,512,809.9663697105287,1927355,89886,36487168,33748352,0.8277819844484193,0.2026309229312803,0.9361581404365651,1024,0,1,1,931.9673573571079,0.9353341916615971,0.0110476068398731,872.4688282110098
128,1024,330.03974438603666,66402,566,43700224,37231728,1.0293473666895328,0.145014401874431,1.0,128,0,1,1,339.86068133859834,0.8354103608478558,0.0243881414263834,872.4688282110098
128,128,3040.264357386671,1979570,169482,36487168,33402240,0.6235647231175633,0.227475464191362,0.0964082485240848,128,0,1,1,9049.732170925694,0.9171294864702372,0.0086017157116608,872.4688282110098
128,1536,183.8879539516674,146203,14022,51433472,34215728,1.1005327790851638,0.3326898445772741,1.0,128,0,1,1,179.45827724085933,0.7236494216819971,0.0370962689881887,872.4688282110098
128,2048,220.30145658010403,68826,3614,52744192,36585976,1.0333006500863726,0.2308179170111448,1.0,128,0,1,1,204.62120629094628,0.7097284737439729,0.0443723717041393,872.4688282110098
128,256,2045.364290033456,1779166,152331,35962880,32644752,0.5845626870349535,0.0754144979058419,0.2912616153787225,128,0,1,1,2995.4816637151225,0.9200538048447828,0.0093560739635109,872.4688282110098
128,512,887.8318466454347,1721586,145469,35700736,32566624,0.833019903642812,0.1764398098482767,0.8807287019072593,128,0,1,1,990.6215459103782,0.9247137273997752,0.0222086596603653,872.4688282110098
1536,1024,335.0647031782166,1426140,102983,43438080,35486032,1.0145198546646415,0.1840379602898218,1.0,1536,0,1,1,352.778347737988,0.8270580266341737,0.0436094868175481,872.4688282110098
1536,128,1238.5914847844058,1858557,208386,36487168,33399360,0.7539121121411602,0.2035215754632169,0.13829326833044253,1536,0,1,1,6308.830782177364,0.9224460534366182,0.0057779791211407,872.4688282110098
1536,1536,187.11521894553533,1309815,99968,52744192,38294792,1.0571226257657211,0.1640029407759342,1.0,1536,0,1,1,196.33584786180543,0.741312940199397,0.0338460450464438,872.4688282110098
1536,2048,190.598052110985,1349552,126866,52482048,36167696,1.0295971894590734,0.1848294227923826,1.0,1536,0,1,1,174.09519002302483,0.75924208852613,0.0511542907491392,872.4688282110098
1536,256,2288.3489188193084,1984828,159796,36749312,34315768,0.6251034508472898,0.1729740186117711,0.26586693108929144,1536,0,1,1,3281.59965075909,0.9274705100069166,0.0072998927069488,872.4688282110098
1536,512,857.4725389548257,67822,1063,36487168,33308656,0.8388241414212779,0.1894450157568345,0.9239365471738302,1536,0,1,1,944.2951800962396,0.9195077942488477,0.0321433844445236,872.4688282110098
2048,1024,381.6153424468582,1552150,139471,43175936,34051000,1.031983296714699,0.1580476163442824,1.0,2048,0,1,1,349.8170259363767,0.8272372663974219,0.0476092370475209,872.4688282110098
2048,128,1736.7994005352436,2021807,187177,36225024,33229704,0.7846023767723859,0.2815916514967465,0.26829792940365227,2048,0,1,1,3251.865678390633,0.9268296614717798,0.009800160855764,872.4688282110098
2048,1536,336.87756863425176,1417238,100547,51433472,35789440,1.0357880203431156,0.1726510085697943,1.0,2048,0,1,1,352.7153622598862,0.7526590618281279,0.0414965049999506,872.4688282110098
2048,2048,189.5173964968097,1323837,124058,52744192,38445360,1.0380942257632304,0.1858313764571847,1.0,2048,0,1,1,158.59107532756158,0.7287112161000663,0.0391739976123128,872.4688282110098
2048,256,2268.4003281310584,2070542,144418,36225024,34121776,0.5846508523253016,0.1147360708388482,0.3001750862217583,2048,0,1,1,2906.533114365334,0.9308539166444216,0.0122520888435789,872.4688282110098
2048,512,884.2887303036091,1771076,136971,35962880,32392392,0.8607061665391814,0.1781089360600297,0.9141872136317979,2048,0,1,1,954.3655995197602,0.927179512800588,0.013829837089406,872.4688282110098
256,1024,360.7637537815578,1510883,112054,42913792,33393056,1.0302787801568671,0.1546935013990528,1.0,256,0,1,1,367.8710551035554,0.8405943070086146,0.0329341376348063,872.4688282110098
256,128,4227.788094059678,2021442,160678,36225024,33224144,0.43375738000321357,0.3095001343380574,0.05499636426160392,256,0,1,1,15864.118290818178,0.9196798745147712,0.0094371555545805,872.4688282110098
256,1536,338.2890543655726,60547,3047,52219904,38310648,1.0378931659319874,0.1718271423943139,1.0,256,0,1,1,345.6300303927505,0.7458350156345179,0.0353472243262586,872.4688282110098
256,2048,202.22683100327828,1405926,111084,52744192,39956040,1.0320099130283815,0.1634032614881852,1.0,256,0,1,1,160.96802374027678,0.7423864175986421,0.0434451977055421,872.4688282110098
256,256,2131.164957535973,1728798,147669,35962880,32261928,0.5708080349619102,0.1278515781400576,0.31533464634764785,256,0,1,1,2766.802945113544,0.9246950152851584,0.0106792468185975,872.4688282110098
256,512,773.1993881729815,1749482,163985,35962880,32415456,0.8257563480549701,0.1871418101503169,0.9723556510313753,256,0,1,1,897.2733662683856,0.9257369946524812,0.0115882067482668,872.4688282110098
512,1024,367.7712324413548,1501413,114687,43700224,34720544,1.0396058740234244,0.2091751418095437,1.0,512,0,1,1,347.40869979887594,0.8250258503546515,0.0355466283444647,872.4688282110098
512,128,2500.5128153356327,1835365,247337,35962880,33197048,0.752399607558449,0.3263708704292667,0.14019405049360292,512,0,1,1,6223.294249215096,0.9238754615108864,0.0095405285973878,872.4688282110098
512,1536,189.78823607130388,1346972,92565,51433472,39329984,1.0493692237896262,0.1439166763383745,1.0,512,0,1,1,149.6636820103484,0.7647325369738556,0.0398623465482895,872.4688282110098
512,2048,221.01161897166892,220350,3416,54317056,38240840,1.0510872791527903,0.1962319270585332,1.0,512,0,1,1,187.2089371311143,0.7103002440976401,0.0224284382188711,872.4688282110098
512,256,2190.8492600878467,1801853,144403,35700736,32769904,0.6466988870235079,0.1901620437523009,0.29166259258134897,512,0,1,1,2991.3634809635914,0.9277566723938788,0.012295783759273,872.4688282110098
512,512,862.6629961956497,2009398,146122,36487168,33986384,0.866033309968389,0.1513608247149955,0.8767386140349096,512,0,1,1,995.1299215575217,0.917501925393188,0.0336530908289253,872.4688282110098
