cpu,memory,duration_std,userDiff,sysDiff,heapTotal,heapUsed,avg_cpu_util,cpu_util_std,slo_preservation,total_cpu_shares,cpu_shares_others,num_containers,arrival_rate,latency,memory_util,memory_util_std,slo_duration
1024,1024,317.68759821254133,1467367,97571,43438080,34536280,1.1494164786694157,0.3876664927226012,1,1024,0,1,1,159.2967628499999,0.8158884966950891,0.041254285519383246,872.4688282110098
1024,128,2731.79692127076,1866953,150386,35700736,32336880,0.5403572800887682,0.3228683668023073,0.19325969879227933,1024,0,1,1,4514.489226999999,0.9217799469780826,0.010096134619038768,872.4688282110098
1024,1536,186.76288685963672,88300,16063,53268480,35399352,1.2825564571258592,0.3569175118166858,1,1024,0,1,1,74.95721184999998,0.7251903791349917,0.0619419690874126,872.4688282110098
1024,2048,188.62743555484485,1323794,104941,52482048,39579360,1.0922454100208037,0.140952824058387,1,1024,0,1,1,92.98618995000001,0.7525262646841978,0.04423239282605713,872.4688282110098
1024,256,1992.310161162226,1731724,153703,35962880,32713632,0.4456084635871633,0.09427599322660624,0.41150610799704346,1024,0,1,1,2120.1843939999994,0.9237049083321263,0.015557681826332706,872.4688282110098
1024,512,809.9663697105287,1927355,89886,36487168,33748352,0.7061672602420387,0.20263092293128035,1,1024,0,1,1,546.2344631,0.9353341916615971,0.011047606839873148,872.4688282110098
128,1024,330.03974438603666,66402,566,43700224,37231728,1.0604693495539015,0.14501440187443104,1,128,0,1,1,164.94333265,0.8354103608478558,0.024388141426383486,872.4688282110098
128,128,3040.264357386671,1979570,169482,36487168,33402240,0.4530287283321518,0.22747546419136203,0.14008395475368102,128,0,1,1,6228.1853032,0.9171294864702372,0.008601715711660879,872.4688282110098
128,1536,183.8879539516674,146203,14022,51433472,34215728,1.2235385053452263,0.33268984457727413,1,128,0,1,1,80.70841895,0.7236494216819971,0.03709626898818875,872.4688282110098
128,2048,220.30145658010403,68826,3614,52744192,36585976,1.0688955673536928,0.23081791701114487,1,128,0,1,1,98.90359355,0.7097284737439729,0.04437237170413936,872.4688282110098
128,256,2045.3642900334557,1779166,152331,35962880,32644752,0.41299086980434074,0.07541449790584191,0.41155000325459845,128,0,1,1,2119.9582585625003,0.9200538048447827,0.009356073963510987,872.4688282110098
128,512,887.8318466454347,1721586,145469,35700736,32566624,0.7138252882316873,0.17643980984827676,1,128,0,1,1,578.0178135499999,0.9247137273997751,0.022208659660365393,872.4688282110098
1536,1024,335.0647031782166,1426140,102983,43438080,35486032,1.02946757422434,0.18403796028982183,1,1536,0,1,1,173.82802870000003,0.8270580266341737,0.04360948681754817,872.4688282110098
1536,128,1238.5914847844058,1858557,208386,36487168,33399360,0.6050232246752769,0.20352157546321692,0.22196390748661024,1536,0,1,1,3930.6788121111117,0.9224460534366182,0.005777979121140738,872.4688282110098
1536,1536,187.11521894553533,1309815,99968,52744192,38294792,1.121166606234689,0.1640029407759342,1,1536,0,1,1,92.56031434999998,0.741312940199397,0.03384604504644389,872.4688282110098
1536,2048,190.598052110985,1349552,126866,52482048,36167696,1.0609998016031614,0.1848294227923826,1,1536,0,1,1,84.47123085,0.75924208852613,0.05115429074913926,872.4688282110098
1536,256,2288.3489188193084,1984828,159796,36749312,34315768,0.454654898386729,0.17297401861177114,0.3867446336280848,1536,0,1,1,2255.9300177647056,0.9274705100069166,0.007299892706948818,872.4688282110098
1536,512,857.4725389548257,67822,1063,36487168,33308656,0.7223919918969016,0.18944501575683456,1,1536,0,1,1,548.24638325,0.9195077942488477,0.03214338444452365,872.4688282110098
2048,1024,381.6153424468582,1552150,139471,43175936,34051000,1.0660800513176116,0.1580476163442824,1,2048,0,1,1,169.3143621,0.8272372663974219,0.04760923704752091,872.4688282110098
2048,128,1736.7994005352436,2021807,187177,36225024,33229704,0.6455520084766935,0.2815916514967465,0.4414981966003181,2048,0,1,1,1976.1549082857143,0.9268296614717798,0.009800160855764021,872.4688282110098
2048,1536,336.87756863425176,1417238,100547,51433472,35789440,1.0742326813982352,0.17265100856979432,1,2048,0,1,1,170.04618885,0.7526590618281279,0.041496504999950654,872.4688282110098
2048,2048,189.5173964968097,1323837,124058,52744192,38445360,1.0792057325853077,0.18583137645718473,1,2048,0,1,1,76.27483554999999,0.7287112161000663,0.0391739976123128,872.4688282110098
2048,256,2268.4003281310584,2070542,144418,36225024,34121776,0.4130788881922417,0.11473607083884826,0.4241710771012525,2048,0,1,1,2056.8795830526315,0.9308539166444217,0.012252088843578935,872.4688282110098
2048,512,884.2887303036091,1771076,136971,35962880,32392392,0.7554733829504064,0.17810893606002975,1,2048,0,1,1,543.6514212,0.9271795128005881,0.013829837089406003,872.4688282110098
256,1024,360.7637537815578,1510883,112054,42913792,33393056,1.0624484223656885,0.15469350139905286,1,256,0,1,1,178.36618415,0.8405943070086146,0.03293413763480635,872.4688282110098
256,128,4227.788094059678,2021442,160678,36225024,33224144,0.27694137195941176,0.3095001343380574,0.07022713283299206,256,0,1,1,12423.529097875002,0.9196798745147712,0.009437155554580539,872.4688282110098
256,1536,338.2890543655726,60547,3047,52219904,38310648,1.0787712228833601,0.17182714239431396,1,256,0,1,1,166.26650715000002,0.7458350156345179,0.03534722432625862,872.4688282110098
256,2048,202.22683100327828,1405926,111084,52744192,39956040,1.0661368612327955,0.1634032614881852,1,256,0,1,1,77.90772565,0.7423864175986421,0.04344519770554211,872.4688282110098
256,256,2131.164957535973,1728798,147669,35962880,32261928,0.39939213830291687,0.1278515781400576,0.4412768250334289,256,0,1,1,1977.146269,0.9246950152851584,0.010679246818597584,872.4688282110098
256,512,773.1993881729815,1749482,163985,35962880,32415456,0.703224025684259,0.1871418101503169,1,256,0,1,1,526.8087771999999,0.9257369946524813,0.01158820674826686,872.4688282110098
512,1024,367.77123244135475,1501413,114687,43700224,34720544,1.0824783762252839,0.20917514180954375,1,512,0,1,1,166.8246373,0.8250258503546515,0.0355466283444647,872.4688282110098
512,128,2500.5128153356327,1835365,247337,35962880,33197048,0.603077405326881,0.3263708704292667,0.22474191470755076,512,0,1,1,3882.0921737999997,0.9238754615108865,0.009540528597387804,872.4688282110098
512,1536,189.78823607130388,1346972,92565,51433472,39329984,1.103866243393536,0.14391667633837457,1,512,0,1,1,71.1374511,0.7647325369738556,0.039862346548289504,872.4688282110098
512,2048,221.01161897166895,220350,3416,54317056,38240840,1.107675401605278,0.1962319270585332,1,512,0,1,1,88.82247094999997,0.7103002440976401,0.022428438218871166,872.4688282110098
512,256,2190.8492600878467,1801853,144403,35700736,32769904,0.47786769760437015,0.19016204375230092,0.43103872417551964,512,0,1,1,2024.1077640526312,0.9277566723938789,0.01229578375927306,872.4688282110098
512,512,862.6629961956497,2009398,146122,36487168,33986384,0.7637202376237762,0.15136082471499554,1,512,0,1,1,564.2220916499998,0.9175019253931881,0.03365309082892539,872.4688282110098
