cpu,memory,duration_std,userDiff,sysDiff,heapTotal,heapUsed,avg_cpu_util,cpu_util_std,slo_preservation,total_cpu_shares,cpu_shares_others,num_containers,arrival_rate,latency,memory_util,memory_util_std,slo_duration
1024,1024,110.18738363989908,510413,61012,49197056,41975320,1.0867313435735908,0.1633715409621408,0.788466178645461,1024,0,1,1,470.4930275034765,0.7890857665834998,0.0572868961587198,370.9678394749999
1024,128,259.4507981037445,546371,111692,33267712,29614768,1.055234987037921,0.2308241607184531,0.5298236917696636,1024,0,1,1,700.1722369868561,0.909263837914658,0.0158757995528706,370.9678394749999
1024,1536,65.92138244168396,424854,80255,46903296,31044656,1.216550345684259,0.1341109451787052,0.9831951477347279,1024,0,1,1,377.30845227390125,0.6910493628830949,0.1101733767698609,370.9678394749999
1024,2048,37.44722938301433,377230,81140,72896512,58594176,1.6140857319253388,0.2155373937017009,1.0,1024,0,1,1,252.27051902355265,0.7204617969978131,0.102042299606655,370.9678394749999
1024,256,74.17132525761606,412739,85873,33005568,29791968,1.4054878719467103,0.143959295687571,0.8526966847883289,1024,0,1,1,435.0525176101604,0.9088834992372116,0.018279025858803,370.9678394749999
1024,512,91.28256399440814,640107,79268,32743424,29587104,1.1125506497298803,0.115049332220836,0.6822792236983279,1024,0,1,1,543.7185049606971,0.9093734209697656,0.0159786835575136,370.9678394749999
128,1024,105.62422261217834,477502,101571,36286464,30227032,1.0413279269818663,0.1132183418155275,0.7272471649386509,128,0,1,1,510.09870833431705,0.8261059731424943,0.04969338820038,370.9678394749999
128,128,352.83396468147777,541039,105574,33005568,29809512,1.0134637388926955,0.3195337934749402,0.4637469216911619,128,0,1,1,799.9359610241264,0.9099711348634704,0.0155229404241255,370.9678394749999
128,1536,66.29828384068135,447317,56695,63295488,46350808,1.32044948746425,0.1841833618236169,1.0,128,0,1,1,315.6166386373026,0.7382179539995131,0.1052226540144046,370.9678394749999
128,2048,33.204239226518254,380066,58991,73355264,60395608,1.5648537579376507,0.201757846630827,1.0,128,0,1,1,244.0356041330248,0.6752602794215122,0.1377501190256593,370.9678394749999
128,256,87.30886260680082,492764,63641,33267712,30200512,1.0482677014863924,0.1369157069361068,0.6171148686008906,128,0,1,1,601.1325578916128,0.9091642828535094,0.0114681026310101,370.9678394749999
128,512,91.39603562969988,477878,52930,33267712,29578264,1.0775689128367119,0.1514028903487646,0.6667368079178355,128,0,1,1,556.3932200376069,0.8994404799105098,0.0321222438008452,370.9678394749999
1536,1024,74.99740594942108,466103,89224,51032064,41426528,1.1298900528862015,0.154148110998307,0.7836979624034912,1536,0,1,1,473.3556258552642,0.7963079881542356,0.0707303893113121,370.9678394749999
1536,128,157.5177037639895,517690,95405,33005568,30131952,1.0528529645551752,0.2314153501614738,0.5548215204748439,1536,0,1,1,668.625541340767,0.9197747005496324,0.017178375622055,370.9678394749999
1536,1536,191.532282413978,449012,94704,83333120,69030464,1.244344505390315,0.3391517309625412,0.9011198875715862,1536,0,1,1,411.6742340186446,0.6929164936240693,0.1233927732939114,370.9678394749999
1536,2048,39.77005053764915,361179,80948,45330432,30505848,1.7196164611070692,0.2675259665107491,1.0,1536,0,1,1,225.47773304202994,0.6923912029776609,0.0986476763279267,370.9678394749999
1536,256,68.12801375501074,463437,78702,33005568,29591672,1.274144826098783,0.1146294654304442,0.8436385082268771,1536,0,1,1,439.7236919100386,0.909423093320316,0.0260157078503572,370.9678394749999
1536,512,74.28280817659916,432599,64622,33005568,29599840,1.1049203683984414,0.1001018500689301,0.6360813380364078,1536,0,1,1,583.2081799792821,0.9153611348888696,0.0169961342197575,370.9678394749999
2048,1024,708.0545118690355,490262,82961,51032064,41450936,0.9306325346276538,0.3142692639301095,0.4540663310015663,2048,0,1,1,816.9904133978175,0.7509958812236208,0.1018927311079887,370.9678394749999
2048,128,578.5295879759195,534925,70232,32481280,30157184,1.1188772730262702,0.5350585405509597,0.40982207344462673,2048,0,1,1,905.192432308367,0.9161744259441732,0.0168566147177877,370.9678394749999
2048,1536,334.4822112775481,400585,74149,65937408,51332768,1.2958101348041633,0.3941604456031379,0.8518639878637432,2048,0,1,1,435.477781383026,0.7095369612015151,0.0996962109222569,370.9678394749999
2048,2048,110.51262458874604,344219,69770,59101184,45927368,1.5086003601248323,0.286758417183313,1.0,2048,0,1,1,261.1350620833639,0.6834492938198796,0.1348717993218642,370.9678394749999
2048,256,62.295679671849136,501293,71728,32743424,29736648,1.3574265786337403,0.087022500075425,0.8317956897710822,2048,0,1,1,445.98432528196156,0.9130966960782028,0.0236185232173154,370.9678394749999
2048,512,77.82670496117476,361608,71610,32481280,29654536,1.3832914767508089,0.1883345982407275,0.8479157015522386,2048,0,1,1,437.50556664523003,0.911422573278141,0.0223164974495507,370.9678394749999
256,1024,106.69390967743124,396945,31437,48082944,30018064,1.1215879890771094,0.123977942480777,0.7540773194288594,256,0,1,1,491.9493398315867,0.8071211722588739,0.0748854073256934,370.9678394749999
256,128,121.10211908230742,559091,51650,33005568,29566960,1.1069316046265938,0.1174244045980306,0.6196704078410319,256,0,1,1,598.6534692974507,0.9143883031471856,0.0196329330763736,370.9678394749999
256,1536,58.94696658335926,379715,46907,65675264,52765560,1.4069296228975874,0.2424570606942106,1.0,256,0,1,1,318.9899529743982,0.6696424524096815,0.1108782394890212,370.9678394749999
256,2048,54.93598338756177,501781,66551,62640128,44419520,1.644410138058481,0.1686256524423893,1.0,256,0,1,1,216.85998471834125,0.6995766123231623,0.1214145406569021,370.9678394749999
256,256,73.77420408178398,550339,73738,33267712,30095224,1.3080695958344033,0.1460884735983672,0.765587864737993,256,0,1,1,484.552925354892,0.9102241769139118,0.0175355039758909,370.9678394749999
256,512,112.86324774919046,606431,70066,33267712,30083200,1.0623058975304684,0.1413333632194053,0.5480150744144762,256,0,1,1,676.9299911528137,0.907018806575722,0.0098728792043433,370.9678394749999
512,1024,74.13565296626228,338105,72729,51826688,45904560,1.1454790555447103,0.1113685853405691,0.7847225793318958,512,0,1,1,472.7375626056763,0.7987037943035518,0.0737955619457405,370.9678394749999
512,128,94.31305238695704,520371,47418,33005568,29631072,1.0048731893109566,0.1053732841945938,0.592928914283985,512,0,1,1,625.6531441428808,0.8992291839869602,0.0374028394876143,370.9678394749999
512,1536,53.34978629833109,370982,85710,66985984,51286056,1.219647783859531,0.0968047526315353,1.0,512,0,1,1,345.1719860785073,0.6791462611938524,0.1216954121426966,370.9678394749999
512,2048,51.44891098082881,493649,81896,47427584,31597096,1.604906395041124,0.1836615103356849,1.0,512,0,1,1,220.11120741740194,0.6633245395854104,0.1458917053814993,370.9678394749999
512,256,92.9352516459539,470323,70980,33005568,29566152,1.1427754352188528,0.1312141491617264,0.6722988455992792,512,0,1,1,551.7900884454496,0.8970192156516614,0.0354437587671774,370.9678394749999
512,512,90.06246758574153,491794,61081,32743424,30203928,1.154315698244104,0.1426124878992418,0.6894391604765449,512,0,1,1,538.071900671532,0.9012934639903654,0.0279419562271707,370.9678394749999
