cpu,memory,duration_std,userDiff,sysDiff,heapTotal,heapUsed,avg_cpu_util,cpu_util_std,slo_preservation,total_cpu_shares,cpu_shares_others,num_containers,arrival_rate,latency,memory_util,memory_util_std,slo_duration
1024,1024,112.18113332828484,352711,64953,39170048,30189816,0.8697094311768094,0.077217513166726,1.0,1024,0,1,1,413.2909985225973,0.8163378619228979,0.0685594606504635,645.801878537037
1024,128,1397.1322246413613,502922,94282,32743424,29885752,0.3259859080046931,0.1996815178341611,0.2645679685677832,1024,0,1,1,2440.9677484127506,0.9221266421082568,0.0091714778253578,645.801878537037
1024,1536,63.659053410991824,261417,65033,42708992,30753904,1.1583852703159188,0.1251987452265046,1.0,1024,0,1,1,261.2339067884753,0.7407679686938058,0.0566899102155781,645.801878537037
1024,2048,44.123457447818765,207886,36052,84381696,69437456,1.4412520936372406,0.1688519421395714,1.0,1024,0,1,1,165.37713319215243,0.7141454057304021,0.1212373178229382,645.801878537037
1024,256,387.7330274863325,337238,58528,32743424,30256512,0.5049640475265662,0.2153989850057392,0.5697349481197341,1024,0,1,1,1133.512839028644,0.9123114622110828,0.0289170221777116,645.801878537037
1024,512,280.6017901127159,318574,49701,20414464,15409528,0.7406536610443804,0.3543599227130518,0.8183975144699055,1024,0,1,1,789.1053762001434,0.9041864322765896,0.0433596134320528,645.801878537037
128,1024,127.38700544705264,363158,57376,39432192,30022424,0.8279503076484286,0.1139453688582476,1.0,128,0,1,1,496.9276780346321,0.8021085979414615,0.0625512254219129,645.801878537037
128,128,935.0784425882704,380938,47157,33005568,29926784,0.4654957441798248,0.2932439283438667,0.37367767465754775,128,0,1,1,1728.232437565006,0.914196658352318,0.0111872747234098,645.801878537037
128,1536,91.71697823988532,275587,56062,64360448,52658968,1.0281270490331702,0.107608848805792,1.0,128,0,1,1,306.5827750895337,0.7188072960143602,0.1108234795002117,645.801878537037
128,2048,57.60850137288156,385862,53114,49000448,30084088,1.266848774212715,0.1955547086239016,1.0,128,0,1,1,252.7207135878142,0.7087138702052156,0.1025621292613867,645.801878537037
128,256,408.9437859315504,363972,52431,32481280,30023240,0.28837779826353327,0.0519737432652646,0.32923533270391625,128,0,1,1,1961.520573242397,0.9249627694611644,0.0093236474719971,645.801878537037
128,512,365.9580962691243,496863,72738,32743424,30356208,0.7477589633701142,0.2883944167510963,0.7736365474916095,128,0,1,1,834.7613367426144,0.9230491882034464,0.0214097674385289,645.801878537037
1536,1024,87.15363719641923,337141,53128,39432192,29943256,0.8585224425195078,0.1330970631153093,1.0,1536,0,1,1,458.7013066445634,0.7998319774229505,0.0657443825884183,645.801878537037
1536,128,469.1592085228135,384826,31934,32481280,29898936,0.4947515047823654,0.2116389429014641,0.47893040244658464,1536,0,1,1,1348.4253144882855,0.8694160080501707,0.0714840591353778,645.801878537037
1536,1536,65.02129329376393,335474,60712,43233280,31902816,1.1970710280346943,0.1580087967534608,1.0,1536,0,1,1,240.6289084527291,0.7002317733103338,0.0861495308751552,645.801878537037
1536,2048,43.91441148107303,276509,45226,60891136,48493024,1.4611010636449766,0.2036443473831582,1.0,1536,0,1,1,166.04861072435403,0.6968912538031534,0.1234421535937463,645.801878537037
1536,256,398.6960217447991,435801,78734,33005568,29695592,0.5381493631858815,0.1525393546218335,0.5760420130302575,1536,0,1,1,1121.1020445189565,0.9165907477521704,0.0099558036815753,645.801878537037
1536,512,326.0378835205884,291164,34183,32481280,30318904,0.5921023076089785,0.1679992944108606,0.6650475129572533,1536,0,1,1,971.0612639770096,0.9168994270788282,0.0213090914784593,645.801878537037
2048,1024,118.88983649263729,269647,46456,39956480,30004560,0.8542760942369563,0.0895332979483023,1.0,2048,0,1,1,474.49459885818334,0.787888926104688,0.0772833305241056,645.801878537037
2048,128,357.3375262268014,450855,93553,32481280,29748600,0.6037979827539453,0.2643126612965923,0.6134266801229328,2048,0,1,1,1052.7776170537875,0.8936796101794122,0.0604252302822684,645.801878537037
2048,1536,85.21642111261885,302020,35892,47951872,31229384,0.9818293942435349,0.1360667576785929,1.0,2048,0,1,1,320.5126728363879,0.697741592307291,0.0736446870872093,645.801878537037
2048,2048,45.55628338024382,213362,43072,36409344,15763472,1.205052464743751,0.1479529111771111,1.0,2048,0,1,1,236.92428093257308,0.7109521483133252,0.1102781268327938,645.801878537037
2048,256,228.3245698102995,357124,51337,33005568,29852792,0.5655662286423175,0.1120383098626073,0.672521985804473,2048,0,1,1,960.2687974052279,0.9183705140810158,0.0155675728592595,645.801878537037
2048,512,238.87326572061264,417966,42418,32481280,29896864,0.6472574524498984,0.2276624991462627,0.784628638892572,2048,0,1,1,823.0669217587118,0.9163824186704403,0.0093896041898347,645.801878537037
256,1024,139.34962563927323,398071,45348,39694336,30422872,0.7944939141875688,0.121486319792104,1.0,256,0,1,1,514.5299978805,0.7645902177136112,0.0979430467958167,645.801878537037
256,128,947.2545277035975,341970,74719,32743424,30173048,0.4641250585975411,0.3928294193854209,0.3313152888747168,256,0,1,1,1949.2063910797665,0.9147146593856582,0.009910000287801,645.801878537037
256,1536,85.0801509874941,245577,41882,66162688,54396256,1.0215462186300068,0.1289799833150186,1.0,256,0,1,1,327.5162226476077,0.655519070696515,0.121227821493286,645.801878537037
256,2048,65.18720859518982,335299,53764,36671488,15764704,1.2387956994178662,0.1984625780343611,1.0,256,0,1,1,220.01212938329982,0.7141390263744085,0.1066751158534615,645.801878537037
256,256,315.3289752760677,482162,76454,32481280,30087544,0.39617306524729845,0.0817702919241424,0.46200396115924053,256,0,1,1,1397.8275790463326,0.9216895275160852,0.0105131483987777,645.801878537037
256,512,268.16481180143114,409693,100331,32481280,30307344,0.4974670125317847,0.0977367690959788,0.6249642260804185,256,0,1,1,1033.3421523777542,0.9231260835874456,0.0114795317213197,645.801878537037
512,1024,94.7269007485934,294047,38613,39432192,30614064,0.8772103492835955,0.1040464856906117,1.0,512,0,1,1,421.6272301553401,0.7914974193289295,0.073937551373376,645.801878537037
512,128,859.2711763025902,534619,55826,32481280,30114304,0.41558336211119273,0.1862349590930645,0.36541913234148726,512,0,1,1,1767.2908213616188,0.9187223169711448,0.0096491490594058,645.801878537037
512,1536,54.00090327210687,267417,52810,43495424,30385240,1.281634738665869,0.1795864007178111,1.0,512,0,1,1,235.39890983827502,0.6827589795869142,0.0993434362169706,645.801878537037
512,2048,29.55421957102532,212759,49492,45068288,30432208,1.4787703330556297,0.1947274065226113,1.0,512,0,1,1,174.3857245440173,0.698620103656505,0.0942648432514132,645.801878537037
512,256,396.3090992837381,436182,57771,32743424,29977232,0.41309877320646515,0.085345422274147,0.4653252838261773,512,0,1,1,1387.850394087498,0.9205062155938988,0.0076274425652599,645.801878537037
512,512,239.33088431148244,346956,52228,32481280,29931560,0.4715828683798871,0.0499968758811798,0.6152895497732481,512,0,1,1,1049.5901950147431,0.92375528766481,0.009517429364083,645.801878537037
