cpu,memory,duration_std,userDiff,sysDiff,heapTotal,heapUsed,avg_cpu_util,cpu_util_std,slo_preservation,total_cpu_shares,cpu_shares_others,num_containers,arrival_rate,latency,memory_util,memory_util_std,slo_duration
1024,1024,85.20842458115528,375509,23878,28676096,15188120,0.9559620835772903,0.1511273798372836,0.6499703912604771,1024,0,1,1,292.04220025862134,0.7744444728290116,0.1103490790237002,189.81878316666672
1024,128,72.57884049056125,273589,57356,32743424,29463544,1.0856201656577866,0.1346585834762218,0.6482501520029089,1024,0,1,1,292.817182657313,0.8789347053424281,0.0461949051406985,189.81878316666672
1024,1536,58.58028977781473,349777,45296,50311168,30217672,1.1420455197250077,0.1636710342946021,0.926017997747366,1024,0,1,1,204.98390271940764,0.7657114123958688,0.0961500632862761,189.81878316666672
1024,2048,37.99345310333791,303135,16184,50049024,29701480,1.3896628190523854,0.162321463029779,1.0,1024,0,1,1,118.65622125442019,0.7574061766547755,0.0963487971473629,189.81878316666672
1024,256,51.71968418601056,198449,42212,32743424,29952032,1.3079504743641712,0.1596110350298926,0.9705103369989184,1024,0,1,1,195.58656505775915,0.8840372368923823,0.0809629219753487,189.81878316666672
1024,512,47.79547324862861,264995,48074,33267712,29431304,1.2872662637083072,0.1575209501445444,0.9613244004672856,1024,0,1,1,197.45549272898785,0.8829087528406848,0.0832631100857273,189.81878316666672
128,1024,65.61614994146892,364955,26538,39694336,30038176,1.2209884228799674,0.2346816793623927,0.9694884577501138,128,0,1,1,195.79272104711598,0.815261889296955,0.0856118908191942,189.81878316666672
128,128,351.639125946534,324717,39405,31694848,29506352,0.9834686764847412,0.303135829760127,0.43617396571077804,128,0,1,1,435.1905388423237,0.889595835417359,0.0429731529382459,189.81878316666672
128,1536,53.10485461442619,235463,42660,42446848,31086112,1.0901606580423537,0.1687808755107937,0.9915914081059938,128,0,1,1,191.42842668356047,0.7568804763775789,0.0712604220752015,189.81878316666672
128,2048,32.175237523652285,313523,22404,49524736,30921344,1.416322128902555,0.2280777317012557,1.0,128,0,1,1,116.00541710246544,0.7711876257172675,0.1125645701900198,189.81878316666672
128,256,105.1872572979502,310166,43144,33005568,29529128,1.1072360814722653,0.2892735063658588,0.6002517279644786,128,0,1,1,316.23196456320693,0.8760468469223698,0.0538978538809247,189.81878316666672
128,512,46.526379624919485,329166,37737,32743424,29575096,1.0994497740546612,0.0897409372734777,0.7052693333236367,128,0,1,1,269.14367915606215,0.8747422546623683,0.0485363696214556,189.81878316666672
1536,1024,80.82322028097042,338720,18655,37859328,29997696,1.0190365152574978,0.1497926971274445,0.6726255190017179,1536,0,1,1,282.20574123977286,0.7758467463470291,0.1072546664186726,189.81878316666672
1536,128,280.1350819111557,354718,32697,32219136,29448712,1.0680164550951834,0.2812187875601533,0.5439449981939214,1536,0,1,1,348.96686943887397,0.8733212425142545,0.0748577339823127,189.81878316666672
1536,1536,60.05047062676145,314287,17615,50049024,29708840,1.2121506066115626,0.1619038029952555,1.0,1536,0,1,1,178.40758261518272,0.7415256577545468,0.0922883468879277,189.81878316666672
1536,2048,33.37922212319672,243967,55904,49786880,29692648,1.4452127355425548,0.2197548596912573,1.0,1536,0,1,1,118.16418134384821,0.7502427190049388,0.1096565958514246,189.81878316666672
1536,256,49.94130262280758,279985,43303,32481280,29645784,1.273199457501199,0.1467280998285683,0.8335710621575196,1536,0,1,1,227.7175777615907,0.8673859902426715,0.0724751546207558,189.81878316666672
1536,512,72.09134684343718,240537,34726,32481280,29492848,1.0420365426694123,0.1455012782707797,0.6252014458161312,1536,0,1,1,303.61219481647123,0.8772817605876538,0.0589176976243698,189.81878316666672
2048,1024,84.23134364442376,249833,47443,38907904,30190336,1.0376969945128685,0.1679528353121236,0.757640787569293,2048,0,1,1,250.539287589907,0.7884025705191682,0.1122836813119055,189.81878316666672
2048,128,77.8239176123935,306594,17785,32219136,29978568,1.0240238911701751,0.1396655594561449,0.6120201762855226,2048,0,1,1,310.15118540489345,0.8983809631521449,0.0505866444252638,189.81878316666672
2048,1536,43.66645940830445,258839,32503,67444736,51815704,1.2279239920933314,0.1664284934840766,1.0,2048,0,1,1,171.88177387388373,0.7543281196621486,0.0874595600304983,189.81878316666672
2048,2048,31.95643717758076,294448,39021,50049024,30534064,1.4079969541448671,0.1896903856051125,1.0,2048,0,1,1,125.09849424392623,0.7273335285747178,0.0872528164467502,189.81878316666672
2048,256,33.78459234911789,255320,21227,32743424,29792592,1.1328172114593875,0.1107862731957036,0.7468737534147735,2048,0,1,1,254.1510962177989,0.8748500321572482,0.0672431913617925,189.81878316666672
2048,512,39.55630212511654,271044,31263,32481280,29442840,1.1802730019600327,0.1223746161837228,0.7807243306137156,2048,0,1,1,243.13163523090543,0.8397064183265146,0.0608258222095357,189.81878316666672
256,1024,47.26885588570398,261536,36958,38121472,30228400,1.2810015238673227,0.2328509983912342,1.0,256,0,1,1,182.74238037193086,0.7825027238891621,0.0959841881836365,189.81878316666672
256,128,144.25710797194714,319505,44257,33005568,29506520,0.999406088214964,0.1953092670267067,0.5690187239429193,256,0,1,1,333.58969604962994,0.8818774350715055,0.06945151910009,189.81878316666672
256,1536,57.02226291173407,263020,42909,37195776,15355328,1.1724661250665287,0.1361728850227384,1.0,256,0,1,1,178.95495933975306,0.7394280625902393,0.1043705529233976,189.81878316666672
256,2048,30.83750664028232,254188,38173,68755456,51121032,1.3142294144079756,0.1530542875407539,1.0,256,0,1,1,130.640727649422,0.737969487363752,0.0918870420882163,189.81878316666672
256,256,60.94866221910997,266335,26421,31694848,29463984,1.0282639307871193,0.0825469152531211,0.6439245643217492,256,0,1,1,294.78419318667295,0.8987828860118071,0.059649227354482,189.81878316666672
256,512,56.84515844333448,386566,26546,32481280,29902208,1.0741041602408847,0.1246878126260557,0.6868557461218235,256,0,1,1,276.3590233297687,0.8820834099407653,0.0605574454193719,189.81878316666672
512,1024,81.77977925118961,320716,37290,39170048,30785584,0.9963230209985581,0.1886655507883436,0.6695305681393238,512,0,1,1,283.5102565879666,0.7674075563898184,0.0851297182911018,189.81878316666672
512,128,320.1510347749096,285140,31072,32481280,29515512,0.8289746872726617,0.2562913049419177,0.38636680201240675,512,0,1,1,491.29164870788094,0.8921518016774967,0.0683939373905078,189.81878316666672
512,1536,46.64535879012755,337271,38554,50049024,30654016,1.1650158865416567,0.1511652337692425,1.0,512,0,1,1,178.64995677972706,0.7163411874743817,0.1232029237760234,189.81878316666672
512,2048,41.12979919040923,316302,40468,49786880,30202104,1.5256120834313303,0.3846229681716204,1.0,512,0,1,1,106.38475612213817,0.762249145899187,0.1023649181728096,189.81878316666672
512,256,50.66642849309422,246023,43864,33005568,29658664,1.173719907950807,0.1224957956518251,0.8454338918789364,512,0,1,1,224.5223251516491,0.8803420930392626,0.0704834338150242,189.81878316666672
512,512,65.28384299233522,310660,17805,32743424,30016368,1.0333050356429412,0.1249093134526876,0.5960544618423474,512,0,1,1,318.4587907956514,0.884158033910951,0.0595321723541393,189.81878316666672
