cpu,memory,duration_std,userDiff,sysDiff,heapTotal,heapUsed,avg_cpu_util,cpu_util_std,slo_preservation,total_cpu_shares,cpu_shares_others,num_containers,arrival_rate,latency,memory_util,memory_util_std,slo_duration
1024,1024,85.20842458115528,375509,23878,28676096,15188120,0.9819067602838547,0.1511273798372836,0.26704419856267436,1024,0,1,1,710.8141056362132,0.7744444728290116,0.1103490790237002,189.81878316666672
1024,128,72.57884049056125,273589,57356,32743424,29463544,1.0325746386867531,0.1346585834762218,0.24663015211308703,1024,0,1,1,769.6495401731307,0.8789347053424281,0.0461949051406985,189.81878316666672
1024,1536,58.58028977781473,349777,45296,50311168,30217672,1.0523560430799785,0.1636710342946021,0.3413176161892083,1024,0,1,1,556.1353242940771,0.7657114123958688,0.0961500632862761,189.81878316666672
1024,2048,37.99345310333791,303135,16184,50049024,29701480,1.1263295665921713,0.162321463029779,0.5186384485446877,1024,0,1,1,365.9944296442019,0.7574061766547755,0.0963487971473629,189.81878316666672
1024,256,51.71968418601056,198449,42212,32743424,29952032,1.1039696820091436,0.1596110350298926,0.32766194412494865,1024,0,1,1,579.3128758775915,0.8840372368923823,0.0809629219753487,189.81878316666672
1024,512,47.79547324862861,264995,48074,33267712,29431304,1.0980130072506902,0.1575209501445444,0.3279963829269549,1024,0,1,1,578.7221842898784,0.8829087528406848,0.0832631100857273,189.81878316666672
128,1024,65.61614994146892,364955,26538,39694336,30038176,1.0780468932429257,0.2346816793623927,0.3423960458026824,128,0,1,1,554.3836895711593,0.815261889296955,0.0856118908191942,189.81878316666672
128,128,351.639125946534,324717,39405,31694848,29506352,0.9933212252017715,0.303135829760127,0.17621745089821075,128,0,1,1,1077.1849337232359,0.889595835417359,0.0429731529382459,189.81878316666672
128,1536,53.10485461442619,235463,42660,42446848,31086112,1.0342134394861628,0.1687808755107937,0.37628111166065753,128,0,1,1,504.4600360856046,0.7568804763775789,0.0712604220752015,189.81878316666672
128,2048,32.175237523652285,313523,22404,49524736,30921344,1.1332451170766815,0.2280777317012557,0.5237001787698249,128,0,1,1,362.4569760746545,0.7711876257172675,0.1125645701900198,189.81878316666672
128,256,105.1872572979502,310166,43144,33005568,29529128,1.0403013756286885,0.2892735063658588,0.2255861089695119,128,0,1,1,841.4471264820692,0.8760468469223698,0.0538978538809247,189.81878316666672
128,512,46.526379624919485,329166,37737,32743424,29575096,1.0375399083781225,0.0897409372734777,0.26622228563653344,128,0,1,1,713.0086150106213,0.8747422546623683,0.0485363696214556,189.81878316666672
1536,1024,80.82322028097042,338720,18655,37859328,29997696,1.007528614947015,0.1497926971274445,0.2660118444790271,1536,0,1,1,713.5726739477287,0.7758467463470291,0.1072546664186726,189.81878316666672
1536,128,280.1350819111557,354718,32697,32219136,29448712,1.0261398193295006,0.2812187875601533,0.20904682489078377,1536,0,1,1,908.0204077045288,0.8733212425142545,0.0748577339823127,189.81878316666672
1536,1536,60.05047062676145,314287,17615,50049024,29708840,1.0752780697477105,0.1619038029952555,0.37752878728679806,1536,0,1,1,502.79287185182704,0.7415256577545468,0.0922883468879277,189.81878316666672
1536,2048,33.37922212319672,243967,55904,49786880,29692648,1.1405423482284138,0.2197548596912573,0.5070992416715471,1536,0,1,1,374.3227509884823,0.7502427190049388,0.1096565958514246,189.81878316666672
1536,256,49.94130262280758,279985,43303,32481280,29645784,1.093889454224886,0.1467280998285683,0.286470305612831,1536,0,1,1,662.6124224659072,0.8673859902426715,0.0724751546207558,189.81878316666672
1536,512,72.09134684343718,240537,34726,32481280,29492848,1.0164009534402976,0.1455012782707797,0.2439282384442702,1536,0,1,1,778.1746975147129,0.8772817605876538,0.0589176976243698,189.81878316666672
2048,1024,84.23134364442376,249833,47443,38907904,30190336,1.0147452860253152,0.1679528353121236,0.2963533369574246,2048,0,1,1,640.5150861990695,0.7884025705191682,0.1122836813119055,189.81878316666672
2048,128,77.8239176123935,306594,17785,32219136,29978568,1.0094730093407955,0.1396655594561449,0.24132946680618417,2048,0,1,1,786.5545209989356,0.8983809631521449,0.0505866444252638,189.81878316666672
2048,1536,43.66645940830445,258839,32503,67444736,51815704,1.0802016664442287,0.1664284934840766,0.3885999202931547,2048,0,1,1,488.4684047888376,0.7543281196621486,0.0874595600304983,189.81878316666672
2048,2048,31.95643717758076,294448,39021,50049024,30534064,1.1311046121893802,0.1896903856051125,0.4875825473625365,2048,0,1,1,389.3059425392622,0.7273335285747178,0.0872528164467502,189.81878316666672
2048,256,33.78459234911789,255320,21227,32743424,29792592,1.0492056687564217,0.1107862731957036,0.27669924785787375,2048,0,1,1,686.0112003779891,0.8748500321572482,0.0672431913617925,189.81878316666672
2048,512,39.55630212511654,271044,31263,32481280,29442840,1.065070886368503,0.1223746161837228,0.28180827772399186,2048,0,1,1,673.574192709054,0.8397064183265146,0.0608258222095357,189.81878316666672
256,1024,47.26885588570398,261536,36958,38121472,30228400,1.0961839137463762,0.2328509983912342,0.35554426430202973,256,0,1,1,533.8822819693089,0.7825027238891621,0.0959841881836365,189.81878316666672
256,128,144.25710797194714,319505,44257,33005568,29506520,0.999762350600318,0.1953092670267067,0.22768862575205936,256,0,1,1,833.6770558462993,0.8818774350715055,0.06945151910009,189.81878316666672
256,1536,57.02226291173407,263020,42909,37195776,15355328,1.0625171913783693,0.1361728850227384,0.3844953568421056,256,0,1,1,493.68290094753075,0.7394280625902393,0.1043705529233976,189.81878316666672
256,2048,30.83750664028232,254188,38173,68755456,51121032,1.1057532892681259,0.1530542875407539,0.4889986300998716,256,0,1,1,388.17855814421955,0.737969487363752,0.0918870420882163,189.81878316666672
256,256,60.94866221910997,266335,26421,31694848,29463984,1.0111170454725713,0.0825469152531211,0.2532747025312173,256,0,1,1,749.4581230167298,0.8987828860118071,0.059649227354482,189.81878316666672
256,512,56.84515844333448,386566,26546,32481280,29902208,1.0283798261840627,0.1246878126260557,0.2630465904356522,256,0,1,1,721.6165883476872,0.8820834099407653,0.0605574454193719,189.81878316666672
512,1024,81.77977925118961,320716,37290,39170048,30785584,0.998525956382967,0.1886655507883436,0.26840437761195407,512,0,1,1,707.2119495796653,0.7674075563898184,0.0851297182911018,189.81878316666672
512,128,320.1510347749096,285140,31072,32481280,29515512,0.9237672354730945,0.2562913049419177,0.17221900646825788,512,0,1,1,1102.19415997881,0.8921518016774967,0.0683939373905078,189.81878316666672
512,1536,46.64535879012755,337271,38554,50049024,30654016,1.0600598563517896,0.1511652337692425,0.3867183692741296,512,0,1,1,490.8450134472706,0.7163411874743817,0.1232029237760234,189.81878316666672
512,2048,41.12979919040923,316302,40468,49786880,30202104,1.159837363567577,0.3846229681716204,0.5425912043847357,512,0,1,1,349.83756027138196,0.762249145899187,0.1023649181728096,189.81878316666672
512,256,50.66642849309422,246023,43864,33005568,29658664,1.0629287746196892,0.1224957956518251,0.30625228544883687,512,0,1,1,619.8118093664912,0.8803420930392626,0.0704834338150242,189.81878316666672
512,512,65.28384299233522,310660,17805,32743424,30016368,1.0130610157011015,0.1249093134526876,0.23375073872603827,512,0,1,1,812.0563990565142,0.884158033910951,0.0595321723541393,189.81878316666672
