cpu,memory,duration_std,userDiff,sysDiff,heapTotal,heapUsed,avg_cpu_util,cpu_util_std,slo_preservation,total_cpu_shares,cpu_shares_others,num_containers,arrival_rate,latency,memory_util,memory_util_std,slo_duration
1024,1024,788.0004708433394,1868272,150687,57077760,48997120,0.8253143580557505,0.2107715389199038,1.0,1024,0,1,1,1990.429192334831,0.8522628331912205,0.0641291565112131,2411.160244242424
1024,128,1814.5944705,2209324,258119,51175424,46820856,0.9069096880669235,0.3156242033012354,0.2589536417129308,1024,0,1,1,9311.16561363278,0.9171672715403394,0.0022582714703057,2411.160244242424
1024,1536,417.94195672146816,1704264,158037,62713856,47541664,0.772717996184873,0.3096544647069377,1.0,1024,0,1,1,1075.9508521386629,0.7868205673924793,0.0847817753846663,2411.160244242424
1024,2048,258.4434702254308,1697065,136712,67956736,47742904,0.7109531380463203,0.3010976717570273,1.0,1024,0,1,1,843.7523557556244,0.7975322670072182,0.0770311035747788,2411.160244242424
1024,256,3495.999805471859,2023590,205133,50913280,47521144,0.7003400553111488,0.2435624130395768,0.23488131010736102,1024,0,1,1,10265.441056763162,0.9366186754685424,0.0153046004730079,2411.160244242424
1024,512,1509.1945243347006,2327313,217179,51699712,46972888,0.8503894984091758,0.2965811981267492,0.6341039943733127,1024,0,1,1,3802.4681529176974,0.9301132190397544,0.0344838071180183,2411.160244242424
128,1024,815.3439317992994,1888960,167851,58126336,47298664,0.8353356066862608,0.1891312023179327,1.0,128,0,1,1,1945.99875408771,0.8455651349456603,0.0771980675949016,2411.160244242424
128,128,1682.3081709562264,2320038,262144,51175424,47096600,0.7544186707636379,0.2031553480884092,0.2183875173404524,128,0,1,1,11040.742042428996,0.9226716620337873,0.0120490846257932,2411.160244242424
128,1536,578.0171832305922,1751879,167032,75034624,50613120,0.8188172146418241,0.282705289086072,1.0,128,0,1,1,1441.2063114730568,0.7950994900818714,0.0913175933810348,2411.160244242424
128,2048,417.8969282838914,1590301,135091,91811840,47344760,0.7423001183118098,0.2434401377759843,1.0,128,0,1,1,1030.2636807342753,0.7905684871374972,0.0862160369778562,2411.160244242424
128,256,4489.919959622305,2193090,195415,50126848,47452216,0.5229526474204699,0.1824594693725841,0.1552216451233759,128,0,1,1,15533.65989856598,0.9403860332052626,0.0104161354090684,2411.160244242424
128,512,2088.1080968488423,1928014,199709,49864704,47385776,0.6785531260397671,0.0849930280683198,0.46463090005518715,128,0,1,1,5189.410011163776,0.9289714665068504,0.0349000873701744,2411.160244242424
1536,1024,823.347222971575,2014007,176426,58912768,47015704,0.8122610406323322,0.2226005038470361,1.0,1536,0,1,1,2081.0880893906883,0.8419012706950857,0.0713910832812553,2411.160244242424
1536,128,2459.8669401165284,2347799,204173,51437568,46841872,0.7631840641167904,0.2025821226923671,0.21203746214543928,1536,0,1,1,11371.3879606264,0.9260012995534984,0.0113384751140029,2411.160244242424
1536,1536,537.3167158734149,1871564,139995,73986048,50865320,0.8133216723277186,0.3148080408078844,1.0,1536,0,1,1,1319.5716587147745,0.8086716426086238,0.0702412440763466,2411.160244242424
1536,2048,451.20164378075657,1651244,132508,62451712,50151216,0.7843872633712045,0.3089646716415206,1.0,1536,0,1,1,1118.1649809917624,0.8095953033399403,0.0655369631520238,2411.160244242424
1536,256,3866.372428986501,2394152,174696,49864704,47447928,0.5375569802328473,0.0883963469636897,0.1954705207580739,1536,0,1,1,12335.160488095396,0.9364399772277548,0.0200315818741598,2411.160244242424
1536,512,1832.961095703368,2344024,145568,50126848,47472192,0.7145125604098663,0.1042060091687256,0.5505884147627825,1536,0,1,1,4379.242605896924,0.9250400991350188,0.0413843973775419,2411.160244242424
2048,1024,827.9926780457412,2036212,138606,58388480,47047296,0.7918364617411894,0.2237741195676994,1.0,2048,0,1,1,1945.7254211899647,0.8596976414117942,0.0662060769068169,2411.160244242424
2048,128,1863.945967957382,2215888,245663,51175424,46931056,0.8037131355733103,0.1747917391716589,0.23406813202320448,2048,0,1,1,10301.104312668213,0.9293891721178632,0.0153213666022974,2411.160244242424
2048,1536,381.8820536437522,1718237,164621,78442496,50397200,0.7507357027985062,0.2822480992858169,1.0,2048,0,1,1,1057.1675242080662,0.7919429061674693,0.0897175137716181,2411.160244242424
2048,2048,289.7027677798578,1605476,143164,63500288,51354656,0.7616721388207291,0.2355665981604324,1.0,2048,0,1,1,756.0917944141551,0.787185878766207,0.080659210089722,2411.160244242424
2048,256,2561.4927831833825,1976201,166607,49602560,47209408,0.6453795582250104,0.1112022445909067,0.2909883450439621,2048,0,1,1,8286.105905300605,0.93452391782548,0.0217509408912599,2411.160244242424
2048,512,1928.399809085313,1981874,171503,50388992,47591208,0.6912863469485547,0.0954272874289552,0.5483129196025239,2048,0,1,1,4397.416435108426,0.9125404425691584,0.0755730935085706,2411.160244242424
256,1024,889.2136857480218,2136833,136193,56291328,49946480,0.8249874442293255,0.2199898028572658,1.0,256,0,1,1,1973.47428068074,0.8668951345000195,0.0533718568301192,2411.160244242424
256,128,1006.605669753926,2058260,198799,50126848,47072976,0.695601328092477,0.0645819223118384,0.21957863469443195,256,0,1,1,10980.850881042326,0.9388795583097548,0.0058298271840194,2411.160244242424
256,1536,405.95619178658654,1708191,199369,75296768,51506288,0.7835607253031688,0.2963100599101422,1.0,256,0,1,1,1126.296396427259,0.8001979487063411,0.0831766473420492,2411.160244242424
256,2048,306.9197385338141,1687649,126685,63238144,51182480,0.6836347960343473,0.2310947730761153,1.0,256,0,1,1,775.1597846172101,0.7971641320642855,0.0752045058970723,2411.160244242424
256,256,4368.305848953406,2222811,186110,50913280,46789224,0.45182476657737874,0.0275279901686471,0.20366693900677044,256,0,1,1,11838.741506112932,0.9217133786997682,0.0405838700243671,2411.160244242424
256,512,2075.019173523686,2055297,196637,50126848,46870704,0.6701135522320891,0.0812528094068116,0.49314535083870903,256,0,1,1,4889.350046881071,0.928668704300545,0.0320611015386329,2411.160244242424
512,1024,804.590570414227,2125043,175737,58126336,47059344,0.7884748499479216,0.2508956756165328,1.0,512,0,1,1,1939.2788579209118,0.8426308249808399,0.074912126511899,2411.160244242424
512,128,643.8512561134737,2040772,255516,50126848,47156144,0.732661013160906,0.0596897672121464,0.2413338353101351,512,0,1,1,9990.974705821387,0.941708333620806,0.0040939451452697,2411.160244242424
512,1536,689.6676503379692,2137796,190700,78704640,50257016,0.7784865447976574,0.2329613341739015,1.0,512,0,1,1,1563.1222859298084,0.7774652009548917,0.0793452474530023,2411.160244242424
512,2048,382.5338002855737,1699649,123657,86306816,48782040,0.7672920399002907,0.2587535013495258,1.0,512,0,1,1,982.6617629853773,0.742549245026069,0.1265305655205288,2411.160244242424
512,256,3971.784687204473,2450184,178635,50388992,47058568,0.573196901645687,0.1721026900721874,0.18203514813104782,512,0,1,1,13245.575203458073,0.9346001704003868,0.0249595090042157,2411.160244242424
512,512,2065.383671506376,2202686,111172,49864704,46924344,0.6848375822596675,0.0877881564986076,0.512868180010876,512,0,1,1,4701.325483268025,0.928456209877054,0.0407644644171546,2411.160244242424
