cpu,memory,duration_std,userDiff,sysDiff,heapTotal,heapUsed,avg_cpu_util,cpu_util_std,slo_preservation,total_cpu_shares,cpu_shares_others,num_containers,arrival_rate,latency,memory_util,memory_util_std,slo_duration
1024,1024,871.8332022141602,2303557,192602,71766016,65817896,0.9579487054367857,0.1493676644534201,0.8494369502369711,1024,0,1,1,2488.5571523945273,0.8570852331463052,0.08106621457357,2113.8723980204086
1024,128,1525.915810909467,2442183,248902,52224000,47422896,0.7604777612643069,0.1804505673753123,0.1808042322511532,1024,0,1,1,11691.498432868824,0.8962941632849508,0.0370661609749931,2113.8723980204086
1024,1536,599.0953587279066,436499,61503,91828224,77579080,1.055772149179003,0.1401484409799703,1.0,1024,0,1,1,1836.964149291536,0.8056006271545062,0.0764984858299535,2113.8723980204086
1024,2048,426.75329661474666,2001933,195794,64024576,48998440,1.120180773616612,0.216012960155172,1.0,1024,0,1,1,1370.6401713969924,0.739621190005225,0.1280162408345072,2113.8723980204086
1024,256,3627.7643716251664,2469148,185109,62185472,46746224,0.6549617089415427,0.2374095703288551,0.16423548445799493,1024,0,1,1,12870.984641330997,0.9118487934887206,0.0549745462452359,2113.8723980204086
1024,512,1923.208863386693,2426923,193819,66650112,61794144,0.7260914805532175,0.0290732464824507,0.3883340750936401,1024,0,1,1,5443.437837667695,0.928932429470716,0.0342249204733831,2113.8723980204086
128,1024,916.0940094940908,2472882,173928,59437056,48656304,0.9551710597068905,0.0672114136043117,0.8381186873378654,128,0,1,1,2522.163543131042,0.8387895026276878,0.0952972303325035,2113.8723980204086
128,128,742.153106260559,2287057,264626,51437568,46728536,0.7410813145014654,0.0480354481987983,0.20487474654599555,128,0,1,1,10317.876818194536,0.9228658890703436,0.0118038040074769,2113.8723980204086
128,1536,363.040862625466,1848146,144526,64811008,48421040,1.1276305525657417,0.2075900142132036,1.0,128,0,1,1,1269.132537608191,0.7929288396456062,0.0955307031912133,2113.8723980204086
128,2048,213.41429133863463,1584402,216366,62976000,49704464,1.1780762925685426,0.265827546649393,1.0,128,0,1,1,895.0914148233462,0.7771558476656297,0.0989810270008417,2113.8723980204086
128,256,4108.912560680702,2174115,237282,52748288,46957216,0.5374729347598216,0.0962927733358583,0.1700197331029388,128,0,1,1,12433.100319834994,0.9216044032260996,0.0544444744080636,2113.8723980204086
128,512,1115.0667106179712,2224362,313480,51961856,47065360,0.871142470970807,0.2905797691063568,0.47587579077343006,128,0,1,1,4442.067528975954,0.919047413979584,0.0430078295289107,2113.8723980204086
1536,1024,896.0009453372107,2203722,162392,67301376,47154456,0.9579347278794574,0.1335099774109701,0.8502989306513266,1536,0,1,1,2486.0344072186335,0.8501143189819859,0.1006498183409077,2113.8723980204086
1536,128,1239.67941511134,2381835,269971,66650112,61334096,0.7866082020612417,0.1470699973613755,0.1962527666696377,1536,0,1,1,10771.172472583778,0.8972576789667105,0.0538488501668918,2113.8723980204086
1536,1536,385.208167520477,2104208,124880,66646016,48725560,1.1288058043203164,0.2193892114150553,1.0,1536,0,1,1,1346.9466737202138,0.7942666105868772,0.0840418869399617,2113.8723980204086
1536,2048,208.167708776844,1689354,162492,62976000,48786992,1.1830042691177898,0.3389840695979867,1.0,1536,0,1,1,908.1704511407862,0.7352347365332956,0.1390969222696492,2113.8723980204086
1536,256,2994.5135729799217,2209067,175158,52748288,46955488,0.6667004821592298,0.0833246768578603,0.1991338985696723,1536,0,1,1,10615.331760206633,0.9142048848669656,0.041682794669975,2113.8723980204086
1536,512,1229.830282962806,2545302,286894,52224000,46762520,0.9313935725118662,0.2935864332503097,0.45938224783303894,1536,0,1,1,4601.554387423105,0.9271342696547896,0.0371442297549362,2113.8723980204086
2048,1024,863.6922288856994,2319846,273400,70447104,47300696,0.943697531708072,0.115819641336365,0.8906304908289926,2048,0,1,1,2373.4561299971115,0.8547888018390898,0.1019924460299928,2113.8723980204086
2048,128,1499.4145070782445,2376407,217309,53534720,47975576,0.8009639438413245,0.2029544863904009,0.19442969412235492,2048,0,1,1,10872.16851089703,0.9007922492680626,0.0503146479228891,2113.8723980204086
2048,1536,599.1055015329142,2135830,166235,79753216,47330600,1.044514379349391,0.1790281597765636,1.0,2048,0,1,1,1786.9361322809768,0.7950380896434301,0.0806311175167549,2113.8723980204086
2048,2048,383.5618743034571,2087535,148721,61919232,32836936,1.0919402705928414,0.1602757389730378,1.0,2048,0,1,1,1311.3182708629538,0.7600663608585114,0.1163025608475739,2113.8723980204086
2048,256,3036.5485161622823,2410646,184288,50651136,46794832,0.6805770146918699,0.1894406669843229,0.1916075525714885,2048,0,1,1,11032.302065607386,0.9261943271291444,0.0377760601046897,2113.8723980204086
2048,512,1265.5841277133295,2496801,172969,50388992,47122472,0.9081048961033554,0.2354979837413867,0.4787925491890024,2048,0,1,1,4415.0068784507375,0.9050505185997284,0.0580877595676763,2113.8723980204086
256,1024,857.4031219170705,2186442,177320,57864192,48204216,0.9526399343150719,0.1433044777340445,0.8423200246139694,256,0,1,1,2509.5834555152414,0.8707465949538571,0.0683198169843193,2113.8723980204086
256,128,1798.7181734340925,2219290,231256,51961856,46666840,0.5918840145826789,0.0580504930857705,0.14520455091335777,256,0,1,1,14557.893569615026,0.9202217822015396,0.0235436241470655,2113.8723980204086
256,1536,578.925664709165,1957739,147189,64811008,48992936,1.0384275792151614,0.1691635787343507,1.0,256,0,1,1,1873.486896930746,0.7819817180813992,0.095273855537443,2113.8723980204086
256,2048,355.98529880381216,1723667,204085,63762432,49102936,1.1009464224605336,0.2314241554937675,1.0,256,0,1,1,1298.2591034377144,0.7999200857951517,0.0897926768160135,2113.8723980204086
256,256,5175.406231640774,2494382,208547,51437568,46645016,0.5353974078635295,0.122216391103231,0.14502090212380103,256,0,1,1,14576.329115756322,0.9357356675522164,0.0178788325488912,2113.8723980204086
256,512,2199.0956971609507,2427794,176150,50651136,46934520,0.7287347365979208,0.0909916077532215,0.3426130035722087,256,0,1,1,6169.854547201655,0.9311398069608436,0.0484509760674042,2113.8723980204086
512,1024,833.4748270905351,2290895,176123,56291328,49593840,0.9461814882084187,0.0875016153567545,0.8765829202515963,512,0,1,1,2411.4916560474235,0.8440417332033305,0.0931403603162399,2113.8723980204086
512,128,3461.690020782607,2457919,287361,50126848,46966480,0.7178041171947768,0.1995366666356777,0.15561441965322062,512,0,1,1,13584.039337299675,0.9245340197326424,0.0095894148444475,2113.8723980204086
512,1536,585.2371641073079,1874460,166784,62976000,48577200,1.0485005990430567,0.1207697493689807,1.0,512,0,1,1,1732.6727397465663,0.7951335908052959,0.0800301462472609,2113.8723980204086
512,2048,337.25258880114313,1821553,124662,65073152,48937016,1.1158240947132512,0.2353477330789948,1.0,512,0,1,1,1324.8505309569082,0.7484792618624693,0.0988527905275408,2113.8723980204086
512,256,3743.674202239889,2556493,197527,51175424,47264312,0.6266837162670188,0.1771670010272566,0.15787856699320194,512,0,1,1,13389.22969899663,0.9309670019541932,0.0289116875542425,2113.8723980204086
512,512,1039.9132261544585,2503856,184996,51699712,48978016,0.848461376616919,0.2237211345747748,0.46367656565960474,512,0,1,1,4558.937316604111,0.9246186972611884,0.0411335705194374,2113.8723980204086
