cpu,memory,duration_std,userDiff,sysDiff,heapTotal,heapUsed,avg_cpu_util,cpu_util_std,slo_preservation,total_cpu_shares,cpu_shares_others,num_containers,arrival_rate,latency,memory_util,memory_util_std,slo_duration
1024,1024,129.4409131795679,88227,27457,53334016,44896568,0.8413081625535248,0.1345585712009801,0.9180964432397991,1024,0,1,1,471.9736116422433,0.8132829609875729,0.0750703829103692,433.31729415178586
1024,128,1196.0972896769642,318358,57914,33267712,29842752,0.569394566183264,0.3377486844497876,0.1751183204030585,1024,0,1,1,2474.4258233772885,0.910305834178055,0.0096221460579098,433.31729415178586
1024,1536,44.23183473107022,237167,50277,51097600,30028280,1.0497730639226082,0.1888568241998301,1.0,1024,0,1,1,251.49203356253474,0.7164992120919431,0.106658554055263,433.31729415178586
1024,2048,26.76163474698568,215405,51780,50311168,29966496,1.220970577070821,0.2190817502551137,1.0,1024,0,1,1,183.12116949781597,0.7036046862402892,0.1258568726265456,433.31729415178586
1024,256,272.88956804745135,260772,39403,32743424,29935568,0.60018327278421,0.2590103949129446,0.3771565354906662,1024,0,1,1,1148.905701946956,0.906693412589728,0.0244614886638576,433.31729415178586
1024,512,141.3083096458752,247845,39625,32743424,29697608,0.7965103043345902,0.220139302431566,0.6407928222964219,1024,0,1,1,676.2205803100261,0.8868118473451156,0.0455529756942114,433.31729415178586
128,1024,121.620945203192,242052,22750,37597184,30132304,0.8359750537086458,0.1204921666201118,0.9367899673218689,128,0,1,1,462.55543853716745,0.8048206903728182,0.0939942445872004,433.31729415178586
128,128,3234.174647875142,288502,61894,32481280,29701712,0.33436685968408236,0.1161165701956382,0.11005634206712481,128,0,1,1,3937.231476287845,0.9108839425853033,0.0123977051831071,433.31729415178586
128,1536,38.10415914408969,172658,28061,72220672,55174192,1.1212838655585111,0.2108379985934913,1.0,128,0,1,1,253.920301852449,0.7432801924799175,0.0819805406171869,433.31729415178586
128,2048,26.363002993020206,267642,27608,50311168,30858208,1.2411978861971802,0.2455006312323882,1.0,128,0,1,1,190.35200597442417,0.7016550725061499,0.1105749694948537,433.31729415178586
128,256,294.2619569369429,247501,57260,32219136,29699696,0.5252958377876444,0.3863903875640085,0.30825250150132333,128,0,1,1,1405.7219066880002,0.9173312678611182,0.0108341210954033,433.31729415178586
128,512,130.45590607731165,312768,24977,32743424,29791696,0.632796345985306,0.0900311487491282,0.5499152331307458,128,0,1,1,787.9710690770445,0.8685098267675373,0.0799723652514591,433.31729415178586
1536,1024,88.34308169983156,297011,20024,36548608,30316328,0.9225536498473097,0.1203439869529895,1.0,1536,0,1,1,409.58573977948896,0.7895110758810585,0.0940351494933442,433.31729415178586
1536,128,987.5263277681644,293180,66110,33005568,30167704,0.5198649526735414,0.1994703600155121,0.21901522781687488,1536,0,1,1,1978.480211038546,0.9143458979010186,0.010435956304004,433.31729415178586
1536,1536,46.35130838786522,191876,21698,38506496,15598392,1.1883160236147126,0.2393749123551916,1.0,1536,0,1,1,259.5289492323386,0.6320473943216107,0.1435458239065234,433.31729415178586
1536,2048,26.26477902891393,268241,37257,50049024,31200600,1.243260853892675,0.1623608986156602,1.0,1536,0,1,1,194.01210715109164,0.7174980345854521,0.0852909369977171,433.31729415178586
1536,256,232.19112640901167,240650,35076,33529856,29607024,0.6982985473719987,0.2527140113319058,0.4838711002072043,1536,0,1,1,895.5221627541505,0.8918543727698507,0.0538524317213038,433.31729415178586
1536,512,143.42683222509507,288640,38889,32481280,29764968,0.7314660402492883,0.2050482700429438,0.6338428872333488,1536,0,1,1,683.6351766021481,0.8966640578272896,0.0879817395736387,433.31729415178586
2048,1024,80.24217421514713,220846,48933,37597184,30301368,0.9330885877127418,0.1242226713924685,1.0,2048,0,1,1,431.67385641948516,0.7762872650528189,0.0924417253817629,433.31729415178586
2048,128,381.730717751916,330437,48258,32743424,30058696,0.6036784435993192,0.170783154011032,0.3274266943335587,2048,0,1,1,1323.4024642790837,0.911935734141583,0.0118076233068516,433.31729415178586
2048,1536,43.38594178673007,201430,42212,72744960,55308416,1.1620566421315819,0.2103424475232786,1.0,2048,0,1,1,259.8852409952466,0.731063047169979,0.0839288482073836,433.31729415178586
2048,2048,26.04138056225535,247698,20238,50311168,30028352,1.251470466287951,0.2140951154534464,1.0,2048,0,1,1,200.56301273177598,0.6946698066988095,0.1263239636030095,433.31729415178586
2048,256,189.48604574552365,282827,35381,33529856,30133064,0.6608102990425727,0.2285847184744568,0.48631780455691515,2048,0,1,1,891.016718062753,0.9068328534427836,0.017784075766818,433.31729415178586
2048,512,126.39921409866908,316154,39854,33005568,30058584,0.6872252128999757,0.2016114736913247,0.5963896001980517,2048,0,1,1,726.5674887823127,0.8890761785849548,0.0598031431569296,433.31729415178586
256,1024,96.52318028933588,264351,31668,39956480,30449280,0.8830851547953035,0.1227640181519093,0.9884450930045215,256,0,1,1,438.38276624415766,0.7853563633629658,0.1160346402599841,433.31729415178586
256,128,876.0863127821988,410896,91842,32743424,30276464,0.37445883790654244,0.0752113391808191,0.19081536619102507,256,0,1,1,2270.8721147645538,0.9189094181815006,0.0121216362985663,433.31729415178586
256,1536,57.46535835399853,237894,39866,49524736,30568016,1.0403804353182775,0.1717987328662532,1.0,256,0,1,1,310.1319359810133,0.7080076834692559,0.0983455142137557,433.31729415178586
256,2048,54.658536233332725,254058,55198,50573312,31062000,1.1137364591892478,0.3337069371701358,1.0,256,0,1,1,272.6292763650925,0.7376411232501254,0.1229495873388821,433.31729415178586
256,256,343.0311717307752,309488,29621,32743424,30226296,0.4259035190993582,0.0809854905992961,0.3011174272557072,256,0,1,1,1439.0309391950777,0.9070511068448568,0.0308029697283263,433.31729415178586
256,512,109.8996114456378,244371,24531,32743424,29996072,0.6578698789311347,0.0765988774524667,0.5735175953937267,256,0,1,1,755.5431561856586,0.894701586444822,0.0432185448229129,433.31729415178586
512,1024,85.20194176617626,243548,37241,37859328,30438584,0.8543191350995927,0.1276801069826129,0.9490681010524383,512,0,1,1,456.5713394763481,0.8139386998499697,0.0760270614964988,433.31729415178586
512,128,1098.3760025924214,298667,40080,33529856,29990464,0.6600236957932591,0.4374922979095264,0.18112568304821974,512,0,1,1,2392.3569913407973,0.9155408900389354,0.013286912190961,433.31729415178586
512,1536,65.42122237578153,196660,37237,72744960,55165648,0.9826991361917875,0.1885930082280926,1.0,512,0,1,1,339.86723367727535,0.7195371364233893,0.0951878364049245,433.31729415178586
512,2048,56.86035882334453,217446,42279,50311168,30012728,1.1417168985656638,0.2437610325742155,1.0,512,0,1,1,256.15854516136056,0.717309388684455,0.1025916164333738,433.31729415178586
512,256,262.2977255940134,273646,41059,32743424,30408080,0.571025567177463,0.1214898784129156,0.4152776531964992,512,0,1,1,1043.4399511180795,0.9102657067628368,0.0272297666699575,433.31729415178586
512,512,118.34974904996524,275918,35729,33005568,29949160,0.6736671545896811,0.0622291615596814,0.5471120882863959,512,0,1,1,792.0082619796876,0.8937698234124776,0.0480921997614755,433.31729415178586
