cpu,memory,duration_std,userDiff,sysDiff,heapTotal,heapUsed,avg_cpu_util,cpu_util_std,slo_preservation,total_cpu_shares,cpu_shares_others,num_containers,arrival_rate,latency,memory_util,memory_util_std,slo_duration
1024,1024,190.5868787088022,217034,40399,39956480,30072120,0.40246598001598505,0.1140135374771246,1.0,1024,0,1,1,793.0949834923346,0.7844408988083104,0.1014582283744313,867.2526095445545
1024,128,583.7739650130618,326075,30208,32481280,29721696,0.4344171709652723,0.1057928353291561,0.6699795327590558,1024,0,1,1,1294.446422822955,0.9084419197085052,0.0115531112415744,867.2526095445545
1024,1536,217.37193816881523,263915,58337,50311168,30002816,0.34106047883015966,0.081840815758905,1.0,1024,0,1,1,841.4097260533721,0.6525572958144304,0.1384139141409717,867.2526095445545
1024,2048,183.72513622759752,276393,15952,68784128,51235896,0.39909197495518983,0.1265936515352582,1.0,1024,0,1,1,662.120624630827,0.6350948316553235,0.1810083165246654,867.2526095445545
1024,256,306.54276936116,238207,51471,32743424,29924592,0.32987742576112744,0.0674555153265943,0.65671897079598,1024,0,1,1,1320.5840673269968,0.90466060703122,0.0513124884819037,867.2526095445545
1024,512,286.18153287529174,239342,38171,32743424,30183040,0.3712429159936315,0.0777580532532751,0.8094181395581397,1024,0,1,1,1071.4519074380846,0.8903219816717673,0.0448042854953938,867.2526095445545
128,1024,257.5861482752079,217968,22242,37597184,30384528,0.41447615996850273,0.1656762539712701,1.0,128,0,1,1,786.3825299616,0.7864367339560026,0.1006070947571877,867.2526095445545
128,128,814.09253910013,270348,44852,32743424,29642120,0.3397204597029006,0.1001165184381286,0.5208907851013505,128,0,1,1,1664.9413549825267,0.91020565806575,0.0132641794427552,867.2526095445545
128,1536,208.35795140156665,227255,47073,36933632,15536424,0.31320169163731976,0.1010280077837317,1.0,128,0,1,1,838.653100601788,0.6560460609091089,0.1651073019260874,867.2526095445545
128,2048,193.5064188349212,184689,39351,37195776,15571720,0.2986396636291935,0.1041472962891365,1.0,128,0,1,1,757.6968551703206,0.6865329264541339,0.1553365321647996,867.2526095445545
128,256,300.3467142827748,300008,33175,32481280,29837600,0.2759439413478633,0.0335123077755701,0.5394257722294135,128,0,1,1,1607.7329897684588,0.9150725266821644,0.0081321607093372,867.2526095445545
128,512,299.0933649472874,282633,55717,32743424,30068392,0.3701765903478266,0.0808561481533121,0.7111491447263314,128,0,1,1,1219.5087570249357,0.8763973302830317,0.0634368186180722,867.2526095445545
1536,1024,225.20789654203475,301495,36762,38121472,31093376,0.39724358629491757,0.1429814221484459,1.0,1536,0,1,1,802.2308128433995,0.7833334385276958,0.1267051055071451,867.2526095445545
1536,128,795.5005552182903,257806,26094,32481280,29617632,0.32135717090405835,0.0801289162488685,0.49305900037892314,1536,0,1,1,1758.922581025918,0.9151993534004498,0.0114139590580878,867.2526095445545
1536,1536,204.61548229702777,220747,28763,49524736,30525304,0.28792633752381747,0.1147301370699385,1.0,1536,0,1,1,823.9172815866036,0.7062822846407956,0.1316529538467209,867.2526095445545
1536,2048,202.77378482101733,240439,40451,50835456,29870152,0.2941459922627913,0.0962417317518337,1.0,1536,0,1,1,749.3679694107605,0.6552869853283356,0.173784308196784,867.2526095445545
1536,256,384.22481745468,286985,58648,32743424,30165048,0.31078647851906915,0.065761539042137,0.61345381178457,1536,0,1,1,1413.7211194786942,0.9002372067034647,0.031097031085535,867.2526095445545
1536,512,215.2490542707529,254288,38038,33005568,29708088,0.3943219225731173,0.0585914400491181,0.8528419661102798,1536,0,1,1,1016.8972025380036,0.8714349368567215,0.0695565074238223,867.2526095445545
2048,1024,149.52338179352682,239062,58797,37072896,30193064,0.38297199879894483,0.1039312324983315,1.0,2048,0,1,1,808.6085496902656,0.7685487258895103,0.1064119879764059,867.2526095445545
2048,128,171.85512829237024,338712,53329,33005568,29880488,0.3776301658835778,0.0370755365005098,0.6493333581138179,2048,0,1,1,1335.6045838515797,0.9106401198895836,0.0118500628150103,867.2526095445545
2048,1536,224.70637671715,189574,30653,69046272,51705624,0.3255300457189514,0.1027165113028884,1.0,2048,0,1,1,763.0923372435591,0.7235110037753545,0.1313119503114172,867.2526095445545
2048,2048,229.3543777422691,234233,38324,50311168,29917280,0.3543063807979497,0.1159176868102256,1.0,2048,0,1,1,717.5346709353885,0.6091877144371793,0.1775873471886855,867.2526095445545
2048,256,453.89913915453474,334053,46238,33267712,29874472,0.33298345731545054,0.0912091905799618,0.5842750298525559,2048,0,1,1,1484.3225625497107,0.8930559419246662,0.0464855704084586,867.2526095445545
2048,512,227.330028729774,233381,76864,32481280,30209416,0.4240005843807287,0.1513129919626837,0.8657215561991277,2048,0,1,1,1001.7685286157696,0.8746059756901946,0.0752617003073203,867.2526095445545
256,1024,192.40729344255016,226114,64823,38645760,30754224,0.42842958373287665,0.1407399530377921,1.0,256,0,1,1,753.1121677823915,0.7758585820138282,0.111055769182796,867.2526095445545
256,128,435.664057302967,262205,39439,32219136,30076880,0.3316549226761262,0.0722464359260609,0.5572891664125413,256,0,1,1,1556.198580222459,0.9192424166010406,0.0112277039925214,867.2526095445545
256,1536,168.76428750015856,288568,53022,51097600,30186176,0.29424103936869683,0.1010938841466044,1.0,256,0,1,1,761.6332467098911,0.7054757891720634,0.1411841305109867,867.2526095445545
256,2048,191.09659224509565,261962,37473,50049024,29911872,0.33882641711516376,0.1361362384333292,1.0,256,0,1,1,680.2613604549454,0.6435610967412251,0.1626283713726057,867.2526095445545
256,256,302.40596712489986,255927,45991,33005568,30039912,0.321571657919782,0.0699930182183129,0.6081171264357017,256,0,1,1,1426.1275860255714,0.9072569591132498,0.0272281886050771,867.2526095445545
256,512,277.29982414216323,321539,46071,33005568,30305944,0.3825564478036465,0.1363287446709069,0.7657763885951082,256,0,1,1,1132.5141679225894,0.8966651034656605,0.0401105851095488,867.2526095445545
512,1024,225.7040833074851,222202,40021,38383616,30992016,0.36648009034872775,0.1065255099344963,0.9719907765608761,512,0,1,1,892.2436616251556,0.737962851923833,0.1213396132045915,867.2526095445545
512,128,523.4934137252909,293019,44176,32219136,29890096,0.2994213523094547,0.0601475717429566,0.5014165863213391,512,0,1,1,1729.6049496630826,0.9292100197845156,0.0064206743323266,867.2526095445545
512,1536,222.792064236505,199900,84299,50311168,29862584,0.31688337550688894,0.0962128204460701,1.0,512,0,1,1,769.9843801759071,0.6739312944214174,0.1632431122538944,867.2526095445545
512,2048,211.832730210806,177293,48258,36671488,15570688,0.2972954168872819,0.07772653452686,1.0,512,0,1,1,800.5723679234095,0.666862132407266,0.1687596863457816,867.2526095445545
512,256,306.825871720554,225034,52088,32481280,30238640,0.34964917888935587,0.0959052898418309,0.6676198744607642,512,0,1,1,1299.0215581060006,0.9053006837238406,0.0296529751195339,867.2526095445545
512,512,310.16623529041266,265719,41950,33267712,29615208,0.40441584626877236,0.1085547298370834,0.815515555310367,512,0,1,1,1063.440916481964,0.8741074456113213,0.0699831457577977,867.2526095445545
