cpu,memory,duration_std,userDiff,sysDiff,heapTotal,heapUsed,avg_cpu_util,cpu_util_std,slo_preservation,total_cpu_shares,cpu_shares_others,num_containers,arrival_rate,latency,memory_util,memory_util_std,slo_duration
1024,1024,88.51324125619297,340045,33069,38907904,30053880,0.9960049347629647,0.0897502653088113,0.30895954084074795,1024,0,1,1,822.5048879794829,0.8214287137762704,0.0858015179036273,254.12073252941184
1024,128,105.02793326928382,348922,58424,32743424,30200104,0.9260886497284254,0.1617117282222387,0.23166482867725455,1024,0,1,1,1096.9327281157637,0.8915606969055497,0.0396458966114651,254.12073252941184
1024,1536,50.049694071297296,315996,21805,68501504,51705600,1.0664162249093112,0.1782711065834223,0.3829779417475892,1024,0,1,1,663.53882254894,0.725697595992373,0.1335812279742241,254.12073252941184
1024,2048,34.85617541976947,296860,38594,50311168,29917664,1.1121062493760274,0.2133424136845958,0.5112299021601207,1024,0,1,1,497.0772082299277,0.7541972366879175,0.0981188481025866,254.12073252941184
1024,256,44.0769574945313,377889,27469,33267712,30100872,1.0638622817594914,0.0772196013402331,0.29364758992264495,1024,0,1,1,865.3935576190304,0.8809413816388737,0.0496300831769281,254.12073252941184
1024,512,104.18899842555015,285516,46284,33529856,29720112,0.9982818672847067,0.1276447507094371,0.27495470407400174,1024,0,1,1,924.2276228197114,0.8991041372921769,0.0694771041783173,254.12073252941184
128,1024,65.9684211437386,365501,46634,39956480,31089408,1.0184056490652473,0.0783984271563787,0.3146260583293513,128,0,1,1,807.6913078299372,0.7461173731456615,0.1009689665285798,254.12073252941184
128,128,434.5543993506807,307674,42445,32481280,29696320,1.013747013403348,0.3733879775884853,0.19484384311380804,128,0,1,1,1304.2276751900251,0.8676814826162755,0.0613840080860008,254.12073252941184
128,1536,61.78420256358099,302785,63614,50835456,29920656,1.0828204086245852,0.1429690384116952,0.43864673119176895,128,0,1,1,579.3289097105218,0.7360153421136721,0.0805552712554583,254.12073252941184
128,2048,42.195662121175005,318601,44740,50049024,29921920,1.1141983431339813,0.1805534296057651,0.5086616295817409,128,0,1,1,499.5869901536875,0.7649465444592428,0.0976778903491836,254.12073252941184
128,256,102.80092336427668,371404,39752,33005568,30265296,0.9921657392638207,0.1231502320124466,0.2604731353175917,128,0,1,1,975.6120615646813,0.8976384130117628,0.0561512711323538,254.12073252941184
128,512,105.07648915584716,368519,38786,33005568,30286456,1.0291831367906255,0.128691579761863,0.28505749816185916,128,0,1,1,891.4718404815262,0.8682440618475316,0.0725162522081578,254.12073252941184
1536,1024,92.60642476410209,351104,37006,37597184,30394488,1.008522299256778,0.180945529618266,0.29233928974430073,1536,0,1,1,869.2664361047146,0.7879753058328346,0.1018469354988227,254.12073252941184
1536,128,403.93261362162247,433022,22619,33267712,29856808,1.0144456755458129,0.3721747219762241,0.1854650914474726,1536,0,1,1,1370.1809356473095,0.8821484994452181,0.0508505950165638,254.12073252941184
1536,1536,71.47676270246673,310725,59606,42446848,31111328,1.0678872122570517,0.1344582082584694,0.4090023453190868,1536,0,1,1,621.318521611795,0.7656916953428088,0.0688289081581446,254.12073252941184
1536,2048,41.41834452791475,371806,30655,50573312,30906776,1.109938532247742,0.1314560835977859,0.4665106339757455,1536,0,1,1,544.7265593148813,0.7014630147627834,0.1121404779164885,254.12073252941184
1536,256,55.19579473422529,325104,24898,33005568,29927664,1.0621149063261452,0.125757825345452,0.3171358632580826,1536,0,1,1,801.2992599408742,0.9042869256913564,0.0664848104422594,254.12073252941184
1536,512,75.87327642190462,416032,51974,33005568,29854368,1.0273550143007233,0.1187148597942937,0.27923902309931253,1536,0,1,1,910.0473483572987,0.8942968213643507,0.0425634147659226,254.12073252941184
2048,1024,86.51121322324728,382389,34141,39956480,31475640,1.0084148647827045,0.1184812986750893,0.3105799644486027,2048,0,1,1,818.2135411747264,0.7969796308379753,0.0848114683779763,254.12073252941184
2048,128,525.9014545364065,296697,21024,32743424,29924936,0.9415239513597542,0.2957403663632638,0.16799243334241812,2048,0,1,1,1512.6915389780613,0.8921708462981786,0.0652882762067676,254.12073252941184
2048,1536,73.35910548947957,287772,23566,68763648,51743056,1.0777911620200087,0.1781594448759128,0.4223431142740676,2048,0,1,1,601.6926142295465,0.7387900295202585,0.0953810395584943,254.12073252941184
2048,2048,28.630501207703617,282145,25206,50311168,29886672,1.101444506768335,0.1250278557135263,0.5151232873413338,2048,0,1,1,493.32021823549394,0.7352898674775539,0.0894563838235288,254.12073252941184
2048,256,67.91269165952369,364821,6802,33005568,30280296,1.0882926363087435,0.1211558975260579,0.3284754581959318,2048,0,1,1,773.6368918551954,0.8658145729041111,0.050675198034581,254.12073252941184
2048,512,64.14517124473198,305507,35525,33005568,30003264,1.0962935819830324,0.1760197904703903,0.3488552639797179,2048,0,1,1,728.4417314803259,0.9205385347772636,0.0322320506290698,254.12073252941184
256,1024,81.4674528115613,405367,13528,39694336,30086872,1.0037728667930872,0.1123535131965112,0.31609100625094005,256,0,1,1,803.9480007465605,0.796437860471296,0.0885519801840197,254.12073252941184
256,128,95.16603945023334,405631,29411,32743424,29795608,1.01482815210153,0.1876247989702683,0.2580321503575914,256,0,1,1,984.8413547584711,0.8400410399913254,0.0809025081533518,254.12073252941184
256,1536,62.44266676784639,275809,41175,68239360,51748128,1.077748766085936,0.1626463557331972,0.40591052253457244,256,0,1,1,626.0511083640797,0.7747511125594545,0.101993096618992,254.12073252941184
256,2048,39.63658275184695,391894,14413,50835456,30756480,1.1022823327966633,0.1310322282269111,0.4968617217824542,256,0,1,1,511.4516200156711,0.7350781579130531,0.0912176390130137,254.12073252941184
256,256,75.07435473195913,447990,37279,33005568,29632512,1.0223056851806618,0.1077278118423261,0.2774015682796968,256,0,1,1,916.0753275669606,0.8552681598262734,0.0691283447914838,254.12073252941184
256,512,79.4952213148841,452752,49729,33267712,29719008,1.010246187103832,0.1005744168332496,0.2902181181685948,256,0,1,1,875.6198066923821,0.8656875103746181,0.0650856204047495,254.12073252941184
512,1024,87.5681394059166,434710,30953,38121472,30027792,1.0223727117206236,0.1508135165980062,0.30959125610675464,512,0,1,1,820.8265818779611,0.7810720233935631,0.10038338261045,254.12073252941184
512,128,106.53583220512353,353136,29343,32743424,29681560,0.9520924784369101,0.1573845523902926,0.2455782223081264,512,0,1,1,1034.7852922013874,0.8965907317757452,0.0618805055040427,254.12073252941184
512,1536,69.83024381739791,356728,53933,37982208,15549856,1.0777650832243257,0.1219168935559884,0.3792711090630694,512,0,1,1,670.0239655933135,0.7153244347377061,0.1210556740800993,254.12073252941184
512,2048,32.743424135525856,344166,24536,50573312,30156864,1.107100799573134,0.1745668650672949,0.4841207785576966,512,0,1,1,524.911848003083,0.719297563176514,0.1096416044368798,254.12073252941184
512,256,55.7094636974762,324983,12545,33005568,30130368,1.076141541333785,0.1434714057776456,0.3420935016899943,512,0,1,1,742.8399875297732,0.8900404606399398,0.0601325331231283,254.12073252941184
512,512,55.88176757114248,288570,51555,33529856,29973320,0.9921816638131119,0.1149685171432498,0.2703370576373591,512,0,1,1,940.0144203326334,0.8834994354995954,0.0526009420167963,254.12073252941184
