cpu,memory,duration_std,userDiff,sysDiff,heapTotal,heapUsed,avg_cpu_util,cpu_util_std,slo_preservation,total_cpu_shares,cpu_shares_others,num_containers,arrival_rate,latency,memory_util,memory_util_std,slo_duration
1024,1024,109.00998312348806,482062,49650,47820800,29778624,0.9345661624012838,0.0919925518217255,0.29381461885443055,1024,0,1,1,1112.0256094776516,0.7742777261595195,0.1026716559823205,326.7293806050421
1024,128,387.0738413570601,496572,56377,47169536,44264944,0.9385879823705278,0.297089901794183,0.19957229836968732,1024,0,1,1,1637.147957277163,0.8809636605914856,0.0582039307293135,326.7293806050421
1024,1536,65.88717794014902,462194,26747,64212992,46051704,1.108941370615795,0.2342643165030656,0.49871910155902305,1024,0,1,1,655.1370893628663,0.7595149203566164,0.1209609588711419,326.7293806050421
1024,2048,37.67388774574848,344965,55899,58183680,44754176,1.1789653525058763,0.2952254817196241,0.6131047512330401,1024,0,1,1,532.9095557454795,0.7162094023082299,0.151502344416182,326.7293806050421
1024,256,52.24524935135306,431701,71563,38772736,29669944,1.1043998612868209,0.1270694620228974,0.3274628032111095,1024,0,1,1,997.7602872788132,0.8682802513256064,0.0704334445298657,326.7293806050421
1024,512,70.58294401420844,420743,69902,43753472,29702544,1.000051702391576,0.1142549935573854,0.27581175854050527,1024,0,1,1,1184.610048295164,0.877531713570961,0.0730741413108882,326.7293806050421
128,1024,86.87858146713897,415122,56816,52809728,45391088,1.020456358946936,0.1629927192879962,0.3258956682381797,128,0,1,1,1002.5582186206078,0.7767414453858733,0.093121193085828,326.7293806050421
128,128,270.8853580059737,489790,59010,33005568,29661440,0.9297032142218954,0.2767187150230553,0.21221195560024333,128,0,1,1,1539.637009050151,0.8837293332003505,0.0663597194749764,326.7293806050421
128,1536,75.15509270788498,392541,38432,59494400,45452408,1.0783869030279687,0.1656363129836475,0.4343574742670005,128,0,1,1,752.2130962668799,0.7722316478512419,0.1089007533698125,326.7293806050421
128,2048,42.11252143072408,384685,88119,58707968,46232456,1.18088676553632,0.2386853988409983,0.6044946038754866,128,0,1,1,540.5000780988636,0.7169573978446909,0.1532175549391759,326.7293806050421
128,256,71.17287769936902,374906,69205,33529856,29829696,0.9928955949436423,0.1086007140931392,0.2744350247125241,128,0,1,1,1190.5527763713735,0.8454488580948011,0.1061240167480775,326.7293806050421
128,512,71.90127238403605,456322,54379,33005568,30318328,1.021641167605243,0.1805413970791781,0.2607549202003845,128,0,1,1,1253.0132906177098,0.8744798937743063,0.0720793383530878,326.7293806050421
1536,1024,79.08207541163168,437233,28520,46247936,30350664,1.0397464535344199,0.1443496586099113,0.34052320006508535,1536,0,1,1,959.4922770095934,0.7135114394787408,0.1137457354761358,326.7293806050421
1536,128,127.85851344721011,468128,66556,36151296,29755312,0.9803722121276983,0.2338036469973331,0.2403500490628949,1536,0,1,1,1359.3896979798137,0.8852103172291292,0.0697266138910679,326.7293806050421
1536,1536,62.80428287176723,341374,76245,46903296,31172840,1.0987539190547675,0.1744829374492122,0.4345825101515065,1536,0,1,1,751.8235846425018,0.7272306660515564,0.1472898097650152,326.7293806050421
1536,2048,35.15128755621094,313574,63813,59232256,44718496,1.1857134372015972,0.2528186232126047,0.5541985534952629,1536,0,1,1,589.5529292604601,0.6585587651980678,0.1366330021860725,326.7293806050421
1536,256,89.45180578085021,465761,55915,47169536,43924272,1.0400934553069177,0.1663378833180867,0.30097697351865316,1536,0,1,1,1085.5627152646377,0.8855897923117839,0.0689933101476772,326.7293806050421
1536,512,91.86963591713793,392480,50789,32743424,30086016,0.9408475600736931,0.1100797167353317,0.25545567731836527,1536,0,1,1,1279.0061431981837,0.8892197780628596,0.0516299150930531,326.7293806050421
2048,1024,127.97352935596676,473659,64938,48869376,30892144,0.9299853107268928,0.1234835500015349,0.27760240421972154,2048,0,1,1,1176.9688433477568,0.7796901375510648,0.1369629292953607,326.7293806050421
2048,128,407.5042240451069,314866,90402,41394176,29582656,1.040619714213316,0.4113787141521779,0.21340904290889487,2048,0,1,1,1531.0006368592549,0.8807447939888015,0.0586250698641534,326.7293806050421
2048,1536,56.00760047622752,309652,35406,45068288,30538456,1.1120528961790526,0.199503057888487,0.4736587248723432,2048,0,1,1,689.7991390174427,0.7170783282817438,0.1296193161876915,326.7293806050421
2048,2048,42.18030372272537,374898,37718,58183680,45094088,1.1876118686411563,0.2363127239675111,0.5518108589467401,2048,0,1,1,592.1039343601926,0.6738173671313106,0.1523744402435814,326.7293806050421
2048,256,57.73581836371768,416584,60767,40345600,30012680,0.9832238978797142,0.134480410041733,0.27311955553776307,2048,0,1,1,1196.2870251517622,0.848126672559881,0.0740740442828213,326.7293806050421
2048,512,83.3389865178733,459305,56086,39821312,30284904,1.0326999604041427,0.1718228230516736,0.2703936634057456,2048,0,1,1,1208.347031841351,0.8908146209735508,0.0583464444630645,326.7293806050421
256,1024,85.48434243696414,384621,28011,53596160,44143856,1.0191585697778875,0.2544755733505253,0.31639252653213434,256,0,1,1,1032.670980526014,0.7386732636138563,0.1152423972790409,326.7293806050421
256,128,512.2913865711339,412966,65164,36937728,30098784,0.9055094355785878,0.2499855397521977,0.17998554554814383,256,0,1,1,1815.3089994532152,0.8503799364094249,0.090226639881678,326.7293806050421
256,1536,78.99012666553894,447384,45166,59232256,46135392,1.1286520003907812,0.1810344528187875,0.4248619193443382,256,0,1,1,769.0248660300323,0.6983270288735597,0.1413856415543042,326.7293806050421
256,2048,41.04549778221886,375694,77069,58707968,46066656,1.192706511057657,0.2074952769401349,0.580035769415866,256,0,1,1,563.2917792881635,0.7808068572910949,0.1109699558026184,326.7293806050421
256,256,54.61774410495405,469406,78021,35102720,30112464,1.0249922793497828,0.1304977867392446,0.2801252189064884,256,0,1,1,1166.3690326793144,0.9013764272650628,0.0267071418697925,326.7293806050421
256,512,97.10871794830808,487411,29178,33005568,29696496,0.943182718767011,0.1167211888850354,0.25378416062302295,256,0,1,1,1287.4301524687103,0.9068715757613935,0.046874711066248,326.7293806050421
512,1024,138.1117466283753,417850,51062,39694336,30086184,0.9664944597285134,0.2098398759011698,0.2905084180458739,512,0,1,1,1124.6812839463005,0.7626847411614686,0.1260195529686943,326.7293806050421
512,128,238.3709892994028,477952,67816,33005568,29648376,0.9144582650883203,0.184783530511074,0.21378796373472742,512,0,1,1,1528.287069567933,0.8959264315428549,0.043304959871616,326.7293806050421
512,1536,48.9299489761297,337396,65494,58970112,44555360,1.0741131142293003,0.1631689790494609,0.40403380445001935,512,0,1,1,808.6684257763878,0.6672642770595958,0.1451409169523882,326.7293806050421
512,2048,51.55685955837343,317570,44611,59494400,44619360,1.169802347781146,0.308742697495111,0.5236075875749063,512,0,1,1,623.9966500834955,0.697248785384136,0.1316544213938929,326.7293806050421
512,256,42.25244707089985,520097,49758,47169536,43945128,1.1073252529970454,0.1780139422978014,0.33293450568661,512,0,1,1,981.3623250952284,0.837492158487842,0.1121937312449019,326.7293806050421
512,512,71.31844489026226,393188,37878,35627008,29873888,1.046056801041987,0.1332190569254083,0.27978757168604146,512,0,1,1,1167.7766050726352,0.8750114061440903,0.0729244991286738,326.7293806050421
