cpu,memory,duration_std,userDiff,sysDiff,heapTotal,heapUsed,avg_cpu_util,cpu_util_std,slo_preservation,total_cpu_shares,cpu_shares_others,num_containers,arrival_rate,latency,memory_util,memory_util_std,slo_duration
1024,1024,123.12491687844738,606996,64937,44675072,31217888,0.9684736724534655,0.1333641587230131,1.0,1024,0,1,1,737.312688341564,0.7698992973764568,0.1038612092109973,1003.2251053333334
1024,128,794.271261877504,621501,62796,32481280,29543424,0.49953545880461875,0.2334446653324504,0.37315910702735455,1024,0,1,1,2688.464749862829,0.9265542737844908,0.0217503367644953,1003.2251053333334
1024,1536,90.46341114919046,508631,70053,58445824,45120104,1.1315851374677728,0.172458158024937,1.0,1024,0,1,1,554.6991639722752,0.7135115068530494,0.1023736304228308,1003.2251053333334
1024,2048,57.81371411062975,521552,64414,77328384,58541584,1.2176137936218872,0.1277447771655924,1.0,1024,0,1,1,450.99530077909094,0.6292758060652635,0.1398251230815519,1003.2251053333334
1024,256,483.8683573523608,573696,75834,32481280,29294128,0.4458523984805509,0.1056867622006691,0.43516667867798947,1024,0,1,1,2305.381258466461,0.8775575436157983,0.0808161347846764,1003.2251053333334
1024,512,145.27918553240752,597657,93115,32743424,29678016,0.5967745389528397,0.0655375867487675,0.6637952703092033,1024,0,1,1,1511.3471731517761,0.8812821520757513,0.0911568191728666,1003.2251053333334
128,1024,151.9618163766233,557251,41966,53596160,44517584,0.9271237236678453,0.1452679379928244,1.0,128,0,1,1,793.5212953522308,0.7998756873563115,0.0661647711009372,1003.2251053333334
128,128,1099.9189270152517,510693,81093,32743424,29357856,0.5408961078016087,0.2189532250436309,0.4094585474306344,128,0,1,1,2450.126176699945,0.9136270416044328,0.020676880178207,1003.2251053333334
128,1536,81.23477072562774,620894,61863,76279808,58460408,1.2568724589780678,0.1791865065109223,1.0,128,0,1,1,441.60340742979207,0.6397874551186387,0.1514285287974296,1003.2251053333334
128,2048,30.49811004251792,459575,73089,57389056,31394160,1.4915343583849203,0.1499548703387951,1.0,128,0,1,1,296.7556261478492,0.4599146536150507,0.1544146512769043,1003.2251053333334
128,256,419.180354220624,609914,65517,31694848,29369032,0.34613429469554435,0.0287565562075133,0.34615433702312487,128,0,1,1,2898.2017500081556,0.883785493803081,0.0692679058594371,1003.2251053333334
128,512,273.48115071389265,672556,41426,32481280,29351320,0.5896763507122592,0.092865714173561,0.6080499703676441,128,0,1,1,1649.9056890451873,0.8837754299411227,0.0756896018264952,1003.2251053333334
1536,1024,147.58589655861002,556683,78558,53334016,44210568,0.8982156614884128,0.1984010560064421,1.0,1536,0,1,1,824.2742680140345,0.7727908793916438,0.1020133519421329,1003.2251053333334
1536,128,542.5962744669342,495892,120508,32743424,29323968,0.5284661133814004,0.1369145863464691,0.474645055241922,1536,0,1,1,2113.632269532439,0.8851919272244171,0.0505831589157068,1003.2251053333334
1536,1536,78.23997643325673,502284,67233,72347648,58895624,1.1285548281512832,0.1365726575609473,1.0,1536,0,1,1,513.9823655372129,0.6840030516499251,0.1226213422070726,1003.2251053333334
1536,2048,55.216548990975376,438394,55729,69464064,59528344,1.3064142556897986,0.1407015442228842,1.0,1536,0,1,1,417.33217740792645,0.6698288552150445,0.1453824626095838,1003.2251053333334
1536,256,727.9249445694595,576666,76401,32743424,29308736,0.4944752389140958,0.219093042304588,0.4134385304779003,1536,0,1,1,2426.5399361150235,0.8759904595647623,0.0609958104275316,1003.2251053333334
1536,512,268.4100640427234,587542,78329,48742400,44337016,0.6152868102105403,0.1346004478455981,0.6386348658083199,1536,0,1,1,1570.8899702235203,0.8604475474706943,0.0936566865826268,1003.2251053333334
2048,1024,96.10259273874183,613275,76069,41005056,30063880,0.9009751969463003,0.0852043876707078,1.0,2048,0,1,1,804.2333010282264,0.7574463728994301,0.1101875169444962,1003.2251053333334
2048,128,1399.824807357664,586758,95924,60547072,58321832,0.6270122666228285,0.3273880780548593,0.38215272422774565,2048,0,1,1,2625.1941742941935,0.904998371300814,0.0466831881281236,1003.2251053333334
2048,1536,91.8399887363557,529535,79280,73134080,58830440,1.0683048762559522,0.1247028685713147,1.0,2048,0,1,1,548.3914625962279,0.73438579088891,0.1193486374623233,1003.2251053333334
2048,2048,50.97599039561442,394452,55246,69726208,59383096,1.2661015876958206,0.1837675274379631,1.0,2048,0,1,1,426.23546994190804,0.6721930816287827,0.1507795493945123,1003.2251053333334
2048,256,278.1978936228518,557896,67005,33529856,29389112,0.6191619709963084,0.1158533439203604,0.6292368053680889,2048,0,1,1,1594.3522323785082,0.8976468958491651,0.0434423153286189,1003.2251053333334
2048,512,341.91932694790364,557333,84167,31956992,29360816,0.7391260821459681,0.2498238687504198,0.7177281816509322,2048,0,1,1,1397.7786172833505,0.8751574910252666,0.0904720216259212,1003.2251053333334
256,1024,107.4924395997446,518794,39041,50450432,44055264,0.9266677459817498,0.1124683951326434,1.0,256,0,1,1,779.807424360731,0.7974809556685797,0.1161154042809364,1003.2251053333334
256,128,1160.6560116172252,635214,68394,32481280,29316848,0.546045111478735,0.2697774705767597,0.40278200129286484,256,0,1,1,2490.7396609410143,0.9178841389192895,0.0146806159169081,1003.2251053333334
256,1536,53.33341685859885,427243,37478,55816192,29954328,1.3097604641825402,0.1591678144708645,1.0,256,0,1,1,418.1452644273778,0.5805049657809402,0.1277505063633565,1003.2251053333334
256,2048,37.402277794050846,475803,70865,75493376,59204416,1.5944243746119278,0.2144202845936907,1.0,256,0,1,1,272.6697796457479,0.5397962713643556,0.2079651397922361,1003.2251053333334
256,256,385.6782913770863,631945,71766,32481280,30006496,0.35983308333315583,0.0378769794391626,0.33921766389686997,256,0,1,1,2957.4671725772428,0.8879410811473584,0.05167846842509,1003.2251053333334
256,512,311.9019707992808,697379,69453,32481280,29969296,0.561518500721178,0.0687217753087606,0.5950036546000953,256,0,1,1,1686.0822577763925,0.897959164140641,0.0567430397577473,1003.2251053333334
512,1024,131.02154090724605,473057,49585,42577920,30593488,0.9216276204726529,0.113188615025227,1.0,512,0,1,1,777.223573485593,0.7843804179868538,0.1112248756876889,1003.2251053333334
512,128,654.7687992453488,716176,77121,32219136,29283520,0.5408019434618748,0.1610680974558686,0.48457947344578634,512,0,1,1,2070.3004570117682,0.8762668677565758,0.0559134835681971,1003.2251053333334
512,1536,98.44452965702386,486186,79159,59494400,44387672,1.1436219505220186,0.1652573371448309,1.0,512,0,1,1,522.8009265531404,0.6841418773975267,0.1167827869870029,1003.2251053333334
512,2048,53.72701619740029,422947,88852,72871936,59085168,1.2172806278146446,0.157580710358191,1.0,512,0,1,1,428.88511250244267,0.6346047636457444,0.1595767650576528,1003.2251053333334
512,256,434.2575972968445,644896,54534,32481280,29689176,0.36247068029345336,0.0461957267564409,0.35084676325617464,512,0,1,1,2859.439534292689,0.8930851435381036,0.048483133665353,1003.2251053333334
512,512,333.2448792014073,607630,101900,46383104,44062584,0.5730006595690962,0.0955998184701893,0.5901497815837599,512,0,1,1,1699.949973108557,0.8967195794863116,0.0626238488302005,1003.2251053333334
