cpu,memory,duration_std,userDiff,sysDiff,heapTotal,heapUsed,avg_cpu_util,cpu_util_std,slo_preservation,total_cpu_shares,cpu_shares_others,num_containers,arrival_rate,latency,memory_util,memory_util_std,slo_duration
1024,1024,123.12491687844738,606996,64937,44675072,31217888,0.9839843793759045,0.1333641587230131,0.6912212377041906,1024,0,1,1,1451.380615366256,0.7698992973764568,0.1038612092109973,1003.2251053333334
1024,128,794.271261877504,621501,62796,32481280,29543424,0.6662536132394393,0.2334446653324504,0.24884980534226578,1024,0,1,1,4031.4482221656017,0.9265542737844908,0.0217503367644953,1003.2251053333334
1024,1536,90.46341114919046,508631,70053,58445824,45120104,1.0617311197919546,0.172458158024937,0.8484733323167157,1024,0,1,1,1182.3884936891009,0.7135115068530494,0.1023736304228308,1003.2251053333334
1024,2048,57.81371411062975,521552,64414,77328384,58541584,1.0981297078182728,0.1277447771655924,1.0,1024,0,1,1,1000.1333998663639,0.6292758060652635,0.1398251230815519,1003.2251053333334
1024,256,483.8683573523608,573696,75834,32481280,29294128,0.6167329375378816,0.1056867622006691,0.30097586664814957,1024,0,1,1,3333.241021965843,0.8775575436157983,0.0808161347846764,1003.2251053333334
1024,512,145.27918553240752,597657,93115,32743424,29678016,0.7474750184133107,0.0655375867487675,0.41571007936068316,1024,0,1,1,2413.2806856071047,0.8812821520757513,0.0911568191728666,1003.2251053333334
128,1024,151.9618163766233,557251,41966,53596160,44517584,0.9621839140699014,0.1452679379928244,0.6560398304507353,128,0,1,1,1529.2137135089233,0.7998756873563115,0.0661647711009372,1003.2251053333334
128,128,1099.9189270152517,510693,81093,32743424,29357856,0.7020539607609281,0.2189532250436309,0.2657275499350878,128,0,1,1,3775.389889299782,0.9136270416044328,0.020676880178207,1003.2251053333334
128,1536,81.23477072562774,620894,61863,76279808,58460408,1.1138178889800365,0.1791865065109223,1.0,128,0,1,1,996.6425680191684,0.6397874551186387,0.1514285287974296,1003.2251053333334
128,2048,30.49811004251792,459575,73089,57389056,31394160,1.1972817901269264,0.1499548703387951,1.0,128,0,1,1,739.3768385913968,0.4599146536150507,0.1544146512769043,1003.2251053333334
128,256,419.180354220624,609914,65517,31694848,29369032,0.5142641355464904,0.0287565562075133,0.257146956575692,128,0,1,1,3901.368768632621,0.883785493803081,0.0692679058594371,1003.2251053333334
128,512,273.48115071389265,672556,41426,32481280,29351320,0.7418822711277714,0.092865714173561,0.3824992238798831,128,0,1,1,2622.816054780749,0.8837754299411227,0.0756896018264952,1003.2251053333334
1536,1024,147.58589655861002,556683,78558,53334016,44210568,0.9463789386123931,0.1984010560064421,0.6411816681107431,1536,0,1,1,1564.6503249061377,0.7727908793916438,0.1020133519421329,1003.2251053333334
1536,128,542.5962744669342,495892,120508,32743424,29323968,0.6914986321970639,0.1369145863464691,0.31053685200247755,1536,0,1,1,3230.6153001297553,0.8851919272244171,0.0505831589157068,1003.2251053333334
1536,1536,78.23997643325673,502284,67233,72347648,58895624,1.0603953567232922,0.1365726575609473,0.9169915452621848,1536,0,1,1,1094.0396457488523,0.6840030516499251,0.1226213422070726,1003.2251053333334
1536,2048,55.216548990975376,438394,55729,69464064,59528344,1.1328530878327219,0.1407015442228842,1.0,1536,0,1,1,962.5408833317057,0.6698288552150445,0.1453824626095838,1003.2251053333334
1536,256,727.9249445694595,576666,76401,32743424,29308736,0.6617376133623835,0.219093042304588,0.27664461726265194,1536,0,1,1,3626.4038507600944,0.8759904595647623,0.0609958104275316,1003.2251053333334
1536,512,268.4100640427234,587542,78329,48742400,44337016,0.7618297955770993,0.1346004478455981,0.3953693311747396,1536,0,1,1,2537.4378491940806,0.8604475474706943,0.0936566865826268,1003.2251053333334
2048,1024,96.10259273874183,613275,76069,41005056,30063880,0.9479084192088504,0.0852043876707078,0.6562055348927099,2048,0,1,1,1528.827557812906,0.7574463728994301,0.1101875169444962,1003.2251053333334
2048,128,1399.824807357664,586758,95924,60547072,58321832,0.7707529678609135,0.3273880780548593,0.23488005104041157,2048,0,1,1,4271.223123843441,0.904998371300814,0.0466831881281236,1003.2251053333334
2048,1536,91.8399887363557,529535,79280,73134080,58830440,1.0330245685924204,0.1247028685713147,0.8844904554457659,2048,0,1,1,1134.2407361849118,0.73438579088891,0.1193486374623233,1003.2251053333334
2048,2048,50.97599039561442,394452,55246,69726208,59383096,1.1174270337837737,0.1837675274379631,1.0,2048,0,1,1,965.892875167632,0.6721930816287827,0.1507795493945123,1003.2251053333334
2048,256,278.1978936228518,557896,67005,33529856,29389112,0.7647931239582209,0.1158533439203604,0.3886188143246131,2048,0,1,1,2581.5145030403496,0.8976468958491651,0.0434423153286189,1003.2251053333334
2048,512,341.91932694790364,557333,84167,31956992,29360816,0.849997121811818,0.2498238687504198,0.41269473732767126,2048,0,1,1,2430.9132503834016,0.8751574910252666,0.0904720216259212,1003.2251053333334
256,1024,107.4924395997446,518794,39041,50450432,44055264,0.9619382977832106,0.1124683951326434,0.667735089469469,256,0,1,1,1502.4298125929236,0.7974809556685797,0.1161154042809364,1003.2251053333334
256,128,1160.6560116172252,635214,68394,32481280,29316848,0.7063766864557569,0.2697774705767597,0.2605240935742288,256,0,1,1,3850.7958767640566,0.9178841389192895,0.0146806159169081,1003.2251053333334
256,1536,53.33341685859885,427243,37478,55816192,29954328,1.1341093455299787,0.1591678144708645,1.0,256,0,1,1,965.8154000595111,0.5805049657809402,0.1277505063633565,1003.2251053333334
256,2048,37.402277794050846,475803,70865,75493376,59204416,1.2291160923512527,0.2144202845936907,1.0,256,0,1,1,707.4211225329917,0.5397962713643556,0.2079651397922361,1003.2251053333334
256,256,385.6782913770863,631945,71766,32481280,30006496,0.529231253075783,0.0378769794391626,0.24945536923207984,256,0,1,1,4021.6617041423024,0.8879410811473584,0.05167846842509,1003.2251053333334
256,512,311.9019707992808,697379,69453,32481280,29969296,0.719195450405287,0.0687217753087606,0.38104169391864157,256,0,1,1,2632.8486392555715,0.897959164140641,0.0567430397577473,1003.2251053333334
512,1024,131.02154090724605,473057,49585,42577920,30593488,0.9592156260180782,0.113188615025227,0.6717121358881787,512,0,1,1,1493.5342860923722,0.7843804179868538,0.1112248756876889,1003.2251053333334
512,128,654.7687992453488,716176,77121,32219136,29283520,0.7019746382806353,0.1610680974558686,0.31449822315062304,512,0,1,1,3189.92296771374,0.8762668677565758,0.0559134835681971,1003.2251053333334
512,1536,98.44452965702386,486186,79159,59494400,44387672,1.0669996640438597,0.1652573371448309,0.8951871666398942,512,0,1,1,1120.6875419125613,0.6841418773975267,0.1167827869870029,1003.2251053333334
512,2048,53.72701619740029,422947,88852,72871936,59085168,1.0979941939188802,0.157580710358191,1.0,512,0,1,1,950.9586515097706,0.6346047636457444,0.1595767650576528,1003.2251053333334
512,256,434.2575972968445,644896,54534,32481280,29689176,0.5320785034660465,0.0461957267564409,0.25750775288654887,512,0,1,1,3895.902527545755,0.8930851435381036,0.048483133665353,1003.2251053333334
512,512,333.2448792014073,607630,101900,46383104,44062584,0.7285447162190797,0.0955998184701893,0.3751745290084138,512,0,1,1,2674.0224289342273,0.8967195794863116,0.0626238488302005,1003.2251053333334
