cpu,memory,duration_std,userDiff,sysDiff,heapTotal,heapUsed,avg_cpu_util,cpu_util_std,slo_preservation,total_cpu_shares,cpu_shares_others,num_containers,arrival_rate,latency,memory_util,memory_util_std,slo_duration
1024,1024,75.12793885251483,274475,44575,39432192,31029648,0.9745194733941193,0.1566142642478762,0.650779535116026,1024,0,1,1,264.32342741262755,0.826986991299127,0.0592274390828367,172.0162772118644
1024,128,428.8749498734732,218979,69125,33005568,30365592,0.8346779661705167,0.326390833631084,0.29071920887649916,1024,0,1,1,591.6921619201946,0.8893459015082428,0.0549227587557184,172.0162772118644
1024,1536,62.54203545858324,266643,33321,50835456,30581520,1.158592382816934,0.2572730946069879,0.8789291106391378,1024,0,1,1,195.71120711518813,0.7238642604192572,0.1233841997020578,172.0162772118644
1024,2048,26.14100890474794,89436,7119,59494400,45309496,1.3333648008381307,0.229221493119246,1.0,1024,0,1,1,137.07188562613106,0.653278405356511,0.1345169059087354,172.0162772118644
1024,256,49.45825715819674,259451,32160,32743424,29805856,1.0194971096881604,0.1528801912344522,0.61537048252846,1024,0,1,1,279.53287019077794,0.8902544193064607,0.0603326175427995,172.0162772118644
1024,512,80.55598069742607,264839,23382,32481280,30168416,0.8768038516027407,0.1303110123407535,0.4364739751735467,1024,0,1,1,394.1043154828851,0.9025570829152312,0.0498763658939003,172.0162772118644
128,1024,76.79339584350166,273651,42786,39432192,30045248,0.8354725840578149,0.2118956525450706,0.5125569935727694,128,0,1,1,335.60419498488943,0.8012507598750149,0.0811751967750584,172.0162772118644
128,128,382.3172416871929,257986,59095,33005568,29771256,0.9335285881547908,0.4383774805085794,0.30511653059071975,128,0,1,1,563.7723950217738,0.8975685546932288,0.0266134939538228,172.0162772118644
128,1536,77.11376764267715,307935,37119,50835456,31041944,1.0205622641597958,0.1523723719030266,0.7625879276189101,128,0,1,1,225.56910617371653,0.7168714710280829,0.098735049625165,172.0162772118644
128,2048,49.12450073580848,303629,25127,50835456,30640672,1.222743470127422,0.3155899722938005,0.96283255567236,128,0,1,1,178.65648206270188,0.6914141767878025,0.1063628924450351,172.0162772118644
128,256,71.18848203378198,222883,59713,33005568,29992216,0.8050260696697406,0.1106814599386257,0.4316130366947461,128,0,1,1,398.54282097025987,0.8824098300553185,0.0625026932570824,172.0162772118644
128,512,79.6087564079487,282593,41125,32481280,29949656,0.8746811521997786,0.1395416955955384,0.44195043065166373,128,0,1,1,389.2207480332655,0.8910422904990583,0.0531544362536006,172.0162772118644
1536,1024,60.3168320205463,277349,44354,39432192,30162136,1.0273443955824713,0.1788522454547998,0.6727498236692401,1536,0,1,1,255.6913003316324,0.8044558724218097,0.0740348890558155,172.0162772118644
1536,128,245.99747004245197,275960,39782,33529856,29908024,1.0189389651544913,0.3640692626590507,0.4200306570960792,1536,0,1,1,409.5326717366653,0.8849280576292597,0.0688890260115462,172.0162772118644
1536,1536,65.15778398942678,327540,35611,51621888,30657856,1.2258110720440343,0.2536584630656819,1.0,1536,0,1,1,170.6807202031619,0.6912049009611724,0.1297173249409232,172.0162772118644
1536,2048,27.245848495982106,249555,51466,49786880,29970056,1.3105841981875823,0.2215280617205471,1.0,1536,0,1,1,127.41023013344582,0.673963984184833,0.1480536607709177,172.0162772118644
1536,256,47.839718713555605,277402,20057,33005568,30348616,1.0469208549849287,0.1329145243749773,0.5671698675106924,1536,0,1,1,303.2888153364768,0.8785675090617622,0.0608318183319805,172.0162772118644
1536,512,54.1017605495727,233756,30280,33267712,29754192,0.9568521019178271,0.2120362245167852,0.5476085186967182,1536,0,1,1,314.12271967801894,0.8970101439217328,0.0447943006186994,172.0162772118644
2048,1024,84.32632264155636,241894,23606,37597184,30098144,0.9971915120776744,0.1532073144468608,0.6454400524462166,2048,0,1,1,266.5100756606644,0.7917270762523565,0.0968715378796704,172.0162772118644
2048,128,139.0156307453426,235278,48347,32481280,29810360,0.90820885913809,0.2417783259035582,0.44786829250351323,2048,0,1,1,384.07781950876785,0.8788947883645063,0.0808482682198477,172.0162772118644
2048,1536,43.890310630892166,168963,53605,69591040,51864624,1.1603582982383343,0.2063230089216402,0.9999640344116181,2048,0,1,1,172.0224641010007,0.6972064157952238,0.0934101723893292,172.0162772118644
2048,2048,24.734258406231984,225383,36915,69066752,51292088,1.3185123816670778,0.2236277608691675,1.0,2048,0,1,1,129.4138914717333,0.7080929796898129,0.1086318287703771,172.0162772118644
2048,256,52.11654757999899,279516,36842,33005568,30125064,0.9771030732129566,0.1250594282411291,0.551239649189125,2048,0,1,1,312.0535278347644,0.8958342765193228,0.0379162906957009,172.0162772118644
2048,512,59.80322259697761,228363,20506,32481280,29725288,1.020041841891634,0.2097747942062163,0.5541872479891525,2048,0,1,1,310.3937844763101,0.9040762948609654,0.0358526810990066,172.0162772118644
256,1024,74.47524244399784,263353,23860,39432192,30952512,0.9552071821353212,0.216988887692833,0.6095998129926464,256,0,1,1,282.1790189983858,0.7919380505191335,0.1033071070751913,172.0162772118644
256,128,196.2305106528241,230879,46982,33267712,29660824,0.9823177998695287,0.3775612380317335,0.38828405945528705,256,0,1,1,443.01658289341384,0.8710637088268228,0.0580620306962956,172.0162772118644
256,1536,43.52572884649538,267087,37614,42971136,31301848,1.1538241383731127,0.2463452230731321,1.0,256,0,1,1,167.22110486156512,0.716401043314248,0.1024201036845293,172.0162772118644
256,2048,27.709796910267706,250565,54788,50311168,30029728,1.349249102409861,0.2421696375917377,1.0,256,0,1,1,135.17640628017003,0.6630738738649837,0.1454649129578528,172.0162772118644
256,256,26.235548764948145,212531,33701,32481280,29974288,1.0799891472947383,0.1100394938824031,0.6496652228723448,256,0,1,1,264.7767975809666,0.8858128095159721,0.0422940860822429,172.0162772118644
256,512,56.13171068844423,210536,19294,39821312,30822520,1.0154624993352468,0.1700229013837816,0.5479727105339267,256,0,1,1,313.9139484596913,0.8940176698908363,0.0636486751042156,172.0162772118644
512,1024,76.14695497087,254244,31747,38645760,30135144,1.0335088084475046,0.1491765299036767,0.6751832718886147,512,0,1,1,254.76975567049,0.7759239641327349,0.1052975315530238,172.0162772118644
512,128,106.34977400589798,231445,45366,33267712,30263800,0.9320586778521865,0.3200852585397353,0.4345661010649655,512,0,1,1,395.83455034876,0.8756763570437581,0.0707940807306543,172.0162772118644
512,1536,44.85884198896313,290231,18451,51097600,30425736,1.209170101049963,0.337851424718402,1.0,512,0,1,1,162.8087042889685,0.7925597137293614,0.11193041081582,172.0162772118644
512,2048,22.21895917447892,202272,32877,63823872,52087904,1.3248863931229262,0.2418995191109091,1.0,512,0,1,1,126.72239991874025,0.6553744121473958,0.1309703814384851,172.0162772118644
512,256,42.636282543793534,262306,31715,33005568,30242600,1.1703961742621611,0.2377076612919228,0.6769492058635356,512,0,1,1,254.10514662239035,0.8862349923829965,0.0562003066262348,172.0162772118644
512,512,69.06732484096764,224404,29175,33267712,29632224,0.9881353362519386,0.177634703324882,0.5275454672399716,512,0,1,1,326.06910284306747,0.8990868526077207,0.0656867571721915,172.0162772118644
