cpu,memory,duration_std,userDiff,sysDiff,heapTotal,heapUsed,avg_cpu_util,cpu_util_std,slo_preservation,total_cpu_shares,cpu_shares_others,num_containers,arrival_rate,latency,memory_util,memory_util_std,slo_duration
1024,1024,111.35764839601318,566791,52759,41267200,30136080,0.9414771374521684,0.0838307525828948,1.0,1024,0,1,1,605.3225452771287,0.777464130205655,0.1172109848735637,898.3508918979592
1024,128,585.6490452140721,662164,92261,32743424,29998480,0.3591300843139579,0.0944085786105379,0.36036775129156606,1024,0,1,1,2492.872596613458,0.9073824683680152,0.0245646287618895,898.3508918979592
1024,1536,74.01640635321684,472615,57451,69464064,59654920,1.1784939749454215,0.1068281609407201,1.0,1024,0,1,1,389.0745039520644,0.7050135936386146,0.1213106734913642,898.3508918979592
1024,2048,47.47871967273745,451784,59101,57659392,44585096,1.2626413197313513,0.1293801002892727,1.0,1024,0,1,1,337.03832480538597,0.6297038954809678,0.1546994995311431,898.3508918979592
1024,256,507.41971386711214,568740,48234,31956992,29591296,0.41467001244047813,0.1175000050206586,0.4382054087521056,1024,0,1,1,2050.0680136656174,0.8801983675178704,0.0705623910041915,898.3508918979592
1024,512,173.47625143304197,628799,78667,37462016,29622136,0.5069224436820741,0.0622275891077123,0.6171233799035712,1024,0,1,1,1455.7071100406715,0.864742063947778,0.0703996262147336,898.3508918979592
128,1024,105.0423634863675,544615,73944,46510080,30302504,0.9120670505222773,0.1120995864751394,1.0,128,0,1,1,628.3065995058267,0.77659138062142,0.112802616527036,898.3508918979592
128,128,1316.1628692640463,473707,100114,34840576,29796256,0.6610228175899477,0.3385467717788634,0.5140553278125128,128,0,1,1,1747.5762691163222,0.8967722483090775,0.0268523532478812,898.3508918979592
128,1536,77.35392494986903,579959,43036,59494400,44884128,1.1920904211667924,0.2118756460106475,1.0,128,0,1,1,417.85614256238796,0.7188280850827737,0.1212788544828699,898.3508918979592
128,2048,66.61398470397698,481106,43174,56086528,45006792,1.4456771529592116,0.1688738759251025,1.0,128,0,1,1,297.31475795129836,0.6122551988230513,0.1605162031657515,898.3508918979592
128,256,594.270681758244,544221,78526,33005568,29551512,0.29018630640267096,0.066822965140085,0.30615653243501795,128,0,1,1,2934.2862121964854,0.9108895229782008,0.0135341483500507,898.3508918979592
128,512,267.19876237192125,574326,76663,31956992,29829192,0.5109904148927245,0.0652876021646821,0.6077498622745396,128,0,1,1,1478.158939494989,0.8974992769828167,0.0688451388187207,898.3508918979592
1536,1024,126.18670530686876,560174,79216,44412928,29961352,0.8977490895151184,0.1122345032339945,1.0,1536,0,1,1,634.6039533740399,0.7744638570983756,0.123398292743119,898.3508918979592
1536,128,1168.5319340209828,659831,71686,32481280,29446704,0.5021834222981043,0.2010248960216463,0.40732064612225305,1536,0,1,1,2205.512783234485,0.9092227846076338,0.0064270562386884,898.3508918979592
1536,1536,86.81467551316727,420288,64209,69201920,59547256,1.171579153344525,0.1234052430439988,1.0,1536,0,1,1,389.98072465126995,0.6913710497529582,0.1407345386240909,898.3508918979592
1536,2048,68.27845062011974,451103,78367,73658368,58792168,1.3642862725750402,0.3119293581548952,1.0,1536,0,1,1,310.50035956373665,0.7531524240502119,0.1349046309925491,898.3508918979592
1536,256,329.3629880383783,561664,58100,33267712,29490032,0.5331701242997898,0.1393927965615863,0.6103983539214407,1536,0,1,1,1471.7452727822697,0.9219798435645776,0.0253530886997396,898.3508918979592
1536,512,176.61513763843598,623228,86442,33792000,30009336,0.4975245965408637,0.0437366957719537,0.5952356740241335,1536,0,1,1,1509.235637414998,0.8782220724008566,0.0708200737923985,898.3508918979592
2048,1024,162.3933375196541,722602,41098,49393664,30983328,0.9551033929276331,0.1951795781860676,1.0,2048,0,1,1,621.6034177596015,0.7600534707326162,0.1072868955475798,898.3508918979592
2048,128,255.4106914821488,634981,68836,33267712,29795952,0.4987187932930472,0.0673848995962472,0.49386531246907717,2048,0,1,1,1819.0200226994245,0.8766294260953866,0.0492373721453064,898.3508918979592
2048,1536,52.22754058817656,520646,71399,73134080,60113648,1.517076234026985,0.1900123173259391,1.0,2048,0,1,1,273.7038266216607,0.592469260038454,0.1711701480724501,898.3508918979592
2048,2048,34.692089502970525,479135,66566,69988352,59695024,1.714030788931135,0.0909818726519529,1.0,2048,0,1,1,206.75384188749416,0.4721199063598829,0.1681779839468395,898.3508918979592
2048,256,518.6409283560614,662677,57067,32481280,29847864,0.5583785120717851,0.2433567886217461,0.5473739848025521,2048,0,1,1,1641.201293521487,0.9192914309061384,0.0289217129550735,898.3508918979592
2048,512,230.17416970922844,570955,75988,32743424,29562040,0.5896831912011707,0.145942638270152,0.6759264836281617,2048,0,1,1,1329.0659763409371,0.8702311904776682,0.0886434676645861,898.3508918979592
256,1024,94.59162619496968,587873,48511,48345088,29979816,0.9022133660647023,0.125106166515402,1.0,256,0,1,1,645.6672029757171,0.7603233124186458,0.119317098097783,898.3508918979592
256,128,1584.7806811288567,592215,68558,35627008,30013200,0.36430229216782395,0.196874683252655,0.2816937555959304,256,0,1,1,3189.104742479913,0.884468566832775,0.0538357806159612,898.3508918979592
256,1536,53.77406436013976,454543,68894,73396224,59417136,1.4805459574512345,0.2150439028375226,1.0,256,0,1,1,301.09741603491864,0.6857022643730941,0.1457410478903477,898.3508918979592
256,2048,33.600708037005965,417281,55523,69726208,59695720,1.6964077895328662,0.1502457591716309,1.0,256,0,1,1,199.4013386800077,0.5658966820974449,0.2109001722098023,898.3508918979592
256,256,382.0344541565259,580501,57871,32219136,29650592,0.2990376147898865,0.035388848562353,0.32358002387809626,256,0,1,1,2776.2866234177636,0.9081937686201188,0.0509311253202367,898.3508918979592
256,512,266.4215231142681,598563,93474,35364864,29527768,0.5117139715041806,0.0856896200902383,0.6075606457078739,256,0,1,1,1478.6192921552433,0.8997349246654917,0.042760849868561,898.3508918979592
512,1024,143.8949916266336,545986,77919,44412928,30792704,0.9285273743059442,0.128265637557294,1.0,512,0,1,1,608.2059515164731,0.812764082060178,0.0900018594185659,898.3508918979592
512,128,1632.3769020573714,681464,76282,32481280,30065472,0.5310338354013093,0.3900948289598473,0.33521439431202177,512,0,1,1,2679.9293441491145,0.8636667677512262,0.0916214215662594,898.3508918979592
512,1536,48.39667216526299,385795,63250,69464064,59673320,1.444039309432426,0.1658526966311146,1.0,512,0,1,1,289.93859658070016,0.6382932048886387,0.167063093857299,898.3508918979592
512,2048,29.005732701454683,397618,68062,62377984,44203272,1.7143620743568184,0.1278882412089134,1.0,512,0,1,1,198.39173076488902,0.4597272267403639,0.1833518741016957,898.3508918979592
512,256,441.5610414279968,712282,47428,36151296,29997056,0.37808443253132545,0.0874913360670715,0.4123059580784437,512,0,1,1,2178.8452829659145,0.8981855714721765,0.045678726238508,898.3508918979592
512,512,298.79056858538735,585479,86304,32219136,29924992,0.5615329110043241,0.182136118903243,0.6349096909863963,512,0,1,1,1414.9270434071977,0.9035673732543648,0.0488905004823137,898.3508918979592
