cpu,memory,duration_std,userDiff,sysDiff,heapTotal,heapUsed,avg_cpu_util,cpu_util_std,slo_preservation,total_cpu_shares,cpu_shares_others,num_containers,arrival_rate,latency,memory_util,memory_util_std,slo_duration
1024,1024,91.11135925112193,224714,31440,38383616,30402096,1.013145953096717,0.1720517028097497,0.6950239633800868,1024,0,1,1,274.49940329036605,0.7788000212305671,0.0935190316472156,190.78366322033904
1024,128,206.03868655480483,238496,52588,33005568,29990432,0.8875533525244115,0.2357712257245272,0.41984455336939186,1024,0,1,1,454.4150011932674,0.8781751597911106,0.0625520625820951,190.78366322033904
1024,1536,43.71149933561443,169787,32931,109273088,94042200,1.1293432365661973,0.2281592168090349,0.9923558354594401,1024,0,1,1,192.25327891784923,0.7200224233955255,0.1028132516534999,190.78366322033904
1024,2048,22.428643565437326,228117,37303,49786880,29956768,1.3520560722875705,0.2133643843480419,1.0,1024,0,1,1,133.5691393672289,0.7192832315109066,0.1009130602027175,190.78366322033904
1024,256,48.84569545493539,261626,42277,33267712,29776344,1.0185213432049454,0.1447521410118583,0.5783234413654864,1024,0,1,1,329.8909391773528,0.8541539221753839,0.0465396972533009,190.78366322033904
1024,512,64.46535078253167,212159,55960,33005568,30142112,0.9804194176947865,0.1387762856745088,0.5421504107749028,1024,0,1,1,351.9017221579698,0.8664522978279112,0.0770850650005252,190.78366322033904
128,1024,58.96177727646795,266995,29333,37859328,30948400,0.9833762657999917,0.1765955523208311,0.7407867362331755,128,0,1,1,257.54195355933933,0.7929615440605077,0.0819785847892653,190.78366322033904
128,128,307.13048386198625,223845,53579,33267712,29608688,0.8933585841883145,0.3332074237322641,0.35139640869873,128,0,1,1,542.9300314332681,0.851421611955803,0.0806080894673752,190.78366322033904
128,1536,46.945862380793166,283082,55289,51359744,30209856,1.185732459536583,0.2392349319740898,1.0,128,0,1,1,181.08032411034833,0.7262559248746286,0.0838036425174088,190.78366322033904
128,2048,24.931553764533877,271270,31680,50835456,30263312,1.3433950576655969,0.2335655697910952,1.0,128,0,1,1,131.73355473784886,0.7336989326408676,0.0839801102015837,190.78366322033904
128,256,60.53832945766069,319178,41963,33529856,29830928,1.0369997178533632,0.1422154051291185,0.6522409255443573,128,0,1,1,292.50489466160354,0.8955787604688925,0.0490408582952098,190.78366322033904
128,512,77.1924882498007,283580,35871,32743424,29798144,0.8926266531547031,0.1555552718404592,0.47478409506491137,128,0,1,1,401.8324649107202,0.8967497454636286,0.0378808061703096,190.78366322033904
1536,1024,75.55251097319048,251011,43118,39170048,30047688,0.8793979457131971,0.1558343063365281,0.5667742943807749,1536,0,1,1,336.6131193878126,0.7765007176604689,0.0928800869986742,190.78366322033904
1536,128,142.5030192531855,266421,57886,33529856,29626064,0.9330486126170401,0.2416349489301699,0.48262093558718366,1536,0,1,1,395.30747456742824,0.8990468342771083,0.0619735340327426,190.78366322033904
1536,1536,42.98437963253822,203706,52688,37457920,15555000,1.1548224266411913,0.2407323651775075,0.9635322592794817,1536,0,1,1,198.00443771649623,0.6895965271903786,0.1216873674274833,190.78366322033904
1536,2048,23.859744777481723,214944,45096,50049024,29914864,1.3463315850958988,0.1279531767335249,1.0,1536,0,1,1,134.91969504838045,0.6974937863504161,0.119157823537568,190.78366322033904
1536,256,57.833349793476735,253062,22937,33267712,29626488,1.0081934304800935,0.1989319354200351,0.6401005767307243,1536,0,1,1,298.0526344699692,0.8851868153319448,0.0509156204401833,190.78366322033904
1536,512,65.42876962537582,249527,44783,33005568,29701080,0.9918515255305317,0.2063404792191696,0.5646946210479795,1536,0,1,1,337.85280771096456,0.8841924268124235,0.0618515858902025,190.78366322033904
2048,1024,74.48730648280672,239622,34757,38907904,30904664,1.0017590257781641,0.2065399721362796,0.722059843560115,2048,0,1,1,264.2214006524452,0.8070333524916556,0.0832947359518908,190.78366322033904
2048,128,465.1358820748986,252389,42741,33005568,29668712,0.8087320723891114,0.2952004787951276,0.2861742076309273,2048,0,1,1,666.6696653053674,0.8867266988843077,0.0465955329517448,190.78366322033904
2048,1536,37.46305244632502,209408,33086,37720064,15522784,1.2350602571353757,0.2405817783256293,1.0,2048,0,1,1,160.6399037962775,0.725903686567135,0.1206954576279134,190.78366322033904
2048,2048,23.728165401126127,232734,34120,50311168,29955608,1.3278936998324709,0.2156763022099059,1.0,2048,0,1,1,129.61883722840167,0.7272160983009476,0.1105803182601723,190.78366322033904
2048,256,55.11508066058127,265344,44352,33267712,29742968,1.0365077426286256,0.1349412146797564,0.6180779816293994,2048,0,1,1,308.67247967220624,0.8674101139919079,0.0717528700039247,190.78366322033904
2048,512,66.08215450628543,235641,38740,32481280,29613904,0.9080988332527568,0.135710637510361,0.5104416798953948,2048,0,1,1,373.7619217526211,0.8968653611889336,0.0428419944482681,190.78366322033904
256,1024,88.26858770295742,226579,28535,38645760,30069952,0.8431736101907806,0.1232750832626227,0.5407534372969913,256,0,1,1,352.81081924137135,0.7822700355367187,0.0913159675720121,190.78366322033904
256,128,216.24708872964192,320685,27183,33529856,30285664,0.9964314337890334,0.3306123043290217,0.4332258274854991,256,0,1,1,440.3792459181694,0.8681992345111309,0.0713832512675658,190.78366322033904
256,1536,55.33989200589141,276121,47005,49786880,29995384,1.2170840044461255,0.2939645429132191,0.9675842098488622,256,0,1,1,197.1752549063814,0.7409840575083664,0.1133388916807428,190.78366322033904
256,2048,29.335071944065977,275921,37539,50573312,31346496,1.3290639425161317,0.2810401812737165,1.0,256,0,1,1,139.89873559375073,0.7429672796145826,0.1025883049351665,190.78366322033904
256,256,31.59784422976825,263606,36847,32743424,30182352,1.0558867618680143,0.1556455849111282,0.695313338157358,256,0,1,1,274.38516241603054,0.862536891764465,0.0606720968216624,190.78366322033904
256,512,63.43393528889659,244948,19802,33005568,29933600,0.9583851018619984,0.1803520465623135,0.5540025643459544,256,0,1,1,344.3732493288634,0.897579330102003,0.0456335248894527,190.78366322033904
512,1024,70.84753641763051,259994,29130,40218624,30767024,1.0521000342837317,0.1791746501163463,0.7246338092707065,512,0,1,1,263.2828620187478,0.788634047307474,0.0794568442670011,190.78366322033904
512,128,216.83030827528447,223678,40971,33005568,29653080,0.771739227074789,0.1719503287980361,0.4049694843439073,512,0,1,1,471.1062699685346,0.8841905764866558,0.0519211562212369,190.78366322033904
512,1536,46.411914468520834,222146,46377,42708992,31190592,1.2239078139513742,0.2364029165101809,1.0,512,0,1,1,176.96367996486129,0.7222674727334388,0.113437850518719,190.78366322033904
512,2048,27.127669099532685,242876,31830,93544448,77231048,1.3389785611019938,0.1564807100145271,1.0,512,0,1,1,134.4550440289131,0.7681652796280076,0.1013754781309293,190.78366322033904
512,256,56.74028993304783,230015,48776,33005568,29621920,0.9973728090592733,0.1404328292255907,0.5799409681764716,512,0,1,1,328.970832704278,0.8748459833983461,0.0428299788095549,190.78366322033904
512,512,48.20058766743675,311259,47667,22249472,15283984,0.9761600435080114,0.1484663925924131,0.5684251946041926,512,0,1,1,335.6354803259311,0.8661731684838854,0.075681790555564,190.78366322033904
