cpu,memory,duration_std,userDiff,sysDiff,heapTotal,heapUsed,avg_cpu_util,cpu_util_std,slo_preservation,total_cpu_shares,cpu_shares_others,num_containers,arrival_rate,latency,memory_util,memory_util_std,slo_duration
1024,1024,79.52584623916756,447975,49740,44924928,37437000,1.033254100269171,0.105576954367047,0.37257612457926825,1024,0,1,1,1201.8787804531562,0.7816712543627464,0.0586653237022347,447.7913382352941
1024,128,246.82041259760388,473933,111252,37998592,34107656,0.8651975603145033,0.1556299277888555,0.23169057744092086,1024,0,1,1,1932.7127722726536,0.8827462290589609,0.0464104670246136,447.7913382352941
1024,1536,75.88865332554826,385532,80298,70430720,52226368,1.0048931557097072,0.1391010677564005,0.365463071341441,1024,0,1,1,1225.2710967257656,0.7151537259573211,0.0688662037657203,447.7913382352941
1024,2048,65.74342032367308,391899,85893,63311872,43398472,1.0611502110581303,0.1175096694996768,0.43800617818791293,1024,0,1,1,1022.3402329343016,0.6875635273431253,0.0688181939952536,447.7913382352941
1024,256,122.36404135639958,471125,99162,59092992,55655104,0.9660845586982489,0.0988680930282361,0.2852924637447513,1024,0,1,1,1569.586985781472,0.8782754382854666,0.0387236458570549,447.7913382352941
1024,512,106.5413823237412,352808,50547,37392384,32402840,0.9529537975986848,0.1183220508945272,0.28836299402667,1024,0,1,1,1552.8737997285427,0.8822907952685786,0.044562368957877,447.7913382352941
128,1024,109.1225898951368,180999,43257,79626240,70102232,1.0190250710085145,0.1056913117626933,0.3498047750428775,128,0,1,1,1280.1178548246114,0.8038749766646142,0.0461244634326152,447.7913382352941
128,128,398.23551257033625,338232,54474,40886272,37663600,0.9244983419573064,0.3437819515977057,0.22207755407381885,128,0,1,1,2016.3736947789318,0.8730805099105886,0.0396697012337175,447.7913382352941
128,1536,75.62439024234511,377975,76380,61161472,43182360,1.0148239039382503,0.1596195958193696,0.4158219335750631,128,0,1,1,1076.8824395225415,0.7024627280032777,0.0681907215789151,447.7913382352941
128,2048,63.73777466017626,407911,100742,63574016,42602976,1.0737764035711366,0.1954164403000909,0.4139318127452097,128,0,1,1,1081.7997661632405,0.729570768890689,0.0884243105938242,447.7913382352941
128,256,96.9141886637818,386399,66833,40701952,37377024,1.0275175724920695,0.1244036390250564,0.30665201957717036,128,0,1,1,1460.2588916672873,0.8717106300461553,0.060381480789767,447.7913382352941
128,512,114.91126561472232,461532,106981,59228160,56702512,1.0140608090461278,0.1147552018801031,0.29625541304472497,128,0,1,1,1511.5043253832198,0.8918537716965231,0.0463533474909622,447.7913382352941
1536,1024,75.64787784047238,408236,46312,45645824,37452768,1.0204594105472922,0.1169250779483882,0.34208020645846593,1536,0,1,1,1309.0244035784726,0.7909160246666478,0.0667515481957032,447.7913382352941
1536,128,323.4737184412033,525555,91652,32997376,28610688,0.9201132602552462,0.2349503496565446,0.23178940542171667,1536,0,1,1,1931.888722094888,0.891187642149707,0.0391425751040394,447.7913382352941
1536,1536,48.15877729692275,311559,33410,50757632,34706576,1.092301062128727,0.1688126066697273,0.44064475885279514,1536,0,1,1,1016.218459970124,0.7204147137128211,0.0618523188665113,447.7913382352941
1536,2048,38.94218019895261,286755,59804,44564480,28073984,1.1531222127598337,0.2105919371214791,0.5876232618858614,1536,0,1,1,762.0381412372883,0.6976080531785341,0.0782272451006278,447.7913382352941
1536,256,68.57019807803104,392500,66195,30203904,24718712,1.0203065422931792,0.0987815042179504,0.29469207751860765,1536,0,1,1,1519.5228253362845,0.8896394395332438,0.0394908620302713,447.7913382352941
1536,512,114.27788372627953,533888,99188,38260736,34008832,0.9493957654446822,0.0785275946072923,0.27486893128274603,1536,0,1,1,1629.1085942145644,0.8885163565509201,0.043483160558136,447.7913382352941
2048,1024,197.86277800360617,445301,66683,54968320,45170080,0.8707819408085486,0.1822419666027887,0.26093342567720773,2048,0,1,1,1716.113361379934,0.7813788790978938,0.0635513326441133,447.7913382352941
2048,128,180.3758133641488,527762,109101,46530560,41427296,1.0046877979436424,0.2002288840450045,0.26018445736394263,2048,0,1,1,1721.053374102702,0.8824901911607257,0.0387018280383298,447.7913382352941
2048,1536,50.892715228925184,409373,73063,56516608,36087728,1.110448645057338,0.1880796579463055,0.46500151924621813,2048,0,1,1,962.9889789632897,0.6875483845754664,0.083645668953302,447.7913382352941
2048,2048,48.59772764971415,268155,25614,49709056,34828728,1.1536589429127768,0.2711816188322342,0.5493151547742585,2048,0,1,1,815.181111140679,0.710577908811154,0.0800405248256362,447.7913382352941
2048,256,109.87907550300042,443045,100088,38686720,32984320,1.02610327380965,0.1420483973741297,0.3035067193823396,2048,0,1,1,1475.3918435367273,0.8822026374015346,0.0553998614662673,447.7913382352941
2048,512,78.30711344157241,450270,74148,34308096,29068264,1.0456223577053472,0.1065447322943897,0.30730078972814195,2048,0,1,1,1457.1760086638214,0.8762538739346943,0.0503687157050023,447.7913382352941
256,1024,91.8018476949318,318262,81921,52170752,39714000,1.0288237914953522,0.1286262180654291,0.3670277384747731,256,0,1,1,1220.04767295285,0.8033706167595286,0.0435981008297946,447.7913382352941
256,128,227.93459319742792,381427,66832,37392384,32208016,0.893153186551,0.1561046410801124,0.23847860513235059,256,0,1,1,1877.7002573743644,0.8808547670153672,0.0459579147294349,447.7913382352941
256,1536,89.01380337889331,498081,117350,69525504,48143592,1.0375235723042324,0.1269817092780993,0.3975388489113742,256,0,1,1,1126.4090024447473,0.7213702021054249,0.0687230642250248,447.7913382352941
256,2048,121.88091869398475,403127,111574,53469184,35894536,1.0663480758525132,0.2659771632552691,0.3879564118824522,256,0,1,1,1154.2310541086545,0.6691915208866571,0.0717683279747407,447.7913382352941
256,256,98.4336741116414,361224,51068,40701952,37397256,0.9881302736951437,0.1088481966631093,0.31575838915281007,256,0,1,1,1418.1454986413273,0.8932315366298462,0.0343416824207414,447.7913382352941
256,512,101.848157440229,555334,78136,44838912,41345944,1.0198528488360399,0.1139522025988382,0.30457828247510316,256,0,1,1,1470.2011403977808,0.8839989445177118,0.0490966001534026,447.7913382352941
512,1024,98.46911464740548,450509,103532,54444032,44994392,1.0164568474040254,0.1340197122251596,0.36070231792610785,512,0,1,1,1241.4429183874195,0.7908255079967771,0.0649329073294721,447.7913382352941
512,128,130.90409837681617,451213,100399,50085888,46788232,1.0372769200385412,0.2493959326297766,0.2601360483421852,512,0,1,1,1721.373646939795,0.8797724203551988,0.0501544775774152,447.7913382352941
512,1536,108.28247201826296,384087,56905,63815680,44787248,1.0227074461740064,0.1443376630401248,0.4001201150112082,512,0,1,1,1119.1422811191349,0.7297351930455677,0.0620521679224477,447.7913382352941
512,2048,70.09882853856607,445375,76788,61489152,44673000,1.0788388848147663,0.144079381889515,0.4662308474644524,512,0,1,1,960.4498301014623,0.7020814879489015,0.0678158559848613,447.7913382352941
512,256,109.83191946949572,382137,110352,40361984,37456328,1.0247849544943035,0.0994847790004318,0.3044399607479743,512,0,1,1,1470.8691235379279,0.8729974186275709,0.0458197365336276,447.7913382352941
512,512,91.32238378932315,413793,92388,29679616,24013288,1.0148045282136373,0.1093395496214763,0.32016098272209653,512,0,1,1,1398.6443145821495,0.9046959160142072,0.0352576242049651,447.7913382352941
