cpu,memory,duration_std,userDiff,sysDiff,heapTotal,heapUsed,avg_cpu_util,cpu_util_std,slo_preservation,total_cpu_shares,cpu_shares_others,num_containers,arrival_rate,latency,memory_util,memory_util_std,slo_duration
1024,1024,18.756675001322048,25404,32,25792512,15164800,0.9190297233995215,0.2030326938801826,0.31451923905343726,1024,0,1,1,69.98242433830997,0.6583289441566694,0.0587533978234625,22.01081885
1024,128,16.159806566715748,22225,4274,25120768,21391120,0.9088390587798318,0.2302007758101723,0.2853684812653312,1024,0,1,1,77.13121909050173,0.8618300604042857,0.0141291549167488,22.01081885
1024,1536,6.743873051952638,21989,15432,34574336,15258944,0.9877461663043328,0.2183831987491693,0.48777830168228853,1024,0,1,1,45.12463710273159,0.5339226520982165,0.058442915654095,22.01081885
1024,2048,5.351117124560946,35405,11886,39026688,24849304,1.0418925755654904,0.2227532830216713,0.6907427185899833,1024,0,1,1,31.865437387354294,0.546409767827081,0.0551605560820011,22.01081885
1024,256,16.64901265102008,26143,27,25382912,21257600,0.9122149621858282,0.2341554875995785,0.3338893781503434,1024,0,1,1,65.92248897504307,0.8600169148557357,0.0146850151239799,22.01081885
1024,512,12.757522200178078,27195,540,24858624,21052112,0.9206880043462976,0.230895791501682,0.36039098616050996,1024,0,1,1,61.07483176673259,0.8663207172640565,0.0116649968196595,22.01081885
128,1024,23.825752955920745,20711,4167,25792512,15202376,0.9362198258357214,0.2119340136763502,0.28490860507709026,128,0,1,1,77.25571800137219,0.6726028326305383,0.0642840965065824,22.01081885
128,128,21.036695861147383,25754,1001,25120768,21537912,0.8266116601652004,0.1821133720546371,0.23251632692668836,128,0,1,1,94.66354101206811,0.8706677566444027,0.0124341423699406,22.01081885
128,1536,13.544614407970451,39883,4047,34574336,15261800,0.974983863572646,0.2095371030025772,0.4073897624831955,128,0,1,1,54.02889536505701,0.5395112374681614,0.0600643418756108,22.01081885
128,2048,6.277074777018387,19324,11784,39284736,24771856,1.0175539791837962,0.1752369809550679,0.5639578378757403,128,0,1,1,39.029192205055864,0.544364227539688,0.0539919030796697,22.01081885
128,256,10.52747489496548,21345,4236,25382912,21202976,0.9639435271868103,0.1711491234559239,0.42875586496707313,128,0,1,1,51.336484578911474,0.8677141019937171,0.0153294636591176,22.01081885
128,512,10.649359261459107,34332,396,25645056,20843096,0.9703405744581162,0.1564199831265142,0.45225904315903,128,0,1,1,48.66860968938156,0.8676970604677259,0.0173980139465548,22.01081885
1536,1024,45.7306421429083,26402,23,30769152,24926264,0.8969506805591119,0.2114452452515149,0.24032984480022018,1536,0,1,1,91.58587385722738,0.6610785435336516,0.0756652866262714,22.01081885
1536,128,12.72124416574012,41923,5416,25120768,21230768,0.9489574301708273,0.1851801275141793,0.3609130413388532,1536,0,1,1,60.98648795939334,0.8597575539724811,0.0127462291966105,22.01081885
1536,1536,12.562592748396916,33379,12281,34574336,15241456,0.9681757799082802,0.2261167633778981,0.42238457623351144,1536,0,1,1,52.11084894783544,0.5364385481531905,0.0562968628545606,22.01081885
1536,2048,7.784429137984341,32912,21,39288832,24831280,1.0330842239756228,0.1322004440889831,0.6766993030999181,1536,0,1,1,32.52673491633549,0.5507822688791117,0.0545479811870257,22.01081885
1536,256,9.283927798858016,8182,11538,25120768,21301488,0.9561036926907209,0.1780229774417767,0.4443400809455453,1536,0,1,1,49.53597434460896,0.8648810604917218,0.0123362653778319,22.01081885
1536,512,12.583121111122775,36483,12055,25120768,21202112,0.9377415630886645,0.2023346267568328,0.3315565338086693,1536,0,1,1,66.38632210669009,0.8639158454186916,0.0140288940875788,22.01081885
2048,1024,27.714253344059568,20937,4219,30507008,25231232,0.9259845508917462,0.2482512615944032,0.2733617102829248,2048,0,1,1,80.51902670355395,0.6767514947932645,0.0737585856358797,22.01081885
2048,128,20.32652870616393,21227,7638,24596480,21127952,0.8966584999171311,0.20776643018608,0.29897388334626274,2048,0,1,1,73.6212093298722,0.8718912627364673,0.014694185494841,22.01081885
2048,1536,9.728224898402411,22120,22,39026688,25061272,0.9997532700597858,0.2151892382782617,0.5228893240570645,2048,0,1,1,42.09460365191524,0.5607875208299963,0.0774032346018261,22.01081885
2048,2048,5.845867465457378,28247,9369,34574336,15267664,1.0293772965620394,0.1374439618522984,0.6383366112336165,2048,0,1,1,34.48152348251344,0.5486277104497395,0.0534477885337285,22.01081885
2048,256,17.37900020322,26853,10887,25382912,21156104,0.9352368833888183,0.2372503032179964,0.3391918369049415,2048,0,1,1,64.89194743259264,0.8676555985803711,0.0147199791633274,22.01081885
2048,512,16.03814833426217,20432,21,25120768,21238688,0.9352992471670707,0.1683932326866958,0.3738623999978028,2048,0,1,1,58.874117456394,0.8633424796445295,0.0146492242939744,22.01081885
256,1024,27.166287978722877,20336,81,25530368,15173760,0.9456865030114456,0.1786988660754049,0.2722767580595245,256,0,1,1,80.83987412979276,0.6544148910446486,0.0594484122084564,22.01081885
256,128,14.471813026034994,29560,3654,24858624,21093504,0.8920549665067934,0.2199925447031187,0.30084226571897416,256,0,1,1,73.1639844467897,0.8662941753101909,0.0134319488183162,22.01081885
256,1536,17.212811850826654,25198,2900,38760448,25631456,1.0044831329698207,0.463111761430124,0.3019667166822803,256,0,1,1,72.891539477707,0.6046263484648609,0.1044290589166658,22.01081885
256,2048,7.863852673769804,60236,13343,34836480,14735792,1.0340657256702273,0.2497458594463198,0.611119439399046,256,0,1,1,36.01721272627931,0.5424680794385657,0.0583831027830298,22.01081885
256,256,12.45292441688055,31981,3994,25645056,20841816,0.9911522941088726,0.1405779558827939,0.4167495510674505,256,0,1,1,52.81545905357813,0.8619143543125801,0.0193927688034522,22.01081885
256,512,20.67651830497705,17495,7428,25382912,21213848,0.9089845995527651,0.1610716570871527,0.3016446731308679,256,0,1,1,72.96936034554355,0.8661003293584171,0.0135110871545096,22.01081885
512,1024,23.993004037697187,13169,11670,30765056,24895640,0.9404438851840544,0.2243257558832912,0.26550146371256134,512,0,1,1,82.90281545803255,0.6796534295045629,0.0745410105058902,22.01081885
512,128,14.19755654645631,24008,8660,25382912,21146208,0.9239918033496104,0.1340791073185065,0.3385057183613279,512,0,1,1,65.02347717064325,0.8664777719346463,0.0144894005810368,22.01081885
512,1536,9.906284427190544,22446,3745,33787904,15252600,0.9856365812932614,0.1146987686491286,0.451814790983789,512,0,1,1,48.716463668826066,0.5371256216938927,0.0537321503597195,22.01081885
512,2048,10.264382130678262,14143,4326,39546880,24722392,1.0212076198286821,0.0752324827907616,0.5023370445824111,512,0,1,1,43.81683391137801,0.5401967175546497,0.0589161464994678,22.01081885
512,256,18.660141913511985,16141,11366,25382912,21338128,0.9298232353080194,0.1883029891607378,0.30743960883303273,512,0,1,1,71.59395932602115,0.861601307231673,0.0141353832319301,22.01081885
512,512,13.089807596352436,44904,4231,25382912,21158952,0.947636086370161,0.2807416450826326,0.3517327368299348,512,0,1,1,62.578249179695725,0.8711988938831817,0.0183493445563998,22.01081885
