cpu,memory,duration_std,userDiff,sysDiff,heapTotal,heapUsed,avg_cpu_util,cpu_util_std,slo_preservation,total_cpu_shares,cpu_shares_others,num_containers,arrival_rate,latency,memory_util,memory_util_std,slo_duration
1024,1024,18.756675001322048,25404,32,25792512,15164800,0.8832703991340711,0.2030326938801826,0.4534220059604742,1024,0,1,1,48.54378164415498,0.6583289441566694,0.0587533978234625,22.01081885
1024,128,16.159806566715748,22225,4274,25120768,21391120,0.869219619461269,0.2302007758101723,0.4093924226111769,1024,0,1,1,53.76459757025087,0.8618300604042857,0.0141291549167488,22.01081885
1024,1536,6.743873051952638,21989,15432,34574336,15258944,0.9817311809914726,0.2183831987491693,0.7272118857685725,1024,0,1,1,30.267408001365794,0.5339226520982165,0.058442915654095,22.01081885
1024,2048,5.351117124560946,35405,11886,39026688,24849304,1.064183264476803,0.2227532830216713,1.0,1024,0,1,1,20.798649843677147,0.546409767827081,0.0551605560820011,22.01081885
1024,256,16.64901265102008,26143,27,25382912,21257600,0.8738590857427365,0.2341554875995785,0.47977551151517844,1024,0,1,1,45.87732871252153,0.8600169148557357,0.0146850151239799,22.01081885
1024,512,12.757522200178078,27195,540,24858624,21052112,0.8855698483640481,0.230895791501682,0.5199666816434763,1024,0,1,1,42.33121010836629,0.8663207172640565,0.0116649968196595,22.01081885
128,1024,23.825752955920745,20711,4167,25792512,15202376,0.907286384040239,0.2119340136763502,0.4141554541182611,128,0,1,1,53.14627305068609,0.6726028326305383,0.0642840965065824,22.01081885
128,128,21.036695861147383,25754,1001,25120768,21537912,0.7606663245722868,0.1821133720546371,0.3209499968298745,128,0,1,1,68.58021208103405,0.8706677566444027,0.0124341423699406,22.01081885
128,1536,13.544614407970451,39883,4047,34574336,15261800,0.9629393524663628,0.2095371030025772,0.6035355795266923,128,0,1,1,36.469794982528505,0.5395112374681614,0.0600643418756108,22.01081885
128,2048,6.277074777018387,19324,11784,39284736,24771856,1.0265641217962176,0.1752369809550679,0.8534272791602416,128,0,1,1,25.791088927527934,0.544364227539688,0.0539919030796697,22.01081885
128,256,10.52747489496548,21345,4236,25382912,21202976,0.9468730755340429,0.1711491234559239,0.6317445572243887,128,0,1,1,34.84132723945574,0.8677141019937171,0.0153294636591176,22.01081885
128,512,10.649359261459107,34332,396,25645056,20843096,0.9561609817361867,0.1564199831265142,0.6684752685120332,128,0,1,1,32.92690079469078,0.8676970604677259,0.0173980139465548,22.01081885
1536,1024,45.7306421429083,26402,23,30769152,24926264,0.8530001386725188,0.2114452452515149,0.34283054027108656,1536,0,1,1,64.20320322861369,0.6610785435336516,0.0756652866262714,22.01081885
1536,128,12.72124416574012,41923,5416,25120768,21230768,0.9253415254563578,0.1851801275141793,0.5278969534536472,1536,0,1,1,41.695294329696665,0.8597575539724811,0.0127462291966105,22.01081885
1536,1536,12.562592748396916,33379,12281,34574336,15241456,0.9530113583000553,0.2261167633778981,0.6236532255941575,1536,0,1,1,35.29336167391772,0.5364385481531905,0.0562968628545606,22.01081885
1536,2048,7.784429137984341,32912,21,39288832,24831280,1.050461068611429,0.1322004440889831,1.0,1536,0,1,1,21.325782683167745,0.5507822688791117,0.0545479811870257,22.01081885
1536,256,9.283927798858016,8182,11538,25120768,21301488,0.9355696659087361,0.1780229774417767,0.6521956314855876,1536,0,1,1,33.74879834730448,0.8648810604917218,0.0123362653778319,22.01081885
1536,512,12.583121111122775,36483,12055,25120768,21202112,0.9094316660846147,0.2023346267568328,0.48232053928009827,1536,0,1,1,45.63525095334504,0.8639158454186916,0.0140288940875788,22.01081885
2048,1024,27.714253344059568,20937,4219,30507008,25231232,0.8929389135359467,0.2482512615944032,0.39540936457410636,2048,0,1,1,55.66590177677697,0.6767514947932645,0.0737585856358797,22.01081885
2048,128,20.32652870616393,21227,7638,24596480,21127952,0.8526038209979727,0.20776643018608,0.42642702100607555,2048,0,1,1,51.61684828993611,0.8718912627364673,0.014694185494841,22.01081885
2048,1536,9.728224898402411,22120,22,39026688,25061272,0.9996299507407946,0.2151892382782617,0.7842372386820899,2048,0,1,1,28.06653110095762,0.5607875208299963,0.0774032346018261,22.01081885
2048,2048,5.845867465457378,28247,9369,34574336,15267664,1.04472286325148,0.1374439618522984,0.971779037336732,2048,0,1,1,22.650024341256717,0.5486277104497395,0.0534477885337285,22.01081885
2048,256,17.37900020322,26853,10887,25382912,21156104,0.9059023535094791,0.2372503032179964,0.4928291785766364,2048,0,1,1,44.66216654129632,0.8676555985803711,0.0147199791633274,22.01081885
2048,512,16.03814833426217,20432,21,25120768,21238688,0.9059901255751156,0.1683932326866958,0.5432202213587145,2048,0,1,1,40.519144878197004,0.8633424796445295,0.0146492242939744,22.01081885
256,1024,27.166287978722877,20336,81,25530368,15173760,0.9206837266052531,0.1786988660754049,0.3976171481986445,256,0,1,1,55.35681483989637,0.6544148910446486,0.0594484122084564,22.01081885
256,128,14.471813026034994,29560,3654,24858624,21093504,0.8463740299987934,0.2199925447031187,0.42815480613424217,256,0,1,1,51.40855254839485,0.8662941753101909,0.0134319488183162,22.01081885
256,1536,17.212811850826654,25198,2900,38760448,25631456,1.0067398071806217,0.463111761430124,0.4539676737461224,256,0,1,1,48.48543216385351,0.6046263484648609,0.1044290589166658,22.01081885
256,2048,7.863852673769804,60236,13343,34836480,14735792,1.0519840252775101,0.2497458594463198,0.932563383291218,256,0,1,1,23.602490988139653,0.5424680794385657,0.0583831027830298,22.01081885
256,256,12.45292441688055,31981,3994,25645056,20841816,0.9867868940012018,0.1405779558827939,0.6223710486045728,256,0,1,1,35.366071251789066,0.8619143543125801,0.0193927688034522,22.01081885
256,512,20.67651830497705,17495,7428,25382912,21213848,0.8694193255184518,0.1610716570871527,0.4327725272607044,256,0,1,1,50.860018747771775,0.8661003293584171,0.0135110871545096,22.01081885
512,1024,23.993004037697187,13169,11670,30765056,24895640,0.9132491010259246,0.2243257558832912,0.38673595024084323,512,0,1,1,56.914333504016284,0.6796534295045629,0.0745410105058902,22.01081885
512,128,14.19755654645631,24008,8660,25382912,21146208,0.8901619992064175,0.1340791073185065,0.48916818186099,512,0,1,1,44.99642386032163,0.8664777719346463,0.0144894005810368,22.01081885
512,1536,9.906284427190544,22446,3745,33787904,15252600,0.9786084994792644,0.1146987686491286,0.6728896883073807,512,0,1,1,32.71088743441303,0.5371256216938927,0.0537321503597195,22.01081885
512,2048,10.264382130678262,14143,4326,39546880,24722392,1.0321523673345345,0.0752324827907616,0.7615812294651957,512,0,1,1,28.90147235568901,0.5401967175546497,0.0589161464994678,22.01081885
512,256,18.660141913511985,16141,11366,25382912,21338128,0.8983032281751717,0.1883029891607378,0.44552660537484545,512,0,1,1,49.40405036301057,0.861601307231673,0.0141353832319301,22.01081885
512,512,13.089807596352436,44904,4231,25382912,21158952,0.9234581450949004,0.2807416450826326,0.514137967190997,512,0,1,1,42.811113464847864,0.8711988938831817,0.0183493445563998,22.01081885
