cpu,memory,duration_std,userDiff,sysDiff,heapTotal,heapUsed,avg_cpu_util,cpu_util_std,slo_preservation,total_cpu_shares,cpu_shares_others,num_containers,arrival_rate,latency,memory_util,memory_util_std,slo_duration
1024,1024,53.59962577022235,153985,20001,42577920,30813136,0.9871168872010826,0.1559946115508729,0.9493319000709156,1024,0,1,1,218.0424355814906,0.779644449180846,0.0905554982535282,206.99463966666667
1024,128,260.35650311702267,272847,46579,32743424,29712584,0.8981901432658792,0.373321138404991,0.49049069258319367,1024,0,1,1,422.01542821642363,0.8929680960455004,0.0617341754940416,206.99463966666667
1024,1536,59.54254712609279,205068,53507,72978432,55060872,1.2062720694254954,0.2178046570326191,1.0,1024,0,1,1,136.04077854327542,0.6926046718365754,0.0998860332552028,206.99463966666667
1024,2048,23.75462439853048,234397,30507,50311168,29961128,1.4222779026430834,0.1919749432105184,1.0,1024,0,1,1,91.49722134548858,0.6801509069270809,0.1263827681632469,206.99463966666667
1024,256,58.35188858689275,252514,22808,33005568,30187928,1.0500029372078508,0.1548079812767061,0.8817593921865349,1024,0,1,1,234.75183990200952,0.8974863408438409,0.0499563744401114,206.99463966666667
1024,512,76.45635930855583,236540,41617,33005568,29878904,1.0722784495523623,0.3130088655888716,0.80073480650207,1024,0,1,1,258.5058598500321,0.8830818866445421,0.0643198605114414,206.99463966666667
128,1024,95.3646185089397,227336,32555,39432192,30069208,0.9085608407322916,0.1888115641062661,0.8162591464755289,128,0,1,1,253.58936626981156,0.802983762725882,0.1010656161163336,206.99463966666667
128,128,286.1464400082132,265560,44259,33267712,29845632,1.0022044696905832,0.4118858369681399,0.5243607537481667,128,0,1,1,394.7561639330456,0.8784023625662358,0.0448041609004691,206.99463966666667
128,1536,58.45068258318736,192985,36099,72978432,55136536,1.223334600529851,0.2943970619161948,1.0,128,0,1,1,146.01287171535293,0.7049418843357974,0.1224999945441667,206.99463966666667
128,2048,29.491300872832777,252461,42721,50049024,29966568,1.2733783766139506,0.2433111666617459,1.0,128,0,1,1,123.30980779512173,0.7269096227649645,0.0856223695610138,206.99463966666667
128,256,90.42505384833488,271291,35478,33005568,29969640,0.9533543302268064,0.1774466005707297,0.7957439302075923,128,0,1,1,260.1271989755125,0.9034621147789272,0.0393421059805422,206.99463966666667
128,512,47.656733308088974,251127,38080,33005568,30254912,1.0257994404935546,0.1375835445929163,0.8364648029074693,128,0,1,1,247.46365770224125,0.8708998522737262,0.0714806662583589,206.99463966666667
1536,1024,74.82820753780078,216190,58723,39432192,30066256,0.9509133440975105,0.1509658457039637,0.8775539698564118,1536,0,1,1,235.87681986161581,0.7734641970178632,0.1000215606435081,206.99463966666667
1536,128,309.0934803571668,234679,60448,32219136,29926232,0.8719793619183973,0.4431962033614187,0.43614889368167753,1536,0,1,1,474.59627357840174,0.8962788255755547,0.0310466816526079,206.99463966666667
1536,1536,58.55286229843991,235155,28806,47951872,31030664,1.2610359648964664,0.1716147969524435,1.0,1536,0,1,1,139.6884627518675,0.7422414431419528,0.1214766193863125,206.99463966666667
1536,2048,25.12533956640517,237189,31987,51097600,30065976,1.492483243466098,0.2385146072765689,1.0,1536,0,1,1,97.72856761130197,0.6923124093067692,0.1130687649265232,206.99463966666667
1536,256,57.10929125625673,273056,56152,33005568,29910616,1.032226913558179,0.2399390436727338,0.7939734631958125,1536,0,1,1,260.70725189415674,0.8949641151259643,0.0566883422843945,206.99463966666667
1536,512,81.22712564003749,296881,22606,32743424,29869608,0.8358407911331431,0.137656772448927,0.6684394251367402,1536,0,1,1,309.6685082935115,0.8776018616738115,0.0737633362564841,206.99463966666667
2048,1024,104.39406568577937,226576,28734,38907904,30068648,0.9053499897462401,0.1570996095802747,0.8384066782807045,2048,0,1,1,246.89049482662088,0.7874210227687013,0.0977517991648666,206.99463966666667
2048,128,475.3116043806693,207695,50880,32743424,30227472,0.7527346107360254,0.3651275179786106,0.3678152892310953,2048,0,1,1,562.767904780091,0.8768800974034698,0.0634830819091482,206.99463966666667
2048,1536,51.88227999535421,273272,28330,72454144,55161656,1.2512312709665436,0.2791679058493355,1.0,2048,0,1,1,135.93718227490712,0.7413105502684765,0.10790844119576,206.99463966666667
2048,2048,27.87241708665221,216586,23312,94068736,77370472,1.461403858956976,0.2675620502325091,1.0,2048,0,1,1,95.61880777968211,0.6641287855918565,0.1367959256210539,206.99463966666667
2048,256,51.61707800354719,325542,22222,33005568,29764776,1.0903537455229813,0.2123692239518553,0.8542466899967943,2048,0,1,1,242.3124866511844,0.8822580242649197,0.0549178520908584,206.99463966666667
2048,512,73.19944762709518,254300,17056,33005568,29624656,1.0042747642641041,0.1894214081382749,0.8417696265963351,2048,0,1,1,245.90414422962962,0.885125975841152,0.0781626075259247,206.99463966666667
256,1024,70.50982320887151,256484,31292,38907904,30427696,0.9320418277844428,0.1375689004807826,0.8949406775869291,256,0,1,1,231.2942576538102,0.7695994086445441,0.1037135654971685,206.99463966666667
256,128,426.0482778828061,314110,37757,33529856,30356448,0.7673632983515338,0.2491909994669239,0.42167724716507377,256,0,1,1,490.88406134854745,0.8967096835469685,0.0626436302452509,206.99463966666667
256,1536,52.47950368895419,226454,34345,72716288,55044504,1.2359371479064163,0.2981750700193881,1.0,256,0,1,1,150.40189700817518,0.7445278661277853,0.1070118789944367,206.99463966666667
256,2048,21.318364503558804,222887,36671,93282304,77276984,1.4275998549243563,0.245221811928502,1.0,256,0,1,1,95.99258408577857,0.7468199946708213,0.0963675673684573,206.99463966666667
256,256,60.431888291069015,267937,41791,32743424,29697392,0.9585806881729719,0.1335307575080522,0.7882389984906526,256,0,1,1,262.6039057481642,0.8852171946977068,0.0450424209737564,206.99463966666667
256,512,90.55489615679542,213877,46030,32219136,29722096,0.7733541070729985,0.130661033766015,0.618942619593795,256,0,1,1,334.4326810173694,0.8889738380747338,0.0853914189690898,206.99463966666667
512,1024,81.66889287521197,250742,45592,38907904,30393920,0.7615102373903476,0.1493993670474919,0.6773828782117924,512,0,1,1,305.5799700947669,0.779758242276752,0.0860828371780256,206.99463966666667
512,128,455.6144770445069,158944,27127,32743424,30363952,0.932291573443092,0.3667531532962736,0.4331084426200216,512,0,1,1,477.9279720674228,0.8569659137388278,0.067680171846654,206.99463966666667
512,1536,49.54591016645219,205335,38483,36933632,15550264,1.2731234418122641,0.3666495207811213,1.0,512,0,1,1,124.7105765812527,0.7290068892861435,0.1054288197274038,206.99463966666667
512,2048,27.63033580245394,226179,48648,50573312,29976696,1.4186389340243741,0.2062102753778933,1.0,512,0,1,1,95.33828757655134,0.7101931070599384,0.113610865626161,206.99463966666667
512,256,56.16121681420319,256876,43840,33267712,29737768,0.9945809799756017,0.1467485057447555,0.7818096901243221,512,0,1,1,264.7634613402537,0.8726240159638976,0.0633272254901292,206.99463966666667
512,512,77.11898703609431,303812,30039,32481280,30082736,1.0315453000290693,0.2044815865595665,0.8361646279541022,512,0,1,1,247.55249474392835,0.901457310755409,0.0672427798215262,206.99463966666667
