cpu,memory,duration_std,userDiff,sysDiff,heapTotal,heapUsed,avg_cpu_util,cpu_util_std,slo_preservation,total_cpu_shares,cpu_shares_others,num_containers,arrival_rate,latency,memory_util,memory_util_std,slo_duration
1024,1024,88.27048070093109,492096,35756,47296512,30125320,1.038175651468122,0.1595049902892571,0.31228611992351635,1024,0,1,1,955.1136982106367,0.7436169720343828,0.126877562412078,298.2687509000001
1024,128,164.29402683829414,374806,71611,33005568,29721520,0.9244092638054323,0.1946077467430901,0.19421787201933235,1024,0,1,1,1535.7430693623837,0.8680271363485295,0.0810901934819874,298.2687509000001
1024,1536,86.84199141934458,407981,36738,44544000,30268248,1.014652640410897,0.1369510508642108,0.3233107262116081,1024,0,1,1,922.5451762611243,0.6858262129007351,0.1272571889922902,298.2687509000001
1024,2048,62.9203634140628,327215,61065,44544000,31386704,1.102622191997488,0.1885980885477955,0.4380148109312189,1024,0,1,1,680.9558568713262,0.7558155405609689,0.11888365170868,298.2687509000001
1024,256,84.07619203397856,346140,84063,33005568,30035920,0.9984683847796338,0.0946352820431109,0.2529672533687867,1024,0,1,1,1179.0804814770663,0.8467912028353426,0.0849417248425451,298.2687509000001
1024,512,42.744051282893615,379912,75595,35102720,29682320,1.02556039174244,0.1611038303562089,0.25959898560484324,1024,0,1,1,1148.959616329238,0.9014523419833096,0.0312732948205381,298.2687509000001
128,1024,74.8332776873809,418711,67185,48082944,30735368,1.0289289448910606,0.1250003876251152,0.31699184163455285,128,0,1,1,940.9351021843084,0.7793497358587687,0.1264087213432529,298.2687509000001
128,128,125.9034800623746,380368,67205,36675584,29582968,0.9449561091249596,0.1258376265285195,0.227713924188716,128,0,1,1,1309.839756012515,0.8320278935556672,0.0962404604707716,298.2687509000001
128,1536,63.95175763326093,355092,56998,59232256,46002640,1.1291089631157605,0.2275615511088751,0.4001918340134112,128,0,1,1,745.3144356014135,0.7136207496529263,0.1458719460229181,298.2687509000001
128,2048,39.5524859241003,408028,47349,58970112,46109816,1.1807403269375671,0.2210458618971063,0.5466481204376535,128,0,1,1,545.6320798491034,0.6900543267127331,0.1505798628202082,298.2687509000001
128,256,47.36310307028131,344350,50760,40869888,29572424,1.1206536800643183,0.1601424503017365,0.31915722646048444,128,0,1,1,934.5511433592102,0.8496193974772469,0.1212057363481683,298.2687509000001
128,512,75.78808231670727,420536,58152,33005568,29576096,0.9997476437354456,0.1047497624042528,0.25517829151693,128,0,1,1,1168.8641268303625,0.8707261103285922,0.0891801977056656,298.2687509000001
1536,1024,92.65972713415157,459435,70868,47034368,31063712,1.0313787047379697,0.1967513068787671,0.2991337875349875,1536,0,1,1,997.1081948244104,0.752906127729807,0.1219414887071818,298.2687509000001
1536,128,221.74018787076704,452674,62714,35364864,29601424,1.038756976176534,0.3822736980614637,0.21417770162473573,1536,0,1,1,1392.6228017079093,0.8943255660140996,0.0516950954500989,298.2687509000001
1536,1536,71.45931614594892,370302,39280,44806144,31718064,1.1287034318469746,0.2196183473325606,0.42222388642576264,1536,0,1,1,706.42320458211,0.7065178897677761,0.1485092375254244,298.2687509000001
1536,2048,33.11902207999553,265876,35693,44806144,30264632,1.1793650527802257,0.2708578120348675,0.5655657412615474,1536,0,1,1,527.3812205008807,0.6609833702227595,0.1618922998817657,298.2687509000001
1536,256,64.37383754299532,428773,42234,33267712,30290400,1.0389493226514839,0.1667872856896239,0.26939523248284375,1536,0,1,1,1107.1790252227092,0.8696641463887185,0.0840471488416488,298.2687509000001
1536,512,68.19223861639529,357203,58824,33005568,29853384,1.016679274719932,0.0942114483082883,0.2598492269864874,1536,0,1,1,1147.8531391417632,0.8815302741639224,0.0754575033302454,298.2687509000001
2048,1024,73.8425047513263,439001,36951,39956480,31536600,1.0514964077186308,0.1504056728024044,0.3036803955509574,2048,0,1,1,982.1798024164875,0.7194001434544017,0.1298337477136457,298.2687509000001
2048,128,172.02348376106934,338713,66435,33267712,29880840,0.9266753233016812,0.2889113281302679,0.2061495208694724,2048,0,1,1,1446.8563867720788,0.9023600329300044,0.0538192962902689,298.2687509000001
2048,1536,54.60982461392211,341167,69362,59232256,44953648,1.116528192251712,0.2273570479322225,0.40484340295509263,2048,0,1,1,736.7509232528747,0.6736624960740779,0.1414311049050917,298.2687509000001
2048,2048,53.47657199331307,380682,49677,58970112,45524184,1.16437797239859,0.3235095644102627,0.46292898687054745,2048,0,1,1,644.3077866355502,0.6995160509086864,0.1540521881057785,298.2687509000001
2048,256,44.11739471619999,375643,31456,33005568,29893512,1.1017713524658255,0.1750032317633972,0.3293573243175759,2048,0,1,1,905.6083738778516,0.8843093419889927,0.0719408675324111,298.2687509000001
2048,512,63.35130847132528,403422,39459,33005568,29630264,1.0227660998091592,0.1471756929290727,0.2564835389082124,2048,0,1,1,1162.9157651584858,0.8705131304754052,0.075015764079866,298.2687509000001
256,1024,65.16801139646438,341083,54798,52285440,45261744,1.056613765911537,0.1825683604906565,0.31008879510432236,256,0,1,1,961.8817435813969,0.7720868077590095,0.1142489214608073,298.2687509000001
256,128,138.5332369790869,424051,81873,33005568,30040032,0.9414091455022277,0.1800714750881851,0.19575983950870404,256,0,1,1,1523.6462782589185,0.870305200353959,0.0750728561300241,298.2687509000001
256,1536,68.10920592241918,358181,67687,61591552,44757096,1.133342712473577,0.2015250513730324,0.41438017360945667,256,0,1,1,719.7949368617989,0.7072506525812526,0.1205357221390051,298.2687509000001
256,2048,35.77912304721182,380630,64909,58970112,45496184,1.2016516346423274,0.2599092636671313,0.4811970097714646,256,0,1,1,619.847473785544,0.7394666430551886,0.1198756749279982,298.2687509000001
256,256,54.26223544918816,402325,51278,35364864,29841504,1.0950048691233076,0.1603695508237639,0.30407996259034675,256,0,1,1,980.88919887768,0.8494705406550477,0.1023683091253356,298.2687509000001
256,512,58.68799813720919,336475,50038,33005568,29885704,0.9927264346081849,0.1005805696259718,0.2529540696024817,256,0,1,1,1179.1419342204324,0.8470263692805776,0.0796240784542615,298.2687509000001
512,1024,62.10794154983778,402953,70033,45723648,30411776,0.9921346121530672,0.1469878589238355,0.2970849136977392,512,0,1,1,1003.9848445601831,0.7386065525801998,0.1152738062587486,298.2687509000001
512,128,283.1658099568437,416253,73745,35627008,29649832,0.9608111978407259,0.2873664701463334,0.19709015106171573,512,0,1,1,1513.3620289661346,0.869958970669802,0.0764813280774897,298.2687509000001
512,1536,64.62612036091383,362112,59100,60018688,44765840,1.0869709596863806,0.1819614790816707,0.3865928210927873,512,0,1,1,771.5320477418067,0.6450946801716688,0.149080247101078,298.2687509000001
512,2048,33.09043918220485,279547,19001,45068288,30258560,1.18544778973055,0.2687273078468724,0.5103011992028419,512,0,1,1,584.4954927911897,0.6754103505794822,0.1424775495674691,298.2687509000001
512,256,67.56267837228754,360293,28651,33005568,29628392,0.9838631238315063,0.1104572742460207,0.2505773197460122,512,0,1,1,1190.3262083030036,0.8575209770201789,0.0682388672419142,298.2687509000001
512,512,84.90903653609442,418237,25521,32481280,29690704,1.0325113904910574,0.1417265585816864,0.26373960169827176,512,0,1,1,1130.9213670582205,0.8969822787190165,0.0508660071704197,298.2687509000001
