cpu,memory,duration_std,userDiff,sysDiff,heapTotal,heapUsed,avg_cpu_util,cpu_util_std,slo_preservation,total_cpu_shares,cpu_shares_others,num_containers,arrival_rate,latency,memory_util,memory_util_std,slo_duration
1024,1024,126.7091759746344,498882,56764,51499008,44269992,0.9853309461643974,0.1877061169353157,0.6632870021904809,1024,0,1,1,1409.7175312812842,0.8094412084742769,0.0788919253399274,935.0473152589284
1024,128,445.8417644179812,726146,78596,46645248,43854624,0.6693141893050671,0.0779533222882956,0.2773257375825368,1024,0,1,1,3371.657183389416,0.9036330003460724,0.0505452113044624,935.0473152589284
1024,1536,57.85049448217129,540033,58679,76541952,59056208,1.158328546923474,0.1987986435972522,1.0,1024,0,1,1,926.8760396821032,0.5827247034137122,0.177850386795467,935.0473152589284
1024,2048,30.23748127392565,449629,42550,55816192,29945264,1.1983175767780385,0.1183250277138717,1.0,1024,0,1,1,762.1139817974745,0.4311504402897633,0.1274937055442052,935.0473152589284
1024,256,820.3679886014694,658854,60373,32481280,29729296,0.6849714306567294,0.2249715646378944,0.2638115861485346,1024,0,1,1,3544.375472320863,0.8871991596328639,0.053246022579604,935.0473152589284
1024,512,268.76231501371313,667143,70045,32219136,30057408,0.7325375011475419,0.06271474910975,0.3557095303223751,1024,0,1,1,2628.6822127355053,0.8943108760544108,0.0731907721545376,935.0473152589284
128,1024,116.51804364291664,514681,93882,65925120,58426768,0.9697659614386409,0.13493912413902,0.6229757210191781,128,0,1,1,1500.9370087957943,0.7939916654490491,0.0896721466625629,935.0473152589284
128,128,1002.8471814675968,502567,63838,32219136,29350040,0.8655371587601577,0.4135998275096525,0.27039073325849416,128,0,1,1,3458.1337311032066,0.8896026890013319,0.0537814197191118,935.0473152589284
128,1536,56.69828819829252,464684,76149,69726208,59499408,1.1522179320820527,0.1877072157648081,0.9834281327862284,128,0,1,1,950.8039114254049,0.6571772582234308,0.1661285494390796,935.0473152589284
128,2048,31.29652758139981,461853,58109,75755520,59071712,1.2045361832659345,0.1530168811420771,1.0,128,0,1,1,770.7756781094315,0.5215759551967374,0.2020223920102652,935.0473152589284
128,256,824.0699228465846,561157,42897,33005568,29539760,0.691891779642997,0.1956437855661183,0.2701431889145376,128,0,1,1,3461.302574445953,0.8974044613162078,0.0690386320756605,935.0473152589284
128,512,286.1838772908915,643964,77612,32219136,29541400,0.745799537165662,0.1143520740115052,0.3528112884413155,128,0,1,1,2650.276070785242,0.8973524758788203,0.0695836151488889,935.0473152589284
1536,1024,86.5589572347396,528155,38569,52285440,43848232,0.9687769011966479,0.1522911793693118,0.6159539224219925,1536,0,1,1,1518.047505213099,0.8120767651801929,0.0843864538781473,935.0473152589284
1536,128,1201.082762056133,695566,84313,46645248,43743216,0.593552664717587,0.1028444659721119,0.22359841765289776,1536,0,1,1,4181.815439814274,0.9071545065833936,0.039233950586718,935.0473152589284
1536,1536,82.35989987161534,474928,87816,76804096,58568344,1.0681853630797282,0.1889370178293599,0.8199300864863669,1536,0,1,1,1140.3988348151383,0.6770927823793198,0.1284314090297866,935.0473152589284
1536,2048,61.21046768630799,494782,75904,74174464,43973832,1.1394839273322428,0.2102050758314058,1.0,1536,0,1,1,902.459479247228,0.6525798355202876,0.1533665461244505,935.0473152589284
1536,256,570.0827772938802,599810,69347,32219136,29340304,0.6276702888197113,0.161061647623494,0.2636586955748629,1536,0,1,1,3546.430787045415,0.8757560651345433,0.0820788910760781,935.0473152589284
1536,512,190.3187298090164,569751,97117,31956992,29587232,0.7602536665176322,0.0555584754000423,0.36934493301665866,1536,0,1,1,2531.637046220842,0.8971143275943924,0.0458707204635475,935.0473152589284
2048,1024,126.19246093363296,530275,78889,51499008,45216512,0.9321888612317625,0.1422686048327948,0.5978513744524353,2048,0,1,1,1564.012989207103,0.7851663831783581,0.10245617083505,935.0473152589284
2048,128,871.4142097096195,634562,101356,34578432,29366280,0.8083308408767077,0.3312664850252592,0.2731705433943786,2048,0,1,1,3422.943424426963,0.9024989674660584,0.0290345230103589,935.0473152589284
2048,1536,62.75636107097604,510580,86525,69464064,59496336,1.1226850299709548,0.1799482768390846,0.9342656300367369,2048,0,1,1,1000.8366841260774,0.6874731653419782,0.1452102264468753,935.0473152589284
2048,2048,31.870800080888,437203,69736,58961920,29943624,1.206802807308659,0.115647608348619,1.0,2048,0,1,1,767.7748082567099,0.4610775497124998,0.156629395041041,935.0473152589284
2048,256,524.3913035217265,585738,89389,32481280,29861104,0.7977473552772114,0.2901098082220708,0.3106844778457047,2048,0,1,1,3009.6364058564304,0.9013189496652338,0.0521701923529684,935.0473152589284
2048,512,285.5928342299532,700508,79521,46645248,43666432,0.7537733087862982,0.105794644989833,0.3584093554643469,2048,0,1,1,2608.880881603949,0.897170079380248,0.0487962245956082,935.0473152589284
256,1024,127.9936819256835,536862,80426,66711552,58519520,0.9523306950404737,0.0859896787414858,0.6179086962541076,256,0,1,1,1513.2451136023521,0.7899598468820235,0.1032497573802293,935.0473152589284
256,128,827.9504822396801,512805,75406,32481280,29749048,0.5803595050891432,0.0881724295463646,0.24110425991505785,256,0,1,1,3878.1866217890547,0.9100714186825732,0.0382916317662899,935.0473152589284
256,1536,50.31818189166822,445255,104483,69201920,59539760,1.1444224779205783,0.1823985110545674,0.9612878648003463,256,0,1,1,972.7027142417242,0.6770224010803713,0.1500485987067051,935.0473152589284
256,2048,34.2589504033821,477795,61590,63156224,30268792,1.203606269313872,0.144683362697329,1.0,256,0,1,1,749.9331757471721,0.4974008183836995,0.1826097852000323,935.0473152589284
256,256,393.67796341634784,509272,81588,32481280,29346056,0.5469338785124789,0.0489863357631183,0.24913228966478776,256,0,1,1,3753.216078562327,0.9093132433323,0.0472721616924077,935.0473152589284
256,512,244.2913655931229,580542,82937,39559168,29338216,0.7418558860877547,0.0876231033572367,0.37047663468838166,256,0,1,1,2523.9036087806808,0.8797919929392213,0.0702960124948497,935.0473152589284
512,1024,122.5764009459838,621615,53977,38907904,29748112,0.9360245887502836,0.1016227564417489,0.5963507528440118,512,0,1,1,1567.948578583433,0.7878048221201157,0.1022290533787831,935.0473152589284
512,128,874.8282215457205,696390,64219,32219136,29926952,0.6729761465564907,0.1705539433789955,0.25159388982241754,512,0,1,1,3716.4945298111675,0.9029754654279564,0.0495786979866948,935.0473152589284
512,1536,55.13825614894618,479159,78272,61853696,44071880,1.149415366068793,0.1380821682088553,0.9347706706218447,512,0,1,1,1000.2959492052737,0.7068901679484034,0.1036028015570929,935.0473152589284
512,2048,33.70429831859907,439915,79834,76541952,58672840,1.2047058733338667,0.200262503472412,1.0,512,0,1,1,762.1209223353329,0.5261971733099413,0.2060286039633179,935.0473152589284
512,256,414.5407222064535,544086,90775,32219136,29573368,0.5761246005297653,0.0543181161784198,0.25961428217913174,512,0,1,1,3601.6790270951014,0.9144661210735736,0.0110313197712212,935.0473152589284
512,512,266.06695150146646,621766,47019,31956992,29297096,0.7930396931038869,0.1804778845777414,0.37944961289253526,512,0,1,1,2464.219974112202,0.8881631837036679,0.069137144679609,935.0473152589284
