cpu,memory,duration_std,userDiff,sysDiff,heapTotal,heapUsed,avg_cpu_util,cpu_util_std,slo_preservation,total_cpu_shares,cpu_shares_others,num_containers,arrival_rate,latency,memory_util,memory_util_std,slo_duration
1024,1024,110.18689923357084,481479,53410,49393664,30480016,0.9601951974498333,0.1592113074514838,0.48824290017860195,1024,0,1,1,1337.1139946609155,0.7457317010199719,0.1146622692443665,652.8364146226411
1024,128,294.82983150913265,449820,69278,33005568,30074936,0.5785856613528627,0.0355814205558182,0.21130457226560384,1024,0,1,1,3089.5517670201866,0.9170587440898924,0.0058795524598236,652.8364146226411
1024,1536,67.73185403776925,349220,51558,57135104,45348440,1.1383373625523854,0.1937467541286681,0.7545746591293085,1024,0,1,1,865.1714005025539,0.6892654044490456,0.1445974271142353,652.8364146226411
1024,2048,51.10275313239176,436528,47041,59232256,45995240,1.18353974674039,0.2176105614638467,0.9418642431394791,1024,0,1,1,693.1321784194366,0.738786512669069,0.1566263507810923,652.8364146226411
1024,256,538.9478712413321,611465,82229,35627008,29739200,0.798518075075541,0.223906439785161,0.26732805265556975,1024,0,1,1,2442.0797149327504,0.8714772069032324,0.0930218063560589,652.8364146226411
1024,512,190.90873133934127,417710,42665,34578432,30307904,0.762524851963453,0.1016963225981604,0.31986379876587573,1024,0,1,1,2040.9824967422605,0.8753006841542241,0.0786269610797635,652.8364146226411
128,1024,140.1313513989415,552005,52204,53596160,45141992,0.9506003702204404,0.1097076960617442,0.4956472829530697,128,0,1,1,1317.139096845316,0.8026757315556994,0.0910203374830287,652.8364146226411
128,128,1022.3416204696524,515933,60516,33529856,30139192,0.8301659231984799,0.2830138891272806,0.2268805743836403,128,0,1,1,2877.4451774735776,0.8917680761633808,0.0651175579397693,652.8364146226411
128,1536,107.62435930972256,522217,31595,59756544,46040032,1.0705241711133477,0.1992826312486203,0.6569315575718507,128,0,1,1,993.7662563139057,0.7053346682908089,0.1753366983629445,652.8364146226411
128,2048,74.8080413472488,408016,62613,57397248,45430576,1.0879626511115803,0.2266082859416341,0.7402770645805355,128,0,1,1,881.8811845704809,0.740362934201426,0.1423029847200307,652.8364146226411
128,256,358.6593963037087,451375,48489,35364864,29760392,0.5039469693790283,0.029059695924692,0.19958555980092327,128,0,1,1,3270.960160012644,0.8794277984551497,0.0521046311009557,652.8364146226411
128,512,189.00179029767853,576536,46190,32743424,29954984,0.7159722584905507,0.0606254860648804,0.29867893712059224,128,0,1,1,2185.7464102299823,0.8571387962264316,0.0900187019838302,652.8364146226411
1536,1024,139.49694526317717,473152,51967,44937216,30248552,0.9614252058734831,0.1473687495033998,0.4957017455239909,1536,0,1,1,1316.9943832506542,0.749670593345171,0.1081477138777186,652.8364146226411
1536,128,591.3775668840708,572493,71879,32743424,29733048,0.7541943593206923,0.2015776761742802,0.24252683130282948,1536,0,1,1,2691.811092058022,0.9092114942692436,0.0280666960156018,652.8364146226411
1536,1536,89.15263473174798,449568,51586,55300096,45656488,1.0524849444670952,0.1046397359487127,0.634794214161921,1536,0,1,1,1028.422124931526,0.6963459811657351,0.1184658869617426,652.8364146226411
1536,2048,82.2479646811137,424073,57511,61067264,45948480,1.0979392223481095,0.1800933344204744,0.7238569272497227,1536,0,1,1,901.8859805667366,0.7156481137548794,0.12764812113905,652.8364146226411
1536,256,414.7883403006369,561434,72645,33005568,29732408,0.7861768292191182,0.2438160454915157,0.2704900004448131,1536,0,1,1,2413.5325281861446,0.8815320248361495,0.0569654705074669,652.8364146226411
1536,512,219.2669471211043,449683,45913,33267712,30494752,0.8001159496684815,0.160632484660038,0.33528260164101675,1536,0,1,1,1947.1228492840962,0.8908777477313675,0.0627134431845109,652.8364146226411
2048,1024,96.2075407979601,367470,53706,47034368,30625672,0.9580114492649501,0.0987346201307537,0.509022081058855,2048,0,1,1,1282.5306384835546,0.7357440522032597,0.140295965442869,652.8364146226411
2048,128,775.1028405747481,541182,70777,33005568,30310168,0.8548933089156336,0.4342450283783223,0.21639605254746738,2048,0,1,1,3016.8591660397256,0.9192969456324128,0.0352978372020833,652.8364146226411
2048,1536,86.82917228065321,367758,66428,44806144,31013680,1.057458946471575,0.1575960934737088,0.661293214307733,2048,0,1,1,987.2117246901666,0.7114423818239295,0.1357430579096337,652.8364146226411
2048,2048,77.11423142383684,511492,47558,59756544,46468632,1.1092590460286986,0.2746440440783533,0.7479164325825692,2048,0,1,1,872.8734738029286,0.714850860955188,0.1448535432141902,652.8364146226411
2048,256,336.0192919480666,562199,33988,47431680,44204168,0.7801972095431007,0.1731322766359533,0.28734355929117233,2048,0,1,1,2271.9716294775403,0.8840564619527117,0.0826383639859486,652.8364146226411
2048,512,298.6649220982823,559610,48328,47169536,44646408,0.792903441407743,0.2453985980774555,0.3114388607626054,2048,0,1,1,2096.194460203431,0.8706480149365019,0.0778373845157765,652.8364146226411
256,1024,116.96720510146568,521890,68043,52809728,44867296,0.9642800792403043,0.2049765319816552,0.4878417224619704,256,0,1,1,1338.2135733040604,0.7293592920183429,0.0923997272921878,652.8364146226411
256,128,1645.4050001457113,369068,78339,32743424,30091424,0.8799767152460362,0.4642143252944306,0.16210865483447243,256,0,1,1,4027.153363830241,0.8742894226877373,0.0636894538544753,652.8364146226411
256,1536,64.10532393067594,426555,47294,57135104,45061920,1.1297575540916507,0.2138678232889724,0.7372335571195462,256,0,1,1,885.5218381178223,0.6992871404382639,0.1438706394244838,652.8364146226411
256,2048,42.47878658734853,397402,43837,59232256,45433432,1.1569274300905505,0.2459809053223785,0.9928367917863178,256,0,1,1,657.5465575243782,0.6195680838252926,0.1433994739311351,652.8364146226411
256,256,267.42386678123125,473755,57164,32743424,30166456,0.5617044414533232,0.0495038784741042,0.22351330983358103,256,0,1,1,2920.7943594442618,0.8706804484149154,0.0738056198110272,652.8364146226411
256,512,411.2825027265127,470137,69500,35102720,30340328,0.8197082249926358,0.3337428151979035,0.2809240782410582,256,0,1,1,2323.889140120088,0.8427232088373741,0.0969040107816646,652.8364146226411
512,1024,152.1442707463695,653488,58192,53596160,44691352,0.9641287269177491,0.1547713970583953,0.48245210657891424,512,0,1,1,1353.163154892054,0.7609544900933264,0.0870074371748403,652.8364146226411
512,128,860.2453153299388,525501,82114,36413440,30551480,0.7963835773611029,0.2998272243116309,0.2360415506235511,512,0,1,1,2765.76904743272,0.9014241861829247,0.0289179905648621,652.8364146226411
512,1536,74.30145876233632,429593,42199,44544000,31309552,1.051636470257371,0.1149710779294544,0.6520260413385719,512,0,1,1,1001.2428541694524,0.7310581445101545,0.1189185611905553,652.8364146226411
512,2048,79.37522817832371,458274,39064,61591552,45082352,1.1410000624741816,0.3333405784932531,0.7547768405959833,512,0,1,1,864.9396477336951,0.737138207562195,0.1124095950197521,652.8364146226411
512,256,384.9113312528934,543608,44878,32743424,30150408,0.6014031361850323,0.0923979148177243,0.2273346801207031,512,0,1,1,2871.697421071076,0.8828065171069832,0.0700363449582717,652.8364146226411
512,512,203.00725475466007,451506,50480,46645248,44473408,0.7059828239330338,0.0515421850933854,0.3223842072738998,512,0,1,1,2025.0260400255488,0.9257158872718412,0.0273162705366047,652.8364146226411
