cpu,memory,duration_std,userDiff,sysDiff,heapTotal,heapUsed,avg_cpu_util,cpu_util_std,slo_preservation,total_cpu_shares,cpu_shares_others,num_containers,arrival_rate,latency,memory_util,memory_util_std,slo_duration
1024,1024,68.83119990106599,371978,44943,52023296,45695592,1.1221049085763357,0.1264637169222335,0.655367862808968,1024,0,1,1,435.12611685913004,0.737287997837499,0.1059265314407427,285.1676732583333
1024,128,129.69995099245082,437897,75542,33267712,29674192,0.9183089512516769,0.265394142380678,0.41801137478039074,1024,0,1,1,682.2007497000552,0.900602327199306,0.0730326022660257,285.1676732583333
1024,1536,53.94678454697544,379290,47673,64475136,44309552,1.3561158364969874,0.2191634593802148,0.9441151751339565,1024,0,1,1,302.04754755464245,0.674129951418809,0.1343090099975663,285.1676732583333
1024,2048,37.74948905417575,313009,55808,59232256,45491000,1.4473879951766453,0.2678072921684267,1.0,1024,0,1,1,210.35949070686138,0.7218456233545859,0.149393564544578,285.1676732583333
1024,256,57.758226371113416,363131,70983,33267712,30326952,1.0739389658401228,0.1202408876304796,0.5465431682504732,1024,0,1,1,521.7660558655906,0.8782335535124375,0.0699805606659534,285.1676732583333
1024,512,48.58956273652614,449672,58176,35889152,29569608,1.1173881663492045,0.1314993658937625,0.5507270946004211,1024,0,1,1,517.8021492936281,0.9114305747316188,0.0350715759130472,285.1676732583333
128,1024,74.96677224573543,372302,54852,46247936,30176736,1.0333236781820345,0.2330292902792823,0.5957598003702906,128,0,1,1,478.66216062428043,0.7338458379576603,0.080175748994742,285.1676732583333
128,128,158.7761341936376,382479,67476,32743424,29819080,0.8556905892575499,0.1808785965561043,0.37650266353800543,128,0,1,1,757.4121005641904,0.8924105313467244,0.0785372958615315,285.1676732583333
128,1536,132.17691137246723,318664,40953,45330432,30541768,1.1476688605033132,0.2868532259886895,0.7971997644875414,128,0,1,1,357.7116877871204,0.7039490213031258,0.1327263250206603,285.1676732583333
128,2048,39.645739686726216,379602,58722,58445824,46220504,1.5125907001145422,0.4197639893872981,1.0,128,0,1,1,213.98181084017017,0.6499650744281096,0.1592593168852631,285.1676732583333
128,256,40.91074955552059,382981,56430,32743424,30062872,1.1905874412187998,0.1639259709630514,0.6588508829842165,128,0,1,1,432.82581935185,0.8944299199899474,0.0634891196735682,285.1676732583333
128,512,69.8937312992163,479007,70324,36413440,30016584,1.06882717225129,0.1753385525291013,0.5453792894034156,128,0,1,1,522.8795423644984,0.884553185041254,0.0592354726840437,285.1676732583333
1536,1024,78.2572361342283,396570,76031,47558656,30943056,1.1558668772542304,0.1467289355198852,0.6602283946787191,1536,0,1,1,431.92276423842975,0.7437451096747875,0.1102910053756829,285.1676732583333
1536,128,451.9366280273716,473704,56424,35364864,29728200,0.858593318981456,0.2329347701740949,0.3422937582938228,1536,0,1,1,833.1080142383057,0.9032256182102656,0.0485784401406454,285.1676732583333
1536,1536,58.66809660073757,340954,40388,59756544,44758216,1.331860676630965,0.2049272364801364,0.9963273250805026,1536,0,1,1,286.21886209463537,0.730248658178794,0.1272677392498472,285.1676732583333
1536,2048,34.53576920672205,285771,76584,59232256,45485344,1.4460874624802438,0.25414207315598,1.0,1536,0,1,1,221.9138702943993,0.6906685415081038,0.152393605194291,285.1676732583333
1536,256,85.06135262029977,565017,52117,47431680,44357840,1.0887140062318672,0.2030588557927896,0.5660375185321888,1536,0,1,1,503.7964161771668,0.8929579747140298,0.039324520858473,285.1676732583333
1536,512,64.59974587792757,420861,80204,47955968,44200296,1.1168408995821926,0.1426815533514786,0.5611624229890138,1536,0,1,1,508.1731448435139,0.8932192245808329,0.0641555991624519,285.1676732583333
2048,1024,69.86593714618381,426784,38579,40218624,29853656,0.9968712254780786,0.1211666801695594,0.5673093702217535,2048,0,1,1,502.66695427023376,0.782704699252941,0.0937638599975328,285.1676732583333
2048,128,86.34317690204976,410669,65224,32743424,29797264,0.977539792710263,0.1765091479107906,0.4570379745849038,2048,0,1,1,623.947437884853,0.845637737070944,0.0855361213558197,285.1676732583333
2048,1536,60.02494744281163,395570,41650,61853696,44572368,1.3385563147595954,0.2433896522128252,0.982736295915938,2048,0,1,1,290.1772066865089,0.7208367534535763,0.1229133012100848,285.1676732583333
2048,2048,40.6665373296501,331885,73139,58183680,45086040,1.5463988305858218,0.3270987478382166,1.0,2048,0,1,1,226.13380620935655,0.6910750655081159,0.1447932167683452,285.1676732583333
2048,256,40.49752060442968,383326,71192,47431680,44168024,1.1767131998252884,0.1068924615677825,0.6277029872256931,2048,0,1,1,454.30351465859786,0.8784810384113111,0.0697370054203669,285.1676732583333
2048,512,61.08585482598886,348617,49746,39297024,29854360,0.9438107911407212,0.0883595732789043,0.4746325371688092,2048,0,1,1,600.8177925587721,0.8980694384301934,0.0516531230140872,285.1676732583333
256,1024,89.9226301742841,335771,31552,50188288,44578792,1.080882259103818,0.191769846606635,0.6357653443781909,256,0,1,1,448.5423368542383,0.7457985269686083,0.1126597191302403,285.1676732583333
256,128,168.85344134792112,411056,71159,39034880,29615736,0.9453061135254932,0.2012533467810713,0.4188854095947674,256,0,1,1,680.7772883142587,0.8795670075385894,0.0649641695917866,285.1676732583333
256,1536,62.80447306859374,267906,59299,44806144,30550992,1.268137262855344,0.2658109786027076,0.9786096860319901,256,0,1,1,291.40082846984143,0.7462619177836037,0.1078903669885443,285.1676732583333
256,2048,38.271586906899536,301251,46258,58970112,44962488,1.5972466296276715,0.2562265977342072,1.0,256,0,1,1,197.98330334881683,0.6499494011836455,0.149856611402422,285.1676732583333
256,256,84.57478242060661,380719,63485,38248448,30300944,1.025170046021751,0.1553980403809931,0.5063321878213147,256,0,1,1,563.2027355111964,0.8600181792593677,0.0896186457911877,285.1676732583333
256,512,60.18028454501688,394154,59682,37462016,29800688,1.0890121336985457,0.1527396994428885,0.5567517515055238,256,0,1,1,512.1989692662943,0.8672000178907389,0.087157935326689,285.1676732583333
512,1024,79.26176995258837,424576,74543,47296512,30105944,1.0668640917276153,0.1860068982108624,0.6068906356595971,512,0,1,1,469.88313297732753,0.7610582560232155,0.0817821696325094,285.1676732583333
512,128,412.8186277706061,369421,64403,33005568,29586920,0.8641929513938712,0.2731812536022625,0.3274660715417188,512,0,1,1,870.8312037206067,0.9115918496708816,0.0359279940790515,285.1676732583333
512,1536,64.71197489353726,315235,56052,58970112,44549200,1.2672100453166355,0.1576998341188686,0.9276989269271377,512,0,1,1,307.39247937141425,0.7201236211924913,0.1151959348954269,285.1676732583333
512,2048,37.18747849016875,352657,49878,58707968,45463872,1.463481710392842,0.2798245375821644,1.0,512,0,1,1,220.2915088544372,0.6978299066072574,0.1548438073386829,285.1676732583333
512,256,47.47171278021112,329053,40796,34054144,29864064,1.2847418954707337,0.1662406677401222,0.7085577525803525,512,0,1,1,402.4621454212294,0.8728375254692923,0.0596955080471103,285.1676732583333
512,512,85.50221145282462,474053,53366,47431680,44159832,1.0984266515554808,0.2037475794030462,0.5265278519016147,512,0,1,1,541.6003583256197,0.8889115556235035,0.066449421833152,285.1676732583333
