cpu,memory,duration_std,userDiff,sysDiff,heapTotal,heapUsed,avg_cpu_util,cpu_util_std,slo_preservation,total_cpu_shares,cpu_shares_others,num_containers,arrival_rate,latency,memory_util,memory_util_std,slo_duration
1024,1024,182.9797510950234,429933,46848,49655808,31510152,0.807358669714791,0.1759462200372701,0.9692865763130379,1024,0,1,1,858.39981023899,0.8246980448274049,0.1035385851957716,832.035413174312
1024,128,362.8555609723856,429306,65342,32481280,29649728,0.7208432482547193,0.2419272461300961,0.4949394833708319,1024,0,1,1,1681.0851450113792,0.8700702897568592,0.0301494699497383,832.035413174312
1024,1536,138.6332445318177,337522,68495,58970112,44988104,0.8055615172060274,0.2647209282862022,1.0,1024,0,1,1,677.3309817576841,0.7483886661880623,0.1147917829060628,832.035413174312
1024,2048,128.81869313207014,308061,32321,44544000,31719848,0.7012667787440098,0.2650670501045136,1.0,1024,0,1,1,649.7689373679813,0.7100025865758226,0.1614362445399116,832.035413174312
1024,256,317.71013129992275,447875,56605,33005568,29764040,0.48131951743833934,0.0904702760222918,0.4016545219478152,1024,0,1,1,2071.5200942824536,0.8559815564208243,0.0757494472361772,832.035413174312
1024,512,217.20030863085623,471826,54514,39297024,30288200,0.6561998868268872,0.1256921082140684,0.5935464035863427,1024,0,1,1,1401.8034784592483,0.867093153417736,0.0788916799775986,832.035413174312
128,1024,206.11243142696185,437841,67363,42577920,30359272,0.7829474190428384,0.2236648282736688,0.8802016213109198,128,0,1,1,945.2782101618127,0.7688254034306344,0.1029290540130499,832.035413174312
128,128,931.6165084486472,380638,53183,34054144,29612064,0.4091147114231544,0.1077393392825363,0.30347981318168943,128,0,1,1,2741.6499451849313,0.894284923963739,0.0343070239196285,832.035413174312
128,1536,136.74572276652657,442104,34582,60542976,44545784,0.8989489902875019,0.4003024949824609,1.0,128,0,1,1,666.625149266841,0.7512309416104495,0.1314528895532833,832.035413174312
128,2048,116.18740691546964,326818,50685,58970112,45388584,0.7675527621306897,0.2755365897637413,1.0,128,0,1,1,639.7960511990817,0.7456680019941919,0.1413873914391638,832.035413174312
128,256,261.52526591259686,438714,54412,39821312,29624568,0.3832753578553734,0.0262291375291547,0.33732649486174276,128,0,1,1,2466.5581442552607,0.880989128166712,0.0685492471262106,832.035413174312
128,512,279.1474009382166,417514,45491,32219136,29875096,0.6393620097740713,0.1154778143006929,0.5665286369056918,128,0,1,1,1468.655525903836,0.8568484306365598,0.081961011718908,832.035413174312
1536,1024,147.35829238759237,436915,70214,47820800,29836840,0.7388290973599572,0.1801054069595926,0.8951963268992856,1536,0,1,1,929.4446236796506,0.7588785754059051,0.1175585771201655,832.035413174312
1536,128,704.4938075636595,414919,88866,33005568,29808288,0.5850804396201073,0.14814981497015,0.4214612143631938,1536,0,1,1,1974.1684046335668,0.903962192082368,0.0202227418887539,832.035413174312
1536,1536,153.24021712588325,393537,81242,63164416,44321536,0.7067654615049584,0.2101731742606117,1.0,1536,0,1,1,729.622188561443,0.7659703319668828,0.1324534810848268,832.035413174312
1536,2048,160.6166881884403,289342,82559,59232256,44880616,0.7721604444609764,0.3082029412485657,1.0,1536,0,1,1,683.4641924625051,0.7089108313335044,0.158948735149918,832.035413174312
1536,256,455.2651307317528,445858,65627,32743424,29567984,0.5819489381485122,0.2246292406519604,0.42447013588232607,1536,0,1,1,1960.1742097704923,0.8596907931606912,0.0549931280871703,832.035413174312
1536,512,213.51970079333088,399118,63302,32743424,30270384,0.6103914874713929,0.1014692236716682,0.5566833557702565,1536,0,1,1,1494.6295852928167,0.8784094349561352,0.0742126708175525,832.035413174312
2048,1024,178.3239803821508,392232,42507,44150784,30376216,0.7932295696000969,0.2636207725079876,0.916244128920128,2048,0,1,1,908.0935821710933,0.7803110181336695,0.1199369924759256,832.035413174312
2048,128,556.7196594265425,442402,59949,32743424,30022424,0.6873344766339339,0.2029629760659927,0.4470819874573561,2048,0,1,1,1861.0354174773677,0.8564104740158001,0.0741929366162741,832.035413174312
2048,1536,208.37814119385783,338089,56652,58445824,44529352,0.7590587678442375,0.2399687383434132,1.0,2048,0,1,1,806.5632318149679,0.7440677963545066,0.1251525302796877,832.035413174312
2048,2048,146.6709438517678,337027,66523,59232256,45445064,0.7241475481782782,0.2722237352869958,1.0,2048,0,1,1,750.0410746819774,0.7539436216534801,0.131651841656874,832.035413174312
2048,256,390.1968446637701,399906,44755,46907392,44085424,0.605985036998888,0.1899064469270402,0.47650997544879603,2048,0,1,1,1746.1028226967715,0.8907248776383416,0.0612331458910695,832.035413174312
2048,512,247.7529351207724,357970,58843,32743424,29784544,0.595971004969625,0.079042295518041,0.5305811184822617,2048,0,1,1,1568.1587304771915,0.8882425054164358,0.0685914153615545,832.035413174312
256,1024,180.058924796546,433390,41218,39170048,30784248,0.8259018190429245,0.221797390062298,0.9672249334410062,256,0,1,1,860.229492031659,0.7596429111429501,0.115478157351879,832.035413174312
256,128,559.9653435935412,499483,40678,32743424,30318192,0.44397230348981637,0.0677460479754577,0.34777961324557644,256,0,1,1,2392.421468899586,0.8461700113996447,0.072696794659982,832.035413174312
256,1536,127.38899736630768,325366,79292,64212992,44323368,0.783765556316702,0.3041656575873291,1.0,256,0,1,1,725.2778758909224,0.7279749813244389,0.164588296461478,832.035413174312
256,2048,141.04627986136717,360626,65608,58970112,46116776,0.8456850553005355,0.435321196496878,1.0,256,0,1,1,635.0878068124348,0.657293341957607,0.1532155208037974,832.035413174312
256,256,399.172640854628,363404,53233,32743424,29694232,0.4122038423371091,0.0508017317455712,0.356252232767219,256,0,1,1,2335.523364194541,0.890530599077071,0.0459709491732093,832.035413174312
256,512,178.32258495832713,389931,53196,35889152,29595840,0.6193461853413372,0.1122320050205204,0.5524164035610852,256,0,1,1,1506.1743420555522,0.8801703918816542,0.0746168218792696,832.035413174312
512,1024,161.52638385428585,403240,37396,50450432,44603064,0.7895693457941739,0.233524844291094,0.9242699098031945,512,0,1,1,900.2082663834399,0.7693936152153491,0.1212671601223289,832.035413174312
512,128,481.5813492278551,384862,103847,32743424,29625800,0.47312560145645194,0.1039311498508788,0.36816653525363363,512,0,1,1,2259.943078751344,0.898312376065814,0.0413654287053536,832.035413174312
512,1536,140.859304485129,414294,40181,60280832,44860464,0.8028095573481248,0.3430471446059404,1.0,512,0,1,1,731.9678636582769,0.7469937995706474,0.1309243748638456,832.035413174312
512,2048,135.84649885025738,268367,55202,44806144,31695896,0.7029238717312967,0.2974981311108691,1.0,512,0,1,1,731.8961421849071,0.723385153600915,0.1366162088050947,832.035413174312
512,256,333.35933749606687,428376,71420,34840576,30194208,0.4470455908619432,0.0552184717617203,0.39018327707832434,512,0,1,1,2132.422023323392,0.8887603623905731,0.0607322799505572,832.035413174312
512,512,207.08651374083937,451062,43521,32481280,29834832,0.6265129550465877,0.0890414518414548,0.5488486488054617,512,0,1,1,1515.9651298863364,0.8715890963473489,0.0754265601610337,832.035413174312
