cpu,memory,duration_std,userDiff,sysDiff,heapTotal,heapUsed,avg_cpu_util,cpu_util_std,slo_preservation,total_cpu_shares,cpu_shares_others,num_containers,arrival_rate,latency,memory_util,memory_util_std,slo_duration
1024,1024,137.2711500153316,351301,67519,38645760,30015112,0.8424397154310053,0.0922125424375852,1.0,1024,0,1,1,591.1080810090367,0.708291583174202,0.1067218179626997,717.153367377359
1024,128,519.8805549939166,578918,82544,40607744,30106064,0.5469039502419,0.1812840851077153,0.49843035506364625,1024,0,1,1,1438.8236191709939,0.8500996645112734,0.0777549537046035,717.153367377359
1024,1536,67.88314437308334,381386,54548,58445824,44853120,1.386304622224395,0.249913014125415,1.0,1024,0,1,1,265.86873427074784,0.7279532335231258,0.1178692617429758,717.153367377359
1024,2048,43.705445132961984,365528,44496,58445824,44958904,1.5612392084149824,0.2026583400608581,1.0,1024,0,1,1,202.59717851992642,0.6873353942985996,0.1386752678069621,717.153367377359
1024,256,447.8387330275192,478581,36971,32743424,29660464,0.6557193172323111,0.3546847641188498,0.569348866740012,1024,0,1,1,1259.602695766567,0.8666503876869142,0.0752002013991064,717.153367377359
1024,512,292.96601915644897,571381,25735,35627008,29610688,0.5663726977594377,0.202624266823521,0.6195153917892076,1024,0,1,1,1157.6037930327534,0.8505246843249559,0.0729662265186995,717.153367377359
128,1024,122.59707133649854,479156,46938,47820800,30339168,0.8763819195005982,0.1066158113439333,1.0,128,0,1,1,560.1263352010562,0.7632842803263423,0.1169702494405504,717.153367377359
128,128,950.2333328667918,426941,91987,33529856,29613408,0.26235337517166235,0.0590504744011359,0.2385837963520925,128,0,1,1,3005.8762512061485,0.8774894879846975,0.0505548141356071,717.153367377359
128,1536,87.92198181506022,377072,43282,44806144,30218944,1.0410710210351692,0.1111863181539479,1.0,128,0,1,1,408.6180733169099,0.7037115922622023,0.1065646806928739,717.153367377359
128,2048,61.33423148141195,398482,54769,61067264,46082128,1.2696785511617337,0.2522208584215819,1.0,128,0,1,1,288.21927692352364,0.7644979307393713,0.1193296728379918,717.153367377359
128,256,264.05404497221133,505658,50035,32743424,29968536,0.29506107452817015,0.029677666714297,0.3061912123537257,128,0,1,1,2342.1748843297028,0.8818721533355854,0.0444741095474652,717.153367377359
128,512,246.28714694164728,504926,36104,32743424,29979632,0.47726432855904405,0.0695710968766869,0.5552943234567034,128,0,1,1,1291.4833397054813,0.8716308225839565,0.0718570177544371,717.153367377359
1536,1024,136.1155003060421,471669,44668,46510080,30116368,0.8830312068861117,0.1111015463545609,1.0,1536,0,1,1,554.0501179751675,0.7431324920240618,0.0939439930130267,717.153367377359
1536,128,860.1781038000875,629428,66365,33529856,29598200,0.3696482926088889,0.1844481831216574,0.30232348989157165,1536,0,1,1,2372.139087288805,0.8474188598503687,0.0679842108876047,717.153367377359
1536,1536,80.638631124371,367934,49584,59494400,44856600,1.11084784553364,0.1884973775791648,1.0,1536,0,1,1,399.01068323633064,0.7375059852376029,0.112693120643255,717.153367377359
1536,2048,79.57615598234158,414374,61029,58970112,44604744,1.2494203491358968,0.1292273812360184,1.0,1536,0,1,1,278.99699485281076,0.7458792111404161,0.116250341989914,717.153367377359
1536,256,522.9587176782195,444785,48688,36413440,29633176,0.5096173905635354,0.1978252900897878,0.4832293614790486,1536,0,1,1,1484.0848353716037,0.8484407923006727,0.0749392616237252,717.153367377359
1536,512,280.9650503364515,587336,49152,37199872,29972384,0.8729671655503174,0.3887820375956101,0.8593179100494367,1536,0,1,1,834.5611781047378,0.8321090105130209,0.1003092595301565,717.153367377359
2048,1024,119.75902747471775,514360,53060,49393664,30854912,0.8236366466602291,0.0781853198491375,1.0,2048,0,1,1,606.3322501645849,0.7409886882764015,0.1169215911381961,717.153367377359
2048,128,276.4346624392868,503564,27917,36937728,30151296,0.6372902548973877,0.1577284505269075,0.60623173403414,2048,0,1,1,1182.9690316689566,0.8952295377188647,0.0323490986152107,717.153367377359
2048,1536,78.43241782815298,485742,51239,59232256,45506288,1.1280486121638993,0.1279090652332895,1.0,2048,0,1,1,376.84152251269626,0.6709867740775265,0.1332125217243898,717.153367377359
2048,2048,68.0382035065802,484798,54468,59232256,45437648,1.4369666353062802,0.2543331123581657,1.0,2048,0,1,1,271.81853317069766,0.7138303613480752,0.1272407499945769,717.153367377359
2048,256,216.1234633337548,547403,55324,35627008,29630872,0.6026983093313896,0.1320934492746896,0.6760834621959776,2048,0,1,1,1060.7467975151808,0.8871819827901518,0.0571943548067547,717.153367377359
2048,512,137.59436467996247,527407,77658,32743424,29657464,0.5057949430984459,0.034273042612765,0.5888017425571805,2048,0,1,1,1217.9878481044302,0.8391401884730044,0.0777740966994029,717.153367377359
256,1024,113.42180648537148,530716,51914,53858304,44824360,0.8859359968514384,0.1457265156356031,1.0,256,0,1,1,552.4267416208812,0.7327843213158418,0.0982955508086744,717.153367377359
256,128,670.0378442888406,549373,59618,32743424,29641240,0.3573268119094692,0.1016069632327586,0.32371750237750285,256,0,1,1,2215.3679121774867,0.8908428718747414,0.0565950478360603,717.153367377359
256,1536,69.39870232158245,399261,50255,58707968,44883040,1.3606438544172343,0.2207600515343578,1.0,256,0,1,1,293.8832743845611,0.667842071512349,0.1246797099167242,717.153367377359
256,2048,37.73640158795367,289890,83184,58970112,44556240,1.516661951849254,0.2562085215985817,1.0,256,0,1,1,245.21450769331662,0.710068262982447,0.1205234663478764,717.153367377359
256,256,395.5333634658705,521411,57377,31956992,29619192,0.3510184746602515,0.065322698456183,0.3786135688955644,256,0,1,1,1894.1565392633256,0.8951108515154382,0.044431446324033,717.153367377359
256,512,213.92318956180264,446263,67136,33005568,29684736,0.4759269072339668,0.0669070481347743,0.5366342655168156,256,0,1,1,1336.3913068180452,0.90749763987431,0.0425607702777354,717.153367377359
512,1024,138.10720442010756,490596,53439,41005056,30050696,0.834811140164399,0.1776240585773327,1.0,512,0,1,1,599.4025575472455,0.774897218147514,0.089986942452916,717.153367377359
512,128,709.4196903572678,613888,71028,38772736,29776584,0.3291274390398587,0.0980855161996533,0.2861072215031819,512,0,1,1,2506.5895352431126,0.8250315391975316,0.0608539629941749,717.153367377359
512,1536,88.21731820490274,392451,49362,44544000,30207440,1.091884071472708,0.1175846739752668,1.0,512,0,1,1,367.56936477686713,0.75432315331652,0.0951406944706354,717.153367377359
512,2048,61.32514344317504,293276,65397,44544000,30212512,1.2695251274478196,0.1833276690180674,1.0,512,0,1,1,309.10348493429626,0.6912394513861264,0.1263481721485808,717.153367377359
512,256,706.990785471357,485532,51648,32743424,29671064,0.5864746457912235,0.3624321111580425,0.4614536799861098,512,0,1,1,1554.1177771059188,0.8712021134568637,0.0512495171748792,717.153367377359
512,512,242.90251773608767,624647,75305,47169536,44200392,0.7601737494225272,0.2563159300979588,0.7676519698030165,512,0,1,1,934.2168008262706,0.8987289018895718,0.0584969565798673,717.153367377359
