cpu,memory,duration_std,userDiff,sysDiff,heapTotal,heapUsed,avg_cpu_util,cpu_util_std,slo_preservation,total_cpu_shares,cpu_shares_others,num_containers,arrival_rate,latency,memory_util,memory_util_std,slo_duration
1024,1024,44.65678071348324,385310,71627,46247936,29898568,1.1121236343337382,0.1978618551598143,0.5807252092729978,1024,0,1,1,801.0518640811995,0.7682983863869517,0.1081573984737591,465.1910114070795
1024,128,1074.0017260648094,413409,64827,36675584,29653256,0.8474599411778052,0.4993583590044545,0.1480952039291962,1024,0,1,1,3141.161894948912,0.8571136088506088,0.0637973966078511,465.1910114070795
1024,1536,41.690520054442125,294140,46046,58445824,44867048,1.2279177021145478,0.2281614978895604,0.8689786209329452,1024,0,1,1,535.3307897352471,0.7550683609524494,0.1232456681159095,465.1910114070795
1024,2048,38.53706737888133,332324,58299,58445824,46091816,1.182989019791338,0.2367366375613987,0.9036449089527653,1024,0,1,1,514.7940377887921,0.7251928347746757,0.1457065428577044,465.1910114070795
1024,256,186.823342302914,470496,51627,47169536,44049384,0.6802559232038167,0.042787754595599,0.2335033548692351,1024,0,1,1,1992.2241017376066,0.905372290871846,0.049775981779501,465.1910114070795
1024,512,100.79921363292937,434022,57638,21987328,15173192,0.9338047423338287,0.1394834549254168,0.3455481310649838,1024,0,1,1,1346.2408549956697,0.8930256279020229,0.0843016921940877,465.1910114070795
128,1024,65.46162780978396,369586,67721,47820800,31481368,1.0946480394863916,0.1771383701724716,0.5667620487805103,128,0,1,1,820.7871582227868,0.7374504015811013,0.1210624456701588,465.1910114070795
128,128,1112.4578132933395,465011,91974,33005568,30218448,0.6491884517279775,0.2141730123564036,0.14318840400428542,128,0,1,1,3248.803662852175,0.8620462983416861,0.063487967167632,465.1910114070795
128,1536,45.68369585892315,334547,40213,57135104,45694424,1.221616456504563,0.2733832197619106,0.8611939272300575,128,0,1,1,540.1698696405338,0.6952215283316625,0.1510588920797065,465.1910114070795
128,2048,42.35408279247314,403302,36257,58445824,46200960,1.1759462576317425,0.2325737745684164,0.9009978876084695,128,0,1,1,516.3064395654046,0.6863787917548183,0.1696014633928739,465.1910114070795
128,256,162.1807952639639,468743,67455,35627008,29886408,0.7157211615004462,0.063924827856363,0.2455133804119694,128,0,1,1,1894.7684669018563,0.8896202971099941,0.0646710924500908,465.1910114070795
128,512,78.6067979535256,367558,55031,34316288,30069080,0.9450267473557289,0.0667878959834977,0.3794822321282741,128,0,1,1,1225.8571601577219,0.9029071848453396,0.0489263779131005,465.1910114070795
1536,1024,44.148044437606046,348517,56042,53596160,44134456,1.0736750601463365,0.1298933285236014,0.5456797659426533,1536,0,1,1,852.498187473507,0.7098229171108492,0.1052620863698214,465.1910114070795
1536,128,436.4283792130933,436304,90555,33005568,30262096,0.8088662309663174,0.1832814154772096,0.23264852781398485,1536,0,1,1,1999.5441870108243,0.847841566867724,0.0605624125954334,465.1910114070795
1536,1536,44.046767489480594,351290,51969,58970112,45484616,1.22590635160783,0.2405181891424524,0.9318452694759084,1536,0,1,1,499.21486607826404,0.7236745751054141,0.153766250180026,465.1910114070795
1536,2048,34.72908168202634,291362,67464,59232256,45478464,1.1795779301271077,0.2579799525688705,0.9036828416574952,1536,0,1,1,514.7724289573172,0.7377558782616236,0.1560207094146116,465.1910114070795
1536,256,165.24450993252717,393526,77153,37986304,30267512,0.827137437930321,0.0902551316153566,0.2961417002431618,1536,0,1,1,1570.8392672329205,0.8572679351793285,0.0790227853150767,465.1910114070795
1536,512,83.91464511865647,443637,51562,47431680,44111080,1.021679115590526,0.1856349828867869,0.3902786105033104,1536,0,1,1,1191.945955754943,0.8375181127512024,0.1062993709532144,465.1910114070795
2048,1024,50.16862065630956,350583,53643,50442240,30345768,1.1261344176263002,0.1582313510749048,0.5906884005912014,2048,0,1,1,787.5404543943717,0.761812665291177,0.1137878417867043,465.1910114070795
2048,128,789.5302413647652,401676,65341,46907392,44450128,0.9574733405371754,0.4989926273975342,0.18767204509232333,2048,0,1,1,2478.7442966171843,0.881657791850119,0.0632939339990827,465.1910114070795
2048,1536,40.71170638548863,340295,37045,58445824,44931976,1.224781927606509,0.2419918645111112,0.8588493247591773,2048,0,1,1,541.644498046872,0.7041707091381266,0.153774149154071,465.1910114070795
2048,2048,36.93507492939168,330678,37605,58707968,44962096,1.1851719784822474,0.2511495180676913,0.8785946674850083,2048,0,1,1,529.4716990927072,0.7049868310985068,0.146424689097283,465.1910114070795
2048,256,122.91406068388356,375913,47040,37462016,29854648,0.7553354854825534,0.0716800551907781,0.27166798606637554,2048,0,1,1,1712.3512348393574,0.9040595277319364,0.0481831784592609,465.1910114070795
2048,512,93.8984434677621,483816,48548,33005568,30020976,0.9435866797221124,0.1079394675730168,0.36475587597015463,2048,0,1,1,1275.3489170525186,0.8851007361482933,0.0666791340075374,465.1910114070795
256,1024,64.6292793921535,389247,55857,54382592,45836856,1.1366460634587925,0.2139226147775185,0.5620079864281345,256,0,1,1,827.730250531884,0.7313546986944879,0.124425049538327,465.1910114070795
256,128,1014.2170457690202,493716,68383,40345600,30051240,0.6327056100054653,0.3435236360881433,0.13212926063272015,256,0,1,1,3520.7266670489544,0.8576126954413974,0.0755359756994179,465.1910114070795
256,1536,40.10595805538139,290521,56219,60542976,44840136,1.2221850848428415,0.1993959252352637,0.8875123144031511,256,0,1,1,524.1516132876633,0.6849708904251911,0.1509384094865175,465.1910114070795
256,2048,40.30932676266762,373924,53875,58707968,46177944,1.1743900258002833,0.2466100443729993,0.9366455961520797,256,0,1,1,496.65638029813374,0.6391625835294622,0.1629095294340883,465.1910114070795
256,256,135.46471008685762,343623,50452,32481280,29850064,0.7327486261735283,0.0580785971255204,0.26489187853729773,256,0,1,1,1756.154299542177,0.8604193573694836,0.088095375937913,465.1910114070795
256,512,72.14781319102035,378595,65804,36937728,29706544,0.9302213997856611,0.0902539063926286,0.3549107772762523,256,0,1,1,1310.7266422765974,0.8835211794968613,0.0737630650306583,465.1910114070795
512,1024,55.19782351718036,438337,29841,53858304,44275136,1.1135814122697523,0.1509294607530758,0.5840333946511592,512,0,1,1,796.5144042575446,0.7283681948618853,0.1311385616687902,465.1910114070795
512,128,1028.302889207822,452270,64863,35364864,29845632,0.7126234111480798,0.4161088877034206,0.14268234926177384,512,0,1,1,3260.3262689038806,0.8954083017222345,0.0407803098564686,465.1910114070795
512,1536,41.13561557242004,348458,40831,56872960,44832312,1.2244111093360717,0.2708433070865513,0.8580147546633116,512,0,1,1,542.1713424842237,0.7092789119033132,0.1521298607043325,465.1910114070795
512,2048,36.30430438962135,293124,57897,59232256,44620752,1.1835574091483465,0.2788845241998063,0.8659301038489082,512,0,1,1,537.2154280575148,0.6934179621117715,0.1551793143810172,465.1910114070795
512,256,133.46010094684542,396195,35312,36675584,30137152,0.8123904058350121,0.0871383087431143,0.308510548043921,512,0,1,1,1507.860960853931,0.8736305106993469,0.0609412662542288,465.1910114070795
512,512,52.87773023297648,372845,51193,36675584,29873472,0.9889850187768974,0.1113964360025769,0.3897975366442717,512,0,1,1,1193.417011846362,0.8886473898675336,0.0609016364681903,465.1910114070795
