cpu,memory,duration_std,userDiff,sysDiff,heapTotal,heapUsed,avg_cpu_util,cpu_util_std,slo_preservation,total_cpu_shares,cpu_shares_others,num_containers,arrival_rate,latency,memory_util,memory_util_std,slo_duration
1024,1024,737.412642639418,1692131,153194,43700224,37760416,0.5285426491941312,0.3094933683892587,1.0,1024,0,1,1,1106.8420429637529,0.8180845334538281,0.0365889339450292,2778.636396677966
1024,128,2026.3443044845524,1949312,185156,35700736,32582216,0.3538744190546046,0.0521454673126503,0.20833663669288233,1024,0,1,1,13337.243227047335,0.918110198837918,0.0080638323101526,2778.636396677966
1024,1536,366.4641741100593,1576837,151174,53006336,39562488,0.4482038864298081,0.3340500394312451,1.0,1024,0,1,1,551.6732319495379,0.7164779356000924,0.0393943847539517,2778.636396677966
1024,2048,224.8775816076496,1348152,150200,52219904,34474496,0.41398181087141417,0.2986938592109732,1.0,1024,0,1,1,413.28970619192353,0.6889587041421672,0.0299773723474217,2778.636396677966
1024,256,3369.303723690431,1782086,195045,36225024,33062592,0.3797886894911936,0.0681813635065829,0.3664919395385374,1024,0,1,1,7581.71216583001,0.922146514972104,0.0112646751686852,2778.636396677966
1024,512,1859.6187545533776,1788116,132518,35962880,33040656,0.5523193631352565,0.2474120825714101,1.0,1024,0,1,1,2333.5465857416366,0.9228688823157472,0.0108724872379207,2778.636396677966
128,1024,801.0381767334495,1644616,137083,42913792,34450576,0.5135397318671595,0.2697703329240087,1.0,128,0,1,1,1051.7586776562828,0.8189292363760148,0.020916661349477,2778.636396677966
128,128,1935.8045610626011,2248922,221738,36749312,34210232,0.2782532979745333,0.0191539187535096,0.16657474519730006,128,0,1,1,16681.018442422348,0.92473742472273,0.009521130415553,2778.636396677966
128,1536,556.8081543076588,1698622,107041,52219904,41048616,0.4920834777704571,0.3096186861322539,1.0,128,0,1,1,846.1909225010552,0.7001606427754125,0.0453709719072974,2778.636396677966
128,2048,367.3152458472367,1664858,109577,53006336,35595312,0.3715897451602447,0.3135710609357558,1.0,128,0,1,1,583.9549108548051,0.7305734075772682,0.0468277040342709,2778.636396677966
128,256,3410.923558589592,1752459,117133,35962880,33326816,0.3593368109216,0.0269481142466184,0.31725862953462297,128,0,1,1,8758.268926376764,0.9227700221963762,0.0096216207157692,2778.636396677966
128,512,1194.9380451367483,2073171,209868,36749312,33437280,0.607689187900127,0.2338480195173087,1.0,128,0,1,1,2059.9679675345665,0.9223298520365562,0.0129564152072071,2778.636396677966
1536,1024,735.4257487758283,1648008,91125,42651648,33897456,0.5802708714842361,0.3120272525192132,1.0,1536,0,1,1,1001.9544795049299,0.8278912791371302,0.024630313033346,2778.636396677966
1536,128,1931.2959011346295,1855896,243253,35962880,32615464,0.45741701234259713,0.0698857879538107,0.2820230016140896,1536,0,1,1,9852.516925127102,0.91687807946576,0.007962767120972,2778.636396677966
1536,1536,388.4307595187197,1440679,146738,51695616,35647240,0.4962798171259157,0.3110377253953917,1.0,1536,0,1,1,617.0981724980295,0.7125778461763423,0.0411617129095565,2778.636396677966
1536,2048,291.1811228615011,1391715,175408,52482048,34849176,0.3999057542860308,0.2609027932605396,1.0,1536,0,1,1,467.8226868855397,0.6926986735464455,0.0600018393791354,2778.636396677966
1536,256,2774.877153566177,2052846,175253,36749312,33222728,0.4485242695408527,0.0852492900616554,0.4461606650848713,1536,0,1,1,6227.882944699747,0.9193286275392872,0.0088935549061619,2778.636396677966
1536,512,1573.7688312368537,1926245,161957,36225024,33388096,0.5245845768728934,0.1948151877614526,1.0,1536,0,1,1,2352.216982891752,0.9277285378833178,0.0114449003881749,2778.636396677966
2048,1024,722.165390201083,1863176,125003,43962368,36159344,0.5814634106009459,0.329041965462734,1.0,2048,0,1,1,968.644016565059,0.8236120230709641,0.0227271125878094,2778.636396677966
2048,128,3231.254190681142,2075354,150506,35962880,32876104,0.42204292619372646,0.0723727705872057,0.23859688141047025,2048,0,1,1,11645.736441532685,0.9174328072059283,0.0098096398725618,2778.636396677966
2048,1536,583.2300262132675,1474757,122222,52219904,34622672,0.5513399697789525,0.3271020809449503,1.0,2048,0,1,1,753.0305178182798,0.6966282265525623,0.0378129260899845,2778.636396677966
2048,2048,374.4417589614298,1528003,102282,52219904,36969504,0.4556482864518667,0.316663786709614,1.0,2048,0,1,1,548.921163659251,0.720492311458857,0.0401332920521823,2778.636396677966
2048,256,2596.434840666942,1876383,159200,36225024,33571912,0.5050337075638467,0.1158601640503279,0.40313575946502206,2048,0,1,1,6892.557485759467,0.9197360389459172,0.0059335160055249,2778.636396677966
2048,512,1241.1707002536243,1916208,177449,35962880,32966224,0.6241530353032502,0.2834143881142096,1.0,2048,0,1,1,1942.0254763500675,0.9200123538360336,0.0083706374471118,2778.636396677966
256,1024,702.0958924315335,1695373,162897,43700224,34095232,0.5973333748884185,0.2604661419365107,1.0,256,0,1,1,921.0776999825061,0.8139596031180973,0.0214830611766758,2778.636396677966
256,128,2918.47183552462,1996179,223608,36487168,33486936,0.30094770796999865,0.0352434966597583,0.1784438802724003,256,0,1,1,15571.486074144366,0.9192442595562234,0.0066131543569968,2778.636396677966
256,1536,846.4639062788233,1924111,157847,52219904,35818264,0.5373197622314143,0.256342898660219,1.0,256,0,1,1,924.3259086227579,0.6860158181612309,0.0448072987407313,2778.636396677966
256,2048,363.6084243256923,1451507,147140,52219904,34596800,0.4188414756258258,0.308828023697377,1.0,256,0,1,1,581.8135134578704,0.702998655306195,0.0330525219969809,2778.636396677966
256,256,3569.263002149841,1753790,177367,35700736,32861936,0.3697692097011102,0.0171286163676359,0.2939228650237591,256,0,1,1,9453.624495846407,0.9251509646829384,0.0070007172626166,2778.636396677966
256,512,2126.22751752986,1836256,155589,36225024,33739496,0.4503582390670752,0.1404882069727719,0.9683287671250665,256,0,1,1,2869.517555414199,0.92938178779341,0.0111537516094431,2778.636396677966
512,1024,732.2661067563023,1770270,163259,43438080,35159952,0.5585886471222883,0.3116109239722213,1.0,512,0,1,1,1024.5041432841308,0.8325435380295765,0.0269448308530964,2778.636396677966
512,128,3127.6802818906576,2053718,160099,35962880,32953464,0.5252537982275586,0.1280498744509447,0.29118597403735275,512,0,1,1,9542.480216858,0.9210616079477688,0.0081275007283203,2778.636396677966
512,1536,655.1003983770602,1640703,154912,53006336,34712232,0.4881474305203104,0.3019221064141345,1.0,512,0,1,1,834.1362846206689,0.6863397726682297,0.0433261954126021,2778.636396677966
512,2048,374.9790334987727,1498807,127695,51695616,34347936,0.46503870071972,0.3159168257678618,1.0,512,0,1,1,664.3681181265998,0.729647171541351,0.0360630988988114,2778.636396677966
512,256,3119.37899207688,1804557,196540,35962880,32983736,0.392032205717086,0.0485588170723862,0.34486710512244756,512,0,1,1,8057.12216504787,0.9203977598528384,0.0102604579405876,2778.636396677966
512,512,1555.2121514229698,1876639,118700,35962880,33293704,0.5282563887063328,0.235501963772032,1.0,512,0,1,1,2240.564865779479,0.9226234955655476,0.0116792788971449,2778.636396677966
