cpu,memory,duration_std,userDiff,sysDiff,heapTotal,heapUsed,avg_cpu_util,cpu_util_std,slo_preservation,total_cpu_shares,cpu_shares_others,num_containers,arrival_rate,latency,memory_util,memory_util_std,slo_duration
1024,1024,737.412642639418,1692131,153194,43700224,37760416,0.40214614506731267,0.3094933683892587,1.0,1024,0,1,1,872.8367527127502,0.8180845334538281,0.0365889339450292,2778.636396677966
1024,128,2026.3443044845524,1949312,185156,35700736,32582216,0.247334840651812,0.0521454673126503,0.24268924258512797,1024,0,1,1,11449.359547542801,0.918110198837918,0.0080638323101526,2778.636396677966
1024,1536,366.4641741100593,1576837,151174,53006336,39562488,0.3276669768493119,0.3340500394312451,1.0,1024,0,1,1,452.7683973099075,0.7164779356000924,0.0393943847539517,2778.636396677966
1024,2048,224.8775816076496,1348152,150200,52219904,34474496,0.2976832702338644,0.2986938592109732,1.0,1024,0,1,1,344.85193779838465,0.6889587041421672,0.0299773723474217,2778.636396677966
1024,256,3369.303723690431,1782086,195045,36225024,33062592,0.26869163059981904,0.0681813635065829,0.432140817429404,1024,0,1,1,6429.932754806003,0.922146514972104,0.0112646751686852,2778.636396677966
1024,512,1859.6187545533776,1788116,132518,35962880,33040656,0.4253669872882853,0.2474120825714101,1.0,1024,0,1,1,1818.0014001083273,0.9228688823157472,0.0108724872379207,2778.636396677966
128,1024,801.0381767334495,1644616,137083,42913792,34450576,0.38778001763145575,0.2697703329240087,1.0,128,0,1,1,835.7107299312565,0.8189292363760148,0.020916661349477,2778.636396677966
128,128,1935.8045610626011,2248922,221738,36749312,34210232,0.18786117543520753,0.0191539187535096,0.18743669681769007,128,0,1,1,14824.399084351135,0.92473742472273,0.009521130415553,2778.636396677966
128,1536,556.8081543076588,1698622,107041,52219904,41048616,0.36760752176892736,0.3096186861322539,1.0,128,0,1,1,679.632293700211,0.7001606427754125,0.0453709719072974,2778.636396677966
128,2048,367.3152458472367,1664858,109577,53006336,35595312,0.2618783744688975,0.3135710609357558,1.0,128,0,1,1,497.1582482509609,0.7305734075772682,0.0468277040342709,2778.636396677966
128,256,3410.923558589592,1752459,117133,35962880,33326816,0.2517935652522959,0.0269481142466184,0.3705144171596763,128,0,1,1,7499.4015562975765,0.9227700221963762,0.0096216207157692,2778.636396677966
128,512,1194.9380451367483,2073171,209868,36749312,33437280,0.48170404989583776,0.2338480195173087,1.0,128,0,1,1,1559.2398630180242,0.9223298520365562,0.0129564152072071,2778.636396677966
1536,1024,735.4257487758283,1648008,91125,42651648,33897456,0.4534005836017645,0.3120272525192132,1.0,1536,0,1,1,769.392479900986,0.8278912791371302,0.024630313033346,2778.636396677966
1536,128,1931.2959011346295,1855896,243253,35962880,32615464,0.33591071827186775,0.0698857879538107,0.3451793676416743,1536,0,1,1,8049.833382748497,0.91687807946576,0.007962767120972,2778.636396677966
1536,1536,388.4307595187197,1440679,146738,51695616,35647240,0.37151880389860475,0.3110377253953917,1.0,1536,0,1,1,494.596825219606,0.7125778461763423,0.0411617129095565,2778.636396677966
1536,2048,291.1811228615011,1391715,175408,52482048,34849176,0.28563414839752216,0.2609027932605396,1.0,1536,0,1,1,392.98869309710796,0.6926986735464455,0.0600018393791354,2778.636396677966
1536,256,2774.877153566177,2052846,175253,36749312,33222728,0.32795240729496744,0.0852492900616554,0.5437069745214762,1536,0,1,1,5110.540285276791,0.9193286275392872,0.0088935549061619,2778.636396677966
1536,512,1573.7688312368537,1926245,161957,36225024,33388096,0.39833487989260735,0.1948151877614526,1.0,1536,0,1,1,1858.6422826183505,0.9277285378833178,0.0114449003881749,2778.636396677966
2048,1024,722.165390201083,1863176,125003,43962368,36159344,0.4546147937551807,0.329041965462734,1.0,2048,0,1,1,743.3515951530117,0.8236120230709641,0.0227271125878094,2778.636396677966
2048,128,3231.254190681142,2075354,150506,35962880,32876104,0.3046571063814044,0.0723727705872057,0.2870570383985642,2048,0,1,1,9679.736167346537,0.9174328072059283,0.0098096398725618,2778.636396677966
2048,1536,583.2300262132675,1474757,122222,52219904,34622672,0.42439930097740886,0.3271020809449503,1.0,2048,0,1,1,586.960188643656,0.6966282265525623,0.0378129260899845,2778.636396677966
2048,2048,374.4417589614298,1528003,102282,52219904,36969504,0.33432233071655754,0.316663786709614,1.0,2048,0,1,1,448.87516861185003,0.720492311458857,0.0401332920521823,2778.636396677966
2048,256,2596.434840666942,1876383,159200,36225024,33571912,0.3797310080967268,0.1158601640503279,0.5051911916926836,2048,0,1,1,5500.167941107448,0.9197360389459172,0.0059335160055249,2778.636396677966
2048,512,1241.1707002536243,1916208,177449,35962880,32966224,0.4990969788978636,0.2834143881142096,1.0,2048,0,1,1,1457.1770380700136,0.9200123538360336,0.0083706374471118,2778.636396677966
256,1024,702.0958924315335,1695373,162897,43700224,34095232,0.47091805285651755,0.2604661419365107,1.0,256,0,1,1,701.0015195565012,0.8139596031180973,0.0214830611766758,2778.636396677966
256,128,2918.47183552462,1996179,223608,36487168,33486936,0.20528004886062948,0.0352434966597583,0.20286452591319942,256,0,1,1,13697.004856664165,0.9192442595562234,0.0066131543569968,2778.636396677966
256,1536,846.4639062788233,1924111,157847,52219904,35818264,0.4106525494257064,0.256342898660219,1.0,256,0,1,1,725.6624776445515,0.6860158181612309,0.0448072987407313,2778.636396677966
256,2048,363.6084243256923,1451507,147140,52219904,34596800,0.3018809985306928,0.308828023697377,1.0,256,0,1,1,484.338461251574,0.702998655306195,0.0330525219969809,2778.636396677966
256,256,3569.263002149841,1753790,177367,35700736,32861936,0.26037263994003323,0.0171286163676359,0.34494251322707525,256,0,1,1,8055.360792390334,0.9251509646829384,0.0070007172626166,2778.636396677966
256,512,2126.22751752986,1836256,155589,36225024,33739496,0.3295880145870623,0.1404882069727719,1.0,256,0,1,1,2352.59320612284,0.92938178779341,0.0111537516094431,2778.636396677966
512,1024,732.2661067563023,1770270,163259,43438080,35159952,0.4315844601616534,0.3116109239722213,1.0,512,0,1,1,795.5935899368261,0.8325435380295765,0.0269448308530964,2778.636396677966
512,128,3127.6802818906576,2053718,160099,35962880,32953464,0.3989782062293233,0.1280498744509447,0.3686372124377269,512,0,1,1,7537.5906254916,0.9210616079477688,0.0081275007283203,2778.636396677966
512,1536,655.1003983770602,1640703,154912,53006336,34712232,0.36395367975190873,0.3019221064141345,1.0,512,0,1,1,671.2636910041338,0.6863397726682297,0.0433261954126021,2778.636396677966
512,2048,374.9790334987727,1498807,127695,51695616,34347936,0.3427868880485789,0.3159168257678618,1.0,512,0,1,1,540.78536354532,0.729647171541351,0.0360630988988114,2778.636396677966
512,256,3119.37899207688,1804557,196540,35962880,32983736,0.2789645601657167,0.0485588170723862,0.4090042386531859,512,0,1,1,6793.661615409574,0.9203977598528384,0.0102604579405876,2778.636396677966
512,512,1555.2121514229698,1876639,118700,35962880,33293704,0.40186998883674,0.235501963772032,1.0,512,0,1,1,1767.127783915896,0.9226234955655476,0.0116792788971449,2778.636396677966
