cpu,memory,duration_std,userDiff,sysDiff,heapTotal,heapUsed,avg_cpu_util,cpu_util_std,slo_preservation,total_cpu_shares,cpu_shares_others,num_containers,arrival_rate,latency,memory_util,memory_util_std,slo_duration
1024,1024,132.3035556513019,404126,36000,39694336,30459352,0.9118162244554306,0.1746271578241574,1.0,1024,0,1,1,463.04626130526094,0.7621172291697487,0.1088995178715442,607.0154140098039
1024,128,26.36674949999997,589381,102369,34054144,30068056,0.6273219734538578,0.0731517557216748,0.5294708653660761,1024,0,1,1,1146.4566866962803,0.8904082082078149,0.0074596895194578,607.0154140098039
1024,1536,66.85905254528069,394169,53387,61067264,45885728,1.4306539646359753,0.1949388912412233,1.0,1024,0,1,1,207.00172978355891,0.72414828603485,0.1265666474015203,607.0154140098039
1024,2048,40.20259723023268,345672,68656,61591552,44820384,1.632042067256656,0.2772835495084254,1.0,1024,0,1,1,160.0851181185327,0.660536094156332,0.1257637177191925,607.0154140098039
1024,256,285.7999260516233,455124,38028,35364864,30474376,0.4147179472147344,0.1182499699605899,0.42117231414869244,1024,0,1,1,1441.2519380262506,0.8675662327683518,0.0702058763233027,607.0154140098039
1024,512,152.50750346902103,458119,70055,34316288,29964888,0.5168413584394064,0.0724352536333198,0.616245562948308,1024,0,1,1,985.0219628449017,0.8694459946438758,0.0739632435099918,607.0154140098039
128,1024,124.79791868334024,488415,40664,39170048,30384784,0.9313985932424251,0.1115871237958757,1.0,128,0,1,1,466.3905786610742,0.7478016803460189,0.1236349656407523,607.0154140098039
128,128,1184.0554813713086,445318,107041,32743424,30139056,0.3794180596409303,0.2055336057457719,0.27674017495400743,128,0,1,1,2193.448833768665,0.859124040280129,0.0690184077417329,607.0154140098039
128,1536,55.026905784563255,349461,34515,59232256,46191728,1.4585314448175122,0.2025890812237444,1.0,128,0,1,1,220.14427587726115,0.7416160991034315,0.1279235705707904,607.0154140098039
128,2048,37.39148307352396,334713,56320,59756544,45111496,1.5994320350060893,0.3403987563562632,1.0,128,0,1,1,151.65546356944486,0.6356883807737231,0.1464229734829484,607.0154140098039
128,256,271.5503317380926,421259,54840,42967040,29986768,0.3050439033447563,0.0535598839740559,0.31545885750904484,128,0,1,1,1924.2300527015618,0.8446400760152093,0.0918153097552504,607.0154140098039
128,512,192.3940771744028,439189,28939,32481280,30004080,0.4948637303440771,0.0446578500158077,0.5536099114512587,128,0,1,1,1096.4677500418038,0.8858088200549714,0.0710681414795638,607.0154140098039
1536,1024,132.10349494060338,430089,37606,36286464,30156096,0.9005156795058766,0.1235789535886949,1.0,1536,0,1,1,466.67508809388875,0.76578234838053,0.1169585484041332,607.0154140098039
1536,128,376.8031035689176,448384,51976,34840576,29932128,0.5573142338701368,0.1855654140133885,0.4815194046838226,1536,0,1,1,1260.6250300720176,0.8824322581106985,0.0279279182554595,607.0154140098039
1536,1536,85.76302165547617,439250,51182,59756544,45349096,1.1590061662935311,0.1404648328139346,1.0,1536,0,1,1,305.5986738919906,0.7131942845102027,0.1315818148546482,607.0154140098039
1536,2048,69.16699886687101,406492,47889,59232256,45038720,1.3047709297816525,0.2194549223407471,1.0,1536,0,1,1,231.3610843590818,0.7391969818117191,0.1297777986350372,607.0154140098039
1536,256,423.2435315034593,450017,44480,42180608,29797696,0.4561318486611445,0.1324448348146195,0.43584271307913025,1536,0,1,1,1392.739618660542,0.8891475840363154,0.0703088464308775,607.0154140098039
1536,512,131.35614141668609,387960,78032,32481280,29792680,0.5728780064798252,0.0981086996482752,0.6303598274039666,1536,0,1,1,962.9665274033994,0.8668189062130423,0.071253227376379,607.0154140098039
2048,1024,107.91527965771084,394274,65001,45461504,30510616,0.9563901495633841,0.146416721621631,1.0,2048,0,1,1,435.81991458155983,0.7773206115565684,0.1068939589527277,607.0154140098039
2048,128,590.8424070404742,437550,79316,40083456,29759360,0.5359588351216857,0.2587756577220146,0.43073160583062603,2048,0,1,1,1409.2660157576104,0.8516457304327951,0.0578132942836816,607.0154140098039
2048,1536,57.30946720680123,323866,35436,56348672,45010672,1.4831646392367404,0.1699190948153789,1.0,2048,0,1,1,217.54374583490633,0.718760718663087,0.1211631505347849,607.0154140098039
2048,2048,78.96939025051127,532609,83072,62640128,44390904,1.5228350499210552,0.3008302512264696,1.0,2048,0,1,1,176.24354757938642,0.6799854552838613,0.1552225555693564,607.0154140098039
2048,256,401.6549748591667,402716,33230,32743424,30350704,0.47816326111908336,0.1658966006208148,0.4701985786749096,2048,0,1,1,1290.9767097137228,0.8914864190057801,0.0502045997847694,607.0154140098039
2048,512,222.5578867294757,499716,60394,42180608,29828688,0.6664564590394906,0.1640687366830855,0.661263187974404,2048,0,1,1,917.963414641645,0.8672302954471884,0.0831910626729103,607.0154140098039
256,1024,73.41290150310883,378316,46063,41791488,30160968,0.923857162450885,0.0870194473034361,1.0,256,0,1,1,442.83968403563455,0.7787170250247467,0.1160059741792206,607.0154140098039
256,128,846.649373787637,550087,59848,32743424,29886728,0.33651687112063383,0.0866248818378725,0.2956019394114969,256,0,1,1,2053.489280950892,0.9034826002159596,0.0325038767035687,607.0154140098039
256,1536,82.18497780442357,445442,51156,61067264,45758664,1.1198193588859864,0.152079103977814,1.0,256,0,1,1,301.57805764420175,0.7409888866309877,0.116818170664263,607.0154140098039
256,2048,63.21780874860696,291460,64965,59232256,44624680,1.3421848488482069,0.2102865942976895,1.0,256,0,1,1,242.35096595039022,0.6962925491543179,0.1432849412185472,607.0154140098039
256,256,270.416698527571,435148,49192,35102720,29850416,0.32995261478106,0.0472685501854954,0.34195915550274075,256,0,1,1,1775.110869944053,0.8499200004639278,0.0836216638384853,607.0154140098039
256,512,262.27243800075786,443703,40359,36937728,29812568,0.5014797497359055,0.1068162374447495,0.5540008204081868,256,0,1,1,1095.6940705657369,0.895333299794588,0.0666299972443503,607.0154140098039
512,1024,106.19827478522474,374609,31767,45723648,30170608,0.956686392253561,0.1333274351973579,1.0,512,0,1,1,425.0083998559396,0.7408430936066857,0.1070342498262387,607.0154140098039
512,128,704.9478002123054,410447,44291,32743424,29739808,0.29120670699179735,0.1115914422408387,0.2661311021432683,512,0,1,1,2280.8886639751895,0.8632012518734792,0.0516912021506019,607.0154140098039
512,1536,95.24577586753716,345285,70664,58970112,45969000,1.1235955460563585,0.1393712158629748,1.0,512,0,1,1,319.2150937441479,0.7231142401555574,0.1278069942134343,607.0154140098039
512,2048,65.19667340056156,348835,43889,57135104,45005200,1.3772107708128682,0.2398440690229019,1.0,512,0,1,1,217.85590395110623,0.6781294106080595,0.1319793379205288,607.0154140098039
512,256,295.0574071293869,473674,53101,34578432,29805736,0.38035226644928205,0.0701937783933619,0.40076039750900033,512,0,1,1,1514.6591773608855,0.8733968128078804,0.0739174028856198,607.0154140098039
512,512,211.51235606796715,465773,63590,42180608,30042784,0.46664873496854553,0.0639429181947377,0.5434521393946359,512,0,1,1,1116.9620468988726,0.8773978778470747,0.0723104752075483,607.0154140098039
