cpu,memory,duration_std,userDiff,sysDiff,heapTotal,heapUsed,avg_cpu_util,cpu_util_std,slo_preservation,total_cpu_shares,cpu_shares_others,num_containers,arrival_rate,latency,memory_util,memory_util_std,slo_duration
1024,1024,125.927554197758,14242,3628,30793728,25017272,0.1254578366200959,0.1126220282265135,1.0,1024,0,1,1,276.73790695284623,0.6588445124706486,0.0665112572160801,305.9984972666667
1024,128,149.47924277595163,29663,3633,25149440,21149008,0.13325519267738473,0.1363483875866284,0.9727575210794264,1024,0,1,1,314.56811243886716,0.8615492096829067,0.0148691692147268,305.9984972666667
1024,1536,139.82363812302353,28154,7295,34574336,15186976,0.09971673181459337,0.0744520795453633,0.9577628755270188,1024,0,1,1,319.4929612387491,0.5417309713357119,0.0549591996640402,305.9984972666667
1024,2048,143.96220438882852,19000,394,39575552,24763536,0.11855829699848125,0.1504509001835193,1.0,1024,0,1,1,263.5317372284765,0.5465724870453726,0.0578174909291117,305.9984972666667
1024,256,140.02609302122386,19874,31,24887296,21431624,0.10023136609523275,0.1230844581613305,0.9125151191796869,1024,0,1,1,335.33526276446423,0.87061800413062,0.0106528259061368,305.9984972666667
1024,512,144.04137592144988,15097,3004,25411584,21352744,0.10084254319623874,0.0638287974800055,0.910369410461944,1024,0,1,1,336.1256361979424,0.8633859747182824,0.0119791785425558,305.9984972666667
128,1024,111.2179134612322,7611,15130,30793728,24798832,0.13888523583904286,0.1713500745407956,0.8503216342906454,128,0,1,1,359.86206269106214,0.6625485339118574,0.0727181790931548,305.9984972666667
128,128,144.31509236089028,29376,307,24887296,21625944,0.12661602078318793,0.1497722340981623,0.7811699028843656,128,0,1,1,391.7182371425321,0.8645505184263502,0.0128074439412132,305.9984972666667
128,1536,114.72662170954553,26967,3798,39051264,24756280,0.09624896115440455,0.0740075176047489,0.9835413717268321,128,0,1,1,311.11909072967234,0.540830959576095,0.0527445162688331,305.9984972666667
128,2048,123.86905780171004,13262,23499,34574336,15154176,0.08791718937571606,0.1331683340164581,0.8422748885011454,128,0,1,1,363.3000359433731,0.5544196134381294,0.0586987481668936,305.9984972666667
128,256,131.76395121427393,18385,29,24887296,21304536,0.10191703368423828,0.0620769345489801,1.0,128,0,1,1,295.8462519542969,0.8655783678533264,0.0148081101025503,305.9984972666667
128,512,123.88105432210352,13998,4335,25149440,21182480,0.11326481281151442,0.0731692966171015,0.9936115262391166,128,0,1,1,307.965929526694,0.8646785122196181,0.0147781787380514,305.9984972666667
1536,1024,140.7359115475821,34728,4465,25792512,14998712,0.11674520230797913,0.0951220755351925,0.9178515020496829,1536,0,1,1,333.38562565222355,0.6757120611297576,0.0629742796718191,305.9984972666667
1536,128,126.83892029610512,21569,177,24887296,21639208,0.0955443257038084,0.0799401256052115,0.8187885130107543,1536,0,1,1,373.72104322944693,0.8687630918363004,0.0125765272345759,305.9984972666667
1536,1536,141.38777182940595,6672,8694,39313408,24813800,0.09573103286800257,0.0598838370561769,0.9438108775598063,1536,0,1,1,324.2159044170123,0.5361588499290981,0.0529078441824811,305.9984972666667
1536,2048,124.2905414112406,35538,20,34574336,15169696,0.0674438585827086,0.0381795211667844,0.833355489033431,1536,0,1,1,367.18843433980334,0.5540083257130376,0.0580540299644973,305.9984972666667
1536,256,123.47731697874868,13359,4278,25149440,21384176,0.08358792219233659,0.0517683615879702,0.8869648330422246,1536,0,1,1,344.99507293554603,0.8658638341021302,0.0140237585686677,305.9984972666667
1536,512,127.86463334214848,26639,3705,25411584,21191056,0.09189525608858021,0.0726304912342347,0.9404808100621393,1536,0,1,1,325.3638925885673,0.8583932174238514,0.0120252190543092,305.9984972666667
2048,1024,161.1415356769282,17249,249,30793728,25045144,0.1579965930349546,0.1692453544721365,1.0,2048,0,1,1,287.63804447573386,0.666814153592162,0.0656868263937241,305.9984972666667
2048,128,144.27357601839793,13170,4185,24887296,21489624,0.13597595264678294,0.1569936764109446,1.0,2048,0,1,1,297.73220271632965,0.8624930118556262,0.0126361844538231,305.9984972666667
2048,1536,146.22316343027427,23665,11250,34312192,15134352,0.11328422566994507,0.1382570082522262,0.872105710861044,2048,0,1,1,350.8731722035731,0.5392244419088553,0.0541154507402435,305.9984972666667
2048,2048,167.62671500888246,64696,6292,34574336,15073288,0.14104409269302887,0.1703888797116264,1.0,2048,0,1,1,295.4806195829076,0.5549737817090687,0.0601302369027596,305.9984972666667
2048,256,124.61969740972918,17622,198,24625152,21569032,0.09856236241925492,0.1310522847403296,0.8243181164360663,2048,0,1,1,371.21408733517717,0.8683121751898207,0.0141448835182564,305.9984972666667
2048,512,138.15941187571534,30650,350,25411584,21118712,0.14720244491712506,0.1420100258145275,1.0,2048,0,1,1,241.34167664372575,0.8565952123736122,0.0123038762105878,305.9984972666667
256,1024,125.14969952211852,17975,28,30793728,25012504,0.21166558706128744,0.2661449584619731,1.0,256,0,1,1,252.49793340084182,0.6614940410885695,0.0745621745510835,305.9984972666667
256,128,114.04772171932925,15050,8429,24887296,21574144,0.1344998190968834,0.1379114676653533,0.9564680180660614,256,0,1,1,319.9254878227742,0.8696117528334935,0.0127001007745484,305.9984972666667
256,1536,147.45238834335274,63631,9366,34312192,15062912,0.10528834866138549,0.0821290016945669,0.898989801848168,256,0,1,1,340.38038767245916,0.5387634812787839,0.0538123672444362,305.9984972666667
256,2048,119.47092321093082,56456,15256,34574336,15021440,0.08014080362411197,0.067239502206644,0.9481607408088258,256,0,1,1,322.7285038248214,0.5526731272583225,0.0592342109864393,305.9984972666667
256,256,140.73299022633086,17951,359,25149440,21132296,0.1246925598087809,0.134917878369037,0.9450660660443373,256,0,1,1,323.7852974104256,0.8622147157847063,0.012253517794092,305.9984972666667
256,512,141.07275761614028,14028,4234,24625152,21576208,0.11678223748809176,0.1116686403076492,0.9606504497636015,256,0,1,1,318.5326122961451,0.8721929421752523,0.0145276974083848,305.9984972666667
512,1024,132.39844258977772,31414,3895,25792512,15012896,0.10858144340067016,0.0853156723839652,0.8704722956600253,512,0,1,1,351.5315752061322,0.673817464774138,0.0619359969786596,305.9984972666667
512,128,118.62201391631464,24680,147,24887296,21469704,0.13748695471238614,0.1212582578110494,1.0,512,0,1,1,284.633366631278,0.8627645566942442,0.0113844880612712,305.9984972666667
512,1536,132.83169889167567,31296,4810,34312192,15134128,0.12561530933806214,0.1278891336483303,1.0,512,0,1,1,300.79462632211306,0.53921211273068,0.0546512097884845,305.9984972666667
512,2048,137.91539226441768,67188,5427,34312192,15048352,0.1257593462868779,0.1727744805676652,0.9412678951871819,512,0,1,1,325.0918243693156,0.5582411173264592,0.0605301991587874,305.9984972666667
512,256,143.5049856289773,16987,87,24625152,21514976,0.08766196627581929,0.0441344977033753,0.9597967232326133,512,0,1,1,318.81594285512665,0.868785153738223,0.0153467973785785,305.9984972666667
512,512,142.07351583874248,42721,4405,25149440,21111424,0.1235010913362186,0.0879784178877642,1.0,512,0,1,1,291.7827220510597,0.8707080620531491,0.0171263425815739,305.9984972666667
