cpu,memory,duration_std,userDiff,sysDiff,heapTotal,heapUsed,avg_cpu_util,cpu_util_std,slo_preservation,total_cpu_shares,cpu_shares_others,num_containers,arrival_rate,latency,memory_util,memory_util_std,slo_duration
1024,1024,80.18831776629625,273779,49759,39432192,29981624,0.9699673582553687,0.1999535964296147,0.550728471675246,1024,0,1,1,342.307957301021,0.7737214580405977,0.0782607181590547,188.51873816666668
1024,128,59.39396154816641,270468,40757,33005568,29688784,1.0247926578199815,0.1706072987526047,0.5423306330707948,1024,0,1,1,347.6085005547858,0.863075449499387,0.0619340586119678,188.51873816666668
1024,1536,67.6532813007689,358522,36817,51359744,30155416,1.2506841906063322,0.2440705169986445,0.9002456011618654,1024,0,1,1,209.40811921031622,0.7924571731533907,0.1028936605729618,188.51873816666668
1024,2048,37.66836823799098,145952,18784,44806144,32335784,1.2716317017265517,0.2121499752859468,1.0,1024,0,1,1,181.55572024982487,0.7256059413996849,0.0865048200677409,188.51873816666668
1024,256,57.93298427963619,280047,27728,32481280,29932544,1.0116885570007197,0.1189325357555334,0.5196201887948679,1024,0,1,1,362.80102704225146,0.8969811107049692,0.0535403548208949,188.51873816666668
1024,512,52.39674700801676,275953,45052,33529856,29899928,1.0592930263858098,0.1177347582775254,0.5305441515485203,1024,0,1,1,355.3309137730188,0.8929107504181404,0.0643944439610419,188.51873816666668
128,1024,86.73519825555181,271997,44196,40218624,30289136,0.9877275229270386,0.1155821581083888,0.5850263529229637,128,0,1,1,322.2397371071775,0.8360372991637359,0.0575104537598138,188.51873816666668
128,128,255.3723275823797,319063,30739,33267712,29645136,0.9361746788315868,0.2522238055583079,0.39099883231301963,128,0,1,1,482.1465502887879,0.8974944227419467,0.0400171128334511,188.51873816666668
128,1536,58.17866906797073,294610,46008,51359744,30371800,1.1896179490410501,0.2341494148565912,0.8404083018668213,128,0,1,1,224.31803416018738,0.7216160786653008,0.1233235681361745,188.51873816666668
128,2048,36.57700106174203,200595,38703,37457920,15573216,1.3237836993808259,0.2386348793790889,1.0,128,0,1,1,165.31379855191835,0.7011112100395551,0.1237206580925942,188.51873816666668
128,256,47.76949359731857,255517,38605,33005568,29692704,1.1869265745210242,0.1570442097005461,0.6646794310024088,128,0,1,1,283.62354749320275,0.8857934744383522,0.0675088777033404,188.51873816666668
128,512,190.5142608339853,324055,22388,33005568,29837248,1.0219860185534262,0.2339408863547001,0.46997710846207724,128,0,1,1,401.123235094499,0.8880297798696848,0.0746956524526065,188.51873816666668
1536,1024,61.22274966278333,260718,36936,36810752,30065664,1.050645580734388,0.136269809859111,0.6039902082606021,1536,0,1,1,312.12217613522466,0.8097255227453724,0.080601562529259,188.51873816666668
1536,128,91.35468120879568,307855,63962,33005568,30263792,1.0791146503339044,0.1819321594990799,0.5577462118666342,1536,0,1,1,338.0009297342291,0.9103359999649352,0.0331073617883099,188.51873816666668
1536,1536,51.31862165424364,209141,43255,68763648,51679304,1.1931456813055064,0.1357466473313501,0.8968696200294991,1536,0,1,1,210.19636963560666,0.7380970806538583,0.0778292582852032,188.51873816666668
1536,2048,26.44064437620763,221105,41693,37195776,15554280,1.2843336859435732,0.2031575266916608,0.9749844685825274,1536,0,1,1,193.35563205508595,0.6818433621414782,0.1078541531137525,188.51873816666668
1536,256,66.24508430663279,222065,19411,33529856,29628312,0.9823319080264966,0.1241565726429005,0.5177596418175456,1536,0,1,1,364.10473691014175,0.8690906975657077,0.0676438443677131,188.51873816666668
1536,512,67.49986993966218,251457,31774,33005568,29588072,1.051298964743266,0.19332329244698,0.5328254650599474,1536,0,1,1,353.80955027263326,0.8828946336639923,0.0566279044545042,188.51873816666668
2048,1024,69.37090837489774,370913,39967,39694336,31482968,1.0083573424087986,0.1506625349911939,0.5892080358151651,2048,0,1,1,319.9527615163163,0.787077143837079,0.1046844582594707,188.51873816666668
2048,128,101.0258233113818,336095,40043,32481280,29695208,1.0470769078279216,0.125431966599477,0.5231512107666475,2048,0,1,1,360.35229258172507,0.905109599692668,0.0381351452496472,188.51873816666668
2048,1536,56.31039747832175,337127,38636,51359744,30020408,1.1917700207292328,0.1725478679710367,0.8730057989289725,2048,0,1,1,215.94213738092765,0.7538308310115153,0.1087698341896538,188.51873816666668
2048,2048,40.436440693583016,266510,45277,50049024,29857928,1.323994385581296,0.275394881450841,1.0,2048,0,1,1,175.85132496839617,0.7050584916381382,0.0957212755598942,188.51873816666668
2048,256,49.49882510004759,312809,28609,33267712,29696360,1.19210530903295,0.0886034158575139,0.6185874137533796,2048,0,1,1,304.75682817857324,0.8407323094942489,0.0682710489693894,188.51873816666668
2048,512,83.47962842426115,370238,54353,33267712,30246512,1.0153978568598492,0.1234510631456096,0.4636674259549627,2048,0,1,1,406.5818032793575,0.8784419593251321,0.0695885071448545,188.51873816666668
256,1024,83.17579403982157,346071,26837,39432192,29820456,0.9607759915700154,0.1891637587842955,0.556430757409852,256,0,1,1,338.7999956080947,0.7711489612039724,0.0961162520511247,188.51873816666668
256,128,87.49851458638915,350551,43412,33267712,29617624,0.9289329008041873,0.2097929079058434,0.3862037942236006,256,0,1,1,488.13279669002907,0.8808722487045823,0.0592304152946987,188.51873816666668
256,1536,54.59033949195455,238179,35914,69287936,51778872,1.2124018850775387,0.2249959187437621,0.8950064470985343,256,0,1,1,210.6339443451093,0.7045843008924868,0.10855962505796,188.51873816666668
256,2048,19.18578328933905,168668,42392,63782912,51999536,1.2600870738659036,0.1257397629817615,1.0,256,0,1,1,157.88697243049728,0.7344735379064004,0.0862920747397006,188.51873816666668
256,256,42.55097542167356,261658,40758,32743424,29945280,1.1846228786674922,0.2078285798003369,0.6838396302171587,256,0,1,1,275.67682514510176,0.8966194127954825,0.0524471433283906,188.51873816666668
256,512,50.35039199689842,275157,30376,32481280,29703456,1.1795372956577221,0.1523698560664845,0.6123824503216008,256,0,1,1,307.84477587113014,0.8503109580242194,0.0640334085443737,188.51873816666668
512,1024,79.51051768746984,307681,43344,39432192,30086896,1.055500228234847,0.1371817435297115,0.594184946447242,512,0,1,1,317.2728277514607,0.7710411482791015,0.0929219222823767,188.51873816666668
512,128,75.05068240520535,291741,20389,33267712,29775376,1.086985850718154,0.1601527930172318,0.5219891515265459,512,0,1,1,361.15451368164975,0.8863974107043138,0.0324548489185839,188.51873816666668
512,1536,72.33906307704486,254439,25661,69550080,51675776,1.1918785092108062,0.2178854799052516,0.7965204205811912,512,0,1,1,236.67784691459838,0.7457334436396424,0.0932120964059431,188.51873816666668
512,2048,4381.286322408511,281967,35436,49786880,29905056,1.2300306442625928,0.3545350124525991,0.100310901079481,512,0,1,1,1879.344479393067,0.7075091122304956,0.0856567515478493,188.51873816666668
512,256,6648.884981736699,226732,33895,32481280,29954576,1.197923417918009,0.5680626342918941,0.03894505665583244,512,0,1,1,4840.633301233983,0.8613242604948914,0.0797161819556762,188.51873816666668
512,512,66.76033592284176,231238,42745,33267712,29928224,1.032056948628084,0.1425680301453314,0.5382908157639406,512,0,1,1,350.21726666304255,0.8837821237124295,0.0584372465197733,188.51873816666668
