cpu,memory,duration_std,userDiff,sysDiff,heapTotal,heapUsed,avg_cpu_util,cpu_util_std,slo_preservation,total_cpu_shares,cpu_shares_others,num_containers,arrival_rate,latency,memory_util,memory_util_std,slo_duration
1024,1024,74.42168016848868,47167,12728,31809536,21791520,0.922419209472326,0.1774044458267906,0.6926365133108562,1024,0,1,1,382.3741817975474,0.7636715966707985,0.0464958938358568,264.8463200603447
1024,128,364.8258324803929,233559,31229,37474304,33887736,0.6812089909162523,0.2015066667994902,0.2542306243884082,1024,0,1,1,1041.756164102866,0.8941248555143997,0.0190019496586913,264.8463200603447
1024,1536,41.10726065201069,55531,24290,54124544,34673040,0.9969219231730763,0.1202716336888508,0.9064009278393591,1024,0,1,1,292.19555268072634,0.6814822022583888,0.0584410304630169,264.8463200603447
1024,2048,36.044154748252126,122734,36749,66609152,47225632,1.0216315947779109,0.1190409179798803,0.9977475890584878,1024,0,1,1,265.44420950218847,0.6877275670838424,0.0576807279565606,264.8463200603447
1024,256,305.39958973387405,276885,33424,37212160,33536320,0.6968150420986766,0.3760962521206034,0.2705105275868971,1024,0,1,1,979.0610458783979,0.8802718352209382,0.0199723566164654,264.8463200603447
1024,512,164.00545349883274,95925,33561,27320320,23154584,0.6767660288900995,0.1037984032612321,0.3735172032700693,1024,0,1,1,709.0605673357678,0.885652490673244,0.0201791045500313,264.8463200603447
128,1024,57.97654742651711,35122,22688,31547392,21603656,0.934921046326543,0.1211167718927755,0.7713764728075884,128,0,1,1,343.3424915027293,0.7686030662890636,0.0475869205294527,264.8463200603447
128,128,266.19014986169026,187358,28390,31686656,27701768,0.576686208874568,0.1273852295282588,0.31603481139900175,128,0,1,1,838.0289465199758,0.8913434575656959,0.013469278563224,264.8463200603447
128,1536,40.12097056156338,142996,49239,64544768,44916192,0.962700854085154,0.1007862494493421,0.9332077216469069,128,0,1,1,283.80210955921905,0.6520075236226897,0.0550304444784072,264.8463200603447
128,2048,38.74961054441347,95685,11241,42729472,26478064,1.0212830039551757,0.1603273484092504,1.0,128,0,1,1,253.42364612565473,0.6527953299570932,0.0488201675720467,264.8463200603447
128,256,258.1326179867594,178818,72180,37212160,33335904,0.6475981543474167,0.2075615345185722,0.3360340200477344,128,0,1,1,788.1532947846252,0.8872693011219621,0.0173535600962277,264.8463200603447
128,512,208.1217905544965,109156,44678,36589568,32526488,0.7355158089285893,0.1967255860348168,0.37282174349821,128,0,1,1,710.3832452884183,0.8926677280338534,0.0176631767537612,264.8463200603447
1536,1024,76.73397284529094,49368,4221,31023104,21578984,0.8980520151060251,0.1332045750301872,0.7194064483116668,1536,0,1,1,368.1456020889125,0.7648599688679074,0.0406627135371273,264.8463200603447
1536,128,280.3283123209519,47674,17024,31989760,28565664,0.732042421915398,0.2941988130816805,0.3222960264978802,1536,0,1,1,821.7486356819439,0.8873190237675315,0.0237108318359843,264.8463200603447
1536,1536,47.0665202879797,115124,40591,61415424,43015152,0.9858536761008291,0.1620583329809784,0.8798274352236211,1536,0,1,1,301.0207564089316,0.7202593756390936,0.0481290797631408,264.8463200603447
1536,2048,33.272146383565186,77898,59599,60891136,43238592,1.0372515031595786,0.1885543211958825,1.0,1536,0,1,1,247.20220639516893,0.6720292645060243,0.0471111206568422,264.8463200603447
1536,256,224.7665011405271,118531,41016,36327424,32787944,0.7846025573569351,0.3282340901360632,0.3304857581253938,1536,0,1,1,801.38497211688,0.8894018378432438,0.0226435531859932,264.8463200603447
1536,512,148.4843352582552,134864,35838,31948800,28079912,0.7835692880215551,0.1630404897050209,0.40159416316098373,1536,0,1,1,659.4874735621542,0.8856642952643424,0.0149441923717727,264.8463200603447
2048,1024,100.9606572009508,138000,51339,50335744,39090952,0.8608156398268734,0.2060139626795679,0.6232758439023607,2048,0,1,1,424.9263350270867,0.7560719221479937,0.0470772299036794,264.8463200603447
2048,128,138.5099337913158,43960,11263,32174080,28763304,0.776630728121584,0.2784233341987835,0.40540279768747856,2048,0,1,1,653.2917916972847,0.8867757566811832,0.0174390015942169,264.8463200603447
2048,1536,65.75062917489171,128124,73153,64806912,44949792,0.9679993955459705,0.1330788221784015,0.8277549083483249,2048,0,1,1,319.9574141925783,0.6969081632561849,0.052034446782439,264.8463200603447
2048,2048,35.25773416250273,118412,12987,49594368,29299504,1.033185188996306,0.1647216922553986,1.0,2048,0,1,1,231.5837546318652,0.6713723103315362,0.0713355346032049,264.8463200603447
2048,256,303.4243158043082,108436,29669,27582464,23488840,0.6689736896955982,0.2498974625875307,0.3416059094050847,2048,0,1,1,775.2978293659535,0.8904125674382449,0.0225610515598085,264.8463200603447
2048,512,133.77499727317087,43163,11917,32251904,28591912,0.8373393312868096,0.2643902101467483,0.4794401596221547,2048,0,1,1,552.407458459611,0.8977328237725077,0.019370069964653,264.8463200603447
256,1024,68.05279938304342,125148,31887,48959488,37462752,0.8737010782683146,0.1547086352272555,0.7082519513713208,256,0,1,1,373.9436503458239,0.7507999435143573,0.0348159367256285,264.8463200603447
256,128,373.533141438772,52128,3435,32436224,28792640,0.5973097739808263,0.1881158917501509,0.26012190624141623,256,0,1,1,1018.1623066168975,0.9026237485072311,0.0142801837428285,264.8463200603447
256,1536,42.23047973824488,109104,39827,52584448,35228680,0.9672606543504303,0.1790505722333928,0.8400141671628205,256,0,1,1,315.28792062504505,0.6684325183789079,0.0448316774635705,264.8463200603447
256,2048,34.30140324124311,110406,40138,52322304,35230752,1.0287093230101505,0.1163323858720294,1.0,256,0,1,1,236.7976703630053,0.6883457952439433,0.0557290104147662,264.8463200603447
256,256,258.30072086372326,44429,7183,32436224,28752832,0.733189284738205,0.3196656172303053,0.370545727802332,256,0,1,1,714.7466565897831,0.8847359618162532,0.0188939940082954,264.8463200603447
256,512,153.79954635290773,90441,43171,27320320,23146472,0.7262516633884502,0.1282919020028605,0.4539745092305529,256,0,1,1,583.3946943612232,0.8855828228366791,0.0348587453739188,264.8463200603447
512,1024,71.51628331129818,65104,12301,40804352,30018952,0.9250362511023669,0.1253886853518913,0.6474012493290812,512,0,1,1,409.09145655003266,0.7602755830473645,0.0378773005042188,264.8463200603447
512,128,260.6854851489398,130041,24088,36327424,33049224,0.6380137682420217,0.1558940654689596,0.26703759563790536,512,0,1,1,991.7941308139548,0.8861815414635371,0.0194901763199878,264.8463200603447
512,1536,45.31877077277919,93832,11503,54288384,36281760,0.9344027227762332,0.1384439278014554,0.8180868586661371,512,0,1,1,323.7386314848861,0.6683975812382765,0.0475543836425689,264.8463200603447
512,2048,27.93269672926281,108403,40387,61153280,43210064,1.015423635104773,0.1320361711649906,1.0,512,0,1,1,233.7570759863441,0.6808158421251844,0.0384025979091954,264.8463200603447
512,256,294.4482730038532,42640,13098,32436224,28804232,0.6890479055107233,0.2841083890385915,0.27215551770594504,512,0,1,1,973.1433053159785,0.8927565324757047,0.0169247891555281,264.8463200603447
512,512,131.69234065056065,90180,28817,42217472,38404984,0.7739656847887086,0.1711280322562635,0.5264622207069316,512,0,1,1,503.06804485364586,0.8856940207891265,0.0222216779195473,264.8463200603447
