cpu,memory,duration_std,userDiff,sysDiff,heapTotal,heapUsed,avg_cpu_util,cpu_util_std,slo_preservation,total_cpu_shares,cpu_shares_others,num_containers,arrival_rate,latency,memory_util,memory_util_std,slo_duration
1024,1024,74.42168016848868,47167,12728,31809536,21791520,0.8560093290273225,0.1774044458267906,1.0,1024,0,1,1,206.01953654938686,0.7636715966707985,0.0464958938358568,264.8463200603447
1024,128,364.8258324803929,233559,31229,37474304,33887736,0.5165405179623825,0.2015066667994902,0.38555104279189645,1024,0,1,1,686.9293314382166,0.8941248555143997,0.0190019496586913,264.8463200603447
1024,1536,41.10726065201069,55531,24290,54124544,34673040,0.9938627373122123,0.1202716336888508,1.0,1024,0,1,1,146.54747652018156,0.6814822022583888,0.0584410304630169,264.8463200603447
1024,2048,36.044154748252126,122734,36749,66609152,47225632,1.0442197328990823,0.1190409179798803,1.0,1024,0,1,1,129.8511139630471,0.6877275670838424,0.0576807279565606,264.8463200603447
1024,256,305.39958973387405,276885,33424,37212160,33536320,0.5347015693158722,0.3760962521206034,0.41515293120407554,1024,0,1,1,637.9488139279329,0.8802718352209382,0.0199723566164654,264.8463200603447
1024,512,164.00545349883274,95925,33561,27320320,23154584,0.5114484994081905,0.1037984032612321,0.5645520163856904,1024,0,1,1,469.1265151365735,0.885652490673244,0.0201791045500313,264.8463200603447
128,1024,57.97654742651711,35122,22688,31547392,21603656,0.8777950621425772,0.1211167718927755,1.0,128,0,1,1,182.8434308006823,0.7686030662890636,0.0475869205294527,264.8463200603447
128,128,266.19014986169026,187358,28390,31686656,27701768,0.40517151767255416,0.1273852295282588,0.44408311557089475,128,0,1,1,596.3890784720993,0.8913434575656959,0.013469278563224,264.8463200603447
128,1536,40.12097056156338,142996,49239,64544768,44916192,0.9280841094649702,0.1007862494493421,1.0,128,0,1,1,147.19384292730473,0.6520075236226897,0.0550304444784072,264.8463200603447
128,2048,38.74961054441347,95685,11241,42729472,26478064,1.0434916406707644,0.1603273484092504,1.0,128,0,1,1,124.0150148314137,0.6527953299570932,0.0488201675720467,264.8463200603447
128,256,258.1326179867594,178818,72180,37212160,33335904,0.4788503923069752,0.2075615345185722,0.49694404237608203,128,0,1,1,532.9499852619458,0.8872693011219621,0.0173535600962277,264.8463200603447
128,512,208.1217905544965,109156,44678,36589568,32526488,0.5816726014624025,0.1967255860348168,0.5896819369205624,128,0,1,1,449.1341916346046,0.8926677280338534,0.0176631767537612,264.8463200603447
1536,1024,76.73397284529094,49368,4221,31023104,21578984,0.8149677003061375,0.1332045750301872,1.0,1536,0,1,1,202.83865218472812,0.7648599688679074,0.0406627135371273,264.8463200603447
1536,128,280.3283123209519,47674,17024,31989760,28565664,0.5773398373636708,0.2941988130816805,0.5083703620191237,1536,0,1,1,520.9712049468018,0.8873190237675315,0.0237108318359843,264.8463200603447
1536,1536,47.0665202879797,115124,40591,61415424,43015152,0.9721020062572797,0.1620583329809784,1.0,1536,0,1,1,152.6395467647329,0.7202593756390936,0.0481290797631408,264.8463200603447
1536,2048,33.272146383565186,77898,59599,60891136,43238592,1.0773857415136596,0.1885543211958825,1.0,1536,0,1,1,118.99677631129224,0.6720292645060243,0.0471111206568422,264.8463200603447
1536,256,224.7665011405271,118531,41016,36327424,32787944,0.6455522529738903,0.3282340901360632,0.543831583859026,1536,0,1,1,487.0006228417199,0.8894018378432438,0.0226435531859932,264.8463200603447
1536,512,148.4843352582552,134864,35838,31948800,28079912,0.6441544761288794,0.1630404897050209,0.6602828409483629,1536,0,1,1,401.11040850303857,0.8856642952643424,0.0149441923717727,264.8463200603447
2048,1024,100.9606572009508,138000,51339,50335744,39090952,0.7556420803530446,0.2060139626795679,1.0,2048,0,1,1,242.03471754427167,0.7560719221479937,0.0470772299036794,264.8463200603447
2048,128,138.5099337913158,43960,11263,32174080,28763304,0.6348293569030963,0.2784233341987835,0.6627643950301366,2048,0,1,1,399.6085517664265,0.8867757566811832,0.0174390015942169,264.8463200603447
2048,1536,65.75062917489171,128124,73153,64806912,44949792,0.9379833610253374,0.1330788221784015,1.0,2048,0,1,1,165.09812242314456,0.6969081632561849,0.052034446782439,264.8463200603447
2048,2048,35.25773416250273,118412,12987,49594368,29299504,1.0686484911455894,0.1647216922553986,1.0,2048,0,1,1,111.9493019829663,0.6713723103315362,0.0713355346032049,264.8463200603447
2048,256,303.4243158043082,108436,29669,27582464,23488840,0.5025998994284387,0.2498974625875307,0.5132970051162405,2048,0,1,1,515.9709046039884,0.8904125674382449,0.0225610515598085,264.8463200603447
2048,512,133.77499727317087,43163,11917,32251904,28591912,0.7201923603501268,0.2643902101467483,0.8247292998270758,2048,0,1,1,321.1312125274027,0.8977328237725077,0.019370069964653,264.8463200603447
256,1024,68.05279938304342,125148,31887,48959488,37462752,0.7757275279328142,0.1547086352272555,1.0,256,0,1,1,210.58616508645596,0.7507999435143573,0.0348159367256285,264.8463200603447
256,128,373.533141438772,52128,3435,32436224,28792640,0.42583156487515256,0.1881158917501509,0.3708900246345062,256,0,1,1,714.0831579963296,0.9026237485072311,0.0142801837428285,264.8463200603447
256,1536,42.23047973824488,109104,39827,52584448,35228680,0.9365970788515325,0.1790505722333928,1.0,256,0,1,1,162.80512041876128,0.6684325183789079,0.0448316774635705,264.8463200603447
256,2048,34.30140324124311,110406,40138,52322304,35230752,1.0591158212269147,0.1163323858720294,1.0,256,0,1,1,114.99968477825132,0.6883457952439433,0.0557290104147662,264.8463200603447
256,256,258.30072086372326,44429,7183,32436224,28752832,0.5787678268782928,0.3196656172303053,0.5850056734415231,256,0,1,1,452.72436163273994,0.8847359618162532,0.0188939940082954,264.8463200603447
256,512,153.79954635290773,90441,43171,27320320,23146472,0.570168880707188,0.1282919020028605,0.7128166470281321,256,0,1,1,371.54901076530587,0.8855828228366791,0.0348587453739188,264.8463200603447
512,1024,71.51628331129818,65104,12301,40804352,30018952,0.860527856917021,0.1253886853518913,1.0,512,0,1,1,219.87924288750813,0.7602755830473645,0.0378773005042188,264.8463200603447
512,128,260.6854851489398,130041,24088,36327424,33049224,0.468443625467864,0.1558940654689596,0.39212965507474723,512,0,1,1,675.4049754534888,0.8861815414635371,0.0194901763199878,264.8463200603447
512,1536,45.31877077277919,93832,11503,54288384,36281760,0.8768816726058659,0.1384439278014554,1.0,512,0,1,1,172.48750212122152,0.6683975812382765,0.0475543836425689,264.8463200603447
512,2048,27.93269672926281,108403,40387,61153280,43210064,1.0313305004156061,0.1320361711649906,1.0,512,0,1,1,115.07584607158603,0.6808158421251844,0.0384025979091954,264.8463200603447
512,256,294.4482730038532,42640,13098,32436224,28804232,0.5256087605391591,0.2841083890385915,0.41520284204125996,512,0,1,1,637.8721271710999,0.8927565324757047,0.0169247891555281,264.8463200603447
512,512,131.69234065056065,90180,28817,42217472,38404984,0.6312757116062657,0.1711280322562635,0.8588050337175148,512,0,1,1,308.38934293841146,0.8856940207891265,0.0222216779195473,264.8463200603447
