cpu,memory,duration_std,userDiff,sysDiff,heapTotal,heapUsed,avg_cpu_util,cpu_util_std,slo_preservation,total_cpu_shares,cpu_shares_others,num_containers,arrival_rate,latency,memory_util,memory_util_std,slo_duration
1024,1024,746.7777398442788,1907226,145207,43700224,35496960,0.6136962387492634,0.266873271542933,1.0,1024,0,1,1,1033.9070460457756,0.8049252509132117,0.0392160141967425,3303.7310409304346
1024,128,2824.9779917765177,1850676,179591,35438592,33151448,0.2510548292866611,0.0608318046820773,0.27313619256425964,1024,0,1,1,12095.544753385911,0.9213343833024767,0.0139703110514582,3303.7310409304346
1024,1536,584.5787604940381,1502061,167396,69353472,59931064,0.6386427784836692,0.2317838059893646,1.0,1024,0,1,1,745.9626496159633,0.7366532647060872,0.075241951546194,3303.7310409304346
1024,2048,365.3157110309451,1687262,128863,51433472,41221112,0.6716897232649811,0.3816723962644073,1.0,1024,0,1,1,590.4508641767404,0.7339566761856109,0.0673680628649443,3303.7310409304346
1024,256,2711.9402762767854,2303165,183198,37273600,34675192,0.28600134028400764,0.0233351599741254,0.4202634409411745,1024,0,1,1,7861.095491751012,0.915266114969747,0.0125271288971644,3303.7310409304346
1024,512,1847.4705121517145,1954234,205550,36749312,34296296,0.425255607909414,0.0708771101853667,1.0,1024,0,1,1,2623.351691989533,0.9173223602762048,0.0145139695959908,3303.7310409304346
128,1024,781.4569511394583,1698325,124762,43700224,36154408,0.6104470799662878,0.2528788630218798,1.0,128,0,1,1,1001.2044526257749,0.8165251470389187,0.0413800169506891,3303.7310409304346
128,128,1544.86601169968,1970379,186113,36749312,33633584,0.1811458816022404,0.0134257249325693,0.20938563366973562,128,0,1,1,15778.212588077633,0.915117845033828,0.0107797539402787,3303.7310409304346
128,1536,559.55625697259,1803333,122198,51695616,36774840,0.5680565461714934,0.311476858188147,1.0,128,0,1,1,786.3298069293287,0.7192605082071891,0.0462159625160573,3303.7310409304346
128,2048,407.9228476127011,1681825,145264,69615616,55085776,0.6088163446936985,0.3142016638718382,1.0,128,0,1,1,614.3835517530358,0.750006304084905,0.0597212470184697,3303.7310409304346
128,256,3507.849740490803,1919002,202479,36749312,33880376,0.24079041649799965,0.0110837657376589,0.31602813150451364,128,0,1,1,10453.91441958783,0.9183795650575618,0.0172499167792413,3303.7310409304346
128,512,1361.9390768311264,2097039,203015,36487168,32685872,0.5351061848953368,0.2163677026136566,1.0,128,0,1,1,2094.9718466543954,0.9155196414379808,0.0178275683276703,3303.7310409304346
1536,1024,653.8598643236057,1814682,181498,43175936,34781856,0.5884655784527925,0.2324044352416799,1.0,1536,0,1,1,1032.8654053727598,0.836666667308388,0.0375126297994898,3303.7310409304346
1536,128,4547.967445509453,1930241,242648,36749312,33829896,0.24832973834583225,0.0560547972216451,0.2642181065727019,1536,0,1,1,12503.80257350525,0.9246031701415756,0.011784572275671,3303.7310409304346
1536,1536,293.13439731704824,1510515,179947,70664192,60128432,0.6094298035467712,0.337032573422581,1.0,1536,0,1,1,590.1928105478115,0.7139624772671782,0.0566515732208533,3303.7310409304346
1536,2048,285.7526549460173,1377155,123123,69615616,55751800,0.5881960070973891,0.2799635875295367,1.0,1536,0,1,1,453.7330902265345,0.704360768041288,0.0735808080672187,3303.7310409304346
1536,256,3292.548362120882,1734883,135544,36487168,33387496,0.3353668607860808,0.1248100451896629,0.5405814542514027,1536,0,1,1,6111.439848607906,0.9239460707259578,0.0143637635517271,3303.7310409304346
1536,512,1589.8168917834212,1982814,189588,35700736,32461400,0.48051534018141495,0.0918691361390626,1.0,1536,0,1,1,2233.9101670236846,0.9155821912052856,0.0172281180567172,3303.7310409304346
2048,1024,714.6743757991998,2065081,131396,43700224,38379192,0.5966649283758046,0.261504765993022,1.0,2048,0,1,1,956.4042023302864,0.8081299560304975,0.0408004214944133,3303.7310409304346
2048,128,1677.028928537905,1951894,250817,36749312,34226088,0.23791673922633136,0.0230895825305773,0.2732343878921352,2048,0,1,1,12091.197840861263,0.9204370693780264,0.0127032890883015,3303.7310409304346
2048,1536,524.8418735225368,1770646,173820,51957760,37376824,0.6164325079637164,0.2777359405349028,1.0,2048,0,1,1,777.5447088927825,0.706795976738151,0.053203911783636,3303.7310409304346
2048,2048,323.3695459192258,1537625,101254,51171328,38040160,0.547129261833207,0.3928093206416999,1.0,2048,0,1,1,575.6879995206624,0.7493193932252077,0.059796426430579,3303.7310409304346
2048,256,2647.6483551483216,2326444,150319,36225024,32750216,0.3332300969153196,0.0546809650571554,0.4972856361020628,2048,0,1,1,6643.527986906056,0.9220838920929292,0.0140046349629379,3303.7310409304346
2048,512,1817.8671017226343,1768863,178372,36487168,33806432,0.47527214919829297,0.0766547155765009,1.0,2048,0,1,1,2554.9254524730477,0.9143667014433194,0.0170821059889457,3303.7310409304346
256,1024,736.0015286368032,1624265,156621,43175936,34731592,0.6836238458379974,0.2881719704303597,1.0,256,0,1,1,1016.4151726114558,0.8178157029041909,0.0387401963718163,3303.7310409304346
256,128,1309.301055444469,2033529,232526,35962880,33348368,0.21989260296076135,0.0169731472774523,0.24639144264324192,256,0,1,1,13408.46502414458,0.9218844254072074,0.0070497256938738,3303.7310409304346
256,1536,314.64250614742275,1634712,110351,51433472,38688792,0.6654066646604208,0.3667465936063456,1.0,256,0,1,1,573.7699845128233,0.7321674126737392,0.0618195756775532,3303.7310409304346
256,2048,226.74430363758384,1432067,89300,53006336,36575704,0.5385823946775726,0.2429752926709275,1.0,256,0,1,1,506.68810257307354,0.6882255470184242,0.064078526748454,3303.7310409304346
256,256,3124.0221557841437,1741022,189947,36487168,34105392,0.2879266357756798,0.0157752063577869,0.46067535459977005,256,0,1,1,7171.495084213224,0.9165029527562758,0.0151027615486584,3303.7310409304346
256,512,1223.9599485642834,2285834,218002,35962880,32495744,0.5422147774875261,0.2297384024809948,1.0,256,0,1,1,1935.4067412417048,0.9140069844270864,0.0167906435801708,3303.7310409304346
512,1024,704.5471097509524,1860927,138153,43438080,36874496,0.6110114248397777,0.2326268316400171,1.0,512,0,1,1,977.2793715272292,0.8192609063294224,0.0410147541177495,3303.7310409304346
512,128,1621.6804269265017,2067893,191220,35962880,33014128,0.33349043535813927,0.0579384992692147,0.3871956033263722,512,0,1,1,8532.4601120165,0.9214391185588168,0.0106216521015718,3303.7310409304346
512,1536,546.9364838016554,1876261,171607,51957760,33903376,0.7268322343378196,0.3687201924589789,1.0,512,0,1,1,718.9789877136417,0.7427395529041108,0.0631767070400647,3303.7310409304346
512,2048,344.84177709633826,1551390,165475,70664192,54011280,0.4850757120670596,0.3039018398545031,1.0,512,0,1,1,589.905941704119,0.7528303679570658,0.0635900390151618,3303.7310409304346
512,256,3201.695893447958,2051246,198554,36487168,33362592,0.2598987952932501,0.0220401499308438,0.41494807770351405,512,0,1,1,7961.793820601802,0.9233378775808656,0.0140688410614181,3303.7310409304346
512,512,1523.7630985408382,1696159,212019,35962880,33976240,0.5382247175330468,0.221298012801013,1.0,512,0,1,1,2096.4900627013817,0.9203834128879852,0.0149005759983182,3303.7310409304346
