cpu,memory,duration_std,userDiff,sysDiff,heapTotal,heapUsed,avg_cpu_util,cpu_util_std,slo_preservation,total_cpu_shares,cpu_shares_others,num_containers,arrival_rate,latency,memory_util,memory_util_std,slo_duration
1024,1024,746.7777398442788,1907226,145207,43700224,35496960,0.7988571523398179,0.266873271542933,1.0,1024,0,1,1,1985.6643441077565,0.8049252509132117,0.0392160141967425,3303.7310409304346
1024,128,2824.9779917765177,1850676,179591,35438592,33151448,0.4559386669297852,0.0608318046820773,0.19841618164744423,1024,0,1,1,16650.512138171616,0.9213343833024767,0.0139703110514582,3303.7310409304346
1024,1536,584.5787604940381,1502061,167396,69353472,59931064,0.8154423725046478,0.2317838059893646,1.0,1024,0,1,1,1460.5681384096313,0.7366532647060872,0.075241951546194,3303.7310409304346
1024,2048,365.3157110309451,1687262,128863,51433472,41221112,0.8364609610191167,0.3816723962644073,1.0,1024,0,1,1,1185.350530517406,0.7339566761856109,0.0673680628649443,3303.7310409304346
1024,256,2711.9402762767854,2303165,183198,37273600,34675192,0.5003515358924258,0.0233351599741254,0.2940957660485631,1024,0,1,1,11233.52126186305,0.915266114969747,0.0125271288971644,3303.7310409304346
1024,512,1847.4705121517145,1954234,205550,36749312,34296296,0.6490932212101389,0.0708771101853667,0.7688917170610176,1024,0,1,1,4296.744219795331,0.9173223602762048,0.0145139695959908,3303.7310409304346
128,1024,781.4569511394583,1698325,124762,43700224,36154408,0.7966493216647049,0.2528788630218798,1.0,128,0,1,1,1917.9779544577495,0.8165251470389187,0.0413800169506891,3303.7310409304346
128,128,1544.86601169968,1970379,186113,36749312,33633584,0.3561044281390391,0.0134257249325693,0.1646477428666407,128,0,1,1,20065.44993213997,0.915117845033828,0.0107797539402787,3303.7310409304346
128,1536,559.55625697259,1803333,122198,51695616,36774840,0.7667798745838578,0.311476858188147,1.0,128,0,1,1,1456.349498343286,0.7192605082071891,0.0462159625160573,3303.7310409304346
128,2048,407.9228476127011,1681825,145264,69615616,55085776,0.7955369838604202,0.3142016638718382,1.0,128,0,1,1,1175.4536740803583,0.750006304084905,0.0597212470184697,3303.7310409304346
128,256,3507.849740490803,1919002,202479,36749312,33880376,0.4422439014200485,0.0110837657376589,0.23217122320348713,128,0,1,1,14229.718030278327,0.9183795650575618,0.0172499167792413,3303.7310409304346
128,512,1361.9390768311264,2097039,203015,36487168,32685872,0.7421066637784793,0.2163677026136566,0.8748081991523774,128,0,1,1,3776.5204351439534,0.9155196414379808,0.0178275683276703,3303.7310409304346
1536,1024,653.8598643236057,1814682,181498,43175936,34781856,0.7814124510797191,0.2324044352416799,1.0,1536,0,1,1,1944.5740127275983,0.836666667308388,0.0375126297994898,3303.7310409304346
1536,128,4547.967445509453,1930241,242648,36749312,33829896,0.45233281243044887,0.0560547972216451,0.1925093950280549,1536,0,1,1,17161.401605615007,0.9246031701415756,0.011784572275671,3303.7310409304346
1536,1536,293.13439731704824,1510515,179947,70664192,60128432,0.7959557627134033,0.337032573422581,1.0,1536,0,1,1,1129.7144434281158,0.7139624772671782,0.0566515732208533,3303.7310409304346
1536,2048,285.7526549460173,1377155,123123,69615616,55751800,0.7812222795304639,0.2799635875295367,1.0,1536,0,1,1,854.059078165345,0.704360768041288,0.0735808080672187,3303.7310409304346
1536,256,3292.548362120882,1734883,135544,36487168,33387496,0.557810445123214,0.1248100451896629,0.35965626527860517,1536,0,1,1,9185.801443973798,0.9239460707259578,0.0143637635517271,3303.7310409304346
1536,512,1589.8168917834212,1982814,189588,35700736,32461400,0.6981097119041669,0.0918691361390626,0.8594396651019851,1536,0,1,1,3844.0523227868457,0.9155821912052856,0.0172281180567172,3303.7310409304346
2048,1024,714.6743757991998,2065081,131396,43700224,38379192,0.7871579806880205,0.261504765993022,1.0,2048,0,1,1,1812.3834696528647,0.8081299560304975,0.0408004214944133,3303.7310409304346
2048,128,1677.028928537905,1951894,250817,36749312,34226088,0.43835415963562013,0.0230895825305773,0.20137032959932924,2048,0,1,1,16406.24538631852,0.9204370693780264,0.0127032890883015,3303.7310409304346
2048,1536,524.8418735225368,1770646,173820,51957760,37376824,0.8007077968613111,0.2777359405349028,1.0,2048,0,1,1,1496.500461327826,0.706795976738151,0.053203911783636,3303.7310409304346
2048,2048,323.3695459192258,1537625,101254,51171328,38040160,0.7512647568214675,0.3928093206416999,1.0,2048,0,1,1,1048.1516248566259,0.7493193932252077,0.059796426430579,3303.7310409304346
2048,256,2647.6483551483216,2326444,150319,36225024,32750216,0.5554408365812531,0.0546809650571554,0.3315579862602405,2048,0,1,1,9964.263199310572,0.9220838920929292,0.0140046349629379,3303.7310409304346
2048,512,1817.8671017226343,1768863,178372,36487168,33806432,0.6936626005341902,0.0766547155765009,0.7549050951264034,2048,0,1,1,4376.352818730477,0.9143667014433194,0.0170821059889457,3303.7310409304346
256,1024,736.0015286368032,1624265,156621,43175936,34731592,0.843798475842973,0.2881719704303597,1.0,256,0,1,1,2058.683646514559,0.8178157029041909,0.0387401963718163,3303.7310409304346
256,128,1309.301055444469,2033529,232526,35962880,33348368,0.41338203113626404,0.0169731472774523,0.18527916563456734,256,0,1,1,17831.0984379458,0.9218844254072074,0.0070497256938738,3303.7310409304346
256,1536,314.64250614742275,1634712,110351,51433472,38688792,0.832545087185634,0.3667465936063456,1.0,256,0,1,1,1146.4555420282318,0.7321674126737392,0.0618195756775532,3303.7310409304346
256,2048,226.74430363758384,1432067,89300,53006336,36575704,0.7447733030892947,0.2429752926709275,1.0,256,0,1,1,916.0280400307358,0.6882255470184242,0.064078526748454,3303.7310409304346
256,256,3124.0221557841437,1741022,189947,36487168,34105392,0.5027038478742966,0.0157752063577869,0.3217253905728738,256,0,1,1,10268.791763832232,0.9165029527562758,0.0151027615486584,3303.7310409304346
256,512,1223.9599485642834,2285834,218002,35962880,32495744,0.7475433593447379,0.2297384024809948,0.9413637359433623,256,0,1,1,3509.5159445670483,0.9140069844270864,0.0167906435801708,3303.7310409304346
512,1024,704.5471097509524,1860927,138153,43438080,36874496,0.7970336045539265,0.2326268316400171,1.0,512,0,1,1,1872.9726634222911,0.8192609063294224,0.0410147541177495,3303.7310409304346
512,128,1621.6804269265017,2067893,191220,35962880,33014128,0.5557300859418184,0.0579384992692147,0.2580898557786568,512,0,1,1,12800.700868165011,0.9214391185588168,0.0106216521015718,3303.7310409304346
512,1536,546.9364838016554,1876261,171607,51957760,33903376,0.8693132490857983,0.3687201924589789,1.0,512,0,1,1,1502.8446438364167,0.7427395529041108,0.0631767070400647,3303.7310409304346
512,2048,344.84177709633826,1551390,165475,70664192,54011280,0.7019447534791766,0.3039018398545031,1.0,512,0,1,1,1019.1295087911913,0.7528303679570658,0.0635900390151618,3303.7310409304346
512,256,3201.695893447958,2051246,198554,36487168,33362592,0.46749493328386366,0.0220401499308438,0.29855640336215106,512,0,1,1,11065.684754123278,0.9233378775808656,0.0140688410614181,3303.7310409304346
512,512,1523.7630985408382,1696159,212019,35962880,33976240,0.7444996351137695,0.221298012801013,0.8719121262530678,512,0,1,1,3789.0642204138176,0.9203834128879852,0.0149005759983182,3303.7310409304346
