cpu,memory,duration_std,userDiff,sysDiff,heapTotal,heapUsed,avg_cpu_util,cpu_util_std,slo_preservation,total_cpu_shares,cpu_shares_others,num_containers,arrival_rate,latency,memory_util,memory_util_std,slo_duration
1024,1024,187.73163649380436,4468,82,34304000,27602056,0.12137493721233183,0.0542366238611531,1.0,1024,0,1,1,584.21517001976,0.6524125338085542,0.0565959912660174,595.0139508583331
1024,128,189.58468029152007,4898,0,28659712,23949544,0.11123995884149586,0.0405316443016339,0.9309996478164342,1024,0,1,1,639.1129709381506,0.8814367188758656,0.0169195899056911,595.0139508583331
1024,1536,139.99657945102294,137,5342,42037248,27895640,0.11606754280366335,0.0453189023527484,1.0,1024,0,1,1,565.4678810231691,0.5210114755747121,0.0538176902889005,595.0139508583331
1024,2048,211.97989645538124,3068,4803,42823680,27484008,0.09203150954508443,0.0319579296580833,0.8254034971161496,1024,0,1,1,720.8764597402761,0.6509659619769106,0.1523246639145461,595.0139508583331
1024,256,194.16727269546888,18817,1319,28659712,23924512,0.11580783997807617,0.0693740477483943,0.8835180487172547,1024,0,1,1,673.4598707091617,0.8804160153185352,0.0143373480302395,595.0139508583331
1024,512,180.48934507739776,7465,24,28659712,23948952,0.10292103758814317,0.0461114875734665,0.8915514585922922,1024,0,1,1,667.3915959913581,0.8717421753108864,0.0151980030994505,595.0139508583331
128,1024,211.6109141442321,6395,36,33779712,27708680,0.1314288008915961,0.0661576933702704,0.8444989278337304,128,0,1,1,704.5763247854387,0.6636014292947381,0.0740174148748111,595.0139508583331
128,128,182.19185200812535,1914,4398,28397568,23951368,0.13421628256046497,0.0676478827696724,1.0,128,0,1,1,568.4712916921802,0.874811133988597,0.0148188141985872,595.0139508583331
128,1536,162.7784004538688,806,4210,42037248,27834736,0.10952449014674213,0.04915386497468,0.9086623529253816,128,0,1,1,654.8240377107327,0.5249815477973578,0.0573090710400871,595.0139508583331
128,2048,175.40772709932696,2959,3748,42561536,27630224,0.099313702495149,0.0258972001747177,0.9223490550929715,128,0,1,1,645.1071289907231,0.6460832795303684,0.1455068107396666,595.0139508583331
128,256,232.31516684112867,16721,5016,28921856,23932624,0.1031088095329237,0.0286278522269513,0.9690881398687873,128,0,1,1,613.99363626398,0.8768593627637176,0.0160527497702582,595.0139508583331
128,512,158.5610174616035,22678,1216,28659712,23811584,0.10907984515081234,0.0397018598163444,0.8648688460243477,128,0,1,1,687.9817137517547,0.8748833588068002,0.0171112139376113,595.0139508583331
1536,1024,156.60940589553198,5270,208,34041856,27613048,0.10715753431863129,0.0528341427835431,0.8413383734364087,1536,0,1,1,707.2231216888699,0.6652043188063783,0.0730694239206056,595.0139508583331
1536,128,216.47972500088144,460,4058,27873280,24283656,0.1420713468618582,0.065552856688759,1.0,1536,0,1,1,543.2667376670724,0.8757488901557305,0.0150554236629516,595.0139508583331
1536,1536,173.5065357760625,5226,36,42561536,27782160,0.10137055524396044,0.0255461725264791,1.0,1536,0,1,1,570.2934694143586,0.5205704815723732,0.052165566937068,595.0139508583331
1536,2048,172.64023187431047,17413,7422,34836480,14695408,0.10116575243938969,0.0361387609204262,0.9211341376476404,1536,0,1,1,645.9579843364166,0.6570758402547039,0.1661965514098065,595.0139508583331
1536,256,193.6370546441252,5641,379,28659712,24052040,0.1300440631436337,0.0541406371821465,1.0,1536,0,1,1,593.148850677375,0.8682134885936399,0.0173146256818479,595.0139508583331
1536,512,202.6421149227257,6620,490,28397568,23981640,0.10956915972124025,0.0595625173828395,0.8525064716440618,1536,0,1,1,697.9582802589716,0.873833802577774,0.0145269975742936,595.0139508583331
2048,1024,198.5737826041661,106,6402,34304000,27774392,0.11841943402447357,0.0367195964099486,0.9929907563347694,2048,0,1,1,599.2139877057774,0.6633656189070113,0.0631787805920423,595.0139508583331
2048,128,122.19253438625626,5500,958,27873280,24375728,0.10831956962286217,0.044739026934381,0.9025889347081555,2048,0,1,1,659.2302741343997,0.8806273572054868,0.0111059666978072,595.0139508583331
2048,1536,197.1948399536759,18015,7671,34574336,14599504,0.08591049126950527,0.023147887481629,0.8288051884269042,2048,0,1,1,717.9177437193492,0.5171775841056635,0.0483255288985131,595.0139508583331
2048,2048,169.911217549463,49015,10611,34836480,14574680,0.11325340104271367,0.03539335490591,0.8994061599882975,2048,0,1,1,661.5631261254371,0.6522108230652925,0.1638360851540966,595.0139508583331
2048,256,171.46642971984485,5993,20,28659712,23948896,0.10445688277020163,0.0349310597417843,0.9848537095846356,2048,0,1,1,604.1648064759605,0.8741594362396604,0.0158236165259975,595.0139508583331
2048,512,254.325453056534,14386,4522,28397568,23917424,0.10530512172378029,0.040243688225576,0.934082708948247,2048,0,1,1,637.003495684342,0.8758038436655922,0.0154433286918305,595.0139508583331
256,1024,194.3839113015075,5009,153,34041856,27842536,0.13513664172489948,0.0526912890798133,1.0,256,0,1,1,579.4427466347109,0.6771608300482672,0.0818690613394766,595.0139508583331
256,128,141.7708295009553,11704,8120,28659712,23947568,0.11050335517024269,0.0353552600676741,0.9640531230308014,256,0,1,1,617.2003768710601,0.8743293917439396,0.0161679725791619,595.0139508583331
256,1536,171.16374002155146,21657,3509,34312192,14695656,0.11023906661664493,0.027557510260479,1.0,256,0,1,1,579.1758346275014,0.5195168994158111,0.0489850221500373,595.0139508583331
256,2048,207.59157027132773,12595,11363,34836480,14701728,0.1377386477325569,0.0676147608942845,0.9127695756863814,256,0,1,1,651.8775019543093,0.6474512516988574,0.1548073484831539,595.0139508583331
256,256,187.9782182858432,5161,165,28659712,24009312,0.08844887354355499,0.0266102410413688,0.9229120885567156,256,0,1,1,644.7135737368422,0.8756640061153551,0.0160960308248063,595.0139508583331
256,512,208.4150656730268,5208,205,28659712,23952448,0.08727492711995115,0.0277617650194128,0.8534914371967629,256,0,1,1,697.152806608837,0.8736718766489515,0.0162655330641042,595.0139508583331
512,1024,179.5717481562732,3157,3823,33779712,27801664,0.11517935488891448,0.0404064476082991,0.8908537594941456,512,0,1,1,667.9142839293854,0.6457708324565663,0.0578544696738635,595.0139508583331
512,128,171.72204096715356,1776,4299,28397568,23994064,0.11987934817788287,0.0534572720891481,0.9411943162416067,512,0,1,1,632.1903358217813,0.8758852499365485,0.017400274220534,595.0139508583331
512,1536,155.87097263749203,2280,3658,42561536,27506336,0.11342263544021405,0.0503479282236949,0.8916660332198847,512,0,1,1,667.3058395077418,0.5191142571281748,0.0517954536614135,595.0139508583331
512,2048,195.97509047994032,5712,31,42299392,27493024,0.0839129099642095,0.0152035172888267,0.9997259323219153,512,0,1,1,595.177069655863,0.5211285559216488,0.0499337678154864,595.0139508583331
512,256,207.43890335138408,3104,3785,28659712,23948000,0.09587933655772957,0.0285742715833499,0.8872452603618991,512,0,1,1,670.6307460190122,0.877575789762272,0.0178922138826937,595.0139508583331
512,512,195.6291124590512,6514,408,28397568,24086688,0.10320739989163992,0.0383304912239483,0.8983388456330961,512,0,1,1,662.349127782627,0.8772169778986798,0.0137157526854826,595.0139508583331
