cpu,memory,duration_std,userDiff,sysDiff,heapTotal,heapUsed,avg_cpu_util,cpu_util_std,slo_preservation,total_cpu_shares,cpu_shares_others,num_containers,arrival_rate,latency,memory_util,memory_util_std,slo_duration
1024,1024,90.05286465808925,283627,52406,36810752,29859568,0.8450966718432882,0.1373894848286204,1.0,1024,0,1,1,409.24424421818134,0.7934884652881253,0.0819901605591939,531.7432154953271
1024,128,1128.3800953662096,309061,30279,32481280,29503840,0.35764364470934434,0.1142123200151484,0.2503619757025941,1024,0,1,1,2123.8976645838056,0.9166125675624656,0.0088012127281669,531.7432154953271
1024,1536,66.36079581420861,333233,33261,50311168,30745424,1.0646850466658546,0.1071292747980969,1.0,1024,0,1,1,281.7009988016514,0.7514244592861125,0.0835646045769268,531.7432154953271
1024,2048,51.49475944794424,288600,39982,50049024,29869272,1.1413716319658689,0.1555471651258634,1.0,1024,0,1,1,237.08709273391872,0.7598239875449438,0.1214613653543303,531.7432154953271
1024,256,292.73445278176115,379765,27130,32481280,29622592,0.6220607341850508,0.1955973459177387,0.5959264184238593,1024,0,1,1,892.2967652645983,0.9037922204089957,0.052717539025498,531.7432154953271
1024,512,206.2068964626678,303619,46305,32481280,29460992,0.6324087911954627,0.2614063263604154,0.6905618411763298,1024,0,1,1,770.0153466191169,0.8956961318191621,0.0493290451616063,531.7432154953271
128,1024,122.43699464203056,468095,31489,39170048,29694208,0.8538525587498597,0.0910772525596728,1.0,128,0,1,1,459.9296135197261,0.7737949463923982,0.0846209152769102,531.7432154953271
128,128,1522.046854982628,337023,46570,32219136,29696800,0.39361833870640167,0.1685741475055421,0.24455184364813704,128,0,1,1,2174.3578276204007,0.9170111996329888,0.0084717432348572,531.7432154953271
128,1536,57.59997534870431,172606,26339,58445824,46390168,1.2284898754696918,0.1032597964228826,1.0,128,0,1,1,203.87936001537696,0.7506846923231733,0.1187657394648591,531.7432154953271
128,2048,31.754460563976444,291413,50914,50311168,30659584,1.2915230601722285,0.2409747279647612,1.0,128,0,1,1,186.23024442581834,0.7082749635403649,0.1299804174613035,531.7432154953271
128,256,367.3802438279853,351339,33614,32219136,29623480,0.3733552208306198,0.0779011099079132,0.3592101749511009,128,0,1,1,1480.3122310433246,0.9131002201078487,0.0213718061023249,531.7432154953271
128,512,189.1169179529562,376286,37059,32743424,29593704,0.5813947393449501,0.0892348485812075,0.6583182078498243,128,0,1,1,807.7297713397418,0.9013861387557124,0.0470415405966818,531.7432154953271
1536,1024,114.37339161918862,385018,50868,38121472,30743184,0.908994334646385,0.142141621385682,1.0,1536,0,1,1,384.8893714565319,0.8293851767140822,0.0728539146105212,531.7432154953271
1536,128,1825.38883856614,340595,48067,31956992,29887088,0.2733499370601255,0.094135971389046,0.17526204283142333,1536,0,1,1,3033.9896015407458,0.9157751638669276,0.0142947050913441,531.7432154953271
1536,1536,79.15116017312997,377522,23279,50311168,31108864,1.0793550699821217,0.11890256778239,1.0,1536,0,1,1,281.2462720503847,0.7236973009470994,0.1120644841494093,531.7432154953271
1536,2048,47.7444658957891,249794,29015,49786880,29681664,1.2068590273340398,0.1412254462329404,1.0,1536,0,1,1,193.45413633834877,0.7544933621435669,0.1243233230376953,531.7432154953271
1536,256,252.64641574875336,380144,38298,32481280,29588488,0.6128298847568285,0.2106056593668387,0.5683995451774655,1536,0,1,1,935.5095724598204,0.9074610077359182,0.0346734093829063,531.7432154953271
1536,512,172.27691955429165,303033,67279,32219136,29564064,0.7232916189721911,0.2552067759646523,0.7630542799166365,1536,0,1,1,696.8615857228662,0.8988225705442996,0.0409199871568247,531.7432154953271
2048,1024,82.32516138170554,224999,27917,36548608,29851240,0.875477797032964,0.1151480061614166,1.0,2048,0,1,1,451.3333534763146,0.8016476092470887,0.0946986273712762,531.7432154953271
2048,128,806.8899145441464,368033,37671,31956992,29439936,0.4023019573865905,0.1863383718314753,0.28076882775977774,2048,0,1,1,1893.882664033772,0.9150736619912738,0.00729328665877,531.7432154953271
2048,1536,40.36073462926629,195485,45096,68358144,51477936,1.2278219069391025,0.1831878600713042,1.0,2048,0,1,1,199.49172037747982,0.74884031212313,0.1023804737936232,531.7432154953271
2048,2048,32.47708924672655,256280,43639,50311168,29722216,1.2897183989332273,0.1277599579838669,1.0,2048,0,1,1,182.58538211205854,0.7453348306959702,0.1017855311846687,531.7432154953271
2048,256,159.6445926741262,306436,31232,32219136,29467400,0.6881132647008807,0.1908346794522555,0.6856084902629558,2048,0,1,1,775.578516087781,0.8956787941683038,0.0502916670993109,531.7432154953271
2048,512,153.59397052839395,286748,30220,32481280,29691560,0.8082364408283724,0.2781854031266992,0.9014866510033598,2048,0,1,1,589.8514580371145,0.8950125812778051,0.0367988183882146,531.7432154953271
256,1024,113.94946862009336,325570,38041,39432192,30204128,0.8131279551512388,0.1121073084688202,1.0,256,0,1,1,442.2020638234817,0.8042786808663619,0.0889673504734828,531.7432154953271
256,128,394.9069328143234,374154,55760,31956992,29595048,0.4451893858607671,0.097170932458949,0.3696844670010349,256,0,1,1,1438.3704563217111,0.920543218501006,0.0115284589859368,531.7432154953271
256,1536,82.10673647637252,335819,33530,49262592,31530776,1.0564532496818908,0.1147910080651897,1.0,256,0,1,1,280.62451528924163,0.718525937919776,0.1208970741576617,531.7432154953271
256,2048,55.94786005945583,239208,49192,50049024,29715088,1.1510267810024004,0.1972694691454461,1.0,256,0,1,1,223.07819378455554,0.7165846831124301,0.1007366829545646,531.7432154953271
256,256,274.28850853934426,367187,43101,32743424,29861416,0.4089521192353131,0.0704006877104505,0.4246016730257451,256,0,1,1,1252.3342447194873,0.9108613619769036,0.0192897624343827,531.7432154953271
256,512,230.0534025308171,347040,44426,32743424,29751168,0.566828041565089,0.0944903891933048,0.6289711732398569,256,0,1,1,845.4174660442634,0.9082300831628164,0.0496594628973048,531.7432154953271
512,1024,106.26115928296431,267038,37222,37072896,29989976,0.8460516517579819,0.1259947933659032,1.0,512,0,1,1,420.2254328376765,0.7877627754075509,0.0920597828526884,531.7432154953271
512,128,1219.450760360242,364679,33384,32219136,29506928,0.5143362680611844,0.2790314300443092,0.27386731633061057,512,0,1,1,1941.6088879091026,0.9141275124929376,0.0114549354518666,531.7432154953271
512,1536,65.1156760060283,351143,38393,50835456,30480264,1.2135532457500113,0.249732153652034,1.0,512,0,1,1,221.75014147920413,0.7209641147207291,0.1367259486042437,531.7432154953271
512,2048,29.804684426873827,280906,44470,50311168,30448440,1.3270371786780337,0.2382774436533415,1.0,512,0,1,1,148.46150122675104,0.6847921506580986,0.1428890503097477,531.7432154953271
512,256,238.8217968930824,205070,18577,36413440,29929280,0.4411750848203682,0.0956993503139627,0.42137034649604815,512,0,1,1,1261.9379126155811,0.9094917043565198,0.0254182761211727,531.7432154953271
512,512,185.2694415832292,291822,51030,32481280,29475136,0.6324367113570358,0.1748944359548452,0.6790601403870871,512,0,1,1,783.0576172417007,0.8921387178982876,0.0564580761927141,531.7432154953271
