3.9612700559760383
40.49779804836501
27.713442474147055
24.506813303168972
24.235886604679983
23.58427235344715
21.844451801243565
21.323408686341455
20.600650007125612
21.28017466726913
22.99512958725814
14.899305654564968
15.801728788653206
15.132399141932202
14.05489973572822
13.869330040492386
12.816510100357595
11.079853615911125
9.318147836343249
10.512040372593791
10.229862229328686
10.213951207850698
9.94286287438029
10.000928205797726
7.20630132429048
8.513049574430525
8.954286994128237
8.928691558534332
7.956610255121509
7.831643144097061
6.268212916963717
6.45505584839778
10.402503737638954
11.147136667930603
10.299094958203499
10.650192815712492
10.795611273370291
13.987808442268665
12.648252096413794
12.166705346195407
12.901262773796368
12.441236686507233
9.099263411437935
8.683678108348596
7.425255082446472
8.133816273489305
8.511287332086033
5.760953918417706
5.762721422276125
6.080580406844948
6.405597376562428
7.078454529724825
7.850920859871176
8.500971961827364
8.136768737040713
8.34336718059471
9.043492628922547
9.060513248439127
9.775571253590593
7.741809112287841
8.302382765556555
7.89242053153149
5.470248577969096
6.2570211743189
7.747619039147804
8.104652938967707
8.40518582112301
6.837798344712527
6.885062793908898
7.4601886449453465
7.8054329699115215
8.167600355275377
7.874558994642964
6.277121405428332
5.650979069627552
5.772143656104551
6.227262600835687
6.494816398924091
7.004519291278583
6.207278518650683
7.052105120995853
7.479417123602296
7.009697327442708
7.669435607544712
8.717221861437764
8.207267424833056
9.5488640373378
9.630488547320967
9.827900150979596
10.701176201444612
10.328257696355532
11.755223750789991
12.934162255399718
13.247987255403306
12.791285839001743
12.532955471774642
11.34531097889908
12.858459350994561
12.96007428257481
9.868609571698299
