cpu,memory,duration_std,userDiff,sysDiff,heapTotal,heapUsed,avg_cpu_util,cpu_util_std,slo_preservation,total_cpu_shares,cpu_shares_others,num_containers,arrival_rate,latency,memory_util,memory_util_std,slo_duration
1024,1024,866.1579352260036,2080030,170139,44748800,36876408,0.9248226323347737,0.1504197595014408,1.0,1024,0,1,1,1462.6950321834452,0.8457877349465871,0.0596697430997743,2196.232225633664
1024,128,684.8394402340969,2631479,261912,53534720,50627056,0.6536711728147626,0.0565746670677954,0.2681977952532971,1024,0,1,1,8188.852647201857,0.9135039571327206,0.05309776374549,2196.232225633664
1024,1536,378.3057419447023,1694130,110630,52482048,34558032,1.1905022793464752,0.2498284334856895,1.0,1024,0,1,1,703.1979896625805,0.7642179562204281,0.094827219265796,2196.232225633664
1024,2048,220.92573287653252,1791163,92552,65064960,41158320,1.2109928797432532,0.2626475458058196,1.0,1024,0,1,1,491.73996702811417,0.7117928051938653,0.1185893718470948,2196.232225633664
1024,256,4163.225831001987,2055054,168798,36749312,34553664,0.7416617753043325,0.6301672329800554,0.21250502352258518,1024,0,1,1,10334.966153871872,0.9325710584896092,0.0332179994849823,2196.232225633664
1024,512,2296.8588680130847,2176000,164877,38584320,36188336,0.5781230439149521,0.0836202399256372,0.5477911110682768,1024,0,1,1,4009.25130265563,0.9072934758567326,0.0509201663979426,2196.232225633664
128,1024,845.4388699725611,1963896,200820,59961344,52474552,0.9137603682222379,0.2077639368212341,1.0,128,0,1,1,1637.378860490599,0.8400856225945692,0.0708155973020328,2196.232225633664
128,128,747.9331354030137,2451114,263361,38322176,36159360,0.50360212873747,0.0282070277494369,0.20352054331422398,128,0,1,1,10791.206577327222,0.9411733684313648,0.003524293649337,2196.232225633664
128,1536,566.9454587761694,2004686,121086,73461760,52942232,1.059521283479796,0.1474906572639025,1.0,128,0,1,1,1008.4065644877637,0.7502334994330007,0.1094958918711387,2196.232225633664
128,2048,378.944811770904,1838736,93688,52482048,39067560,1.089589894879214,0.2070852655046412,1.0,128,0,1,1,732.2306943325906,0.7720920102753016,0.1067591244943188,2196.232225633664
128,256,5045.965973353296,2177685,176178,37535744,34870880,0.5201785343632191,0.3218586536208027,0.17117655459751824,128,0,1,1,12830.216327216025,0.909754648740722,0.0771170690866203,2196.232225633664
128,512,2050.8305296665685,2283615,128908,37797888,34919568,0.6223758769077548,0.0634790932897025,0.5736571252222843,128,0,1,1,3828.4754587204925,0.924927926026098,0.0425621007814329,2196.232225633664
1536,1024,879.2020359532092,2141571,193797,43962368,38396416,0.8505292593688821,0.1124845747845016,1.0,1536,0,1,1,1477.1935408879715,0.8269589286187807,0.0778295736422698,2196.232225633664
1536,128,4915.697751859894,2561618,240615,39895040,37277024,0.6743423018904459,0.2332053220294425,0.2025959107028546,1536,0,1,1,10840.456838513664,0.9078175196954498,0.0852713255897636,2196.232225633664
1536,1536,547.3596542118166,1891069,138303,73723904,57119680,1.0770430883372348,0.1530035256592064,1.0,1536,0,1,1,1024.191393503961,0.7729943667469037,0.1119136596913558,2196.232225633664
1536,2048,378.6319558704549,1912702,126330,65589248,38091056,1.1737074590882326,0.3237481202511499,1.0,1536,0,1,1,724.6407609335262,0.7569768494528819,0.1082752485355407,2196.232225633664
1536,256,3956.560945542493,2210842,184485,37273600,34466112,0.57879206665983,0.2361848200464378,0.24740281282340973,1536,0,1,1,8877.151397632986,0.9314878122255128,0.0369918444840522,2196.232225633664
1536,512,2010.050224197215,2098708,189734,37273600,34894816,0.6365018747681959,0.0643521161640714,0.6094076803144316,1536,0,1,1,3603.8801225814714,0.9131452879708384,0.0558599524903009,2196.232225633664
2048,1024,883.0095515883946,2153416,136975,45010944,36864976,0.8811517230023753,0.1273997654771216,1.0,2048,0,1,1,1519.7087968555809,0.8270484229895574,0.080237299975209,2196.232225633664
2048,128,1007.2875989453167,2224218,231051,37535744,35612576,0.7879042449036596,0.2151864844275105,0.32761348977083954,2048,0,1,1,6703.729529482725,0.9074256097971944,0.0644706046328903,2196.232225633664
2048,1536,382.0825053957437,1916356,120951,61394944,42812304,1.1719703489580175,0.2661597201132668,1.0,2048,0,1,1,763.8854788642468,0.7517127680274645,0.0925085718459996,2196.232225633664
2048,2048,220.6925867569705,1695440,174811,65851392,41275544,1.232541991743083,0.3390340894391836,1.0,2048,0,1,1,493.8322587326839,0.7150424294841196,0.125898220729844,2196.232225633664
2048,256,3187.8162826629464,2500835,153238,49856512,33722448,0.5251248352802776,0.1297838368607748,0.2703740032481601,2048,0,1,1,8122.941552253727,0.8929319007691535,0.0884103896882466,2196.232225633664
2048,512,1969.3859288486383,2191298,200630,53272576,50984760,0.6389570186374958,0.0759323794159234,0.6136997408701761,2048,0,1,1,3578.6754977598425,0.9000550923560022,0.0846472741415063,2196.232225633664
256,1024,893.4413538244903,1989635,162242,58388480,52265424,0.9372867558821276,0.2074794091318731,1.0,256,0,1,1,1539.059376791382,0.8205097976641114,0.078919815017922,2196.232225633664
256,128,1441.7565197112876,1962506,184341,51961856,47831424,0.7570843396017473,0.1663294529582369,0.3364417104230342,256,0,1,1,6527.823862481768,0.918391476018191,0.0201191682051751,2196.232225633664
256,1536,394.6749669565944,1837871,151585,63492096,37965408,1.186529140486395,0.1468363231054931,1.0,256,0,1,1,745.7022517840478,0.747436690928857,0.1057951318068001,2196.232225633664
256,2048,199.21516069439463,1460491,171194,52482048,37871528,1.235919176128464,0.3554679005029452,1.0,256,0,1,1,457.70741323930804,0.7235814810603387,0.1084953705690087,2196.232225633664
256,256,3660.247184187638,2080372,189414,37535744,35563496,0.48955972308405477,0.0919151023561715,0.24490664351318947,256,0,1,1,8967.630253425059,0.9254428818582936,0.0436285760013328,2196.232225633664
256,512,2527.640930461352,2242882,189508,38322176,35482584,0.7415273279750259,0.223694961259591,0.4877935321367872,256,0,1,1,4502.380783962088,0.9028819487170064,0.073667444676942,2196.232225633664
512,1024,852.187390865959,1935612,174405,44748800,39584776,0.9549724842633248,0.1362486253753435,1.0,512,0,1,1,1490.7746474998632,0.8346003567882783,0.0718585688056374,2196.232225633664
512,128,1202.5666035093648,2355207,262895,38584320,35793056,0.3635042485856405,0.019854051526478,0.14813142217377345,512,0,1,1,14826.241410531095,0.936408919510108,0.0062180628820597,2196.232225633664
512,1536,378.0309336960168,1839264,153720,53268480,41255344,1.1958307459483701,0.3666577700278708,1.0,512,0,1,1,758.4691213037104,0.7744578373479742,0.0981581109642461,2196.232225633664
512,2048,208.9556952180272,1609867,120580,82636800,52340928,1.2627395309267448,0.3816654081324647,1.0,512,0,1,1,454.67162307151017,0.7236311738990148,0.1100992660452534,2196.232225633664
512,256,3462.224261052137,2282327,179676,37535744,35250064,0.45272382834995956,0.0643190766691494,0.22454043595781428,512,0,1,1,9781.009893675822,0.924126192789119,0.0385209452325604,2196.232225633664
512,512,2191.823697786453,2351511,218368,53010432,49046896,0.6179492336957328,0.0699664097235363,0.5736722083695449,512,0,1,1,3828.374799392247,0.9206781383918994,0.0443230298913998,2196.232225633664
