cpu,memory,duration_std,userDiff,sysDiff,heapTotal,heapUsed,avg_cpu_util,cpu_util_std,slo_preservation,total_cpu_shares,cpu_shares_others,num_containers,arrival_rate,latency,memory_util,memory_util_std,slo_duration
1024,1024,139.24192023343053,3989,8652,30523392,24901736,0.23002727758548489,0.1953594949633954,1.0,1024,0,1,1,236.65990460677932,0.678748058660244,0.0843987397167336,286.8640101833333
1024,128,156.01163147690949,13443,32,24616960,21375656,0.12299731240531729,0.0676272221619631,0.8234742304885297,1024,0,1,1,348.358211541301,0.862981636665331,0.0141195845872444,286.8640101833333
1024,1536,125.70329000357664,19729,8724,34574336,14879640,0.18025084349848408,0.1841320286272346,1.0,1024,0,1,1,242.74153575746698,0.5252961061068537,0.0494432971237088,286.8640101833333
1024,2048,111.93613167768602,11203,677,39043072,24619816,0.14019257982789546,0.1682984255296391,1.0,1024,0,1,1,269.62754231667657,0.5457066663663174,0.0582199775943601,286.8640101833333
1024,256,136.84777182263144,23481,730,25403392,20850344,0.12392671286915756,0.0655441505319137,0.9401159371362832,1024,0,1,1,305.1368441398396,0.8597906441016772,0.0166567866447091,286.8640101833333
1024,512,156.59091051041344,13328,18,25141248,20873392,0.12071844062196663,0.0691503619635457,1.0,1024,0,1,1,278.97624764544184,0.8654818997504137,0.016086988014577,286.8640101833333
128,1024,146.3724524868137,7345,3265,30785536,24590680,0.15084353743112602,0.095430042703864,0.9968149461975707,128,0,1,1,287.78060689960427,0.6549989012163707,0.0568330243571969,286.8640101833333
128,128,142.79977193550226,12500,22,25141248,20992168,0.11559938602849501,0.0699589604952936,0.8954336353137456,128,0,1,1,320.3632283511672,0.8638931911667607,0.0148332107462181,286.8640101833333
128,1536,118.18387485329636,47563,21931,34574336,14740232,0.13726857184506192,0.1182857490620184,0.9846923162485881,128,0,1,1,291.3234981625608,0.52609188976885,0.0520929609104805,286.8640101833333
128,2048,144.8668686246535,58593,8634,34312192,14760632,0.09597716974576033,0.0461888837980945,0.8898107793222304,128,0,1,1,322.3876545998216,0.5519176390712666,0.0638690613871146,286.8640101833333
128,256,123.66287886643804,25514,162,25403392,20846032,0.1041790145101721,0.0574018228865082,0.8997168906359355,128,0,1,1,318.83808470081385,0.8643999822949047,0.0170001820607951,286.8640101833333
128,512,154.56704825729386,14953,1244,25141248,20978896,0.18394368835330446,0.1309058992447801,1.0,128,0,1,1,243.44135110676325,0.8582804404017439,0.016790679302725,286.8640101833333
1536,1024,116.32493041885604,13454,24,30785536,24594960,0.15007026852659616,0.067915252459528,1.0,1536,0,1,1,251.17073345521538,0.6749134312132355,0.0825482040268581,286.8640101833333
1536,128,115.87627662213777,12619,194,24616960,21247528,0.130683242837545,0.1249916711982486,0.797994720929486,1536,0,1,1,359.48108760569323,0.8639209645957449,0.0160556220148764,286.8640101833333
1536,1536,143.03336315978646,28076,4009,34312192,14876728,0.10676498678204839,0.0710736314528512,0.870987932413484,1536,0,1,1,329.3547470726039,0.5299392814579965,0.0488891041701859,286.8640101833333
1536,2048,114.91613108907514,17141,13945,34574336,14862504,0.07353032493236977,0.0299526771439005,0.8430854202576065,1536,0,1,1,340.25497688678024,0.551026634322059,0.0636696870256274,286.8640101833333
1536,256,149.6416088328813,29608,0,25141248,20834056,0.09688000195778872,0.0454210858952274,0.8090445102925722,1536,0,1,1,354.5713573652401,0.8624414807819154,0.0179610943164213,286.8640101833333
1536,512,103.26704027953735,9994,3660,24616960,21264768,0.08963225505478219,0.0773883091648203,0.7855624521545831,1536,0,1,1,365.17021580721394,0.8649717229098253,0.0151475417236441,286.8640101833333
2048,1024,150.96267637969484,20602,12969,25792512,14735728,0.17367377765212905,0.1384525869259631,0.8847888070008333,2048,0,1,1,324.2174945179467,0.655201014337537,0.0489111805098737,286.8640101833333
2048,128,133.1705416869159,6560,7554,24879104,21274408,0.14728028401494556,0.1513728376143556,0.8931449216396413,2048,0,1,1,321.18416981726375,0.8723286513853097,0.0112309568634319,286.8640101833333
2048,1536,134.6422277140061,6810,4533,39567360,24477616,0.09967690585830315,0.0483603646303289,0.9165728559749082,2048,0,1,1,312.97458604991283,0.5284307724932723,0.0523384972550289,286.8640101833333
2048,2048,146.96512694649326,62451,5043,34050048,14765504,0.11114681862271625,0.0565289555122426,0.9793049565668057,2048,0,1,1,292.92612914878487,0.5526648715243694,0.0632575101174927,286.8640101833333
2048,256,149.9645964727269,11133,527,25141248,21052176,0.13738730236972668,0.1357332564097458,1.0,2048,0,1,1,280.6078208082302,0.8626064343577065,0.0140103854869538,286.8640101833333
2048,512,121.93605233377052,12559,20,25403392,20860656,0.11912541347822872,0.0567180029135028,1.0,2048,0,1,1,284.5360345726405,0.8644560858058196,0.0172739442124741,286.8640101833333
256,1024,153.09313101495056,9574,3489,30785536,24686824,0.13119740716609254,0.0793909535524599,0.8844859868423214,256,0,1,1,324.3284963817894,0.6475765790266137,0.0662401669244096,286.8640101833333
256,128,106.65947953050022,11887,27,25141248,20854568,0.09138818102460647,0.0562303966421892,0.7553356772489672,256,0,1,1,379.7834774972236,0.8587268787854736,0.0145441462034776,286.8640101833333
256,1536,150.83482248750607,23694,3191,34836480,14860536,0.14255376082481513,0.1383529921787069,0.8735744094136272,256,0,1,1,328.37959433345367,0.5207626666887204,0.0494917971669794,286.8640101833333
256,2048,123.9411607608838,17391,12271,34574336,14862184,0.10311440121118824,0.0473064806369643,1.0,256,0,1,1,271.4446113194013,0.550461671917575,0.0632430104950492,286.8640101833333
256,256,146.9586417818215,10968,542,25141248,21005888,0.11392987156923068,0.0796455649928367,0.8163303361603934,256,0,1,1,351.40677428771914,0.860653313824025,0.0159831960161945,286.8640101833333
256,512,144.0066674906841,10731,26,25141248,21009144,0.1235589583716595,0.103589989542261,0.878161321530313,256,0,1,1,326.6643646789573,0.8593603175384608,0.0138685638057258,286.8640101833333
512,1024,125.38051940200636,62708,11821,25792512,14600824,0.21996293829978933,0.2131268499132827,1.0,512,0,1,1,271.3857717920448,0.6629320652462654,0.0628162224303058,286.8640101833333
512,128,114.11953872547768,16379,121,25403392,20925040,0.14692655761932266,0.0952388964299809,0.9766611412651167,512,0,1,1,293.7190782585497,0.8639520480701736,0.018508662728683,286.8640101833333
512,1536,127.96745729002537,21289,6867,34050048,14857664,0.14520307124898174,0.1014912284534831,1.0,512,0,1,1,265.95751027102864,0.5258650713631897,0.0491871020862836,286.8640101833333
512,2048,146.2372956944491,8259,3415,39567360,24163096,0.13128880336148385,0.1223711457189782,1.0,512,0,1,1,279.1679793310734,0.5401114621688233,0.053504255433105,286.8640101833333
512,256,154.82335056853108,5843,4290,25141248,20838768,0.0839712963402086,0.0537244211275168,0.7194921197251819,512,0,1,1,398.70347752092715,0.8648756529015603,0.0158680412453189,286.8640101833333
512,512,146.38542098617145,9804,213,25403392,20855664,0.13399071988290276,0.1330275897267826,0.9691225407503767,512,0,1,1,296.0038572224508,0.8664929452528252,0.0187737546635661,286.8640101833333
