cpu,memory,duration_std,userDiff,sysDiff,heapTotal,heapUsed,avg_cpu_util,cpu_util_std,slo_preservation,total_cpu_shares,cpu_shares_others,num_containers,arrival_rate,latency,memory_util,memory_util_std,slo_duration
1024,1024,81.9826916488171,233218,48459,36810752,30307616,0.9744119194123275,0.2027341193191673,0.7513758205333686,1024,0,1,1,245.01876593435594,0.7379355328009096,0.1429209060382453,184.10117630000008
1024,128,349.1920770388923,282550,36659,33267712,30037760,1.1522047046522066,0.5020427104864748,0.5294610799772308,1024,0,1,1,347.7142763882045,0.8674831379735493,0.0530500099860166,184.10117630000008
1024,1536,52.84214160934811,251631,53948,50835456,29975456,1.261487207684322,0.2268853998735236,1.0,1024,0,1,1,144.71772314555267,0.713422667187794,0.1244979752354948,184.10117630000008
1024,2048,28.81319545967564,287780,36819,50311168,31034272,1.442342902972961,0.2034395946916653,1.0,1024,0,1,1,103.3812932542355,0.77178061376834,0.1103313018932126,184.10117630000008
1024,256,58.37161953290648,259958,56146,33267712,29954000,1.014170441420347,0.1342945742222989,0.6904599502227619,1024,0,1,1,266.63556118005664,0.8859933294064252,0.0491466614897354,184.10117630000008
1024,512,55.82881366095595,222457,51474,33005568,29758608,1.059639595572588,0.1849168039024142,0.7428896325331806,1024,0,1,1,247.81766797879942,0.8748851430256075,0.0630531592431833,184.10117630000008
128,1024,79.57137870241894,249218,32242,36810752,30275048,1.044945220750669,0.2656619215902011,0.8462699655490112,128,0,1,1,217.54426340838629,0.7933731710855542,0.0935378553295272,184.10117630000008
128,128,130.69642818215672,240590,44351,32481280,29891856,0.7537906535027608,0.178781964738534,0.4592466467561043,128,0,1,1,400.87647367792783,0.8444387839958472,0.0779571862022153,184.10117630000008
128,1536,77.65846108386171,242063,60583,50573312,29933304,1.271252513453875,0.306093941234472,1.0,128,0,1,1,165.31360374477774,0.7147354041113354,0.1311517379763343,184.10117630000008
128,2048,26.257542355748456,202180,39966,68186112,51629112,1.385831812824235,0.2327669974252946,1.0,128,0,1,1,115.92535926337797,0.6866123396161578,0.1397327772231029,184.10117630000008
128,256,45.85972688090018,266479,36440,33005568,29919856,0.9805704663150088,0.1531832692613905,0.6767704120493309,128,0,1,1,272.02899686841016,0.8654880378316745,0.0695743375242337,184.10117630000008
128,512,69.33305949229653,284758,48893,33005568,30437624,0.7910096438832813,0.1153337712686785,0.5261026047548466,128,0,1,1,349.93397606496853,0.8768019324823688,0.0704978766108997,184.10117630000008
1536,1024,94.79070083195504,331224,27280,39956480,30882888,0.8827695700302265,0.1272289492729526,0.6155070415703275,1536,0,1,1,299.1049067940919,0.7527025935234279,0.1259760030570986,184.10117630000008
1536,128,470.1953335941569,235517,29270,33529856,29679552,0.9547630110746469,0.5298079188274023,0.3490037774071647,1536,0,1,1,527.50482435386,0.8812791596858266,0.0472269870732508,184.10117630000008
1536,1536,48.45356768809803,193981,49338,63991808,52850648,1.2149103432358417,0.2087358791298302,1.0,1536,0,1,1,141.97627213518354,0.7553049671771891,0.1102597750526504,184.10117630000008
1536,2048,30.18410717699979,242523,43767,50049024,30006696,1.4466806194157225,0.2619851264245049,1.0,1536,0,1,1,96.64336579955288,0.7470413727902121,0.1072134848927894,184.10117630000008
1536,256,54.569593149611215,232636,30202,33267712,30175256,1.0284084235878475,0.1657220694358474,0.669355675657417,1536,0,1,1,275.0423773118567,0.8673386602038148,0.0551375549238375,184.10117630000008
1536,512,63.42741812667023,255930,23312,32481280,29720464,1.0361991201062648,0.1899723689086793,0.717608025708411,1536,0,1,1,256.5483797624175,0.8838064924755304,0.0642959879829373,184.10117630000008
2048,1024,139.1331183281538,258056,47414,38907904,30488088,0.9951133293071815,0.2894236171456455,0.6531887685467226,2048,0,1,1,281.8498804099252,0.7489232657960584,0.141513081224967,184.10117630000008
2048,128,169.84441056285348,294714,28879,33005568,29845080,1.1864636754441145,0.4226042511657703,0.663833696622932,2048,0,1,1,277.3302669577686,0.8874579343682403,0.0277005121870508,184.10117630000008
2048,1536,41.38661194414756,225199,39574,49524736,30285040,1.261949266720198,0.2580656457991134,1.0,2048,0,1,1,133.63895756803993,0.7025047326763136,0.1316780396434703,184.10117630000008
2048,2048,26.389843333932184,220150,43816,68972544,51534344,1.4396352066379108,0.2706723775976387,1.0,2048,0,1,1,102.92068254784752,0.7247186067046509,0.1330782969869946,184.10117630000008
2048,256,44.6317817742511,241111,19540,33267712,29993576,1.2494601666389908,0.232027111924798,0.9636458853600328,2048,0,1,1,191.0465027630114,0.888491693302688,0.0456680043021207,184.10117630000008
2048,512,48.67962036661361,241752,40626,33267712,29971144,0.9496737993738246,0.1281790323584296,0.7327653395644839,2048,0,1,1,251.24165453761756,0.8669797725824807,0.1001411538395408,184.10117630000008
256,1024,55.85587944824982,258265,17344,37859328,30484496,0.9945286734643125,0.1626888317492166,0.8242737824840148,256,0,1,1,223.34954745885096,0.7923978688268115,0.0763266462599416,184.10117630000008
256,128,105.51769189547548,253040,45855,32219136,29780496,0.8721067127477046,0.1534176093888178,0.5646187686728849,256,0,1,1,326.0627993871386,0.8797977578343781,0.0617541706386627,184.10117630000008
256,1536,48.02152225202293,187375,36132,39555072,15659304,1.1962291849387041,0.2272852884840661,1.0,256,0,1,1,151.77851922369385,0.7168577189532709,0.1306231543295183,184.10117630000008
256,2048,27.35465590419823,278940,23895,50573312,30421128,1.418655557368125,0.2827447659458794,1.0,256,0,1,1,100.0025932424338,0.7287376013720691,0.108974780268571,184.10117630000008
256,256,44.032781219531486,250825,33321,33267712,29889912,1.225400031911472,0.2357621714166615,0.9890639907941455,256,0,1,1,186.1367697272857,0.8824631595023339,0.0613004034902024,184.10117630000008
256,512,55.80578705529221,298308,40279,33005568,30275560,1.0653782624888763,0.1734398730019588,0.7003223606211345,256,0,1,1,262.88061991440037,0.8744703851865626,0.0638691528533127,184.10117630000008
512,1024,94.97254005320433,287553,53590,39432192,31621744,0.9882191587910826,0.223712205938229,0.7135305931858014,512,0,1,1,258.01441179700146,0.7863978140994374,0.0880349922008551,184.10117630000008
512,128,207.5260797445507,304352,41376,32743424,29973576,0.8905744122023024,0.2390983487890708,0.49028829837315696,512,0,1,1,375.4957581302118,0.8875699056850852,0.0581119318500227,184.10117630000008
512,1536,47.13790673031552,200434,24919,38244352,15637464,1.2573614815130745,0.2954848472391533,1.0,512,0,1,1,154.42144575118306,0.7114511742956233,0.1430106190798257,184.10117630000008
512,2048,27.833268471451547,289073,25516,50311168,31168880,1.4218039056148173,0.2099211372191232,1.0,512,0,1,1,106.04576870253061,0.640212526807997,0.1455106364538401,184.10117630000008
512,256,49.171743034529136,278183,25784,33005568,30456800,1.0438454478080184,0.1833669715312966,0.7105662645197893,512,0,1,1,259.09079208033927,0.8785043170948554,0.0574507583817141,184.10117630000008
512,512,50.63485344005444,254393,31073,33267712,30020232,1.0354580196502048,0.133612603205039,0.7197904136108227,512,0,1,1,255.7705310028485,0.8886617744920144,0.0356846782374195,184.10117630000008
