cpu,memory,duration_std,userDiff,sysDiff,heapTotal,heapUsed,avg_cpu_util,cpu_util_std,slo_preservation,total_cpu_shares,cpu_shares_others,num_containers,arrival_rate,latency,memory_util,memory_util_std,slo_duration
1024,1024,141.62360214910493,90818,31247,39952384,30131584,0.6688597287885625,0.1820874942228683,0.5873976802184034,1024,0,1,1,630.8403702250841,0.6273785711869132,0.0670499308128456,370.5541700583332
1024,128,129.84001659897524,57294,828,31059968,26022472,0.7027687477352328,0.22782975688846,0.6537283602390715,1024,0,1,1,566.832024730914,0.8442411541748547,0.0485803936734176,370.5541700583332
1024,1536,166.3958800989196,83989,13650,35098624,14587888,0.6459224903605144,0.2097383111511001,0.5713886460336667,1024,0,1,1,648.5151089902823,0.5121044055021228,0.0982621515042813,370.5541700583332
1024,2048,159.39817110972373,109670,53009,64544768,44841928,0.6551268462630018,0.1760168753824507,0.5769452093716526,1024,0,1,1,642.2692554495798,0.5615436497969173,0.1203286967770068,370.5541700583332
1024,256,144.49914227129668,133573,39592,19103744,14267416,0.6670116992425291,0.202973696468777,0.5248418835055318,1024,0,1,1,706.0301048828692,0.8310931743894594,0.0534829284273345,370.5541700583332
1024,512,136.8029777777448,75064,22495,51900416,47138752,0.6687980021526352,0.195526558959879,0.5660965741124176,1024,0,1,1,654.5776586606707,0.8401358271262002,0.0473061278642427,370.5541700583332
128,1024,158.16034858756348,162670,51914,26054656,14356888,0.6396009678108178,0.1921584343700729,0.5063622676843682,128,0,1,1,731.7965687943231,0.6504060409997143,0.080048146877838,370.5541700583332
128,128,150.54042295695564,49990,4984,32268288,28182472,0.6061281335086665,0.1990465793107413,0.5193902596631563,128,0,1,1,713.4407377963753,0.8280875886398699,0.0432630446121312,370.5541700583332
128,1536,134.77644076115516,180370,42541,34836480,14489320,0.7127815682778841,0.2642583399384218,0.592671335307511,128,0,1,1,625.2270828419076,0.5324747541860282,0.1081264224739979,370.5541700583332
128,2048,136.19856256470962,73228,18305,35098624,14597984,0.5340136793353869,0.1696183735643017,0.6280479772265688,128,0,1,1,590.0093360616868,0.5709152554407797,0.1128657550705755,370.5541700583332
128,256,131.76609622591369,93191,34071,28106752,23144040,0.5742397676784887,0.2023771956482365,0.5296449172058766,128,0,1,1,699.6275391694098,0.8303375422582994,0.0415149983649747,370.5541700583332
128,512,141.80976370594746,17071,20641,32403456,28271528,0.615444275835436,0.209073405650066,0.5285668512376183,128,0,1,1,701.0545008463837,0.8488381439126769,0.0489423824921598,370.5541700583332
1536,1024,190.27297306354868,121662,16200,48697344,39106440,0.6401284165997798,0.1905171885002879,0.5375100803317557,1536,0,1,1,689.3901781890752,0.6629802094248716,0.0906212806451788,370.5541700583332
1536,128,152.34177778167805,27937,7230,32587776,28427272,0.6654385476899876,0.2031854733682791,0.526694870060203,1536,0,1,1,703.546191775093,0.8523310280276805,0.0551060980708585,370.5541700583332
1536,1536,132.5496828145366,79661,11024,34574336,14589336,0.641418741679005,0.2623742869463081,0.582990371681423,1536,0,1,1,635.6094166522938,0.5345991547098276,0.1124036248100576,370.5541700583332
1536,2048,125.64732288002634,106186,59783,60428288,41932616,0.567140695401539,0.1766773975941934,0.6323963720447718,1536,0,1,1,585.9523970072667,0.6021326428486893,0.1283410839336517,370.5541700583332
1536,256,100.0053988660311,98725,15765,19365888,14277464,0.6982515092419671,0.2313982843652765,0.5777826432328613,1536,0,1,1,641.3383551727605,0.8185754652449365,0.0510567412249672,370.5541700583332
1536,512,152.83600170413257,37208,4914,32403456,28256056,0.6449355795016002,0.2409877911620581,0.5776385150959082,1536,0,1,1,641.4983772278555,0.8501265391984252,0.0466601635867906,370.5541700583332
2048,1024,152.6627408849049,72443,20961,26054656,14455736,0.6092896634940892,0.2161523347138621,0.5739095393265025,2048,0,1,1,645.6665112993035,0.649187503870947,0.0725498221621,370.5541700583332
2048,128,122.50018786937282,152974,41029,19103744,14214008,0.7060194348608105,0.2760237690053349,0.5522359917524803,2048,0,1,1,671.0069165944922,0.833362705650103,0.0479055678966607,370.5541700583332
2048,1536,163.68735143250248,42364,11649,42467328,27314304,0.6116939707421702,0.1874880186264558,0.6027113161313472,2048,0,1,1,614.812033788958,0.5319625973375584,0.1038452943610002,370.5541700583332
2048,2048,136.04689526138722,85143,25835,35098624,14593928,0.5831983248639753,0.1715799457218858,0.6526422114088282,2048,0,1,1,567.7753654003398,0.4996313851087956,0.0931620807292013,370.5541700583332
2048,256,163.00335695724198,94539,19643,19103744,14274288,0.6514399170789161,0.2159012605411644,0.5677644396244425,2048,0,1,1,652.6547705302619,0.8467393923960428,0.0486641805540132,370.5541700583332
2048,512,142.10044322724025,24135,8079,32403456,28243992,0.7823030391700718,0.2424719675345311,0.5964330967448406,2048,0,1,1,621.2837149392124,0.843691116058236,0.0506082745666916,370.5541700583332
256,1024,153.09033741138083,123459,18675,49221632,39099344,0.6336841582617642,0.171374507313775,0.5375677300385685,256,0,1,1,689.316246776471,0.7163303155333176,0.0702982262698366,370.5541700583332
256,128,150.43933441271307,20776,15875,32587776,28466192,0.7287497287157448,0.2592332337677665,0.5187818314503646,256,0,1,1,714.2774623050511,0.8490357674509357,0.0534562865257408,370.5541700583332
256,1536,175.10754009806698,110996,53628,34574336,14498672,0.7053728161254192,0.2544841757749527,0.5327429695652686,256,0,1,1,695.5590054256644,0.5083493151517651,0.1046390026593057,370.5541700583332
256,2048,143.35488225030622,65605,26664,34836480,14597368,0.5778094467250888,0.1432551857971284,0.6096049151745031,256,0,1,1,607.8595510540788,0.503146020532719,0.0907436276847654,370.5541700583332
256,256,135.05181294906524,72407,30111,27844608,23144144,0.7028923341989768,0.3002309336651982,0.5548483243269478,256,0,1,1,667.8476870374072,0.8371544571830043,0.0468749899958988,370.5541700583332
256,512,117.66063006495024,151005,38480,37998592,33009904,0.6333183131359587,0.2329848637959831,0.5706228768029311,256,0,1,1,649.3854086861415,0.8561495073895615,0.0437766750193652,370.5541700583332
512,1024,167.40770549564098,144071,44736,26054656,14359536,0.6738053233388129,0.2471280062098754,0.5522178830740107,512,0,1,1,671.0289206781628,0.6390690066482237,0.0775380621724303,370.5541700583332
512,128,128.41969526134577,89424,22303,19365888,14281936,0.6052257240029171,0.2160613133898216,0.45184247387674537,512,0,1,1,820.0959216583385,0.8241234989327657,0.0569834061287814,370.5541700583332
512,1536,164.46717672562613,63314,28865,34574336,14594320,0.5965283175800961,0.124305027347063,0.5678632280185676,512,0,1,1,652.5412313653405,0.5472711220425961,0.1076801880355712,370.5541700583332
512,2048,170.38149096501084,52204,18169,45641728,25595080,0.6315807641322932,0.1818209988939768,0.6017960544818846,512,0,1,1,615.7470912257165,0.5139975524178556,0.0839808588752845,370.5541700583332
512,256,144.54076043399306,47319,4932,30797824,26003992,0.6859507006047427,0.2709940597499963,0.4973728034486556,512,0,1,1,745.0229837437945,0.8539127115303156,0.0505415224928077,370.5541700583332
512,512,145.99949553552025,24740,20231,32403456,28332496,0.6756012320001582,0.2022535113276899,0.5368499872807947,512,0,1,1,690.2378296313866,0.8482351417774089,0.0524307081594434,370.5541700583332
