cpu,memory,duration_std,userDiff,sysDiff,heapTotal,heapUsed,avg_cpu_util,cpu_util_std,slo_preservation,total_cpu_shares,cpu_shares_others,num_containers,arrival_rate,latency,memory_util,memory_util_std,slo_duration
1024,1024,314.9840943534964,1583580,113457,49192960,40343432,1.0827022911925004,0.2154499672563706,0.8338270932699293,1024,0,1,1,310.12345259645093,0.8313152250687267,0.0217524306135879,258.5893370333334
1024,128,856.1424500675993,1742133,198461,43659264,40093888,0.7899987017893377,0.2457356808125907,0.3049914541105553,1024,0,1,1,847.8576482985594,0.9246791681414857,0.0127882508227584,258.5893370333334
1024,1536,184.9318065213216,1281873,118696,56598528,38926640,1.0991504758313144,0.1836946462110815,1.0,1024,0,1,1,173.98126310450903,0.7507168533747959,0.0377235628142898,258.5893370333334
1024,2048,187.97873027305337,1317915,163862,84254720,66448712,1.176649446999603,0.1526296244683755,1.0,1024,0,1,1,184.70018851228346,0.7467929526082223,0.0338612289553846,258.5893370333334
1024,256,365.5360683803268,1919687,191159,62341120,57963360,1.2731224133845593,0.2837758946332407,0.7299597161826858,1024,0,1,1,354.2515173106027,0.9303924557990092,0.0103634413469476,258.5893370333334
1024,512,328.2634224586827,1540937,164038,53202944,48054808,1.2792006063005916,0.2538703462640108,0.7430329966178291,1024,0,1,1,348.0186454846446,0.919149447093644,0.0177289804989977,258.5893370333334
128,1024,210.25965625703392,1589606,134432,73670656,61839672,1.3271622099517923,0.3511803294269826,1.0,128,0,1,1,196.9093647247077,0.847461472458987,0.0284377469067602,258.5893370333334
128,128,606.5803197801246,1949367,143754,49332224,45313640,1.019133262305309,0.1440825178862478,0.4384069994764348,128,0,1,1,589.8385229755736,0.9233453614868374,0.0137530005375839,258.5893370333334
128,1536,186.08151433735196,1358351,125888,55812096,37545512,1.1318159480890269,0.2272909054686325,1.0,128,0,1,1,174.55586745255218,0.747126822469883,0.0384053969172217,258.5893370333334
128,2048,207.79425492081447,1495075,95917,72294400,54517736,1.155389876140011,0.282295802485896,1.0,128,0,1,1,175.36481299409365,0.7468150760876666,0.04719505582123,258.5893370333334
128,256,370.48222044161184,1812431,91916,54935552,51421152,1.272549919704882,0.2796501013890697,0.7664870589523484,128,0,1,1,337.3694754700478,0.9260629351406368,0.01522143250588,258.5893370333334
128,512,332.3832264180596,1713468,128244,61816832,58051816,1.2276159020446282,0.1907501565954074,0.6509170488975741,128,0,1,1,397.2692641424792,0.9246037483894778,0.0123080561216696,258.5893370333334
1536,1024,210.899755978761,148717,42280,103211008,91114520,1.2219658250323515,0.3130902885158793,1.0,1536,0,1,1,198.61600556811118,0.8490896126961023,0.0251951447166596,258.5893370333334
1536,128,586.8310432846059,2118851,201125,66981888,62213536,0.9042112822560421,0.1487532283672826,0.4235021925907384,1536,0,1,1,610.5973984489555,0.9294219181947314,0.0110278327708942,258.5893370333334
1536,1536,192.84380556467573,186132,24320,65384448,47183536,1.1543090784857293,0.1732547386030923,1.0,1536,0,1,1,175.101552914326,0.7299168071594698,0.040013275438545,258.5893370333334
1536,2048,188.12055521073336,1393402,80592,63025152,44913560,1.1620132726263859,0.2413727785695975,1.0,1536,0,1,1,198.02048593466856,0.7730270947009015,0.0532662204791255,258.5893370333334
1536,256,333.6737985135628,308806,30704,61554688,56813360,1.1399417659650555,0.2007794505693344,0.7877996386698867,1536,0,1,1,328.242517945214,0.9302993838977412,0.0125375844969788,258.5893370333334
1536,512,350.90938509126585,1919349,171084,62341120,57698888,1.2285665970655584,0.1812808428344962,0.6680390850632962,1536,0,1,1,387.08713728753196,0.9281040205304631,0.0109875359947215,258.5893370333334
2048,1024,199.25488028820288,220568,32658,80465920,68954824,1.2111759597693286,0.2371378873963536,1.0,2048,0,1,1,202.08685768570953,0.8439638324780578,0.0219705682653624,258.5893370333334
2048,128,500.7739759947098,1765497,169812,61554688,57168264,1.2981398328897114,0.1126945169763467,0.2083060072886619,2048,0,1,1,1241.3916449130097,0.9340170156553754,0.0085306426280909,258.5893370333334
2048,1536,209.921679242286,39587,7938,61161472,45785680,1.1263549321714788,0.2178917846802902,1.0,2048,0,1,1,161.47774169993986,0.7624989383511489,0.0360281734088071,258.5893370333334
2048,2048,207.08982922115285,184954,46894,85565440,65695448,1.1598976297826025,0.204623187146425,1.0,2048,0,1,1,180.93705626739973,0.7633315824973136,0.0378632026170332,258.5893370333334
2048,256,540.1155039449983,325190,45079,75481088,70102824,0.9807435242126495,0.1374233540210596,0.4350342325252012,2048,0,1,1,594.4114685695533,0.9272559429382004,0.0107852838096014,258.5893370333334
2048,512,548.0477034410784,1854648,131636,62574592,59076856,0.9993704612732153,0.1653145257888624,0.47688796149775214,2048,0,1,1,542.2433735194053,0.9271950213688992,0.0122805828150321,258.5893370333334
256,1024,355.8557108411068,1869382,160308,61448192,49925376,1.1016910920459067,0.2565518712967323,0.8679713162682964,256,0,1,1,297.9238278807378,0.8418320664170432,0.0259017494112147,258.5893370333334
256,128,993.7514858869092,1603468,195094,43319296,40124408,0.80696337080487,0.163069339205914,0.2966867666238137,256,0,1,1,871.5903981022981,0.9267660826540932,0.0113218291598323,258.5893370333334
256,1536,220.00399478358355,179339,33945,86724608,66642672,1.1183800581612093,0.2470485622406786,1.0,256,0,1,1,169.0387025887913,0.747797507705932,0.0365506696588991,258.5893370333334
256,2048,205.82068203102264,1485630,137160,63811584,45563032,1.151122981512736,0.1908676298527694,1.0,256,0,1,1,186.06760228401734,0.7458098777452321,0.0421858483888611,258.5893370333334
256,256,343.8729214664271,1792734,130316,62050304,58681704,1.238029595732353,0.2525252903763546,0.8188924524376635,256,0,1,1,315.7793630452565,0.926449555449888,0.0131901605305836,258.5893370333334
256,512,340.54791610874577,1711045,123132,62312448,58576360,1.096897700262426,0.2310767909998845,0.7442199032588154,256,0,1,1,347.46361378003144,0.9235351834316924,0.0126051618490742,258.5893370333334
512,1024,193.14055475359032,184698,28113,78860288,68611624,1.205058062624183,0.3301056223387151,1.0,512,0,1,1,182.42182775600156,0.8459008611219507,0.0266186094191968,258.5893370333334
512,128,631.3188391085954,1791995,150201,44965888,40415352,0.9325087320231032,0.1527408694343437,0.42270373783836535,512,0,1,1,611.7507698316439,0.9231413200209532,0.0130978817287613,258.5893370333334
512,1536,196.76331030159028,1421545,151073,73080832,54789312,1.1772132711274788,0.3074938555660078,1.0,512,0,1,1,167.22217432337908,0.7434442242049812,0.039298573404897,258.5893370333334
512,2048,189.66318147862992,1330414,117731,58630144,43325008,1.1438118725945976,0.3084826140699437,1.0,512,0,1,1,154.55397507447992,0.744625075412501,0.0407792101224255,258.5893370333334
512,256,361.8695271957407,1660065,98448,43659264,40442392,1.3324736053137198,0.2216550486244346,0.7549975549386247,512,0,1,1,342.5035423516764,0.9297407322380336,0.0128789701071849,258.5893370333334
512,512,364.1304171815503,1750866,153147,61554688,57216744,1.162428192346006,0.2372463135256813,0.8020860002865788,512,0,1,1,322.3960235447839,0.9333432463156038,0.0123794504424686,258.5893370333334
