cpu,memory,duration_std,userDiff,sysDiff,heapTotal,heapUsed,avg_cpu_util,cpu_util_std,slo_preservation,total_cpu_shares,cpu_shares_others,num_containers,arrival_rate,latency,memory_util,memory_util_std,slo_duration
1024,1024,314.9840943534964,1583580,113457,49192960,40343432,1.0480324182976086,0.2154499672563706,0.4842759632692294,1024,0,1,1,533.9710343822551,0.8313152250687267,0.0217524306135879,258.5893370333334
1024,128,856.1424500675993,1742133,198461,43659264,40093888,0.8624444865100318,0.2457356808125907,0.199776174898425,1024,0,1,1,1294.3952759372412,0.9246791681414857,0.0127882508227584,258.5893370333334
1024,1536,184.9318065213216,1281873,118696,56598528,38926640,1.0572208939535919,0.1836946462110815,0.8577643037203972,1024,0,1,1,301.46898852254515,0.7507168533747959,0.0377235628142898,258.5893370333334
1024,2048,187.97873027305337,1317915,163862,84254720,66448712,1.0989947229721948,0.1526296244683755,0.7845904840378178,1024,0,1,1,329.5851049614173,0.7467929526082223,0.0338612289553846,258.5893370333334
1024,256,365.5360683803268,1919687,191159,62341120,57963360,1.1477336947332324,0.2837758946332407,0.3948399713583756,1024,0,1,1,654.9218817530136,0.9303924557990092,0.0103634413469476,258.5893370333334
1024,512,328.2634224586827,1540937,164038,53202944,48054808,1.150691140647222,0.2538703462640108,0.4010324020511517,1024,0,1,1,644.8090870232234,0.919149447093644,0.0177289804989977,258.5893370333334
128,1024,210.25965625703392,1589606,134432,73670656,61839672,1.1735815911801029,0.3511803294269826,0.6967625078575201,128,0,1,1,371.1298098235388,0.847461472458987,0.0284377469067602,258.5893370333334
128,128,606.5803197801246,1949367,143754,49332224,45313640,1.0113927650781365,0.1440825178862478,0.2610463325044026,128,0,1,1,990.5878950778679,0.9233453614868374,0.0137530005375839,258.5893370333334
128,1536,186.08151433735196,1358351,125888,55812096,37545512,1.0751283243332834,0.2272909054686325,0.8443293882822587,128,0,1,1,306.26594386276076,0.747126822469883,0.0384053969172217,258.5893370333334
128,2048,207.79425492081447,1495075,95917,72294400,54517736,1.0877780006259716,0.282295802485896,0.8329733755067914,128,0,1,1,310.44129937046836,0.7468150760876666,0.04719505582123,258.5893370333334
128,256,370.48222044161184,1812431,91916,54935552,51421152,1.147454470215937,0.2796501013890697,0.4146834580893328,128,0,1,1,623.5824747502395,0.9260629351406368,0.01522143250588,258.5893370333334
128,512,332.3832264180596,1713468,128244,61816832,58051816,1.1251729955126784,0.1907501565954074,0.3579593346022316,128,0,1,1,722.3986415123961,0.9246037483894778,0.0123080561216696,258.5893370333334
1536,1024,210.899755978761,148717,42280,103211008,91114520,1.122319220354124,0.3130902885158793,0.717472005205589,1536,0,1,1,360.41731964055595,0.8490896126961023,0.0251951447166596,258.5893370333334
1536,128,586.8310432846059,2118851,201125,66981888,62213536,0.9402369177466346,0.1487532283672826,0.2642252341025554,1536,0,1,1,978.6701028447778,0.9294219181947314,0.0110278327708942,258.5893370333334
1536,1536,192.84380556467573,186132,24320,65384448,47183536,1.087202963514951,0.1732547386030923,0.8345654117781088,1536,0,1,1,309.84909437162986,0.7299168071594698,0.040013275438545,258.5893370333334
1536,2048,188.12055521073336,1393402,80592,63025152,44913560,1.0912917720728759,0.2413727785695975,0.7358368504423528,1536,0,1,1,351.4221078733429,0.7730270947009015,0.0532662204791255,258.5893370333334
1536,256,333.6737985135628,308806,30704,61554688,56813360,1.0795141209756371,0.2007794505693344,0.44762330489242763,1536,0,1,1,577.6940883260698,0.9302993838977412,0.0125375844969788,258.5893370333334
1536,512,350.90938509126585,1919349,171084,62341120,57698888,1.125652016691495,0.1812808428344962,0.3672472677311999,1536,0,1,1,704.1286886376598,0.9281040205304631,0.0109875359947215,258.5893370333334
2048,1024,199.25488028820288,220568,32658,80465920,68954824,1.116836363391531,0.2371378873963536,0.7079557214065997,2048,0,1,1,365.26202022854756,0.8439638324780578,0.0219705682653624,258.5893370333334
2048,128,500.7739759947098,1765497,169812,61554688,57168264,1.159823945922217,0.1126945169763467,0.11166668915552669,2048,0,1,1,2315.724939898382,0.9340170156553754,0.0085306426280909,258.5893370333334
2048,1536,209.921679242286,39587,7938,61161472,45785680,1.0721655690689575,0.2178917846802902,0.9146096669444879,2048,0,1,1,282.7319088996994,0.7624989383511489,0.0360281734088071,258.5893370333334
2048,2048,207.08982922115285,184954,46894,85565440,65695448,1.0901713065902867,0.204623187146425,0.8059524669631184,2048,0,1,1,320.8493647369986,0.7633315824973136,0.0378632026170332,258.5893370333334
2048,256,540.1155039449983,325190,45079,75481088,70102824,0.9883564288693675,0.1374233540210596,0.2630466803273876,2048,0,1,1,983.0549342477669,0.9272559429382004,0.0107852838096014,258.5893370333334
2048,512,548.0477034410784,1854648,131636,62574592,59076856,0.9996221816234093,0.1653145257888624,0.28620484771282273,2048,0,1,1,903.511380397027,0.9271950213688992,0.0122805828150321,258.5893370333334
256,1024,355.8557108411068,1869382,160308,61448192,49925376,1.058629803720821,0.2565518712967323,0.5004271945977327,256,0,1,1,516.737179403689,0.8418320664170432,0.0259017494112147,258.5893370333334
256,128,993.7514858869092,1603468,195094,43319296,40124408,0.8744865447552932,0.163069339205914,0.19290733245602212,256,0,1,1,1340.4847485114908,0.9267660826540932,0.0113218291598323,258.5893370333334
256,1536,220.00399478358355,179339,33945,86724608,66642672,1.0678167734620292,0.2470485622406786,0.8763609880788835,256,0,1,1,295.0717119439565,0.747797507705932,0.0365506696588991,258.5893370333334
256,2048,205.82068203102264,1485630,137160,63811584,45563032,1.0855050760941152,0.1908676298527694,0.786323465492965,256,0,1,1,328.8587310200867,0.7458098777452321,0.0421858483888611,258.5893370333334
256,256,343.8729214664271,1792734,130316,62050304,58681704,1.1304019482313266,0.2525252903763546,0.4486214029866781,256,0,1,1,576.4088278262824,0.926449555449888,0.0131901605305836,258.5893370333334
256,512,340.54791610874577,1711045,123132,62312448,58576360,1.055969301516556,0.2310767909998845,0.42987055469124325,256,0,1,1,601.551639700157,0.9235351834316924,0.0126051618490742,258.5893370333334
512,1024,193.14055475359032,184698,28113,78860288,68611624,1.1137081300346963,0.3301056223387151,0.7860469330863484,512,0,1,1,328.974423980008,0.8459008611219507,0.0266186094191968,258.5893370333334
512,128,631.3188391085954,1791995,150201,44965888,40415352,0.9583816902144697,0.1527408694343437,0.2606591287465627,512,0,1,1,992.0593929582195,0.9231413200209532,0.0130978817287613,258.5893370333334
512,1536,196.76331030159028,1421545,151073,73080832,54789312,1.0992897762602496,0.3074938555660078,0.8664131526772866,512,0,1,1,298.4596162168954,0.7434442242049812,0.039298573404897,258.5893370333334
512,2048,189.66318147862992,1330414,117731,58630144,43325008,1.0815934791457738,0.3084826140699437,0.9492730334362397,512,0,1,1,272.4077561723997,0.744625075412501,0.0407792101224255,258.5893370333334
512,256,361.8695271957407,1660065,98448,43659264,40442392,1.176068863284374,0.2216550486244346,0.3998259084509646,512,0,1,1,646.7548289583822,0.9297407322380336,0.0128789701071849,258.5893370333334
512,512,364.1304171815503,1750866,153147,61554688,57216744,1.0915113088193087,0.2372463135256813,0.4518916243031996,512,0,1,1,572.2375081239195,0.9333432463156038,0.0123794504424686,258.5893370333334
