cpu,memory,duration_std,userDiff,sysDiff,heapTotal,heapUsed,avg_cpu_util,cpu_util_std,slo_preservation,total_cpu_shares,cpu_shares_others,num_containers,arrival_rate,latency,memory_util,memory_util_std,slo_duration
1024,1024,87.46180010319404,374606,34682,44150784,30360032,0.9775179385258181,0.1763893429694525,1.0,1024,0,1,1,532.5294677347866,0.7568141436308033,0.0917750375645981,648.3975690943398
1024,128,390.4589587259665,373900,56004,39821312,29876600,0.5515660696965592,0.1647911633006979,0.4367874149592832,1024,0,1,1,1484.4694395665742,0.881674553123567,0.0537364114758798,648.3975690943398
1024,1536,79.3838764296003,398822,28627,57397248,45441208,1.1381758868557263,0.1546818332729752,1.0,1024,0,1,1,385.9769596798179,0.7159221830574476,0.1523478339911357,648.3975690943398
1024,2048,71.84805012177115,423861,39804,60542976,45514440,1.2281734629374896,0.2416054102789814,1.0,1024,0,1,1,296.61057962326856,0.7415515051820158,0.1364431690518305,648.3975690943398
1024,256,429.2358364596415,396300,49212,35102720,29671888,0.5602256559915876,0.1959205017245495,0.45561842677927034,1024,0,1,1,1423.1153328846017,0.8695299982839803,0.0631976805870576,648.3975690943398
1024,512,175.06480404450127,424995,44183,36151296,30019448,0.5466100438726492,0.0823673287654056,0.5367081570086686,1024,0,1,1,1208.1008284058319,0.8680521432763098,0.0695461661283116,648.3975690943398
128,1024,108.19368879195191,411516,42294,37072896,30650056,0.9574722164955007,0.1273847209969137,1.0,128,0,1,1,542.8229407717909,0.7529353840397432,0.1103800821564052,648.3975690943398
128,128,718.4104631716983,407289,93097,32481280,29893216,0.47729823052163933,0.1681042709600973,0.3559860010419652,128,0,1,1,1821.4131094944485,0.8635317196764969,0.0762076268611442,648.3975690943398
128,1536,59.57568315470903,344711,39105,55816192,30563496,1.271117162654711,0.2117733716743416,1.0,128,0,1,1,284.8768911988657,0.6983757268231229,0.1565455101688445,648.3975690943398
128,2048,32.804164877806784,265341,51242,44806144,30614192,1.4324920267863037,0.3436342651921857,1.0,128,0,1,1,215.58470188012905,0.6657206267854476,0.1641437064447906,648.3975690943398
128,256,284.3336273428851,454406,50967,41394176,30151336,0.36588347318474085,0.0328711747743548,0.32139590122429335,128,0,1,1,2017.4419357073289,0.8609610568124544,0.0689785688904436,648.3975690943398
128,512,179.63605494502812,348999,57982,32481280,29869208,0.5362973602579064,0.0790197481660259,0.5044916858432691,128,0,1,1,1285.2492663194812,0.8320150946527771,0.0961627733670852,648.3975690943398
1536,1024,104.328833600903,478517,59856,53596160,44237040,0.9518146248054985,0.1139857994791529,1.0,1536,0,1,1,528.1927148548582,0.7575131883897521,0.0989022175532507,648.3975690943398
1536,128,720.4366968687902,498048,75615,33005568,29602120,0.596907153244765,0.2763833623099718,0.3788342036434455,1536,0,1,1,1711.5602626646782,0.8650915768952239,0.0566865539187998,648.3975690943398
1536,1536,79.91445409126791,331084,39793,45330432,30665704,1.135886796511007,0.1102952017337592,1.0,1536,0,1,1,371.41447324880136,0.7300191031629845,0.1377123805785812,648.3975690943398
1536,2048,66.38393923244065,408907,60210,60018688,45561936,1.19104440144893,0.1753490721438222,1.0,1536,0,1,1,330.47892047700947,0.709144650500975,0.1172736252767401,648.3975690943398
1536,256,503.999014673343,441159,49208,35102720,29638064,0.5163967653641713,0.1702128306179261,0.4031652760089413,1536,0,1,1,1608.2673972149323,0.8703213394719183,0.0702874362146256,648.3975690943398
1536,512,217.6551139695477,459385,53620,32743424,29872000,0.6187720314277012,0.1733197003487686,0.5736547257948891,1536,0,1,1,1130.292386584775,0.861774011450118,0.0842997115939812,648.3975690943398
2048,1024,105.57389351296924,422384,59303,49664000,44624160,0.8680112615640181,0.1667940280043592,1.0,2048,0,1,1,562.9147933400478,0.7933993938215559,0.1225472509673669,648.3975690943398
2048,128,694.2500095240808,445980,53135,39034880,29650920,0.5660848452510666,0.2099743845864383,0.37704319875077436,2048,0,1,1,1719.6903995155494,0.860095058897497,0.0545970855570096,648.3975690943398
2048,1536,72.95319664895152,336231,32748,59232256,44778560,1.152845137965361,0.1899185240143617,1.0,2048,0,1,1,365.6859838789917,0.7492693925545242,0.1015132947275691,648.3975690943398
2048,2048,66.33971098044975,360331,47804,58970112,44968928,1.2425037653445197,0.2011867472556574,1.0,2048,0,1,1,310.0385980950988,0.6977188918849697,0.1627034564243459,648.3975690943398
2048,256,312.57786327552526,393809,19079,33005568,30199184,0.602684486182845,0.1793866437529999,0.5249771754768513,2048,0,1,1,1235.09668492803,0.8759086190674136,0.0608912371594791,648.3975690943398
2048,512,453.66231943963794,449656,42342,43491328,29845952,0.689925689873641,0.1855127341051887,0.5991100894911512,2048,0,1,1,1082.2678176644472,0.867095566223052,0.076781876991075,648.3975690943398
256,1024,126.66473689522492,384425,39360,37859328,30364712,0.7450248471892073,0.0887926598630475,0.9606974868985849,256,0,1,1,674.9237693829705,0.7728796219387285,0.0899892553540318,648.3975690943398
256,128,621.4421545515221,362166,33676,33005568,29885848,0.5972739979872238,0.2764048763342505,0.4270867726610999,256,0,1,1,1518.1869601212247,0.8741154255230563,0.0687432451657345,648.3975690943398
256,1536,101.98821047027609,350892,52972,45068288,31676752,1.0688540522146417,0.1802569370623682,1.0,256,0,1,1,423.90215821791804,0.7415481758296032,0.1252673457311914,648.3975690943398
256,2048,69.23145077254865,265733,47619,46641152,30335424,1.1582042624049218,0.2263076597442873,1.0,256,0,1,1,333.47687075874427,0.7107377700010702,0.149351547503716,648.3975690943398
256,256,290.28428947679856,462190,41661,32743424,30036520,0.3628339602810391,0.0470036186911022,0.3281718681487544,256,0,1,1,1975.7865680321902,0.8899650702999834,0.0336377937978304,648.3975690943398
256,512,208.3391425563496,346745,53195,33005568,29592920,0.5191240363954533,0.0611324755987644,0.5113567954532281,256,0,1,1,1267.9944314021468,0.8674688883613599,0.0804706146325071,648.3975690943398
512,1024,138.15724184262763,427332,27240,47558656,30366312,0.8581628804880783,0.0952236976617865,1.0,512,0,1,1,591.7036600984848,0.7940298690016958,0.0894334758776568,648.3975690943398
512,128,1273.8077085893503,434998,39530,33529856,29776560,0.4564373240952602,0.3879671318097229,0.2287382234725088,512,0,1,1,2834.670826986939,0.8608994764138875,0.0831429747509861,648.3975690943398
512,1536,99.23102341143762,253773,41433,44806144,30563400,1.0806594214798573,0.1345322165726925,1.0,512,0,1,1,402.66483720981216,0.7511621307694094,0.1060130616183959,648.3975690943398
512,2048,56.67273794885048,357879,48291,44806144,31460464,1.127056715342617,0.1409740430731718,1.0,512,0,1,1,334.7836884792283,0.7125059650718679,0.1374000425124294,648.3975690943398
512,256,393.5326100064367,409535,66172,33005568,29996424,0.4260763562958011,0.0997947488554899,0.37386055849045535,512,0,1,1,1734.3299643920404,0.8653008645566364,0.0659831946078454,648.3975690943398
512,512,171.03362404868656,444531,70122,32743424,30271048,0.5069995303229022,0.049001243549176,0.5016802534790379,512,0,1,1,1292.4518447713476,0.8974786793709804,0.0509344851990136,648.3975690943398
