cpu,memory,duration_std,userDiff,sysDiff,heapTotal,heapUsed,avg_cpu_util,cpu_util_std,slo_preservation,total_cpu_shares,cpu_shares_others,num_containers,arrival_rate,latency,memory_util,memory_util_std,slo_duration
1024,1024,149.3298789446822,454059,93896,50130944,40396832,0.9460057220964108,0.1069730031899928,0.5016994451154142,1024,0,1,1,956.0824345311831,0.8128208166177062,0.039419412621,479.6660268888889
1024,128,722.3057294391465,633281,110514,32743424,30006256,0.5287880831422329,0.1139984683767018,0.18166283021716625,1024,0,1,1,2640.419211323962,0.9140735636549332,0.0103130350604204,479.6660268888889
1024,1536,115.06205193244996,394008,71919,41922560,30268040,1.0186604341099101,0.1180207756234167,0.6876431910645788,1024,0,1,1,697.5507546963289,0.7317721268776273,0.0716893420930378,479.6660268888889
1024,2048,67.68661564474165,338071,62573,60104704,48428448,1.1065208272054101,0.1535697341324078,0.783718136941052,1024,0,1,1,612.0389516071227,0.7370893945551446,0.0823686220632001,479.6660268888889
1024,256,739.6294256258675,521002,77529,32743424,29763248,0.5520608983258736,0.1470609128025454,0.208853312479589,1024,0,1,1,2296.6646839071136,0.909318109578427,0.0397306619012737,479.6660268888889
1024,512,302.0226444632114,399693,89575,33005568,29581928,0.5577722548324412,0.0696579218122949,0.23598082884924373,1024,0,1,1,2032.6482843033125,0.9119682967015612,0.0158205628869772,479.6660268888889
128,1024,142.06942498392397,486551,106438,39432192,31076992,0.9340293979787956,0.1223798953256565,0.5176703219652067,128,0,1,1,926.5859110252952,0.8055451191226239,0.0784400339618,479.6660268888889
128,128,1010.2603121508728,431904,106811,32743424,29562224,0.5938237336421931,0.2323992153558635,0.18458978330426015,128,0,1,1,2598.551329887274,0.9103718718150796,0.009342724534857,479.6660268888889
128,1536,67.9087061562846,248663,56194,42971136,30918976,1.1364428109369547,0.1714472079889812,0.7474798403773499,128,0,1,1,641.7109880137226,0.7315394311434869,0.0633121041016099,479.6660268888889
128,2048,49.51409979842203,374720,53763,48738304,29901896,1.2206013920280756,0.1452983955185023,0.9361476224625875,128,0,1,1,512.3828928039161,0.7309575514846447,0.0836628400354412,479.6660268888889
128,256,372.97061019250174,642995,104537,32481280,29689536,0.4057712172725089,0.0228060918759476,0.15755847757973376,128,0,1,1,3044.3682514395327,0.906741029098214,0.0419442752284387,479.6660268888889
128,512,262.74538306091955,617038,101778,32743424,29522488,0.6386228022777822,0.0625910707617635,0.26139110928604065,128,0,1,1,1835.0510397964213,0.9232365914145468,0.0091726152582726,479.6660268888889
1536,1024,100.59211155421175,469926,81009,39170048,30132736,0.9216056062096785,0.0830857657485989,0.46141885326961996,1536,0,1,1,1039.5457911829333,0.7616188243530576,0.1134788246722847,479.6660268888889
1536,128,523.6777388292384,516877,95943,32219136,29683504,0.5712601780119372,0.185359302966015,0.19011107446555428,1536,0,1,1,2523.0830357323466,0.9102530631842444,0.0077038234316281,479.6660268888889
1536,1536,88.92102554939255,381081,100033,43495424,30574448,1.033099138783865,0.1225172449523207,0.6759685858339988,1536,0,1,1,709.5981040259214,0.700516807596159,0.0671211505818061,479.6660268888889
1536,2048,72.84867287039351,273416,42404,43495424,30780080,1.098773698439864,0.1210121215961324,0.7265056870227002,1536,0,1,1,660.2371260913493,0.7172600133550174,0.0688544101223493,479.6660268888889
1536,256,560.4577084815623,406874,73949,32481280,29589376,0.5964026450065438,0.1325643601418818,0.22153224740899274,1536,0,1,1,2165.2198833307084,0.9114976864083272,0.0090826834915482,479.6660268888889
1536,512,330.7476060806007,504670,73361,32743424,29583768,0.6639148179353588,0.1365160308270432,0.27876496040142273,1536,0,1,1,1720.6826360033476,0.9135458042341656,0.0141879002620033,479.6660268888889
2048,1024,150.0956604660136,430867,119112,39170048,29956840,0.8694313002387117,0.0918074664498926,0.4709175974851194,2048,0,1,1,1018.5774102528541,0.803785428237867,0.0519927630365955,479.6660268888889
2048,128,275.0687061807333,445381,87894,32743424,30075352,0.9164092969383751,0.2405936088732774,0.3710272121254132,2048,0,1,1,1292.8055172588097,0.9159741678964384,0.0136111563109819,479.6660268888889
2048,1536,106.9312711144714,333580,44111,36409344,15529440,1.0140217011567292,0.1073620819079143,0.6311482846709429,2048,0,1,1,759.9894328144595,0.6575917125737067,0.1194804971123057,479.6660268888889
2048,2048,73.32762308829889,355539,69623,53620736,42271312,1.1379319423060739,0.1281397731822984,0.7786247614988797,2048,0,1,1,616.0426056390952,0.7144889843769345,0.0828130153672992,479.6660268888889
2048,256,94.7238043256972,349348,48024,32743424,29573720,0.9993102240298156,0.1067535894776824,0.49240689549463884,2048,0,1,1,974.1253245591711,0.9007608784205392,0.0421697679613013,479.6660268888889
2048,512,98.17723919594988,515720,54820,33005568,29667416,1.030066740447944,0.0829240349659375,0.47986227574173707,2048,0,1,1,999.591030879548,0.9123425046393032,0.013205417213879,479.6660268888889
256,1024,106.8091840947704,443251,109816,39956480,29747624,1.0646433476337767,0.1400473223643577,0.5784571156673034,256,0,1,1,829.216226920383,0.7993261483314228,0.0608445482769136,479.6660268888889
256,128,364.6759620328725,599745,85067,32743424,29421720,0.8888584722167767,0.189707359977331,0.3489398590729069,256,0,1,1,1374.6381057277501,0.9136129938179952,0.0100659679255369,479.6660268888889
256,1536,70.04780315242853,364964,88225,37195776,15571280,1.1021935656907025,0.1227781862862192,0.823815747537103,256,0,1,1,582.2491598672502,0.6907929402173326,0.0970345959249265,479.6660268888889
256,2048,33.50275122365815,239646,42268,45330432,30580056,1.2218330895308667,0.1222137254398127,0.987569023202934,256,0,1,1,485.7037995513586,0.7036281106300304,0.1004641784152028,479.6660268888889
256,256,70.91017638682568,455274,122488,32743424,29729816,1.1766736457848712,0.1311415201770061,0.583196842861596,256,0,1,1,822.4770637222448,0.9123598199457807,0.0108720732973931,479.6660268888889
256,512,112.63275829819868,446963,77451,32743424,30066776,1.0279485714142627,0.092469335705871,0.5063447348537292,256,0,1,1,947.3111772900193,0.9116727626312892,0.0171985782425171,479.6660268888889
512,1024,93.998773652882,422552,89041,39170048,30764800,1.0649552250598822,0.1209660985177311,0.5651962785654749,512,0,1,1,848.6715944173051,0.8232272389343199,0.0354737421128091,479.6660268888889
512,128,331.0932056835682,353599,51262,33267712,29578752,0.839716789579429,0.1528898145788355,0.34058828563723614,512,0,1,1,1408.3456393441136,0.910996827612801,0.0107304714084317,479.6660268888889
512,1536,105.90531272428504,350913,82118,42446848,30608320,1.0158409496851,0.1372100029107225,0.7149988914914558,512,0,1,1,670.8626161480153,0.7294722369863209,0.0622204649020521,479.6660268888889
512,2048,66.88266475931722,325840,53460,49786880,29928112,1.0858127789783467,0.1411566973466675,0.8898894151100125,512,0,1,1,539.0175663900781,0.7480082122049502,0.0936149188710886,479.6660268888889
512,256,113.04605434398351,401635,83831,31956992,29677296,1.034803684877179,0.1569590665088761,0.45799585614247157,512,0,1,1,1047.315211384088,0.9207023451714532,0.012487365712723,479.6660268888889
512,512,102.51232184450863,498438,103429,32481280,29690688,1.0602061294486118,0.107685736472129,0.493191750533703,512,0,1,1,972.5751218868171,0.9123748038960674,0.0161500085869569,479.6660268888889
