cpu,memory,duration_std,userDiff,sysDiff,heapTotal,heapUsed,avg_cpu_util,cpu_util_std,slo_preservation,total_cpu_shares,cpu_shares_others,num_containers,arrival_rate,latency,memory_util,memory_util_std,slo_duration
1024,1024,54.94689803849688,33604,28,25268224,14730688,0.8760238022032611,0.1610026733910189,0.37858048267646727,1024,0,1,1,142.97404999768608,0.6536955486393505,0.0523445137405542,54.12718485833336
1024,128,41.819390173848845,131525,1242,24489984,20406952,0.8777858462938203,0.1530015253921778,0.34164782501830937,1024,0,1,1,158.42976566712406,0.8629482965472919,0.017473823408415,54.12718485833336
1024,1536,26.868736020628305,11947,28,39178240,23613320,0.9882256109017007,0.1045307942363625,0.6345920005917646,1024,0,1,1,85.29446448719668,0.5329058830126442,0.0782788389092808,54.12718485833336
1024,2048,19.07982866140524,55603,3,39178240,24785168,1.0090684032908976,0.0215547396004014,0.805251457296691,1024,0,1,1,67.21774219452354,0.5623642701131168,0.0694012383610602,54.12718485833336
1024,256,29.49172702472877,87353,3804,25276416,22628776,0.9843108049504768,0.0570912191304553,0.5220301482014469,1024,0,1,1,103.68593661653073,0.8243629265247325,0.0248764578608976,54.12718485833336
1024,512,28.30671378578852,117887,18,25276416,22625384,0.9935292390584454,0.0443033588031277,0.5794589904484607,1024,0,1,1,93.40986290754192,0.8330298412979074,0.0255056158753618,54.12718485833336
128,1024,42.4527769039664,70571,3,30658560,24825944,0.9340240010321342,0.1346601757684047,0.40212721512189503,128,0,1,1,134.60214286149727,0.6648916529917045,0.0819391654209073,54.12718485833336
128,128,35.80890053326659,106952,7947,18841600,14606400,0.9519773813381717,0.0906750080432956,0.48341075764336555,128,0,1,1,111.96934284665937,0.8306510982664552,0.0272002731587164,54.12718485833336
128,1536,36.90749804003077,125850,4,39178240,24844840,0.9865257554021193,0.2475182429998081,0.5088549367315275,128,0,1,1,106.3705605491471,0.5280230739654295,0.0817890042275342,54.12718485833336
128,2048,16.74794445755281,32697,4218,39178240,24788456,1.0047252091878836,0.0086440341308614,0.818594646396942,128,0,1,1,66.12208508396074,0.5632348751228483,0.0672581924418012,54.12718485833336
128,256,30.860694736161054,44404,9454,24752128,20475000,0.9720096371552084,0.1566429289156282,0.4636665141143591,128,0,1,1,116.73731703856316,0.8408983320973858,0.0251260921531535,54.12718485833336
128,512,22.930195833195075,36454,4067,18841600,14542360,0.9968672509207495,0.0849309667854759,0.603447156008753,128,0,1,1,89.69664422040667,0.8167210797231569,0.0235495161989934,54.12718485833336
1536,1024,36.69383777957822,32378,24,30920704,23685368,0.9680735397910034,0.0819051279357937,0.5402785360267769,1536,0,1,1,100.18385193753237,0.6613487549625294,0.0621218635315809,54.12718485833336
1536,128,33.85077330780745,111210,3940,25276416,22775608,0.952954717700566,0.0742346320225379,0.47898749414546377,1536,0,1,1,113.00333624555022,0.8420995753658052,0.0339738325697937,54.12718485833336
1536,1536,26.23062842807701,35597,21,39174144,23852032,0.9778604266570593,0.0740877949310361,0.4600859931354484,1536,0,1,1,117.64580027629405,0.5359633824675525,0.0698811627975977,54.12718485833336
1536,2048,21.50841021991257,76511,159,39440384,24813376,1.0124051079856422,0.0371937229471377,0.924284439301325,1536,0,1,1,58.56117722727063,0.5653079899335243,0.0702384378883604,54.12718485833336
1536,256,53.73942967413225,116668,4128,24752128,20613672,0.9068968427009649,0.1455813251796947,0.4298590542102374,1536,0,1,1,125.9184477520871,0.8320889826629789,0.0314073865895686,54.12718485833336
1536,512,35.179660880062386,24085,4022,18841600,14632192,0.9599736433916223,0.1175245194997378,0.5249122805492563,1536,0,1,1,103.11662893787873,0.8222803212332174,0.028212971347476,54.12718485833336
2048,1024,38.70610712287753,44850,3488,30396416,23681624,0.9099196467364662,0.168210238757829,0.4065414382630663,2048,0,1,1,133.14063405095877,0.6816528740360629,0.0800789194990287,54.12718485833336
2048,128,33.77513974228645,72142,3,24489984,20967232,0.8725546190282846,0.1125289066335522,0.3914470718431892,2048,0,1,1,138.27459381281642,0.8602345983917467,0.0158738479563909,54.12718485833336
2048,1536,30.37967090978377,80446,319,39440384,24817344,0.9755138666748852,0.0881175496827789,0.484676342983263,2048,0,1,1,111.67696885136087,0.5302119255422243,0.0691328735328254,54.12718485833336
2048,2048,15.597743128440182,17130,171,38912000,23683672,1.005844254066381,0.0154358198111336,0.8708252616619501,2048,0,1,1,62.15619509594022,0.5705162476307302,0.0884107737779435,54.12718485833336
2048,256,35.49852357674108,51361,3932,25014272,22690704,0.8700189521175534,0.1953182306308098,0.5112291957750033,2048,0,1,1,105.87655264147949,0.853456719767102,0.0301444033794926,54.12718485833336
2048,512,29.119231013813465,65021,27,25276416,22744128,0.9369425906177126,0.1324330201529848,0.5005323574674491,2048,0,1,1,108.13923226102999,0.8198917402758189,0.026752393948847,54.12718485833336
256,1024,31.717818304689654,32729,249,25268224,15790928,0.9051953413036883,0.1687443221368492,0.4578153035288236,256,0,1,1,118.22930435291917,0.6638651258414716,0.0651913226549627,54.12718485833336
256,128,41.39716922645774,32192,137,24489984,21068064,0.8964676911898687,0.1106693680840894,0.35646424938376464,256,0,1,1,151.84463786173617,0.8652739448456105,0.0155605901758919,54.12718485833336
256,1536,28.37694700170422,38039,4349,34312192,14969528,0.9479238371995267,0.0966976286722583,0.6260000635756818,256,0,1,1,86.46514274960536,0.521184671280378,0.0587791703606883,54.12718485833336
256,2048,23.14284698048321,61513,187,39178240,24815728,1.008556155518263,0.0423123339522936,0.7960450009782141,256,0,1,1,67.99513192321987,0.5673574479359698,0.0717880307701173,54.12718485833336
256,256,33.99365257040494,11066,3,18841600,15238264,0.978612663973895,0.0673253737756176,0.5264821211178172,256,0,1,1,102.80916043912661,0.8285995568230653,0.0272684885583013,54.12718485833336
256,512,25.457962993691385,65473,3775,25534464,22617680,0.9876020493763071,0.0676036685500446,0.6147883911664473,256,0,1,1,88.04197612716308,0.8221208177731352,0.0229476924287595,54.12718485833336
512,1024,45.34479057051504,110848,3868,25530368,14638472,0.8807622350097208,0.151219760311537,0.36391384572684776,512,0,1,1,148.7362613264267,0.6536093847647382,0.0503275334449082,54.12718485833336
512,128,27.91271703807395,14698,18,18841600,14621760,0.97539199192686,0.1168504006150734,0.5965204023253133,512,0,1,1,90.73819545373239,0.8417144030347522,0.0347125931896758,54.12718485833336
512,1536,28.832622885413585,13032,178,39178240,23746168,0.9568845574542361,0.107375606190409,0.6000579437474245,512,0,1,1,90.20326357202013,0.539785012397889,0.0754792761346733,54.12718485833336
512,2048,14.543471609127176,31612,3765,39178240,24843656,1.005152558019018,0.0112518487437695,0.8079239148453927,512,0,1,1,66.99539877921714,0.5575829703284725,0.0660296730711224,54.12718485833336
512,256,29.19641762500688,57721,3760,18579456,14403440,0.9828401860006147,0.0857322216857316,0.4577951711285739,512,0,1,1,118.23450370806006,0.8278418275095047,0.0244921245696377,54.12718485833336
512,512,20.010373890073463,92499,27,18841600,14540416,0.9887523129739383,0.0445453096933119,0.45423022177175093,512,0,1,1,119.16244728764894,0.8214802162406001,0.0262020130826114,54.12718485833336
