cpu,memory,duration_std,userDiff,sysDiff,heapTotal,heapUsed,avg_cpu_util,cpu_util_std,slo_preservation,total_cpu_shares,cpu_shares_others,num_containers,arrival_rate,latency,memory_util,memory_util_std,slo_duration
1024,1024,0.3733395399350938,2192,9,26316800,14893960,1.26964684744674,0.2730631328468024,1.0,1024,0,1,1,1.6797584543367838,0.6685131033490744,0.0755985301996409,3.958125983333337
1024,128,15.106155775786828,2561,529,27828224,24224688,1.2846641838643034,0.8961168132404338,0.34382111543790694,1024,0,1,1,11.512166663446715,0.8645984596557161,0.006960646300213,3.958125983333337
1024,1536,0.3913855536707346,2982,0,42516480,27454040,1.2386892025406444,0.2823009943635791,1.0,1024,0,1,1,1.747316874260616,0.5793072992871304,0.1037444816090104,3.958125983333337
1024,2048,0.3433858837226132,105,1681,42254336,27534808,1.2355392786584865,0.3066154536458888,1.0,1024,0,1,1,1.4934011667109683,0.6331009332641493,0.0961639153773243,3.958125983333337
1024,256,5.296966130086388,2143,470,28352512,24085232,1.0217730152020308,0.7833534616608228,0.5860810877630396,1024,0,1,1,6.753546678055683,0.8642339861579935,0.0185633163243958,3.958125983333337
1024,512,7.156557390647644,152,2925,28352512,23878872,1.1926358307971776,0.4915068215428141,0.8623187466486963,1024,0,1,1,4.590096178143109,0.8732614190556058,0.0135928031085925,3.958125983333337
128,1024,3.62594811417368,1704,5,25792512,15507192,1.1843407229416125,0.4659175648721227,1.0,128,0,1,1,2.9433767555925683,0.7024515147840187,0.0963087465660604,3.958125983333337
128,128,23.68937231655439,3630,27,28352512,23916232,0.7267138354589185,0.7333334033568066,0.20164529386767904,128,0,1,1,19.629151305314792,0.8641668439618707,0.007497402685138,3.958125983333337
128,1536,1.1153330873405252,1788,473,42516480,27496992,1.1744153408280316,0.4551349241702835,1.0,128,0,1,1,2.1035750933736233,0.5462212095091054,0.0850399387003491,3.958125983333337
128,2048,1.121946329636008,2829,34,42778624,27459184,1.1852329924870004,0.339996901921698,1.0,128,0,1,1,1.864412584449604,0.5259240076271927,0.0729359941195489,3.958125983333337
128,256,42.62743670383133,2215,411,27828224,24320056,0.7534426287105151,0.8098965186248981,0.13011777367055277,128,0,1,1,30.419564304527512,0.8682120269741173,0.0057750891189527,3.958125983333337
128,512,1.923167581380582,167,2878,27828224,24281920,1.1910475062546118,0.6635126931986058,1.0,128,0,1,1,3.099903846569919,0.8665345226040196,0.01561734474677,3.958125983333337
1536,1024,1.8931929967444012,2823,30,33734656,27825520,1.2298911527620917,0.6384580673546448,1.0,1536,0,1,1,2.49907687261742,0.6781610057574956,0.0842233608621575,3.958125983333337
1536,128,19.39958695989576,9224,1060,27828224,24172208,1.1202317988931796,0.949828441714028,0.23979488012541253,1536,0,1,1,16.506298972118337,0.8621346457707126,0.0087571440077998,3.958125983333337
1536,1536,0.4447567271870403,2361,569,42254336,27465456,1.2021358194528842,0.2804182921037614,1.0,1536,0,1,1,1.6394021597966653,0.5504489275892633,0.08438323721159,3.958125983333337
1536,2048,0.5464049051705406,2044,441,42254336,27412520,1.2704772717722583,0.3546202260479478,1.0,1536,0,1,1,1.4871544771359244,0.5182085495994779,0.06490414755853,3.958125983333337
1536,256,4.849977523758526,162,3195,27828224,24183464,1.2658922994876576,0.6700989793719986,0.8357018589133027,1536,0,1,1,4.736289552449064,0.8629781398150804,0.0129774351230632,3.958125983333337
1536,512,1.844405326071292,2459,496,28352512,23917848,1.1559594886684696,0.530636656904226,1.0,1536,0,1,1,3.0899480846591105,0.8698290760642982,0.0178923436264007,3.958125983333337
2048,1024,5.158380475527734,2109,582,33734656,27706088,1.0553729453015899,0.4812366336939765,0.9312228105663363,2048,0,1,1,4.250460725855874,0.6896088395154477,0.1019745144075285,3.958125983333337
2048,128,11.016201498496269,5086,609,27828224,23862104,1.3572185629852458,0.8697557133532613,0.3787466158829926,2048,0,1,1,10.450591021402376,0.8601923316632071,0.0116093058485415,3.958125983333337
2048,1536,1.5669139587885834,910,226,42254336,28343672,1.0873326704628643,0.4738672794605399,1.0,2048,0,1,1,2.53722692050764,0.5770968922317006,0.0867262430266527,3.958125983333337
2048,2048,2.569334314463721,2965,34,41992192,27820744,1.1455984590310955,0.3608354084641658,1.0,2048,0,1,1,2.3729839204238563,0.5411147515564558,0.0807919634351137,3.958125983333337
2048,256,3.5237087012630948,2463,390,27566080,23851456,1.383242935459254,0.665535671959882,1.0,2048,0,1,1,3.944548098463038,0.8620370550910899,0.014534547750592,3.958125983333337
2048,512,9.355930675579913,172,3454,27828224,24310848,1.2161985147446648,0.7056117329554676,0.615552684603309,2048,0,1,1,6.430198555439878,0.8729625082750424,0.0213621165200506,3.958125983333337
256,1024,1.5770854284943796,3580,40,26054656,14433736,1.124678032410184,0.3222343519478852,1.0,256,0,1,1,2.4432915891672926,0.7033978520202575,0.1019533141813295,3.958125983333337
256,128,13.542284959180405,141,2918,28614656,23865360,0.9931809706694263,0.9754676744692335,0.2688152714435437,256,0,1,1,14.72433452935213,0.8599353061634104,0.0110070003495933,3.958125983333337
256,1536,1.0061957761847482,151,3428,41992192,27884560,1.2017683685875662,0.2922065806317651,1.0,256,0,1,1,2.031108718511614,0.5135666972153394,0.073407008167596,3.958125983333337
256,2048,0.2600173734445258,117,2340,42516480,27511816,1.2012566368621314,0.2417824475624159,1.0,256,0,1,1,1.6094564796542352,0.5235697995689135,0.0635928519845488,3.958125983333337
256,256,7.40375034432264,219,3152,27828224,24321400,1.14047926738127,0.8004859752792949,0.5087987775432299,256,0,1,1,7.779354349956228,0.8646442658616752,0.0123196613296469,3.958125983333337
256,512,2.133773449959791,3020,28,28352512,24017024,1.1630199369362548,0.7010860940491024,1.0,256,0,1,1,3.4509801533949434,0.8691239922518751,0.0149466251293034,3.958125983333337
512,1024,1.654497495625906,2282,391,33734656,27832464,1.0953599927818367,0.4104643267003856,1.0,512,0,1,1,2.6091918362679203,0.6673750686542615,0.08212873796181,3.958125983333337
512,128,10.753646714575297,2876,32,28090368,24200304,1.0546657237173653,1.020036837467562,0.30379079462777897,512,0,1,1,13.02911758133767,0.8625283857080429,0.0084487065691732,3.958125983333337
512,1536,0.4545865881230191,29,1382,42254336,28915944,1.2069940024837769,0.3331228944590134,1.0,512,0,1,1,1.5781140069342043,0.5883570319934159,0.0783728175028854,3.958125983333337
512,2048,0.4241781274029343,1716,420,42254336,27714624,1.2048500227670296,0.2750535923095099,1.0,512,0,1,1,1.6528052798409782,0.5265215949105634,0.0860628224951035,3.958125983333337
512,256,11.603142369792216,1423,269,27828224,24827056,1.0242420277301305,0.8736696149252037,0.34359096466390304,512,0,1,1,11.519877966538301,0.8623853635055921,0.014626919773562,3.958125983333337
512,512,3.936212077422872,1199,233,28352512,24457296,1.3312583901652773,0.5721145288478513,1.0,512,0,1,1,3.4481493470149944,0.8664131215418777,0.0150687233451738,3.958125983333337
