cpu,memory,duration_std,userDiff,sysDiff,heapTotal,heapUsed,avg_cpu_util,cpu_util_std,slo_preservation,total_cpu_shares,cpu_shares_others,num_containers,arrival_rate,latency,memory_util,memory_util_std,slo_duration
1024,1024,91.54247158919648,329515,50885,28413952,15186304,0.9160681858084415,0.1029393757468958,0.8733381714636712,1024,0,1,1,546.5717790024194,0.7701312305697052,0.1108725641545505,477.34199804761874
1024,128,815.3708014541295,394517,51429,32219136,29675864,0.5837013574420883,0.2198626870829503,0.2445983337308693,1024,0,1,1,1951.5341366668363,0.9180186284517732,0.0053197886107198,477.34199804761874
1024,1536,90.36714371473236,340450,49349,37195776,15355816,1.0463973032458753,0.1500302059100633,1.0,1024,0,1,1,395.33796945333484,0.7155958089998261,0.1069861867812588,477.34199804761874
1024,2048,59.563431487774096,358905,51364,50049024,29869896,1.069310698105236,0.125143140855322,1.0,1024,0,1,1,370.6468979472651,0.7722323718627244,0.1009910652924686,477.34199804761874
1024,256,334.73781554392724,366738,15604,32219136,30043824,0.7599282124539624,0.3053599972389813,0.4404458387573477,1024,0,1,1,1083.7700258319344,0.9050977764865492,0.0502013317795496,477.34199804761874
1024,512,176.44342379715397,314031,53354,32219136,29875976,0.6446259280032198,0.0761379794250294,0.4760160231653295,1024,0,1,1,1002.7855677493208,0.8825784626488398,0.0520097039664712,477.34199804761874
128,1024,101.44606307105872,360615,23026,36810752,30009448,0.8975716487155341,0.1276474931615135,0.8808793089693163,128,0,1,1,541.8926215966392,0.7705233811338925,0.1117688759777093,477.34199804761874
128,128,893.6821218161524,397673,40615,32481280,30037216,0.5228214463376694,0.2046760513071736,0.2395833249955328,128,0,1,1,1992.384061188395,0.916829817171142,0.0082555260424758,477.34199804761874
128,1536,60.74034376034341,357364,21472,50311168,30208352,1.0746656709680262,0.1533097070530981,1.0,128,0,1,1,353.92000753133595,0.6957570867408871,0.1272374415724907,477.34199804761874
128,2048,38.71499393835451,337777,52283,50049024,30621816,1.1903738956913912,0.1794730777257137,1.0,128,0,1,1,284.4428366062397,0.7112260879469324,0.0969129074433841,477.34199804761874
128,256,288.36434033490195,342778,31848,32743424,29860080,0.46666940151943603,0.0637576953037598,0.32802318771183453,128,0,1,1,1455.2080948221242,0.913504082303612,0.0279325409232588,477.34199804761874
128,512,162.23711107508714,277466,69114,33005568,30116232,0.6257100874559905,0.0662204603653657,0.4701146189506812,128,0,1,1,1015.3736531594559,0.8999808441962559,0.0429606027471028,477.34199804761874
1536,1024,137.7029052955119,355723,19199,39432192,30278200,0.8792610487012502,0.174523130610065,0.8759948208479361,1536,0,1,1,544.9141783573176,0.7905148092742167,0.0958151839844174,477.34199804761874
1536,128,791.7242851036475,310889,13429,32219136,29476776,0.48454371122255496,0.1421098974145668,0.24508446360494188,1536,0,1,1,1947.6632301632098,0.919164225254877,0.0083000361993573,477.34199804761874
1536,1536,67.9506662249507,284901,37595,66826240,29745312,1.0545804807958115,0.1232887353464445,1.0,1536,0,1,1,368.09401522927476,0.6949610144402949,0.134826780079615,477.34199804761874
1536,2048,60.02463564773519,301504,25143,63115264,51930408,1.110444053200919,0.2028621806612758,1.0,1536,0,1,1,309.0890440217605,0.7473611873188958,0.104471267574739,477.34199804761874
1536,256,314.06836199297663,375836,36402,32481280,29869048,0.6454434752251258,0.2172767612324778,0.3691377892821939,1536,0,1,1,1293.1268808209345,0.9104857858427202,0.0319268013934702,477.34199804761874
1536,512,175.1131496138392,254785,51553,32219136,29747872,0.7342028611626974,0.1879207237247175,0.5169039633641798,1536,0,1,1,923.4636061618123,0.9007066013508988,0.0443425446850687,477.34199804761874
2048,1024,106.96312869147714,362962,53491,38907904,30181472,0.8932255924987403,0.1101494105275457,0.8862995254801409,2048,0,1,1,538.5786456209881,0.8093672987820082,0.081375635977571,477.34199804761874
2048,128,746.9142773742828,391016,70490,32219136,29777016,0.6775528888563498,0.2373556585633978,0.29099855569377164,2048,0,1,1,1640.358650267471,0.9217635321417422,0.0064692080639801,477.34199804761874
2048,1536,78.42005451428366,298752,34928,67309568,51384568,1.046756719412407,0.1610253527580193,1.0,2048,0,1,1,403.71973077300595,0.7308048965195693,0.1062211425685548,477.34199804761874
2048,2048,57.7641446320128,232494,48396,50049024,29712472,1.1375724773076903,0.1432281081583235,1.0,2048,0,1,1,325.7443932482526,0.7339317407091036,0.1421460353990961,477.34199804761874
2048,256,277.0426539703239,295204,46591,32481280,29501112,0.7253765725658319,0.2909895155513387,0.4301784623921627,2048,0,1,1,1109.6371384870972,0.9012319001113184,0.0487148377740372,477.34199804761874
2048,512,162.03282356638385,361214,29184,33005568,29415824,0.7673859296027712,0.2622564962630007,0.5368434833027703,2048,0,1,1,889.1641845234176,0.9096284149384012,0.0259474364202141,477.34199804761874
256,1024,115.90003053702702,393943,34384,36810752,30073080,0.9003627767928001,0.1337361042175848,0.9205634723013308,256,0,1,1,518.532412386844,0.8095284865309138,0.1050499432405241,477.34199804761874
256,128,1803.082136282358,286735,39417,32219136,29990240,0.5668591927384083,0.3356770933339549,0.16362269763093357,256,0,1,1,2917.333627662763,0.9199244376052088,0.0076228231263617,477.34199804761874
256,1536,89.56025808745979,392706,28739,50573312,30762048,1.0383651795634963,0.1190542419792199,1.0,256,0,1,1,428.30942531078614,0.7643345150331688,0.1061528086503893,477.34199804761874
256,2048,54.496196691310665,249191,22236,37195776,15360488,1.0954101234159488,0.1932652576254203,1.0,256,0,1,1,302.7472055448697,0.7396649587399114,0.1155670190790881,477.34199804761874
256,256,162.35575397154983,430429,23518,32219136,29841776,0.49654648612700975,0.0570953677747372,0.3360915465449564,256,0,1,1,1420.273740755239,0.9199897768511625,0.0135540965818144,477.34199804761874
256,512,156.92953902970723,290617,45225,31956992,29435232,0.679634148257482,0.1657692421110038,0.4936606881993509,256,0,1,1,966.9435088881489,0.883948693200139,0.0657419528648504,477.34199804761874
512,1024,120.74422596012307,442077,21744,39694336,30499808,0.9131873352663714,0.1410545762420697,0.9057758282972881,512,0,1,1,526.9979426862653,0.8316760954868242,0.0618281201744133,477.34199804761874
512,128,501.85810167967577,396758,59711,32481280,29642480,0.5341604625676548,0.1614777105789906,0.27738696782485167,512,0,1,1,1720.8522872964354,0.9115790945662569,0.0075846899899756,477.34199804761874
512,1536,71.85384604638764,253295,29628,68620288,51433088,1.071975501892084,0.1196435050703849,1.0,512,0,1,1,375.946080961571,0.7302821741259545,0.1087568791919826,477.34199804761874
512,2048,47.44389112708643,250184,29030,37195776,15350584,1.07287892845389,0.1961570163093723,1.0,512,0,1,1,324.0424589843425,0.7100991030661736,0.1164450354083911,477.34199804761874
512,256,237.06424685472555,286209,38812,32743424,29443288,0.5561149836132749,0.1088325474057836,0.3693294568213467,512,0,1,1,1292.4557985596048,0.9077392941815344,0.0283146264506277,477.34199804761874
512,512,169.53247810513642,386231,19924,32219136,29482912,0.656270082979952,0.0725770014904406,0.4920142663491741,512,0,1,1,970.1791811639407,0.9168389059224288,0.0155798148150165,477.34199804761874
