cpu,memory,duration_std,userDiff,sysDiff,heapTotal,heapUsed,avg_cpu_util,cpu_util_std,slo_preservation,total_cpu_shares,cpu_shares_others,num_containers,arrival_rate,latency,memory_util,memory_util_std,slo_duration
1024,1024,90.38053258635028,371245,42625,36024320,29973192,0.8951064896597402,0.1109444412874498,1.0,1024,0,1,1,537.9688675162245,0.7548316901663357,0.0861704695019171,688.3624061111113
1024,128,661.933513593339,420014,34470,32743424,29411288,0.6111788855622278,0.3177294645112091,0.43015251428622536,1024,0,1,1,1600.2752122775505,0.866117018531942,0.0536458984961648,688.3624061111113
1024,1536,59.02817981407178,295884,67516,55037952,45192944,1.3015297394005274,0.33959735790807,1.0,1024,0,1,1,318.48097011076277,0.7137838041867619,0.1491406124771154,688.3624061111113
1024,2048,36.76624663214748,285354,55560,57921536,45805608,1.3879849508112734,0.2291548622237446,1.0,1024,0,1,1,240.19241743112863,0.6603562674598293,0.142635417338082,688.3624061111113
1024,256,452.6943415023943,425669,27418,35889152,29857928,0.4645454592435584,0.1258248463308273,0.4173075567566697,1024,0,1,1,1649.5325688829848,0.8472666234825752,0.0749664047385805,688.3624061111113
1024,512,220.02065624397585,494817,78607,35102720,29379120,0.6477934547311852,0.1848945943206784,0.6235603017343108,1024,0,1,1,1103.9227548587783,0.870686957691912,0.0774140691796781,688.3624061111113
128,1024,130.45628623913152,352772,60544,50188288,44387144,0.8795594339734326,0.119155334418539,1.0,128,0,1,1,588.4798985846064,0.8131701604548777,0.0908544640456498,688.3624061111113
128,128,1209.1647503872543,391708,51294,32743424,29951216,0.5115018496423034,0.2577457646660765,0.31064157671215803,128,0,1,1,2215.9377807593064,0.8736281245527441,0.0615247663164356,688.3624061111113
128,1536,64.066190289942,290687,41353,45068288,30090512,1.3381025782166451,0.3075640041494473,1.0,128,0,1,1,291.15732286338294,0.7447310851376773,0.107815230211116,688.3624061111113
128,2048,40.58622941931704,324790,58177,56872960,45436448,1.4261261253257815,0.3028230667916994,1.0,128,0,1,1,225.2983600883508,0.6644831837432802,0.1777890386674373,688.3624061111113
128,256,236.2019928170245,431500,61248,32481280,29678632,0.34967087447420236,0.0291270013846784,0.3366312690037645,128,0,1,1,2044.8558095873543,0.8749019394883518,0.0653161073597852,688.3624061111113
128,512,184.591601991234,396050,47652,33529856,29855872,0.5706929802113985,0.0843722530459685,0.5747724088145902,128,0,1,1,1197.626043899339,0.8852535247576074,0.0657990988001537,688.3624061111113
1536,1024,111.61789398686356,499492,41971,51499008,44870560,0.9234028736777461,0.1319558581404372,1.0,1536,0,1,1,582.8004097951305,0.7895077870959779,0.1085511663721782,688.3624061111113
1536,128,1014.6207829295925,432140,118156,32481280,29519640,0.4260727250004736,0.3412870042980842,0.24145807100282554,1536,0,1,1,2850.8568930920355,0.8695235566312194,0.0550956666083571,688.3624061111113
1536,1536,86.02464787899213,404161,60741,61067264,45441832,1.1494292904630876,0.113453170954161,1.0,1536,0,1,1,369.8055220333906,0.7292224409469,0.1319989146374648,688.3624061111113
1536,2048,59.89738380450829,286561,51551,44806144,30055824,1.1332247792447436,0.1556626327726184,1.0,1536,0,1,1,345.20680132516463,0.6663965572750012,0.1594620582936218,688.3624061111113
1536,256,511.6435508967655,388550,70497,32743424,29703800,0.6436750053850928,0.3177213121089843,0.4906514885240209,1536,0,1,1,1402.9559110925047,0.8587057942127263,0.0684412864369703,688.3624061111113
1536,512,170.68014317255918,536144,62923,36151296,30116952,0.6633726960343275,0.1802088852357035,0.6782472061350387,1536,0,1,1,1014.9137362964067,0.8601711409656699,0.07720322006325,688.3624061111113
2048,1024,135.11611467769723,454639,51405,39956480,29826824,0.9054084232951745,0.1171065361487498,1.0,2048,0,1,1,558.9643528223698,0.786746668913606,0.0924901904949673,688.3624061111113
2048,128,669.5137210198134,451515,68882,34578432,30047952,0.4749259947801296,0.1552322799117397,0.36909077226715586,2048,0,1,1,1865.021988717886,0.9003467361885266,0.0208357182254748,688.3624061111113
2048,1536,77.9947105623072,382353,41534,61329408,44868416,1.1506281443545232,0.1498570502224337,1.0,2048,0,1,1,357.75011073642656,0.7392836271942889,0.1145684847844998,688.3624061111113
2048,2048,60.28527569169452,340521,50488,56348672,44836136,1.253338023324405,0.1784959661983531,1.0,2048,0,1,1,302.22947779783544,0.7211411615832575,0.1190499947772854,688.3624061111113
2048,256,423.15817151415234,404328,41365,32481280,29807568,0.595159355645852,0.2036682427595932,0.4974574559767788,2048,0,1,1,1383.7613605760166,0.8650702697961686,0.068026202990677,688.3624061111113
2048,512,150.72147827100298,482374,49232,43229184,29455064,0.7255842332452733,0.227451799173479,0.7319135539467634,2048,0,1,1,940.4968693354465,0.8704709887314278,0.0773495247409854,688.3624061111113
256,1024,122.81079443329338,370437,78902,45985792,30435232,0.9204978091341995,0.1109451811411354,1.0,256,0,1,1,557.9087520542415,0.7636269510222136,0.1068277069560941,688.3624061111113
256,128,925.0011893327554,455373,48922,32481280,29681216,0.46871024482391227,0.324713098534636,0.29470624958618724,256,0,1,1,2335.7577488691795,0.8894599204917578,0.0377845831544981,688.3624061111113
256,1536,61.70219798094597,314432,42061,59232256,44388968,1.3319084502791634,0.17093979369293,1.0,256,0,1,1,311.5801175223156,0.7159965259202485,0.1323250169789134,688.3624061111113
256,2048,35.292048353576355,251251,51899,57135104,44768216,1.4513971446468619,0.2971360424128466,1.0,256,0,1,1,210.63954720373752,0.7454202366224185,0.1383762149353661,688.3624061111113
256,256,354.83327027077564,414836,71567,37199872,29928320,0.40718119316279866,0.0397388511885762,0.3848752954378922,256,0,1,1,1788.5336218525704,0.8643852280811501,0.0692699504667124,688.3624061111113
256,512,183.93792261635036,460535,48313,33792000,29918048,0.5509101306485685,0.0724608018929471,0.5498205241187439,256,0,1,1,1251.9765558305107,0.8884405855410599,0.0633628447326993,688.3624061111113
512,1024,110.64931405423428,386180,69992,53596160,44018912,0.9139320161145357,0.101363226392091,1.0,512,0,1,1,538.3950541046535,0.7624025804792469,0.1223346217823837,688.3624061111113
512,128,889.8993761262008,530252,40923,32743424,29443576,0.5074281721206206,0.2103548298231473,0.37403750024661664,512,0,1,1,1840.356663856562,0.8650902187613609,0.0542543622342649,688.3624061111113
512,1536,103.27046936480528,403165,51294,44806144,31345464,1.13030541013295,0.1657634162094398,1.0,512,0,1,1,372.2588713804279,0.736008759597389,0.1295850796009011,688.3624061111113
512,2048,50.68666652398734,330463,48156,58707968,44766256,1.2355492748076473,0.2277418405167718,1.0,512,0,1,1,303.5451356351209,0.7205642901610118,0.1378672584537895,688.3624061111113
512,256,384.5512013956069,420384,45057,32743424,29560968,0.38476770573273567,0.0674253092831179,0.36010209725604836,512,0,1,1,1911.5756652248974,0.8794953938051895,0.0589261296117807,688.3624061111113
512,512,168.40254813328394,417448,28721,36151296,29513296,0.5826557977409188,0.0750769769253017,0.6136507969172047,512,0,1,1,1121.749388364254,0.8830458433744202,0.0526524426137246,688.3624061111113
