cpu,memory,duration_std,userDiff,sysDiff,heapTotal,heapUsed,avg_cpu_util,cpu_util_std,slo_preservation,total_cpu_shares,cpu_shares_others,num_containers,arrival_rate,latency,memory_util,memory_util_std,slo_duration
1024,1024,90.38053258635028,371245,42625,36024320,29973192,0.9192113150548886,0.1109444412874498,0.9855120063359176,1024,0,1,1,698.482009032449,0.7548316901663357,0.0861704695019171,688.3624061111113
1024,128,661.933513593339,420014,34470,32743424,29411288,0.6769854442888644,0.3177294645112091,0.35735076653721726,1024,0,1,1,1926.2933525551007,0.866117018531942,0.0536458984961648,688.3624061111113
1024,1536,59.02817981407178,295884,67516,55037952,45192944,1.2102947725586684,0.33959735790807,1.0,1024,0,1,1,456.6517881215255,0.7137838041867619,0.1491406124771154,688.3624061111113
1024,2048,36.76624663214748,285354,55560,57921536,45805608,1.2652595360926708,0.2291548622237446,1.0,1024,0,1,1,351.32023766225734,0.6603562674598293,0.142635417338082,688.3624061111113
1024,256,452.6943415023943,425669,27418,35889152,29857928,0.5363421721070287,0.1258248463308273,0.3613526463997824,1024,0,1,1,1904.960190465969,0.8472666234825752,0.0749664047385805,688.3624061111113
1024,512,220.02065624397585,494817,78607,35102720,29379120,0.7103400592936505,0.1848945943206784,0.5128253363075315,1024,0,1,1,1342.294066567557,0.870686957691912,0.0774140691796781,688.3624061111113
128,1024,130.45628623913152,352772,60544,50188288,44387144,0.9068652757538406,0.119155334418539,0.9045328762838779,128,0,1,1,761.0142474192129,0.8131701604548777,0.0908544640456498,688.3624061111113
128,128,1209.1647503872543,391708,51294,32743424,29951216,0.5826587842400336,0.2577457646660765,0.2653920658567797,128,0,1,1,2593.756538609522,0.8736281245527441,0.0615247663164356,688.3624061111113
128,1536,64.066190289942,290687,41353,45068288,30090512,1.2338136815259237,0.3075640041494473,1.0,128,0,1,1,421.02344432676585,0.7447310851376773,0.107815230211116,688.3624061111113
128,2048,40.58622941931704,324790,58177,56872960,45436448,1.288825564337765,0.3028230667916994,1.0,128,0,1,1,332.39965252670163,0.6644831837432802,0.1777890386674373,688.3624061111113
128,256,236.2019928170245,431500,61248,32481280,29678632,0.41755848568745146,0.0291270013846784,0.30149045827370025,128,0,1,1,2283.197982624709,0.8749019394883518,0.0653161073597852,688.3624061111113
128,512,184.591601991234,396050,47652,33529856,29855872,0.6393078132162585,0.0843722530459685,0.4829082858705161,128,0,1,1,1425.4516359565725,0.8852535247576074,0.0657990988001537,688.3624061111113
1536,1024,111.61789398686356,499492,41971,51499008,44870560,0.9414305931954016,0.1319558581404372,0.9031411786695345,1536,0,1,1,762.1869341902611,0.7895077870959779,0.1085511663721782,688.3624061111113
1536,128,1014.6207829295925,432140,118156,32481280,29519640,0.4974473797842861,0.3412870042980842,0.21142989981579463,1536,0,1,1,3255.747681434071,0.8695235566312194,0.0550956666083571,688.3624061111113
1536,1536,86.02464787899213,404161,60741,61067264,45441832,1.1080360309837292,0.113453170954161,1.0,1536,0,1,1,511.49395496678125,0.7292224409469,0.1319989146374648,688.3624061111113
1536,2048,59.89738380450829,286561,51551,44806144,30055824,1.0966979438769509,0.1556626327726184,1.0,1536,0,1,1,475.6057684003292,0.6663965572750012,0.1594620582936218,688.3624061111113
1536,256,511.6435508967655,388550,70497,32743424,29703800,0.7066217535140065,0.3177213121089843,0.4039752347277456,1536,0,1,1,1703.97179563501,0.8587057942127263,0.0684412864369703,688.3624061111113
1536,512,170.68014317255918,536144,62923,36151296,30116952,0.7243300107056444,0.1802088852357035,0.5554285046148223,1536,0,1,1,1239.3357567928133,0.8601711409656699,0.07720322006325,688.3624061111113
2048,1024,135.11611467769723,454639,51405,39956480,29826824,0.9273380145283134,0.1171065361487498,0.9459927931028468,2048,0,1,1,727.6613639447396,0.786746668913606,0.0924901904949673,688.3624061111113
2048,128,669.5137210198134,451515,68882,34578432,30047952,0.5466890466082341,0.1552322799117397,0.3186463016664988,2048,0,1,1,2160.2711298107715,0.9003467361885266,0.0208357182254748,688.3624061111113
2048,1536,77.9947105623072,382353,41534,61329408,44868416,1.1088713364212597,0.1498570502224337,1.0,2048,0,1,1,494.96255942285313,0.7392836271942889,0.1145684847844998,688.3624061111113
2048,2048,60.28527569169452,340521,50488,56348672,44836136,1.1786864965364754,0.1784959661983531,1.0,2048,0,1,1,428.4947098956708,0.7211411615832575,0.1190499947772854,688.3624061111113
2048,256,423.15817151415234,404328,41365,32481280,29807568,0.6621785537391677,0.2036682427595932,0.41510604129041156,2048,0,1,1,1658.2808671520331,0.8650702697961686,0.068026202990677,688.3624061111113
2048,512,150.72147827100298,482374,49232,43229184,29455064,0.7790286707470127,0.227451799173479,0.5893681431885461,2048,0,1,1,1167.966769270893,0.8704709887314278,0.0773495247409854,688.3624061111113
256,1024,122.81079443329338,370437,78902,45985792,30435232,0.9391642122483235,0.1109451811411354,0.9441348069060663,256,0,1,1,729.0933467084831,0.7636269510222136,0.1068277069560941,688.3624061111113
256,128,925.0011893327554,455373,48922,32481280,29681216,0.5405008913884719,0.324713098534636,0.25488400193641536,256,0,1,1,2700.688944309787,0.8894599204917578,0.0377845831544981,688.3624061111113
256,1536,61.70219798094597,314432,42061,59232256,44388968,1.2298583551028928,0.17093979369293,1.0,256,0,1,1,449.91218134463134,0.7159965259202485,0.1323250169789134,688.3624061111113
256,2048,35.292048353576355,251251,51899,57135104,44768216,1.304217168214052,0.2971360424128466,1.0,256,0,1,1,312.54675965747504,0.7454202366224185,0.1383762149353661,688.3624061111113
256,256,354.83327027077564,414836,71567,37199872,29928320,0.4780270494329923,0.0397388511885762,0.3388800949684355,256,0,1,1,2031.2860399051406,0.8643852280811501,0.0692699504667124,688.3624061111113
256,512,183.93792261635036,460535,48313,33792000,29918048,0.6205847068823965,0.0724608018929471,0.4645179719192049,256,0,1,1,1481.8854118110212,0.8884405855410599,0.0633628447326993,688.3624061111113
512,1024,110.64931405423428,386180,69992,53596160,44018912,0.9340295256551955,0.101363226392091,0.9799954497610297,512,0,1,1,702.4138798593069,0.7624025804792469,0.1223346217823837,688.3624061111113
512,128,889.8993761262008,530252,40923,32743424,29443576,0.5786897375735285,0.2103548298231473,0.31992458453152334,512,0,1,1,2151.639603186808,0.8650902187613609,0.0542543622342649,688.3624061111113
512,1536,103.27046936480528,403165,51294,44806144,31345464,1.0946458413074753,0.1657634162094398,1.0,512,0,1,1,512.5142768108558,0.736008759597389,0.1295850796009011,688.3624061111113
512,2048,50.68666652398734,330463,48156,58707968,44766256,1.1668373517989667,0.2277418405167718,1.0,512,0,1,1,428.56012637024173,0.7205642901610118,0.1378672584537895,688.3624061111113
512,256,384.5512013956069,420384,45057,32743424,29560968,0.45470500688252224,0.0674253092831179,0.3191670406032428,512,0,1,1,2156.746526239268,0.8794953938051895,0.0589261296117807,688.3624061111113
512,512,168.40254813328394,417448,28721,36151296,29513296,0.6505294738147255,0.0750769769253017,0.5138513144110707,512,0,1,1,1339.613983278508,0.8830458433744202,0.0526524426137246,688.3624061111113
