cpu,memory,duration_std,userDiff,sysDiff,heapTotal,heapUsed,avg_cpu_util,cpu_util_std,slo_preservation,total_cpu_shares,cpu_shares_others,num_containers,arrival_rate,latency,memory_util,memory_util_std,slo_duration
1024,1024,10.891668870211843,31470,652,26054656,15381680,0.8584975127598076,0.246432631802741,0.5943149815981819,1024,0,1,1,28.980812756365953,0.6599777753366813,0.0525784538506367,17.223731199999985
1024,128,11.864694250540008,22071,25,28319744,24253568,0.8712032536449142,0.1995290374332855,0.6022271687067966,1024,0,1,1,28.600056747664965,0.8556156724053388,0.0303263801678132,17.223731199999985
1024,1536,14.27186542867764,16775,178,42487808,27494768,1.0275841553191176,0.1782231388976165,0.7675210410843121,1024,0,1,1,22.440728368393955,0.5346468916188842,0.0621773362630033,17.223731199999985
1024,2048,5.447062526877697,9170,8335,42749952,27397328,1.0788458034640542,0.0721427641790262,1.0,1024,0,1,1,14.609798032146058,0.5290430124147665,0.0600210378249845,17.223731199999985
1024,256,9.828824558166009,31042,3765,19365888,14527512,0.9619979455324109,0.232756474541158,0.725755470266864,1024,0,1,1,23.73214106628329,0.8141614575071383,0.0247780396156864,17.223731199999985
1024,512,8.589739661995289,29861,3636,28319744,24347024,1.0100186794646477,0.1858270633847897,0.8221068328268327,1024,0,1,1,20.95072138103487,0.8774419058637853,0.0111899670704498,17.223731199999985
128,1024,11.102120619528447,28055,13216,25268224,14953168,0.9439709575743893,0.3634138681794945,0.5964767729603956,128,0,1,1,28.87577853956703,0.675468568419073,0.058719765060724,17.223731199999985
128,128,11.785194666323104,12326,4022,18841600,14701944,0.8151414976965089,0.1822101972861237,0.542172106220952,128,0,1,1,31.76801425667734,0.8391928599339711,0.036218285523892,17.223731199999985
128,1536,12.15857093888066,18367,24,43012096,27424064,0.9641855880261121,0.1622353285480172,0.7010897743571,128,0,1,1,24.56708374586431,0.5205567986045497,0.0578841282411268,17.223731199999985
128,2048,5.62980432461951,12837,4196,43008000,27341264,1.1090715872685326,0.2031283004799685,1.0,128,0,1,1,14.226670808304323,0.5278145679010224,0.0551760448863639,17.223731199999985
128,256,13.227533043254612,32199,8028,28844032,23966120,0.8670720140945324,0.1853556019942925,0.45432939117723364,128,0,1,1,37.910228865825275,0.8385756500323879,0.0410491814777975,17.223731199999985
128,512,13.611180745897764,49398,9963,19628032,14597048,0.9069484395596766,0.2236240509980912,0.5428872068735161,128,0,1,1,31.726168865152196,0.843969296320086,0.0435433369499803,17.223731199999985
1536,1024,7.903864864323139,10723,560,25792512,15017328,0.8976905781348287,0.162703369379796,0.668781953384115,1536,0,1,1,25.753881534700348,0.6538761881846996,0.0519163450882878,17.223731199999985
1536,128,17.40759791369942,20328,4046,18841600,14834376,0.830453689521352,0.2582779325211523,0.5793015580075718,1536,0,1,1,29.731891727062923,0.8464797644794837,0.0403920352702991,17.223731199999985
1536,1536,16.328621733400492,2040,15449,42745856,27320512,0.9741580920332206,0.1079248998866534,0.6254251475091733,1536,0,1,1,27.539236739353143,0.5329753176772973,0.0566276825062855,17.223731199999985
1536,2048,4.890445901123302,18627,28,42487808,27382016,1.0824571060427495,0.1052117103781666,1.0,1536,0,1,1,14.614657689438253,0.5426655187644015,0.0578134360628222,17.223731199999985
1536,256,9.342800774856125,23255,11041,19365888,14551080,0.970673963035525,0.2248350095228199,0.7703681148073699,1536,0,1,1,22.357793461255557,0.810530831642217,0.0216982728537933,17.223731199999985
1536,512,20.4618779004211,36516,3384,19365888,14817600,0.878987597956869,0.2214441908011425,0.5873819727566555,1536,0,1,1,29.322880168022365,0.8224970588948753,0.0388086343250877,17.223731199999985
2048,1024,22.29608679725676,17656,302,34492416,27600752,0.9268346712895557,0.2403512575766765,0.6141844900849135,2048,0,1,1,28.04325325378818,0.6546888474302153,0.0624309588643539,17.223731199999985
2048,128,16.386117716784526,26271,7907,19103744,14759888,0.8576727941060369,0.1738428356286589,0.6222665119260702,2048,0,1,1,27.67902638161941,0.8278431531720127,0.03854093835191,17.223731199999985
2048,1536,10.587244825089472,17197,277,43012096,27553584,0.9607873369894724,0.2677835091994923,0.7890898173192356,2048,0,1,1,21.827339324329316,0.5265494002206401,0.0547764228160667,17.223731199999985
2048,2048,8.48182021069909,16335,173,42745856,27304528,1.0810031157841835,0.2349929845788191,0.9922504747085937,2048,0,1,1,17.35824939268312,0.5213654145758206,0.0560848523462784,17.223731199999985
2048,256,7.5134251436087744,32019,4805,19365888,14550984,0.9947717882476191,0.1994498919500977,0.9756448826906434,2048,0,1,1,17.653688863206256,0.8140498841593823,0.0205532691210858,17.223731199999985
2048,512,9.173452242133912,33555,3578,19103744,14800488,0.9666457802269062,0.1803341215335159,0.8810400910697646,2048,0,1,1,19.54931605789564,0.8150997928991162,0.019888447361551,17.223731199999985
256,1024,25.9814314005154,54175,935,33964032,27534792,0.9138718887698014,0.294810986408866,0.4628007746683399,256,0,1,1,37.216297255213426,0.6585073324188748,0.0544590553478095,17.223731199999985
256,128,12.48882522613268,28170,11962,28844032,24001800,0.8420158325188628,0.1955132294130261,0.5260889662565534,256,0,1,1,32.73919869971314,0.8618565245148242,0.0285900093602714,17.223731199999985
256,1536,13.426288875553947,22890,31,42745856,27419352,1.0000928772426134,0.1870792235375859,0.6013977649006211,256,0,1,1,28.63949985388813,0.5160495341884681,0.0602910040519488,17.223731199999985
256,2048,11.780110007481415,11622,3945,42745856,27336656,1.0517203140841922,0.185951863849914,0.9839045799523487,256,0,1,1,17.50548940511502,0.5268011682135901,0.054531471549215,17.223731199999985
256,256,13.28383598747674,11739,3294,19365888,15309048,0.8443396133804432,0.2135046305086445,0.519873451126965,256,0,1,1,33.13062277495212,0.8116745243127441,0.0249898216947363,17.223731199999985
256,512,15.698851546061986,31084,7915,19103744,14816256,0.8161671994143865,0.2596112694657715,0.5012056451086716,256,0,1,1,34.36459937769761,0.8259004070747634,0.031884782775097,17.223731199999985
512,1024,14.478108771067395,18416,4486,34226176,27223920,0.8805387229159971,0.2687392965462498,0.5275575432904299,512,0,1,1,32.64806165517761,0.6468513772899175,0.0517468541515811,17.223731199999985
512,128,14.711495746791538,21013,4175,28057600,24343056,0.8405237795908608,0.1956280276864382,0.4722538683314667,512,0,1,1,36.47133958024236,0.8789762776058974,0.0122792814704845,17.223731199999985
512,1536,8.807742200190662,17674,437,42483712,27626080,0.9572726324119193,0.1877942973382108,0.8355215566534718,512,0,1,1,20.614346886496236,0.5327372043208497,0.0580419262321896,17.223731199999985
512,2048,7.027858152167775,9937,7353,42745856,27353664,1.105386426655085,0.2238690875481497,1.0,512,0,1,1,15.221963072440058,0.5199290869049948,0.0560770385059204,17.223731199999985
512,256,9.39496665719761,30367,5551,19628032,14565328,1.0032990709709544,0.2122911790550485,0.7476774178099024,512,0,1,1,23.03631324114584,0.8083533978946174,0.0221548763399052,17.223731199999985
512,512,9.991469453118286,21245,11629,19628032,14748176,0.9075344874050087,0.1935105296970442,0.6754285038211678,512,0,1,1,25.500450606627474,0.8098000472386232,0.0291277608799928,17.223731199999985
