cpu,memory,duration_std,userDiff,sysDiff,heapTotal,heapUsed,avg_cpu_util,cpu_util_std,slo_preservation,total_cpu_shares,cpu_shares_others,num_containers,arrival_rate,latency,memory_util,memory_util_std,slo_duration
1024,1024,57.34902975505413,185619,39683,44425216,34387936,0.8949692154290066,0.1699345690399098,0.4747230831316757,1024,0,1,1,326.89715240851046,0.7251464521609213,0.0878723767385392,155.1856240583334
1024,128,116.32515274991302,119493,30399,31424512,28145864,0.7420527302704598,0.1121854136441048,0.33608391133430715,1024,0,1,1,461.7466615471759,0.8537674566054652,0.0408115065141654,155.1856240583334
1024,1536,34.9365909791526,54533,26311,55332864,37509384,0.9629819601463006,0.1702313007199802,0.713732941616013,1024,0,1,1,217.42813734639554,0.6102873096573871,0.0877978644092349,155.1856240583334
1024,2048,39.21587042864142,96447,55027,69963776,50095760,1.005097892251828,0.1859568556832188,0.8282643306052269,1024,0,1,1,187.36243771953406,0.6492708911078363,0.0848681508770168,155.1856240583334
1024,256,115.23545847435548,38384,3716,36409344,31945232,0.8679606211467774,0.1726193702150145,0.43253254121265544,1024,0,1,1,358.78369665147596,0.8536158803502426,0.0530111504716458,155.1856240583334
1024,512,84.92465341813573,30748,12317,35303424,31612656,0.8838915121131443,0.1353110958826146,0.4177156445699319,1024,0,1,1,371.51020335402586,0.8543346798416008,0.0567622231524229,155.1856240583334
128,1024,51.127314491159154,122860,32763,48959488,39058952,0.9565657996682311,0.1793127860893568,0.551859223779694,128,0,1,1,281.2050924789554,0.7350918444963057,0.0776474883032833,155.1856240583334
128,128,118.00179205452412,101568,16236,27320320,23095032,0.7579447551617341,0.1115600020689966,0.3314548363999323,128,0,1,1,468.19538294830295,0.8539126783883919,0.0410350686080354,155.1856240583334
128,1536,52.59842095338977,116667,21055,52322304,34770216,0.9491235776119826,0.1789162685485123,0.5541276310853902,128,0,1,1,280.05393586738415,0.5947233395992331,0.1089528741350623,155.1856240583334
128,2048,38.26411912349201,32906,18217,44265472,26749888,0.9849770539575463,0.1435632581212556,0.7857442214860668,128,0,1,1,197.50145125449734,0.6108370192375663,0.0839571511825197,155.1856240583334
128,256,55.71998091343757,112216,35622,32473088,28177952,0.9985974392641026,0.2336033527901114,0.6278054496837484,128,0,1,1,247.18744339748375,0.8370943150420744,0.0544998009804544,155.1856240583334
128,512,71.50164739601946,170475,45743,37736448,33676992,0.9724565346377505,0.185839129752378,0.47539946934410454,128,0,1,1,326.4320514964787,0.8579002963745934,0.0472010694793305,155.1856240583334
1536,1024,55.03845821182819,113345,38514,48697344,39123520,0.9770452341457113,0.1647689992855981,0.6679786989917474,1536,0,1,1,232.32121666839356,0.718160961172851,0.0862170813701583,155.1856240583334
1536,128,101.72728918718902,108350,33358,30965760,25904608,0.8929513327992445,0.1293743214185519,0.43471829052403027,1536,0,1,1,356.9797439883774,0.8557657611012409,0.0481845181657994,155.1856240583334
1536,1536,40.81303864796332,69944,26817,54386688,34579888,1.0221522507520864,0.14774553848947,0.794398722962616,1536,0,1,1,195.3497904422441,0.6340011592009728,0.059177479910739,155.1856240583334
1536,2048,30.7438990291802,123152,40676,34312192,14519856,1.0836003007971364,0.2195045808687694,0.9911444281024556,1536,0,1,1,156.5721600790674,0.6538895896597113,0.093934628297421,155.1856240583334
1536,256,67.96849263825146,36104,7430,35700736,31899536,0.9882682520231757,0.2075008089918672,0.5334072129306333,1536,0,1,1,290.93274387070284,0.8663326965823546,0.0491587200393667,155.1856240583334
1536,512,85.17503354847123,92128,42088,27844608,23080512,0.8621966040067823,0.1054872880316155,0.48282906858203156,1536,0,1,1,321.4090330436841,0.8641341050552536,0.0431020218802892,155.1856240583334
2048,1024,88.49372909333535,74978,15789,26054656,14399416,0.8870151781377429,0.1450833998448648,0.564850802275532,2048,0,1,1,274.73737035188714,0.727534873796394,0.0725159007648439,155.1856240583334
2048,128,94.1318286353048,36300,7333,35438592,31745488,0.8111608882672241,0.1335367985494393,0.4404507435788868,2048,0,1,1,352.3336634588719,0.8425022173165887,0.0561399142570469,155.1856240583334
2048,1536,50.38871925991597,117969,19715,54124544,34537592,0.9681151474098671,0.1673664184330942,0.6625600586534345,2048,0,1,1,234.22121818469952,0.6489876547165413,0.0675557761604121,155.1856240583334
2048,2048,37.79104610224507,45997,22317,45641728,26091528,1.0082847854791233,0.1689339580464908,0.8929404866309382,2048,0,1,1,173.7916763566722,0.6271514958648025,0.0921117611054078,155.1856240583334
2048,256,98.36801834903676,99146,37955,36589568,32024208,0.8589966973304138,0.1912310572556695,0.45772730002780987,2048,0,1,1,339.03510681776,0.8568116700095754,0.0425608870670306,155.1856240583334
2048,512,102.4106462645,33769,7592,36147200,31950264,0.9125529312539515,0.1407587448837134,0.5012069088494024,2048,0,1,1,309.6238725331737,0.8593647568664462,0.042611786951658,155.1856240583334
256,1024,53.80858393364693,65976,22,41910272,33796808,1.002265907180131,0.1337235296091262,0.5638353104047271,256,0,1,1,275.23218428256905,0.7182985959978064,0.087964740565984,155.1856240583334
256,128,91.31991829875436,41712,3674,35303424,31616040,0.8728930442247637,0.1363695704373422,0.5272537811072483,256,0,1,1,294.3281387806059,0.8672815253248144,0.0354943510666345,155.1856240583334
256,1536,48.35718185916931,100723,23272,64602112,46597400,1.019766771825165,0.1620459306203104,0.750944537344293,256,0,1,1,206.6539089652954,0.6254377021961327,0.0749585679509674,155.1856240583334
256,2048,28.48349577448339,50810,12661,55332864,37598320,1.0771340579033797,0.2144876621933727,1.0,256,0,1,1,150.1040550757446,0.6045138411186242,0.0889680787815779,155.1856240583334
256,256,79.74968764222137,68227,13066,46006272,41439040,0.9987937294171124,0.1833856841650428,0.5323602607792028,256,0,1,1,291.50489901555,0.8676503544342002,0.0396378370517422,155.1856240583334
256,512,113.00696464265168,113520,31358,36327424,32726888,0.8344135646076734,0.1116924710603368,0.3703291585185891,256,0,1,1,419.04781324569575,0.8577242784269483,0.0454182805476366,155.1856240583334
512,1024,81.724968402329,131166,23851,48959488,37410608,0.8543263381802819,0.1429415212708873,0.618638593175935,512,0,1,1,250.85021492378843,0.723642072647484,0.0757040061139218,155.1856240583334
512,128,127.08197221036475,118269,15878,46268416,41508504,0.752196954670705,0.1036897294563967,0.3689394824400349,512,0,1,1,420.62623125069376,0.8566244489655794,0.0489323316877229,155.1856240583334
512,1536,74.40224667510508,87192,16809,55332864,37592520,0.9084847773599509,0.1848919287751203,0.6510294486215095,512,0,1,1,238.36959201603491,0.6461337874101204,0.0831949162951302,155.1856240583334
512,2048,33.91133674053491,54888,39265,48996352,29704000,0.9953153847690132,0.1687398585783772,0.9081329801250091,512,0,1,1,170.88425093533252,0.6408683131262947,0.0737957084906444,155.1856240583334
512,256,91.4260033928102,29583,12292,35565568,31616976,0.8769903443985254,0.1035516054787855,0.42360390921718843,512,0,1,1,366.3460621624416,0.8699886151026263,0.0345259848609305,155.1856240583334
512,512,77.15895755496078,107078,32551,36589568,32027792,0.8461350844215588,0.1616033847159776,0.5060402316767768,512,0,1,1,306.66657380999527,0.87402382608162,0.0275268314961787,155.1856240583334
