cpu,memory,duration_std,userDiff,sysDiff,heapTotal,heapUsed,avg_cpu_util,cpu_util_std,slo_preservation,total_cpu_shares,cpu_shares_others,num_containers,arrival_rate,latency,memory_util,memory_util_std,slo_duration
1024,1024,217.53268951095583,440256,48432,40480768,29559528,0.8843864232777986,0.3508599004143622,0.6445922573855604,1024,0,1,1,1387.8948293331023,0.6954055215273452,0.1458448025404211,894.6262610535714
1024,128,847.8225188140879,465560,58942,37462016,29370224,0.6201584637074466,0.1388684643248391,0.3118822225834507,1024,0,1,1,2868.4746877940283,0.8369188801713955,0.070133682929701,894.6262610535714
1024,1536,182.699727627724,410500,52606,61067264,44768800,0.9266975565658476,0.3211496607682572,0.799967554966819,1024,0,1,1,1118.3281815606617,0.696908327773249,0.1561791005900657,894.6262610535714
1024,2048,105.6528289656539,314561,56341,59232256,44660184,0.8090511277892432,0.2511000879073886,0.8761692670831857,1024,0,1,1,1021.0655573800598,0.5749778772742146,0.172658922425878,894.6262610535714
1024,256,311.8344032027083,448973,50171,34840576,29648376,0.6525000104802083,0.0978421862753704,0.39698770417328233,1024,0,1,1,2253.5364487336196,0.8858146841260112,0.0729495207247084,894.6262610535714
1024,512,240.4270124130798,447156,44869,32481280,29408608,0.6781321559672652,0.0797668827681398,0.4442833626140707,1024,0,1,1,2013.6388988094827,0.8731289399999893,0.0604604537853804,894.6262610535714
128,1024,170.6905476929534,398340,40682,29462528,15129448,0.8405952806215176,0.1877846998340082,0.6716969514587262,128,0,1,1,1331.8897147154069,0.6986961556954682,0.1555577903555781,894.6262610535714
128,128,646.3204662242719,429079,60600,33529856,29892280,0.4001424193199022,0.0503766744139094,0.22472768999544498,128,0,1,1,3980.934708454061,0.9086335935493292,0.0082445641575599,894.6262610535714
128,1536,168.8680330707761,370155,53247,57397248,44767568,0.8658954305722807,0.336213667662969,0.7301899766078306,128,0,1,1,1225.1965785803384,0.5769023921579252,0.1757703671007635,894.6262610535714
128,2048,166.1649863178176,375961,49297,47689728,29674672,0.8530466406519849,0.279354578178659,0.8452024979007446,128,0,1,1,1058.4756472863983,0.6038429235267544,0.1723536570522606,894.6262610535714
128,256,262.3328086571156,542733,58179,42967040,29536864,0.5059744854413091,0.0369030084301293,0.29525938247368216,128,0,1,1,3029.967256445487,0.8581053420823155,0.0831241588232115,894.6262610535714
128,512,253.63514792710828,451197,52805,21463040,14954600,0.663797029848251,0.0690948706643482,0.43223847008731703,128,0,1,1,2069.7515907661964,0.881012375155995,0.0565832085633133,894.6262610535714
1536,1024,193.95997455168367,421452,54634,50188288,44303680,0.8394372464872991,0.18746259875788,0.664695932688819,1536,0,1,1,1345.9180612624502,0.7219066742699856,0.1359717223359975,894.6262610535714
1536,128,506.8309175899917,468598,68680,34316288,29521944,0.579297769184677,0.0546466587677108,0.32963711636403703,1536,0,1,1,2713.9730832543282,0.8800203918469507,0.0437569374337609,894.6262610535714
1536,1536,156.2212606647829,391954,32139,56086528,44992688,0.9097617215456014,0.2320366773818372,0.8288535468421537,1536,0,1,1,1079.3538429822795,0.5852863712145843,0.1752248816580958,894.6262610535714
1536,2048,156.6537448727704,326739,69689,47951872,29619664,0.892550429396964,0.4149241415863494,0.8637939814742384,1536,0,1,1,1035.694019917471,0.6239993365290112,0.1844643893526922,894.6262610535714
1536,256,318.20732477375503,538241,61350,46383104,44122320,0.6521550546674039,0.0958437763421896,0.39294730516786897,1536,0,1,1,2276.707968951162,0.8949574337892837,0.0543798871473754,894.6262610535714
1536,512,260.9968255766714,398415,49450,37462016,29411232,0.6950736106091099,0.1049828401859918,0.45916439691113026,1536,0,1,1,1948.3789838059315,0.8462934342996895,0.0828934769947313,894.6262610535714
2048,1024,207.1541408426371,576209,49648,53596160,43871160,0.9115219521879041,0.3179101780467553,0.656402829850905,2048,0,1,1,1362.9226145426221,0.7169457956113375,0.1213812769163949,894.6262610535714
2048,128,790.5211017346637,410797,51189,31956992,29638280,0.5666153942553749,0.1226532657792552,0.27610515779610484,2048,0,1,1,3240.1649726305563,0.8661716046372799,0.0673492525744454,894.6262610535714
2048,1536,167.8662325880859,397524,35742,56078336,30593656,0.8573390123566278,0.323825479405717,0.7245098393669835,2048,0,1,1,1234.802086104478,0.6072518337451028,0.1583786493640404,894.6262610535714
2048,2048,121.14459767182872,284007,56349,57659392,44639632,0.8690855908976193,0.3021726207807331,0.8980370436096573,2048,0,1,1,996.2019578364203,0.6182806942795545,0.1923043784393629,894.6262610535714
2048,256,398.4208755717183,466767,43314,33529856,29728616,0.6049008725492643,0.1136379144442247,0.3396228051793297,2048,0,1,1,2634.1760547592953,0.8772269970069376,0.0654642401315357,894.6262610535714
2048,512,237.82985125032147,522083,50772,32481280,29380248,0.7204617031447145,0.0968912731216472,0.4604749500054455,2048,0,1,1,1942.8337221014772,0.8468512405722995,0.0963021654937858,894.6262610535714
256,1024,192.54150795880625,357923,55207,52285440,44486992,0.806938523052127,0.1754491319636682,0.6152008019512507,256,0,1,1,1454.2020397503686,0.7128085525021184,0.1541280786884937,894.6262610535714
256,128,996.348330096725,436677,40275,38248448,29718072,0.5368423059115005,0.1053652867307944,0.2881839035991195,256,0,1,1,3104.358882923761,0.8488559502202891,0.0465846273733991,894.6262610535714
256,1536,145.51894779804334,315070,52013,58970112,44647464,0.8653742325622269,0.2624270627469498,0.8355405375813213,256,0,1,1,1070.7155677249225,0.5592862250291734,0.1967082721934194,894.6262610535714
256,2048,148.17491748302544,258001,43830,57397248,44333336,0.8680574867334107,0.3043392334983751,0.9731821172567009,256,0,1,1,919.2793878862362,0.6310994402601786,0.1677465036631344,894.6262610535714
256,256,375.3999760285935,504832,65977,41656320,30065232,0.5582248608817435,0.061784376188436,0.33790044847469575,256,0,1,1,2647.6030591020863,0.8623897239654392,0.0751371383513197,894.6262610535714
256,512,196.93043338128143,424457,43729,32219136,29533712,0.6640530923714763,0.0631337361373989,0.4305192997300184,256,0,1,1,2078.016622285221,0.8518423594787679,0.0966225371171516,894.6262610535714
512,1024,186.3237272208609,529019,36153,42840064,29485600,0.8682148182086962,0.2343462409578172,0.6701973343299777,512,0,1,1,1334.8699184964141,0.731922371253457,0.1408561594996778,894.6262610535714
512,128,1041.2351524383776,429290,63140,32481280,29464440,0.5979742522934437,0.1458911634317059,0.28972609197982235,512,0,1,1,3087.834633533374,0.8842122734647836,0.0628652054906618,894.6262610535714
512,1536,118.94036542884622,348370,48676,47689728,29631568,0.962624015597381,0.2841545105830322,0.9543929872388142,512,0,1,1,937.3772366473942,0.5858453032443032,0.2065698443191649,894.6262610535714
512,2048,121.493156186539,303624,43546,57397248,45843160,0.9158065298798442,0.3193673552002318,1.0,512,0,1,1,857.5448885485848,0.6070584232260801,0.1803872864148061,894.6262610535714
512,256,527.7143614567512,460180,58960,33529856,29361544,0.5974223020756283,0.1008477317982593,0.33849240449308604,512,0,1,1,2642.9729269504032,0.8398161982333591,0.0948326996034582,894.6262610535714
512,512,302.8616530674704,410852,56163,20938752,14951216,0.7013128891257225,0.1037942423989203,0.45506619496044015,512,0,1,1,1965.9255531634099,0.8880141340162334,0.0541576267864099,894.6262610535714
