0.2831593019437969
0.22488302684702507
0.19696842829208644
0.14813904669501543
0.13033574337153725
0.1158731211945574
0.0985073084003134
0.08556870319092068
0.07750388796228871
0.07223071060571717
0.06923819598455482
0.06673308753164599
0.0650701066671997
0.06300001448499269
0.06111673914201915
0.06001832790966387
0.05877997092445798
0.05719598055432882
0.05552880642116333
0.05405039753824521
0.052806083397285354
0.052171186053481915
0.05147913617572804
0.05110595913657694
0.05001523073100329
0.0494149179686076
0.049079784041722134
0.04827461392190328
0.04780738480186899
0.04686421542453461
0.04702423060347428
0.04646663895476346
0.046226042115935534
0.04511495345658151
0.044790197089558344
0.04471273855645063
0.044389941643979726
0.04407987962276002
0.04318527824429862
0.04329770074322532
0.04294272433110436
0.04282973399620587
0.042522582147862704
0.04211224513931375
0.041943359701376595
0.04137951886357592
0.040974280993122614
0.04050172960281507
0.04032312818759894
0.040087146818098655
0.03961686665140728
0.03934654213871192
0.03921091312975564
0.039495145091413
0.039241152216743465
0.03884343139340354
0.038487165903904545
0.03870165564685308
0.0385458210288356
0.038504401545359904
0.037952187199470244
0.03762797049756282
0.037645292282041734
0.037426899630750625
0.03739820109436786
0.03702429448897036
0.03678713830200631
0.03667840641588077
0.03648234006818225
0.036301192826023954
0.035933091093995444
0.035712587598562245
0.035348742917336466
0.03537768662831058
0.03497798635130057
0.03480757012218628
0.034694035379940036
0.03511969183823485
0.03512105628020436
0.03476733451278906
0.034102962990266175
0.034072169862024666
0.034131983831068156
0.03398592216879525
0.033706883399404024
0.033502150929710615
0.033413438617271654
0.03321931902261241
0.03330121571808087
0.03294219133590796
0.03283848947954298
0.03255778957526636
0.032783722133045395
0.03291113046319315
0.032811858025253424
0.0327083919945617
0.03269375071489049
0.032764765694338345
0.03274374700588924
0.03249756907897336
