cpu,memory,duration_std,userDiff,sysDiff,heapTotal,heapUsed,avg_cpu_util,cpu_util_std,slo_preservation,total_cpu_shares,cpu_shares_others,num_containers,arrival_rate,latency,memory_util,memory_util_std,slo_duration
1024,1024,136.06538166834264,203800,58116,39694336,30590568,0.5466630591433378,0.1873612151783365,1.0,1024,0,1,1,410.6542503218603,0.7230601560261785,0.1486070244265042,429.79778905042
1024,128,290.45308596542696,256608,50089,33005568,29913632,0.49180732661497517,0.1320103776279769,0.6600840443072584,1024,0,1,1,651.1258570133778,0.8443314205380212,0.1211096284201377,429.79778905042
1024,1536,145.27488172353165,273258,38480,50573312,30343864,0.6104378774393089,0.3179416865422677,1.0,1024,0,1,1,390.3337932396771,0.5817332178243835,0.1680777358794999,429.79778905042
1024,2048,115.62902368762792,241637,55943,50049024,30249736,0.4940154464482746,0.1565432943492921,0.9789332332153157,1024,0,1,1,439.0470917395919,0.5644010431449423,0.1652673054938905,429.79778905042
1024,256,185.77207431401865,214953,43777,33529856,30466888,0.6636564382762601,0.2620627449128679,0.8973241077769372,1024,0,1,1,478.977200462402,0.8592055692274918,0.0834417711047774,429.79778905042
1024,512,139.48282586258753,267117,22055,32743424,30516536,0.6328871540493021,0.3004803689327229,0.8804333153621814,1024,0,1,1,488.16620356263473,0.8737817277476768,0.0662384274299377,429.79778905042
128,1024,112.79109204908772,236410,37414,40218624,30316824,0.6657018570283396,0.2866597457303665,1.0,128,0,1,1,357.09774627235714,0.7339052116016003,0.1393706293152969,429.79778905042
128,128,212.9717487567568,271460,43062,32743424,30645648,0.5158569035131176,0.1358594725521592,0.6717817255712271,128,0,1,1,639.7878547305762,0.8786517641926056,0.0598382093964377,429.79778905042
128,1536,126.15254189506344,279492,25587,50835456,30921072,0.6036972698200916,0.3331688569831997,1.0,128,0,1,1,366.7687119981157,0.5958902718522694,0.172376329352822,429.79778905042
128,2048,150.7652088978852,223906,38048,38244352,15937320,0.5319397382325853,0.2052018449817696,1.0,128,0,1,1,427.08577512003535,0.5422453165011573,0.1723876509645855,429.79778905042
128,256,151.84026548424197,225304,28484,32481280,30365600,0.4860245659805511,0.1515585019868029,0.7199691990300121,128,0,1,1,596.9669114032527,0.856078701336242,0.0689048150344104,429.79778905042
128,512,167.88980141834674,271462,37491,33005568,30185528,0.6550714080227538,0.2394091290856976,0.8803322245000108,128,0,1,1,488.2222609703125,0.8765340251133186,0.0759713015528599,429.79778905042
1536,1024,145.6712837117395,219191,56983,39694336,30578536,0.6532143518705997,0.3333463669478562,1.0,1536,0,1,1,427.1066587827297,0.6764921680974437,0.1639265562183544,429.79778905042
1536,128,430.0698975256337,311695,78410,33005568,30305184,0.5695269625013575,0.2639031832614391,0.5923844398736892,1536,0,1,1,725.5386200590674,0.8604309195535546,0.0894266516764825,429.79778905042
1536,1536,138.26745355483237,253713,42348,50573312,30448840,0.6057981631854781,0.3818410745817064,1.0,1536,0,1,1,415.241764502224,0.5952607411901206,0.1701730301961476,429.79778905042
1536,2048,142.36740698407,297083,43646,49000448,30425568,0.5574869945706904,0.3664877964668936,0.9769803698583472,1536,0,1,1,439.92469276812244,0.596146721069932,0.1759865841997429,429.79778905042
1536,256,143.28059034841925,309925,17230,33267712,30305368,0.5910208375948903,0.1961576062639706,0.8758582924389468,1536,0,1,1,490.7161269816713,0.8702000739528414,0.0811682209662468,429.79778905042
1536,512,169.1999677237779,276666,30382,33267712,30044648,0.5756115983037673,0.2009852575519799,0.8090862331521279,1536,0,1,1,531.2138205293224,0.8568692329231349,0.079037117417166,429.79778905042
2048,1024,144.07820013829638,293931,39166,39694336,31132912,0.55147639740985,0.3003011027002862,0.8639805040938854,2048,0,1,1,497.46236982647883,0.6595063818509426,0.1547740487906013,429.79778905042
2048,128,270.62610660678496,254913,51035,33005568,30195952,0.5164117909503084,0.1541641110277986,0.6725458338622162,2048,0,1,1,639.0609641906908,0.8620500556102255,0.087151312653338,429.79778905042
2048,1536,149.59324183848017,260902,28114,50573312,30483928,0.670893954895559,0.3592140957689044,1.0,2048,0,1,1,371.61832281781653,0.5884367982478241,0.1648236251460894,429.79778905042
2048,2048,139.86947497553385,296550,42353,50835456,31424944,0.6358243320188542,0.2951928458060781,1.0,2048,0,1,1,379.61607270896667,0.5963302825989188,0.177509182190483,429.79778905042
2048,256,126.59497587367288,295422,42015,33267712,30439824,0.5684521704882058,0.2370236624199425,0.8370210037217611,2048,0,1,1,513.485070433539,0.842937340392177,0.1257310283504441,429.79778905042
2048,512,105.55303615452004,296132,14942,33005568,30330648,0.5300317868162943,0.1796479212652356,0.8258193348231767,2048,0,1,1,520.4501407592348,0.8631043788228652,0.0661727649982669,429.79778905042
256,1024,142.414330366311,250874,35106,39956480,30371664,0.572539236816949,0.3587633278769617,1.0,256,0,1,1,419.6010872429391,0.7116816538778736,0.1463199117416548,429.79778905042
256,128,125.8159788332332,317714,26050,33005568,30617856,0.5415997189211901,0.1375736123605836,0.763827832094816,256,0,1,1,562.6893535310037,0.8365988337669863,0.067039504325283,429.79778905042
256,1536,146.82086231168242,280581,42464,50573312,30986888,0.5697992333909758,0.3468948876562076,1.0,256,0,1,1,411.00843608287425,0.604188656785655,0.1555208475858074,429.79778905042
256,2048,165.01423242765097,308442,18121,50049024,30789904,0.5464322098468175,0.2936188998338441,0.9831764545901521,256,0,1,1,437.1522396044217,0.5858660150701833,0.1618199969027847,429.79778905042
256,256,126.1497703483756,272500,38797,33005568,30603552,0.5332925493016331,0.1732558180468709,0.8574807581053631,256,0,1,1,501.23315886419994,0.8580378457402293,0.0916624377394624,429.79778905042
256,512,151.8372096104732,266764,31516,33005568,30611536,0.6007440705165874,0.1944749211941821,0.8636125136335278,256,0,1,1,497.6743415193308,0.8232487214308698,0.0890883667703509,429.79778905042
512,1024,145.7117911051164,249548,34422,39694336,30296080,0.6509847734404121,0.3331991206349071,1.0,512,0,1,1,386.41393895029586,0.6266824836660347,0.1638925603741658,429.79778905042
512,128,240.9346076009492,340209,61367,33267712,30206472,0.6105325627244383,0.24741954341125,0.7950884215860923,512,0,1,1,540.5660268489792,0.8404710855321605,0.0861469023534566,429.79778905042
512,1536,156.14274253620184,298095,41479,51097600,31476888,0.5324606845189092,0.2934718821034288,1.0,512,0,1,1,418.82423925442004,0.6303564852490802,0.1703322991436889,429.79778905042
512,2048,136.7122711045053,285944,38374,50573312,30849272,0.59266718339013,0.3388845902752249,1.0,512,0,1,1,406.385963658457,0.5572141537353189,0.1592828486250354,429.79778905042
512,256,115.61369287502204,298694,29520,32743424,30740752,0.6099719848677585,0.1951270686870313,0.9423278633535268,512,0,1,1,456.102176073696,0.8213519416483175,0.1144400268793369,429.79778905042
512,512,139.4130734293489,261943,25304,33267712,30018664,0.565297916257479,0.1998615568815619,0.8878033124032266,512,0,1,1,484.1137479955836,0.806370417862798,0.1225549722864821,429.79778905042
