cpu,memory,duration_std,userDiff,sysDiff,heapTotal,heapUsed,avg_cpu_util,cpu_util_std,slo_preservation,total_cpu_shares,cpu_shares_others,num_containers,arrival_rate,latency,memory_util,memory_util_std,slo_duration
1024,1024,118.16817672528003,636002,46066,53587968,30034184,0.9230560961507885,0.0836675953984802,0.8278149409349723,1024,0,1,1,1035.3393722874143,0.7898435199056664,0.1020394070866573,857.0694013177572
1024,128,987.672088965419,664482,92673,38772736,29961896,0.635080574562247,0.1952951925921821,0.3276109009343702,1024,0,1,1,2616.119911985019,0.8408551087170625,0.0802973466786946,857.0694013177572
1024,1536,78.72267454779163,442611,74117,70250496,58677232,1.0656686534038964,0.1776839098002678,1.0,1024,0,1,1,764.9124164609083,0.7348083729303968,0.1380159687250011,857.0694013177572
1024,2048,67.49761964736206,483011,49569,69464064,59476160,1.2403029543643742,0.1854517144055597,1.0,1024,0,1,1,574.8708505699101,0.6684375608042696,0.1604122026461754,857.0694013177572
1024,256,493.4856284101406,557864,68704,31956992,29325216,0.6300325814162953,0.1402299417025299,0.38109730482300885,1024,0,1,1,2248.951620678088,0.8839410372415821,0.0833534428107926,857.0694013177572
1024,512,248.10941261037112,529689,73920,31956992,29347784,0.6661420142043996,0.1024688113990841,0.4442297868549143,1024,0,1,1,1929.3379838071878,0.8805139074707913,0.0738937227266901,857.0694013177572
128,1024,125.9877001212805,508921,60250,39956480,29876808,0.9285264030985069,0.1720996248902102,0.8033715603069482,128,0,1,1,1066.8406048507522,0.7893205370268448,0.1024751875033324,857.0694013177572
128,128,1430.9783648231496,675842,112280,61071360,58098312,0.6965394993782242,0.298537007245591,0.28934839185814637,128,0,1,1,2962.0672705792576,0.913970582522426,0.0280669890146511,857.0694013177572
128,1536,52.91578703672865,443006,77637,70512640,59366120,1.2617536761019408,0.177191049662441,1.0,128,0,1,1,563.5047225205608,0.6013869847227883,0.1802503953235273,857.0694013177572
128,2048,34.440846091815224,470978,82332,62115840,44189312,1.3360379329828576,0.1013274028053829,1.0,128,0,1,1,444.926185959917,0.4754445737087953,0.1771550162272205,857.0694013177572
128,256,458.8415378352954,646065,75470,32481280,29577712,0.42030789285835524,0.0483684529623408,0.2500653768677465,128,0,1,1,3427.3813194500744,0.883768636758827,0.0750103800358665,857.0694013177572
128,512,205.40803690544817,594469,87014,46645248,43708168,0.6311516197276011,0.042611305724283,0.43430791608256,128,0,1,1,1973.4141828417241,0.8673991157848056,0.0985829445744939,857.0694013177572
1536,1024,111.79449800961687,549043,35807,51499008,44093128,0.919265087901897,0.10543198930297,0.8293801330395185,1536,0,1,1,1033.3854974036608,0.8002789114003738,0.0938608047356058,857.0694013177572
1536,128,813.0613600652135,519628,133353,31956992,29563024,0.6484318602809352,0.1653445839087564,0.3503101736445049,1536,0,1,1,2446.6015143126046,0.9186509570734792,0.0105736844748625,857.0694013177572
1536,1536,78.00639050224106,551223,76157,74698752,44202936,1.0787551762326864,0.1302748365043147,1.0,1536,0,1,1,746.8654878149798,0.6631574246649443,0.1325421902400768,857.0694013177572
1536,2048,49.25682857054434,423755,41904,69726208,59344624,1.1844509742751028,0.1517735730413525,1.0,1536,0,1,1,563.3996414766032,0.7022014030937449,0.1668130266603483,857.0694013177572
1536,256,577.4777042173268,635519,74001,34840576,29344976,0.7085969917671509,0.2287152289328772,0.40064681193211676,1536,0,1,1,2139.2143299095414,0.8694511124022968,0.0923481408654209,857.0694013177572
1536,512,211.8269040794736,617061,68557,32481280,29542376,0.6568508547323592,0.0871618433243509,0.45246975005735596,1536,0,1,1,1894.2026537887082,0.8947878681999516,0.0679588181663116,857.0694013177572
2048,1024,113.42412883609153,554313,55078,42315776,29743296,0.9556192803396283,0.1823211423768784,0.883791478890957,2048,0,1,1,969.7642733479026,0.7871412985123465,0.1051234348344812,857.0694013177572
2048,128,1106.858546778045,749275,93058,37986304,29609688,0.8128077674896318,0.5842143662437381,0.26654692348213993,2048,0,1,1,3215.454112623384,0.872256470985008,0.0545330897731887,857.0694013177572
2048,1536,56.307393611495065,454295,51578,69464064,58488616,1.2412604385292783,0.1424577278170886,1.0,2048,0,1,1,567.2497164451709,0.6108845306901162,0.1720116230291004,857.0694013177572
2048,2048,31.93407010017621,486281,46654,66301952,30259784,1.3364538768646612,0.1252489758466491,1.0,2048,0,1,1,460.736457106305,0.4512501163589991,0.1590439502067246,857.0694013177572
2048,256,621.2511817999756,697163,80068,46120960,43875992,0.6182458938388519,0.1938952901514823,0.3477406846251052,2048,0,1,1,2464.6796857887157,0.8952612505110568,0.0736459789523454,857.0694013177572
2048,512,249.3104743410941,730627,64307,32481280,29911840,0.6683825108423848,0.0922326910852594,0.4627807972518526,2048,0,1,1,1851.9986274437538,0.9023084650709166,0.0402559887204667,857.0694013177572
256,1024,147.58170216006357,625138,77803,53858304,43818360,0.9290250934128507,0.1116780761854889,0.8211767568115568,256,0,1,1,1043.7087925449368,0.7725625492852816,0.0832247265914726,857.0694013177572
256,128,1155.2678691311085,616528,102029,34840576,29478920,0.7130430873159395,0.3999392878036187,0.2933267841979973,256,0,1,1,2921.8927404161986,0.906778520864447,0.04649638353137,857.0694013177572
256,1536,71.40345096338605,462351,63608,71299072,59048088,1.2481682254567934,0.2474034352748032,1.0,256,0,1,1,618.9260101207101,0.6867814236761327,0.122138135942635,857.0694013177572
256,2048,44.3429383146922,517245,102840,76804096,58534024,1.3285806464687624,0.1890372641164678,1.0,256,0,1,1,443.0842918592741,0.5104879938280635,0.2099597013662376,857.0694013177572
256,256,364.24867588034607,554047,49764,32743424,29960880,0.4232492833759729,0.0371962034562637,0.2738912493941203,256,0,1,1,3129.232508207895,0.8931036755245791,0.0499634899600335,857.0694013177572
256,512,175.15428897690472,684838,73075,46907392,43910064,0.6268091777331176,0.0493575833167056,0.42002907944367573,256,0,1,1,2040.500154067754,0.897607879080125,0.0676748161257139,857.0694013177572
512,1024,136.68372752156205,433826,81517,52285440,45381848,0.9547270305165881,0.1592753794078226,0.8479146912058105,512,0,1,1,1010.796734868372,0.7826046172557415,0.1104096307560079,857.0694013177572
512,128,470.5510346454867,614548,75792,31956992,29468072,0.602916168039968,0.1232903847757365,0.34274185712397875,512,0,1,1,2500.626589671925,0.9154653507312852,0.0164155639818457,857.0694013177572
512,1536,64.81756569753128,407986,56970,71299072,59865112,1.185164701638457,0.2367338408066694,1.0,512,0,1,1,640.1782800142615,0.639670538705336,0.1605206637381687,857.0694013177572
512,2048,36.511575608222415,486960,55539,71823360,59401112,1.341310385334302,0.1151888101091276,1.0,512,0,1,1,462.09439108050776,0.5169875806686959,0.1893956856281096,857.0694013177572
512,256,385.0921732347794,703774,57590,46907392,43738776,0.5190638557013887,0.0643595244963255,0.32121131197192787,512,0,1,1,2668.2416508191354,0.8761339207189183,0.0621701221958932,857.0694013177572
512,512,214.73715065217183,601702,50728,32743424,29944648,0.6308551405144284,0.0681661419888803,0.4269114141474108,512,0,1,1,2007.6047932084912,0.8899353726265794,0.0707227786383141,857.0694013177572
