cpu,memory,duration_std,userDiff,sysDiff,heapTotal,heapUsed,avg_cpu_util,cpu_util_std,slo_preservation,total_cpu_shares,cpu_shares_others,num_containers,arrival_rate,latency,memory_util,memory_util_std,slo_duration
1024,1024,507.08843318343554,1508462,115849,42389504,36177936,0.991535394053361,0.2354202499901053,0.3374098964878595,1024,0,1,1,878.3135864856392,0.8328226288198218,0.0440801106248011,296.3516963000002
1024,128,993.3729385543232,1898112,174651,35962880,32538568,0.9023128555337868,0.201798636378038,0.20376273914553658,1024,0,1,1,1454.3959192084299,0.9244118725671288,0.0099701441006591,296.3516963000002
1024,1536,342.2333552217205,104824,8481,53006336,42922904,1.0231070357169918,0.3306389019022054,0.5505989101493486,1024,0,1,1,538.2351669014665,0.7276999488135832,0.0724096965334311,296.3516963000002
1024,2048,189.84508640854625,146856,10540,53006336,37323368,1.0342045985968233,0.1669377252911657,0.9741394602859494,1024,0,1,1,304.2189628710954,0.7324146710351127,0.0696487868515593,296.3516963000002
1024,256,553.5997149994331,1738357,134775,35700736,32840840,0.9785547984736143,0.2034191073950881,0.3168227333411095,1024,0,1,1,935.3864641428081,0.9317886019326964,0.0185332915678806,296.3516963000002
1024,512,571.1552906094215,1806145,100927,35962880,33738136,0.9584337874295085,0.1595077083558278,0.34502757613704965,1024,0,1,1,858.9217697262703,0.9285167533016006,0.0095782522482799,296.3516963000002
128,1024,589.0664175351344,1990498,105854,43962368,34723080,0.9556131501339657,0.2012056672590277,0.3397365965091666,128,0,1,1,872.2984198495207,0.8469000328063976,0.0304701429868016,296.3516963000002
128,128,606.4669147726838,1939817,185979,36749312,33624536,0.9404666352066992,0.1864170889675705,0.2874247920561042,128,0,1,1,1031.0582263277884,0.9242783584796298,0.0380289058923416,296.3516963000002
128,1536,369.62714703951485,1480201,151917,51433472,41256384,1.0443385517272221,0.5929546031678622,0.4984933724890217,128,0,1,1,594.4947569117917,0.7311077216749541,0.0476219518873158,296.3516963000002
128,2048,218.37853205465515,146207,4,54579200,41033216,1.0251624436198699,0.2134263673036997,0.9039346099595698,128,0,1,1,327.8463873766877,0.7099834058624661,0.0686585332083552,296.3516963000002
128,256,590.7119765794946,1614523,123177,35962880,32542520,1.0003928551226902,0.1978376048955297,0.29901871345392067,128,0,1,1,991.0807684137418,0.9176144626914744,0.0378738709057246,296.3516963000002
128,512,590.7022644954036,1719794,122123,35962880,32814776,0.9744479257007495,0.1602927106763026,0.32713981426464667,128,0,1,1,905.8869736358663,0.9284165938650868,0.0093681245624874,296.3516963000002
1536,1024,533.4493837880665,1626832,162247,42651648,36600824,0.9503146774321123,0.2321658262068365,0.34576502713373447,1536,0,1,1,857.0898530619111,0.8430085932266627,0.0262622761444929,296.3516963000002
1536,128,1021.0271792930164,2225430,234531,36225024,33504152,0.853437447791233,0.1936748803072192,0.19215498308126522,1536,0,1,1,1542.253505727034,0.9291118426811986,0.0119294393647068,296.3516963000002
1536,1536,355.9373319211025,1592859,165210,51433472,40924568,1.0160905252218333,0.2070352749670917,0.5142426799880894,1536,0,1,1,576.2876319539719,0.7189179776639423,0.0433535599633036,296.3516963000002
1536,2048,198.4131494332217,39418,456,52219904,35250688,1.0424236195831988,0.2425430769785926,1.0,1536,0,1,1,256.96479026713916,0.7098716258157719,0.0658139093413411,296.3516963000002
1536,256,541.3370132731619,1808977,124952,35700736,33247304,0.9542094697100546,0.2065156106731055,0.3390501526990233,1536,0,1,1,874.0644826167451,0.9284581442613924,0.0105794939582855,296.3516963000002
1536,512,568.8954320795316,1717410,125128,35700736,33122384,0.9637083178977716,0.219374973697275,0.3395552832510142,1536,0,1,1,872.7642034093282,0.9288893290417396,0.0110113762920332,296.3516963000002
2048,1024,559.5812277268814,1608564,165483,43438080,33937240,0.9782525402786707,0.1720487549654351,0.3271009146561432,2048,0,1,1,905.9947038409617,0.8338770877590613,0.0269171581560877,296.3516963000002
2048,128,476.14173478342536,1929728,162291,36487168,33339352,1.0115901354502748,0.2268236530432115,0.4161370494922991,2048,0,1,1,712.149270682721,0.9303010504489329,0.0146491775938731,296.3516963000002
2048,1536,543.4736614756176,1621444,126966,51171328,35830784,0.968845072861511,0.1794067999048696,0.322832412371727,2048,0,1,1,917.9737998511888,0.7240293350832078,0.0491664255049835,296.3516963000002
2048,2048,320.26884356212173,62166,3481,53006336,39053408,1.0236248905469127,0.1534656700996617,0.5632484688151977,2048,0,1,1,526.147362501279,0.7487264647090673,0.037855633566271,296.3516963000002
2048,256,808.2617199300922,1904543,147200,36487168,33775184,0.9128665928647587,0.2658931799332846,0.22659652700652932,2048,0,1,1,1307.8386514346748,0.924958765474473,0.0110393822578241,296.3516963000002
2048,512,881.2934542974797,1930136,146777,36487168,33726912,0.9356117105981668,0.1457609608435346,0.20544057444521993,2048,0,1,1,1442.5178526699526,0.9319291094564084,0.0120915659562163,296.3516963000002
256,1024,650.7532768831237,1692740,161173,42913792,33663432,0.9331450430564147,0.1668431447284475,0.3189874928585953,256,0,1,1,929.0386078910329,0.8387650269944411,0.0273087461730313,296.3516963000002
256,128,1120.47853170731,2248626,220636,36487168,33681112,0.8663975090623824,0.327664512094738,0.16303870344669483,256,0,1,1,1817.6769689345067,0.933667255856731,0.0117465803006775,296.3516963000002
256,1536,383.38648645411376,1619811,121906,52482048,42493600,1.0419512401546331,0.275557148065512,0.5154312799022167,256,0,1,1,574.9586954757995,0.718375579878199,0.0540456550773482,296.3516963000002
256,2048,205.88259852163773,1449150,109146,52219904,36274560,1.0388924214648125,0.2121366486680786,0.9272551136451775,256,0,1,1,319.6010374480413,0.7339352463652427,0.0495879795685304,296.3516963000002
256,256,354.06724637922093,1778052,103054,36487168,33299360,1.0365112414285012,0.2127792008668455,0.5275523419419221,256,0,1,1,561.7484233111893,0.9232601704453264,0.0361573095125386,296.3516963000002
256,512,586.5322283809915,1816318,109696,36487168,33844448,0.986324846047924,0.2134211737025172,0.3144522579378242,256,0,1,1,942.4378067547442,0.9313731301068005,0.0085812533199389,296.3516963000002
512,1024,568.5730705429478,1612029,105105,43175936,37379136,0.98314521250665,0.1721340951469189,0.334217788146989,512,0,1,1,886.702344429569,0.8276040203774058,0.0312316660094872,296.3516963000002
512,128,755.6223756024194,2154858,256763,36225024,32883984,0.9763839679493349,0.2949326551855289,0.21838296234936638,512,0,1,1,1357.0275497311936,0.9291245194618756,0.0140806396118266,296.3516963000002
512,1536,372.6317575441376,1545307,112106,52482048,39774784,1.0188238530857538,0.193985409608348,0.5172819937899304,512,0,1,1,572.9016278504938,0.7521404157617269,0.0597808721549866,296.3516963000002
512,2048,196.13105303438607,57706,8283,53268480,32750240,1.0328234693656626,0.1645676894804001,1.0,512,0,1,1,281.0426995267165,0.7379038620923215,0.0520396173463804,296.3516963000002
512,256,362.9457357552722,150943,6788,37273600,34024512,0.9913341062837094,0.2451656754811952,0.5568489872868562,512,0,1,1,532.1940114211558,0.9330332341394924,0.0149975374524075,296.3516963000002
512,512,651.0989806109554,191482,8309,37273600,34635096,0.9583868299586933,0.1818316481560198,0.29864705351687654,512,0,1,1,992.3141474531686,0.933124830839702,0.0074945226323038,296.3516963000002
