cpu,memory,duration_std,userDiff,sysDiff,heapTotal,heapUsed,avg_cpu_util,cpu_util_std,slo_preservation,total_cpu_shares,cpu_shares_others,num_containers,arrival_rate,latency,memory_util,memory_util_std,slo_duration
1024,1024,507.08843318343554,1508462,115849,42389504,36177936,0.9791038022529697,0.2354202499901053,0.8329488653414256,1024,0,1,1,355.7861816385639,0.8328226288198218,0.0440801106248011,296.3516963000002
1024,128,993.3729385543232,1898112,174651,35962880,32538568,0.7869940529211483,0.201798636378038,0.4443028350172274,1024,0,1,1,667.003838245843,0.9244118725671288,0.0099701441006591,296.3516963000002
1024,1536,342.2333552217205,104824,8481,53006336,42922904,1.0598417370246738,0.3306389019022054,1.0,1024,0,1,1,207.83185522514665,0.7276999488135832,0.0724096965334311,296.3516963000002
1024,2048,189.84508640854625,146856,10540,53006336,37323368,1.0901361001807042,0.1669377252911657,1.0,1024,0,1,1,115.44417264210954,0.7324146710351127,0.0696487868515593,296.3516963000002
1024,256,553.5997149994331,1738357,134775,35700736,32840840,0.9480578606530464,0.2034191073950881,0.7673721575075438,1024,0,1,1,386.1903163942807,0.9317886019326964,0.0185332915678806,296.3516963000002
1024,512,571.1552906094215,1806145,100927,35962880,33738136,0.9021832747648798,0.1595077083558278,0.8119447389223183,1024,0,1,1,364.98998280762703,0.9285167533016006,0.0095782522482799,296.3516963000002
128,1024,589.0664175351344,1990498,105854,43962368,34723080,0.8959598941711231,0.2012056672590277,0.7963221440907822,128,0,1,1,372.1505153399521,0.8469000328063976,0.0304701429868016,296.3516963000002
128,128,606.4669147726838,1939817,185979,36749312,33624536,0.8633678458316467,0.1864170889675705,0.6596547773902358,128,0,1,1,449.2527098377788,0.9242783584796298,0.0380289058923416,296.3516963000002
128,1536,369.62714703951485,1480201,151917,51433472,41256384,1.1187437694651277,0.5929546031678622,1.0,128,0,1,1,221.98248084617916,0.7311077216749541,0.0476219518873158,296.3516963000002
128,2048,218.37853205465515,146207,4,54579200,41033216,1.0653735463095413,0.2134263673036997,1.0,128,0,1,1,126.18890520766877,0.7099834058624661,0.0686585332083552,296.3516963000002
128,256,590.7119765794946,1614523,123177,35962880,32542520,1.0009827169047805,0.1978376048955297,0.747987559751637,128,0,1,1,396.19869667137414,0.9176144626914744,0.0378738709057246,296.3516963000002
128,512,590.7022644954036,1719794,122123,35962880,32814776,0.9384778423662359,0.1602927106763026,0.7876600148294118,128,0,1,1,376.2431642085866,0.9284165938650868,0.0093681245624874,296.3516963000002
1536,1024,533.4493837880665,1626832,162247,42651648,36600824,0.8844019808823823,0.2321658262068365,0.8044579395091227,1536,0,1,1,368.3868127161911,0.8430085932266627,0.0262622761444929,296.3516963000002
1536,128,1021.0271792930164,2225430,234531,36225024,33504152,0.6996284507758678,0.1936748803072192,0.3938106227642782,1536,0,1,1,752.523368262177,0.9291118426811986,0.0119294393647068,296.3516963000002
1536,1536,355.9373319211025,1592859,165210,51433472,40924568,1.0412212196666648,0.2070352749670917,1.0,1536,0,1,1,224.95139037539718,0.7189179776639423,0.0433535599633036,296.3516963000002
1536,2048,198.4131494332217,39418,456,52219904,35250688,1.1132668324765669,0.2425430769785926,1.0,1536,0,1,1,96.2450902017139,0.7098716258157719,0.0658139093413411,296.3516963000002
1536,256,541.3370132731619,1808977,124952,35700736,33247304,0.8928812133427154,0.2065156106731055,0.7931474202879285,1536,0,1,1,373.64011874667455,0.9284581442613924,0.0105794939582855,296.3516963000002
1536,512,568.8954320795316,1717410,125128,35700736,33122384,0.9139548780621528,0.219374973697275,0.8050625944995748,1536,0,1,1,368.1101299759328,0.9288893290417396,0.0110113762920332,296.3516963000002
2048,1024,559.5812277268814,1608564,165483,43438080,33937240,0.9473488924575217,0.1720487549654351,0.7919189484881527,2048,0,1,1,374.2197315340961,0.8338770877590613,0.0269171581560877,296.3516963000002
2048,128,476.14173478342536,1929728,162291,36487168,33339352,1.029487993381866,0.2268236530432115,1.0,2048,0,1,1,279.90736436827206,0.9303010504489329,0.0146491775938731,296.3516963000002
2048,1536,543.4736614756176,1621444,126966,51171328,35830784,0.9255900375896843,0.1794067999048696,0.7710481094252,2048,0,1,1,384.3491640501189,0.7240293350832078,0.0491664255049835,296.3516963000002
2048,2048,320.26884356212173,62166,3481,53006336,39053408,1.0612321299181895,0.1534656700996617,1.0,2048,0,1,1,203.00084069012783,0.7487264647090673,0.037855633566271,296.3516963000002
2048,256,808.2617199300922,1904543,147200,36487168,33775184,0.8073463372151839,0.2658931799332846,0.5010093411631338,2048,0,1,1,591.5093231834675,0.924958765474473,0.0110393822578241,296.3516963000002
2048,512,881.2934542974797,1930136,146777,36487168,33726912,0.853206910398585,0.1457609608435346,0.4683655511345948,2048,0,1,1,632.7358952469953,0.9319291094564084,0.0120915659562163,296.3516963000002
256,1024,650.7532768831237,1692740,161173,42913792,33663432,0.8480959188484494,0.1668431447284475,0.7247854791442057,256,0,1,1,408.88194483410325,0.8387650269944411,0.0273087461730313,296.3516963000002
256,128,1120.47853170731,2248626,220636,36487168,33681112,0.7217550918793891,0.327664512094738,0.3395497250257934,256,0,1,1,872.7784900355559,0.933667255856731,0.0117465803006775,296.3516963000002
256,1536,383.38648645411376,1619811,121906,52482048,42493600,1.1119209333142799,0.275557148065512,1.0,256,0,1,1,215.5113400025799,0.718375579878199,0.0540456550773482,296.3516963000002
256,2048,205.88259852163773,1449150,109146,52219904,36274560,1.1032547973045823,0.2121366486680786,1.0,256,0,1,1,120.38238002980412,0.7339352463652427,0.0495879795685304,296.3516963000002
256,256,354.06724637922093,1778052,103054,36487168,33299360,1.0965667621198423,0.2127792008668455,1.0,256,0,1,1,212.3932899411189,0.9232601704453264,0.0361573095125386,296.3516963000002
256,512,586.5322283809915,1816318,109696,36487168,33844448,0.9664993058449184,0.2134211737025172,0.7703290914652359,256,0,1,1,384.7079119604744,0.9313731301068005,0.0085812533199389,296.3516963000002
512,1024,568.5730705429478,1612029,105105,43175936,37379136,0.9589020764191838,0.1721340951469189,0.814940984692551,512,0,1,1,363.648045522957,0.8276040203774058,0.0312316660094872,296.3516963000002
512,128,755.6223756024194,2154858,256763,36225024,32883984,0.9429798059680286,0.2949326551855289,0.5272790475437596,512,0,1,1,562.0395835573298,0.9291245194618756,0.0140806396118266,296.3516963000002
512,1536,372.6317575441376,1545307,112106,52482048,39774784,1.0484270070124626,0.193985409608348,1.0,512,0,1,1,222.69012149504937,0.7521404157617269,0.0597808721549866,296.3516963000002
512,2048,196.13105303438607,57706,8283,53268480,32750240,1.0863080687921702,0.1645676894804001,1.0,512,0,1,1,106.88220194767165,0.7379038620923215,0.0520396173463804,296.3516963000002
512,256,362.9457357552722,150943,6788,37273600,34024512,0.9786132684234454,0.2451656754811952,1.0,512,0,1,1,215.64476661211557,0.9330332341394924,0.0149975374524075,296.3516963000002
512,512,651.0989806109554,191482,8309,37273600,34635096,0.9020792632972082,0.1818316481560198,0.7027520245504554,512,0,1,1,421.70166139268525,0.933124830839702,0.0074945226323038,296.3516963000002
