cpu,memory,duration_std,userDiff,sysDiff,heapTotal,heapUsed,avg_cpu_util,cpu_util_std,slo_preservation,total_cpu_shares,cpu_shares_others,num_containers,arrival_rate,latency,memory_util,memory_util_std,slo_duration
1024,1024,162.04226881321176,410684,52509,39694336,30046096,0.8343185705157026,0.1863960933329884,0.45312678879332546,1024,0,1,1,1226.7560044188722,0.7280086364387147,0.095901331436584,555.8760089152541
1024,128,325.5709501120345,291140,37587,33005568,29963888,0.8073413319326401,0.177269239954366,0.3509456694355571,1024,0,1,1,1583.937507504499,0.9096054723860276,0.0115740546214154,555.8760089152541
1024,1536,178.74797352212207,274740,23469,50835456,29860088,0.8525322088156877,0.2229916823208633,0.4693092919801863,1024,0,1,1,1184.4555784732313,0.5595165289338679,0.1057551811851252,555.8760089152541
1024,2048,124.2699456152548,264622,26717,49786880,29914736,0.8766627444104167,0.3051008015576379,0.579391422138453,1024,0,1,1,959.4135979155392,0.6127121688147625,0.1319577077936954,555.8760089152541
1024,256,161.03149227238845,460761,75545,32481280,30286152,0.8203161730810439,0.1307574429294587,0.3645667071086912,1024,0,1,1,1524.758015683331,0.9017526517752544,0.0518477681701545,555.8760089152541
1024,512,226.8979969216688,299995,32795,33005568,29663640,0.8308199120058617,0.1634164210568311,0.371262540739477,1024,0,1,1,1497.25853787475,0.919820063077671,0.0155098460993948,555.8760089152541
128,1024,179.7788003312574,363002,61595,39432192,30655648,0.8639175300502816,0.3117977296435523,0.44742407581181487,128,0,1,1,1242.3918134192086,0.7480738885794327,0.083205174211095,555.8760089152541
128,128,269.6243444339915,457149,72448,32743424,29687280,0.831958332668895,0.2221552824202946,0.39599122212474636,128,0,1,1,1403.7584114431213,0.8764515214706229,0.086170183654039,555.8760089152541
128,1536,145.34029962916753,327492,44164,49000448,29941520,0.8267268318294175,0.2411329195805424,0.5527912024888383,128,0,1,1,1005.5804188136987,0.6253383110294813,0.1170847859548306,555.8760089152541
128,2048,154.1941948515006,306390,63442,65871872,47732096,0.8084008325497001,0.3303681889617788,0.5377355590878888,128,0,1,1,1033.7348897999889,0.6273609617697941,0.1167267572571749,555.8760089152541
128,256,169.37842417185067,242578,58842,32743424,29696472,0.881373386906059,0.2391887696653374,0.4494520442375958,128,0,1,1,1236.7860287701772,0.8847284267296105,0.0806264124960224,555.8760089152541
128,512,172.31002896837427,415805,62782,32481280,29570520,0.8760767402820931,0.2288953772420952,0.4105692650012742,128,0,1,1,1353.9152983444314,0.9052993953999864,0.0420077759516918,555.8760089152541
1536,1024,196.1779676872713,457604,104919,39170048,31152016,0.8342126349369735,0.2139395057988027,0.4199624594206582,1536,0,1,1,1323.632616310729,0.7629887725771101,0.0795454325405319,555.8760089152541
1536,128,251.94759749217067,437309,70053,32481280,30262256,0.8582652062611636,0.1917340486448553,0.39466556175156414,1536,0,1,1,1408.4735603689928,0.8947227526397652,0.0729355751401977,555.8760089152541
1536,1536,167.37130069785104,252476,32003,44544000,30583368,0.8626399024164502,0.3231058543581758,0.5107786783735638,1536,0,1,1,1088.2913333134627,0.6575847913214881,0.1259170981560864,555.8760089152541
1536,2048,172.45833864527953,204183,52058,45854720,30251208,0.7936369063991974,0.2739495250370407,0.6177901189422732,1536,0,1,1,899.7813203405988,0.5723775221991952,0.1283511297592174,555.8760089152541
1536,256,229.12906353738268,375498,81143,32743424,29600672,0.8679082925552825,0.1898887760175804,0.4087333137720183,1536,0,1,1,1359.9968247885674,0.9137543731007932,0.0164322961923869,555.8760089152541
1536,512,159.50260223217617,467546,38267,33267712,30012120,0.8557281156220827,0.2199022884200825,0.43117905407627793,1536,0,1,1,1289.19993598974,0.8772480227272192,0.0748970067701986,555.8760089152541
2048,1024,168.81889269385263,472034,49336,39694336,29864240,0.8891826750225548,0.3138014735702985,0.4517890281731729,2048,0,1,1,1230.388465082831,0.7392794784706799,0.1214124985652791,555.8760089152541
2048,128,194.2095067052917,374124,49165,32743424,29650472,0.7617909289617729,0.13925162173087,0.4031567394218801,2048,0,1,1,1378.8086730544824,0.894577416358238,0.0655879735555998,555.8760089152541
2048,1536,156.72984979393374,273260,57737,44281856,30824600,0.8244351401217227,0.2378981370414737,0.5021586846372034,2048,0,1,1,1106.9728074440457,0.6062017196747169,0.1318338851335338,555.8760089152541
2048,2048,146.30882604816085,340212,41812,50311168,29951120,0.8643647652356652,0.3018345027396073,0.5523950212279393,2048,0,1,1,1006.3016275555433,0.587467847291516,0.1283539525759089,555.8760089152541
2048,256,183.4549703689416,301420,36777,32481280,30301952,0.8375603345152085,0.1967116636989621,0.41492657587785237,2048,0,1,1,1339.6972891871235,0.8850990460196518,0.0748171860752405,555.8760089152541
2048,512,152.42441389977822,299316,62971,33005568,29773728,0.788674687901584,0.1280862670300775,0.3862563724895569,2048,0,1,1,1439.1374447298813,0.9056794208508746,0.048460989327595,555.8760089152541
256,1024,164.94140825610822,433028,79292,39170048,29768736,0.8346770650720254,0.2461810802340134,0.4629768194832255,256,0,1,1,1200.6562435150051,0.7022837797016059,0.1087980265011993,555.8760089152541
256,128,187.96771042126585,417603,94260,32481280,29534424,0.8615700662795485,0.1838242170222536,0.35669683030496246,256,0,1,1,1558.3990708299843,0.9007881023717164,0.0405177984524477,555.8760089152541
256,1536,154.03967726790566,375114,84225,48214016,29868544,0.782735792638713,0.2145070443487745,0.5221647673707926,256,0,1,1,1064.5605442017938,0.5756606950193962,0.11394399760559,555.8760089152541
256,2048,165.3743568880707,237065,40792,36409344,15586264,0.8160055756445121,0.3046152153871813,0.506437006850699,256,0,1,1,1097.621227113701,0.6151167549260459,0.1421709353280771,555.8760089152541
256,256,167.79614132535306,336509,65448,33529856,30174968,0.8881160706706667,0.2142820243748806,0.4211893896286017,256,0,1,1,1319.7768571649372,0.8784697784868005,0.0737753248656067,555.8760089152541
256,512,212.0970670883985,412240,58378,32219136,29675312,0.8613933016989176,0.2250926499878195,0.39296435332977653,256,0,1,1,1414.5710780253949,0.8971542206851773,0.0514227878688539,555.8760089152541
512,1024,175.43148225170046,360264,41767,39432192,29758184,0.8721018299492554,0.2752074173589168,0.46669735033065923,512,0,1,1,1191.084561593099,0.7098877457473034,0.0926321676050625,555.8760089152541
512,128,208.52512277955043,328665,49789,32743424,29547368,0.8055550368796228,0.1863857854673859,0.3423270152884129,512,0,1,1,1623.8157787428045,0.9142320237190332,0.0151761509586709,555.8760089152541
512,1536,173.41264872499875,219779,52096,38768640,15575184,0.8533876886171315,0.2792255664799783,0.48926908818745574,512,0,1,1,1136.1355588078334,0.6485290712883447,0.1350978488279758,555.8760089152541
512,2048,163.61949392822905,216023,52808,43495424,30315216,0.8231085974886917,0.3285762500045972,0.5312251803656104,512,0,1,1,1046.4037275730757,0.6610080523468431,0.1158115301186562,555.8760089152541
512,256,158.55443763066893,372967,63085,32743424,30343144,0.8798209936868788,0.2400023679025587,0.42032039506497726,512,0,1,1,1322.505439759404,0.9176966729351488,0.014233228340628,555.8760089152541
512,512,120.66607366671424,317965,63607,33005568,29576408,0.8659211827696133,0.2555360731225983,0.3859900819889328,512,0,1,1,1440.1302905269788,0.8855544376634945,0.0680160766283225,555.8760089152541
