cpu,memory,duration_std,userDiff,sysDiff,heapTotal,heapUsed,avg_cpu_util,cpu_util_std,slo_preservation,total_cpu_shares,cpu_shares_others,num_containers,arrival_rate,latency,memory_util,memory_util_std,slo_duration
1024,1024,162.04226881321176,410684,52509,39694336,30046096,0.6266650484467082,0.18639609333298843,1,1024,0,1,1,544.4191271,0.7280086364387147,0.09590133143658404,555.8760089152541
1024,128,325.57095011203455,291140,37587,33005568,29963888,0.5827843995551699,0.17726923995436608,0.7599969919125337,1024,0,1,1,731.4186961666668,0.9096054723860275,0.011574054621415418,555.8760089152541
1024,1536,178.74797352212207,274740,23469,50835456,29860088,0.6583587789411756,0.22299168232086336,1,1024,0,1,1,511.2645581,0.5595165289338679,0.10575518118512522,555.8760089152541
1024,2048,124.2699456152548,264622,26717,49786880,29914736,0.7032009851402397,0.3051008015576379,1,1024,0,1,1,398.6921594000001,0.6127121688147625,0.13195770779369542,555.8760089152541
1024,256,161.03149227238845,460761,75545,32481280,30286152,0.6034542390096157,0.1307574429294587,0.8045653567217247,1024,0,1,1,690.90224215,0.9017526517752545,0.05184776817015457,555.8760089152541
1024,512,226.8979969216688,299995,32795,33005568,29663640,0.6207745320816682,0.16341642105683118,0.8322032007534773,1024,0,1,1,667.9570667500001,0.919820063077671,0.015509846099394806,555.8760089152541
128,1024,179.7788003312574,363002,61595,39432192,30655648,0.6790923904242898,0.3117977296435523,1,128,0,1,1,526.8424355499999,0.7480738885794327,0.08320517421109504,555.8760089152541
128,128,269.6243444339915,457149,72448,32743424,29687280,0.6226844621778262,0.2221552824202946,0.889146384476522,128,0,1,1,625.1794064736841,0.8764515214706229,0.08617018365403908,555.8760089152541
128,1536,145.34029962916753,327492,44164,49000448,29941520,0.6139609232280854,0.24113291958054248,1,128,0,1,1,451.3535429500001,0.6253383110294813,0.11708478595483061,555.8760089152541
128,2048,154.1941948515006,306390,63442,65871872,47732096,0.5844431793707977,0.3303681889617788,1,128,0,1,1,476.6201261,0.6273609617697941,0.11672675725717492,555.8760089152541
128,256,169.37842417185067,242578,58842,32743424,29696472,0.7123629732788581,0.2391887696653374,1,128,0,1,1,510.07250139999996,0.8847284267296105,0.0806264124960224,555.8760089152541
128,512,172.31002896837427,415805,62782,32481280,29570520,0.7020709090715676,0.2288953772420952,0.9870667392338541,128,0,1,1,563.15949755,0.9052993953999863,0.04200777595169187,555.8760089152541
1536,1024,196.1779676872713,457604,104919,39170048,31152016,0.6264857811307393,0.2139395057988027,0.9461634782921332,1536,0,1,1,587.50524795,0.7629887725771101,0.07954543254053191,555.8760089152541
1536,128,251.94759749217067,437309,70053,32481280,30262256,0.6687070847918273,0.1917340486448553,0.9224968762847989,1536,0,1,1,602.5776598333333,0.8947227526397652,0.07293557514019777,555.8760089152541
1536,1536,167.37130069785104,252476,32003,44544000,30583368,0.6767288269904354,0.3231058543581758,1,1536,0,1,1,462.42231360000005,0.6575847913214881,0.1259170981560864,555.8760089152541
1536,2048,172.45833864527953,204183,52058,45854720,30251208,0.5617768776349159,0.2739495250370407,1,1536,0,1,1,423.71487800000006,0.5723775221991952,0.12835112975921747,555.8760089152541
1536,256,229.12906353738268,375498,81143,32743424,29600672,0.6865366863171427,0.18988877601758047,0.9699541434209511,1536,0,1,1,573.0951434,0.9137543731007932,0.01643229619238691,555.8760089152541
1536,512,159.50260223217617,467546,38267,33267712,30012120,0.6641048106952075,0.21990228842008255,1,1536,0,1,1,553.7301814,0.8772480227272192,0.07489700677019867,555.8760089152541
2048,1024,168.81889269385263,472034,49336,39694336,29864240,0.7278630112983355,0.3138014735702985,1,2048,0,1,1,501.0283939499999,0.7392794784706799,0.12141249856527911,555.8760089152541
2048,128,194.20950670529166,374124,49165,32743424,29650472,0.5159723436413346,0.13925162173087008,0.8191921948104927,2048,0,1,1,678.5660464499999,0.894577416358238,0.06558797355559984,555.8760089152541
2048,1536,156.72984979393374,273260,57737,44281856,30824600,0.6101820780541106,0.23789813704147375,1,2048,0,1,1,498.5546197,0.6062017196747169,0.1318338851335338,555.8760089152541
2048,2048,146.30882604816085,340212,41812,50311168,29951120,0.679922003974601,0.3018345027396073,1,2048,0,1,1,426.42718084999996,0.587467847291516,0.1283539525759089,555.8760089152541
2048,256,183.45497036894156,301420,36777,32481280,30301952,0.6321785802955042,0.19671166369896212,0.9395419632085236,2048,0,1,1,591.6457494,0.8850990460196518,0.0748171860752405,555.8760089152541
2048,512,152.42441389977822,299316,62971,33005568,29773728,0.554369902552031,0.1280862670300775,0.8145141876438302,2048,0,1,1,682.4632613499999,0.9056794208508746,0.04846098932759508,555.8760089152541
256,1024,164.94140825610822,433028,79292,39170048,29768736,0.6272721270027948,0.2461810802340134,1,256,0,1,1,532.5494238500002,0.7022837797016059,0.10879802650119935,555.8760089152541
256,128,187.96771042126582,417603,94260,32481280,29534424,0.6747569472962738,0.18382421702225368,0.8380641589586295,256,0,1,1,663.2857436666667,0.9007881023717164,0.04051779845244778,555.8760089152541
256,1536,154.03967726790566,375114,84225,48214016,29868544,0.5456397967481792,0.21450704434877452,1,256,0,1,1,509.04744995,0.5756606950193962,0.11394399760559003,555.8760089152541
256,2048,165.3743568880707,237065,40792,36409344,15586264,0.5965001662209567,0.30461521538718134,1,256,0,1,1,500.51119960000005,0.6151167549260459,0.14217093532807712,555.8760089152541
256,256,167.79614132535306,336509,65448,33529856,30174968,0.7257226641367284,0.2142820243748806,1,256,0,1,1,538.3668328,0.8784697784868005,0.07377532486560674,555.8760089152541
256,512,212.0970670883985,412240,58378,32219136,29675312,0.6744317777988593,0.22509264998781953,0.9230196481853371,256,0,1,1,602.2363771000001,0.8971542206851773,0.05142278786885391,555.8760089152541
512,1024,175.43148225170046,360264,41767,39432192,29758184,0.6944611973297958,0.27520741735891685,1,512,0,1,1,498.5865444,0.7098877457473034,0.09263216760506253,555.8760089152541
512,128,208.52512277955043,328665,49789,32743424,29547368,0.5799991933557919,0.1863857854673859,0.7394258007507636,512,0,1,1,751.7671257222222,0.9142320237190332,0.015176150958670975,555.8760089152541
512,1536,173.41264872499875,219779,52096,38768640,15575184,0.6598913085895671,0.27922556647997837,1,512,0,1,1,489.75949314999997,0.6485290712883447,0.13509784882797587,555.8760089152541
512,2048,163.61949392822905,216023,52808,43495424,30315216,0.6080063910066731,0.3285762500045972,1,512,0,1,1,472.20112450000005,0.6610080523468431,0.11581153011865628,555.8760089152541
512,256,158.55443763066893,372967,63085,32743424,30343144,0.7093282622684164,0.24000236790255874,1,512,0,1,1,546.7934063157895,0.9176966729351487,0.014233228340628054,555.8760089152541
512,512,120.66607366671425,317965,63607,33005568,29576408,0.6828182547966972,0.2555360731225983,0.913112230293967,512,0,1,1,608.77074085,0.8855544376634945,0.06801607662832253,555.8760089152541
