cpu,memory,duration_std,userDiff,sysDiff,heapTotal,heapUsed,avg_cpu_util,cpu_util_std,slo_preservation,total_cpu_shares,cpu_shares_others,num_containers,arrival_rate,latency,memory_util,memory_util_std,slo_duration
1024,1024,769.0887821953565,2022053,153699,42913792,36039592,0.8944022731484228,0.12181727378687839,0.6074295497832743,1024,0,1,1,900.2764180500001,0.7942740412101199,0.11293982831447545,546.8544992966105
1024,128,1161.8149865141277,2348870,274506,38322176,35596816,0.9418520118494648,0.23691325529141255,0.4096212669917868,1024,0,1,1,1335.0246761176472,0.8841826309920131,0.06544346310486963,546.8544992966105
1024,1536,565.1200950394605,1805185,193281,68743168,52712296,1.1236668502236282,0.14073053680829517,0.9621548572338283,1024,0,1,1,568.36432845,0.7514080450914923,0.10420710161380554,546.8544992966105
1024,2048,355.70687944197095,1647160,181193,67956736,57232016,1.3673276278863962,0.23540740070153293,1.0,1024,0,1,1,375.68487760000005,0.7384613495706127,0.1319965420176874,546.8544992966105
1024,256,797.134747644116,2103411,169767,36749312,33468032,0.8597961324736504,0.13778986684721983,0.5066989384149123,1024,0,1,1,1079.24934875,0.873922370106726,0.0977873577001408,546.8544992966105
1024,512,796.0830839652835,2316321,145112,37535744,34983192,0.8265269511547706,0.10487812366192663,0.49742835734472474,1024,0,1,1,1099.3633378999998,0.8921751840074588,0.08886509438772047,546.8544992966105
128,1024,548.6789064432411,1993807,184828,51564544,37596312,1.1311383411257643,0.13553531894427753,0.8686482256267861,128,0,1,1,629.5465565499998,0.7385750736066115,0.12261106532105444,546.8544992966105
128,128,1003.6806550134471,2268428,184314,37273600,34926096,0.9987906528175374,0.2959755212663683,0.4350741172956049,128,0,1,1,1256.92261975,0.9082233216504993,0.05230618292244974,546.8544992966105
128,1536,344.01410497722384,1704270,161061,68743168,56792448,1.4426146680356142,0.27224915521964627,1.0,128,0,1,1,372.4532478,0.7069327129778643,0.1186856206514836,546.8544992966105
128,2048,252.0157206145455,1871810,174672,84217856,69486360,1.8534173609467601,0.3843087758644787,1.0,128,0,1,1,226.48626364999996,0.7568207142391942,0.11567383669664588,546.8544992966105
128,256,367.6804826431221,2107893,131909,37273600,34275096,1.465017384562913,0.14051707940468483,1.0,128,0,1,1,431.4087618,0.8755827202326044,0.0786632194732445,546.8544992966105
128,512,557.1670470368167,2039263,185705,37011456,33645608,1.0400994801961871,0.13215991848489783,0.7567809596635862,128,0,1,1,722.6060491000001,0.9029849452577098,0.05914652124473772,546.8544992966105
1536,1024,584.658098287321,2029352,191146,44486656,37341536,1.1443612427853413,0.1299478987220318,0.917122997598686,1536,0,1,1,596.27171135,0.8188588798016418,0.08610422355374592,546.8544992966105
1536,128,1124.7454124489732,2386893,279068,37535744,34967104,0.9241179436274687,0.2607828892984832,0.40853331857576136,1536,0,1,1,1338.579925875,0.8983444341079441,0.0780550821673232,546.8544992966105
1536,1536,377.27740051152733,1976491,151648,83431424,71356336,1.4303153128708657,0.24929021357635667,1.0,1536,0,1,1,362.2414686500002,0.760034685580762,0.1357444329192536,546.8544992966105
1536,2048,333.8865152033289,1994526,165496,64540672,37848160,1.923648864024413,0.2978051026769915,1.0,1536,0,1,1,236.65655549999997,0.7543778757601206,0.11479510291801445,546.8544992966105
1536,256,352.4119806981355,1963495,158330,37011456,34721000,1.499979404714297,0.14387102708094482,1.0,1536,0,1,1,406.2331256000001,0.888152594031107,0.08533296182518929,546.8544992966105
1536,512,540.5593942466085,1894847,186187,37273600,35213688,1.121253808478838,0.09198607759408255,0.8022225719919871,1536,0,1,1,681.6742864,0.8829884872471269,0.08146793618925054,546.8544992966105
2048,1024,603.1958195271662,2061778,219264,74649600,66588344,1.1880488835826952,0.2521523780528274,0.8746203059192984,2048,0,1,1,625.2478882500002,0.7712034590836035,0.09277552885867325,546.8544992966105
2048,128,1041.8995394697981,2373483,250531,37797888,35434088,1.0102157783275374,0.18209863805067217,0.46792548030678255,2048,0,1,1,1168.6786086923078,0.9186997936011039,0.04586583876692636,546.8544992966105
2048,1536,356.90180037782693,1925778,163279,66637824,37253664,1.5397481412576095,0.21930903830142445,1.0,2048,0,1,1,317.06367005000004,0.7141483304909906,0.11315389078242083,546.8544992966105
2048,2048,233.22551981654064,1733879,145282,64540672,36635656,1.9198146014151305,0.27936875151318125,1.0,2048,0,1,1,203.24054685000002,0.7388927458715119,0.11003594844040343,546.8544992966105
2048,256,361.9307242468515,1862080,140665,52224000,49171832,1.4219782815037667,0.1352010258776054,1.0,2048,0,1,1,433.75416350000006,0.8389168896992716,0.11423729914055665,546.8544992966105
2048,512,563.3105924679217,2295169,134161,42254336,33777144,1.175323313994943,0.12190245972790095,0.8197970943713798,2048,0,1,1,667.0607923,0.8695385858614879,0.08455512134474928,546.8544992966105
256,1024,562.5971107806786,1920103,183813,75173888,66983328,1.136359847433163,0.15622175974817315,0.9085439788701347,256,0,1,1,601.9020675,0.8028470127185466,0.11157037854979912,546.8544992966105
256,128,970.3683418688825,2290646,147847,37797888,35012352,0.9814959533830403,0.18549797391478162,0.5060113002905611,256,0,1,1,1080.7159819999997,0.8887620278030307,0.07045297035906832,546.8544992966105
256,1536,372.1812137844817,1778774,146677,69529600,55188688,1.5418014206521997,0.24947973509545746,1.0,256,0,1,1,329.734879,0.725610738669896,0.14008226994026635,546.8544992966105
256,2048,211.4450020827491,1680654,142947,66899968,39350456,1.9113716889048145,0.28169652147660873,1.0,256,0,1,1,193.81753109999997,0.7175416605375996,0.14185325950821726,546.8544992966105
256,256,368.3066864760494,2112084,156797,52224000,50313408,1.441319049108965,0.1759482018568663,1.0,256,0,1,1,449.61311355,0.8820911272097762,0.0793923071592304,546.8544992966105
256,512,567.0239566463985,2049462,173955,51961856,49725784,1.1315217397064048,0.1616396819622019,0.8171945177252895,256,0,1,1,669.1852275500001,0.8843404836008194,0.07842849282291499,546.8544992966105
512,1024,554.8092974736057,2045992,164756,49205248,37536584,1.0651769965007651,0.11348756602412798,0.8650836560297047,512,0,1,1,632.1405976000001,0.7751668247077488,0.0974196948939775,546.8544992966105
512,128,845.8800457638266,2194316,197360,38060032,35717232,0.9086742111171342,0.26543547797715067,0.526612717583441,512,0,1,1,1038.437700111111,0.8938321690323219,0.04991791191742348,546.8544992966105
512,1536,402.301457758978,1925702,120645,82907136,71568264,1.5453766542343934,0.24911094994193927,1.0,512,0,1,1,344.96426555000005,0.7503923720704606,0.13392652971675284,546.8544992966105
512,2048,218.53057235208007,1721818,154631,53530624,41752888,1.901031154694787,0.31223603874739964,1.0,512,0,1,1,199.7010524,0.7549688173430171,0.10376854121681152,546.8544992966105
512,256,343.6758423370963,1890764,124552,52224000,50097840,1.4981983199838202,0.19567634392724806,1.0,512,0,1,1,424.44508024999993,0.8747457645520289,0.07104146551472552,546.8544992966105
512,512,585.3163562043995,2215973,205888,51961856,48886264,1.1244981570153934,0.16356161534113706,0.7918580593924763,512,0,1,1,690.59661995,0.8940330289030427,0.08143018550163017,546.8544992966105
