cpu,memory,duration_std,userDiff,sysDiff,heapTotal,heapUsed,avg_cpu_util,cpu_util_std,slo_preservation,total_cpu_shares,cpu_shares_others,num_containers,arrival_rate,latency,memory_util,memory_util_std,slo_duration
1024,1024,116.4014836018206,524252,67043,37072896,30115568,0.9475074784611931,0.1534379143389572,1.0,1024,0,1,1,759.9599736814475,0.8321776024625862,0.0788285919855337,938.2444309909912
1024,128,962.4511743658396,607257,65397,36151296,29303976,0.6156981332403264,0.2052263965090774,0.4540508636860964,1024,0,1,1,2066.386182759554,0.8968735795668792,0.0523126150347236,938.2444309909912
1024,1536,52.38716225420488,499857,37097,62115840,44141536,1.352877325102197,0.2180393227827343,1.0,1024,0,1,1,400.7426281961389,0.6242901859526274,0.1303830557396436,938.2444309909912
1024,2048,30.87217218285007,410657,48505,62377984,43965792,1.51436224689191,0.1819284904323401,1.0,1024,0,1,1,289.2662567984251,0.5163681172046118,0.2085302390775578,938.2444309909912
1024,256,739.4221056804353,712383,48615,31694848,29404896,0.473893249602381,0.2122022940339674,0.36426886477487763,1024,0,1,1,2575.692082744533,0.9062346666090194,0.0431947137282898,938.2444309909912
1024,512,276.35360670750543,573513,61109,32219136,29353040,0.5984436596902684,0.1318044973921949,0.5878095785361909,1024,0,1,1,1596.1707077443014,0.8936716488886131,0.0658428433234428,938.2444309909912
128,1024,114.18862101395774,453289,54753,50712576,44342952,0.8494988378314506,0.1276062749810788,1.0,128,0,1,1,838.9802494831623,0.8064380570869549,0.0860644864526757,938.2444309909912
128,128,1377.539445605329,596096,77723,32743424,29551840,0.5829395599885548,0.3165319849991094,0.36688822902287893,128,0,1,1,2557.303169659561,0.8803563596060295,0.0512898749189351,938.2444309909912
128,1536,84.83261842798899,451186,71855,73658368,58813200,1.0662567584495253,0.1229514791975227,1.0,128,0,1,1,545.9145247760882,0.7030463235544944,0.1228325151599961,938.2444309909912
128,2048,64.30484404275475,481816,81562,61067264,44382176,1.2805364818054747,0.2252777131959797,1.0,128,0,1,1,428.0687221400703,0.6904370507808738,0.1393707673774183,938.2444309909912
128,256,321.7650579324595,624209,50641,34316288,29570880,0.3276947080774837,0.0245871190500038,0.2924416893217904,128,0,1,1,3208.3128543228563,0.901573504373431,0.057700379760711,938.2444309909912
128,512,244.6028696323031,562706,73766,32481280,29838840,0.5577410455173525,0.0804539807164311,0.5312302572092358,128,0,1,1,1766.1728003219603,0.8840584163263732,0.0558216694027127,938.2444309909912
1536,1024,111.03873570452552,565495,55454,50188288,44145360,0.8904401513682536,0.0967624773942749,1.0,1536,0,1,1,801.5552496397439,0.7573917999425747,0.1007589970484669,938.2444309909912
1536,128,652.9373750166284,636171,81673,32219136,29663216,0.4869229917868928,0.1174696136685813,0.4018481154679545,1536,0,1,1,2334.8235188272565,0.9248568735063668,0.0132011400211197,938.2444309909912
1536,1536,90.97197976065078,559604,58818,76541952,58823200,1.113015970800736,0.1135637885799752,1.0,1536,0,1,1,530.9138749971943,0.7154120364071115,0.108895137043799,938.2444309909912
1536,2048,66.2960218587124,492183,46630,55037952,44926384,1.2213467345484748,0.2379250498454966,1.0,1536,0,1,1,440.2185891476888,0.6629118131222629,0.1253942623947553,938.2444309909912
1536,256,351.3025533593936,604345,48753,41394176,29973808,0.5810370782751577,0.1387132203886521,0.5252529524387659,1536,0,1,1,1786.2715985406517,0.866960494315671,0.1095059904306634,938.2444309909912
1536,512,240.75723383479453,613012,82707,31956992,29560264,0.6103219216860187,0.1280332739354646,0.6033979665782484,1536,0,1,1,1554.9346914633993,0.926140593910414,0.026315800537226,938.2444309909912
2048,1024,126.75905497669687,495356,59578,42053632,30551504,0.9151159985059875,0.0905596112487446,1.0,2048,0,1,1,784.260737637348,0.7826960344504008,0.0803585235138824,938.2444309909912
2048,128,912.3766558218136,576867,100239,31956992,29363592,0.674364381296254,0.4477348038136138,0.40500004842975595,2048,0,1,1,2316.65263900264,0.9212350836511524,0.015029685155619,938.2444309909912
2048,1536,52.72286022956004,532022,58127,62115840,44619088,1.364174154692491,0.1956023233406018,1.0,2048,0,1,1,391.36259121743626,0.6392974522952655,0.1588151230415005,938.2444309909912
2048,2048,28.005355822924894,378162,65247,69726208,59322160,1.500730521433996,0.1514466050939426,1.0,2048,0,1,1,284.8511996045404,0.4724979267011163,0.188610428730176,938.2444309909912
2048,256,560.6595128733229,590537,81558,32481280,29384208,0.5817345018297174,0.2504527267693838,0.4720547996538253,2048,0,1,1,1987.5752384660414,0.8921594385172327,0.056724599636426,938.2444309909912
2048,512,273.6333073281628,654010,71802,32481280,29646968,0.5702855162597176,0.0797924106546825,0.5514082891944748,2048,0,1,1,1701.5421229188016,0.8698089612875171,0.0935856443597845,938.2444309909912
256,1024,134.34837203415864,595147,68656,65138688,58920520,0.898252864212993,0.1021463313088786,1.0,256,0,1,1,761.6450094271593,0.779928756629561,0.1120142517108104,938.2444309909912
256,128,1524.9239659758205,575955,85901,32743424,29317952,0.503705232447515,0.2743716742071258,0.3219517772873139,256,0,1,1,2914.239017086369,0.9016615671429024,0.0214720308178668,938.2444309909912
256,1536,49.21489898438914,449225,42234,53194752,29840496,1.3212013295301637,0.2132856249323272,1.0,256,0,1,1,420.6946383882603,0.677865846196044,0.1299709067622223,938.2444309909912
256,2048,40.56801308543284,528150,40590,63164416,44138360,1.5559876008699354,0.3053084864400306,1.0,256,0,1,1,288.0631142091273,0.5031034326912063,0.177898995191837,938.2444309909912
256,256,1233.9404683915868,517643,43788,32219136,29531544,0.676392269392357,0.3851971332150103,0.45504257125867187,256,0,1,1,2061.882756146875,0.8828120821929797,0.0874674144163356,938.2444309909912
256,512,243.14726033891105,574775,84219,33005568,29476456,0.5633633137217088,0.065372808925981,0.574063192450064,256,0,1,1,1634.392246934742,0.9027354308872512,0.0545721774451006,938.2444309909912
512,1024,115.6372980687318,548628,73831,68284416,58337816,0.8968907210624373,0.0863730564859221,1.0,512,0,1,1,802.6995364705053,0.7811411863222417,0.1146220991119738,938.2444309909912
512,128,1208.4449986675204,571692,88585,32743424,29716600,0.5212859798190296,0.2545252235918377,0.341977980829194,512,0,1,1,2743.5814104640012,0.9052766339014848,0.0228773789931935,938.2444309909912
512,1536,79.68558126791,487296,55332,69464064,59527448,1.1062919152143438,0.1751339107964803,1.0,512,0,1,1,530.0236821419112,0.6349864514421002,0.1439493751438173,938.2444309909912
512,2048,60.16576607132926,494619,54471,56086528,44712792,1.2139169102002467,0.1665832510999373,1.0,512,0,1,1,422.9399492745281,0.6107993488354211,0.1609227685099401,938.2444309909912
512,256,437.1525261104834,628425,81612,32219136,29925232,0.38746449287116597,0.0651476700875074,0.3466872283025496,512,0,1,1,2706.313802169248,0.9118099291918336,0.0577982249818283,938.2444309909912
512,512,240.8811712717265,535480,68132,32481280,29314360,0.5952001842857086,0.0787206126388844,0.613340097759959,512,0,1,1,1529.729483556754,0.8930076443092613,0.0893369919911313,938.2444309909912
