cpu,memory,duration_std,userDiff,sysDiff,heapTotal,heapUsed,avg_cpu_util,cpu_util_std,slo_preservation,total_cpu_shares,cpu_shares_others,num_containers,arrival_rate,latency,memory_util,memory_util_std,slo_duration
1024,1024,54.517053602139846,71811,216,33767424,28283616,0.6798491781489202,0.1960889128226968,1,1024,0,1,1,97.28253559999999,0.6707951857187944,0.08634323481464928,130.25584475000008
1024,128,108.44170661693884,53887,1792,28385280,24559216,0.40239926733841896,0.1654181721982128,0.5836415795496463,1024,0,1,1,223.17780177777777,0.8662301723758408,0.007149805105383451,130.25584475000008
1024,1536,48.420507965047946,17298,3351,41500672,29609232,0.9044046056567259,0.12769542883005922,1,1024,0,1,1,60.3704911,0.5455400427141371,0.09982998800745446,130.25584475000008
1024,2048,30.754642439748,115427,0,42287104,28163544,0.958663989574734,0.08819120184831819,1,1024,0,1,1,55.794670649999986,0.517811974770904,0.05918483034899349,130.25584475000008
1024,256,123.51654812004517,50819,3743,28123136,24653424,0.41567826666666097,0.2784436397629162,0.6907796578519564,1024,0,1,1,188.56352133333334,0.8700324184136122,0.011769778188187164,130.25584475000008
1024,512,81.53212996639465,77073,5401,27860992,24011040,0.5357587212728034,0.24670985110627724,0.7596465605446423,1024,0,1,1,171.46901140000003,0.878748963859801,0.014310571911949729,130.25584475000008
128,1024,65.21028382828086,89398,7619,33767424,28486200,0.7366479282608408,0.14327314609621647,1,128,0,1,1,95.2738437,0.6627847966243272,0.08963992393251946,130.25584475000008
128,128,166.19584040999754,134351,14452,27860992,24208368,0.37952642220843275,0.2725828040901687,0.42767207461414714,128,0,1,1,304.56944112499997,0.8625000153268068,0.007945654533255528,130.25584475000008
128,1536,35.465386972413846,56886,646,42024960,28491384,0.7589865401744654,0.1701986661785447,1,128,0,1,1,83.2097236,0.5550282350351459,0.09706709584567502,130.25584475000008
128,2048,43.13893623241815,75766,4174,42811392,28105632,0.8758368795494128,0.13316546837723556,1,128,0,1,1,62.54309515,0.5168347779069075,0.0580916069167897,130.25584475000008
128,256,100.58854779100483,25888,889,27860992,24425480,0.35249779766721695,0.17874664543493599,0.7007846789583345,128,0,1,1,185.8714219375,0.8684080384575719,0.010155530658426703,130.25584475000008
128,512,84.87371997921747,107874,4972,28647424,24636848,0.5437872209237397,0.25376937849495257,0.8383824687410495,128,0,1,1,155.36565900000002,0.878083228433384,0.013945586283605392,130.25584475000008
1536,1024,53.81159393311253,83980,3813,33767424,28503224,0.7636219410179144,0.16980176857354254,1,1536,0,1,1,80.9264563,0.6624594121416207,0.08273435392042577,130.25584475000008
1536,128,75.97878185714629,56302,26,27598848,23951720,0.49881947106939667,0.16474851119519063,0.9710406998604977,1536,0,1,1,134.14045855,0.8646923949357387,0.008299308750156553,130.25584475000008
1536,1536,43.13222179573049,21241,555,34312192,16485488,0.8799805520215097,0.11943140373204865,1,1536,0,1,1,82.0895388,0.5440139539811393,0.058128430430771545,130.25584475000008
1536,2048,25.617725504183838,77767,24,42287104,28284088,0.9266682377544526,0.10627715525301508,1,1536,0,1,1,53.25092754999999,0.5456385939449435,0.07711748426009465,130.25584475000008
1536,256,135.58285618143034,114280,3708,27598848,23959896,0.42651007965661236,0.26321705869179246,0.5500858966511422,1536,0,1,1,236.7918275,0.8721704464924127,0.011238697234912047,130.25584475000008
1536,512,93.90937687689998,139143,9688,27860992,24036896,0.6040115057940231,0.2515894298548951,1,1536,0,1,1,125.49716874999999,0.8756558994380921,0.012469051387130664,130.25584475000008
2048,1024,60.20162473221269,67880,2543,33767424,28498984,0.7192597180298531,0.1754718288892976,1,2048,0,1,1,90.5448293,0.6653607028443105,0.08821812759079446,130.25584475000008
2048,128,91.06457091606599,28396,0,28385280,24477064,0.5528953187645699,0.20271530242396082,0.7791017258678645,2048,0,1,1,167.18721115,0.8634684171214418,0.006259902609521344,130.25584475000008
2048,1536,55.39919699654882,94800,34,42811392,28046832,0.849028049693942,0.19894669930922504,1,2048,0,1,1,65.65631249999998,0.5526412886194262,0.10191762120668711,130.25584475000008
2048,2048,31.65271900037711,24123,57,42811392,28229600,0.9582827907586603,0.09548546420234431,1,2048,0,1,1,54.97594240000001,0.5404718723281932,0.07082617488382209,130.25584475000008
2048,256,204.27204754466652,56975,31,27860992,24110952,0.41950628513535404,0.2552899467778272,0.5058632073353933,2048,0,1,1,257.49222885,0.8735819446719152,0.013865152615441195,130.25584475000008
2048,512,60.020135781579135,111960,3153,28123136,24020856,0.5056801498326544,0.22860772572383634,1,2048,0,1,1,115.79992120000001,0.8787011223595798,0.014071024199807856,130.25584475000008
256,1024,46.86035362224026,90072,3683,25792512,15128728,0.7522152598338826,0.1995165775545228,1,256,0,1,1,78.14690565,0.6609003879926016,0.06386534764056273,130.25584475000008
256,128,154.20875448213732,113368,5380,28385280,24479568,0.3686985982405811,0.20301495920035215,0.4727037610430134,256,0,1,1,275.55491511764706,0.8652595422343248,0.006415364512564375,130.25584475000008
256,1536,46.795415998483925,27593,951,42287104,28133056,0.8196848912220653,0.1657898591515205,1,256,0,1,1,85.85814425000001,0.5258766819415459,0.06287223771305916,130.25584475000008
256,2048,30.509680430222534,60464,13920,34574336,15252408,0.9539742481716333,0.09967942175146688,1,256,0,1,1,51.346474349999994,0.516650823395896,0.05343110839631923,130.25584475000008
256,256,150.95690567677275,112079,22,27860992,24048040,0.38491838275055884,0.2986106334928213,0.47601936618239216,256,0,1,1,273.6355997333333,0.8688064868762345,0.008539830523969706,130.25584475000008
256,512,78.56723794344757,107555,1064,28123136,24067440,0.4872484793532938,0.25960717937192435,0.8700907348617656,256,0,1,1,149.70374873684213,0.8774709885278518,0.016391997764285165,130.25584475000008
512,1024,66.06709610311205,122956,27,25792512,15165568,0.748284973355245,0.15782637914802297,1,512,0,1,1,113.45305334999998,0.662829105916442,0.05965978661055621,130.25584475000008
512,128,132.61166437336945,40756,8953,27860992,23967584,0.36173431413712853,0.15491745160854725,0.6056792693859342,512,0,1,1,215.0574591764706,0.8617600532240691,0.005894222249288472,130.25584475000008
512,1536,37.96123228158381,104015,904,42287104,29482296,0.780260617741358,0.16183968232596754,1,512,0,1,1,74.98738495,0.541513888177757,0.09346143684011626,130.25584475000008
512,2048,27.2523010566259,36772,27,42549248,28107360,0.9857231898765886,0.053055786654016085,1,512,0,1,1,61.57228024999999,0.5309513909623116,0.05517485054391924,130.25584475000008
512,256,94.87616721734321,120010,2321,27860992,23939072,0.4211570629514463,0.14795538339808284,0.5946520665068463,512,0,1,1,219.04547564285716,0.8654637798562651,0.0054211444454701635,130.25584475000008
512,512,83.13332898022131,149097,911,27860992,24013704,0.5054816805319281,0.1897825244014338,0.9155005565229278,512,0,1,1,142.27828025,0.8847202981631923,0.016326524217993705,130.25584475000008
