cpu,memory,duration_std,userDiff,sysDiff,heapTotal,heapUsed,avg_cpu_util,cpu_util_std,slo_preservation,total_cpu_shares,cpu_shares_others,num_containers,arrival_rate,latency,memory_util,memory_util_std,slo_duration
1024,1024,890.3964541734748,1859777,170963,43700224,33883624,0.7837160886841525,0.1718835216860712,1.0,1024,0,1,1,720.4556919568984,0.8219212547215566,0.0249716601777088,1892.489398121496
1024,128,2651.9210153003637,2219030,266855,36225024,33409280,0.42562956636672566,0.0637584982823544,0.22455016496810337,1024,0,1,1,8427.913639655166,0.9124810679179504,0.0119640442745401,1892.489398121496
1024,1536,532.4931747156207,1610618,141507,51957760,33836376,0.9565474070344137,0.1559899033238889,1.0,1024,0,1,1,431.0427803571923,0.7000385506095929,0.0461107487320196,1892.489398121496
1024,2048,347.3653633599393,1543650,91777,52219904,35266712,1.030839485301715,0.2001190341336771,1.0,1024,0,1,1,282.864364480386,0.6985899669611287,0.0315353127354059,1892.489398121496
1024,256,2897.8980604668204,1870975,152567,35962880,32564392,0.44911673590258,0.1826117476191244,0.29366310347746977,1024,0,1,1,6444.4234761235175,0.9209235223176112,0.0079551905052366,1892.489398121496
1024,512,1240.8905535512483,1863014,164768,35962880,32610752,0.6595506674049912,0.2355543653065852,1.0,1024,0,1,1,1528.3831356365367,0.9259430754996248,0.0109076195753891,1892.489398121496
128,1024,836.6627321102105,1630964,182042,43438080,36480568,0.8488915226834539,0.1833562535347603,1.0,128,0,1,1,745.1752061103134,0.8152848611575001,0.0326345812870157,1892.489398121496
128,128,3143.82973478438,2207406,151046,36487168,34316496,0.30289776405597785,0.0455643705257291,0.16606662745247175,128,0,1,1,11395.964542383002,0.9260677919334253,0.0080153716860313,1892.489398121496
128,1536,322.22358294649086,1511828,140857,51433472,37076288,1.0556980047108346,0.145512826973808,1.0,128,0,1,1,261.4517989652101,0.7311169623055274,0.0497724973640433,1892.489398121496
128,2048,200.0257020612007,1440540,129342,52744192,40183216,1.0220454093341382,0.1634499305065116,1.0,128,0,1,1,151.08968783221417,0.7389045193207197,0.0419218380748347,1892.489398121496
128,256,3685.1901133812576,2221519,115636,36749312,33950952,0.38880868196444845,0.0879629732097545,0.27354094801040413,128,0,1,1,6918.486653959813,0.9217175958681312,0.0094043367341361,1892.489398121496
128,512,1209.7034710868918,2010553,215947,36749312,33981752,0.6906994673124394,0.290894710088582,1.0,128,0,1,1,1311.4308790905252,0.9281600406796756,0.0103167368959213,1892.489398121496
1536,1024,913.2216990068184,1646907,128235,42913792,34780520,0.7741930609332244,0.2009200995867321,1.0,1536,0,1,1,835.735494036122,0.8317845544305504,0.0223074613364289,1892.489398121496
1536,128,4265.34840124922,1680338,196568,35700736,32515688,0.4497395552388582,0.1556385907962115,0.20827837571540828,1536,0,1,1,9086.3460578711,0.9162894385293614,0.0077114789603593,1892.489398121496
1536,1536,535.2450536700202,1619622,158669,52744192,36983584,0.9746312354573257,0.1337194326528642,1.0,1536,0,1,1,470.0115225510295,0.6927473754243757,0.0405268816641002,1892.489398121496
1536,2048,371.0912176401784,1717036,131481,52482048,36294224,0.9975145512020482,0.1682830028969779,1.0,1536,0,1,1,274.2865698872896,0.7268893369743785,0.0389633369825083,1892.489398121496
1536,256,3283.5132892169245,1829291,127675,36225024,33588168,0.37437201277218357,0.1477261034943655,0.32442890348440584,1536,0,1,1,5833.294684277294,0.9214148025495452,0.006411990724086,1892.489398121496
1536,512,1455.9615143350377,1895323,205200,35700736,32658112,0.6115795241205731,0.2163758884454283,1.0,1536,0,1,1,1664.7843869367912,0.9245123413970614,0.0107759947267612,1892.489398121496
2048,1024,826.3716743134145,1880938,109162,43175936,36951112,0.8178517513958715,0.1329766858819993,1.0,2048,0,1,1,771.3050001651552,0.8345350448212965,0.0305383260567847,1892.489398121496
2048,128,3031.3658487028592,2067553,212232,36487168,34023944,0.537165402109351,0.1714400597135539,0.25640141088801993,2048,0,1,1,7380.963277725554,0.9146931110313138,0.0093423103391347,1892.489398121496
2048,1536,541.735040428194,1894850,114703,52744192,40983960,0.9600374046790398,0.1572575218517412,1.0,2048,0,1,1,451.1300752086609,0.7141637624761941,0.0380063103391868,1892.489398121496
2048,2048,359.1733549622532,1519780,122417,52744192,38448360,1.0208205407078852,0.2155258723871994,1.0,2048,0,1,1,277.7121269470876,0.7116433488677625,0.0399332546986094,1892.489398121496
2048,256,2950.748320939036,1826909,153905,35962880,32706504,0.39388207842344775,0.0749216761756396,0.30560590325441056,2048,0,1,1,6192.581288411951,0.918843752190162,0.0117916562171222,1892.489398121496
2048,512,1737.2983826936943,1954651,141016,36749312,33864224,0.53292251663675,0.1870060935530403,0.9890741912039469,2048,0,1,1,1913.3947836793418,0.9282444187437768,0.0120256423326317,1892.489398121496
256,1024,819.8089270125588,1533863,152429,42913792,34548176,0.7786198244399039,0.1986961045810139,1.0,256,0,1,1,736.6229863771158,0.8097034599460169,0.041053849350618,1892.489398121496
256,128,3377.9295936639933,1773722,171982,35962880,33543480,0.4534123980657237,0.1195009623687617,0.22802036704120718,256,0,1,1,8299.650696463841,0.9190733573175508,0.0075893498102611,1892.489398121496
256,1536,574.7140405828001,1623516,100492,51695616,33941904,0.9769269654606271,0.2481829848479388,1.0,256,0,1,1,470.35211344540363,0.71663211826522,0.048501805280771,1892.489398121496
256,2048,352.9824409379147,1590540,110823,52482048,34793232,0.9569131844295259,0.1926603012603155,1.0,256,0,1,1,307.862820050734,0.6968108679366574,0.0452506743610926,1892.489398121496
256,256,3560.317856595212,1974113,176661,36487168,33653640,0.2698541525991186,0.0394201440249084,0.20087232071453104,256,0,1,1,9421.354775957412,0.9218081314202834,0.0056636452048488,1892.489398121496
256,512,2099.288328364932,1928054,174610,36487168,33383440,0.5315394314598179,0.1156345859224426,0.8441185404278595,256,0,1,1,2241.971130218568,0.9279573599747633,0.0131370942850332,1892.489398121496
512,1024,828.4777742890271,1609198,169792,42913792,36171128,0.7803309668308555,0.146523678409354,1.0,512,0,1,1,755.4087968493213,0.8153928045329188,0.0443267168198354,1892.489398121496
512,128,2590.7741725675914,1768743,242363,35700736,32859216,0.41750550044174356,0.100089232719797,0.22091781456460735,512,0,1,1,8566.486147127976,0.9260253723261128,0.0080915330658477,1892.489398121496
512,1536,560.6386889715119,1728522,104376,51433472,38322952,0.9537157438325446,0.2303776070900097,1.0,512,0,1,1,447.11996783555736,0.713865921057542,0.0411228118864432,1892.489398121496
512,2048,345.3614710370885,1497440,171870,52219904,37206984,1.0149174605710725,0.1543413234561882,1.0,512,0,1,1,300.5720164520959,0.7201328613127091,0.0445797680359675,1892.489398121496
512,256,1780.9800738333952,1965397,179193,36225024,33010336,0.39068550669862273,0.0314203631415608,0.2401498079313109,512,0,1,1,7880.453515344044,0.9224028641720352,0.0103535407923961,1892.489398121496
512,512,1267.3655070414552,1885254,233525,35962880,32586080,0.6999102193292538,0.2706799918623015,1.0,512,0,1,1,1569.0025462604322,0.9210021810298086,0.0126856888215367,1892.489398121496
