0.07336208709601438
0.06684644959654637
0.062261775128714635
0.04587347491610776
0.04837350082438454
0.04536353219235325
0.06416096817715952
0.05328180550741779
0.06871090558454304
0.06320787581602134
0.054208069986888846
0.04378176782407624
0.03997511197566469
0.05261371465198026
0.05703807227005538
0.04505309467065641
0.0399217136425406
0.042976903151624994
0.043814738013647936
0.04193894671016835
0.04472080719151487
0.040628086274581324
0.05326578971834282
0.041482492387432277
0.03269741940019058
0.04586855049372839
0.028757182163355748
0.030985813790759598
0.03358199064255005
0.0318543973373079
0.027859597741640544
0.04487920890002361
0.041034163697171284
0.03979281917039584
0.04535949790388936
0.05607312753018838
0.0331141412036873
0.04089116953070619
0.049668495233933116
0.028508870078783523
0.04399675760700977
0.04532627918253055
0.028012222636730966
0.03598509870606659
0.03973875178296293
0.044032337518967804
0.03273489290927626
0.05223155853554779
0.03185013319947917
0.03497006237898329
0.04626654347243635
0.04743197660662539
0.03092281041534235
0.03784706621877882
0.037073534412847366
0.03819677074769958
0.02857919787089002
0.02525287145580172
0.03600927818234667
0.04541555289097012
0.02982444177988883
0.04142207438341019
0.04472139667679231
0.05391819172841674
0.03924978498629481
0.03636995833155235
0.04617600841822838
0.03208508885534484
0.03855096569939514
0.04599002494601915
0.04218580059994116
0.0404158165605566
0.03251595130099208
0.0367332984292925
0.03592053419624517
0.028568464424995967
0.026750344637281445
0.02682064117903781
0.03945163645229807
0.040296163812936776
0.0339675191586267
0.03154284046152656
0.04380629430262248
0.029191163782065904
0.03952097121298124
0.043700189202299615
0.03682043981031249
0.027911528590021856
0.033284103536386875
0.042532464881493794
0.026191580258737118
0.031155450069471003
0.03413053408912198
0.03714918805024869
0.04113781096184807
0.03832844926987874
0.032748741861798644
0.035039255196980486
0.027338044357944843
0.031855886057105876
