cpu,memory,duration_std,userDiff,sysDiff,heapTotal,heapUsed,avg_cpu_util,cpu_util_std,slo_preservation,total_cpu_shares,cpu_shares_others,num_containers,arrival_rate,latency,memory_util,memory_util_std,slo_duration
1024,1024,76.4253425412339,33574,5300,31285248,21566496,0.8856646561537524,0.1444262336923231,0.5920800777554697,1024,0,1,1,402.9263272160863,0.7373904530272289,0.0737849002326812,238.56465114782617
1024,128,299.5000248422927,41617,18217,32055296,28617448,0.588700270033276,0.1204423805527064,0.246999535209461,1024,0,1,1,965.850607554861,0.8229480545586204,0.0539061095179706,238.56465114782617
1024,1536,47.98408525509737,77037,7651,43687936,28636384,0.976731836988355,0.128234479641257,0.7925137022086683,1024,0,1,1,301.02274633607817,0.6413271626193742,0.0836294436131915,238.56465114782617
1024,2048,38.25593916811513,77080,16208,41279488,21567216,1.0004708994249083,0.1362530678979265,0.9588609548043213,1024,0,1,1,248.80004754861568,0.6495186189047722,0.052394914195741,238.56465114782617
1024,256,300.9729366719814,35897,13339,32579584,28498616,0.6048845800976368,0.1680286405322702,0.27331660089795545,1024,0,1,1,872.8509368404441,0.8470439763600695,0.0547007532781157,238.56465114782617
1024,512,172.05216428694976,32406,15430,32182272,28461648,0.6574867450443331,0.1325506134300262,0.40746884946014045,1024,0,1,1,585.4794825761597,0.849315506996307,0.0465209997745458,238.56465114782617
128,1024,68.9923949650157,190277,46176,25792512,14496368,0.9030567391166806,0.1448241524056596,0.4921011707592734,128,0,1,1,484.78781462710134,0.6994857390586005,0.0969189003364499,238.56465114782617
128,128,246.99647677394915,31914,16402,32579584,28590584,0.5925468034502055,0.1516360420285183,0.26339869350544093,128,0,1,1,905.7169113972778,0.8442239000731875,0.0535873427416073,238.56465114782617
128,1536,52.92358019473632,112353,51687,52060160,35356584,0.973950114208174,0.1559130653282451,0.7766720609404116,128,0,1,1,307.1626535129471,0.6380742133194017,0.0910649914549704,238.56465114782617
128,2048,46.502779452704026,37977,11508,44212224,27683056,0.9814987988671589,0.1489534038534814,1.0,128,0,1,1,236.87165937448563,0.6049517679061113,0.077029075590228,238.56465114782617
128,256,331.47151016522866,33640,17210,32579584,28538600,0.6837437803758523,0.332178262125637,0.3139125064969103,128,0,1,1,759.9717953581255,0.865318926394069,0.0363105855035426,238.56465114782617
128,512,233.59506573324887,182686,48710,36950016,33270488,0.8330696912657638,0.3187558342135926,0.3444287283261556,128,0,1,1,692.6386550483041,0.8600191079210436,0.0396688177722078,238.56465114782617
1536,1024,86.48415285081602,100256,36077,25792512,14498608,0.9178244568037368,0.170962457792901,0.4849613177217953,1536,0,1,1,491.92511326167676,0.7017430500937685,0.0912903202528805,238.56465114782617
1536,128,175.9808855979472,208199,30591,29016064,24739856,0.85527749603087,0.3248701671824769,0.35993127017855625,1536,0,1,1,662.806126929394,0.8492261344595743,0.0506218678488095,238.56465114782617
1536,1536,48.63586583899483,145922,31539,64544768,45046152,0.964061149832228,0.1350063741776984,0.649655852121236,1536,0,1,1,367.2169662889549,0.620992345714447,0.1017618570683394,238.56465114782617
1536,2048,36.29490412345938,90192,32420,60956672,43280432,1.0042904832102664,0.1870678694121871,0.8812862120961966,1536,0,1,1,270.7005373207696,0.6213990276226516,0.0697656967157523,238.56465114782617
1536,256,220.6389105495533,31142,18724,32055296,28552160,0.7329005285170156,0.2491559451418814,0.38102515155195726,1536,0,1,1,626.1126074646941,0.8645205527729811,0.0450123211046165,238.56465114782617
1536,512,184.4628626073985,117186,35295,36327424,32198944,0.8029827189424669,0.2796183663196284,0.33408256539567616,1536,0,1,1,714.0888985490105,0.866852295265455,0.037867699144331,238.56465114782617
2048,1024,91.32039059904382,181729,47574,26054656,14515760,0.8610619840387437,0.2017308064537762,0.5206680963327037,2048,0,1,1,458.18949313035074,0.72643680211317,0.0863187678012861,238.56465114782617
2048,128,131.05263715655806,105309,23861,27320320,23570224,0.723483836042454,0.169237656343486,0.44525103020938045,2048,0,1,1,535.7980890816592,0.8646013692317741,0.0194254903436005,238.56465114782617
2048,1536,34.7115955329172,74921,6989,44474368,27601632,0.9963365614937644,0.1484523691640011,0.8522322427013207,2048,0,1,1,279.92915451268044,0.6393889360093574,0.0599291752369269,238.56465114782617
2048,2048,47.67146801036956,32204,11943,41943040,27545264,0.9893735685889616,0.1439243346376079,0.9869665106032575,2048,0,1,1,241.71504157928294,0.6591535798887811,0.0381392423524711,238.56465114782617
2048,256,215.8442991423481,203885,52165,19103744,14327488,0.7511219808927055,0.3659145359278137,0.32104495978553993,2048,0,1,1,743.0879815312749,0.8333221286391327,0.0567080644040866,238.56465114782617
2048,512,200.09265952989725,192965,60398,18841600,14300360,0.8092339437037971,0.2130104522466928,0.36043655192780993,2048,0,1,1,661.8769652296727,0.8579147815067933,0.0432489152019108,238.56465114782617
256,1024,77.02024700431721,101031,28125,39690240,28557632,0.8874907434240218,0.1357028566798768,0.6014469027540434,256,0,1,1,396.6512256617026,0.7415001280463241,0.0799299662343722,238.56465114782617
256,128,216.108168132394,42819,4651,32055296,28609288,0.7502394982486391,0.3040714195510346,0.3468607452143728,256,0,1,1,687.782213580797,0.8380644743745667,0.0550620584755369,238.56465114782617
256,1536,48.34173771979341,77266,17898,44212224,28139704,0.9414334338535925,0.2193091359762032,0.7976152061156832,256,0,1,1,299.0974210604827,0.6370187215730209,0.0810703366114624,238.56465114782617
256,2048,32.66778700312921,152627,28089,52232192,32146960,1.019555025465036,0.1824623129316624,0.7549081087921024,256,0,1,1,316.0181330275333,0.6362677998526686,0.0862257111346746,238.56465114782617
256,256,372.2945511611713,176450,62119,37212160,33533664,0.6336984656702747,0.1696278371015679,0.29196485179323234,256,0,1,1,817.1005848223681,0.8473910447168909,0.0526021771954338,238.56465114782617
256,512,178.239458925143,27476,19212,31793152,28584744,0.7590945797893884,0.2119581721317091,0.369943983927524,256,0,1,1,644.8669569243855,0.8610791839776324,0.0445590664773888,238.56465114782617
512,1024,62.50223749549112,92718,30217,41328640,30079040,0.9133867916689783,0.1648328800615161,0.582920477508718,512,0,1,1,409.25762664472234,0.7296175660930989,0.0778578848166653,238.56465114782617
512,128,241.07669159796117,221783,31734,29278208,24717208,0.7662230174742583,0.2971738429038613,0.3255432688186308,512,0,1,1,732.820101037743,0.8388849487097192,0.0578989559216123,238.56465114782617
512,1536,69.5331224057494,115249,31833,52322304,33023616,0.9633282161790675,0.2123864926908494,0.6789543850052623,512,0,1,1,351.37066114681204,0.5920813417356959,0.0922823474942251,238.56465114782617
512,2048,29.66666620834286,96970,24220,57479168,37744912,1.0054265700502405,0.1722547292465729,1.0,512,0,1,1,236.59681669896167,0.6603817485094828,0.049491791697625,238.56465114782617
512,256,223.1357528668803,108128,13026,18841600,14440240,0.7197003022002593,0.2620408246403212,0.3500685349613983,512,0,1,1,681.4798455797591,0.8569901132824173,0.0525191102761831,238.56465114782617
512,512,209.404520516532,84967,34579,18841600,14421600,0.7428192536523469,0.2028058212665049,0.31376204400883245,512,0,1,1,760.3362347458144,0.814843394980653,0.0450825902451473,238.56465114782617
