cpu,memory,duration_std,userDiff,sysDiff,heapTotal,heapUsed,avg_cpu_util,cpu_util_std,slo_preservation,total_cpu_shares,cpu_shares_others,num_containers,arrival_rate,latency,memory_util,memory_util_std,slo_duration
1024,1024,770.9117484288631,2002265,176229,58912768,51107600,0.9681856498105385,0.1279423911713746,1.0,1024,0,1,1,2222.2153800550427,0.8147267272845188,0.0914477947989612,2264.14788424272
1024,128,637.972673327345,2167221,201285,41205760,34726304,0.7241996940715143,0.055818668191544,0.23300770168971158,1024,0,1,1,9717.051701826615,0.9115431774709452,0.0355755764801789,2264.14788424272
1024,1536,555.1091507563132,2016916,129060,51957760,40553888,1.0509631801326556,0.1187865448368145,1.0,1024,0,1,1,1542.4697144648794,0.7787954752083945,0.1049850862889944,2264.14788424272
1024,2048,379.5421435485409,1773919,143830,65589248,41026424,1.0981503057113182,0.2872907897018134,1.0,1024,0,1,1,1166.9280587112487,0.7421600369027259,0.1143295508802624,2264.14788424272
1024,256,4232.968887022811,2246152,183996,46710784,34629824,0.6924713379539552,0.4002758470647394,0.17668010296067474,1024,0,1,1,12814.956785182945,0.9293168329844296,0.0477680578718032,2264.14788424272
1024,512,2154.543179033385,2245388,129850,37273600,34688816,0.7348774971169223,0.203358863105737,0.4386855075653525,1024,0,1,1,5161.209671157012,0.9072933359654518,0.0725608728734319,2264.14788424272
128,1024,839.4353327349828,2134988,166769,59437056,50812336,0.9542631501234027,0.1274217732166172,1.0,128,0,1,1,2226.3994189685814,0.8320490433200547,0.0728469098657443,2264.14788424272
128,128,243.06234867726403,2023699,196881,37535744,34768736,0.6490133655814733,0.0267113786127328,0.2056370238836618,128,0,1,1,11010.409708728575,0.9411375263538396,0.007674581731413,2264.14788424272
128,1536,596.654757924352,2063160,162558,61919232,39247344,1.0300793167815772,0.1710412154208355,1.0,128,0,1,1,1514.1530793065233,0.7918246334829996,0.0807157032395511,2264.14788424272
128,2048,392.3475215291028,1799522,156267,82112512,51159208,1.108586858779653,0.3020544318820871,1.0,128,0,1,1,1194.7810017746274,0.7516251108266079,0.1039720521059989,2264.14788424272
128,256,4326.492554414881,2436262,209857,37797888,34442520,0.5370173415690919,0.1600443613173956,0.16227172091196485,128,0,1,1,13952.818590437322,0.9231963039783764,0.0269575723584457,2264.14788424272
128,512,1970.659647808956,2142067,187662,51437568,48271952,0.7177526747035966,0.0745927541399982,0.434193761364195,128,0,1,1,5214.602524755273,0.9311531865737458,0.0382184735472247,2264.14788424272
1536,1024,830.976418096751,2033070,208162,44486656,38521480,0.9544130430977201,0.1435571292096479,1.0,1536,0,1,1,2195.109113815392,0.8130710534086187,0.0795374470192863,2264.14788424272
1536,128,1103.7127068467782,2211686,209207,46448640,33858984,0.6975066406462764,0.0709620052903931,0.21140465080666,1536,0,1,1,10710.019271588284,0.8194925766694512,0.0923540735601269,2264.14788424272
1536,1536,373.1600671150511,1789362,127319,62181376,37997136,1.1121863604415145,0.2396219810700713,1.0,1536,0,1,1,1172.2404527663375,0.7356203406928665,0.1335596232656226,2264.14788424272
1536,2048,213.66547960124203,1685945,149411,65064960,40188128,1.1266726416882216,0.3389385696890922,1.0,1536,0,1,1,756.7973244115881,0.7484440465038689,0.0960408072790241,2264.14788424272
1536,256,2983.116243290616,2463059,244918,42254336,33908128,0.5876369151493303,0.0960180942461598,0.23004275757994788,1536,0,1,1,9842.291529025206,0.9032218534089068,0.0668985166509378,2264.14788424272
1536,512,2758.6605451489672,2059405,221229,37011456,34696320,0.8117650312541,0.3011490787516491,0.3691401658395814,1536,0,1,1,6133.572268119582,0.9130191595201064,0.0576683106300771,2264.14788424272
2048,1024,781.5696234286455,2064178,164856,43700224,35080184,0.961690845246076,0.1147305868468428,1.0,2048,0,1,1,2241.9685768240274,0.8448464970850866,0.0603081438931402,2264.14788424272
2048,128,2212.307354311011,2082195,261703,37011456,35034840,0.7503004688221306,0.20896151361341,0.20248579500171002,2048,0,1,1,11181.76158591075,0.9509207792686836,0.0098176820128979,2264.14788424272
2048,1536,548.0298840764093,2021324,168609,52482048,41261248,1.0318229406884634,0.1615171689598298,1.0,2048,0,1,1,1604.8110600610241,0.7700712030734989,0.0922777951257782,2264.14788424272
2048,2048,385.4655462718397,1813701,174199,53006336,38027256,1.057995303054854,0.2094952705496937,1.0,2048,0,1,1,1154.6465618516647,0.7596544140392498,0.1008414295045954,2264.14788424272
2048,256,3425.779165007637,2142861,187869,52224000,49878072,0.6843324936672448,0.2488664937613553,0.19785898449763192,2048,0,1,1,11443.24019448214,0.92085743970092,0.0520417485163965,2264.14788424272
2048,512,1915.7042045647731,2102671,156617,37011456,34738928,0.705020472050875,0.0456594230612007,0.4492593227464274,2048,0,1,1,5039.734891646664,0.9117063402454676,0.056593170975896,2264.14788424272
256,1024,806.4055958462125,2172964,170379,58912768,52941704,0.9798624392306268,0.1514374312133042,1.0,256,0,1,1,2229.572926024851,0.8474320326028735,0.0640353511813302,2264.14788424272
256,128,967.0887066187274,2160643,252146,37011456,34210296,0.7666528534624685,0.1055544268368529,0.24108128826457448,256,0,1,1,9391.636740209935,0.9379671428014088,0.0079794317720386,2264.14788424272
256,1536,584.132335600027,1795872,143833,51957760,40827712,1.052246154147018,0.2017394087058734,1.0,256,0,1,1,1617.2180789325048,0.7583376585224808,0.0983653096800849,2264.14788424272
256,2048,348.5052586542774,1638923,169109,52482048,40464408,1.0887126965791878,0.2808275592044065,1.0,256,0,1,1,1202.5829700095037,0.7548240155934951,0.112702145644548,2264.14788424272
256,256,5410.833806391138,2135494,177611,37273600,35018488,0.6116552797606923,0.2081142696686756,0.1802634089307433,256,0,1,1,12560.218946667093,0.895155449474445,0.0740686782795435,2264.14788424272
256,512,2013.407371477104,2144474,152708,37797888,35499240,0.6991986279433303,0.0404615634205329,0.45437667663558434,256,0,1,1,4982.975580981667,0.9209343936418048,0.0510101702606196,2264.14788424272
512,1024,801.6575316126425,2158285,181098,44748800,36985392,0.9590103910460244,0.1508257528858917,1.0,512,0,1,1,2152.1031422879864,0.8688256085423676,0.049576135077525,2264.14788424272
512,128,1035.9678091289568,1901348,182607,37535744,34830016,0.7909192311749538,0.1737954179062243,0.24155934717605668,512,0,1,1,9373.050187093493,0.9346894648952648,0.0171360862209503,2264.14788424272
512,1536,545.6222796291306,2031692,186440,73986048,58343304,1.0162478621419104,0.1913740505531765,1.0,512,0,1,1,1641.673856349903,0.7815848305046527,0.0605568887986287,2264.14788424272
512,2048,389.919538462878,1959011,170831,67948544,33930792,1.0956894384801221,0.3324940718757693,1.0,512,0,1,1,1192.3350985138661,0.7717700149874169,0.0988441793057461,2264.14788424272
512,256,4446.197424636492,2370438,195834,37273600,34251896,0.750234679932631,0.5968907500308277,0.14099254298439953,512,0,1,1,16058.635700281271,0.9300896068839482,0.0224810498068878,2264.14788424272
512,512,2199.259505202044,2248872,162852,38060032,35567128,0.7163246127193214,0.0464607673287031,0.4346507214106759,512,0,1,1,5209.1202722368425,0.9322087110308322,0.0469538052732416,2264.14788424272
