cpu,memory,duration_std,userDiff,sysDiff,heapTotal,heapUsed,avg_cpu_util,cpu_util_std,slo_preservation,total_cpu_shares,cpu_shares_others,num_containers,arrival_rate,latency,memory_util,memory_util_std,slo_duration
1024,1024,539.5844344725235,108160,7380,43962368,35327432,0.9048161089091443,0.2225575754262944,0.7677943073735967,1024,0,1,1,368.0927092110239,0.8315407881970666,0.0381054132353857,282.6194867179488
1024,128,921.900241397169,1810541,178131,36225024,33589112,0.7311072550414554,0.1727191291710171,0.4098832059489461,1024,0,1,1,689.5122381597432,0.9298424582703848,0.0093327956643436,282.6194867179488
1024,1536,365.91926500929526,1484954,87044,68829184,54981272,0.9524056432368464,0.2569405379502036,1.0,1024,0,1,1,199.9182935625407,0.7327895158336907,0.0496673075815362,282.6194867179488
1024,2048,180.7575970577393,1289412,126702,51695616,40640880,1.097246659329289,0.2500813616127594,1.0,1024,0,1,1,113.87255927576899,0.7533587303820191,0.0519978389278315,282.6194867179488
1024,256,353.9892151608704,1504894,156303,36225024,33010888,1.1343508823876176,0.1763559048111896,1.0,1024,0,1,1,192.19698348468108,0.9322972983279928,0.0100879193986191,282.6194867179488
1024,512,558.0175734001853,1646540,113097,35700736,33016952,0.8952938988268896,0.2112975362109696,0.7254656826845457,1024,0,1,1,389.5697528684348,0.931317612753964,0.0094232303256213,282.6194867179488
128,1024,550.3399739482289,65566,4946,43700224,36374352,1.008087788428631,0.5799954261884547,0.7867366470952928,128,0,1,1,359.23010293394503,0.8305984079385599,0.035314273757073,282.6194867179488
128,128,757.4730221749683,72447,6572,37273600,34485424,0.8336836447490965,0.2514067063009959,0.4504580833539757,128,0,1,1,627.4046291136546,0.9152664366147116,0.0344388806829261,282.6194867179488
128,1536,338.3930076024186,37139,5196,52482048,41392120,0.9749270565890095,0.2013732431853743,1.0,128,0,1,1,205.4901417409227,0.7471592045920107,0.0497187180559716,282.6194867179488
128,2048,210.7625439716156,8845,3582,52219904,39247416,1.0848327050317412,0.2153025328768095,1.0,128,0,1,1,116.96395331010046,0.7309627933234815,0.0363150322631547,282.6194867179488
128,256,358.36726882890844,1675449,94540,36225024,33149360,1.0063047938959004,0.2287589316524308,1.0,128,0,1,1,211.03146377693275,0.9334222948857116,0.0108217133575274,282.6194867179488
128,512,552.7603946228334,130648,10370,37273600,34243120,0.9465622119065804,0.1790958692209733,0.7285883394290046,128,0,1,1,387.9000958750424,0.9337385213333732,0.0122031025491264,282.6194867179488
1536,1024,688.9530334129694,1726781,147357,42913792,33579344,0.8727064892501748,0.1220985496612009,0.621126351760289,1536,0,1,1,455.01126448265717,0.8331797752712831,0.0285394046884565,282.6194867179488
1536,128,853.3827398435452,1935931,230868,36749312,33789784,0.7641055620426409,0.2767156485494352,0.4572004344864133,1536,0,1,1,618.1522706456384,0.910489675189774,0.0437146688580858,282.6194867179488
1536,1536,412.02775394681225,1701459,196917,51171328,37101008,1.0056588440087544,0.1310051918742965,1.0,1536,0,1,1,253.16484835707047,0.756756046177623,0.0467869681943672,282.6194867179488
1536,2048,194.7400738410578,180991,7778,53006336,39895152,1.0964267422958065,0.17179663676573,1.0,1536,0,1,1,111.5831582897924,0.7482169697712906,0.0334559874165764,282.6194867179488
1536,256,413.8316467257055,1618953,133285,35962880,32947848,1.0474535483545644,0.3733424349410307,0.9103136208026276,1536,0,1,1,310.46386680313753,0.9251522170130267,0.0344907523426183,282.6194867179488
1536,512,574.2714964810434,1908056,114643,36487168,33474368,0.9191566663117812,0.1952849655308749,0.7768136035013604,1536,0,1,1,363.818920580288,0.9310986933160807,0.0121317580623013,282.6194867179488
2048,1024,591.9415031361698,1760257,159319,43700224,34428144,0.9281513258958789,0.2364670548830687,0.8113494738127056,2048,0,1,1,348.33261848295666,0.8288783971554325,0.0265259527295956,282.6194867179488
2048,128,1007.545365764394,2049565,211781,36749312,33610592,0.8297254093488042,0.1771437245163254,0.395351095234106,2048,0,1,1,714.8569717521498,0.9312735586860432,0.0112784028641957,282.6194867179488
2048,1536,335.971584017851,1605452,114844,52482048,38509960,1.024273269504382,0.154812169138259,1.0,2048,0,1,1,210.4105732502148,0.7336576635316854,0.0424137676825571,282.6194867179488
2048,2048,191.6699590977533,1383342,93254,51957760,41696224,1.0762622312117087,0.1550328871118431,1.0,2048,0,1,1,102.71138337337901,0.7297062954817697,0.0540846787685642,282.6194867179488
2048,256,559.3186144969087,1855304,146287,36487168,33085488,0.9529132523271246,0.2179580760749277,0.7786828034274912,2048,0,1,1,362.94558641073877,0.9274011431231886,0.0101240758959094,282.6194867179488
2048,512,551.0216578598765,1712972,134817,35962880,32515672,0.9562630773748343,0.1881793327524842,0.8181175725993682,2048,0,1,1,345.45094272941066,0.9261483359059072,0.0133834063406646,282.6194867179488
256,1024,553.13870518899,1683198,114478,43175936,34500480,0.9037577884060992,0.1929753128087807,0.7888299850870635,256,0,1,1,358.2768049654654,0.831381199702203,0.0294470573204476,282.6194867179488
256,128,826.7142618015802,1802729,129577,35700736,32589936,0.8114717575811573,0.1626563422834934,0.46631360377599224,256,0,1,1,606.0717174652996,0.9288728999881976,0.0114432613011292,282.6194867179488
256,1536,360.8785175352572,1617540,148687,52744192,42374848,1.080311732047611,0.1232838910195234,1.0,256,0,1,1,206.97606501474664,0.7535737881453519,0.0397035285365821,282.6194867179488
256,2048,221.50232553472688,1511705,139906,52482048,35275024,1.0614811662063501,0.1589091653278416,1.0,256,0,1,1,113.15940992951676,0.7336615153902194,0.0486333067584421,282.6194867179488
256,256,552.3388175495396,138815,3,37273600,34320976,0.8036883784292568,0.2202157534268189,0.7470539263675348,256,0,1,1,378.31202908222986,0.9312475878207832,0.0096936650011728,282.6194867179488
256,512,553.6376144236888,1684193,135712,36225024,33434264,0.9679710499694725,0.1363747487716322,0.7872279963290527,256,0,1,1,359.0058890637026,0.93068760982002,0.00803283281878,282.6194867179488
512,1024,572.7896323327356,1685392,100355,43962368,36175336,0.9193991273026701,0.161507655956585,0.7678398327682853,512,0,1,1,368.0708849123177,0.845139005607155,0.0278906001534301,282.6194867179488
512,128,792.1461753374466,1927160,142804,36225024,33615496,0.7608220169138565,0.1499026141361034,0.5078853859476025,512,0,1,1,556.4631204944851,0.9320859771849824,0.0098076207059367,282.6194867179488
512,1536,350.6651147290186,1501617,109928,53268480,38019016,1.0215740936275755,0.1827536846126445,1.0,512,0,1,1,214.90613553784678,0.7474627078811587,0.0443171546051403,282.6194867179488
512,2048,191.20247775016475,1369913,113681,52744192,39566112,1.0670547408614794,0.1673277668622361,1.0,512,0,1,1,115.19064014491707,0.7511597313129158,0.0467784479387919,282.6194867179488
512,256,585.1694838464807,1782812,103584,36225024,33574112,0.9018142425218472,0.1939242726311802,0.7550419150990968,512,0,1,1,374.3096655512905,0.932146436466568,0.0099159289441371,282.6194867179488
512,512,608.2811371195644,120925,8772,36749312,34105648,0.9060474529103706,0.1931862165569824,0.710797573511206,512,0,1,1,397.6089638599381,0.9319252550308802,0.0086799348865387,282.6194867179488
