cpu,memory,duration_std,userDiff,sysDiff,heapTotal,heapUsed,avg_cpu_util,cpu_util_std,slo_preservation,total_cpu_shares,cpu_shares_others,num_containers,arrival_rate,latency,memory_util,memory_util_std,slo_duration
1024,1024,67.26585165026582,411520,56043,54120448,45519752,1.155233044304358,0.1769107691579197,0.38818171901542603,1024,0,1,1,539.2445265864817,0.7055520128355138,0.123726943450549,209.32486730000008
1024,128,122.00051837449476,420070,88113,34316288,29991128,1.0872847064411624,0.2704341935610514,0.2717302398456892,1024,0,1,1,770.3407151845594,0.8911681415081855,0.0485544489760101,209.32486730000008
1024,1536,36.63249734492949,321700,40286,59232256,45125320,1.2926964444210147,0.2676774447298322,0.6235116802155228,1024,0,1,1,335.7192398186429,0.7535112050863514,0.1219289361569672,209.32486730000008
1024,2048,41.19419092675986,344224,43903,58183680,45289528,1.296367684011197,0.2490493159288898,0.617879601778766,1024,0,1,1,338.7793782112095,0.6470610824163937,0.1620114341219895,209.32486730000008
1024,256,46.59230682101529,368889,70187,33529856,30272008,1.0225317142297214,0.1077286394433848,0.28028343040109005,1024,0,1,1,746.832829184561,0.8541776258822326,0.0883282691268305,209.32486730000008
1024,512,69.31010446320047,354522,49395,34316288,29699696,0.9515859463683918,0.097785979340401,0.26431384697800725,1024,0,1,1,791.9557363085006,0.8444649449793225,0.08265948135711,209.32486730000008
128,1024,52.1042175489622,401913,47013,38645760,30526064,1.1321727420910208,0.1397226815108552,0.38872756821743704,128,0,1,1,538.4873222650187,0.7359404045104885,0.1307347847810447,209.32486730000008
128,128,105.37932324895333,467438,58988,34316288,29875528,0.887221041033265,0.1074646129430787,0.20941650227691266,128,0,1,1,999.5624271443928,0.8556956327235055,0.0844232253259846,209.32486730000008
128,1536,40.25830525336942,355214,33017,58970112,46110904,1.3597958833656427,0.3275361734232274,0.6241070430608735,128,0,1,1,335.3989826382766,0.6814101480089138,0.1776096547947732,209.32486730000008
128,2048,38.84596980976193,364848,72323,58183680,46499760,1.2956056397632802,0.2333192969678673,0.6226941781752166,128,0,1,1,336.15998773815306,0.6744795506617248,0.155556985884401,209.32486730000008
128,256,37.70502893962905,406835,51476,35627008,30365624,1.12304899015424,0.1113313326933984,0.326112241496911,128,0,1,1,641.8798213129415,0.8733964715538741,0.053632796312993,209.32486730000008
128,512,57.18226282265268,350898,46301,47431680,44521472,1.2043662733948304,0.2269616045930131,0.3599849791376481,128,0,1,1,581.4822268458045,0.8493600825937916,0.1108433619536187,209.32486730000008
1536,1024,28.43143841225225,348433,36125,50712576,45026248,1.2963897645726399,0.1197631945675339,0.5731347888095427,1536,0,1,1,365.2279906700279,0.5836671250469612,0.1110000368279975,209.32486730000008
1536,128,119.0860435129123,382902,74284,33267712,29793432,0.9989373326447261,0.184855425479548,0.2511839153875403,1536,0,1,1,833.3529914805341,0.8733882287320697,0.0848531132305718,209.32486730000008
1536,1536,36.472093946186696,353037,47204,57659392,45357688,1.3087506540162137,0.2519262201591881,0.5852271759569001,1536,0,1,1,357.68138579302087,0.6975738019169688,0.1452730569256383,209.32486730000008
1536,2048,36.36938050968761,285784,63556,59232256,44749728,1.2795787618691283,0.3232802488030625,0.6397663042623098,1536,0,1,1,327.1895782966635,0.6918195043733462,0.1561295439153656,209.32486730000008
1536,256,57.83296082939978,397742,50554,33267712,30032968,1.1501872401774915,0.1830632120372169,0.34603517516207255,1536,0,1,1,604.9236676645909,0.862802995816135,0.0918865434523953,209.32486730000008
1536,512,57.472749194212405,416762,68713,47693824,44883176,1.208724880961937,0.1466028773534355,0.3909693134759769,1536,0,1,1,535.3997362068213,0.8461482123597891,0.1176911901875076,209.32486730000008
2048,1024,29.440015298967868,366521,51190,54382592,44808664,1.312608305775286,0.2283176651698045,0.5852595753651103,2048,0,1,1,357.66158489489754,0.6505921191943876,0.1812083829389272,209.32486730000008
2048,128,79.42534842363372,483349,60811,33267712,30273560,1.0738648690592671,0.1281170625883715,0.2799339835326426,2048,0,1,1,747.7651146831591,0.8714960664527815,0.0596815239556326,209.32486730000008
2048,1536,37.782059595960064,323246,46172,59494400,45161960,1.2983800947598256,0.2323028710116955,0.5957629733316652,2048,0,1,1,351.35595307207444,0.7033419914980833,0.1478481544119485,209.32486730000008
2048,2048,39.69157222819052,349650,41422,58970112,46235456,1.3021379583050912,0.2166754564220157,0.6100615864758963,2048,0,1,1,343.120878187387,0.699615333154368,0.1517694453166525,209.32486730000008
2048,256,63.89174884418831,424786,86537,35102720,30378952,1.1760473699039202,0.1728384630838763,0.33668708960414134,2048,0,1,1,621.719316728518,0.8846598447633456,0.0627938783963916,209.32486730000008
2048,512,50.48353103493653,408208,63673,34840576,30390152,1.16367232876191,0.1566382277863645,0.35737265628794146,2048,0,1,1,585.732745964043,0.8529391231640691,0.0898981142944267,209.32486730000008
256,1024,34.72994568345349,357779,75471,40218624,30232912,1.3028611711456672,0.1457391801060753,0.5707507082304499,256,0,1,1,366.75358309933404,0.629682001924215,0.1515660415296187,209.32486730000008
256,128,58.31727785767592,432860,65636,39297024,29814512,0.9820937783646383,0.1275535549260137,0.25925734320777366,256,0,1,1,807.4018838195192,0.8468496954517848,0.0794587341310657,209.32486730000008
256,1536,44.740922960324944,344601,76123,58445824,45742584,1.338481262708009,0.3719719915565113,0.5755105074142292,256,0,1,1,363.7203223977569,0.7486148834336215,0.1308283515270186,209.32486730000008
256,2048,37.17869050938459,339931,50936,58707968,45992216,1.3039399626965005,0.2234715266046431,0.6212381337413106,256,0,1,1,336.94787221024797,0.7010988538799018,0.1578825297057212,209.32486730000008
256,256,41.21116228009577,389505,23665,35364864,29774328,1.2009297059532476,0.1486401233645605,0.34949723998707394,256,0,1,1,598.9313887221024,0.8684371426543297,0.1024506007776277,209.32486730000008
256,512,46.598658612177566,421541,55345,34840576,29925992,1.1464825294763186,0.213118040463954,0.32955113772470235,256,0,1,1,635.1817467396035,0.8928500062965581,0.0560330608639098,209.32486730000008
512,1024,28.36032639347393,383509,58674,54120448,45445680,1.296064408625721,0.1236577283753816,0.552754521090565,512,0,1,1,378.69408446810996,0.6240387243545433,0.1423215947376718,209.32486730000008
512,128,100.4134333839254,458118,69154,33529856,30034080,1.1016715110885935,0.2718649492689468,0.2898489486940068,512,0,1,1,722.1860498137742,0.8768751637923451,0.0626201464399246,209.32486730000008
512,1536,38.90068704556279,382422,46734,58445824,45745976,1.3147587365716444,0.2497628243223291,0.5568844511391796,512,0,1,1,375.8856381638935,0.7437819346958519,0.1381853223214786,209.32486730000008
512,2048,39.33920319712877,365570,46616,58970112,46052960,1.2890694806091358,0.2144387200151795,0.6125995096670711,512,0,1,1,341.6993712805315,0.6804724203702859,0.1538210770791597,209.32486730000008
512,256,23.769418792280348,349955,53410,35364864,30012504,1.1813232399222326,0.1160126099690945,0.3336820797286688,512,0,1,1,627.3182769365711,0.823050990819954,0.0835587503707396,209.32486730000008
512,512,57.45463317580385,387990,67693,33792000,30048280,1.1927136655852746,0.1439920561026517,0.37021962749442777,512,0,1,1,565.4072657267493,0.8502523990050449,0.0995276819890391,209.32486730000008
