cpu,memory,duration_std,userDiff,sysDiff,heapTotal,heapUsed,avg_cpu_util,cpu_util_std,slo_preservation,total_cpu_shares,cpu_shares_others,num_containers,arrival_rate,latency,memory_util,memory_util_std,slo_duration
1024,1024,52.71925632691433,434728,127136,45473792,36159312,1.2805936672044733,0.122553190850074,0.5163586023392035,1024,0,1,1,565.073420219033,0.7903206411058232,0.0720775477413635,291.7805214833333
1024,128,107.1316928178932,389906,41134,53272576,49904920,1.0379595556062036,0.1249373025421329,0.3195067178600878,1024,0,1,1,913.2218672507043,0.8865711958909832,0.0352579546465536,291.7805214833333
1024,1536,46.49546198130909,352326,93719,57270272,35432416,1.232402316485961,0.1629696988804002,0.5539250768469769,1024,0,1,1,526.750879639158,0.6867418721724531,0.0805206841419223,291.7805214833333
1024,2048,39.46024265893595,317627,76563,73744384,52134392,1.2375050417893774,0.1864417027365585,0.5709029360659814,1024,0,1,1,511.0860411648174,0.6727415383873248,0.1128476543666429,291.7805214833333
1024,256,72.60112596484193,577885,95084,45481984,41255920,1.0952317940962737,0.1108622237161037,0.3469802283716561,1024,0,1,1,840.9139703798987,0.8680135975775254,0.0517605263150542,291.7805214833333
1024,512,76.37965968357706,339872,44655,45412352,42429224,1.1702537611220774,0.1412944179862842,0.3660325285630252,1024,0,1,1,797.1436927444911,0.8920506461577155,0.029825811822423,291.7805214833333
128,1024,51.05814444603739,398388,60430,57155584,48381448,1.2637104542947737,0.1563370095469219,0.5059668104763266,128,0,1,1,576.6791723129935,0.7579681136211395,0.0614364095438173,291.7805214833333
128,128,99.8592286848822,413117,99884,35164160,31124608,1.0074953056423535,0.127970892296402,0.30414679919080495,128,0,1,1,959.3410887756418,0.8713782362588983,0.0318157715458672,291.7805214833333
128,1536,42.50394945138568,236265,66654,50634752,26683432,1.2665456378737234,0.2585089571272487,0.5998216067598924,128,0,1,1,486.4455001203926,0.6688164231770586,0.1042136251859536,291.7805214833333
128,2048,44.87408528223877,337747,88388,82358272,62519888,1.2282491795477546,0.1274155814532706,0.5520161239691106,128,0,1,1,528.5724615892933,0.6910977534055923,0.0747295826829871,291.7805214833333
128,256,97.90922921177402,306745,66831,33013760,27611600,1.1576490540796722,0.1796934212258226,0.3819816763807618,128,0,1,1,763.8599951911949,0.8739581593781109,0.0465593220812799,291.7805214833333
128,512,62.56125971612677,411897,104889,33259520,29015000,1.1717244639182325,0.1318832017317124,0.3756931978271347,128,0,1,1,776.6457395845331,0.8704045450564643,0.0356520445059325,291.7805214833333
1536,1024,38.15873214653535,378133,88979,88170496,77927312,1.2613291387369845,0.1475971339931691,0.555448918347635,1536,0,1,1,525.3057695230196,0.7661573438918454,0.0649619960773787,291.7805214833333
1536,128,210.9596963762433,452052,121241,45481984,41598800,1.0434366043353136,0.1775898886049356,0.2911177129840114,1536,0,1,1,1002.2767714562194,0.8814857509408089,0.0463186516804258,291.7805214833333
1536,1536,41.377639934422206,347371,73673,77922304,58917840,1.2579612440865868,0.1571437152781009,0.5244631402306779,1536,0,1,1,556.3413309751332,0.6611348866513962,0.0956457330067001,291.7805214833333
1536,2048,31.251042661436063,283158,54316,71000064,53441752,1.224005949632907,0.1486205556793267,0.5674352700288792,1536,0,1,1,514.2093502021532,0.6583049895395578,0.074988230059987,291.7805214833333
1536,256,72.50981263874154,323148,63820,32509952,27549792,1.150298905329815,0.1044367705412567,0.3587051207152073,1536,0,1,1,813.4272544020675,0.8604136676781804,0.0373045800396508,291.7805214833333
1536,512,73.2254408187206,487777,89339,38162432,32929856,1.1393194551339907,0.1118765803713304,0.3571131979879169,1536,0,1,1,817.0533128635751,0.8750098359141703,0.0467071018071189,291.7805214833333
2048,1024,52.00563399658517,444230,84362,75943936,65957736,1.2504160494287075,0.158324757144579,0.5517636406290644,2048,0,1,1,528.8143328014058,0.8039811518964479,0.0597565340421783,291.7805214833333
2048,128,97.00796977368988,622721,113166,45744128,41261736,0.9919160086215558,0.1279218299612877,0.29126225948290313,2048,0,1,1,1001.7793654466263,0.8690595426347552,0.0374913673539929,291.7805214833333
2048,1536,40.135190312906346,413769,59641,47710208,28062432,1.2614705033720004,0.168641211599289,0.5911027327079706,2048,0,1,1,493.62066073797877,0.6612675498464673,0.0971998525814351,291.7805214833333
2048,2048,39.55519789554047,206621,55639,46477312,26820880,1.218816552234774,0.1362656180508411,0.6049337750891224,2048,0,1,1,482.33465132666214,0.6373748759835947,0.0778492594613631,291.7805214833333
2048,256,49.27462172941984,347879,80829,33800192,27608800,1.1469817648522227,0.0799614524126672,0.3389406937791395,2048,0,1,1,860.8601057312501,0.8705243681751071,0.0316540458157747,291.7805214833333
2048,512,62.26873392685464,348457,60533,42041344,36775664,1.1635151172248015,0.1464139148568473,0.34970660252236824,2048,0,1,1,834.3580572364807,0.8739749854181188,0.0252745645330486,291.7805214833333
256,1024,51.82515577500128,404589,71836,46137344,35644040,1.2604121802358974,0.1250046846074525,0.5058496548509337,256,0,1,1,576.8127321729944,0.7566046370633855,0.0691880916011415,291.7805214833333
256,128,135.67455817056853,384009,67363,43208704,40071176,1.0275410133101655,0.1482996549194017,0.3104670751224511,256,0,1,1,939.8114803904806,0.8690170786287617,0.0424691891921681,291.7805214833333
256,1536,52.48129191025641,354160,87047,57077760,39870464,1.247062504493411,0.1891596558078452,0.5446412016798919,256,0,1,1,535.7297989637309,0.7022472420947141,0.0848969444826327,291.7805214833333
256,2048,37.16348666445876,356245,54813,71938048,52193560,1.2293878189590357,0.1695454071464333,0.6278835237293023,256,0,1,1,464.7048544136154,0.6762032112042011,0.0987916262113781,291.7805214833333
256,256,65.91915784862672,595199,111225,38522880,34239152,1.14879386882055,0.0818711607925826,0.3449385886525341,256,0,1,1,845.89121392055,0.8687257022780022,0.0297721409195337,291.7805214833333
256,512,79.62672400430202,474291,108171,37900288,33777768,1.1269224308246741,0.1373153164671116,0.3485887465657297,256,0,1,1,837.0336803982723,0.8754269199318777,0.0328075875991711,291.7805214833333
512,1024,42.08758491570634,407335,64633,67203072,56638080,1.2808381936125743,0.1262711779982073,0.5285880306972723,512,0,1,1,551.9998648066985,0.772181703152052,0.0783038361760854,291.7805214833333
512,128,120.571991866766,271540,93941,28897280,23103912,1.0412154258292106,0.1021983396248629,0.30104349374374056,512,0,1,1,969.2304519017698,0.8729052817300544,0.0376465184490821,291.7805214833333
512,1536,53.24074363217683,411603,89364,64884736,42994704,1.2307291306514185,0.1286728708336838,0.5820351445702749,512,0,1,1,501.310830119647,0.6916163787253885,0.0878923433948561,291.7805214833333
512,2048,44.75271974209871,424580,85018,67952640,45746392,1.2421052825468448,0.1940159420211764,0.5402221421339922,512,0,1,1,540.1121107897175,0.6731540226022361,0.101175137943679,291.7805214833333
512,256,52.92482907109251,341804,38772,27873280,22026376,1.1559129054531212,0.0980924361945789,0.3711174700414694,512,0,1,1,786.2214663479173,0.865292641062306,0.0398432145413061,291.7805214833333
512,512,64.95907319942623,296171,46100,45674496,42376848,1.1785004045503213,0.1112870631555869,0.3729728448890404,512,0,1,1,782.3103624880201,0.8685663935405975,0.032934589864261,291.7805214833333
