cpu,memory,duration_std,userDiff,sysDiff,heapTotal,heapUsed,avg_cpu_util,cpu_util_std,slo_preservation,total_cpu_shares,cpu_shares_others,num_containers,arrival_rate,latency,memory_util,memory_util_std,slo_duration
1024,1024,52.71925632691433,434728,127136,45473792,36159312,1.171062737826705,0.122553190850074,0.31479582948729745,1024,0,1,1,926.8881419380658,0.7903206411058232,0.0720775477413635,291.7805214833333
1024,128,107.1316928178932,389906,41134,53272576,49904920,1.0249901652154347,0.1249373025421329,0.21034297001780358,1024,0,1,1,1387.1655490014084,0.8865711958909832,0.0352579546465536,291.7805214833333
1024,1536,46.49546198130909,352326,93719,57270272,35432416,1.1437954151317478,0.1629696988804002,0.34273275577228585,1024,0,1,1,851.335381778316,0.6867418721724531,0.0805206841419223,291.7805214833333
1024,2048,39.46024265893595,317627,76563,73744384,52134392,1.1467210328470148,0.1864417027365585,0.352680801232323,1024,0,1,1,827.3218175296348,0.6727415383873248,0.1128476543666429,291.7805214833333
1024,256,72.60112596484193,577885,95084,45481984,41255920,1.061534515300544,0.1108622237161037,0.22420306552386343,1024,0,1,1,1301.4118286097973,0.8680135975775254,0.0517605263150542,291.7805214833333
1024,512,76.37965968357706,339872,44655,45412352,42429224,1.1074070241379148,0.1412944179862842,0.23091686416513982,1024,0,1,1,1263.5738950389823,0.8920506461577155,0.029825811822423,291.7805214833333
128,1024,51.05814444603739,398388,60430,57155584,48381448,1.1616016236659428,0.1563370095469219,0.3100561876195335,128,0,1,1,941.056921725987,0.7579681136211395,0.0614364095438173,291.7805214833333
128,128,99.8592286848822,413117,99884,35164160,31124608,1.0049844171848192,0.127970892296402,0.20225920128300517,128,0,1,1,1442.6069105012834,0.8713782362588983,0.0318157715458672,291.7805214833333
128,1536,42.50394945138568,236265,66654,50634752,26683432,1.1631972532593942,0.2585089571272487,0.3672513249503113,128,0,1,1,794.498213240785,0.6688164231770586,0.1042136251859536,291.7805214833333
128,2048,44.87408528223877,337747,88388,82358272,62519888,1.1414074111712345,0.1274155814532706,0.34199102564099004,128,0,1,1,853.1818077285866,0.6910977534055923,0.0747295826829871,291.7805214833333
128,256,97.90922921177402,306745,66831,33013760,27611600,1.0998521693701142,0.1796934212258226,0.24194055123842384,128,0,1,1,1206.00089563239,0.8739581593781109,0.0465593220812799,291.7805214833333
128,512,62.56125971612677,411897,104889,33259520,29015000,1.1082846040832248,0.1318832017317124,0.23690153549026574,128,0,1,1,1231.6531460190663,0.8704045450564643,0.0356520445059325,291.7805214833333
1536,1024,38.15873214653535,378133,88979,88170496,77927312,1.1602592854753626,0.1475971339931691,0.34062732997427164,1536,0,1,1,856.5975064460392,0.7661573438918454,0.0649619960773787,291.7805214833333
1536,128,210.9596963762433,452052,121241,45481984,41598800,1.0285444449695051,0.1775898886049356,0.19130854414336754,1536,0,1,1,1525.1829069624387,0.8814857509408089,0.0463186516804258,291.7805214833333
1536,1536,41.377639934422206,347371,73673,77922304,58917840,1.1583574663785847,0.1571437152781009,0.3219578754551565,1536,0,1,1,906.2692474002663,0.6611348866513962,0.0956457330067001,291.7805214833333
1536,2048,31.251042661436063,283158,54316,71000064,53441752,1.1389612507746227,0.1486205556793267,0.3520063417336365,1536,0,1,1,828.9070022043065,0.6583049895395578,0.074988230059987,291.7805214833333
1536,256,72.50981263874154,323148,63820,32509952,27549792,1.0954188220524297,0.1044367705412567,0.22772767378253167,1536,0,1,1,1281.269494554135,0.8604136676781804,0.0373045800396508,291.7805214833333
1536,512,73.2254408187206,487777,89339,38162432,32929856,1.0887577432784994,0.1118765803713304,0.2275099448091528,1536,0,1,1,1282.4956804771502,0.8750098359141703,0.0467071018071189,291.7805214833333
2048,1024,52.00563399658517,444230,84362,75943936,65957736,1.154082459365607,0.158324757144579,0.33950339417382713,2048,0,1,1,859.4332972528117,0.8039811518964479,0.0597565340421783,291.7805214833333
2048,128,97.00796977368988,622721,113166,45744128,41261736,0.9945961107496675,0.1279218299612877,0.19469948931961784,2048,0,1,1,1498.6198602932525,0.8690595426347552,0.0374913673539929,291.7805214833333
2048,1536,40.135190312906346,413769,59641,47710208,28062432,1.160339026890888,0.168641211599289,0.3624762094870002,2048,0,1,1,804.9646124259575,0.6612675498464673,0.0971998525814351,291.7805214833333
2048,2048,39.55519789554047,206621,55639,46477312,26820880,1.1359608717575738,0.1362656180508411,0.37587340892050924,2048,0,1,1,776.2733797033242,0.6373748759835947,0.0778492594613631,291.7805214833333
2048,256,49.27462172941984,347879,80829,33800192,27608800,1.093411259317624,0.0799614524126672,0.2154068368394601,2048,0,1,1,1354.5555274125004,0.8705243681751071,0.0316540458157747,291.7805214833333
2048,512,62.26873392685464,348457,60533,42041344,36775664,1.1033755877027358,0.1464139148568473,0.2210873598284865,2048,0,1,1,1319.7521636229615,0.8739749854181188,0.0252745645330486,291.7805214833333
256,1024,51.82515577500128,404589,71836,46137344,35644040,1.159741876695514,0.1250046846074525,0.31029797883673377,256,0,1,1,940.3236288459887,0.7566046370633855,0.0691880916011415,291.7805214833333
256,128,135.67455817056853,384009,67363,43208704,40071176,1.0181936516724863,0.1482996549194017,0.20509520680811624,256,0,1,1,1422.658900830961,0.8690170786287617,0.0424691891921681,291.7805214833333
256,1536,52.48129191025641,354160,87047,57077760,39870464,1.1521760077925918,0.1891596558078452,0.3354670265362593,256,0,1,1,869.7740713774618,0.7022472420947141,0.0848969444826327,291.7805214833333
256,2048,37.16348666445876,356245,54813,71938048,52193560,1.142062726323763,0.1695454071464333,0.38885606742128304,256,0,1,1,750.3560981272308,0.6762032112042011,0.0987916262113781,291.7805214833333
256,256,65.91915784862672,595199,111225,38522880,34239152,1.0945084848480628,0.0818711607925826,0.21909251797529603,256,0,1,1,1331.7685340410999,0.8687257022780022,0.0297721409195337,291.7805214833333
256,512,79.62672400430202,474291,108171,37900288,33777768,1.0811804153332967,0.1373153164671116,0.22295963796824672,256,0,1,1,1308.6696952965444,0.8754269199318777,0.0328075875991711,291.7805214833333
512,1024,42.08758491570634,407335,64633,67203072,56638080,1.1711990516078086,0.1262711779982073,0.3222274306159774,512,0,1,1,905.511119663397,0.772181703152052,0.0783038361760854,291.7805214833333
512,128,120.571991866766,271540,93941,28897280,23103912,1.0271045750190306,0.1021983396248629,0.19797577717577097,512,0,1,1,1473.8193007535394,0.8729052817300544,0.0376465184490821,291.7805214833333
512,1536,53.24074363217683,411603,89364,64884736,42994704,1.1428340918230406,0.1286728708336838,0.36031194261892086,512,0,1,1,809.799751189294,0.6916163787253885,0.0878923433948561,291.7805214833333
512,2048,44.75271974209871,424580,85018,67952640,45746392,1.1493506604181951,0.1940159420211764,0.3332539168559136,512,0,1,1,875.5501637794348,0.6731540226022361,0.101175137943679,291.7805214833333
512,256,52.92482907109251,341804,38772,27873280,22026376,1.0988068493168608,0.0980924361945789,0.23518866404723224,512,0,1,1,1240.6232360958345,0.865292641062306,0.0398432145413061,291.7805214833333
512,512,64.95907319942623,296171,46100,45674496,42376848,1.1123173709808445,0.1112870631555869,0.2346847867976325,512,0,1,1,1243.2869018260403,0.8685663935405975,0.032934589864261,291.7805214833333
