cpu,memory,duration_std,userDiff,sysDiff,heapTotal,heapUsed,avg_cpu_util,cpu_util_std,slo_preservation,total_cpu_shares,cpu_shares_others,num_containers,arrival_rate,latency,memory_util,memory_util_std,slo_duration
1024,1024,152.75068269061342,249070,32764,39432192,30151408,0.6679752757134871,0.2360429742292204,0.9337583365794189,1024,0,1,1,590.3535302779082,0.7125150931626505,0.1224083897077674,551.2475304260872
1024,128,637.6401137055151,251161,47312,33267712,29566736,0.5191983927427773,0.2076759397393051,0.36032058511622794,1024,0,1,1,1529.8807595138433,0.8911264744095306,0.0386540692999202,551.2475304260872
1024,1536,162.53631028109783,197607,31970,48476160,30212192,0.6497329327860696,0.4245433865502662,0.9107917255253036,1024,0,1,1,605.2399412260278,0.5736891367966084,0.1756736171523795,551.2475304260872
1024,2048,136.29861142561165,233762,53411,50573312,30576000,0.626007387449135,0.2375637339625209,0.922898805048849,1024,0,1,1,597.3000803667849,0.5383912487116186,0.1506824130607559,551.2475304260872
1024,256,148.37690080617105,282018,36800,32743424,29717600,0.5673502546421912,0.1121841506719583,0.5920625550763177,1024,0,1,1,931.0629859965231,0.8444970671186451,0.1097755088286895,551.2475304260872
1024,512,142.79712620062872,276728,41893,33267712,29988600,0.6790629051386287,0.1771573956172364,0.82550235776485,1024,0,1,1,667.7722059070288,0.8622300190282294,0.067910891362779,551.2475304260872
128,1024,141.3775040056381,266290,38294,41005056,30956488,0.6418946173629478,0.264413213826611,0.9053145618297109,128,0,1,1,608.9016499546558,0.7013622443043521,0.1421297114532381,551.2475304260872
128,128,1512.2212217832357,253079,28104,33529856,29885496,0.45845051652830976,0.1948270912417487,0.25054738976688884,128,0,1,1,2200.172713589122,0.9027753669433564,0.0207775088918254,551.2475304260872
128,1536,145.86009954645448,277112,28249,51097600,30067144,0.6535380481849921,0.2552767231621816,0.9587296286424589,128,0,1,1,574.9770466639716,0.5684931007970813,0.1779188478112303,551.2475304260872
128,2048,141.21258900632364,225750,35734,50573312,30034640,0.6370489717935364,0.3584671342378074,0.8911745183985628,128,0,1,1,618.5629403056507,0.5971992015817893,0.1571345909381807,551.2475304260872
128,256,157.90816015169256,250306,26024,32481280,29616624,0.5806974435492605,0.1036256977616602,0.6049506311015854,128,0,1,1,911.2273003539025,0.8728953127011824,0.0787296653522827,551.2475304260872
128,512,155.6932135447626,279041,30677,33005568,29993520,0.7009629499882994,0.2241314594315784,0.7770662443740833,128,0,1,1,709.3958004444137,0.8491213121690813,0.0855575837975392,551.2475304260872
1536,1024,152.1459579832015,260200,64680,39956480,31327552,0.7419589049522316,0.3317065697141095,1.0,1536,0,1,1,534.7214050861012,0.6916682695263826,0.1450204653412893,551.2475304260872
1536,128,802.5631834297423,310205,59239,32743424,29695064,0.45135973683154607,0.0961514753445594,0.34530517498470115,1536,0,1,1,1596.4068029113969,0.8900943845104725,0.0500632148228743,551.2475304260872
1536,1536,152.68489344614022,229874,49818,51097600,29888768,0.7587869034768865,0.4079670622160363,0.9684499150615438,1536,0,1,1,569.2060289881446,0.5992991728207593,0.1761577461549775,551.2475304260872
1536,2048,129.67079329583353,217920,55945,50311168,29977768,0.6295534308811941,0.1674155496032449,0.9821893773332977,1536,0,1,1,561.2436289249604,0.5325574085752057,0.1676117450121419,551.2475304260872
1536,256,179.5928691394191,218358,43625,32743424,29893632,0.6564836852197466,0.1308188226441478,0.6985331129894882,1536,0,1,1,789.1501779592554,0.8785168017067772,0.0509345621403539,551.2475304260872
1536,512,145.30176113490813,260578,30456,33267712,30448440,0.7362758611813296,0.2378474974708796,0.8011035656858587,1536,0,1,1,688.1101945341372,0.8787283958750244,0.064555910231041,551.2475304260872
2048,1024,160.8416236110744,223946,25455,39432192,30064896,0.7178890161673981,0.3451134117893554,0.9023323920020747,2048,0,1,1,610.9140437738156,0.7319591978475423,0.1381713411889006,551.2475304260872
2048,128,716.4577088353856,264347,34950,32743424,29622696,0.48385754174032186,0.2228040024710714,0.3560317745512528,2048,0,1,1,1548.309925766842,0.8809613123388244,0.0680334134496354,551.2475304260872
2048,1536,121.59516916149768,219257,21244,49262592,30542024,0.7270679757609698,0.2878977416574907,1.0,2048,0,1,1,490.8955461887736,0.5915380800477332,0.1816595586240881,551.2475304260872
2048,2048,134.60423029574977,262981,45697,50311168,30660368,0.6796123695376016,0.2610459487325912,1.0,2048,0,1,1,527.4469193233123,0.5658543330771668,0.1783615016891562,551.2475304260872
2048,256,172.6923750527229,289223,26572,32743424,30203400,0.6345285407795653,0.2181293073064383,0.6585159600866577,2048,0,1,1,837.1058012831543,0.8699855023303744,0.0674182791783317,551.2475304260872
2048,512,170.3135421662803,283488,34900,33005568,29811528,0.7663498373465585,0.2948270033342779,0.8084309982094416,2048,0,1,1,681.8733220856464,0.8569902564230156,0.0951420872017745,551.2475304260872
256,1024,125.13546156537984,283556,43389,39432192,30261808,0.7126416527102165,0.3082958174674117,0.939415805181143,256,0,1,1,586.7982286286879,0.6843664742226159,0.1429011178463334,551.2475304260872
256,128,1521.3869270838943,298722,71750,32743424,29950744,0.43829018370113854,0.2073249749708191,0.22626408618141183,256,0,1,1,2436.3014905693576,0.8845089730251287,0.070540791672067,551.2475304260872
256,1536,125.52140062630735,187473,38430,36933632,15540592,0.5752857697203098,0.1558502056101814,0.9697277789654389,256,0,1,1,568.4559547362762,0.560415003855028,0.1615215841215393,551.2475304260872
256,2048,144.81855359444867,225633,51112,50049024,29982152,0.6957805127830421,0.2955064894653614,0.9567920965850688,256,0,1,1,576.1413920469979,0.5532528626115295,0.1706337652488634,551.2475304260872
256,256,167.15173567589898,256936,20434,32743424,29676696,0.5710564947758425,0.1058188240736067,0.5939137605255304,256,0,1,1,928.1608998894225,0.8827601895727175,0.0439381663105528,551.2475304260872
256,512,151.04556249547738,260505,26924,33005568,29746768,0.7673247339937206,0.2842582122859884,0.8200105152275727,256,0,1,1,672.2444653933526,0.8301855248293425,0.0992435554736564,551.2475304260872
512,1024,136.7751179773929,222049,41453,40218624,29963104,0.6790186327173756,0.1558596080630736,0.9246176012352608,512,0,1,1,596.1897434027185,0.6947414611127624,0.1434840960560532,551.2475304260872
512,128,960.5871996569108,249013,45123,33267712,30244648,0.4718508531361289,0.2373136410510835,0.2988461509952513,512,0,1,1,1844.5863484949036,0.8661257851400583,0.0663124189682429,551.2475304260872
512,1536,163.97348750210614,267637,43974,51097600,31149536,0.6949813256794588,0.3764704287761519,0.954612881477294,512,0,1,1,577.4566225976482,0.569107190025498,0.1592216149927737,551.2475304260872
512,2048,149.5879074019832,271581,44916,50573312,30616544,0.6252954060461826,0.2500171980359187,0.9028885687369788,512,0,1,1,610.5377224979261,0.5551280784722494,0.1597593919852901,551.2475304260872
512,256,166.2758952052409,235543,33982,32219136,29611864,0.6588764838135703,0.1808787138435254,0.669223233427883,512,0,1,1,823.7124817118156,0.8722748327039614,0.076846882902746,551.2475304260872
512,512,136.65575882915772,251915,51985,32743424,29987400,0.689420554912885,0.2139925408305129,0.7474202580726254,512,0,1,1,737.5335689289326,0.8297815169069939,0.087325592561196,551.2475304260872
