cpu,memory,duration_std,userDiff,sysDiff,heapTotal,heapUsed,avg_cpu_util,cpu_util_std,slo_preservation,total_cpu_shares,cpu_shares_others,num_containers,arrival_rate,latency,memory_util,memory_util_std,slo_duration
1024,1024,774.3240102840177,1787014,128952,43700224,35064352,0.9467257792981348,0.0877462215442124,1.0,1024,0,1,1,1350.208945850279,0.8242023113934323,0.0214940985126926,2714.1792476260885
1024,128,2156.893764547997,1893937,261656,35962880,33018568,0.4433279837935179,0.0362402718664547,0.17346425971347837,1024,0,1,1,15646.907622983928,0.9168353720103258,0.0085961657941223,2714.1792476260885
1024,1536,497.0033848944824,1611579,181115,52744192,39384816,0.9959273102417283,0.2544480231828601,1.0,1024,0,1,1,915.3381638693087,0.7185281873099149,0.0561930534825869,2714.1792476260885
1024,2048,322.51323967922485,1462729,113299,51695616,35137416,1.0092010917331409,0.191375648591648,1.0,1024,0,1,1,547.4576991192204,0.7129804229849037,0.0411443117741897,2714.1792476260885
1024,256,2892.674045757782,1753642,155700,35962880,33351992,0.526555296598926,0.0577439636195302,0.24624004639987004,1024,0,1,1,11022.493243111738,0.9221615078485697,0.008341950426226,2714.1792476260885
1024,512,1306.4959865973542,1929919,181120,36225024,33223120,0.7968630680777857,0.21156252964285,1.0,1024,0,1,1,2644.95697906356,0.9256990821320932,0.008338236521835,2714.1792476260885
128,1024,786.4286563003342,1623286,147000,43175936,36448512,0.8825196084962313,0.1332673334364776,1.0,128,0,1,1,1323.8764311757275,0.8212902120912335,0.0360070974637571,2714.1792476260885
128,128,1318.1071714048662,2138636,178373,36487168,33959320,0.35844797375889603,0.0166548227287131,0.14252625832668753,128,0,1,1,19043.362812520198,0.924749171015854,0.0095432963556141,2714.1792476260885
128,1536,566.715199005348,1715519,128384,52219904,37725336,1.0124610292168104,0.2001756045704157,1.0,128,0,1,1,979.7693460948462,0.7175963001238592,0.0537079622944338,2714.1792476260885
128,2048,321.74315895975195,1471025,100916,51957760,34483168,0.9931879714434768,0.182587411633124,1.0,128,0,1,1,528.382744116607,0.7262796815450769,0.0467446507062867,2714.1792476260885
128,256,2170.449315999213,1888865,169779,35700736,33353768,0.4578509527583875,0.0249654418212742,0.2181250430251209,128,0,1,1,12443.226187987519,0.923354193565439,0.0095899817326381,2714.1792476260885
128,512,2212.2650302339894,1719113,195798,35962880,33222568,0.6381032606945192,0.1083714198906152,0.7703846805027803,128,0,1,1,3523.1480016642063,0.9292275941289514,0.0083972191122896,2714.1792476260885
1536,1024,774.2048146316699,1649727,167951,42913792,34756728,0.8855951891881183,0.2027097230338823,1.0,1536,0,1,1,1305.240826223836,0.8166377935040204,0.0309038192773518,2714.1792476260885
1536,128,2924.0510904134308,2116571,249463,36225024,33113384,0.46123257074447105,0.0618765400870829,0.17436815895540522,1536,0,1,1,15565.796323629485,0.917547658150486,0.0086010062792699,2714.1792476260885
1536,1536,560.9773840943027,1605742,139999,51433472,36838088,0.9875280530460904,0.2006346385009751,1.0,1536,0,1,1,896.995338539658,0.7212714439407757,0.0395286691934418,2714.1792476260885
1536,2048,373.0725931951908,1700720,118878,52482048,34831056,1.0006804832426461,0.1875884057449178,1.0,1536,0,1,1,611.7612783468296,0.7164893663329207,0.0396551930026008,2714.1792476260885
1536,256,2950.326606452444,1906781,132467,35962880,33667928,0.6821557245490212,0.2921109669914702,0.32720394940929587,1536,0,1,1,8295.06872556404,0.922104272733692,0.0109011091978826,2714.1792476260885
1536,512,1676.1096142196884,1999444,153758,36225024,33615632,0.779920888388454,0.1848671852616554,0.8436430440900616,1536,0,1,1,3217.2128563610145,0.921391969211304,0.0321630830043132,2714.1792476260885
2048,1024,785.9729152285038,1672131,112030,42913792,33529456,0.8730919440439399,0.1810627665564869,1.0,2048,0,1,1,1217.76726028148,0.8160836039091774,0.024426296935179,2714.1792476260885
2048,128,3172.1791631156207,1936641,179826,35962880,33167456,0.5196374858088731,0.0929611018765138,0.18502504619353793,2048,0,1,1,14669.253182009918,0.9197528850410835,0.0110442536634154,2714.1792476260885
2048,1536,341.6035360027301,1492937,153287,52482048,40005376,1.0424274149474528,0.1422432709809274,1.0,2048,0,1,1,560.8912439444481,0.6952365454053734,0.0450893716250949,2714.1792476260885
2048,2048,210.00747783227104,1439382,107539,52482048,41382672,1.0158664686128742,0.1252040045855789,1.0,2048,0,1,1,317.9822693935671,0.6949049090463698,0.06101081839811,2714.1792476260885
2048,256,2720.8494557021554,1885661,162915,36225024,33147320,0.6219717088353467,0.1120032753719982,0.38362609536743286,2048,0,1,1,7075.064184636547,0.9213265734071768,0.0113841170633063,2714.1792476260885
2048,512,1273.79470991302,1859058,176510,36225024,33138536,0.8438085301114522,0.1903331586262112,1.0,2048,0,1,1,2617.90680266961,0.9271680911284096,0.0109303667682004,2714.1792476260885
256,1024,798.499782448922,1645865,161398,43962368,36150456,0.915640066884267,0.1592537899422328,1.0,256,0,1,1,1359.707703159103,0.8274968085242715,0.024980459227311,2714.1792476260885
256,128,3816.634897047618,1741310,200658,36225024,32732528,0.6584061050511933,0.2016815611310783,0.21590495021312328,256,0,1,1,12571.176552213732,0.9214410095816592,0.0083054227593215,2714.1792476260885
256,1536,560.824980252922,1756970,117420,52744192,39573952,1.0076173913351933,0.2383991749674272,1.0,256,0,1,1,918.5889686508096,0.7225434429920254,0.045470298724147,2714.1792476260885
256,2048,339.00370373264434,1359101,140505,51957760,34689592,1.0018824084993982,0.1520395010394993,1.0,256,0,1,1,559.1846672908832,0.7342965510832034,0.0498131037763137,2714.1792476260885
256,256,3688.5261901733857,2010860,169439,35962880,33448808,0.4770790182944509,0.0377643340017755,0.22216061526808997,256,0,1,1,12217.193602703977,0.9227919024074976,0.0094807786069988,2714.1792476260885
256,512,1258.93879059226,1917445,238715,36487168,33956856,0.8211727770650099,0.2310956154729433,1.0,256,0,1,1,2563.122514337684,0.9300795282039716,0.0108842141985674,2714.1792476260885
512,1024,814.8963689151171,1712592,138313,43438080,35558072,0.9086450649425293,0.1804825303099296,1.0,512,0,1,1,1315.9375385095452,0.8285850683860208,0.0238014271576166,2714.1792476260885
512,128,3051.8148128185603,2050145,196681,36749312,33760600,0.6686326671100655,0.1902411232923612,0.22852280965229615,512,0,1,1,11877.060551442493,0.916232120093877,0.0095427677470605,2714.1792476260885
512,1536,532.502332309874,1671083,127714,52482048,40255576,0.946319672389163,0.1855355390651004,1.0,512,0,1,1,880.2272024057748,0.6921495130163501,0.0443740453264248,2714.1792476260885
512,2048,363.5772830184939,1479526,103969,51171328,36397504,0.9968550355997066,0.1597009914250446,1.0,512,0,1,1,560.0271081632546,0.7452595727232071,0.0386212423642478,2714.1792476260885
512,256,3244.6884443940617,2034754,128676,36749312,33794160,0.4882093738631365,0.0302032433048003,0.28531929906187437,512,0,1,1,9512.778338339782,0.9215580606247884,0.0108354746264238,2714.1792476260885
512,512,2021.4617444077244,79959,6669,37273600,34536392,0.7265881081620618,0.1548022384720636,0.7259703563090437,512,0,1,1,3738.6915650735873,0.9211676226089353,0.0283374868156486,2714.1792476260885
