cpu,memory,duration_std,userDiff,sysDiff,heapTotal,heapUsed,avg_cpu_util,cpu_util_std,slo_preservation,total_cpu_shares,cpu_shares_others,num_containers,arrival_rate,latency,memory_util,memory_util_std,slo_duration
1024,1024,598.7944427234748,1804494,148865,58388480,49286944,1.0403237777776868,0.2218357464197825,0.35031511090964884,1024,0,1,1,1016.2670508200536,0.7782622618615039,0.0994633623431417,356.0137046218488
1024,128,645.4273641876534,1870039,193059,36749312,34326192,1.1083493593810851,0.2857458419573666,0.28875912730062975,1024,0,1,1,1232.908922914148,0.9194987547855452,0.0587516850345795,356.0137046218488
1024,1536,422.32556081888265,1932578,162422,53530624,35874264,1.2115222355645237,0.2577698617480751,0.4996404926905684,1024,0,1,1,712.5397357302085,0.7270992328667104,0.1076257954698271,356.0137046218488
1024,2048,212.1649011042497,1572524,140390,52744192,38546184,1.2842130707552768,0.2999346245445421,0.914031688726571,1024,0,1,1,389.4982077895429,0.7314590928514445,0.1283595125597699,356.0137046218488
1024,256,407.7002205762034,1945857,175482,52486144,50300480,1.109220060529193,0.2250687646174564,0.448184448204155,1024,0,1,1,794.3464036924347,0.9021155293494134,0.0874737462832338,356.0137046218488
1024,512,392.52259936407074,1822731,149312,37535744,34911392,1.1750961865479896,0.2344489278035499,0.4307963414194636,1024,0,1,1,826.4083753561885,0.864190133869849,0.0955359337303835,356.0137046218488
128,1024,633.1564706188921,1746480,181099,45273088,35652768,1.0607639709608532,0.236247146947299,0.3279870287143569,128,0,1,1,1085.450561924204,0.8177136555961259,0.0914440139571024,356.0137046218488
128,128,626.164293399952,1924718,213271,36487168,34023496,1.071973483939121,0.1884005150870567,0.32094414909810187,128,0,1,1,1109.2699637064495,0.9214969726914544,0.0476757899483722,356.0137046218488
128,1536,397.7348958961236,2010909,131542,55627776,35589400,1.1769738622834387,0.2751336125485316,0.514924562595014,128,0,1,1,691.3900219241475,0.787380302332524,0.1030980684912601,356.0137046218488
128,2048,238.94366914126851,1745833,147325,53268480,38506200,1.3256640758208469,0.4232090642528532,0.9049269474421703,128,0,1,1,393.4170660163703,0.783197368644499,0.0763213271024332,356.0137046218488
128,256,388.2693696882541,1896393,133358,38060032,35264056,1.2073080455554843,0.2067316326324123,0.4583801733437118,128,0,1,1,776.6778000559275,0.8904104642168308,0.0796958286794077,356.0137046218488
128,512,366.84580345490895,1679914,206497,51699712,49476120,1.2092676029549372,0.1281360309464181,0.464334172517721,128,0,1,1,766.7187247741533,0.8711721796030751,0.0981421847373714,356.0137046218488
1536,1024,569.7874788763232,1957466,229193,58650624,51310192,1.073101942029712,0.2653723304124756,0.35078903354797497,1536,0,1,1,1014.8940547571572,0.7991708788390209,0.0965069865524467,356.0137046218488
1536,128,585.9124270886791,2103538,144735,45924352,34938648,1.0846360860925868,0.162722564022216,0.31214990576782337,1536,0,1,1,1140.5215828790006,0.8676127638865015,0.1150164322083227,356.0137046218488
1536,1536,421.7011336317134,1941627,142960,67432448,53123280,1.169996217664213,0.3188552865861051,0.503808721516953,1536,0,1,1,706.6445843769876,0.7015790212441175,0.123941203391684,356.0137046218488
1536,2048,224.8616821380969,1612786,158634,52482048,42344768,1.3100651216654955,0.3459703728944869,0.885942971266695,1536,0,1,1,401.84720254942704,0.737107307199131,0.1276159001436086,356.0137046218488
1536,256,358.1555058140789,1800694,146761,37535744,35109848,1.1334274216533509,0.2343091761304031,0.4420676058275191,1536,0,1,1,805.3376902734515,0.8959016408070379,0.0901697884529742,356.0137046218488
1536,512,417.1618438598167,1880948,132978,46448640,33489840,1.1789311360723198,0.2348665943478154,0.3937296654033413,1536,0,1,1,904.2084859344905,0.8924139134536218,0.0747453924497388,356.0137046218488
2048,1024,573.4522609321574,1882116,169278,58912768,50989536,1.0231946903721134,0.1491062127628783,0.34675367389518963,2048,0,1,1,1026.7049246303245,0.7995710944254397,0.1006643442803897,356.0137046218488
2048,128,543.7812228672603,2016297,172051,37011456,34593888,1.0853899394640332,0.1803331127467358,0.32638928796818667,2048,0,1,1,1090.764059194705,0.8732672817306771,0.0963080891334491,356.0137046218488
2048,1536,394.8260631609612,1834255,204892,67432448,53564080,1.1264924895899553,0.3471267084115733,0.5563317061009131,2048,0,1,1,639.9306397922095,0.7906773643474149,0.1002303834446694,356.0137046218488
2048,2048,217.25349035826065,1691127,106626,58773504,36959328,1.2623994007749866,0.3380749256372284,0.88789770433693,2048,0,1,1,400.9625240417926,0.7150941284421022,0.1448475384426467,356.0137046218488
2048,256,370.7379015167286,1703005,140798,51961856,49721376,1.1882409411749328,0.2531064975333856,0.4546752847980102,2048,0,1,1,783.0065027176661,0.8849651238248107,0.077173635399832,356.0137046218488
2048,512,526.9564178683513,2104650,171104,41205760,34739312,1.166418139876681,0.4797316794392317,0.32557570293662935,2048,0,1,1,1093.4897825933404,0.8997170861250586,0.0692486360932592,356.0137046218488
256,1024,576.4398346878413,1994273,214038,58912768,49650952,1.0523740124747458,0.1841356801392898,0.3576201900247875,256,0,1,1,995.5078447812821,0.8028440469739812,0.1000145004867251,356.0137046218488
256,128,629.4868639552041,2279136,191351,37273600,35078544,1.0635097985813655,0.1948065125372484,0.32601013162916287,256,0,1,1,1092.0326397303966,0.8711749242272429,0.0965408720582794,356.0137046218488
256,1536,360.15260156725617,1708133,124988,62443520,38356088,1.1246719244686059,0.248318144235479,0.5179653047519384,256,0,1,1,687.3311809800645,0.7458989824287298,0.1211495380467654,356.0137046218488
256,2048,241.6928131175985,1764784,177925,64802816,37573816,1.3150741459086421,0.3898520647285164,0.908574358455949,256,0,1,1,391.83771950912876,0.7575664250914488,0.1044590134069149,356.0137046218488
256,256,393.9352501731138,1736705,148041,52224000,49422736,1.1598071842973425,0.2616197653529596,0.4916260655879923,256,0,1,1,724.1554700645315,0.9000661659074802,0.0692977370423854,356.0137046218488
256,512,600.0752806300601,2019923,169406,49070080,34037680,1.075918448636478,0.1159430582096323,0.33677869809306016,256,0,1,1,1057.1146769011903,0.904155334980418,0.0858163708477795,356.0137046218488
512,1024,597.5416936318372,2110440,180092,59174912,50180824,1.0415074220495206,0.141250168190368,0.33853487204372607,512,0,1,1,1051.6308186291221,0.7912423382486657,0.1023572096993071,356.0137046218488
512,128,597.4413785226009,2009482,165230,51699712,49754680,1.143018158228655,0.2686280048837309,0.28927259961507984,512,0,1,1,1230.720452250154,0.8603579422758748,0.1184444568739191,356.0137046218488
512,1536,358.42531579399565,1854116,118192,61394944,38563312,1.178838831976285,0.2935496096425465,0.5296483394098201,512,0,1,1,672.1699628446867,0.7449347882389656,0.0933376907140161,356.0137046218488
512,2048,213.66491939289213,1572949,164057,52482048,37225920,1.3023327026109843,0.3435646461775848,0.8557036840810356,512,0,1,1,416.0478811122357,0.7633568969622742,0.0907307115243551,356.0137046218488
512,256,546.1210413437235,1859953,170172,37797888,35003104,1.0225393235640508,0.1594891120141478,0.347939316938375,512,0,1,1,1023.2063100960329,0.9090306372681194,0.06397658721661,356.0137046218488
512,512,604.5514223036798,2035339,195774,37797888,34938960,1.0982459855200364,0.2430044841475016,0.30716183832149246,512,0,1,1,1159.0427592415476,0.8905605730577122,0.0756052662648916,356.0137046218488
