cpu,memory,duration_std,userDiff,sysDiff,heapTotal,heapUsed,avg_cpu_util,cpu_util_std,slo_preservation,total_cpu_shares,cpu_shares_others,num_containers,arrival_rate,latency,memory_util,memory_util_std,slo_duration
1024,1024,598.7944427234748,1804494,148865,58388480,49286944,1.0544975527727274,0.2218357464197825,0.47345058662749256,1024,0,1,1,751.9553564350269,0.7782622618615039,0.0994633623431417,356.0137046218488
1024,128,645.4273641876534,1870039,193059,36749312,34326192,1.1498789070285398,0.2857458419573666,0.39943847053228415,1024,0,1,1,891.285469192368,0.9194987547855452,0.0587516850345795,356.0137046218488
1024,1536,422.32556081888265,1932578,162422,53530624,35874264,1.303423234371526,0.2577698617480751,0.7167215016924762,1024,0,1,1,496.72530234010424,0.7270992328667104,0.1076257954698271,356.0137046218488
1024,2048,212.1649011042497,1572524,140390,52744192,38546184,1.418608790983935,0.2999346245445421,1.0,1024,0,1,1,264.4485354197715,0.7314590928514445,0.1283595125597699,356.0137046218488
1024,256,407.7002205762034,1945857,175482,52486144,50300480,1.1511288480148887,0.2250687646174564,0.6201571307239675,1024,0,1,1,574.0701621962173,0.9021155293494134,0.0874737462832338,356.0137046218488
1024,512,392.52259936407074,1822731,149312,37535744,34911392,1.247932245642054,0.2344489278035499,0.6099978900067877,1024,0,1,1,583.6310427530942,0.864190133869849,0.0955359337303835,356.0137046218488
128,1024,633.1564706188921,1746480,181099,45273088,35652768,1.082693557591858,0.236247146947299,0.4463568430352669,128,0,1,1,797.5988498371021,0.8177136555961259,0.0914440139571024,356.0137046218488
128,128,626.164293399952,1924718,213271,36487168,34023496,1.0983235411897132,0.1884005150870567,0.43844432055195076,128,0,1,1,811.9929668005932,0.9214969726914544,0.0476757899483722,356.0137046218488
128,1536,397.7348958961236,2010909,131542,55627776,35589400,1.2507576673400354,0.2751336125485316,0.7296065108508232,128,0,1,1,487.95302581207375,0.787380302332524,0.1030980684912601,356.0137046218488
128,2048,238.94366914126851,1745833,147325,53268480,38506200,1.4870952416657297,0.4232090642528532,1.0,128,0,1,1,263.0323482081851,0.783197368644499,0.0763213271024332,356.0137046218488
128,256,388.2693696882541,1896393,133358,38060032,35264056,1.2969293412050797,0.2067316326324123,0.6565424054224219,128,0,1,1,542.2554608529638,0.8904104642168308,0.0796958286794077,356.0137046218488
128,512,366.84580345490895,1679914,206497,51699712,49476120,1.299946498885408,0.1281360309464181,0.6655373664768091,128,0,1,1,534.9266961620767,0.8711721796030751,0.0981421847373714,356.0137046218488
1536,1024,569.7874788763232,1957466,229193,58650624,51310192,1.0999036393913983,0.2653723304124756,0.4794004117673113,1536,0,1,1,742.6228594785787,0.7991708788390209,0.0965069865524467,356.0137046218488
1536,128,585.9124270886791,2103538,144735,45924352,34938648,1.1161242144609667,0.162722564022216,0.42828259522421563,1536,0,1,1,831.2588664395001,0.8676127638865015,0.1150164322083227,356.0137046218488
1536,1536,421.7011336317134,1941627,142960,67432448,53123280,1.2402770183210199,0.3188552865861051,0.7120961811593436,1536,0,1,1,499.9517116384938,0.7015790212441175,0.123941203391684,356.0137046218488
1536,2048,224.8616821380969,1612786,158634,52482048,42344768,1.461074540001466,0.3459703728944869,1.0,1536,0,1,1,270.23570147471355,0.737107307199131,0.1276159001436086,356.0137046218488
1536,256,358.1555058140789,1800694,146761,37535744,35109848,1.1861839084922912,0.2343091761304031,0.6168587659936244,1536,0,1,1,577.1397348117257,0.8959016408070379,0.0901697884529742,356.0137046218488
1536,512,417.1618438598167,1880948,132978,46448640,33489840,1.2537068674363374,0.2348665943478154,0.5582701938798681,1536,0,1,1,637.7086015422452,0.8924139134536218,0.0747453924497388,356.0137046218488
2048,1024,573.4522609321574,1882116,169278,58912768,50989536,1.031167225208978,0.1491062127628783,0.4659406818090301,2048,0,1,1,764.0751677651623,0.7995710944254397,0.1006643442803897,356.0137046218488
2048,128,543.7812228672603,2016297,172051,37011456,34593888,1.1171888351312846,0.1803331127467358,0.4479354441096893,2048,0,1,1,794.787975149984,0.8732672817306771,0.0963080891334491,356.0137046218488
2048,1536,394.8260631609612,1834255,204892,67432448,53564080,1.1760809590811265,0.3471267084115733,0.7744287482603802,2048,0,1,1,459.71137489610476,0.7906773643474149,0.1002303834446694,356.0137046218488
2048,2048,217.25349035826065,1691127,106626,58773504,36959328,1.3834005601098556,0.3380749256372284,1.0,2048,0,1,1,274.4188115208963,0.7150941284421022,0.1448475384426467,356.0137046218488
2048,256,370.7379015167286,1703005,140798,51961856,49721376,1.267790998071637,0.2531064975333856,0.6468196958355352,2048,0,1,1,550.4064067838331,0.8849651238248107,0.077173635399832,356.0137046218488
2048,512,526.9564178683513,2104650,171104,41205760,34739312,1.2349226499769286,0.4797316794392317,0.45959597288283055,2048,0,1,1,774.6232030466701,0.8997170861250586,0.0692486360932592,356.0137046218488
256,1024,576.4398346878413,1994273,214038,58912768,49650952,1.0710728059752488,0.1841356801392898,0.48529927682587115,256,0,1,1,733.5961985156409,0.8028440469739812,0.1000145004867251,356.0137046218488
256,128,629.4868639552041,2279136,191351,37273600,35078544,1.0865111670397314,0.1948065125372484,0.4440813478235555,256,0,1,1,801.6857865494089,0.8711749242272429,0.0965408720582794,356.0137046218488
256,1536,360.15260156725617,1708133,124988,62443520,38356088,1.17343679913196,0.248318144235479,0.7205651545084466,256,0,1,1,494.07566046503223,0.7458989824287298,0.1211495380467654,356.0137046218488
256,2048,241.6928131175985,1764784,177925,64802816,37573816,1.469397164809634,0.3898520647285164,1.0,256,0,1,1,263.01380592956434,0.7575664250914488,0.1044590134069149,356.0137046218488
256,256,393.9352501731138,1736705,148041,52224000,49422736,1.2250652609411754,0.2616197653529596,0.6923840703630048,256,0,1,1,514.1852908822658,0.9000661659074802,0.0692977370423854,356.0137046218488
256,512,600.0752806300601,2019923,169406,49070080,34037680,1.1038527104021114,0.1159430582096323,0.4606967243249665,256,0,1,1,772.772381100595,0.904155334980418,0.0858163708477795,356.0137046218488
512,1024,597.5416936318372,2110440,180092,59174912,50180824,1.0561196906274144,0.141250168190368,0.45771265348686313,512,0,1,1,777.8104929145612,0.7912423382486657,0.1023572096993071,356.0137046218488
512,128,597.4413785226009,2009482,165230,51699712,49754680,1.2002367059357755,0.2686280048837309,0.4050044636415738,512,0,1,1,879.036496093827,0.8603579422758748,0.1184444568739191,356.0137046218488
512,1536,358.42531579399565,1854116,118192,61394944,38563312,1.2535676926271682,0.2935496096425465,0.7509650216557466,512,0,1,1,474.0749493723433,0.7449347882389656,0.0933376907140161,356.0137046218488
512,2048,213.66491939289213,1572949,164057,52482048,37225920,1.4482876044849597,0.3435646461775848,1.0,512,0,1,1,280.5896907561179,0.7633568969622742,0.0907307115243551,356.0137046218488
512,256,546.1210413437235,1859953,170172,37797888,35003104,1.0302799277819925,0.1594891120141478,0.4674309483809699,512,0,1,1,761.6391380480164,0.9090306372681194,0.06397658721661,356.0137046218488
512,512,604.5514223036798,2035339,195774,37797888,34938960,1.1354297918152698,0.2430044841475016,0.42341540570114833,512,0,1,1,840.8142448957739,0.8905605730577122,0.0756052662648916,356.0137046218488
