cpu,memory,duration_std,userDiff,sysDiff,heapTotal,heapUsed,avg_cpu_util,cpu_util_std,slo_preservation,total_cpu_shares,cpu_shares_others,num_containers,arrival_rate,latency,memory_util,memory_util_std,slo_duration
1024,1024,598.7944427234748,1804494,148865,58388480,49286944,1.026525975997965,0.2218357464197825,0.2304459238651946,1024,0,1,1,1544.8904395901068,0.7782622618615039,0.0994633623431417,356.0137046218488
1024,128,645.4273641876534,1870039,193059,36749312,34326192,1.0697150460607547,0.2857458419573666,0.18579579958034426,1024,0,1,1,1916.1558303577076,0.9194987547855452,0.0587516850345795,356.0137046218488
1024,1536,422.32556081888265,1932578,162422,53530624,35874264,1.1317270876857821,0.2577698617480751,0.31115493279637296,1024,0,1,1,1144.168602510417,0.7270992328667104,0.1076257954698271,356.0137046218488
1024,2048,212.1649011042497,1572524,140390,52744192,38546184,1.173078338483024,0.2999346245445421,0.5566214304825048,1024,0,1,1,639.5975525290859,0.7314590928514445,0.1283595125597699,356.0137046218488
1024,256,407.7002205762034,1945857,175482,52486144,50300480,1.0702556000559214,0.2250687646174564,0.2882938096879984,1024,0,1,1,1234.8988866848692,0.9021155293494134,0.0874737462832338,356.0137046218488
1024,512,392.52259936407074,1822731,149312,37535744,34911392,1.1102934690859598,0.2344489278035499,0.2713595532914117,1024,0,1,1,1311.9630405623766,0.864190133869849,0.0955359337303835,356.0137046218488
128,1024,633.1564706188921,1746480,181099,45273088,35652768,1.039705100777031,0.236247146947299,0.2143170998000171,128,0,1,1,1661.1539860984083,0.8177136555961259,0.0914440139571024,356.0137046218488
128,128,626.164293399952,1924718,213271,36487168,34023496,1.0468581413969962,0.1884005150870567,0.20894981729240877,128,0,1,1,1703.823957518162,0.9214969726914544,0.0476757899483722,356.0137046218488
128,1536,397.7348958961236,2010909,131542,55627776,35589400,1.1114103357188085,0.2751336125485316,0.3241604022671523,128,0,1,1,1098.264014148295,0.787380302332524,0.1030980684912601,356.0137046218488
128,2048,238.94366914126851,1745833,147325,53268480,38506200,1.1958490505331425,0.4232090642528532,0.5442082704753122,128,0,1,1,654.1865016327406,0.783197368644499,0.0763213271024332,356.0137046218488
128,256,388.2693696882541,1896393,133358,38060032,35264056,1.1292723010144041,0.2067316326324123,0.28583482897996687,128,0,1,1,1245.522478461855,0.8904104642168308,0.0796958286794077,356.0137046218488
128,512,366.84580345490895,1679914,206497,51699712,49476120,1.130414554873675,0.1281360309464181,0.28937080353796907,128,0,1,1,1230.3027819983067,0.8711721796030751,0.0981421847373714,356.0137046218488
1536,1024,569.7874788763232,1957466,229193,58650624,51310192,1.0475753446574114,0.2653723304124756,0.22829638597428825,1536,0,1,1,1559.4364453143144,0.7991708788390209,0.0965069865524467,356.0137046218488
1536,128,585.9124270886791,2103538,144735,45924352,34938648,1.0548758970137047,0.162722564022216,0.2023901018179647,1536,0,1,1,1759.047015758001,0.8676127638865015,0.1150164322083227,356.0137046218488
1536,1536,421.7011336317134,1941627,142960,67432448,53123280,1.1072532621439362,0.3188552865861051,0.31786077138488233,1536,0,1,1,1120.0303298539752,0.7015790212441175,0.123941203391684,356.0137046218488
1536,2048,224.8616821380969,1612786,158634,52482048,42344768,1.187346840783291,0.3459703728944869,0.5353024419174708,1536,0,1,1,665.0702046988541,0.737107307199131,0.1276159001436086,356.0137046218488
1536,256,358.1555058140789,1800694,146761,37535744,35109848,1.0851638820362068,0.2343091761304031,0.2821623394067716,1536,0,1,1,1261.733601196903,0.8959016408070379,0.0901697884529742,356.0137046218488
1536,512,417.1618438598167,1880948,132978,46448640,33489840,1.1125731438733808,0.2348665943478154,0.24771198151200471,1536,0,1,1,1437.208254718981,0.8924139134536218,0.0747453924497388,356.0137046218488
2048,1024,573.4522609321574,1882116,169278,58912768,50989536,1.0153444900164592,0.1491062127628783,0.22939552983437467,2048,0,1,1,1551.964438360649,0.7995710944254397,0.1006643442803897,356.0137046218488
2048,128,543.7812228672603,2016297,172051,37011456,34593888,1.0553511492157561,0.1803331127467358,0.21157085125187394,2048,0,1,1,1682.716227284147,0.8732672817306771,0.0963080891334491,356.0137046218488
2048,1536,394.8260631609612,1834255,204892,67432448,53564080,1.0809165478638618,0.3471267084115733,0.3558823236923092,2048,0,1,1,1000.369169584419,0.7906773643474149,0.1002303834446694,356.0137046218488
2048,2048,217.25349035826065,1691127,106626,58773504,36959328,1.1608628304141138,0.3380749256372284,0.5443218902786757,2048,0,1,1,654.0499490835853,0.7150941284421022,0.1448475384426467,356.0137046218488
2048,256,370.7379015167286,1703005,140798,51961856,49721376,1.1180845140929419,0.2531064975333856,0.2852201531735258,2048,0,1,1,1248.2066945853323,0.8849651238248107,0.077173635399832,356.0137046218488
2048,512,526.9564178683513,2104650,171104,41205760,34739312,1.1051144432132152,0.4797316794392317,0.2056428990451079,2048,0,1,1,1731.2229416866805,0.8997170861250586,0.0692486360932592,356.0137046218488
256,1024,576.4398346878413,1994273,214038,58912768,49650952,1.0343169036695363,0.1841356801392898,0.23432265414607106,256,0,1,1,1519.3311373125641,0.8028440469739812,0.1000145004867251,356.0137046218488
256,128,629.4868639552041,2279136,191351,37273600,35078544,1.0414621155191182,0.1948065125372484,0.2128343978401048,256,0,1,1,1672.7263460923723,0.8711749242272429,0.0965408720582794,356.0137046218488
256,1536,360.15260156725617,1708133,124988,62443520,38356088,1.0797984092296717,0.248318144235479,0.33153260071616997,256,0,1,1,1073.8422220101288,0.7458989824287298,0.1211495380467654,356.0137046218488
256,2048,241.6928131175985,1764784,177925,64802816,37573816,1.190085730841041,0.3898520647285164,0.548147231987123,256,0,1,1,649.4855466682575,0.7575664250914488,0.1044590134069149,356.0137046218488
256,256,393.9352501731138,1736705,148041,52224000,49422736,1.1011499594605039,0.2616197653529596,0.31117472485734404,256,0,1,1,1144.095828429063,0.9000661659074802,0.0692977370423854,356.0137046218488
256,512,600.0752806300601,2019923,169406,49070080,34037680,1.0493631088757454,0.1159430582096323,0.21897765088170695,256,0,1,1,1625.7992685023803,0.904155334980418,0.0858163708477795,356.0137046218488
512,1024,597.5416936318372,2110440,180092,59174912,50180824,1.027293980444441,0.141250168190368,0.2226099266367098,512,0,1,1,1599.2714700582442,0.7912423382486657,0.1023572096993071,356.0137046218488
512,128,597.4413785226009,2009482,165230,51699712,49754680,1.0910068927563925,0.2686280048837309,0.1840731329265424,512,0,1,1,1934.0883645628082,0.8603579422758748,0.1184444568739191,356.0137046218488
512,1536,358.42531579399565,1854116,118192,61394944,38563312,1.112518338568993,0.2935496096425465,0.333233842547807,512,0,1,1,1068.3599897893735,0.7449347882389656,0.0933376907140161,356.0137046218488
512,2048,213.66491939289213,1572949,164057,52482048,37225920,1.1831025095514727,0.3435646461775848,0.5182419587247976,512,0,1,1,686.9642618244715,0.7633568969622742,0.0907307115243551,356.0137046218488
512,256,546.1210413437235,1859953,170172,37797888,35003104,1.014914163986772,0.1594891120141478,0.23022980328216186,512,0,1,1,1546.3406541920658,0.9090306372681194,0.06397658721661,356.0137046218488
512,512,604.5514223036798,2035339,195774,37797888,34938960,1.063420390749604,0.2430044841475016,0.1982811176110897,512,0,1,1,1795.4997879330956,0.8905605730577122,0.0756052662648916,356.0137046218488
