cpu,memory,duration_std,userDiff,sysDiff,heapTotal,heapUsed,avg_cpu_util,cpu_util_std,slo_preservation,total_cpu_shares,cpu_shares_others,num_containers,arrival_rate,latency,memory_util,memory_util_std,slo_duration
1024,1024,78.67716803570704,303512,41424,39694336,31560288,1.1141732897173884,0.24582113805161676,1,1024,0,1,1,189.50539884999995,0.7707367129060357,0.09604070155501128,197.78651512711863
1024,128,280.64338805578205,269746,52187,32481280,29696504,0.7340212108662615,0.24051188308893068,0.46032334330675695,1024,0,1,1,429.6686622631579,0.8522278281212048,0.0795423734917501,197.78651512711863
1024,1536,50.654322412607804,210793,40455,72884224,55308200,1.3874442437576815,0.2580073325326277,1,1024,0,1,1,113.72569060000001,0.7363895512892009,0.12457366753564271,197.78651512711863
1024,2048,27.859544265759823,284346,43899,50311168,31396696,1.6313625084442898,0.23144320585542602,1,1024,0,1,1,77.63117790000001,0.7673351240106079,0.09752903419493049,197.78651512711863
1024,256,52.34008579403348,305136,33732,32743424,29650904,0.9900916129282761,0.16111177193465523,0.8822700622408296,1024,0,1,1,224.17910750000001,0.8488610446371835,0.045588019749420575,197.78651512711863
1024,512,96.85978527489797,269859,43123,33005568,29893536,1.1954736356560354,0.259926196543226,0.9279758645450044,1024,0,1,1,213.13756390000003,0.8683675448918764,0.05125199447863682,197.78651512711863
128,1024,78.22457919389704,236548,54314,39170048,30441720,0.830928964943026,0.09262169704097586,0.7493168585906151,128,0,1,1,263.95577899999995,0.7429200887841263,0.11101280770101289,197.78651512711863
128,128,283.8023264635995,221789,56114,33267712,30183688,0.8332558340407901,0.2908344823214073,0.5303680706561897,128,0,1,1,372.923119,0.8582715057368279,0.06891285792035394,197.78651512711863
128,1536,51.79951292320735,225814,28045,72617984,55431784,1.3349667728245476,0.2406794591449256,1,128,0,1,1,121.73107549999997,0.7302724306405819,0.11098798439149114,197.78651512711863
128,2048,31.838395967346692,284371,20627,49786880,31837808,1.565913826721137,0.22254396054892933,1,128,0,1,1,80.1320369,0.7283281026953374,0.11072924573218146,197.78651512711863
128,256,27.454113657751837,211930,53680,33005568,30185488,1.176534712038227,0.1372702742206732,1,128,0,1,1,170.66333124999997,0.8643565440359021,0.07122935932201153,197.78651512711863
128,512,52.823831549221644,233580,24201,32481280,29744016,1.0872917669114688,0.19065261400796285,0.9331265697474709,128,0,1,1,211.9610796,0.8664588025853126,0.05813127960262773,197.78651512711863
1536,1024,76.32885239032201,296857,44777,37859328,30328352,1.0788156683959678,0.22180556740182392,1,1536,0,1,1,189.02252425,0.7598059490309581,0.11903745641498481,197.78651512711863
1536,128,334.50817889789744,264993,89875,33005568,29782176,0.768869556609386,0.26823193638976234,0.46517158174867895,1536,0,1,1,425.19045205555557,0.8790870325174561,0.058108494951021925,197.78651512711863
1536,1536,48.978526141037385,246657,39369,50311168,29934144,1.3229619554300673,0.27246515197041493,1,1536,0,1,1,122.46826519999999,0.724040895021491,0.1265315004791238,197.78651512711863
1536,2048,28.361128206871346,251814,59634,50573312,31300888,1.65603701585609,0.21226869720321812,1,1536,0,1,1,73.77337064999999,0.744382511295212,0.1302919507124376,197.78651512711863
1536,256,49.55997956992714,295335,45052,33005568,29693632,1.0684904154475323,0.09150238450387309,0.8959780510344248,1536,0,1,1,220.74928609999998,0.8577375628487036,0.08299301776948328,197.78651512711863
1536,512,57.7841894570768,291091,30405,32743424,29797304,1.293130912556541,0.19590808301034449,1,1536,0,1,1,178.25558620000004,0.8901307033801856,0.04645818348092376,197.78651512711863
2048,1024,77.46324851761223,262779,41195,39432192,30437104,0.9992014411234971,0.19946070805119706,0.9820982989239299,2048,0,1,1,201.39177039999998,0.7814103092933045,0.12277996125868366,197.78651512711863
2048,128,209.14069837259657,257228,50763,32743424,29698904,1.0952558559693086,0.3833964636537183,0.7787695435970526,2048,0,1,1,253.97309994117646,0.8798370789397367,0.042661257987156816,197.78651512711863
2048,1536,44.563085640845756,237224,46320,73146368,55234560,1.2399873213485253,0.24817234782594433,1,2048,0,1,1,120.71892114999999,0.7409743967458466,0.08897157300937387,197.78651512711863
2048,2048,24.64224706449019,260249,22120,50573312,29977848,1.6430994575723017,0.19913988381455672,1,2048,0,1,1,76.48803604999999,0.7274482738574894,0.11054808740411012,197.78651512711863
2048,256,71.06610281145907,201998,34437,32743424,29867816,1.041827883233614,0.17160012928422363,0.9250599932057318,2048,0,1,1,213.80939245,0.8906249943494023,0.05546850553242183,197.78651512711863
2048,512,141.8620176249295,251639,47071,33529856,29935216,0.9305196519885911,0.37397150961561754,0.6783537047954946,2048,0,1,1,291.56841590000005,0.8837677191362504,0.06060883497813328,197.78651512711863
256,1024,100.24245548658865,254518,44688,39432192,29780128,0.7214088745275757,0.11801396637024374,0.7373382296948201,256,0,1,1,268.24394444999996,0.7785194788058426,0.09386322550079501,197.78651512711863
256,128,181.4511641785484,274798,42846,33267712,29689352,0.816662078080389,0.25390228974758494,0.5642152895629656,256,0,1,1,350.5514983125,0.855622617711094,0.08135126697402373,197.78651512711863
256,1536,47.13660104966933,222267,39407,72617984,55242672,1.1167771534405788,0.17123262226789843,1,256,0,1,1,144.23103885000003,0.6717548215573266,0.14602803014615046,197.78651512711863
256,2048,22.357430675684896,225109,35554,50311168,30015248,1.6622782735265342,0.21253351848336974,1,256,0,1,1,78.27467499999999,0.7320064177078424,0.08183490675691296,197.78651512711863
256,256,41.149334458450866,290332,41906,33005568,30401392,1.2923634682508696,0.28887057544350997,1,256,0,1,1,166.90535614999996,0.8566459706716145,0.06735308317046215,197.78651512711863
256,512,76.74761304197655,216274,28617,33005568,30329040,1.6179050669116894,0.48022729712856244,1,256,0,1,1,149.04262755000002,0.8681453577263099,0.07055838226557129,197.78651512711863
512,1024,71.67824153072038,276668,64704,39956480,29929192,0.9033326601339262,0.17388640806131395,0.917924263638968,512,0,1,1,215.47149689999998,0.7591856190166555,0.10639334996109195,197.78651512711863
512,128,1076.4366391531387,284596,57652,32743424,29772752,0.2782225941799578,0.1774969018635653,0.11307031851218169,512,0,1,1,1749.2346154999998,0.9156425510355817,0.009078517523274893,197.78651512711863
512,1536,111.30758213499631,179689,31865,72880128,55254032,0.6833835424859118,0.20737898613489358,0.7487862426032188,512,0,1,1,264.14282725000004,0.6683081609001182,0.13041434170822247,197.78651512711863
512,2048,44.21926172536199,243338,32183,50049024,30302488,1.1734279569604433,0.19237870396187204,1,512,0,1,1,128.66895674999998,0.7299491990935238,0.08179840058904843,197.78651512711863
512,256,328.60434365017346,231066,49735,32481280,30287576,0.3513640101566277,0.17152065765090999,0.21147620151389965,512,0,1,1,935.2660663999999,0.904902964159621,0.036808360290325665,197.78651512711863
512,512,173.50710044479862,315946,36062,32743424,29831120,0.46961875372736267,0.216529271677896,0.325759666554124,512,0,1,1,607.1547077,0.8895489313197376,0.06468817494435003,197.78651512711863
