cpu,memory,duration_std,userDiff,sysDiff,heapTotal,heapUsed,avg_cpu_util,cpu_util_std,slo_preservation,total_cpu_shares,cpu_shares_others,num_containers,arrival_rate,latency,memory_util,memory_util_std,slo_duration
1024,1024,119.39002890063804,36090,864,25792512,15178928,0.12041370113492163,0.1155791770968217,0.9548289543037947,1024,0,1,1,312.38739660212747,0.664109466056477,0.0680532639761976,298.27653123529416
1024,128,125.77887113788124,24934,865,25124864,21340208,0.13561580549560331,0.1291017031643585,1.0,1024,0,1,1,287.84321964637746,0.8639117601992173,0.0132470014421673,298.27653123529416
1024,1536,127.54661874593444,15526,3934,39026688,25096248,0.13668392208728572,0.1695278627378229,1.0,1024,0,1,1,249.9410234970137,0.5348756699460904,0.0539192186174771,298.27653123529416
1024,2048,149.31941689067818,65158,9870,34312192,15027232,0.07697669969536396,0.0375025039906941,0.9408905562701231,1024,0,1,1,317.0151185465412,0.5556420994613228,0.0583615731011036,298.27653123529416
1024,256,151.19579608806924,15840,11946,25124864,21287320,0.11270315024445246,0.0735261123138065,0.9841532715990396,1024,0,1,1,303.0793473364756,0.8658887729453835,0.0127974025989054,298.27653123529416
1024,512,139.41750806401737,23921,29,25124864,21328688,0.07603163636903008,0.0388437962828936,0.8492436818566623,1024,0,1,1,351.22608222787824,0.8609044177052858,0.0117822077208694,298.27653123529416
128,1024,140.14093680810063,22775,20,25792512,15171064,0.12041054489510884,0.1545631824117201,0.843158850290893,128,0,1,1,353.7607784492657,0.669140076715828,0.0526861160589409,298.27653123529416
128,128,131.08494901520373,26689,25,24600576,21369104,0.15266212824468886,0.1311621798341183,1.0,128,0,1,1,260.76965433541267,0.8695742151574717,0.0123736059364144,298.27653123529416
128,1536,117.9894632193699,18921,509,39550976,24866256,0.1514050157448013,0.1715625055176204,1.0,128,0,1,1,252.5127599835111,0.5384214917468281,0.0532886424580953,298.27653123529416
128,2048,132.17574158326113,63146,11475,34312192,15107744,0.08223926162821567,0.0512340370414888,1.0,128,0,1,1,292.07780775800103,0.5576643077772473,0.058994134796229,298.27653123529416
128,256,143.53078400977617,22912,3038,24338432,21249704,0.08599784435300827,0.051569008223575,0.8330710805208784,128,0,1,1,358.0445152996987,0.8685812645997878,0.0113837456060933,298.27653123529416
128,512,148.79399032376747,22185,414,24600576,21616384,0.1095270565994324,0.1061379744797047,0.9860043670430214,128,0,1,1,302.51035513139846,0.8681553184481899,0.0126546036650268,298.27653123529416
1536,1024,138.33219083725524,37837,8480,25792512,15159800,0.11307715450204683,0.0890679581992358,0.8809616717033054,1536,0,1,1,338.58059983312097,0.6716925901186916,0.0596756524562996,298.27653123529416
1536,128,131.3519539766106,21946,4294,24600576,21207168,0.12197683471391123,0.1525512096126062,0.8300485770350426,1536,0,1,1,359.3482833266777,0.866028226436488,0.0125221184541127,298.27653123529416
1536,1536,110.28163013659142,22066,22,39026688,24928320,0.10707524216350155,0.055087945824819,1.0,1536,0,1,1,234.0527989375472,0.5350728749951873,0.0539111346906304,298.27653123529416
1536,2048,145.46441350790118,29306,3290,39288832,24808888,0.0750355127483874,0.0596459071488989,0.8835600164205447,1536,0,1,1,337.5849129566368,0.5523380539959183,0.0526119570843465,298.27653123529416
1536,256,143.11550813059728,22126,466,24862720,21515360,0.10449468099364055,0.0959430946954708,0.9140332125958394,1536,0,1,1,326.33007983177515,0.8681421019620938,0.0127139620917777,298.27653123529416
1536,512,155.99371670760883,39054,7158,25387008,21193752,0.11372131708440174,0.1012055295975054,1.0,1536,0,1,1,291.6758600783051,0.866491376367653,0.0136322618646279,298.27653123529416
2048,1024,129.09248340910491,47272,11821,25792512,15147784,0.1539970467828002,0.1660922486114113,0.9734551064101074,2048,0,1,1,306.4101562272078,0.6683324300726932,0.0561497378649083,298.27653123529416
2048,128,126.8490623705754,18235,7758,24862720,21605480,0.10303987239489047,0.0644437832567597,1.0,2048,0,1,1,297.7062081667786,0.8717101592406733,0.0133087982847443,298.27653123529416
2048,1536,146.50281896312026,28242,11353,34312192,15271000,0.09510284523722695,0.0721132147428735,0.93093211966149,2048,0,1,1,320.406316352856,0.6070919857603184,0.0899359579653797,298.27653123529416
2048,2048,102.2605684738998,31033,4601,39550976,24752760,0.07098790814613008,0.0464683214454364,0.9886285137154188,2048,0,1,1,301.70739271349237,0.5582404783248565,0.0529031651662485,298.27653123529416
2048,256,137.0033254325869,17626,4248,25387008,21278824,0.10112813530051425,0.122127875600562,0.9603797095804201,2048,0,1,1,310.5818753351298,0.8630510775297996,0.0129855385674426,298.27653123529416
2048,512,148.0191743714314,32814,8165,25124864,21206464,0.129083714820325,0.1155790113067025,0.9989361836405376,2048,0,1,1,298.5941806094668,0.8593805167938671,0.0142036029981873,298.27653123529416
256,1024,136.05995525982135,25994,361,30769152,24965456,0.14661163963821097,0.1462921562430378,1.0,256,0,1,1,292.35242274172805,0.6728602784870998,0.0583784846222787,298.27653123529416
256,128,136.30999299794237,18057,3718,24600576,21670344,0.08845637523390212,0.0394770251853958,0.8563037964815744,256,0,1,1,348.3302683707211,0.8650392586993586,0.0123724433743582,298.27653123529416
256,1536,127.91714340054162,20776,45,39026688,25024096,0.08339546454254866,0.0525149790637992,0.8662737632319807,256,0,1,1,344.3213264620347,0.585081408587815,0.09656292527128,298.27653123529416
256,2048,111.10164054724474,61869,11635,34312192,15000256,0.08229925965317439,0.0784484917703887,0.986879756124352,256,0,1,1,302.2420202504486,0.5577503996247164,0.0594045922734658,298.27653123529416
256,256,139.87804548992665,28751,7525,25124864,21232968,0.0956333305772529,0.055122378953961,0.9964715971787896,256,0,1,1,299.3326975698802,0.8614966715226438,0.0121448721914352,298.27653123529416
256,512,160.3661375618851,17534,4203,24600576,20947824,0.10295137044523907,0.072578323942368,0.9416768394768348,256,0,1,1,316.7504166301966,0.867876119134276,0.0142165559436706,298.27653123529416
512,1024,172.30360457035948,19444,17,30769152,25031384,0.1254199747343675,0.1367275875619966,0.9798996191725101,512,0,1,1,304.39498638358276,0.6654927362178793,0.0713601962661481,298.27653123529416
512,128,140.30298838902854,22253,7743,24600576,20989304,0.1381904734585784,0.1041651639087115,1.0,512,0,1,1,286.13002324720765,0.8668347173448693,0.0119252536119478,298.27653123529416
512,1536,134.75445417247354,36559,3314,34574336,15251936,0.11249388977518598,0.0865572323378264,1.0,512,0,1,1,274.8838656471819,0.5438577677963214,0.0579320078910399,298.27653123529416
512,2048,126.50944626834344,19040,512,39550976,24726504,0.1125504731437702,0.1189667286438049,1.0,512,0,1,1,242.80367216384764,0.5513741865303967,0.0587252821001664,298.27653123529416
512,256,125.87544441954554,24043,545,24862720,21308888,0.11642132161367572,0.1592300223683858,1.0,512,0,1,1,276.5989551016493,0.8676133832607504,0.0118719988259225,298.27653123529416
512,512,154.75115723782503,29017,11301,25124864,21236368,0.13062887716179206,0.1490240021073859,0.918468967835417,512,0,1,1,324.75406538584673,0.8658374626786405,0.0124186836990885,298.27653123529416
