cpu,memory,duration_std,userDiff,sysDiff,heapTotal,heapUsed,avg_cpu_util,cpu_util_std,slo_preservation,total_cpu_shares,cpu_shares_others,num_containers,arrival_rate,latency,memory_util,memory_util_std,slo_duration
1024,1024,119.39002890063804,36090,864,25792512,15178928,0.18577617100278937,0.1155791770968217,0.883875167466532,1024,0,1,1,337.4645450106374,0.664109466056477,0.0680532639761976,298.27653123529416
1024,128,125.77887113788124,24934,865,25124864,21340208,0.20728554505272517,0.1291017031643585,0.9503269391925698,1024,0,1,1,313.8672797055717,0.8639117601992173,0.0132470014421673,298.27653123529416
1024,1536,127.54661874593444,15526,3934,39026688,25096248,0.20878179384961945,0.1695278627378229,1.0,1024,0,1,1,272.71630308506855,0.5348756699460904,0.0539192186174771,298.27653123529416
1024,2048,149.31941689067818,65158,9870,34312192,15027232,0.12203208156188054,0.0375025039906941,0.8949630230286995,1024,0,1,1,333.2836369327061,0.5556420994613228,0.0583615731011036,298.27653123529416
1024,256,151.19579608806924,15840,11946,25124864,21287320,0.1747115552967218,0.0735261123138065,0.9153760921064695,1024,0,1,1,325.8513454823779,0.8658887729453835,0.0127974025989054,298.27653123529416
1024,512,139.41750806401737,23921,29,25124864,21328688,0.12060613920193408,0.0388437962828936,0.8082740811725153,1024,0,1,1,369.02894473939097,0.8609044177052858,0.0117822077208694,298.27653123529416
128,1024,140.14093680810063,22775,20,25792512,15171064,0.18577166335168344,0.1545631824117201,0.7805048414556001,128,0,1,1,382.15846384632835,0.669140076715828,0.0526861160589409,298.27653123529416
128,128,131.08494901520373,26689,25,24600576,21369104,0.23093366398919216,0.1311621798341183,1.0,128,0,1,1,287.3094212770633,0.8695742151574717,0.0123736059364144,298.27653123529416
128,1536,117.9894632193699,18921,509,39550976,24866256,0.22920636412823903,0.1715625055176204,1.0,128,0,1,1,278.0005589175556,0.5384214917468281,0.0532886424580953,298.27653123529416
128,2048,132.17574158326113,63146,11475,34312192,15107744,0.12994125418109442,0.0512340370414888,0.9681432587476265,128,0,1,1,308.091316590005,0.5576643077772473,0.058994134796229,298.27653123529416
128,256,143.53078400977617,22912,3038,24338432,21249704,0.13555794646759153,0.051569008223575,0.7878993185460993,128,0,1,1,378.57188629849315,0.8685812645997878,0.0113837456060933,298.27653123529416
128,512,148.79399032376747,22185,414,24600576,21616384,0.17012304352130367,0.1061379744797047,0.9189075415043594,128,0,1,1,324.5990676569925,0.8681553184481899,0.0126546036650268,298.27653123529416
1536,1024,138.33219083725524,37837,8480,25792512,15159800,0.17525069118121864,0.0890679581992358,0.819206014955239,1536,0,1,1,364.10442036560465,0.6716925901186916,0.0596756524562996,298.27653123529416
1536,128,131.3519539766106,21946,4294,24600576,21207168,0.18800643773594006,0.1525512096126062,0.767626786588585,1536,0,1,1,388.56972743338827,0.866028226436488,0.0125221184541127,298.27653123529416
1536,1536,110.28163013659142,22066,22,39026688,24928320,0.16656849560346826,0.055087945824819,1.0,1536,0,1,1,250.760305687736,0.5350728749951873,0.0539111346906304,298.27653123529416
1536,2048,145.46441350790118,29306,3290,39288832,24808888,0.11910130301991223,0.0596459071488989,0.8414667567197519,1536,0,1,1,354.4721509831841,0.5523380539959183,0.0526119570843465,298.27653123529416
1536,256,143.11550813059728,22126,466,24862720,21515360,0.1628155615463438,0.0959430946954708,0.8545056802835193,1536,0,1,1,349.06325155887555,0.8681421019620938,0.0127139620917777,298.27653123529416
1536,512,155.99371670760883,39054,7158,25387008,21193752,0.17617868073074136,0.1012055295975054,0.9505639062981412,1536,0,1,1,313.7890353915255,0.866491376367653,0.0136322618646279,298.27653123529416
2048,1024,129.09248340910491,47272,11821,25792512,15147784,0.23276499659165173,0.1660922486114113,0.8828205965998375,2048,0,1,1,337.86766233603873,0.6683324300726932,0.0561497378649083,298.27653123529416
2048,128,126.8490623705754,18235,7758,24862720,21605480,0.16069449389451582,0.0644437832567597,0.9375147883646073,2048,0,1,1,318.156614633893,0.8717101592406733,0.0133087982847443,298.27653123529416
2048,1536,146.50281896312026,28242,11353,34312192,15271000,0.14905440975356524,0.0721132147428735,0.8754283046147786,2048,0,1,1,340.72068456427974,0.6070919857603184,0.0899359579653797,298.27653123529416
2048,2048,102.2605684738998,31033,4601,39550976,24752760,0.11296698685271953,0.0464683214454364,0.9439555599909736,2048,0,1,1,315.98577716746155,0.5582404783248565,0.0529031651662485,298.27653123529416
2048,256,137.0033254325869,17626,4248,25387008,21278824,0.15790137758327133,0.122127875600562,0.8997215979221119,2048,0,1,1,331.52091927564874,0.8630510775297996,0.0129855385674426,298.27653123529416
2048,512,148.0191743714314,32814,8165,25124864,21206464,0.19809251305811795,0.1155790113067025,0.9197834720397218,2048,0,1,1,324.2899446473341,0.8593805167938671,0.0142036029981873,298.27653123529416
256,1024,136.05995525982135,25994,361,30769152,24965456,0.2225959602569433,0.1462921562430378,0.9294209650465779,256,0,1,1,320.92726810864013,0.6728602784870998,0.0583784846222787,298.27653123529416
256,128,136.30999299794237,18057,3718,24600576,21670344,0.13921750797354573,0.0394770251853958,0.8086188042357939,256,0,1,1,368.87162365360535,0.8650392586993586,0.0123724433743582,298.27653123529416
256,1536,127.91714340054162,20776,45,39026688,25024096,0.1316718823724843,0.0525149790637992,0.8206482044101204,256,0,1,1,363.4645511101733,0.585081408587815,0.09656292527128,298.27653123529416
256,2048,111.10164054724474,61869,11635,34312192,15000256,0.1300311226702047,0.0784484917703887,0.9355497230726131,256,0,1,1,318.824883252243,0.5577503996247164,0.0594045922734658,298.27653123529416
256,256,139.87804548992665,28751,7525,25124864,21232968,0.14983600672006453,0.055122378953961,0.9367486672062958,256,0,1,1,318.41681944940103,0.8614966715226438,0.0121448721914352,298.27653123529416
256,512,160.3661375618851,17534,4203,24600576,20947824,0.1605653364528505,0.072578323942368,0.8811965760526528,256,0,1,1,338.4903429509827,0.867876119134276,0.0142165559436706,298.27653123529416
512,1024,172.30360457035948,19444,17,30769152,25031384,0.19290395203071153,0.1367275875619966,0.9042890155198036,512,0,1,1,329.84646071791417,0.6654927362178793,0.0713601962661481,298.27653123529416
512,128,140.30298838902854,22253,7743,24600576,20989304,0.21088889799064098,0.1041651639087115,0.9545144705484401,512,0,1,1,312.4903188360381,0.8668347173448693,0.0119252536119478,298.27653123529416
512,1536,134.75445417247354,36559,3314,34574336,15251936,0.17440979232310438,0.0865572323378264,1.0,512,0,1,1,295.4990358359093,0.5438577677963214,0.0579320078910399,298.27653123529416
512,2048,126.50944626834344,19040,512,39550976,24726504,0.17449139580162393,0.1189667286438049,1.0,512,0,1,1,261.02211761923826,0.5513741865303967,0.0587252821001664,298.27653123529416
512,256,125.87544441954554,24043,545,24862720,21308888,0.18006029748706254,0.1592300223683858,1.0,512,0,1,1,298.0669657082465,0.8676133832607504,0.0118719988259225,298.27653123529416
512,512,154.75115723782503,29017,11301,25124864,21236368,0.2002737701253634,0.1490240021073859,0.844890870662797,512,0,1,1,353.0355713292336,0.8658374626786405,0.0124186836990885,298.27653123529416
