cpu,memory,duration_std,userDiff,sysDiff,heapTotal,heapUsed,avg_cpu_util,cpu_util_std,slo_preservation,total_cpu_shares,cpu_shares_others,num_containers,arrival_rate,latency,memory_util,memory_util_std,slo_duration
1024,1024,148.19374898183068,368183,54052,28413952,15873144,0.9198523391545329,0.0767144465446044,0.5400775221645313,1024,0,1,1,1383.6128003691347,0.7907735844317976,0.0683289492349261,747.2581728584905
1024,128,641.2369432189133,567911,121119,32481280,29984616,0.7178901130105507,0.249688325834759,0.2456143980883605,1024,0,1,1,3042.4037787461557,0.9183318962717804,0.0091070115825746,747.2581728584905
1024,1536,112.90108781235747,364927,57919,43233280,31010176,0.9902394563315009,0.1165606979030654,0.7404349082757263,1024,0,1,1,1009.2152119065452,0.7390451761717503,0.0973654944152425,747.2581728584905
1024,2048,70.80476139336926,426762,89840,43495424,31997240,1.0804369134870553,0.1942321745022971,0.9421398823354368,1024,0,1,1,793.1499205894341,0.7130598865402495,0.0749794456296687,747.2581728584905
1024,256,457.2100399023039,319808,41561,32481280,30561944,0.7019871733200875,0.1508323458732138,0.30333789088799235,1024,0,1,1,2463.4514688256204,0.9197125296204012,0.0137449392460007,747.2581728584905
1024,512,248.44747254332464,540340,78946,32743424,29769552,0.7108765634816084,0.0697585745793838,0.37078034020025336,1024,0,1,1,2015.3662204822042,0.9106489398317462,0.0669932101044537,747.2581728584905
128,1024,128.49925225523995,411867,66174,39432192,30149904,0.9450842148148068,0.0894142485193078,0.6104219687675223,128,0,1,1,1224.166578354394,0.7612473133170705,0.0951913640638671,747.2581728584905
128,128,1266.9118236883755,457345,72916,32481280,30417424,0.5644044524446455,0.115392139470773,0.2131003786650381,128,0,1,1,3506.601806808934,0.899528125359981,0.0572889456570322,747.2581728584905
128,1536,66.48446420276922,254643,49306,62758912,52540208,1.0668932538407778,0.1218222823747398,0.9414813891312559,128,0,1,1,793.7046674369387,0.6849636088342097,0.0932536174185188,747.2581728584905
128,2048,43.45109272851399,284804,38452,44806144,32229264,1.1400895403798168,0.2483338134018212,1.0,128,0,1,1,676.8879296592086,0.6825017613667381,0.1096310210307035,747.2581728584905
128,256,284.7090965863138,426184,39951,32481280,29815704,0.5285387675905607,0.0397982871217547,0.24738888723610147,128,0,1,1,3020.5810018674238,0.9166714350613014,0.0348319722331569,747.2581728584905
128,512,300.68924876261934,386015,51709,32743424,30200280,0.6752161871705866,0.0884358555358395,0.34384262159847845,128,0,1,1,2173.2563851002155,0.9096836989657732,0.0468265149575638,747.2581728584905
1536,1024,178.94960697217255,521069,74260,39694336,30824632,0.9368455464750207,0.1269138592049287,0.6206537614471763,1536,0,1,1,1203.9855701770196,0.8166731372407424,0.044792047649133,747.2581728584905
1536,128,700.5474926548379,375428,87343,32743424,30041080,0.6857508118561997,0.162124104515195,0.2800752408451355,1536,0,1,1,2668.0622342896727,0.9231341709149884,0.0116730343266007,747.2581728584905
1536,1536,89.60255484255408,352898,60505,42446848,31072648,0.9962881418936607,0.0858262488566673,0.726224911885292,1536,0,1,1,1028.9624613931182,0.7056796967976974,0.1108342108666811,747.2581728584905
1536,2048,72.548363616533,338903,68582,37457920,16018688,1.09021534436767,0.1985963882292304,0.9513453499064406,1536,0,1,1,785.4751935582374,0.7424492603756991,0.0895858120038739,747.2581728584905
1536,256,458.5209882502453,417785,35470,32743424,30112776,0.7065258102380664,0.1736093081431562,0.34215003195763083,1536,0,1,1,2184.0073156884146,0.9240312635342351,0.0119932708122136,747.2581728584905
1536,512,255.3153775677412,428224,48486,32743424,29627240,0.8026389492938454,0.1664901339284224,0.39285387135454797,1536,0,1,1,1902.1275526240013,0.9108893841416228,0.0366223876549074,747.2581728584905
2048,1024,121.97425123656642,497745,43306,39432192,30295624,0.9192727563254204,0.154931060493903,0.6241181747562194,2048,0,1,1,1197.3023749073957,0.8118815670737852,0.0826750896995597,747.2581728584905
2048,128,508.2636787188294,494271,38753,33005568,29800712,0.6665041880910125,0.13354654322277,0.25259322729439737,2048,0,1,1,2958.3460366796025,0.9156784266625336,0.0087910318865629,747.2581728584905
2048,1536,69.97470513619871,288816,47481,45330432,30714472,1.017954080187947,0.155098931450303,0.802983012595692,2048,0,1,1,930.6027165418262,0.7168599849367906,0.0800678390718093,747.2581728584905
2048,2048,84.05958220222132,323608,31166,51580928,39924600,1.072997425519261,0.2575387202482377,0.9153215498735422,2048,0,1,1,816.3887029227371,0.695901831962793,0.1027515869833101,747.2581728584905
2048,256,370.542617426884,289834,50930,32743424,30184896,0.7647786216474982,0.1567457717747285,0.3520625653854416,2048,0,1,1,2122.51527520509,0.9092210430986852,0.0370233234602172,747.2581728584905
2048,512,262.19151338275697,482722,37499,32743424,30417408,0.8106014832535667,0.2444618792293529,0.38526673241443143,2048,0,1,1,1939.586551310807,0.919823487515161,0.0106161075812775,747.2581728584905
256,1024,126.59509663662888,401657,43937,39170048,31392816,0.9529493392570442,0.1181414399005708,0.6484055337866471,256,0,1,1,1152.4549590046684,0.824431219207986,0.0458231360198178,747.2581728584905
256,128,1226.0570193847636,603051,66669,32743424,30476168,0.6086491934979004,0.2121496694828614,0.19182843936416022,256,0,1,1,3895.4504104572443,0.9030716534473322,0.0494337904129485,747.2581728584905
256,1536,56.16244322669582,335306,37117,44544000,31597248,1.0898537738351426,0.1996837585536175,0.846818518404087,256,0,1,1,882.4301271384243,0.7113187874936503,0.0995920156504687,747.2581728584905
256,2048,37.9790976058322,285584,36764,43495424,31121816,1.1295403090983815,0.1565725822018578,1.0,256,0,1,1,696.052587995272,0.6866779567842919,0.1000922203344019,747.2581728584905
256,256,332.516401930936,431411,43994,32743424,30217640,0.5626595232487093,0.0534094129047677,0.2777257412518768,256,0,1,1,2690.6334626748994,0.9159927158601292,0.0364325142104884,747.2581728584905
256,512,188.98432578474612,453358,25536,32481280,30489360,0.7014963813002424,0.0565128853776342,0.38654424665882425,256,0,1,1,1933.1762904701654,0.918493148022957,0.0253257113687368,747.2581728584905
512,1024,129.97866990226666,387926,50874,39170048,30458000,0.9348747923085092,0.0819588732186046,0.6149021778194322,512,0,1,1,1215.2472373872856,0.7941517201832996,0.0688832608550434,747.2581728584905
512,128,1083.6362713735955,288358,37782,32481280,29749136,0.6286371542438608,0.2647873568790446,0.2214688073422984,512,0,1,1,3374.10121915517,0.9222077575901722,0.0105796064501126,747.2581728584905
512,1536,74.73793152385626,398497,47071,36147200,16023728,1.070310891134629,0.1534630959713709,0.8320966930263707,512,0,1,1,898.0424740551258,0.6725679869919781,0.0926296537116514,747.2581728584905
512,2048,31.70093846999533,269401,59166,43233280,30790920,1.1393237263981013,0.2213955717019793,1.0,512,0,1,1,625.3245213433207,0.6971974748073455,0.0881491996639242,747.2581728584905
512,256,619.6759812086881,400363,28122,32743424,29679544,0.6255204356045745,0.1405479841463209,0.28462137715570845,512,0,1,1,2625.4464099851725,0.9178608475022916,0.0096333299597364,747.2581728584905
512,512,181.6253442694148,392771,43658,32743424,29755016,0.7075438302208356,0.0577388298318994,0.3648024404859108,512,0,1,1,2048.3913755158956,0.9243314721246264,0.0093706943914332,747.2581728584905
