cpu,memory,duration_std,userDiff,sysDiff,heapTotal,heapUsed,avg_cpu_util,cpu_util_std,slo_preservation,total_cpu_shares,cpu_shares_others,num_containers,arrival_rate,latency,memory_util,memory_util_std,slo_duration
1024,1024,118.2940751895072,430742,57558,39432192,29828832,0.922607476900394,0.1053844189030754,0.8057463135611672,1024,0,1,1,1057.580638968903,0.7965772920892248,0.0907796603234925,852.1417011428573
1024,128,481.2196234969513,525677,70336,32481280,29935208,0.6342334081421711,0.1687519806918512,0.37294194214620924,1024,0,1,1,2284.917851392486,0.8623157351307983,0.0740924750927162,852.1417011428573
1024,1536,118.38606610150433,466256,81385,64475136,46100544,1.057039331888878,0.1887722793903671,1.0,1024,0,1,1,745.748891423678,0.7378796486073677,0.1260817766909038,852.1417011428573
1024,2048,71.37823811752547,373504,59924,62640128,44589720,1.1713442566904937,0.1128107508777981,1.0,1024,0,1,1,569.3392437199169,0.6646864628045236,0.1333690664132498,852.1417011428573
1024,256,531.8000900255462,551021,130212,37462016,29686880,0.6128183716629745,0.245081652642038,0.36726524990162707,1024,0,1,1,2320.235038221301,0.8528029001011808,0.0744839316108846,852.1417011428573
1024,512,255.6636506097559,483916,75298,33267712,30316144,0.6356303364969941,0.0813817696964189,0.4397098094955399,1024,0,1,1,1937.9638178199452,0.8639188083452515,0.0568621276246624,852.1417011428573
128,1024,142.52940561378256,453385,72736,50450432,44552032,0.9383745298200212,0.1035426880267489,0.8410059590088773,128,0,1,1,1013.2409788714261,0.7935859564018752,0.0966110518286868,852.1417011428573
128,128,1207.938507029723,643337,94027,32481280,29855056,0.6603377315514193,0.231330401260503,0.3012621491271007,128,0,1,1,2828.572071240665,0.8348958145236717,0.0613083320241426,852.1417011428573
128,1536,85.29963562823453,469687,81000,79249408,62538784,0.9884363132614133,0.1415397273201418,1.0,128,0,1,1,850.5273571789838,0.7465751165331755,0.0807160984371469,852.1417011428573
128,2048,58.78357341914099,448667,81469,76627968,63306352,1.1330663257418145,0.1629480884570208,1.0,128,0,1,1,604.7296398407836,0.6792880021870221,0.1483754312955284,852.1417011428573
128,256,400.64083721080834,485236,73535,46383104,44159480,0.40926943364957374,0.0321743871023679,0.2501630820366282,128,0,1,1,3406.3447500142693,0.8729607963862618,0.0726007553780941,852.1417011428573
128,512,212.5035281863751,537198,48350,34054144,30072616,0.6198071197602034,0.0628910826734423,0.43374897692234105,128,0,1,1,1964.5964520520952,0.8733118538201663,0.0790574014257738,852.1417011428573
1536,1024,97.58897907662178,504863,114096,50188288,44488296,0.9014281253726055,0.0776420141076761,0.7645916616278146,1536,0,1,1,1114.5056164079122,0.7987691161598558,0.0757206313334085,852.1417011428573
1536,128,656.9835354836242,616434,70532,33005568,29617832,0.7175911518294663,0.316060317387823,0.36799660352397484,1536,0,1,1,2315.623820933827,0.8633313568805473,0.0338494453784481,852.1417011428573
1536,1536,70.56879680052498,439979,76694,56872960,45398160,1.1273730098381631,0.1484212961115097,1.0,1536,0,1,1,606.2890908312155,0.7059119632396869,0.1096890953687757,852.1417011428573
1536,2048,41.06537249321304,371605,55882,59232256,46138472,1.2834701972475007,0.1435099413741908,1.0,1536,0,1,1,461.828049620293,0.6637725458530717,0.1270657685180334,852.1417011428573
1536,256,717.8881776455642,585699,117607,32743424,29834296,0.6389417575258519,0.2234500469257278,0.3660086174910397,1536,0,1,1,2328.2011964205153,0.8600300731896181,0.0754360646026666,852.1417011428573
1536,512,307.0296286422169,542653,120126,32481280,29681336,0.6838730990004556,0.1381030924708513,0.46223167128655285,1536,0,1,1,1843.5381088687586,0.8433897656754045,0.0754080514405678,852.1417011428573
2048,1024,139.12397607114542,488615,81674,41791488,30173704,0.9336052912152999,0.1082711284338855,0.8185705948131035,2048,0,1,1,1041.0118645141642,0.7871457745332106,0.0753323163090977,852.1417011428573
2048,128,920.806069892646,549969,99745,32743424,30078664,0.7588575997563718,0.331183541455815,0.38122578099435334,2048,0,1,1,2235.267769457279,0.871424112510703,0.0710267265794116,852.1417011428573
2048,1536,86.26698677268473,522627,65422,53456896,31636704,1.0333340131683957,0.0809315853847765,1.0,2048,0,1,1,792.957123496609,0.6847499964721286,0.1266634875392275,852.1417011428573
2048,2048,66.09718597031481,486310,80314,58970112,44881408,1.1790443785499471,0.2246343087367562,1.0,2048,0,1,1,565.8705811398888,0.7531255019962564,0.0929822849579684,852.1417011428573
2048,256,258.9583829334408,575345,61955,46907392,44189328,0.7387068550485597,0.1220643243341164,0.4995407281010256,2048,0,1,1,1705.8503004994675,0.8798897094698116,0.051653547740902,852.1417011428573
2048,512,308.2962089867932,555746,91289,36675584,29454848,0.6621034479100035,0.1741067178849759,0.4601148424832548,2048,0,1,1,1852.0195882919595,0.8760591577892309,0.0613768212536058,852.1417011428573
256,1024,129.974886310522,514961,72158,53858304,44695760,0.8995566546897321,0.1139242155372217,0.7899768433430219,256,0,1,1,1078.6920000550476,0.7791634546188009,0.1019918717707711,852.1417011428573
256,128,1375.1593703648907,520265,95309,32219136,29606072,0.4569672515853394,0.1568281838567506,0.22467726712957625,256,0,1,1,3792.736630766515,0.8732061208079152,0.0451526301557407,852.1417011428573
256,1536,83.49570022661361,422437,71103,57389056,31741424,1.1752609632062827,0.121303307573885,1.0,256,0,1,1,648.050436023779,0.6377638993363737,0.1102854906351351,852.1417011428573
256,2048,39.82339679468205,321004,66112,62640128,44637808,1.2834476500346776,0.193140182507465,1.0,256,0,1,1,418.88907379136515,0.6208617814148171,0.1713906919327306,852.1417011428573
256,256,305.99129936815274,479814,68492,35102720,29820352,0.4213621257013547,0.0412184113012074,0.2765379500256775,256,0,1,1,3081.4638680287208,0.8724665032202403,0.061176294660581,852.1417011428573
256,512,288.43029543676977,531268,55511,46120960,44189376,0.6371886573191693,0.0982525889219225,0.4489484423663181,256,0,1,1,1898.0836566697672,0.876520321542974,0.0751212065198023,852.1417011428573
512,1024,127.42635858394245,491753,45533,42840064,30098336,0.9480784427276463,0.0862670732978453,0.8388201940002787,512,0,1,1,1015.8812427715279,0.802739944816188,0.075453066249055,852.1417011428573
512,128,758.2047728968405,566570,83633,34578432,29962064,0.6108615750062166,0.2214909300225299,0.3504442730403694,512,0,1,1,2431.6040143840355,0.8606560062162465,0.0770249048208777,852.1417011428573
512,1536,114.83988706233907,457820,69769,62377984,45798448,1.0252957131606237,0.1824720951624272,1.0,512,0,1,1,747.9825586528315,0.7117741787937883,0.1448255029233302,852.1417011428573
512,2048,54.84280096788088,444860,49446,62377984,44665312,1.13510224337042,0.1386530268244833,1.0,512,0,1,1,646.7079047350951,0.6830055373845211,0.160076985554788,852.1417011428573
512,256,451.6321585188668,739921,78772,46907392,44064952,0.4925937286566564,0.0606539792629735,0.3164720234652576,512,0,1,1,2692.6288517139833,0.849175416528354,0.0815567786800453,852.1417011428573
512,512,251.0753971869928,557947,72350,32481280,29697840,0.6147748514248985,0.0567889969253642,0.42046152106814666,512,0,1,1,2026.6817733476869,0.8766539116572292,0.0686512891429325,852.1417011428573
