cpu,memory,duration_std,userDiff,sysDiff,heapTotal,heapUsed,avg_cpu_util,cpu_util_std,slo_preservation,total_cpu_shares,cpu_shares_others,num_containers,arrival_rate,latency,memory_util,memory_util_std,slo_duration
1024,1024,148.70611889823007,68132,7385,25792512,14544256,0.14027368165594473,0.1018457993717769,0.9453836481599863,1024,0,1,1,362.98461873480346,0.6335343740124374,0.0422769942134533,343.1597230854702
1024,128,142.0508430257685,27446,4792,24555520,20930000,0.09166353015830163,0.0182102040403275,0.8016488986014366,1024,0,1,1,428.0673542795974,0.8641653118822876,0.0121229617687747,343.1597230854702
1024,1536,131.98849792179033,24931,3440,39243776,24467904,0.08631242139844361,0.0462385901398883,1.0,1024,0,1,1,320.9012112577844,0.5777171524118412,0.0995724476680234,343.1597230854702
1024,2048,133.97859165044383,35483,31,34574336,15037832,0.08782351919515516,0.067278836795889,1.0,1024,0,1,1,339.24229277030713,0.5281053532635831,0.0498949777774305,343.1597230854702
1024,256,144.97489076336038,22333,0,24031232,21247720,0.09113087908140918,0.040836609637656,0.8518260833858218,1024,0,1,1,402.8518611703995,0.865712376479567,0.0131251005513029,343.1597230854702
1024,512,138.31839950616077,20989,144,24555520,21139560,0.11091191565674266,0.0675471316492414,0.9840075454802525,1024,0,1,1,348.7368818071293,0.869765819704227,0.0132362502275571,343.1597230854702
128,1024,131.99016478770815,28860,8934,25792512,15022952,0.1523659228220049,0.111650407754866,1.0,128,0,1,1,313.56298964327476,0.6414422066531233,0.0595809292050166,343.1597230854702
128,128,158.52218144187893,19546,4803,24293376,21201744,0.09477382048231617,0.0233076653026545,0.7695233947909388,128,0,1,1,445.93799929721246,0.8651567098347628,0.0103422890751241,343.1597230854702
128,1536,117.71272650753252,21626,229,38719488,25451584,0.11730652597053244,0.0620461536418512,1.0,128,0,1,1,303.98179676214943,0.5670636427965121,0.1127784810433426,343.1597230854702
128,2048,150.3430418297377,30776,6278,34312192,15188688,0.09035095451393813,0.0411414503621287,1.0,128,0,1,1,307.98422503573806,0.5306865160485905,0.0484907539631853,343.1597230854702
128,256,141.53912549014262,16483,7177,24555520,20890768,0.10553260290432263,0.0288363757768684,0.8319899450675342,128,0,1,1,412.45657488999495,0.8663201687673046,0.0131434655078015,343.1597230854702
128,512,126.29185861624195,20365,5800,24293376,21102088,0.11562011223523168,0.0688096071910859,0.9364422229374343,128,0,1,1,366.4505024229321,0.8625248464098346,0.0118638850001271,343.1597230854702
1536,1024,142.41079810086043,67623,12987,26054656,14555344,0.1193528999383694,0.0800022332899137,0.9979621412810763,1536,0,1,1,343.8604621263074,0.6568304910449557,0.0798024601586946,343.1597230854702
1536,128,152.6376850966832,17976,4404,24555520,21173848,0.13001994214888826,0.0453642885123162,0.9959779759280447,1536,0,1,1,344.5454933536222,0.860747835708795,0.0117666868284838,343.1597230854702
1536,1536,143.68063300875986,18399,2877,39243776,24473800,0.11509478503160792,0.1024429205077222,1.0,1536,0,1,1,316.31623836903015,0.6116241340307728,0.0924873498301803,343.1597230854702
1536,2048,148.60203904170325,75940,25,35098624,14687416,0.11344159373755457,0.1161128259723513,1.0,1536,0,1,1,326.8475976453949,0.5172570724711728,0.0491358282138927,343.1597230854702
1536,256,112.54475279657365,19263,6530,24555520,20897856,0.08896077406144504,0.0389911611384011,0.8779060921396494,1536,0,1,1,390.8843168511507,0.863777653274073,0.0114200039977355,343.1597230854702
1536,512,147.35080655800232,22927,31,24555520,21485248,0.12055922101206218,0.0830485880214583,0.9037664950104528,1536,0,1,1,379.69954073314176,0.8687178018821786,0.0128284528915181,343.1597230854702
2048,1024,163.77245073842022,18153,4349,25530368,15067336,0.1384165407004019,0.0920166217563208,1.0,2048,0,1,1,300.6672034163168,0.6436179992073834,0.0434167381635209,343.1597230854702
2048,128,165.59696532619262,17063,8141,24555520,21590792,0.10000898351682422,0.0237801536197445,0.808832051978789,2048,0,1,1,424.2657326028782,0.8613153877335471,0.0132120124106553,343.1597230854702
2048,1536,159.16800940006243,41325,3572,35098624,14877912,0.14380766829073333,0.1687486561860968,1.0,2048,0,1,1,325.1883423740467,0.5173745004640968,0.0778969901442299,343.1597230854702
2048,2048,137.7046882658929,30219,4395,34574336,15155416,0.08330954264731112,0.061367722578223,0.9856021337477531,2048,0,1,1,348.17266657145416,0.5280248679251569,0.0485053428058116,343.1597230854702
2048,256,150.25497129792112,18656,7704,25079808,21173488,0.08417589000236027,0.0334556350059363,0.7817791772177326,2048,0,1,1,438.94712610118177,0.8603346248165163,0.0124171668501828,343.1597230854702
2048,512,144.5076910320054,14763,7635,24817664,21490040,0.12614519084070994,0.0606700368422298,1.0,2048,0,1,1,313.38619622661696,0.8698893405618178,0.0138706126122717,343.1597230854702
256,1024,141.37223182759394,21249,198,25530368,15059256,0.10324449586830851,0.0562434254813102,0.9830375640870345,256,0,1,1,349.0809869551314,0.6457904345326074,0.0407829034546097,343.1597230854702
256,128,132.14156825751118,21551,3032,24555520,20877184,0.1307018404813645,0.0504623392343187,0.9784874515122112,256,0,1,1,350.70426560415393,0.8622827425262428,0.0110563017364336,343.1597230854702
256,1536,144.41196627296236,30462,11618,34312192,15120072,0.12208981439892976,0.0936033888470468,1.0,256,0,1,1,329.93841493065344,0.506500277786764,0.0523732397002783,343.1597230854702
256,2048,145.26544879719052,17931,4374,39243776,24604720,0.08748874182779293,0.045594830211848,1.0,256,0,1,1,291.6958618670403,0.5249623962944197,0.0502989560764724,343.1597230854702
256,256,121.64438101155196,23957,667,25079808,21433192,0.11972165727692573,0.0404383610252098,0.8312482296770739,256,0,1,1,412.8246062175459,0.8646154083583255,0.0127893199772284,343.1597230854702
256,512,122.19205822078084,25060,2063,24555520,20866664,0.11178267964917112,0.0667655057945957,0.8433272643476433,256,0,1,1,406.9116908616986,0.8656448669537701,0.0143024146981983,343.1597230854702
512,1024,138.03904877925618,16646,7263,25530368,15023624,0.18980626828181357,0.1732636347948936,1.0,512,0,1,1,276.5194258065931,0.6490881710272548,0.0712328616493408,343.1597230854702
512,128,176.0482141890677,18763,508,24555520,20864504,0.12226833779740925,0.0565344153177748,0.859441907279884,512,0,1,1,399.28204591694123,0.8589635349269737,0.0087215293888749,343.1597230854702
512,1536,127.87194150424884,16528,40,39505920,24592312,0.09548260862734298,0.0982870792006997,0.9208508749371592,512,0,1,1,372.65504374841163,0.5602392790724854,0.0939939657162092,343.1597230854702
512,2048,133.69128967995346,25202,9887,34836480,15086680,0.05940299382498841,0.0280054988759873,0.9289727521862079,512,0,1,1,369.3969734611609,0.5190424561814303,0.0486211309946671,343.1597230854702
512,256,168.31618274406097,22222,280,25079808,21412024,0.11628440037106197,0.044144295853506,0.7826299514296859,512,0,1,1,438.4699594726676,0.8655198346152373,0.0111433811830845,343.1597230854702
512,512,104.97492260591484,20875,2957,24817664,21292632,0.08223551559640167,0.0260538163356914,0.8871757929373032,512,0,1,1,386.80014244901895,0.8650508060106443,0.012119933980986,343.1597230854702
