29.006832419484958
38.753720998200784
29.64157186335615
25.045998180455445
21.835876017632394
21.021174078672097
20.286488361589058
25.31258586985862
23.877486318331485
22.99672780858498
21.981460693531368
16.472995627147675
16.720057795940118
17.20799071160739
17.996833315272948
17.18194145030069
19.631618412490482
16.446103359933847
16.269999271461003
16.26149753333548
14.991097196339991
16.03928436491011
16.452783338986848
17.340312230831472
15.450065995519527
12.730466026566368
13.950475363391975
11.110942313857159
11.945620254059516
11.18963619103783
11.94308151135801
11.463953687851971
11.296706631777662
9.744351579505057
10.133805568840398
10.03203522612307
9.920761306189254
8.899834022086162
9.475277209518183
8.83980748065481
9.906183609604076
9.508159144897572
8.56354235818226
9.333421329836213
7.371018420481004
7.035127024797737
7.235227633923054
7.206691781432215
6.340690795474852
5.8238570215992
6.389542987574825
7.575762101504224
8.209175909474132
7.767250111836905
8.730903308332392
8.546743838952453
8.934765494395895
7.108655840310456
8.010507567745101
7.931550066974683
7.926062278101502
9.686292197816195
9.277195777214137
9.85084106255052
9.828759716020064
9.398071235680023
9.727502231006483
9.641981948070692
9.156731463603302
9.441143956078896
5.840602291258231
6.963125367797033
8.01633152506826
7.686818388319376
6.787284488483739
6.4141142028103975
7.811777062568898
8.109625469745245
8.078968555295651
7.362105851301113
6.779463580299679
6.046473540347621
6.844109459793373
6.376106119478694
6.936141374256055
6.8295718885965355
6.561425474399322
6.880539255112374
6.6083545600808415
6.713835968952483
6.980685325887089
6.527187205659229
7.1805952976077885
7.917349096890883
10.064854508415358
9.822644728912389
8.316405377266365
10.974183293015864
10.98553647913932
12.0668053912186
