cpu,memory,duration_std,userDiff,sysDiff,heapTotal,heapUsed,avg_cpu_util,cpu_util_std,slo_preservation,total_cpu_shares,cpu_shares_others,num_containers,arrival_rate,latency,memory_util,memory_util_std,slo_duration
1024,1024,63.20468373198694,321897,39648,39694336,30355144,1.0350905447595515,0.1728731416536191,0.8864915810456258,1024,0,1,1,353.04566645216096,0.8290096019806812,0.0370101404199785,312.9720110344828
1024,128,185.36692247858588,366001,114649,33005568,29795032,0.836687457736297,0.1960683810823768,0.531804025262554,1024,0,1,1,588.5100453686246,0.9112220077659416,0.0220885104703577,312.9720110344828
1024,1536,55.97077763098797,284524,60018,37457920,15535104,1.2082008699429814,0.1742684842575818,1.0,1024,0,1,1,232.32980110056343,0.7043927724258425,0.1030767072837991,312.9720110344828
1024,2048,37.70322365971403,263416,56182,36147200,15550280,1.4830796240100719,0.2299754685715258,1.0,1024,0,1,1,167.37589558113694,0.6777636217467178,0.1111872502146416,312.9720110344828
1024,256,85.85684471361596,363374,43803,33005568,29635176,1.0651880376903056,0.1066602810936579,0.7522656003496303,1024,0,1,1,416.0392431729204,0.9016203930482805,0.0230459412620473,312.9720110344828
1024,512,113.31735097043462,432823,91549,32481280,30028368,0.8316781739344319,0.1285385356667411,0.5583907652804587,1024,0,1,1,560.4892317251857,0.9225476287163354,0.0077975653557174,312.9720110344828
128,1024,126.34115427289768,361594,65222,39432192,30510624,0.8291045816471174,0.1180242092705802,0.710301081830165,128,0,1,1,440.61880101333605,0.8023353670304246,0.0574811032302372,312.9720110344828
128,128,267.6634015884504,250214,76594,32743424,30267736,1.0089164873953822,0.2999869906437465,0.522417939640649,128,0,1,1,599.0835828680847,0.9211618928349498,0.014718153425194,312.9720110344828
128,1536,63.579399839033634,314883,76206,42446848,31541792,1.220119575394777,0.1925845372238214,1.0,128,0,1,1,249.02211674015012,0.6944904343321688,0.083688951093014,312.9720110344828
128,2048,47.1374087009176,267833,71777,60366848,48443336,1.4298346560615358,0.1911451072421835,1.0,128,0,1,1,179.60827158883916,0.6963650909207961,0.0986274920437495,312.9720110344828
128,256,111.3922764620398,305263,39959,32743424,29650384,1.0141471232408124,0.1738537830508537,0.7648031355791761,128,0,1,1,409.2190479808545,0.9139619699221256,0.0116077061161755,312.9720110344828
128,512,63.77979691261759,430687,86034,33005568,29620680,0.9696039261818669,0.1189620281758116,0.7256748053053945,128,0,1,1,431.28410790391297,0.9053305499715532,0.0248902040922079,312.9720110344828
1536,1024,88.78908572458529,345421,78355,39694336,29766912,1.0418658849290343,0.1139076206113252,0.9738388829493847,1536,0,1,1,321.3796619894767,0.7933405797958235,0.0694768498676027,312.9720110344828
1536,128,220.52836537731028,274166,54299,33267712,30027344,0.8918905706961947,0.2571301950602411,0.5363678740099254,1536,0,1,1,583.5025291404596,0.9055688695490948,0.0113106647258021,312.9720110344828
1536,1536,70.30476101029836,287977,60175,59842560,48283160,1.2578500852382108,0.1827239176441819,1.0,1536,0,1,1,225.1858411468296,0.7050051497585393,0.1121957758608361,312.9720110344828
1536,2048,46.53349575320572,295987,85550,65609728,47819912,1.4593604211505036,0.1739303017831418,1.0,1536,0,1,1,180.26188667619198,0.7288784770895331,0.0801247169996774,312.9720110344828
1536,256,92.23984255253347,334058,55819,32481280,30415264,1.0657897570013681,0.1308715429587158,0.7462706042589442,1536,0,1,1,419.3814003236371,0.914310491128978,0.0124727401703659,312.9720110344828
1536,512,109.658733024991,446685,50585,33005568,29654384,1.1711558339484298,0.2070808409716901,0.7801162022192796,1536,0,1,1,401.18640036463546,0.9024817721263126,0.0363154685426021,312.9720110344828
2048,1024,74.46524634105117,315879,71822,39432192,29736880,1.0522665252625059,0.1435337190510625,0.9096800267754304,2048,0,1,1,344.04626002824745,0.8266121646971794,0.0437490579052143,312.9720110344828
2048,128,244.87912300640656,296115,70147,33005568,30307144,0.9186870515529852,0.2690244682336179,0.5569512554568008,2048,0,1,1,561.9378858887554,0.8981166066535836,0.0528193209102757,312.9720110344828
2048,1536,56.997404310643134,256260,56172,48476160,31097760,1.2811872178857833,0.1476688956168288,1.0,2048,0,1,1,221.41047465584973,0.7022135067957825,0.0973088201240873,312.9720110344828
2048,2048,38.6095833225679,99830,29142,65937408,51886528,1.4918732865354238,0.2183878774197012,1.0,2048,0,1,1,164.0867493122235,0.6867332808240348,0.0855815166552985,312.9720110344828
2048,256,101.82562162710208,276708,21664,33005568,29814776,1.050352178666466,0.1240977071632817,0.8059724356110477,2048,0,1,1,388.3160232362081,0.9164193906582094,0.013951034281171,312.9720110344828
2048,512,93.10944906592296,291562,44576,32743424,29700472,1.2041145929787649,0.3061442837079158,0.9625366332392464,2048,0,1,1,325.15335024832353,0.9046980059072652,0.0235623560437589,312.9720110344828
256,1024,109.35498023769632,443988,54109,39170048,30676704,0.9980934461995977,0.1474304313680448,0.8994728784869664,256,0,1,1,347.95047023646066,0.8275828076256545,0.049552071750511,312.9720110344828
256,128,47.81617379888656,346783,93571,33005568,29680888,1.2495719067823516,0.1499383693665558,0.7614944338844579,256,0,1,1,410.99710924738065,0.9110384162930684,0.0084580991046431,312.9720110344828
256,1536,105.98977503632324,252015,66166,44544000,30247856,0.7801015403658343,0.1968842762272714,0.7552619753509716,256,0,1,1,414.3886773712448,0.6790185445591567,0.1138337286119734,312.9720110344828
256,2048,72.18073018323429,280542,17972,50573312,29978232,1.0560117290788207,0.2158121938379779,1.0,256,0,1,1,290.51827829930926,0.6711207163680732,0.0805400031329072,312.9720110344828
256,256,683.7464992248877,397417,73296,32219136,29808784,0.25839448406537563,0.1084226658025765,0.1423911714608058,256,0,1,1,2197.973426467881,0.9204903219455924,0.0099536219933942,312.9720110344828
256,512,244.01399968900532,330023,33202,32219136,29869104,0.409707288023015,0.0432101847972921,0.2631873970735972,256,0,1,1,1189.1603264990838,0.9242176769460384,0.0109264015461529,312.9720110344828
512,1024,83.30664046106156,321249,30619,36548608,30342832,0.76199145785139,0.1259274710778389,0.6762711630489686,512,0,1,1,462.79070901596407,0.7677650890661841,0.0897548669854931,312.9720110344828
512,128,611.0519645032513,347569,96920,31956992,29671272,0.2653395925930703,0.0710538368182306,0.13947438437872703,512,0,1,1,2243.9390030548007,0.916746472524802,0.0131588489997435,312.9720110344828
512,1536,65.54769105373272,301411,43105,45330432,31774760,1.205094843980128,0.1997041793806718,1.0,512,0,1,1,235.85487526905183,0.7152813833827698,0.0991870009399675,312.9720110344828
512,2048,50.55483326620379,268870,70524,36147200,15549928,1.3885064161087244,0.1739177575487675,1.0,512,0,1,1,162.45316806184294,0.7192798198239239,0.1137744354863771,312.9720110344828
512,256,431.4925127222635,318796,45796,32219136,29621744,0.4055863850621389,0.174962965680708,0.22494941400707363,512,0,1,1,1391.2995168977914,0.9115159216255432,0.0406483971176427,312.9720110344828
512,512,196.48974667772023,334390,54033,32481280,29702208,0.45412199248492646,0.0633285730965082,0.2950253627048488,512,0,1,1,1060.830866082481,0.9189915589907776,0.010709163180632,312.9720110344828
