cpu,memory,duration_std,userDiff,sysDiff,heapTotal,heapUsed,avg_cpu_util,cpu_util_std,slo_preservation,total_cpu_shares,cpu_shares_others,num_containers,arrival_rate,latency,memory_util,memory_util_std,slo_duration
1024,1024,26.02777770819608,8793,3405,33931264,28303576,0.7477863239180417,0.3419622158120522,1.0,1024,0,1,1,31.52623408183978,0.6782910548740863,0.0822152116666989,38.89358383898305
1024,128,67.29774258869166,7141,6844,28286976,24533376,0.3559389044123019,0.2913136318632777,0.44975730630725824,1024,0,1,1,86.47682493102698,0.8698603279850057,0.0077646664360703,38.89358383898305
1024,1536,22.73841694835024,11860,30,42450944,28071992,0.8673068809120249,0.1856994623031404,1.0,1024,0,1,1,22.09067418785155,0.5683308592886945,0.0944596841111024,38.89358383898305
1024,2048,11.671859660405904,8507,4095,42188800,28069896,0.98210509179826,0.1996333155158207,1.0,1024,0,1,1,18.78840022055911,0.5511000294130177,0.0875476716272809,38.89358383898305
1024,256,56.117163591172464,9720,3459,28286976,24617080,0.46247502660217704,0.3815620096618395,0.5428955978862757,1024,0,1,1,71.64100057250855,0.8735868301380261,0.0119601674069142,38.89358383898305
1024,512,16.7313942997681,12918,207,28024832,24654152,0.634006779812128,0.2799709777683806,1.0,1024,0,1,1,30.38261078799721,0.8806191948090072,0.0170818490522288,38.89358383898305
128,1024,23.75277044738852,10021,3509,26054656,14717232,0.7485816002937429,0.234757445485972,1.0,128,0,1,1,37.80394651302297,0.6447501735142979,0.0626004078015368,38.89358383898305
128,128,79.5995970001111,12058,29,28024832,24564008,0.4847328601033591,0.4064737486964818,0.4914619626542275,128,0,1,1,79.13854335528094,0.8714796055396159,0.0080285427752261,38.89358383898305
128,1536,9.554516023330804,12524,31,42188800,28243400,0.9925982165329659,0.1486429288076262,1.0,128,0,1,1,18.860852730417157,0.5406046805670541,0.0858139786899693,38.89358383898305
128,2048,11.29189969889488,13176,15478,34050048,14871704,0.9279047768879477,0.2857099648584553,1.0,128,0,1,1,21.408761275852942,0.5517105620893326,0.0791704852652165,38.89358383898305
128,256,54.92719401710988,5296,8094,28286976,24674488,0.3908600527779623,0.2680452061385716,0.5402008238024283,128,0,1,1,71.99837935309756,0.8695428204517851,0.0115517723446324,38.89358383898305
128,512,37.53172823501709,11753,29,28549120,24499752,0.5179098172592765,0.2920210757176812,0.7764695803030852,128,0,1,1,50.09028663273766,0.8782047234532678,0.0151974530019292,38.89358383898305
1536,1024,23.594320537989045,12708,152,33931264,28292352,0.661920443377011,0.2552430424522745,1.0,1536,0,1,1,37.25866856990475,0.6539244178756698,0.0825880872832839,38.89358383898305
1536,128,15.56038142808508,12872,247,28286976,24407152,0.5671979023867054,0.2607353103151766,1.0,1536,0,1,1,35.82871304182673,0.8661734065194772,0.0084392976462862,38.89358383898305
1536,1536,14.381202582156696,22780,7733,34050048,14754320,0.8841890282266277,0.3583117273990828,1.0,1536,0,1,1,20.167043088426762,0.529960329650842,0.0745298988561215,38.89358383898305
1536,2048,7.654235735487391,31597,765,34574336,14857856,0.9722495348198917,0.2379259382584994,1.0,1536,0,1,1,16.56564552612824,0.5151314778684398,0.0501198104655049,38.89358383898305
1536,256,39.36328191648067,9273,3906,28286976,24545936,0.5810938069979559,0.3922280975671271,0.8389939008199465,1536,0,1,1,46.35740951271809,0.8716966611438759,0.0123571145414789,38.89358383898305
1536,512,17.43278989234125,11792,3198,28549120,24300504,0.6141410159399987,0.2654873574106172,1.0,1536,0,1,1,25.79128503199082,0.8752693094771964,0.0155456606285705,38.89358383898305
2048,1024,17.746024213205217,13885,5,26054656,15307176,0.8470576436512713,0.3444426520114493,1.0,2048,0,1,1,24.900977524406116,0.664874507143544,0.0861808877823834,38.89358383898305
2048,128,129.1996413326598,7816,3819,28024832,24746360,0.43244106561082357,0.2377104341924504,0.4432324624626591,2048,0,1,1,87.74985393191886,0.8693415339181543,0.0084575037669529,38.89358383898305
2048,1536,13.613002703446616,13144,314,42713088,28061008,0.9730384081633607,0.2146548264906213,1.0,2048,0,1,1,15.076482407002027,0.5609895912768823,0.07939034882097,38.89358383898305
2048,2048,10.263601643754466,21914,487,42450944,27892728,0.948840562393414,0.3462096919479037,1.0,2048,0,1,1,19.545621519082513,0.5370278921195843,0.0583731752732508,38.89358383898305
2048,256,22.409668246897635,13651,352,28286976,24546880,0.6244776025469476,0.3340065063847526,1.0,2048,0,1,1,35.98117305925632,0.8688215625815862,0.0137111310958058,38.89358383898305
2048,512,20.824197467097548,7394,4921,28811264,24418760,0.6954193761884429,0.3175384287557212,1.0,2048,0,1,1,24.221033105474824,0.8741554259700957,0.0126660407767378,38.89358383898305
256,1024,19.39096758107448,12861,247,25530368,14666080,0.6415445179955521,0.1892230224225928,1.0,256,0,1,1,30.81838596114008,0.7021528379363364,0.0919868030470945,38.89358383898305
256,128,45.326694941201936,11910,1968,28024832,24682960,0.3775039781853188,0.280494806046093,0.522795596860027,256,0,1,1,74.39539290801716,0.8670065629649231,0.010054914639154,38.89358383898305
256,1536,8.758634876873206,12709,191,42188800,28630096,1.00949338135008,0.327112912490981,1.0,256,0,1,1,14.182679657310574,0.5308290971623346,0.0688502322239477,38.89358383898305
256,2048,9.74321127556035,20568,7385,34312192,14856960,0.896274551205463,0.2561411956515793,1.0,256,0,1,1,20.5031093560716,0.51821774604199,0.0497651378359535,38.89358383898305
256,256,50.69429555806459,5242,7967,28286976,24540008,0.31414347113511404,0.2366218363472213,0.45856228959084866,256,0,1,1,84.81635913342498,0.8740117850256334,0.0098242902933839,38.89358383898305
256,512,25.011266579745264,11593,2678,27762688,24241320,0.5682157485625092,0.4238636413963594,1.0,256,0,1,1,38.02625793639311,0.871477015340694,0.0162061991267705,38.89358383898305
512,1024,23.194253839732685,13050,41,33931264,28255720,0.6943616734545701,0.2260007078053993,1.0,512,0,1,1,37.99276878551363,0.6736768893991405,0.0895663955232178,38.89358383898305
512,128,84.1697161403452,5364,8119,28024832,24222472,0.3737567149877997,0.3088422654758241,0.37456406379711066,512,0,1,1,103.83693364681791,0.8665678459653878,0.0115032698867116,38.89358383898305
512,1536,20.075285909098493,11874,28,42188800,28167720,0.8660143774825715,0.2457124837443822,1.0,512,0,1,1,25.578028680884604,0.5190110653512928,0.0658377959711263,38.89358383898305
512,2048,14.502206300433937,15561,15774,34574336,14878472,0.9751832449059219,0.2185878396087422,1.0,512,0,1,1,18.012886541233755,0.5196956865517679,0.0531001068751064,38.89358383898305
512,256,128.28597405506372,6945,6910,28549120,24340120,0.3513617381820009,0.3269573558143255,0.2707873970427566,512,0,1,1,143.631440250677,0.8693498858749179,0.0114768771288607,38.89358383898305
512,512,29.53355908899554,10333,3756,28549120,24211200,0.5927812751728179,0.4215839506797134,1.0,512,0,1,1,37.774843721811564,0.8752451401816886,0.0159136124295713,38.89358383898305
