cpu,memory,duration_std,userDiff,sysDiff,heapTotal,heapUsed,avg_cpu_util,cpu_util_std,slo_preservation,total_cpu_shares,cpu_shares_others,num_containers,arrival_rate,latency,memory_util,memory_util_std,slo_duration
1024,1024,72.22809172620751,302620,43321,39432192,29536336,0.9826460373086633,0.1306972441488184,0.4279886537233009,1024,0,1,1,357.82085070665437,0.8075261758702353,0.0747630636022634,153.14326416806725
1024,128,65.37722349903305,264681,38084,32219136,29565976,1.0663611179904648,0.2263387301522193,0.40136296441366176,1024,0,1,1,381.5580353603111,0.8944165605361002,0.0511663804564391,153.14326416806725
1024,1536,49.671200343480585,207951,21232,71118848,54811560,1.195409197422656,0.1673388849586648,0.6702221975841448,1024,0,1,1,228.49625798739748,0.7432554401006815,0.1093823088594648,153.14326416806725
1024,2048,22.674929633587,222337,39602,94023680,77414648,1.2095608503411142,0.2202358992324715,0.8189280418774832,1024,0,1,1,187.00454293513914,0.7584466801651939,0.0905193443515583,153.14326416806725
1024,256,33.62432718305091,249154,13182,32219136,29548008,1.1317322451469025,0.1828236447191004,0.4385319584554595,1024,0,1,1,349.21802439997447,0.8573406969456,0.0804539102835077,153.14326416806725
1024,512,41.630056921673294,272151,28965,33005568,29402264,1.1791289916277246,0.1849567338161634,0.48815249579772974,1024,0,1,1,313.72012943988614,0.8760371015644411,0.0610321786167647,153.14326416806725
128,1024,70.66361065298139,269635,49545,39170048,29639376,1.0239762869405937,0.154682878483203,0.45528357777222017,128,0,1,1,336.3689613348745,0.768620991451541,0.1142003976224102,153.14326416806725
128,128,61.368657008061405,225261,56227,32743424,30004200,1.0462000879774636,0.2173613183329572,0.39319556390326493,128,0,1,1,389.48370283685085,0.8695808026331415,0.0881758320871944,153.14326416806725
128,1536,42.58528348227933,213236,33977,37457920,15356504,1.1134787787124671,0.2239222877666872,0.6377074511794699,128,0,1,1,240.14658113970847,0.7101826754324305,0.1400701433633927,153.14326416806725
128,2048,31.044555215124376,279805,24854,50311168,30987360,1.2948888072749458,0.3801436410711382,0.8964416437292686,128,0,1,1,170.83461621771505,0.7326380861904638,0.1217678852671577,153.14326416806725
128,256,56.19331714462879,290079,41421,33005568,30145464,1.0332910621210454,0.1708397667949285,0.3806254767367216,128,0,1,1,402.34633130980967,0.8816653236640681,0.0469361495183373,153.14326416806725
128,512,51.33409614530024,222193,62124,32743424,29994336,1.0248242177271838,0.1382542230438065,0.406063606019959,128,0,1,1,377.1410732153619,0.8966256362478635,0.0613159908187439,153.14326416806725
1536,1024,75.70305817078469,268650,39935,38121472,31136168,1.0017007713785837,0.1573492381556421,0.4112078251359462,1536,0,1,1,372.4230299300305,0.777201506355587,0.0955530079297776,153.14326416806725
1536,128,220.17807595794045,220512,31704,31956992,29669264,0.9172805560816679,0.2422096445897498,0.2789897728092031,1536,0,1,1,548.9207099817226,0.8723821685698033,0.0715992826115728,153.14326416806725
1536,1536,58.58565931299006,301923,38251,43233280,31751816,1.1505373886507746,0.249249099576962,0.617907129607937,1536,0,1,1,247.84187919184046,0.7355026723362268,0.1225121765728088,153.14326416806725
1536,2048,28.416967051580865,226817,49998,49786880,29782848,1.3087997718759237,0.1897390314840058,0.9495228928666288,1536,0,1,1,161.2844359188904,0.7303561480974748,0.0907706121694277,153.14326416806725
1536,256,37.38191387131023,253017,26670,33005568,29737392,1.1403021501598634,0.1824526148005455,0.4716826361579648,1536,0,1,1,324.6743730392062,0.8762770883070763,0.0668688492680732,153.14326416806725
1536,512,46.42686705102624,247892,28678,32481280,30116648,1.0594137195250675,0.0906229497877394,0.40451930243072665,1536,0,1,1,378.58085695253766,0.8867852771956027,0.0742551787701993,153.14326416806725
2048,1024,62.01494237298472,291943,25973,39432192,29688064,1.03525975072883,0.2736257250345367,0.43514607362429936,2048,0,1,1,351.93530046714744,0.7551960483541581,0.0971390193543855,153.14326416806725
2048,128,143.74491033390774,230478,44509,33005568,29474216,1.0702814127980975,0.2803032000447347,0.36102705477462677,2048,0,1,1,424.1877780147746,0.8880538679961688,0.0489091505477208,153.14326416806725
2048,1536,44.74557618658786,234959,34779,50311168,29629416,1.1581474442011168,0.1849356103861683,0.6676736197052808,2048,0,1,1,229.3684513635068,0.6956307185826953,0.1359308832839344,153.14326416806725
2048,2048,29.793999558397747,265943,42699,50573312,30993584,1.3108925785430385,0.1989136725655829,0.9237858960078845,2048,0,1,1,165.7778764861768,0.7383547924648097,0.0832020973539637,153.14326416806725
2048,256,34.028628248568985,239431,49478,32743424,29862096,1.1777734187509346,0.1660035058193653,0.45609503419031266,2048,0,1,1,335.7705142305186,0.8570725977346706,0.0610241157300378,153.14326416806725
2048,512,325.74303488565386,280250,38576,32743424,29383648,1.029661400925653,0.2584325443674503,0.2831518868563834,2048,0,1,1,540.851999498568,0.8691953503123845,0.0628793502383183,153.14326416806725
256,1024,314.5284842810621,282384,40963,39694336,30037672,1.0958605333256672,0.4006505929302285,0.33752144595782435,256,0,1,1,453.7289881935489,0.7748645434713722,0.0976942536162743,153.14326416806725
256,128,2401.781053542441,304516,42732,32743424,29701104,0.7315325477812775,0.228373324223902,0.08136633344763528,256,0,1,1,1882.1453257031087,0.8610007852105823,0.0678983680874954,153.14326416806725
256,1536,38.26161722444387,242665,50594,73478144,55065392,1.158729470795212,0.1552109002387773,0.6925485415853871,256,0,1,1,221.13000746126846,0.7349800831032186,0.1092831321052944,153.14326416806725
256,2048,23.92703620206774,226916,48487,50049024,29762736,1.2037677759633518,0.1514083284034404,0.854769320577604,256,0,1,1,179.16326718954048,0.7461234246273893,0.0960612788868176,153.14326416806725
256,256,50.4272436719401,316368,34190,33005568,29579784,1.1474855502760681,0.251986789948664,0.4388614345044396,256,0,1,1,348.9558483100616,0.8912070721413082,0.0707286860416146,153.14326416806725
256,512,38.7027392161893,245487,40587,32743424,29637416,1.0694480736169825,0.1216686504985778,0.3959798120471106,256,0,1,1,386.74513070845,0.8843578041881501,0.0562649546208952,153.14326416806725
512,1024,78.97946708562088,267983,24713,39694336,30318648,0.9983704967497933,0.1938423426127819,0.4178025703324147,512,0,1,1,366.5445716291847,0.7700956002496743,0.1165008997234829,153.14326416806725
512,128,58.67648402992367,232564,60211,32219136,29581992,1.0533530108294415,0.2014353266945511,0.36663241518616024,512,0,1,1,417.7024666253464,0.8931006124649168,0.0421378876268432,153.14326416806725
512,1536,36.4466854861116,234410,26858,72953856,55035240,0.9936941629704448,0.1486750858783042,0.5974019274858563,512,0,1,1,256.34879487678415,0.7424967261223179,0.0821213039319888,153.14326416806725
512,2048,25.938552166663523,220068,48414,94543872,77394664,1.1992381711623292,0.2192088989544942,0.8124546599109116,512,0,1,1,188.49453603338299,0.7378955144472801,0.1126169237225045,153.14326416806725
512,256,50.43684447145612,241897,27430,33005568,29486552,0.9757023228727861,0.1419899317535542,0.3632270419365473,512,0,1,1,421.61856493829026,0.8954598609440861,0.0280782184412193,153.14326416806725
512,512,56.544699491352674,305229,35961,33005568,29570248,1.077659951865013,0.1676175483268351,0.3906529184161222,512,0,1,1,392.0187382420616,0.86258980422843,0.0798375255570741,153.14326416806725
