cpu,memory,duration_std,userDiff,sysDiff,heapTotal,heapUsed,avg_cpu_util,cpu_util_std,slo_preservation,total_cpu_shares,cpu_shares_others,num_containers,arrival_rate,latency,memory_util,memory_util_std,slo_duration
1024,1024,129.97604031291485,134623,3211,33742848,28171016,0.44792235471153496,0.1462241215585248,0.8167565374143884,1024,0,1,1,497.82348108574746,0.6620127778944565,0.0569509155853021,406.60058265517233
1024,128,149.89235730142173,30308,4470,27574272,24346304,0.3953345102062263,0.0674299304088808,0.5686986145644358,1024,0,1,1,714.9667191761778,0.8709376759964291,0.0117694443483138,406.60058265517233
1024,1536,142.52408785541155,42913,1689,42262528,27927088,0.48345514348556434,0.1820549396198966,0.8345450463541997,1024,0,1,1,487.2122654510394,0.5636421483841649,0.0982573342865647,406.60058265517233
1024,2048,144.5579269066775,46645,25,42262528,28151712,0.4167337994373523,0.170451672578948,0.8492334093365767,1024,0,1,1,478.78542952379814,0.6433331090866031,0.1220760732377644,406.60058265517233
1024,256,185.1109345956921,25218,35,28360704,24518648,0.34470191891634056,0.0612730323946908,0.6182226056616593,1024,0,1,1,657.6928422408685,0.8684609174567935,0.0094358092218534,406.60058265517233
1024,512,158.8677634045001,101554,38,28098560,24085136,0.460135193182985,0.1256530983706504,0.672193196608525,1024,0,1,1,604.8864890430754,0.8782256296852932,0.017203154180901,406.60058265517233
128,1024,146.6335418595511,22605,7708,33742848,28370392,0.42289626694357263,0.1255529339363355,0.7547329564211452,128,0,1,1,538.7343684887227,0.6680599755364108,0.068046343254012,406.60058265517233
128,128,218.1567278874305,51846,4147,27836416,24375584,0.37124024695286245,0.0924219358447617,0.5900356568042151,128,0,1,1,689.1118832672345,0.8680785264100707,0.0133777339164477,406.60058265517233
128,1536,156.77493056571603,77181,372,42000384,28072192,0.43632171485400173,0.1463183156496701,0.8600240150750188,128,0,1,1,472.77817308357965,0.5233884472778778,0.0663694512460324,406.60058265517233
128,2048,115.1182347421924,55557,10980,34574336,15163256,0.38727132599634073,0.1512302764614868,0.9374307612551629,128,0,1,1,433.73932183616296,0.598559869901097,0.1046082475110393,406.60058265517233
128,256,132.87375210081603,57995,4950,27836416,24699600,0.3667332687518925,0.0728772481635989,0.5909652251140743,128,0,1,1,688.0279335838856,0.870690400874276,0.0146738965985218,406.60058265517233
128,512,130.888921621506,44988,179,27574272,24438224,0.4337941865058066,0.090452005226511,0.7254267953908017,128,0,1,1,560.4984338028603,0.879220890388346,0.0154711419481186,406.60058265517233
1536,1024,125.56173941947073,129338,310,33742848,28230224,0.5207968789737571,0.1973337554496559,0.8616845514872602,1536,0,1,1,471.86709098286974,0.6767752620916728,0.0852329658103373,406.60058265517233
1536,128,173.9089677632218,103186,2191,28360704,24347368,0.41035088812381487,0.1008718433644369,0.5896379061203869,1536,0,1,1,689.5767358826424,0.8683374244923338,0.0135302336572947,406.60058265517233
1536,1536,123.67864083768332,119772,634,42524672,28138152,0.41521387740612636,0.1509358091699058,0.7741742268400307,1536,0,1,1,525.2055268163675,0.517152998416323,0.0482710019484583,406.60058265517233
1536,2048,128.73951223247266,37187,5854,34574336,15173264,0.3699250811340172,0.1089478951828341,0.9017401223442305,1536,0,1,1,450.90661109560403,0.5413443775174742,0.0510400240365432,406.60058265517233
1536,256,213.5464738139781,116127,6543,28360704,24436120,0.3314085082644619,0.0574339172218152,0.636497692923563,1536,0,1,1,638.8092010005149,0.8740542386410377,0.01527981964516,406.60058265517233
1536,512,151.2253569647555,64100,1142,27836416,23860640,0.4362549180654736,0.1399283139779876,0.6867645270294978,1536,0,1,1,592.0523944558774,0.8740922496831889,0.0116790035930625,406.60058265517233
2048,1024,145.99102027652282,56284,856,25792512,15049616,0.431458793935922,0.1168899500108414,0.723173086322724,2048,0,1,1,562.2451807805833,0.6695429429238827,0.0675664803470269,406.60058265517233
2048,128,124.95951855866458,49448,4217,28360704,24372040,0.42889939756873113,0.1048127003105569,0.8498325699804637,2048,0,1,1,478.44786963686204,0.8683030293559668,0.0126934530879708,406.60058265517233
2048,1536,137.74647378849502,17893,385,42262528,28613264,0.41174455903261187,0.14941863886532,0.7815510803217559,2048,0,1,1,520.2482510647665,0.5311918483487593,0.0801802190506805,406.60058265517233
2048,2048,124.3736541015598,68863,23,42262528,27790512,0.4861152321064076,0.1684479776340948,0.8265382623881029,2048,0,1,1,491.93195422119743,0.5351350850530276,0.0560410663364117,406.60058265517233
2048,256,182.0298542118314,93218,8114,27836416,23996184,0.379301329794194,0.0687242850866245,0.5874476424973514,2048,0,1,1,692.1477817608326,0.8668774571158517,0.0106649608553429,406.60058265517233
2048,512,143.69275861006008,30538,8443,27836416,24361456,0.5089248395975349,0.1519557290906245,0.7254622152876421,2048,0,1,1,560.4710680816881,0.873052383067305,0.0122254951604176,406.60058265517233
256,1024,117.45759863457474,40883,392,25792512,14988760,0.48035184979778756,0.1345207589176379,0.8306162663605773,256,0,1,1,489.5167589682908,0.6642293430889528,0.0568056642564113,406.60058265517233
256,128,181.5012274355188,10440,437,28622848,24429144,0.2976326308950828,0.0563408688330516,0.541596242764034,256,0,1,1,750.74483637495,0.8650959874192095,0.0116268766215571,406.60058265517233
256,1536,162.7996363499764,68074,4893,42524672,27870576,0.48270768673902736,0.1685673764236479,0.7718286111782376,256,0,1,1,526.8016458141851,0.565434337658091,0.1048541654488374,406.60058265517233
256,2048,132.8727892459718,51768,4702,34574336,15163584,0.44217706974310994,0.1131481365468746,1.0,256,0,1,1,404.35336396151433,0.5424243371925164,0.0501625695487702,406.60058265517233
256,256,137.7379141712153,53904,4857,27574272,24377528,0.3712470134120379,0.0670153801949372,0.6101953188059615,256,0,1,1,666.3449720506114,0.8713845063965963,0.0134248279493621,406.60058265517233
256,512,122.81792482186589,51599,7902,27574272,24370400,0.42356045985146523,0.1015168037786261,0.729019973544283,256,0,1,1,557.7358610332699,0.8741504341694345,0.015247518789966,406.60058265517233
512,1024,102.64130692255564,91579,28,33742848,28436920,0.5176008805083767,0.1534710432253945,0.7929271782441208,512,0,1,1,512.784267977243,0.672705225082644,0.0770331990589529,406.60058265517233
512,128,163.63908016780815,119543,4335,27836416,23871816,0.3854814900983767,0.0892224279443257,0.7527195249655392,512,0,1,1,540.1754161668481,0.8633997055120947,0.0108615965780174,406.60058265517233
512,1536,151.12636996798682,97591,3339,41476096,29394392,0.4103874670146231,0.1718775006234714,0.8161738760614217,512,0,1,1,498.178874111101,0.5212780098059707,0.0758508090646122,406.60058265517233
512,2048,107.75897517577064,60403,4190,34574336,15167336,0.3841293168806748,0.119648341791589,0.8212442759809914,512,0,1,1,495.1030948367713,0.5400387894222736,0.0651778145958403,406.60058265517233
512,256,190.35035586236185,33706,2494,27836416,23892640,0.34332966783320923,0.0709084908838763,0.6650428941058841,512,0,1,1,611.3900114695998,0.8710479808322384,0.014061963954385,406.60058265517233
512,512,137.07518568619523,88553,506,27574272,24365648,0.3809597342579375,0.1261676568610389,0.639294915409021,512,0,1,1,636.0141037490174,0.8801722944255472,0.0158429337779568,406.60058265517233
