cpu,memory,duration_std,userDiff,sysDiff,heapTotal,heapUsed,avg_cpu_util,cpu_util_std,slo_preservation,total_cpu_shares,cpu_shares_others,num_containers,arrival_rate,latency,memory_util,memory_util_std,slo_duration
1024,1024,187.79883929556283,207021,26848,39170048,30396664,0.7796204791498308,0.2179466853465642,0.7399270458294668,1024,0,1,1,873.3990873761416,0.7858361313768056,0.0936817638075173,646.2516065523807
1024,128,536.2794855002284,346968,61642,32481280,29691984,0.505098708083295,0.1119257145837859,0.2921011452928682,1024,0,1,1,2212.4240762713616,0.9178794059067904,0.0089384173668197,646.2516065523807
1024,1536,149.4882736947497,193278,35672,69570560,51683440,0.6893978959305956,0.2171925200168767,0.8907271484357947,1024,0,1,1,725.5326254367151,0.741483796114087,0.0869267232905203,646.2516065523807
1024,2048,150.60013548029636,172267,5831,64065536,51873048,0.741174885424719,0.2319322865630698,1.0,1024,0,1,1,617.1441519988604,0.7816353905000322,0.0765299245951863,646.2516065523807
1024,256,255.9486256636953,246288,41951,32219136,29686648,0.591075789200799,0.1279643173855137,0.4338578079864719,1024,0,1,1,1489.5470236011784,0.9009425009689468,0.0564099066928185,646.2516065523807
1024,512,171.351126870289,287747,39334,32743424,30036272,0.696584153657006,0.1389290561990881,0.5571051352575805,1024,0,1,1,1160.0173210637931,0.8872990214467616,0.0477762650175442,646.2516065523807
128,1024,183.1053744360288,256505,32942,37335040,30148336,0.7819520941419488,0.2625153694804583,0.7537556745146053,128,0,1,1,857.3754445942263,0.7953946710577132,0.108967747505639,646.2516065523807
128,128,602.0302167503745,217183,52196,31956992,29888264,0.5681973491212847,0.1561688013952457,0.34907433209833694,128,0,1,1,1851.3294938292015,0.9177294630873528,0.0104588775168587,646.2516065523807
128,1536,176.08602473497876,232076,48866,43233280,31232752,0.6979321339115614,0.1517850523948126,0.8624715452258935,128,0,1,1,749.301945240545,0.7260339981016541,0.1362328931836314,646.2516065523807
128,2048,167.02226213195567,205820,27475,37195776,15570712,0.6548500079001075,0.1975179381871295,0.8317174557693632,128,0,1,1,777.0085887575594,0.7033862702911077,0.1239617626322096,646.2516065523807
128,256,231.64880099156537,258476,30307,32743424,29677984,0.48632236792135647,0.0416355553786482,0.3650723244606264,128,0,1,1,1770.2015826786674,0.9075393630426138,0.02214535665029,646.2516065523807
128,512,201.0046804461979,277740,43382,32481280,29763936,0.6856453962408869,0.1231700813270501,0.5296146684091748,128,0,1,1,1220.229810653759,0.8853192099600198,0.0457159735442366,646.2516065523807
1536,1024,149.53383659444387,278824,38299,39694336,29941128,0.737186759433339,0.2215727715384397,0.7433711241431689,1536,0,1,1,869.3525825303869,0.7663721915932953,0.1144903110631353,646.2516065523807
1536,128,582.7435881463956,362237,81604,33005568,30213328,0.43273008401068785,0.0654128035945352,0.2494083605603574,1536,0,1,1,2591.138505142398,0.9167597360852244,0.0107166184813391,646.2516065523807
1536,1536,167.7967786840511,206287,36438,37195776,15559448,0.7091085583843537,0.2657671488319411,0.9262072178293193,1536,0,1,1,697.7397650462615,0.7127308349143409,0.1328639644039079,646.2516065523807
1536,2048,138.60915260035182,202250,23103,63803392,51790888,0.6409768527564529,0.1941569379786179,1.0,1536,0,1,1,608.2165017339987,0.7486880275775454,0.0962182344169042,646.2516065523807
1536,256,282.3008021929361,237918,45574,32743424,29616816,0.5918701133621604,0.1153219659540099,0.4200489601296663,1536,0,1,1,1538.5149539541467,0.9094829924789458,0.018357416970624,646.2516065523807
1536,512,155.13490298894,273576,35551,32743424,29613464,0.6553963222099235,0.0863100224837096,0.5533619802766205,1536,0,1,1,1167.864127978806,0.8798159159430572,0.0542712257155693,646.2516065523807
2048,1024,195.92142706900336,254562,54914,38907904,30902688,0.7456764596817411,0.236773987366465,0.7205329670437123,2048,0,1,1,896.9077559405756,0.7741984404404237,0.1124371056122648,646.2516065523807
2048,128,320.48496545589114,261610,65996,32743424,29633976,0.598657060013576,0.0826041133860238,0.36491913002432325,2048,0,1,1,1770.944720024148,0.9155061822545844,0.0101371742920562,646.2516065523807
2048,1536,178.40040520779766,197459,26124,37720064,15562120,0.7040421682087664,0.1831220367896223,0.866360292779157,2048,0,1,1,745.9386261566768,0.7173428992425127,0.1414419158498479,646.2516065523807
2048,2048,154.08492663969994,199557,26153,36933632,15561888,0.7076863361884547,0.2873889043086277,0.9964353170443722,2048,0,1,1,648.5635299131038,0.7282479788282132,0.1293638000156652,646.2516065523807
2048,256,279.8466922036479,270370,37731,33005568,29963048,0.6318714539060616,0.1686691287957944,0.43922455637739166,2048,0,1,1,1471.3467113097993,0.8968669185814041,0.0406064049304408,646.2516065523807
2048,512,189.2058261018133,298424,37670,32743424,30215088,0.6644337978125476,0.1150445896205193,0.5196982572338639,2048,0,1,1,1243.513130084575,0.8862049766323731,0.049724818980382,646.2516065523807
256,1024,161.097894639201,281590,21358,37335040,30258568,0.7075903923542456,0.1978492296959044,0.7070544659982204,256,0,1,1,914.0054092438294,0.7882528434136212,0.0980608218151424,646.2516065523807
256,128,885.3243342368136,248466,52825,32743424,29636280,0.513440227635386,0.1165684399726927,0.283511182020361,256,0,1,1,2279.457204992954,0.9136197945409538,0.0094732726919352,646.2516065523807
256,1536,141.29404948762803,186460,26159,69832704,51742384,0.6800141684033224,0.2042893864368683,1.0,256,0,1,1,610.2624866098082,0.7571939914771544,0.0872665196491457,646.2516065523807
256,2048,172.29790938582084,282882,34667,50049024,29959080,0.7133304061395457,0.2581279598504356,1.0,256,0,1,1,632.9576147166131,0.7222787109031159,0.1180502417061021,646.2516065523807
256,256,269.83562394923973,244239,45648,32743424,29956048,0.5779702393254844,0.1059418751307298,0.42281293296118744,256,0,1,1,1528.457519088481,0.9059618023026196,0.0384707475277493,646.2516065523807
256,512,217.19706012233704,264629,29797,32481280,30344408,0.670175073050097,0.1252384257146348,0.5112401203574489,256,0,1,1,1264.0862499221198,0.8742249282182527,0.0812521172997826,646.2516065523807
512,1024,114.85352943272274,246265,37776,36810752,30180240,0.7497260913375956,0.3081483060990505,0.6703755456951725,512,0,1,1,964.0142912465944,0.7769544757881985,0.0959050010790824,646.2516065523807
512,128,1024.2794303484663,295022,41504,32743424,29711016,0.666705208890125,0.2739628066912989,0.27924390595112186,512,0,1,1,2314.2908145164643,0.9161656852143716,0.0071341033323013,646.2516065523807
512,1536,129.77549412523825,312862,24458,51097600,31089424,0.6443500476772092,0.1790417317665518,0.9042445660006958,512,0,1,1,714.686746098603,0.7318406608163144,0.1148388755196572,646.2516065523807
512,2048,129.0176948097899,263802,26288,50311168,29946976,0.7291363857971159,0.2447447613796702,1.0,512,0,1,1,593.6184207801567,0.7264084386512975,0.1205250397609315,646.2516065523807
512,256,272.3946764951315,302185,57041,33005568,29781416,0.528891534081645,0.0549864535006729,0.39565368360310255,512,0,1,1,1633.3769489194592,0.9069790668061491,0.0254643833716661,646.2516065523807
512,512,192.644443437717,234550,55003,32481280,29825064,0.6742334847828371,0.1009965825247054,0.5109753258312748,512,0,1,1,1264.7413170118011,0.8793298483458608,0.0506038253323539,646.2516065523807
