cpu,memory,duration_std,userDiff,sysDiff,heapTotal,heapUsed,avg_cpu_util,cpu_util_std,slo_preservation,total_cpu_shares,cpu_shares_others,num_containers,arrival_rate,latency,memory_util,memory_util_std,slo_duration
1024,1024,29.76364900618669,24853,7505,25530368,14561032,0.7426936336339607,0.2819778500993976,0.5551629621785852,1024,0,1,1,52.65110681920115,0.6588322692338312,0.0702649914875956,29.229944423728817
1024,128,25.45992796909828,5688,3371,24567808,21011616,0.5368473736058236,0.2893070779815555,0.5521992113081252,1024,0,1,1,52.93369462532356,0.8601872525644536,0.0115485122554419,29.229944423728817
1024,1536,11.387572102801258,7924,30,33787904,14741968,0.9361028577301049,0.2309390560949175,1.0,1024,0,1,1,21.952245825353664,0.5543305692549683,0.0879673311547215,29.229944423728817
1024,2048,9.525093378072857,15759,9765,34312192,14720816,0.9810407960419368,0.1726241309205772,1.0,1024,0,1,1,23.995403746317486,0.5153052178308842,0.0473277416353714,29.229944423728817
1024,256,20.500344704173965,9451,53,24829952,21125424,0.8172085399816016,0.4763030549349306,0.718753961147172,1024,0,1,1,40.66752463816153,0.8536872740386944,0.0115327934117222,29.229944423728817
1024,512,47.52723644080525,6139,3624,24305664,20759112,0.5580153902163448,0.2894587383415481,0.37755928709319736,1024,0,1,1,77.41815768529526,0.862594858912896,0.0153223475891455,29.229944423728817
128,1024,13.708400441614613,7468,28,30474240,24460920,0.8653084887557018,0.2434055408365358,0.8689863600575018,128,0,1,1,33.63682765031506,0.6630638280886277,0.0806139920212557,29.229944423728817
128,128,23.93162441325105,9431,0,24567808,21246976,0.37762902411629795,0.1333125339475504,0.4874910049013341,128,0,1,1,59.95996670675969,0.8523197481388335,0.0124882600075096,29.229944423728817
128,1536,6.973265448317258,21957,3630,34574336,14719520,1.013806745212395,0.1223769357732745,1.0,128,0,1,1,19.089718682018933,0.5430054189002063,0.0658407251880711,29.229944423728817
128,2048,10.330560442037909,24542,4961,34312192,14717936,0.9487706876661224,0.2936862590063515,1.0,128,0,1,1,27.471427272024066,0.5087506509423488,0.0437811822355507,29.229944423728817
128,256,43.3490021470438,7976,775,24567808,21119432,0.5610572879018406,0.3285987886369888,0.3834530725838707,128,0,1,1,76.22821803660344,0.8568175735205898,0.0109043754946295,29.229944423728817
128,512,23.13058815004683,8103,28,24567808,21130344,0.7323693310282149,0.3592978913670537,0.6490364147393641,128,0,1,1,45.03590824787048,0.8604266054904226,0.0201698746385823,29.229944423728817
1536,1024,22.480483468425813,21656,28,25792512,14564544,0.8570717845737467,0.2307934574568692,0.6934825311282257,1536,0,1,1,42.149503573182535,0.6522837675369305,0.0684790340744638,29.229944423728817
1536,128,45.39550920585733,6114,306,24829952,20895768,0.7503138021879324,0.4617195966207916,0.49128084551961326,1536,0,1,1,59.49742329728562,0.8464494308382658,0.0132098101518745,29.229944423728817
1536,1536,11.694769830306235,5505,318,38207488,25420464,0.9678507214041081,0.268973002584732,1.0,1536,0,1,1,23.27655659720346,0.5647909232878208,0.0996787713739349,29.229944423728817
1536,2048,10.836949173524484,5310,319,38993920,24473192,0.9580092265601967,0.2678593696604798,1.0,1536,0,1,1,18.910612456721875,0.512768280195514,0.0481825888297552,29.229944423728817
1536,256,38.7090395460253,11274,3458,25354240,20807432,0.6361489915612444,0.3720596993590359,0.5056686558242097,1536,0,1,1,57.80454075423313,0.8521096146776712,0.0158141271424323,29.229944423728817
1536,512,29.527428744535417,8182,54,24567808,21236240,0.8240903496795929,0.4057498059279965,0.8098787375604767,1536,0,1,1,36.09175431840018,0.861471617154456,0.0127239963148067,29.229944423728817
2048,1024,13.985676117619592,19022,623,25530368,14565784,0.8681312391090008,0.2715155284702994,1.0,2048,0,1,1,27.612694227374135,0.6513730109278897,0.0574869102890817,29.229944423728817
2048,128,54.94544085002789,9578,1176,25092096,20776512,0.890946751971738,0.4569041925457008,0.5154239918223451,2048,0,1,1,56.710484741664324,0.8528260799606787,0.0114438521322089,29.229944423728817
2048,1536,4.618175838633512,2030,3623,38731776,24604336,1.0321331050050362,0.191626069200512,1.0,2048,0,1,1,13.690414320937126,0.590865163699015,0.0939435520528542,29.229944423728817
2048,2048,12.9266396935276,5403,224,39518208,24251040,0.9905082352287707,0.184884776625977,1.0,2048,0,1,1,23.20988552621798,0.5146445810794134,0.0481459077711429,29.229944423728817
2048,256,202.99137161175543,8538,75,24567808,21230056,0.7529634757643492,0.4254827727128782,0.19763967246509082,2048,0,1,1,147.89512681919524,0.8555572793346305,0.0137227803436181,29.229944423728817
2048,512,37.29991152986818,7630,676,24567808,21142632,0.7754588259423877,0.432338385329596,0.48556070425117037,2048,0,1,1,60.198331882739794,0.8600480255023131,0.0154877110711985,29.229944423728817
256,1024,11.381135668523005,8435,54,25530368,14590872,0.9119394496181444,0.2740706840718705,0.9472146469958218,256,0,1,1,30.858839141090428,0.6550913016357431,0.0562732724980352,29.229944423728817
256,128,41.23374147225958,8550,57,25354240,20810136,0.4853294692794932,0.2518049480970172,0.4597778968323896,256,0,1,1,63.574053091952976,0.856530156486607,0.015022788126468,29.229944423728817
256,1536,2.5624519963467023,8297,45,38207488,25653296,1.0082453289043454,0.1768928546806228,1.0,256,0,1,1,14.211395631168763,0.5971045697617275,0.089413441840116,29.229944423728817
256,2048,12.152039975979685,24599,831,34574336,14725920,0.9601547762863825,0.2235048964526362,0.9474121191023899,256,0,1,1,30.852407135579234,0.5063824913369268,0.0445060274498085,29.229944423728817
256,256,64.6211087183738,7029,2486,24567808,21061440,0.6489480296908783,0.4029847177639883,0.32897589383054554,256,0,1,1,88.85132610593368,0.8573822897160129,0.016735566926059,29.229944423728817
256,512,18.933699852712163,7460,644,24567808,21087640,0.7739750839221836,0.448675489935342,0.632327725516748,256,0,1,1,46.22594146072221,0.8552130777133623,0.0139959087055174,29.229944423728817
512,1024,16.052354583065874,14865,7851,25530368,14566064,0.8542008189711899,0.3369534548998061,0.6766150216170623,512,0,1,1,43.20025936443342,0.6576751017511688,0.0837111842648599,29.229944423728817
512,128,29.815163113370154,5659,3976,24567808,21201640,0.3986154689571901,0.2201824710400968,0.4255072318749975,512,0,1,1,68.69435401820805,0.8599108379083479,0.0095308251991441,29.229944423728817
512,1536,5.02250795712538,7890,34,38993920,24520392,1.044421175319168,0.1735043502200377,1.0,512,0,1,1,14.728208428750785,0.5888716817827749,0.0916404161814619,29.229944423728817
512,2048,11.23317621396854,26232,267,34574336,14717568,0.9794889644853659,0.2439467922188066,1.0,512,0,1,1,25.317025295048367,0.5109973460197178,0.0470853419361673,29.229944423728817
512,256,56.8331285775724,8616,245,24829952,21019784,0.5699868362382033,0.3870771189367091,0.34109159531195055,512,0,1,1,85.69529365564145,0.8540818105984341,0.0152213900769875,29.229944423728817
512,512,57.70074306464492,8924,37,24567808,21088264,0.7534111158274094,0.4613020864556927,0.37860591780230274,512,0,1,1,77.20414037213192,0.8607295550406062,0.0149342048727472,29.229944423728817
