cpu,memory,duration_std,userDiff,sysDiff,heapTotal,heapUsed,avg_cpu_util,cpu_util_std,slo_preservation,total_cpu_shares,cpu_shares_others,num_containers,arrival_rate,latency,memory_util,memory_util_std,slo_duration
1024,1024,29.76364900618669,24853,7505,25530368,14561032,0.6840255874941246,0.2819778500993976,0.681744852631647,1024,0,1,1,42.87519635960057,0.6588322692338312,0.0702649914875956,29.229944423728817
1024,128,25.45992796909828,5688,3371,24567808,21011616,0.4650508639275197,0.2893070779815555,0.6377994514011047,1024,0,1,1,45.82936589160915,0.8601872525644536,0.0115485122554419,29.229944423728817
1024,1536,11.387572102801258,7924,30,33787904,14741968,0.9165805648128817,0.2309390560949175,1.0,1024,0,1,1,16.814855812676832,0.5543305692549683,0.0879673311547215,29.229944423728817
1024,2048,9.525093378072857,15759,9765,34312192,14720816,0.9748798142973161,0.1726241309205772,1.0,1024,0,1,1,18.110286248158744,0.5153052178308842,0.0473277416353714,29.229944423728817
1024,256,20.500344704173965,9451,53,24829952,21125424,0.7702752915928187,0.4763030549349306,0.903300100149216,1024,0,1,1,32.35906252960708,0.8536872740386944,0.0115327934117222,29.229944423728817
1024,512,47.52723644080525,6139,3624,24305664,20759112,0.4863607367361982,0.2894587383415481,0.4387692914372777,1024,0,1,1,66.61802681764763,0.862594858912896,0.0153223475891455,29.229944423728817
128,1024,13.708400441614613,7468,28,30474240,24460920,0.8281278897637576,0.2434055408365358,1.0,128,0,1,1,26.36026952515753,0.6630638280886277,0.0806139920212557,29.229944423728817
128,128,23.93162441325105,9431,0,24567808,21246976,0.3127473911123965,0.1333125339475504,0.538311518225885,128,0,1,1,54.29931077837985,0.8523197481388335,0.0124882600075096,29.229944423728817
128,1536,6.973265448317258,21957,3630,34574336,14719520,1.0184941080959973,0.1223769357732745,1.0,128,0,1,1,14.251397291009468,0.5430054189002063,0.0658407251880711,29.229944423728817
128,2048,10.330560442037909,24542,4961,34312192,14717936,0.9328410852284418,0.2936862590063515,1.0,128,0,1,1,20.955406036012032,0.5087506509423488,0.0437811822355507,29.229944423728817
128,256,43.3490021470438,7976,775,24567808,21119432,0.48944457777215755,0.3285987886369888,0.44601274831928706,128,0,1,1,65.53611871830171,0.8568175735205898,0.0109043754946295,29.229944423728817
128,512,23.13058815004683,8103,28,24567808,21130344,0.672385656661743,0.3592978913670537,0.7945040067133342,128,0,1,1,36.79017874893525,0.8604266054904226,0.0201698746385823,29.229944423728817
1536,1024,22.480483468425813,21656,28,25792512,14564544,0.8180954757735454,0.2307934574568692,0.8825941715428884,1536,0,1,1,33.118216011591265,0.6522837675369305,0.0684790340744638,29.229944423728817
1536,128,45.39550920585733,6114,306,24829952,20895768,0.692664235728145,0.4617195966207916,0.6047117359828532,1536,0,1,1,48.33698882364281,0.8464494308382658,0.0132098101518745,29.229944423728817
1536,1536,11.694769830306235,5505,318,38207488,25420464,0.957588791788273,0.268973002584732,1.0,1536,0,1,1,17.64449857360173,0.5647909232878208,0.0996787713739349,29.229944423728817
1536,2048,10.836949173524484,5310,319,38993920,24473192,0.9447851403016305,0.2678593696604798,1.0,1536,0,1,1,14.381477153360938,0.512768280195514,0.0481825888297552,29.229944423728817
1536,256,38.7090395460253,11274,3458,25354240,20807432,0.5673399237647833,0.3720596993590359,0.6012973280393922,1536,0,1,1,48.61146567711657,0.8521096146776712,0.0158141271424323,29.229944423728817
1536,512,29.527428744535417,8182,54,24567808,21236240,0.7784450193000166,0.4057498059279965,1.0,1536,0,1,1,28.656037709200092,0.861471617154456,0.0127239963148067,29.229944423728817
2048,1024,13.985676117619592,19022,623,25530368,14565784,0.8315781778116612,0.2715155284702994,1.0,2048,0,1,1,21.61983361368707,0.6513730109278897,0.0574869102890817,29.229944423728817
2048,128,54.94544085002789,9578,1176,25092096,20776512,0.8596958761032187,0.4569041925457008,0.6631266185604549,2048,0,1,1,44.07897919583216,0.8528260799606787,0.0114438521322089,29.229944423728817
2048,1536,4.618175838633512,2030,3623,38731776,24604336,1.0433080136568467,0.191626069200512,1.0,2048,0,1,1,10.157831860468564,0.590865163699015,0.0939435520528542,29.229944423728817
2048,2048,12.9266396935276,5403,224,39518208,24251040,0.9873842289487694,0.184884776625977,1.0,2048,0,1,1,17.462489838108993,0.5146445810794134,0.0481459077711429,29.229944423728817
2048,256,202.99137161175543,8538,75,24567808,21230056,0.6956775541121417,0.4254827727128782,0.2434708337771039,2048,0,1,1,120.05521963459762,0.8555572793346305,0.0137227803436181,29.229944423728817
2048,512,37.29991152986818,7630,676,24567808,21142632,0.7214596906200329,0.432338385329596,0.602331529406602,2048,0,1,1,48.52799994136989,0.8600480255023131,0.0154877110711985,29.229944423728817
256,1024,11.381135668523005,8435,54,25530368,14590872,0.8859341661924778,0.2740706840718705,1.0,256,0,1,1,23.823490945545213,0.6550913016357431,0.0562732724980352,29.229944423728817
256,128,41.23374147225958,8550,57,25354240,20810136,0.41426028275259197,0.2518049480970172,0.5232671373474489,256,0,1,1,55.86046273018701,0.856530156486607,0.015022788126468,29.229944423728817
256,1536,2.5624519963467023,8297,45,38207488,25653296,1.0110240709026128,0.1768928546806228,1.0,256,0,1,1,10.629252315584381,0.5971045697617275,0.089413441840116,29.229944423728817
256,2048,12.152039975979685,24599,831,34574336,14725920,0.9475694046489108,0.2235048964526362,1.0,256,0,1,1,23.446635617789617,0.5063824913369268,0.0445060274498085,29.229944423728817
256,256,64.6211087183738,7029,2486,24567808,21061440,0.580965054055263,0.4029847177639883,0.39268372647792593,256,0,1,1,74.43635285296685,0.8573822897160129,0.016735566926059,29.229944423728817
256,512,18.933699852712163,7460,644,24567808,21087640,0.7197480838398282,0.448675489935342,0.78403328178324,256,0,1,1,37.28150973036111,0.8552130777133623,0.0139959087055174,29.229944423728817
512,1024,16.052354583065874,14865,7851,25530368,14566064,0.8146109492200612,0.3369534548998061,0.8603410232890714,512,0,1,1,33.97483513221671,0.6576751017511688,0.0837111842648599,29.229944423728817
512,128,29.815163113370154,5659,3976,24567808,21201640,0.33205185299257767,0.2201824710400968,0.4726040534769427,512,0,1,1,61.84869598278823,0.8599108379083479,0.0095308251991441,29.229944423728817
512,1536,5.02250795712538,7890,34,38993920,24520392,1.0601184105776165,0.1735043502200377,1.0,512,0,1,1,10.882595239375393,0.5888716817827749,0.0916404161814619,29.229944423728817
512,2048,11.23317621396854,26232,267,34574336,14717568,0.9728376618744724,0.2439467922188066,1.0,512,0,1,1,19.11758857252418,0.5109973460197178,0.0470853419361673,29.229944423728817
512,256,56.8331285775724,8616,245,24829952,21019784,0.49852884728851776,0.3870771189367091,0.39777292858884,512,0,1,1,73.48399632782073,0.8540818105984341,0.0152213900769875,29.229944423728817
512,512,57.70074306464492,8924,37,24567808,21088264,0.6961871145746438,0.4613020864556927,0.46646610496085933,512,0,1,1,62.66252598606596,0.8607295550406062,0.0149342048727472,29.229944423728817
