cpu,memory,duration_std,userDiff,sysDiff,heapTotal,heapUsed,avg_cpu_util,cpu_util_std,slo_preservation,total_cpu_shares,cpu_shares_others,num_containers,arrival_rate,latency,memory_util,memory_util_std,slo_duration
1024,1024,84.22723681638378,252554,66559,48959488,37297096,0.8859871182154767,0.1032710722360144,1.0,1024,0,1,1,377.1527050341659,0.7643907206435163,0.0464014397602768,463.2099457314813
1024,128,787.2662785923737,176244,54687,27320320,22978152,0.4432723418030573,0.1850506318642068,0.3556463053099522,1024,0,1,1,1302.4455443949723,0.8791631523248602,0.0234301950095074,463.2099457314813
1024,1536,59.46001579427843,132264,43162,52936704,36085976,0.9268019075431588,0.1327397881012555,1.0,1024,0,1,1,300.2979013321115,0.6948726656544856,0.0532200997134839,463.2099457314813
1024,2048,42.03469729733333,164088,57984,63037440,43044432,1.0399592402000322,0.1727992486052624,1.0,1024,0,1,1,240.92718569189003,0.6830425359597249,0.0561187865376499,463.2099457314813
1024,256,265.18167081696686,200654,42334,36851712,32400688,0.5465755910120734,0.1579042241572939,0.5396492719729813,1024,0,1,1,858.3536933867538,0.8808713193521779,0.0206880376234875,463.2099457314813
1024,512,144.00069724777123,167542,57553,43016192,38596728,0.6049298333422963,0.13961223383929,0.6881868370046144,1024,0,1,1,673.0874826778697,0.8749442804658208,0.0258794785511604,463.2099457314813
128,1024,91.70900241771284,175084,51858,31969280,21851840,0.8530468110348012,0.1577296064861601,1.0,128,0,1,1,420.00421061953466,0.7592340141022156,0.0549403067595274,463.2099457314813
128,128,422.66716116353234,191768,41696,34639872,29447384,0.5262195895696727,0.2105813625724191,0.4871174349947328,128,0,1,1,950.9204812931608,0.8719256704807646,0.0270117840647404,463.2099457314813
128,1536,77.01136224455222,108105,44775,41943040,27097896,0.9650472683689405,0.1876666982340296,1.0,128,0,1,1,281.1514888561688,0.679214735023481,0.0410180133881364,463.2099457314813
128,2048,39.14444373919688,83478,22279,46510080,28507296,1.0871316900848356,0.1390429570469958,1.0,128,0,1,1,214.08736941131207,0.6433625520624953,0.0481083470267512,463.2099457314813
128,256,514.0067855700195,275022,62323,27582464,23392704,0.4050967644187227,0.1040674816974551,0.39350809015155236,128,0,1,1,1177.1294093422184,0.8820121830386127,0.0215641044869403,463.2099457314813
128,512,209.4346656706809,114751,20956,31199232,26083424,0.6905392035332281,0.2711200253246634,0.7562017478548401,128,0,1,1,612.5481024680186,0.8798533705884807,0.0203146343548501,463.2099457314813
1536,1024,101.65108363113018,132139,27141,31285248,21041424,0.8007216326806524,0.1346786509834822,1.0,1536,0,1,1,393.07053060940416,0.7569647001360268,0.0625004428252454,463.2099457314813
1536,128,508.9816404362423,373169,66730,37212160,32799600,0.4631768340179328,0.1711711875941372,0.43782563675372543,1536,0,1,1,1057.9781238165237,0.8799668274868792,0.0223738556672025,463.2099457314813
1536,1536,61.14092964388674,121177,9335,53817344,35867480,0.9293402313781951,0.172539729566968,1.0,1536,0,1,1,251.196522302743,0.6616641909145098,0.0521397283234759,463.2099457314813
1536,2048,60.89991057883731,41035,22949,47128576,29237600,1.0806108536703583,0.1115090687824035,1.0,1536,0,1,1,218.16648976615767,0.669169762716882,0.0622829787064143,463.2099457314813
1536,256,350.47056023085133,147061,44513,39944192,35505136,0.4826652225552544,0.2625944452083892,0.40978552278621777,1536,0,1,1,1130.3716699946344,0.8797305356588059,0.0229132622276413,463.2099457314813
1536,512,309.5326812289589,134176,23137,30412800,26452352,0.6067595524534598,0.1545953571464909,0.6687995333612752,1536,0,1,1,692.5990863113573,0.8728381439005513,0.0201094874965569,463.2099457314813
2048,1024,89.8555532954652,181616,83978,39952384,28296080,0.8071977036218442,0.1226371590087299,1.0,2048,0,1,1,400.1229844601485,0.7661688835945695,0.0537814433084007,463.2099457314813
2048,128,289.1984673980357,240060,84381,31424512,27776736,0.6150316388283594,0.1940515376214319,0.6362447465402101,2048,0,1,1,728.037360230222,0.8654408690693961,0.0316419636349093,463.2099457314813
2048,1536,50.45046967803898,147836,32864,54067200,38535232,0.9442628064451687,0.1617985974947073,1.0,2048,0,1,1,307.3924128440133,0.6890837033044847,0.0449168927284933,463.2099457314813
2048,2048,40.31894824411496,148501,58940,56807424,36628600,1.0299800042297835,0.1241291916991338,1.0,2048,0,1,1,252.56849134440765,0.6572210262788624,0.0570631460748251,463.2099457314813
2048,256,551.7041005869945,245976,61903,36057088,31657552,0.49619780566396715,0.2943065219159761,0.3904125118382333,2048,0,1,1,1186.4628609121305,0.8873419386992458,0.0200782897786895,463.2099457314813
2048,512,199.94678314542307,325268,74541,37736448,33131616,0.5297160613487462,0.0788761863965116,0.5705379129641563,2048,0,1,1,811.8828481089602,0.8879118950722182,0.0248964255073818,463.2099457314813
256,1024,70.82657613836147,108347,27112,30760960,20522576,0.8043393501633435,0.1508865019068781,1.0,256,0,1,1,366.61508416942877,0.7557731822819371,0.0503846622147587,463.2099457314813
256,128,607.0041225529994,248842,54463,35778560,31867600,0.4696302813294328,0.2452769500999717,0.41019189816750856,256,0,1,1,1129.2518155546845,0.8778488880617394,0.0288682066880101,463.2099457314813
256,1536,81.52449104769235,77838,38925,67207168,48158152,0.9568142925407555,0.1322787753628367,1.0,256,0,1,1,332.27381347250446,0.6926109516073018,0.0589450133725452,463.2099457314813
256,2048,54.37382664982337,165630,49422,55414784,35344432,1.0662882811133276,0.1780719582818957,1.0,256,0,1,1,237.9113915257613,0.6999846175871203,0.0612099594515244,463.2099457314813
256,256,468.3485554732685,177130,33076,24596480,19829112,0.526154412357313,0.3081113376039792,0.4659109554685401,256,0,1,1,994.2027340088139,0.8751278519938065,0.0236853530815048,463.2099457314813
256,512,193.05341899472592,161524,37344,39682048,35386008,0.6721218941302625,0.2133237950579518,0.762188769452619,256,0,1,1,607.7365139664084,0.871762394696052,0.0374360343826738,463.2099457314813
512,1024,76.88342064349317,172894,60639,60145664,48807512,0.8640175633088661,0.1023528347642997,1.0,512,0,1,1,405.4043426126556,0.7729703256492542,0.0436557257466325,463.2099457314813
512,128,313.471502616617,244280,37130,44171264,40616912,0.5718955841256559,0.2326529933020216,0.5668077465362023,512,0,1,1,817.2258557900565,0.884385982897047,0.0220587426936257,463.2099457314813
512,1536,51.89455594469508,152670,48000,58621952,38633328,0.9534744140815972,0.1306250900509983,1.0,512,0,1,1,344.33619757739837,0.6557512465005604,0.0548717340903011,463.2099457314813
512,2048,50.00699330279343,60460,20122,46510080,28258112,1.07214543074732,0.1228381446353454,1.0,512,0,1,1,219.40093822220354,0.6737056851098184,0.0526474389331295,463.2099457314813
512,256,323.7232674537896,112156,25942,26537984,21998392,0.7053531006623402,0.371610763434723,0.6669626252322952,512,0,1,1,694.5066008311196,0.8814847491009976,0.0277471129967583,463.2099457314813
512,512,242.98239235872887,170926,44454,42881024,38461656,0.588907643952738,0.1332142543823218,0.6274514683649396,512,0,1,1,738.2402768751961,0.8770122398352902,0.0201276047993077,463.2099457314813
