cpu,memory,duration_std,userDiff,sysDiff,heapTotal,heapUsed,avg_cpu_util,cpu_util_std,slo_preservation,total_cpu_shares,cpu_shares_others,num_containers,arrival_rate,latency,memory_util,memory_util_std,slo_duration
1024,1024,54.21074741405566,166652,47582,25792512,14725136,0.9953074196135312,0.16667930898225386,1,1024,0,1,1,139.25690079999998,0.6878792464253178,0.08466403539918699,148.61869404166663
1024,128,85.24603520003477,44743,8897,35295232,32107432,0.74605618085895,0.14376274656547827,0.6448565696451709,1024,0,1,1,230.46782965000003,0.8522212687805262,0.04820933037351073,148.61869404166663
1024,1536,42.54386740910222,46098,6820,47849472,31287136,1.017943959213063,0.1379808217863824,1,1024,0,1,1,89.9092297,0.657617827333268,0.07522951978650508,148.61869404166663
1024,2048,21.20544245240521,88728,26153,54124544,35052232,1.1199864150331824,0.14844473656078044,1,1024,0,1,1,63.840620999999985,0.6368223297249894,0.05454661826636152,148.61869404166663
1024,256,53.274565634681394,42456,11667,36401152,32368440,1.2456315964623101,0.2798840302175658,1,1024,0,1,1,97.90448055,0.8645462349939332,0.041571950360206264,148.61869404166663
1024,512,74.41405072110938,194580,52532,29278208,24889288,0.9132785166674123,0.1775018770094717,0.8975281152928721,1024,0,1,1,165.58667244999998,0.8572100322936288,0.04044280959466796,148.61869404166663
128,1024,67.59224092123556,182420,52664,25792512,14622088,0.8671862801389356,0.22332685926126739,0.9719482892588889,128,0,1,1,152.90802575,0.7334917552906919,0.08773649696273593,148.61869404166663
128,128,81.16170769680251,188806,42630,29016064,24886616,0.7511914860493294,0.1379768621104647,0.6028761907218113,128,0,1,1,246.51611115,0.848316844994498,0.054048582391621545,148.61869404166663
128,1536,35.19407696295931,68321,15215,55062528,37802864,1.16020913114661,0.17400184516569306,1,128,0,1,1,89.99062695,0.6080385598178727,0.10163977071868684,148.61869404166663
128,2048,31.77285796822462,84253,22425,54648832,34997904,1.1292443754386408,0.18744284684616871,1,128,0,1,1,63.224731450000014,0.617860078662187,0.07957260719746208,148.61869404166663
128,256,60.828898538010925,41025,28587,36216832,32291528,0.9079032078032737,0.1813424528462141,0.8553318398677688,128,0,1,1,173.75559649999997,0.8633269019325119,0.03631689783261715,148.61869404166663
128,512,104.83186069178177,39182,15440,35692544,32237976,0.7710110023814354,0.12017148780003827,0.8989918091285836,128,0,1,1,165.31707245,0.8651482692948955,0.03864796596853833,148.61869404166663
1536,1024,64.24164808267966,152696,52618,25792512,14742576,0.8173463810134354,0.146121860919008,0.6813376602050499,1536,0,1,1,218.12781345000002,0.6823297625607805,0.10590954083277283,148.61869404166663
1536,128,125.61756079246999,133509,25832,36327424,32484720,0.6418979263915969,0.13324528739192557,0.5280900869542033,1536,0,1,1,281.42678249999994,0.8603304174802584,0.04266839324198442,148.61869404166663
1536,1536,53.23463190185352,104095,38413,34836480,14984072,0.8823069093265736,0.1987951785768837,1,1536,0,1,1,141.37471335,0.5725679027661221,0.10402767881135214,148.61869404166663
1536,2048,36.76972739351098,33059,20208,44257280,26980488,1.0058619934186628,0.12554668051862342,1,1536,0,1,1,81.18564310000001,0.6367103493635239,0.06143833551930752,148.61869404166663
1536,256,108.50220591436334,108864,28182,27320320,23588328,0.7833962465171211,0.1652004867545075,0.7004680000963605,1536,0,1,1,212.17056884999997,0.8587398681878838,0.03987681230147241,148.61869404166663
1536,512,115.90415119516477,135162,27412,30703616,26219464,0.7446927670581831,0.11658310043808345,0.6581414627951004,1536,0,1,1,225.81572875,0.8564994079939845,0.03679702388262547,148.61869404166663
2048,1024,59.17150437629349,105940,36482,35852288,24552368,0.9638152311647076,0.1918577300501976,1,2048,0,1,1,126.29795035,0.7221316237862556,0.07567857944255209,148.61869404166663
2048,128,122.98858269544822,54907,3662,35954688,32153712,0.6288680210666131,0.20420514526090455,0.5985395969519219,2048,0,1,1,248.30219219999998,0.8358197272815788,0.04181783541285463,148.61869404166663
2048,1536,53.556685234423,85538,47395,34574336,14845064,0.9380177967608556,0.21497531412140986,1,2048,0,1,1,123.55540205,0.6243243002184733,0.11086216741978967,148.61869404166663
2048,2048,36.61991711458397,73265,46725,34574336,14746840,1.1076147462129664,0.1735852859971913,1,2048,0,1,1,93.44734904999999,0.6174599997350081,0.09154921335667783,148.61869404166663
2048,256,89.70212191299112,130924,23486,36327424,32465360,0.6972751485221652,0.14476555726929213,0.7203792161946351,2048,0,1,1,206.3061936,0.8633411276720837,0.04668326759154601,148.61869404166663
2048,512,109.46759114396747,30281,22849,35954688,32157992,0.7678581367679138,0.14273363044263854,0.7408596566573128,2048,0,1,1,200.60303284999998,0.8473725770036333,0.046019175705771534,148.61869404166663
256,1024,57.34314988190955,100576,30713,40214528,28758160,0.9055539496600682,0.20301102350685607,1,256,0,1,1,125.99922885000004,0.7448853387384315,0.0683113327598208,148.61869404166663
256,128,67.68297474276547,194177,46492,29016064,24910896,0.7850248885155615,0.20950469617159637,0.7372413170130161,256,0,1,1,201.58758144999996,0.8554039680297036,0.04967438663101088,148.61869404166663
256,1536,27.53466812641462,97530,56827,34574336,14851704,1.1146110407221534,0.18446753695181783,1,256,0,1,1,106.12556545,0.6048692553784278,0.095120364869073,148.61869404166663
256,2048,25.715298940218354,68268,23160,55586816,37955240,1.184753083597434,0.25301037247981695,1,256,0,1,1,80.74950785000001,0.6276120887639627,0.08560255119183757,148.61869404166663
256,256,68.51546663824205,152147,29333,36851712,32664984,0.9888139005669322,0.1612328127772327,1,256,0,1,1,134.13745070000002,0.8526652026164194,0.04773148547856087,148.61869404166663
256,512,83.14480607060003,97763,29700,27844608,23910152,0.796022220442947,0.1877468105471775,0.843822059079914,256,0,1,1,176.12563269999998,0.8558601755571793,0.040945548432081286,148.61869404166663
512,1024,68.88521094390258,99800,27132,25792512,14577176,0.7743506792055569,0.20563914000256875,0.8659293035078107,512,0,1,1,171.62913119999996,0.7285793292649878,0.09675727644266958,148.61869404166663
512,128,136.81662478508042,114420,19708,27582464,23802416,0.5431247730931426,0.08369909122123019,0.4538393272672984,512,0,1,1,327.46984474999994,0.8684993935425013,0.045241835033505644,148.61869404166663
512,1536,76.30803476951807,65830,27575,53862400,34900384,0.8707881887182026,0.18164767122641812,1,512,0,1,1,128.15215499999996,0.6201630267328391,0.08244519247924122,148.61869404166663
512,2048,21.169254689561956,80304,36122,55062528,37972856,0.9657138126000154,0.2004853974033958,1,512,0,1,1,75.64459035,0.6359122773547343,0.04178761972029512,148.61869404166663
512,256,46.729916650493216,28471,12255,35692544,32161816,1.2281684494589193,0.25503257760094433,1,512,0,1,1,102.28868795000002,0.8448010346604604,0.04441978475872986,148.61869404166663
512,512,50.58621218555168,51005,9398,34291712,29464880,1.1244231268037626,0.23516212232451653,1,512,0,1,1,120.7420954,0.8378485066163963,0.04698550851172574,148.61869404166663
