cpu,memory,duration_std,userDiff,sysDiff,heapTotal,heapUsed,avg_cpu_util,cpu_util_std,slo_preservation,total_cpu_shares,cpu_shares_others,num_containers,arrival_rate,latency,memory_util,memory_util_std,slo_duration
1024,1024,112.32115988973013,401063,86717,39432192,30030240,0.8354034024553141,0.1370268442716619,1.0,1024,0,1,1,639.5250360599453,0.7926952515656585,0.1032703367525544,702.7785206880735
1024,128,1181.3676402544104,355214,63819,32743424,30159872,0.44295054573386006,0.2621147819102009,0.278040113435173,1024,0,1,1,2527.6155731821455,0.9253092685115792,0.0097356926130887,702.7785206880735
1024,1536,88.63134016234868,307056,44927,51097600,30815232,1.000818559221562,0.1688909578001318,1.0,1024,0,1,1,389.9329579592643,0.6504297071145244,0.1287440360938154,702.7785206880735
1024,2048,67.19640733503718,322969,48008,50573312,30316024,1.1862093690505386,0.1994496243266397,1.0,1024,0,1,1,307.0111913680493,0.6948097834437488,0.1017916290657196,702.7785206880735
1024,256,542.5976175215352,334420,59690,32743424,30295064,0.47674951223493184,0.1234274892799182,0.44546601139560993,1024,0,1,1,1577.6254589801897,0.923304776247164,0.0136285514416272,702.7785206880735
1024,512,252.9441798281382,382120,53843,32743424,30554352,0.5848721410731325,0.1426837382556363,0.5962532651755662,1024,0,1,1,1178.6577310920738,0.9121079059056658,0.0462511330397321,702.7785206880735
128,1024,172.32018762602135,431213,49186,39432192,31101904,0.873480560709718,0.1035862247102254,1.0,128,0,1,1,581.2458173730689,0.8236546728035204,0.0561155258586056,702.7785206880735
128,128,1348.9880217210748,405512,64943,32743424,30381640,0.36794696535449667,0.1963253124089199,0.2624576739875534,128,0,1,1,2677.683262259657,0.925527352045546,0.0082566110002756,702.7785206880735
128,1536,68.79186650460595,401519,53804,49262592,30676288,1.2063611837272263,0.2418687647137146,1.0,128,0,1,1,316.5815595360337,0.6532118256013235,0.1162340303079847,702.7785206880735
128,2048,44.57564365461202,244415,44410,46379008,31571176,1.3428711725468594,0.2040868374210081,1.0,128,0,1,1,245.48676805364633,0.6920556814532226,0.0926777362832625,702.7785206880735
128,256,324.8550641843357,484780,86868,33005568,30006584,0.3283428202632972,0.0221894581350201,0.32574613490552334,128,0,1,1,2157.4423926531053,0.921812500371214,0.0116861221934839,702.7785206880735
128,512,224.6993729321136,341555,91205,32743424,30124136,0.5316278292910688,0.0845342027627907,0.573903357108642,128,0,1,1,1224.5589993212654,0.9146203928216404,0.0235650195452572,702.7785206880735
1536,1024,153.82309948070474,446954,97705,39170048,30207248,0.8704361853462226,0.1433307034743567,1.0,1536,0,1,1,570.5748912706549,0.7678292796769,0.1085395094722291,702.7785206880735
1536,128,576.7449623906815,358517,59918,32743424,30064392,0.48828527991263454,0.191503321694954,0.40029781159137184,1536,0,1,1,1755.6391774768858,0.9215537416280208,0.0117479585611543,702.7785206880735
1536,1536,69.70437180065169,426855,49636,49524736,30306696,1.2136778253767613,0.1761407758490199,1.0,1536,0,1,1,305.4242596328247,0.6603828137618375,0.1443159766893025,702.7785206880735
1536,2048,36.330645112746666,299682,46824,37982208,16034032,1.3281333336141863,0.1840900571355731,1.0,1536,0,1,1,233.70930323329495,0.7162636552723514,0.1235815180427393,702.7785206880735
1536,256,394.9360590419862,356614,60167,32743424,30223208,0.6579177162210631,0.2183673526255055,0.5906544702933679,1536,0,1,1,1189.8301901262435,0.9229817096930552,0.00799086995195,702.7785206880735
1536,512,201.4047174468949,376717,74103,32743424,30565664,0.5913628213525784,0.1146856072461244,0.6535726017535535,1536,0,1,1,1075.287609674119,0.9069386076719346,0.0355369073435951,702.7785206880735
2048,1024,135.36921893340843,496500,50647,39432192,31089536,0.8480991085611786,0.1318693934230788,1.0,2048,0,1,1,580.7919964029311,0.7937536646299247,0.060710394252759,702.7785206880735
2048,128,313.1685999360328,454767,80396,32481280,30609096,0.6454841847846668,0.1196795083793322,0.5565854469802668,2048,0,1,1,1262.6606112340373,0.923708563736214,0.0125996404935266,702.7785206880735
2048,1536,96.1974068612516,365102,55924,60628992,49623752,1.0587282730260763,0.1773859874652662,1.0,2048,0,1,1,418.390428147883,0.6832265037058398,0.1166592922279727,702.7785206880735
2048,2048,49.82748411701774,328474,71045,44806144,32287696,1.1916949525110399,0.1603001184047704,1.0,2048,0,1,1,333.09976308279784,0.6816735492322796,0.1134415620991278,702.7785206880735
2048,256,261.75989040243826,516852,64550,32481280,30426760,0.7854073055756631,0.2499709883020123,0.7744323813240775,2048,0,1,1,907.4756397537321,0.9029356520742218,0.0503569446493044,702.7785206880735
2048,512,271.25205369570136,414495,84636,32481280,29822704,0.6580846232210558,0.2245920113667114,0.6521566351754193,2048,0,1,1,1077.6222808789453,0.9187097268797032,0.0119641829427602,702.7785206880735
256,1024,127.85634283984189,333657,79578,27889664,15777192,0.9030048957759307,0.1282929718882538,1.0,256,0,1,1,580.7310435760921,0.7421155692030147,0.1104753486887186,702.7785206880735
256,128,1797.6071834173897,412591,67558,32481280,30322192,0.38877572927988074,0.1572305439216877,0.26223838605826016,256,0,1,1,2679.92238379602,0.928335335187664,0.0086054490960494,702.7785206880735
256,1536,63.26693115791837,300017,57401,49000448,32265736,1.1865617989335249,0.1908159080000716,1.0,256,0,1,1,324.5111231824261,0.7128027919164973,0.1089709960289831,702.7785206880735
256,2048,44.48798609138308,300157,58038,36147200,15916784,1.3294727482509547,0.1564597684020904,1.0,256,0,1,1,227.33674533137832,0.7240730951126954,0.1066623260600415,702.7785206880735
256,256,438.8781174315177,479071,79620,32481280,30643168,0.36577903257181194,0.0478575759321021,0.3557669711467503,256,0,1,1,1975.3900099910747,0.9182826094161958,0.0385952674787327,702.7785206880735
256,512,255.80427066399403,423497,45068,33005568,29932096,0.5244038468383987,0.0761722694741714,0.5875461863140231,256,0,1,1,1196.1247252696194,0.9201753523225188,0.0120065806583823,702.7785206880735
512,1024,178.2466256242941,432527,88312,39432192,30245720,0.8660446940373012,0.1315878335896064,1.0,512,0,1,1,675.7648717246408,0.7897806419863851,0.0626226736787251,702.7785206880735
512,128,919.8042498104446,418810,47493,32481280,30398936,0.47941716721699634,0.1873025835196473,0.34614176256306867,512,0,1,1,2030.3199344806708,0.9285204958419117,0.0105985110149345,702.7785206880735
512,1536,61.00146668271723,302328,82472,36409344,16071616,1.170403435513467,0.1979924242294652,1.0,512,0,1,1,311.69425930795006,0.6593032669061042,0.1429770845281982,702.7785206880735
512,2048,42.72356358146841,274422,54610,60891136,48861264,1.3410746802278133,0.2048417134110873,1.0,512,0,1,1,234.7867290092887,0.6820878862867534,0.1304116381646631,702.7785206880735
512,256,393.0262006136597,408854,54488,32743424,30006672,0.48575035326194455,0.1482971495786681,0.48054806039511044,512,0,1,1,1462.4521012742064,0.9155128756838876,0.041783255177712,702.7785206880735
512,512,236.62807421901368,423043,87923,32219136,30294536,0.5597649616418049,0.089126321505093,0.5784622707576816,512,0,1,1,1214.9081387236542,0.9027542956578144,0.0510453518236835,702.7785206880735
