cpu,memory,duration_std,userDiff,sysDiff,heapTotal,heapUsed,avg_cpu_util,cpu_util_std,slo_preservation,total_cpu_shares,cpu_shares_others,num_containers,arrival_rate,latency,memory_util,memory_util_std,slo_duration
1024,1024,13.062558217970896,38368,27,25530368,14786824,0.9020988158927425,0.1876180990536259,0.5645370650694238,1024,0,1,1,21.934151211979767,0.6512247436929902,0.0503006742306981,12.382641350000002
1024,128,11.50232434924696,31323,3849,19103744,14741704,0.8828718058489506,0.2587273751734282,0.5262564627587737,1024,0,1,1,23.529670847341173,0.8118887651760192,0.0204367208208056,12.382641350000002
1024,1536,8.304793065106525,14736,35,42745856,27312592,1.0238739124663945,0.148517750738209,0.8102700274341247,1024,0,1,1,15.28211698661989,0.5231044246211604,0.0592689769012687,12.382641350000002
1024,2048,4.150974678362075,13202,3362,42483712,27139296,1.0819001481176,0.2620864164976169,0.9893621603580931,1024,0,1,1,12.515782234402604,0.5129502608419471,0.0526042682611666,12.382641350000002
1024,256,12.72968542188284,24241,6516,19365888,14462456,0.9485540164359926,0.2161478855024648,0.5856116216418357,1024,0,1,1,21.1448012511837,0.8092261255559423,0.0258753525625125,12.382641350000002
1024,512,9.085922041901725,25895,3477,18841600,14634680,1.0018109115911544,0.1978226523427869,0.8395034955097114,1024,0,1,1,14.74995806000996,0.8116926289710162,0.0221546854124141,12.382641350000002
128,1024,8.929687633605612,27142,9445,25530368,14810696,0.9465356678352554,0.1898297977201821,0.6731459069832645,128,0,1,1,18.395181819486062,0.6556361013168128,0.039149083305533,12.382641350000002
128,128,12.106767817054225,27053,7818,18841600,14698264,0.8737097508286557,0.2039378122249505,0.5160270093542947,128,0,1,1,23.996110911896682,0.8329582041249564,0.031456688495826,12.382641350000002
128,1536,8.7508803544965,8376,8203,43008000,27242576,0.9368509514854726,0.1875954325666857,0.743260096174219,128,0,1,1,16.659903328238855,0.5214768543639686,0.0561871541517016,12.382641350000002
128,2048,3.695441757291535,12065,4039,42745856,27386120,1.0619624978360398,0.2600171247121708,0.9169812725421487,128,0,1,1,13.503701461286756,0.519999734471168,0.0571957538940311,12.382641350000002
128,256,7.687486026033363,29670,3414,18841600,14771192,0.9703005543667558,0.1952937522017546,0.6351221723838896,128,0,1,1,19.496471526923028,0.816404722357307,0.020522472619707,12.382641350000002
128,512,9.816599281637426,9948,3,28581888,25095392,0.9465604363263668,0.213770789184384,0.5976169487332744,128,0,1,1,20.720030407850036,0.8446436093170187,0.041807143130856,12.382641350000002
1536,1024,10.051771600438803,20059,4014,33964032,27323424,0.8717923528273223,0.2867587740782199,0.5926363945460942,1536,0,1,1,20.8941628694336,0.6656095204086203,0.0598808575298176,12.382641350000002
1536,128,9.86123168057778,26908,4552,28581888,23927536,0.9097094122829552,0.2199817917963276,0.6307213707236649,1536,0,1,1,19.632506404202932,0.8602871513924649,0.0362978544353346,12.382641350000002
1536,1536,7.520195256224585,8746,8167,42745856,27409568,0.9912920535645496,0.2251864431391052,0.8191506489215901,1536,0,1,1,15.11643965160953,0.5280685936773326,0.0552948647415475,12.382641350000002
1536,2048,4.6802757352697295,12755,3153,42483712,27357712,1.077807478667966,0.1532265511750529,1.0,1536,0,1,1,11.631377529502927,0.5259263273731516,0.0622724621900771,12.382641350000002
1536,256,7.155614912079468,17115,216,18841600,14759104,0.9386067410212422,0.2417883200538468,0.773013040934958,1536,0,1,1,16.018670700591567,0.813960779928065,0.0217558819677875,12.382641350000002
1536,512,5.515097433587084,23046,7807,18841600,14731440,0.9916356370099055,0.177744134358793,1.0,1536,0,1,1,12.310611040314473,0.8238002618000232,0.0196894050868641,12.382641350000002
2048,1024,9.893670560307775,49506,25,33964032,27307696,0.9357191760970058,0.19916472928901,0.7389766656572087,2048,0,1,1,16.75647138193126,0.666877982004929,0.0617034854728868,12.382641350000002
2048,128,14.988781916657326,29814,4276,19365888,14458928,0.8541196533030586,0.2480683359270891,0.5650949119329225,2048,0,1,1,21.912498393667782,0.8256436529866764,0.0433172845423393,12.382641350000002
2048,1536,12.92937899477196,11900,3981,42483712,27314224,0.9783090479466534,0.1454462383662107,0.6682841172416134,2048,0,1,1,18.529007394504852,0.5154868179063523,0.0578799259656434,12.382641350000002
2048,2048,5.652804705033437,12028,4024,42745856,27404496,1.105238641885552,0.3311013261189338,0.9541835350780937,2048,0,1,1,12.977211296133467,0.5175145364934404,0.0566854989327742,12.382641350000002
2048,256,6.629901198259768,33979,4290,19103744,14455536,1.0247492049533538,0.1313876861760991,1.0,2048,0,1,1,11.849615835465213,0.8190306958399398,0.0231636868934059,12.382641350000002
2048,512,5.709454759811854,8841,7604,18579456,14756880,0.9775545670860246,0.1836384393941981,1.0,2048,0,1,1,12.30327268417253,0.8553448241797283,0.0349456863566286,12.382641350000002
256,1024,8.24465866621715,36148,25,25268224,14646376,1.0276110557216487,0.1925087932854431,0.6598062620115362,256,0,1,1,18.76708673883956,0.6698947652487262,0.0546304561950715,12.382641350000002
256,128,10.13958548700517,2446,396,28844032,24759072,0.9298552674428239,0.2419758080563465,0.5893675016297694,256,0,1,1,21.010051140856028,0.8584266213454864,0.0363738873293607,12.382641350000002
256,1536,11.547747000688071,23705,3088,42483712,27573152,0.9577140800599837,0.1683876692980921,0.6600842318609864,256,0,1,1,18.759183680375784,0.525384363502375,0.0565614145006404,12.382641350000002
256,2048,7.687032710077021,7341,7705,42483712,27347128,1.064193773855018,0.2222065602635871,0.8653698524398202,256,0,1,1,14.309074108704426,0.5206866840047691,0.0582694692055431,12.382641350000002
256,256,11.665879262217071,22114,8467,19103744,14737960,0.8870976426135001,0.2335457998599723,0.5060998497807164,256,0,1,1,24.466795149939617,0.8371215024543369,0.0415672780014494,12.382641350000002
256,512,10.735164872280912,30615,8631,19103744,14742288,0.8241933492325991,0.185743147912513,0.4666219751815068,256,0,1,1,26.53677282383325,0.8280315798051754,0.0336310686135697,12.382641350000002
512,1024,10.07663487915292,20316,53,25268224,14808952,0.9289021424825459,0.2892382562518776,0.6244941944107497,512,0,1,1,19.82827296206303,0.686161105885568,0.0727527981716299,12.382641350000002
512,128,12.140666589085676,12628,8022,18841600,14650488,0.9091528708142435,0.1657802029736783,0.5237476143519487,512,0,1,1,23.642382343490915,0.8105523452475667,0.0219163835386154,12.382641350000002
512,1536,6.60737363426687,21116,6608,42483712,27527728,0.9905244790685264,0.1577516049123402,0.7230741900499988,512,0,1,1,17.124994254246264,0.5336520830445106,0.063671405208407,12.382641350000002
512,2048,4.42553308042234,11915,3978,43008000,27306832,1.0902078078404358,0.1685796366790413,1.0,512,0,1,1,11.157542473720438,0.5292703875460302,0.0643383341783687,12.382641350000002
512,256,7.555246484221329,21012,12308,19103744,14696552,1.001147012784326,0.1673295888816564,0.6903075318543568,512,0,1,1,17.937862153606822,0.812806211356154,0.0193772551933064,12.382641350000002
512,512,10.787000120525592,20402,27,18841600,14701728,0.9027981083829575,0.2451738893499347,0.6056360693087312,512,0,1,1,20.44568013284523,0.8268114793697581,0.0322627980628504,12.382641350000002
