cpu,memory,duration_std,userDiff,sysDiff,heapTotal,heapUsed,avg_cpu_util,cpu_util_std,slo_preservation,total_cpu_shares,cpu_shares_others,num_containers,arrival_rate,latency,memory_util,memory_util_std,slo_duration
1024,1024,13.062558217970896,38368,27,25530368,14786824,0.9485299169058639,0.1876180990536259,0.2967969173591334,1024,0,1,1,41.72092304791908,0.6512247436929902,0.0503006742306981,12.382641350000002
1024,128,11.50232434924696,31323,3849,19103744,14741704,0.937792794078066,0.2587273751734282,0.27949670345267863,1024,0,1,1,44.30335383936468,0.8118887651760192,0.0204367208208056,12.382641350000002
1024,1536,8.304793065106525,14736,35,42745856,27312592,1.0117961461528502,0.148517750738209,0.40035598188361887,1024,0,1,1,30.929077896479544,0.5231044246211604,0.0592689769012687,12.382641350000002
1024,2048,4.150974678362075,13202,3362,42483712,27139296,1.0393391336235083,0.2620864164976169,0.4752207550648616,1024,0,1,1,26.05660888761041,0.5129502608419471,0.0526042682611666,12.382641350000002
1024,256,12.72968542188284,24241,6516,19365888,14462456,0.9735978663511188,0.2161478855024648,0.30053650897138073,1024,0,1,1,41.2017874047348,0.8092261255559423,0.0258753525625125,12.382641350000002
1024,512,9.085922041901725,25895,3477,18841600,14634680,1.000904636687046,0.1978226523427869,0.4193720249243849,1024,0,1,1,29.526626990039833,0.8116926289710162,0.0221546854124141,12.382641350000002
128,1024,8.929687633605612,27142,9445,25530368,14810696,0.9725335974838816,0.1898297977201821,0.3458174017082722,128,0,1,1,35.80687752794425,0.6556361013168128,0.039149083305533,12.382641350000002
128,128,12.106767817054225,27053,7818,18841600,14698264,0.9325988194727108,0.2039378122249505,0.2754039194843703,128,0,1,1,44.961746997586715,0.8329582041249564,0.031456688495826,12.382641350000002
128,1536,8.7508803544965,8376,8203,43008000,27242576,0.9673960206044273,0.1875954325666857,0.3837466665177172,128,0,1,1,32.26774961295542,0.5214768543639686,0.0561871541517016,12.382641350000002
128,2048,3.695441757291535,12065,4039,42745856,27386120,1.0300502545032062,0.2600171247121708,0.44471287596379155,128,0,1,1,27.84412599514702,0.519999734471168,0.0571957538940311,12.382641350000002
128,256,7.687486026033363,29670,3414,18841600,14771192,0.9849264389803771,0.1952937522017546,0.3223478626021168,128,0,1,1,38.41390865769211,0.816404722357307,0.020522472619707,12.382641350000002
128,512,9.816599281637426,9948,3,28581888,25095392,0.9725466712071439,0.213770789184384,0.3070117616595162,128,0,1,1,40.33279143140015,0.8446436093170187,0.041807143130856,12.382641350000002
1536,1024,10.051771600438803,20059,4014,33964032,27323424,0.9315054113887037,0.2867587740782199,0.31661439029330535,1536,0,1,1,39.1095342777344,0.6656095204086203,0.0598808575298176,12.382641350000002
1536,128,9.86123168057778,26908,4552,28581888,23927536,0.9527202478364981,0.2199817917963276,0.3302708604078519,1536,0,1,1,37.49238226681174,0.8602871513924649,0.0362978544353346,12.382641350000002
1536,1536,7.520195256224585,8746,8167,42745856,27409568,0.9956269867999209,0.2251864431391052,0.4113664027610887,1536,0,1,1,30.10124615643813,0.5280685936773326,0.0552948647415475,12.382641350000002
1536,2048,4.6802757352697295,12755,3153,42483712,27357712,1.0374469143396512,0.1532265511750529,0.5123619111251259,1536,0,1,1,24.16776321801171,0.5259263273731516,0.0622724621900771,12.382641350000002
1536,256,7.155614912079468,17115,216,18841600,14759104,0.9683312465186125,0.2417883200538468,0.3987467001831125,1536,0,1,1,31.053903002366276,0.813960779928065,0.0217558819677875,12.382641350000002
1536,512,5.515097433587084,23046,7807,18841600,14731440,0.9958002544066483,0.177744134358793,0.5050376968585499,1536,0,1,1,24.518251661257892,0.8238002618000232,0.0196894050868641,12.382641350000002
2048,1024,9.893670560307775,49506,25,33964032,27307696,0.9667922781895443,0.19916472928901,0.3817581985973858,2048,0,1,1,32.43582297772503,0.666877982004929,0.0617034854728868,12.382641350000002
2048,128,14.988781916657326,29814,4276,19365888,14458928,0.9213209641367751,0.2480683359270891,0.3047780173875094,2048,0,1,1,40.62839392467114,0.8256436529866764,0.0433172845423393,12.382641350000002
2048,1536,12.92937899477196,11900,3981,42483712,27314224,0.9890356099438254,0.1454462383662107,0.3378057224856984,2048,0,1,1,36.65610297801939,0.5154868179063523,0.0578799259656434,12.382641350000002
2048,2048,5.652804705033437,12028,4024,42745856,27404496,1.049988937022026,0.3311013261189338,0.4532424572178105,2048,0,1,1,27.320126684533864,0.5175145364934404,0.0566854989327742,12.382641350000002
2048,256,6.629901198259768,33979,4290,19103744,14455536,1.0122233434604182,0.1313876861760991,0.5161046670907359,2048,0,1,1,23.992500241860863,0.8190306958399398,0.0231636868934059,12.382641350000002
2048,512,5.709454759811854,8841,7604,18579456,14756880,0.9886499046410389,0.1836384393941981,0.5089371678410693,2048,0,1,1,24.33039308669012,0.8553448241797283,0.0349456863566286,12.382641350000002
256,1024,8.24465866621715,36148,25,25268224,14646376,1.0136175306618762,0.1925087932854431,0.3254106650038482,256,0,1,1,38.052352555358226,0.6698947652487262,0.0546304561950715,12.382641350000002
256,128,10.13958548700517,2446,396,28844032,24759072,0.9636528532784107,0.2419758080563465,0.3053946643422215,256,0,1,1,40.54635786342412,0.8584266213454864,0.0363738873293607,12.382641350000002
256,1536,11.547747000688071,23705,3088,42483712,27573152,0.9784003596997571,0.1683876692980921,0.33717090691852286,256,0,1,1,36.72511802150314,0.525384363502375,0.0565614145006404,12.382641350000002
256,2048,7.687032710077021,7341,7705,42483712,27347128,1.0310987149889188,0.2222065602635871,0.4192289810193958,256,0,1,1,29.536701684817714,0.5206866840047691,0.0582694692055431,12.382641350000002
256,256,11.665879262217071,22114,8467,19103744,14737960,0.9401714278917026,0.2335457998599723,0.2681895405686603,256,0,1,1,46.171231449758466,0.8371215024543369,0.0415672780014494,12.382641350000002
256,512,10.735164872280912,30615,8631,19103744,14742288,0.9036249908260222,0.185743147912513,0.25579633616020203,256,0,1,1,48.408204495332996,0.8280315798051754,0.0336310686135697,12.382641350000002
512,1024,10.07663487915292,20316,53,25268224,14808952,0.9631407649192875,0.2892382562518776,0.32375628636453785,512,0,1,1,38.246798198252115,0.686161105885568,0.0727527981716299,12.382641350000002
512,128,12.140666589085676,12628,8022,18841600,14650488,0.9524149529487332,0.1657802029736783,0.2743350846119374,512,0,1,1,45.136922123963664,0.8105523452475667,0.0219163835386154,12.382641350000002
512,1536,6.60737363426687,21116,6608,42483712,27527728,0.9952396863082499,0.1577516049123402,0.3632581250085225,512,0,1,1,34.08772026698505,0.5336520830445106,0.063671405208407,12.382641350000002
512,2048,4.42553308042234,11915,3978,43008000,27306832,1.0431573394291531,0.1685796366790413,0.5309520229089406,512,0,1,1,23.32158239488175,0.5292703875460302,0.0643383341783687,12.382641350000002
512,256,7.555246484221329,21012,12308,19103744,14696552,1.0005731776711047,0.1673295888816564,0.3449559314954512,512,0,1,1,35.89629926442731,0.812806211356154,0.0193772551933064,12.382641350000002
512,512,10.787000120525592,20402,27,18841600,14701728,0.9489163400001238,0.2451738893499347,0.31828708817847995,512,0,1,1,38.90400148138092,0.8268114793697581,0.0322627980628504,12.382641350000002
