cpu,memory,duration_std,userDiff,sysDiff,heapTotal,heapUsed,avg_cpu_util,cpu_util_std,slo_preservation,total_cpu_shares,cpu_shares_others,num_containers,arrival_rate,latency,memory_util,memory_util_std,slo_duration
1024,1024,91.95929831320562,264669,54764,35762176,30284384,0.8565730309403642,0.1261725700738681,1.0,1024,0,1,1,418.94355859204273,0.8159901777644348,0.0574272594248033,540.1407569351854
1024,128,710.8819897484581,422486,52851,32219136,30212888,0.4219789429399761,0.2318720671314011,0.29642059560509976,1024,0,1,1,1822.2106187748736,0.9200021105281028,0.0107150778398078,540.1407569351854
1024,1536,62.88410315783821,215489,37720,69832704,55005720,1.0051478543333876,0.1797941016845527,1.0,1024,0,1,1,311.2694011928909,0.6896192017255606,0.1220215016857623,540.1407569351854
1024,2048,41.11315653003688,237962,45492,50049024,30273096,1.1094523728381704,0.2079702268301675,1.0,1024,0,1,1,227.55725183493325,0.7106415205218303,0.0908255487395964,540.1407569351854
1024,256,551.9780943653591,286541,24777,32743424,30043520,0.5942349288415668,0.1893427881425806,0.5083994642039019,1024,0,1,1,1062.4337651122173,0.9015620235434536,0.0496540676528115,540.1407569351854
1024,512,158.5743646219932,328339,35391,31956992,29895008,0.6596886943565008,0.1866693804780621,0.7270937973856004,1024,0,1,1,742.8763096004408,0.9047503760897516,0.0314129721313426,540.1407569351854
128,1024,99.61495873700072,326689,29525,36810752,30204472,0.9025596383030539,0.1410141934579719,1.0,128,0,1,1,425.64865624007405,0.8045044241470043,0.0836678868785062,540.1407569351854
128,128,1072.5215917825344,298067,98957,33005568,29636168,0.2165289829065585,0.0606243340322876,0.17315734196612517,128,0,1,1,3119.3638733542894,0.9097687072734052,0.0108837729337471,540.1407569351854
128,1536,56.03153786393445,341832,39417,71667712,55260256,1.1805114387052844,0.1125189689926672,1.0,128,0,1,1,225.94272143017403,0.7527986708262325,0.0808093040750119,540.1407569351854
128,2048,36.29561910651111,298571,36187,50311168,29970944,1.2861140595564156,0.2227211421350171,1.0,128,0,1,1,174.72418912690017,0.7458378819163936,0.0878863002509155,540.1407569351854
128,256,541.3489910396515,308311,31512,32743424,29903424,0.4280332620164149,0.1694434327785026,0.34991155610146346,128,0,1,1,1543.649380869723,0.905040678732932,0.0347001077350494,540.1407569351854
128,512,155.51797537888493,338446,33380,32743424,30150152,0.5363060553599664,0.0708388360700151,0.6036010731645344,128,0,1,1,894.8638114630216,0.89875706776496,0.0555676212504316,540.1407569351854
1536,1024,282.46025779208816,295099,38058,37072896,30398536,0.9361799800702386,0.3197298967010926,0.9914823360222467,1536,0,1,1,544.781018593019,0.7805005221716963,0.1048419798149775,540.1407569351854
1536,128,543.6266653915563,314069,71866,32743424,29782968,0.5344334751958133,0.1812349757705763,0.40726261483102244,1536,0,1,1,1326.271396551573,0.913678800619638,0.0109265763842076,540.1407569351854
1536,1536,72.75881227510168,247871,49289,71667712,55139072,0.997318493158929,0.1554179944073906,1.0,1536,0,1,1,300.38819914450846,0.7122853084658898,0.0902479520856305,540.1407569351854
1536,2048,73.08770669207976,388615,64360,49524736,31124480,1.0862974690180198,0.1812593769794356,1.0,1536,0,1,1,256.1176298379547,0.6972238173148301,0.1066218254639739,540.1407569351854
1536,256,389.3015018458586,374165,33766,32743424,29648640,0.7648385287682569,0.325103438318919,0.6138201942104421,1536,0,1,1,879.9657652677415,0.8981366310671796,0.0450970398560047,540.1407569351854
1536,512,162.28933420944838,347583,29802,32743424,29859616,0.6927939104555956,0.1916558470467812,0.7190656189091146,1536,0,1,1,751.1703281748141,0.9086219708538168,0.0207869989232435,540.1407569351854
2048,1024,98.17795946393954,328619,50480,37859328,30888752,0.8117923042160863,0.0931389756188282,1.0,2048,0,1,1,475.9935583024786,0.7746934350285128,0.0904159351916666,540.1407569351854
2048,128,2076.969739218007,314682,46682,33005568,29575016,0.511928350409925,0.3344357807484046,0.20114395562992732,2048,0,1,1,2685.3442115305616,0.9083176981172116,0.013940191891615,540.1407569351854
2048,1536,65.53538070595306,377333,46796,51097600,30122136,1.179583113967262,0.1869241626195137,1.0,2048,0,1,1,228.13258019983647,0.7292340672369797,0.131983815521338,540.1407569351854
2048,2048,34.850249697789806,303227,38770,50311168,31250000,1.303128295442915,0.2094747074790311,1.0,2048,0,1,1,167.0977642496609,0.7337975444336091,0.0901499212454744,540.1407569351854
2048,256,251.00603004893964,303260,38337,32743424,29774416,0.675659087807313,0.2353944714538821,0.6025133636182338,2048,0,1,1,896.479297474024,0.9085482589268932,0.0097890587603977,540.1407569351854
2048,512,149.4047435707371,431131,59732,33267712,29749768,0.6661721934148906,0.1900230084459044,0.7237545438355061,2048,0,1,1,746.3037870169806,0.884182122476082,0.0616626365776434,540.1407569351854
256,1024,125.96278824994208,331214,55213,38645760,31164992,0.8902668007535091,0.1048505724940385,1.0,256,0,1,1,405.6590525237401,0.7885419535410524,0.1019325961096218,540.1407569351854
256,128,1050.3471611527991,406899,61834,32219136,29846040,0.23054197378056912,0.0627870076937953,0.1784565746801307,256,0,1,1,3026.7349796629514,0.920583753925016,0.004665833707842,540.1407569351854
256,1536,85.37662387129537,292135,46533,71405568,55142296,0.986040062634153,0.1444938018659748,1.0,256,0,1,1,312.57313989739316,0.7277086357979292,0.1317966489837901,540.1407569351854
256,2048,53.85819308340689,297302,35373,50573312,29931968,1.1590437794573343,0.1727110708896112,1.0,256,0,1,1,253.7143578907694,0.705859143680245,0.0925074354705525,540.1407569351854
256,256,308.42769651620915,251483,56003,32481280,29834344,0.42166546762714746,0.0788436205361201,0.4084970814883033,256,0,1,1,1322.2634418029534,0.908249610444954,0.0450623926880985,540.1407569351854
256,512,171.18782313798846,420052,61814,32743424,29714440,0.5705614466792375,0.1079998397821471,0.6640617570785768,256,0,1,1,813.3893439541525,0.8991820864212449,0.0490967018345144,540.1407569351854
512,1024,107.73636753649028,398297,31749,39694336,29929976,0.8807668830412542,0.121161477387699,1.0,512,0,1,1,405.90523463195404,0.7936944760386608,0.0721987122612699,540.1407569351854
512,128,683.8247252579043,309018,55154,32743424,29828504,0.42294798057317096,0.3215907460671112,0.2548758573627309,512,0,1,1,2119.2307601205043,0.9123709854738914,0.0096783366659625,540.1407569351854
512,1536,89.68652551989298,333535,36754,55808000,15634680,0.996729036220187,0.1069116181953402,1.0,512,0,1,1,318.7291476512311,0.6547952075939752,0.1370726242916794,540.1407569351854
512,2048,57.65016928896572,238743,28492,92758016,77391160,1.1382860614951311,0.1623552632695765,1.0,512,0,1,1,251.3901593151638,0.7396737111017161,0.0916812418725348,540.1407569351854
512,256,314.52535038617424,261955,51705,31956992,29650760,0.41849851814060735,0.1392307059282785,0.4002453080740278,512,0,1,1,1349.5242693395498,0.9167743078948444,0.0130674604086783,540.1407569351854
512,512,203.59268363068773,391641,46987,32481280,29645000,0.604382391491394,0.1624846743283948,0.5995860226434437,512,0,1,1,900.8561516391308,0.8993938502381107,0.0353153885557533,540.1407569351854
