cpu,memory,duration_std,userDiff,sysDiff,heapTotal,heapUsed,avg_cpu_util,cpu_util_std,slo_preservation,total_cpu_shares,cpu_shares_others,num_containers,arrival_rate,latency,memory_util,memory_util_std,slo_duration
1024,1024,180.8525661088252,192972,33134,25268224,14035872,0.6343744074628913,0.2231106929092501,0.6276844531969407,1024,0,1,1,661.121141793091,0.674158898427021,0.0971480278481715,414.9754623833334
1024,128,146.48349709586395,187392,26163,36589568,31794424,0.6235090839196795,0.194496358966686,0.6654537375578593,1024,0,1,1,623.597763394112,0.8406954373284583,0.0486950528253981,414.9754623833334
1024,1536,156.4783607477302,51711,674,47071232,36213504,0.584205724825083,0.2185158434028052,0.7240514326871854,1024,0,1,1,573.1298132278081,0.5154633476343545,0.1103301666471371,414.9754623833334
1024,2048,141.8836032018047,66962,12611,47071232,36218784,0.5780146859517263,0.1987947512437504,0.6931334279662281,1024,0,1,1,598.6949202564682,0.5060911675280038,0.1030181102675125,414.9754623833334
1024,256,160.4253759894884,182972,35881,36327424,32387608,0.5611678747607068,0.1712814246864465,0.6765370660775153,1024,0,1,1,613.3817098733612,0.8277011108960078,0.0481173078393376,414.9754623833334
1024,512,135.33733935302317,227356,39893,37212160,32671016,0.5886660470203023,0.2239508469502956,0.6431509184209647,1024,0,1,1,645.2225294214966,0.8445629846175446,0.0531227855377897,414.9754623833334
128,1024,171.6363281186249,86684,25439,25530368,14132864,0.6250453161539306,0.2203581073216214,0.6980380990358169,128,0,1,1,594.4882707068983,0.6457921845950093,0.0846480749875229,414.9754623833334
128,128,146.78743549089222,141483,12728,25800704,20928664,0.6530844653733519,0.2579041376638704,0.6761963688164789,128,0,1,1,613.6907583660193,0.8168633247647067,0.0521759218601615,414.9754623833334
128,1536,163.10095342897932,32437,3307,47071232,36266144,0.5788743411298739,0.2171160941548684,0.7274011825334217,128,0,1,1,570.4904973319406,0.5685872704231543,0.1192569126208221,414.9754623833334
128,2048,140.2813314830967,178226,41261,59641856,41806256,0.5810155041759767,0.2095805417419691,0.7917738021079256,128,0,1,1,524.1086043495649,0.5421649352384769,0.1052939185326745,414.9754623833334
128,256,186.82693783322145,161356,17855,31948800,27810720,0.6727807275551713,0.1885702123514561,0.6908798485368595,128,0,1,1,600.6478018749071,0.8285226408730159,0.0498654370728955,414.9754623833334
128,512,115.23382721234174,199767,23401,31948800,27613880,0.5481429506727025,0.1684320650411434,0.6768073931417423,128,0,1,1,613.1367159820992,0.8403240980513933,0.0437945085154463,414.9754623833334
1536,1024,148.54124363563733,146607,32599,25530368,14048328,0.5365029640604878,0.2125337580477121,0.6868660426677855,1536,0,1,1,604.1577783807306,0.6386936107467485,0.0794985136309947,414.9754623833334
1536,128,154.71545783738867,43723,7092,26275840,21884576,0.6089876547886443,0.2368068015258662,0.7027128362727099,1536,0,1,1,590.5334881662659,0.8262009243466274,0.0537093046811835,414.9754623833334
1536,1536,178.19551050821465,125235,20896,34050048,14265800,0.6146305656096531,0.2498447502093273,0.7180420143632695,1536,0,1,1,577.9264361728426,0.5038053491718081,0.09960747818401,414.9754623833334
1536,2048,148.7967334322828,136495,39656,59904000,41544624,0.5387212319108559,0.2554237960196994,0.788325656662444,1536,0,1,1,526.4010613839798,0.5774722790798743,0.1144188058081119,414.9754623833334
1536,256,134.18806842001914,202281,22573,31948800,27552440,0.6583575808867943,0.1611418949839208,0.6437515639921647,1536,0,1,1,644.620511381599,0.8383212410449389,0.0450078800045377,414.9754623833334
1536,512,133.99907139364075,61131,16834,32448512,27646232,0.6208767518593142,0.2521075119426616,0.681821590358797,1536,0,1,1,608.6276355152668,0.8412352878784777,0.0526634132817243,414.9754623833334
2048,1024,118.16121269375763,255477,40020,60657664,49543472,0.6915343077085735,0.2514482127964105,0.7750133715447548,2048,0,1,1,535.4429712047488,0.6454362114582846,0.088453348139716,414.9754623833334
2048,128,141.98986249577868,146675,32849,18841600,13945816,0.6361757008438537,0.1901287294798406,0.6888434841604912,2048,0,1,1,602.4234415007543,0.8281295304269871,0.0537241290976852,414.9754623833334
2048,1536,150.83238361784083,108188,16061,33787904,14257960,0.6706141425569517,0.2249287704124005,0.8245108442242163,2048,0,1,1,503.298974525659,0.499318775041124,0.0949032356521902,414.9754623833334
2048,2048,147.07727887448522,88446,7461,46809088,36266160,0.5985744435697868,0.1955814533559318,0.8343222620926383,2048,0,1,1,497.38030643278813,0.5752585963821777,0.1147817121583703,414.9754623833334
2048,256,143.4227236560791,124225,8318,26275840,21891704,0.6469940164781288,0.2009347463798881,0.6676990749605255,2048,0,1,1,621.500729812853,0.836941221244006,0.0553071945828686,414.9754623833334
2048,512,155.05679119328244,253011,50154,18317312,13883400,0.5916884641604224,0.1422402539053482,0.589234501289218,2048,0,1,1,704.2619898790485,0.814598516960195,0.0535983058176641,414.9754623833334
256,1024,161.4957911692362,67511,20507,30760960,21105336,0.5132431899785995,0.2101347819822368,0.699610290840245,256,0,1,1,593.152313247051,0.672572837269758,0.0839743863879624,414.9754623833334
256,128,155.83176123568944,145221,32930,26796032,22756696,0.605698561662625,0.162672972858955,0.6272865393001127,256,0,1,1,661.5405183830937,0.8212365498570818,0.0598788399277288,414.9754623833334
256,1536,155.27634446914433,173266,31627,34574336,14266592,0.6948186183134765,0.2519105752738881,0.724316266330148,256,0,1,1,572.9202582814631,0.4639585205408252,0.0684258511916229,414.9754623833334
256,2048,142.26359080334262,110425,26054,34050048,14266832,0.5468530280909971,0.1901126166169049,0.7086911156114922,256,0,1,1,585.5519467395509,0.5385834855528072,0.1131535829735677,414.9754623833334
256,256,149.22122425594708,131107,21005,18579456,13938456,0.7121300088445534,0.2329629616159993,0.7108220483746103,256,0,1,1,583.7965540492594,0.8261102633264118,0.0577262607603793,414.9754623833334
256,512,133.93901744290267,122115,8372,26537984,21892688,0.5582330205394719,0.2261667196428299,0.6945768178456161,256,0,1,1,597.4507811396179,0.8297727858129008,0.0507488037841614,414.9754623833334
512,1024,160.25108127314067,119153,18152,39165952,29935192,0.4932986645892261,0.1651720106822417,0.6762788842165857,512,0,1,1,613.615879585016,0.7061866844627478,0.0862623166879309,414.9754623833334
512,128,147.88466000219194,187788,29378,19103744,13940824,0.6114408951008964,0.2233450101799066,0.6611305598164988,512,0,1,1,627.6755116243796,0.824860836744189,0.0632737411804889,414.9754623833334
512,1536,162.82771928968037,186930,44668,51707904,31661120,0.5668788329463061,0.1863516621387879,0.7337068929506504,512,0,1,1,565.5875205349133,0.5098528566243955,0.1027515794475362,414.9754623833334
512,2048,155.23908040685072,146446,29290,34312192,14270712,0.5819249965218107,0.2137566251362759,0.71070894505093,512,0,1,1,583.8894603382204,0.5243346263861945,0.1109245686881743,414.9754623833334
512,256,128.36260239241574,88764,3837,26275840,21889184,0.6411515338515503,0.1730616777643945,0.728504360672208,512,0,1,1,569.626600450855,0.8429724916420425,0.0408304262429346,414.9754623833334
512,512,161.55987842391647,131492,7491,26275840,21896552,0.6055867637205617,0.1873568811737562,0.7184501808259834,512,0,1,1,577.5981041667314,0.8220925618366092,0.0517754821163889,414.9754623833334
