cpu,memory,duration_std,userDiff,sysDiff,heapTotal,heapUsed,avg_cpu_util,cpu_util_std,slo_preservation,total_cpu_shares,cpu_shares_others,num_containers,arrival_rate,latency,memory_util,memory_util_std,slo_duration
1024,1024,111.2510073985578,406440,84994,62001152,50310424,1.083688424808165,0.17016994202921992,0.9680618033966141,1024,0,1,1,287.50522420000004,0.8097596067453626,0.07071983242061948,278.3228258249999
1024,128,103.91404868698534,392412,53749,41254912,36669184,0.9280291525030488,0.14655312957506803,0.6732121846270569,1024,0,1,1,413.42511644999996,0.8873533926432648,0.05154435089681686,278.3228258249999
1024,1536,65.45771678053062,313265,45048,58466304,42501480,1.4244886500614282,0.20698672864309633,1.0,1024,0,1,1,198.41142195000006,0.7498024570733843,0.09247161748363317,278.3228258249999
1024,2048,35.38698164793041,264870,55252,58204160,42878200,1.7726311071649152,0.3354113797683205,1.0,1024,0,1,1,129.62270615,0.711158043489198,0.09563303046604227,278.3228258249999
1024,256,100.18577395491484,328919,60483,39211008,33262488,1.091671601930785,0.12976529510202495,0.8413948844594069,1024,0,1,1,330.78739955,0.8992572292902627,0.04156065309813091,278.3228258249999
1024,512,73.34699875695206,378820,30154,50483200,47045464,1.1772891809420245,0.12264365871653016,0.8972798429185856,1024,0,1,1,310.18508665,0.877128433216806,0.051665016382252946,278.3228258249999
128,1024,96.55674678347276,390244,80180,59432960,45585888,1.1272442651136942,0.22184692251718877,0.9492552966323949,128,0,1,1,293.2012355499999,0.7760958711988301,0.07961036906806548,278.3228258249999
128,128,236.14797226590863,303812,45881,38686720,33588344,1.153571487465326,0.34677350333703627,0.7861158607787144,128,0,1,1,354.04809864705885,0.8846296559578174,0.043130932242176324,278.3228258249999
128,1536,53.88999161594093,284562,69204,57155584,44241936,1.43299698774563,0.23580098962100404,1.0,128,0,1,1,180.2091013,0.7291261672443148,0.08239254660019778,278.3228258249999
128,2048,44.046523211921844,282516,42776,57679872,42336600,1.7854365212453676,0.27980699436653866,1.0,128,0,1,1,129.83341705,0.7739116206246417,0.10226655286062149,278.3228258249999
128,256,78.76610014856186,371184,69403,29417472,24625144,1.0834338881844925,0.17983629977256863,0.8861118620166779,128,0,1,1,314.09445889999995,0.8656181539999922,0.05437341616017185,278.3228258249999
128,512,64.53077363106121,263288,53144,40439808,37290960,1.1532752235590946,0.11631722850514006,0.9269188380767771,128,0,1,1,300.2666624,0.8822892118228285,0.04844782322906575,278.3228258249999
1536,1024,69.84133416931917,423693,48089,46686208,35723968,0.9895915912395967,0.14154192433840934,0.8388242172073447,1536,0,1,1,331.8011332,0.780164953231706,0.06795027350042869,278.3228258249999
1536,128,217.37942020468424,331143,52802,38686720,33190040,1.0077441225767325,0.29256970133494803,0.6848177298445381,1536,0,1,1,406.418837736842,0.8518065171890434,0.046892878072521245,278.3228258249999
1536,1536,60.877618637840946,321473,67052,58728448,42948416,1.482011667014008,0.19704693647100635,1.0,1536,0,1,1,178.8562074,0.729271825393436,0.09134919734976717,278.3228258249999
1536,2048,50.28780423128513,317991,67005,69861376,49728264,1.8274111630424994,0.40757449966695314,1.0,1536,0,1,1,113.1952041,0.722445840938182,0.07818650669826097,278.3228258249999
1536,256,115.68951341391845,238580,40554,40624128,37450328,1.018662677573508,0.14219198392499674,0.7939579944094062,1536,0,1,1,350.5510716999999,0.8898781629827542,0.044052598448998316,278.3228258249999
1536,512,75.13156302193622,240900,69669,40439808,37299808,1.1523250147978534,0.0955670739994475,0.8950088694544353,1536,0,1,1,310.97214265,0.8916785859236137,0.035916645182753906,278.3228258249999
2048,1024,81.78746622652775,450877,84499,46522368,34950648,1.0875224733974134,0.20999974108679936,0.8979693578994996,2048,0,1,1,309.94690785,0.8073023712425895,0.05657138799498972,278.3228258249999
2048,128,313.9642551538913,285655,55815,40439808,37285064,0.8376044263757902,0.2659230729512336,0.5339921252407921,2048,0,1,1,521.2114798500002,0.8787671098365285,0.045486706330989925,278.3228258249999
2048,1536,58.55723203900742,347887,52905,70385664,49769032,1.3207570951603853,0.20858755012536243,1.0,2048,0,1,1,196.84797560000004,0.7139033340139092,0.09220231628657996,278.3228258249999
2048,2048,49.181971164575515,295964,85915,82608128,62152328,1.790591526073823,0.29113686309870346,1.0,2048,0,1,1,120.36017695000001,0.7499786112463587,0.09391664274472566,278.3228258249999
2048,256,63.58125941426438,344946,50616,29941760,24009048,1.0673464079321568,0.14330491092812667,0.7710855437888997,2048,0,1,1,360.94935,0.8747374704989752,0.05144264672086244,278.3228258249999
2048,512,78.5194864977458,292764,38074,40828928,37113384,1.1619197801601693,0.10404038608215797,0.9132091988165514,2048,0,1,1,304.77444399999996,0.8834211196323374,0.0420605385515063,278.3228258249999
256,1024,98.01365139027682,369915,81735,46948352,33766152,1.0854849550223018,0.13697291664928488,0.9001917938730187,256,0,1,1,309.1816963,0.8062746527184773,0.05771559364667718,278.3228258249999
256,128,187.2126786316993,285792,33398,40361984,37475616,0.7745115605971046,0.2280375343602795,0.5279807412553398,256,0,1,1,527.14579165,0.8913277793046899,0.0432814901153881,278.3228258249999
256,1536,56.94635377492449,285015,50731,57942016,42517640,1.44729916160886,0.22427032089591897,1.0,256,0,1,1,189.05996304999996,0.7464105007395448,0.07242188660918895,278.3228258249999
256,2048,49.663938612561225,356215,62489,82345984,62119352,1.769804445061872,0.2890610752378405,1.0,256,0,1,1,124.21893645,0.7293811496526225,0.10857211171823439,278.3228258249999
256,256,104.97045898298516,245439,31667,40361984,37473328,1.3423341293644089,0.3561679811225893,1.0,256,0,1,1,264.7765777,0.8969618336607421,0.051769036909016006,278.3228258249999
256,512,67.84123084611805,432028,59316,38785024,34601544,1.158669001722672,0.08667438804684084,0.8301884749343859,256,0,1,1,335.25257725,0.8768205098883645,0.03841750551035694,278.3228258249999
512,1024,87.180216349694,353689,60400,40509440,28946576,1.0105820240107413,0.15612771395796193,0.9114275215563511,512,0,1,1,305.37022335,0.7754536116478389,0.073239562601032,278.3228258249999
512,128,83.18428662072469,267676,58602,40177664,37306224,1.1199010012079362,0.18377481286436198,0.8649035205932993,512,0,1,1,321.79638445000006,0.8860524141285067,0.05407079128343108,278.3228258249999
512,1536,57.01437108330985,350967,36292,64413696,43582104,1.262738788457786,0.23755586613898594,1.0,512,0,1,1,213.51665065000003,0.702702716924396,0.09226629316905433,278.3228258249999
512,2048,34.497263813120966,276256,29258,57679872,42313456,1.7380899834364385,0.3539914748965695,1.0,512,0,1,1,123.61757510000002,0.710141862852525,0.09191918166063984,278.3228258249999
512,256,55.839158413560604,371758,47158,38686720,33788112,1.4029210426371121,0.109308409506993,1.0,512,0,1,1,271.7993801,0.868828889297476,0.04451694197013802,278.3228258249999
512,512,78.05246404621633,322637,33370,40439808,37344624,1.126381236227616,0.09986953106510424,0.9096788790038487,512,0,1,1,305.9572254,0.8970646909227525,0.04583401823838141,278.3228258249999
