cpu,memory,duration_std,userDiff,sysDiff,heapTotal,heapUsed,avg_cpu_util,cpu_util_std,slo_preservation,total_cpu_shares,cpu_shares_others,num_containers,arrival_rate,latency,memory_util,memory_util_std,slo_duration
1024,1024,142.62599598565873,26271,413,30777344,25066272,0.10700909771415987,0.0874236846122327,0.8595611270200081,1024,0,1,1,347.5365872201817,0.6683275307587698,0.0720507939037913,298.7289405916667
1024,128,122.6435616112539,26953,3770,24870912,20964696,0.14278711509981282,0.1476735576625967,0.8985701813687422,1024,0,1,1,332.4492029511033,0.8644233453778479,0.0131726953541471,298.7289405916667
1024,1536,117.84503053575628,74320,115,34574336,15138296,0.14968250854191548,0.1780071475711059,1.0,1024,0,1,1,239.52422914585333,0.5396145510936206,0.0532354644528846,298.7289405916667
1024,2048,114.86102143333991,41887,8376,39297024,24828712,0.0947917389488611,0.1471008545048977,0.8444791609778782,1024,0,1,1,353.7434129762879,0.5573741622982956,0.0530282874509267,298.7289405916667
1024,256,137.14978586546033,15226,3892,24870912,21658048,0.08769405194785813,0.0431510762790454,1.0,1024,0,1,1,279.1783293697444,0.8649221966162093,0.0118266115240196,298.7289405916667
1024,512,116.98428840967998,19367,540,24870912,20948928,0.09684556588874241,0.056160635288564,1.0,1024,0,1,1,274.12075497286605,0.8664993518349942,0.0131900066154289,298.7289405916667
128,1024,153.34479759687252,18113,458,30515200,25195128,0.17911957400145126,0.2848115346026132,0.8721494311172469,128,0,1,1,342.5203639805015,0.6634450319347531,0.0575663069125471,298.7289405916667
128,128,132.1086033659823,20302,4793,25133056,21258480,0.09084924315369092,0.0482956415476239,0.8721964549210741,128,0,1,1,342.5018972574234,0.8599631423499524,0.0119866385048635,298.7289405916667
128,1536,140.83360426714765,35691,6580,34312192,15296920,0.09484006039857897,0.068751945199501,0.9515612290646261,128,0,1,1,313.93559496461813,0.5464586931665572,0.0541266568125776,298.7289405916667
128,2048,150.61163674109676,24828,13075,34574336,15321168,0.08913125074800884,0.0698648283471104,0.9713428761046815,128,0,1,1,307.5422159779887,0.5611824909667102,0.059359949328369,298.7289405916667
128,256,122.55452022074256,27712,7897,25133056,21234520,0.09199250991841428,0.0593615095165306,0.9518067907118579,128,0,1,1,313.85460106693165,0.866211219656938,0.0137407998668848,298.7289405916667
128,512,141.810225146123,14151,8424,25133056,21370480,0.11390618210125009,0.0785290209600532,0.9879501968481879,128,0,1,1,302.3724693255671,0.8641734439229587,0.0119603261730209,298.7289405916667
1536,1024,163.2826646000213,38390,6717,25792512,15114808,0.13406989969276736,0.1477985906791499,0.9684091682808276,1536,0,1,1,308.4738872536559,0.6616687632043246,0.0597451227711371,298.7289405916667
1536,128,165.5016992933902,20890,6824,24870912,21086208,0.18083042761163548,0.1698398465108117,1.0,1536,0,1,1,271.6662167057562,0.869960581083952,0.013577506555491,298.7289405916667
1536,1536,144.03671960033893,33067,8891,34836480,15317768,0.08265041577495108,0.0443124706816137,0.8436084171573133,1536,0,1,1,354.1085348558829,0.5415310320005802,0.0542897624974724,298.7289405916667
1536,2048,131.09979123392614,39724,28,39297024,24941144,0.0894339478705206,0.0512679947386644,1.0,1536,0,1,1,271.99602837037753,0.5517466836637924,0.0532517696596476,298.7289405916667
1536,256,133.64469500235674,23901,3983,25395200,21333576,0.08688127568070989,0.0467529162079253,0.9142114544760529,1536,0,1,1,326.7613188711055,0.8643504718594214,0.0135539980282646,298.7289405916667
1536,512,145.28763206022526,23808,3965,24870912,21305664,0.10463683085882242,0.1301493701791549,0.8615509642495963,1536,0,1,1,346.73391707228495,0.865620386692522,0.0120914284213764,298.7289405916667
2048,1024,121.26949759246337,29405,10198,26054656,15203016,0.140538488616206,0.1937162198629703,0.9681549922343741,2048,0,1,1,308.5548729157918,0.6712709782259654,0.0691052995516852,298.7289405916667
2048,128,154.01102559893624,23531,3925,25133056,21277296,0.12202641327977176,0.1282480988065703,0.8700434797825461,2048,0,1,1,343.34943888819134,0.8696830115861737,0.013212337800341,298.7289405916667
2048,1536,139.5062999077632,26273,27,34312192,15318760,0.0824975447538192,0.0577544710409562,0.9088598552258506,2048,0,1,1,328.6853730792553,0.5443777923700127,0.058208943814605,298.7289405916667
2048,2048,137.44289204281287,32548,4084,39297024,24876376,0.07127380583955062,0.0372458880710059,0.9131457660953827,2048,0,1,1,327.14266624597474,0.5451941983841981,0.0512262247489527,298.7289405916667
2048,256,128.3973223699809,19676,24,25133056,21316776,0.10020092895909485,0.0684098578679754,1.0,2048,0,1,1,279.7234434136135,0.8630756724627686,0.0109940716722852,298.7289405916667
2048,512,154.6058545451829,12583,8173,25133056,21671616,0.10756557680547675,0.1277045051587271,0.8372971710651447,2048,0,1,1,356.77767812310515,0.864727825919033,0.012047682214722,298.7289405916667
256,1024,134.6344302671429,19852,6440,30777344,24995104,0.15701876294828299,0.1781346970440918,1.0,256,0,1,1,284.6568312855389,0.6641025074921152,0.0666221784286343,298.7289405916667
256,128,123.63273780388018,12286,11183,25133056,21350792,0.08621395113159809,0.0490041556370287,0.8655780428088893,256,0,1,1,345.12074685057945,0.8647919490791933,0.0123151032629135,298.7289405916667
256,1536,137.5678345590518,36379,3081,34312192,15256056,0.12758115287420999,0.1025200888484228,1.0,256,0,1,1,265.16950364706236,0.5402099924870768,0.0574230557202245,298.7289405916667
256,2048,132.94586443877046,57434,4169,39297024,24919888,0.09377742363168153,0.1305596180867274,0.869102448747148,256,0,1,1,343.7212045856026,0.5556568951842284,0.0536963623189366,298.7289405916667
256,256,143.88924727959628,17348,3521,25395200,21425688,0.14157493491238476,0.147777799690823,1.0,256,0,1,1,282.0560680117341,0.8678310129779072,0.0139351099783411,298.7289405916667
256,512,130.16039368902057,26003,8378,25133056,21252584,0.10778346573266274,0.0481890112011806,1.0,256,0,1,1,285.4593055462354,0.8632559098724089,0.0117007308512922,298.7289405916667
512,1024,134.41831133021557,30329,6885,25792512,15122632,0.12358343085352799,0.1264695370056535,0.8993589892905569,512,0,1,1,332.1576190919197,0.6625724248306022,0.0663112837390355,298.7289405916667
512,128,147.53296845602318,21112,16058,25395200,21241104,0.15247538952357295,0.0966111656088944,1.0,512,0,1,1,275.3828351256482,0.8654380016332833,0.01480265375949,298.7289405916667
512,1536,130.43453186697874,54799,6945,39297024,24881568,0.11314847532067658,0.0614688961494257,1.0,512,0,1,1,269.7836342978793,0.5447158707595149,0.0551187970248042,298.7289405916667
512,2048,156.99810546992333,33004,8177,34312192,15234688,0.108671656113276,0.0453661987255704,1.0,512,0,1,1,242.3443310338521,0.5619818051845828,0.0589886432337367,298.7289405916667
512,256,116.01860159123868,10138,8434,25133056,21297352,0.07458672229726267,0.0475206569853802,0.86966410949321,512,0,1,1,343.4992169169182,0.868208454080231,0.0117108998310914,298.7289405916667
512,512,133.47101876605092,24767,8097,25133056,21258928,0.10807097995896806,0.0741245328185121,0.9978207888393035,512,0,1,1,299.38135578349454,0.866724100024709,0.0129662021888886,298.7289405916667
