cpu,memory,duration_std,userDiff,sysDiff,heapTotal,heapUsed,avg_cpu_util,cpu_util_std,slo_preservation,total_cpu_shares,cpu_shares_others,num_containers,arrival_rate,latency,memory_util,memory_util_std,slo_duration
1024,1024,62.24289547377781,233301,11692,40214528,29306896,0.9492886105746415,0.1462572536790378,0.6125018735379044,1024,0,1,1,374.86931408978796,0.7376140236448991,0.0724782784013394,229.6081572118643
1024,128,104.49031994106836,273090,27135,27844608,23970872,0.8141340335545967,0.118421283544946,0.5760096154450518,1024,0,1,1,398.6186186049314,0.8746604874377558,0.0280416115400845,229.6081572118643
1024,1536,47.64982221777724,209211,38776,60428288,41221488,0.9894451475179227,0.0965279410247245,1.0,1024,0,1,1,215.6353224905933,0.6415297255875066,0.0411549234582232,229.6081572118643
1024,2048,35.16894950631578,179411,20994,52015104,34894008,1.0725714817703251,0.1349487904691695,0.9464598133753228,1024,0,1,1,242.59683714728644,0.6907234150911614,0.0589005187857949,229.6081572118643
1024,256,75.19277832451863,354113,60532,18841600,15270448,0.9896156672205512,0.116253420382323,0.5355919066162962,1024,0,1,1,428.69982607178946,0.8795222584543417,0.0399420355374633,229.6081572118643
1024,512,77.72813572614506,237835,27337,30965760,26191928,0.948547086536944,0.0857292247342694,0.6296057938275724,1024,0,1,1,364.6855849530923,0.8603461659717885,0.0382681074437712,229.6081572118643
128,1024,66.63786882985367,206499,35763,48959488,38279240,0.9395497153289346,0.1215386206062424,0.6870077920437785,128,0,1,1,334.2147787418878,0.7601212458467909,0.0597528392629422,229.6081572118643
128,128,138.88256688463443,339364,44914,29540352,25323704,0.7483812662269774,0.0890332563789123,0.4470060110108143,128,0,1,1,513.6578738452567,0.8758418799091121,0.0305851032958403,229.6081572118643
128,1536,74.36073777325507,73838,7652,44802048,28312936,0.9483332997825464,0.1022598414547769,0.8079900025822762,128,0,1,1,284.1720274731787,0.6765346637141392,0.0785860697150543,229.6081572118643
128,2048,47.22145136646751,166692,19157,40677376,21338600,0.9858334444135988,0.1264891645743281,0.9652333665840097,128,0,1,1,237.8783879223473,0.6436629787509963,0.0700799560384938,229.6081572118643
128,256,94.61915727439764,280079,42473,29540352,25080496,0.948487204255203,0.1119198310285671,0.6195480184861202,128,0,1,1,370.6059100518425,0.87009447568983,0.0328077015376997,229.6081572118643
128,512,99.16663539864898,87751,15950,30330880,26004824,0.9369211342945779,0.1011387506910509,0.6119774700610227,128,0,1,1,375.1905395944873,0.868669214067326,0.0396144651205614,229.6081572118643
1536,1024,63.83232498826914,172828,12611,40804352,30835464,0.9877273068613522,0.0912270364816262,0.7007617974955365,1536,0,1,1,327.6550719980234,0.7409265007225593,0.0711856316461489,229.6081572118643
1536,128,101.10967588860952,346757,20153,29917184,26795184,0.8358896750521041,0.0924225724303898,0.45606069385844716,1536,0,1,1,503.4596497876014,0.8777621399560704,0.0312503485546985,229.6081572118643
1536,1536,44.44802315226011,177023,259,40685568,23300680,1.0117237210438657,0.1002618953407697,1.0,1536,0,1,1,217.98208284089375,0.6164185643196535,0.0695948753698587,229.6081572118643
1536,2048,38.3804365014506,140564,9688,40685568,23323152,1.0444158016618839,0.1223704323165572,1.0,1536,0,1,1,188.70851910319772,0.6480053888900672,0.0559666278191086,229.6081572118643
1536,256,78.69459744606556,179511,20188,38453248,34083128,0.965573944110318,0.1426787571594936,0.6899974871010128,1536,0,1,1,332.7666571316811,0.8713241884873465,0.0292155010052291,229.6081572118643
1536,512,79.74926772338169,304897,21014,38453248,34151832,0.9945168006467188,0.1322186121347635,0.630036199049846,1536,0,1,1,364.43645231517655,0.8760794868436985,0.0306803101703026,229.6081572118643
2048,1024,60.567732496858376,258943,26619,36114432,24989704,0.9371685334323218,0.1302758397547694,0.6761200565409934,2048,0,1,1,339.59672544922216,0.7405823775195142,0.0682926207466157,229.6081572118643
2048,128,119.10074304278864,363475,28645,29278208,25327592,0.8060394443817748,0.1275340573096722,0.5262120730338818,2048,0,1,1,436.3414846946703,0.8747054773726815,0.0321015942509909,229.6081572118643
2048,1536,63.91170101565856,188798,42254,60428288,43449912,1.0226137958513053,0.0830760099598077,0.8885232589084439,2048,0,1,1,258.4154718627617,0.6540107165548783,0.0882888349775321,229.6081572118643
2048,2048,37.742481209585485,75569,8503,42467328,28149952,1.0897160447383438,0.1564209790742571,1.0,2048,0,1,1,186.34240847782348,0.686734949120427,0.0568147342603954,229.6081572118643
2048,256,94.27143613409608,167456,17088,24006656,18931032,0.9956879270507639,0.1331299405713852,0.616883081820759,2048,0,1,1,372.20692863575573,0.8776274541468186,0.0300074016604412,229.6081572118643
2048,512,121.1328651396298,288778,21573,23220224,18912440,0.8908315829600335,0.1166968042478492,0.5345367296958778,2048,0,1,1,429.5460806640898,0.8726157113583216,0.0371230455296061,229.6081572118643
256,1024,79.60286503090298,182465,15759,41066496,30770600,0.85179818241432,0.0938985321007734,0.5463399063916828,256,0,1,1,420.2661283308367,0.7658089559816411,0.0520498982160778,229.6081572118643
256,128,101.25587278127128,261028,35049,29278208,25582720,0.7800353991650416,0.0609043524868364,0.4660956634694828,256,0,1,1,492.6202391644815,0.88680977964361,0.0185539602318588,229.6081572118643
256,1536,64.94932893157417,115626,32557,54386688,35518112,0.9243869526879246,0.0903671159447407,0.8190937078786399,256,0,1,1,280.31976683903906,0.6383653442312285,0.0704602817030775,229.6081572118643
256,2048,45.84788273143237,243002,11729,45379584,26479712,1.0181858213739374,0.1327392652666571,0.8544624529843464,256,0,1,1,268.71649703263284,0.6346335019228307,0.0820340963624461,229.6081572118643
256,256,116.33776394351304,330515,15221,18579456,14596944,0.8223690292995548,0.0906816350875258,0.5247746162991793,256,0,1,1,437.536706388562,0.8723402277315542,0.0370859881223221,229.6081572118643
256,512,125.63780763599952,77020,21273,30515200,26247272,0.8392410794322424,0.1144844333115178,0.5016366734848812,256,0,1,1,457.71804444992284,0.8751298175588454,0.0214852204093547,229.6081572118643
512,1024,70.75001017147528,129886,32914,48959488,38313856,0.9385652370330024,0.1010121822172858,0.7380082650498199,512,0,1,1,311.1186799464426,0.7429898539342427,0.0716100284151693,229.6081572118643
512,128,114.62600249964608,111041,21479,23482368,18934520,0.8551883928668352,0.1139621720868691,0.5387516384860194,512,0,1,1,426.18553858527645,0.8708790818934651,0.0308672653500286,229.6081572118643
512,1536,55.42241509165836,235631,16859,34836480,14932488,1.005070631081493,0.11031881621743,1.0,512,0,1,1,226.91219571618413,0.6436960233254545,0.0717053701831937,229.6081572118643
512,2048,27.06698787984202,108946,20124,45379584,26479928,1.0795623231338853,0.1419402052892285,1.0,512,0,1,1,203.55734219291372,0.6444346637717142,0.0662942859014746,229.6081572118643
512,256,88.4041042003846,186796,20988,26324992,21420872,0.9503115636508467,0.1537248904560106,0.6659090911847886,512,0,1,1,344.8040584689186,0.8737047531169445,0.0282777643733767,229.6081572118643
512,512,105.18001743630823,186043,4482,30515200,26233088,0.9437317171709988,0.1177520888637238,0.5976969424915095,512,0,1,1,384.15481306419093,0.8765095963607333,0.0262321455863136,229.6081572118643
