cpu,memory,duration_std,userDiff,sysDiff,heapTotal,heapUsed,avg_cpu_util,cpu_util_std,slo_preservation,total_cpu_shares,cpu_shares_others,num_containers,arrival_rate,latency,memory_util,memory_util_std,slo_duration
1024,1024,64.76102215203734,214658,35504,39170048,30121152,0.9760632844856783,0.1744008675821486,0.583998452179549,1024,0,1,1,280.0204624263557,0.7893330363417027,0.0849706426495581,163.5315166355933
1024,128,212.580551627382,286414,37969,33267712,29907600,0.9129024243662013,0.3104538570695095,0.3695312498784452,1024,0,1,1,442.5377195822705,0.8784946323837661,0.0535274437770158,163.5315166355933
1024,1536,40.858083941740816,279374,38858,42708992,31214816,1.2206651298057323,0.2530102493135569,0.9502959211616817,1024,0,1,1,172.08483483301234,0.7448380657094924,0.0925118996038249,163.5315166355933
1024,2048,26.637427313458343,286382,24045,50573312,31389344,1.3443841090702746,0.2073863107525043,1.0,1024,0,1,1,131.7772888296471,0.7527262310829401,0.096881606375312,163.5315166355933
1024,256,41.50367032850183,213908,44115,33005568,29781464,1.2212245230002168,0.2696526867405529,0.6714884795650489,1024,0,1,1,243.53584851004368,0.8795235132151559,0.0539644618597962,163.5315166355933
1024,512,54.54763576259096,284941,38513,32743424,29667272,1.0868775508771584,0.1572817312632709,0.5805000014502192,1024,0,1,1,281.7080382895003,0.8916194772711188,0.0661266338388813,163.5315166355933
128,1024,71.15334045453473,271951,13916,38907904,30982712,1.0253472390050147,0.2084909546590099,0.6094737553112064,128,0,1,1,268.3159286359946,0.7950289853518058,0.0909683247209104,163.5315166355933
128,128,166.52307274506086,240383,45687,32743424,30012736,1.0943225527284046,0.304066242474771,0.48044788388628024,128,0,1,1,340.3730604718418,0.8661867203757573,0.0741984253423894,163.5315166355933
128,1536,49.96272418247271,220513,38228,36671488,15581856,1.164213447159648,0.2368030926441017,0.8786306605313406,128,0,1,1,186.12088557972666,0.7062712741909655,0.1320702852755035,163.5315166355933
128,2048,31.32655094467136,266255,34288,50311168,31295704,1.4568925784607731,0.3247508676456597,1.0,128,0,1,1,121.76497337597925,0.7435825840160645,0.0860306458893503,163.5315166355933
128,256,66.53166274492119,328452,32393,33267712,29944656,0.9860685618502087,0.2045313440877982,0.4823419266266765,128,0,1,1,339.0364959133308,0.8669017323830202,0.0874334127662991,163.5315166355933
128,512,53.85947805662473,213959,30030,32743424,29725704,0.9507954513353981,0.1752562127372091,0.4566537073094578,128,0,1,1,358.1083740655452,0.8840499953915399,0.0689194622820395,163.5315166355933
1536,1024,77.26948256107259,279041,18397,39694336,29979720,1.0733337626629653,0.1860779682673407,0.6387257205218592,1536,0,1,1,256.02776180984677,0.7535489934879159,0.1140724030792264,163.5315166355933
1536,128,338.5417138084592,257086,23829,33005568,29715864,0.8751577289662084,0.3318722596974063,0.31600883358534987,1536,0,1,1,517.4903333562211,0.8806485994159523,0.0542651032118467,163.5315166355933
1536,1536,45.28323431307636,197125,43376,38506496,15593080,1.2764213021963353,0.3236268260026061,0.9675005574484231,1536,0,1,1,169.02472600829594,0.7027194909356367,0.143538942722028,163.5315166355933
1536,2048,26.153952312911937,240283,31420,50311168,30016096,1.386363774578251,0.2786361421588253,1.0,1536,0,1,1,127.51179925712314,0.7469783142026001,0.0947574875959228,163.5315166355933
1536,256,43.11964425340335,288398,63998,33267712,30346928,1.1973415291410034,0.2673741873731203,0.6804574187320684,1536,0,1,1,240.3258633586655,0.8896693675551777,0.0514831942619675,163.5315166355933
1536,512,43.79970349103928,266136,46106,33267712,30418000,1.1025781942968897,0.087300901668206,0.5490951077655344,1536,0,1,1,297.820021200083,0.8448975165804253,0.0919427805238718,163.5315166355933
2048,1024,74.03842352509227,257065,35191,38121472,30232432,1.0018656424344,0.1286870978407001,0.5993044738802854,2048,0,1,1,272.86884006852864,0.7599258806527736,0.109263344291206,163.5315166355933
2048,128,62.53176712103011,286674,45545,33267712,29677360,1.206379876893753,0.2211887328900657,0.644612660220561,2048,0,1,1,253.68958248452532,0.8582766819853717,0.0976542243192489,163.5315166355933
2048,1536,51.361296768463184,218137,42083,72867840,55171000,1.1483365537672863,0.2302148793075197,0.910388555305807,2048,0,1,1,179.62826496721692,0.6850404712725486,0.1456530296945275,163.5315166355933
2048,2048,30.409865814890352,265367,44858,50573312,31319712,1.4476320188488434,0.4239663867274476,1.0,2048,0,1,1,118.02396588606261,0.7475885868948133,0.0943754916011041,163.5315166355933
2048,256,65.2457667226562,289319,32788,32743424,29638968,0.9842734026092322,0.190182719845637,0.502654697249186,2048,0,1,1,325.3356977076536,0.8632916601235483,0.0816561206841191,163.5315166355933
2048,512,62.6111070627759,271490,47247,33267712,30046288,1.1150436183206538,0.1536099561095143,0.5639875301601597,2048,0,1,1,289.9559084030706,0.8799696816952368,0.0720489821538983,163.5315166355933
256,1024,68.74675701788922,205347,41245,37335040,30118096,1.011810166328929,0.1353783257776573,0.5952018450034172,256,0,1,1,274.7496803116503,0.7695534104966631,0.1247722898025284,163.5315166355933
256,128,327.2917122450541,217116,46920,32743424,29979064,0.9105847745747391,0.4055627670925773,0.31605828522664564,256,0,1,1,517.4093649161094,0.8850279100302944,0.0714283224643847,163.5315166355933
256,1536,52.60673879952871,246760,35753,42708992,31239528,1.2396322962693453,0.2936683937408857,0.9215001177736817,256,0,1,1,177.46228511688184,0.7252476329571114,0.116341311534947,163.5315166355933
256,2048,27.12669622338952,238930,30251,50049024,29962480,1.5255110645917176,0.333132065669644,1.0,256,0,1,1,116.18579626883627,0.7274125247658747,0.1291847129889148,163.5315166355933
256,256,39.73837733849836,269081,39820,33267712,30242384,1.1985768711324842,0.297842552305956,0.6428117314903271,256,0,1,1,254.40033002579713,0.8634692586479101,0.0612783612476238,163.5315166355933
256,512,109.2927200531494,279645,38635,33005568,29861272,1.0955222602376185,0.4119448442820261,0.47617259936893863,256,0,1,1,343.4290777174456,0.869389381871828,0.0633307712077687,163.5315166355933
512,1024,85.57952743218156,198622,54452,37597184,30259008,1.0100627348770894,0.1613185659433711,0.6167647344139381,512,0,1,1,265.14407765383044,0.7716709042564713,0.1024939138487758,163.5315166355933
512,128,91.16089237679375,302191,79122,32481280,30261048,1.239300863507813,0.3599796237813552,0.6214907975311456,512,0,1,1,263.1278166711681,0.8702345496578061,0.065630019710458,163.5315166355933
512,1536,51.01003698607499,268518,37779,50573312,29934392,1.2250529186213313,0.2662628341362165,0.9365782954362888,512,0,1,1,174.6052811947932,0.7515525730610224,0.1279270841155421,163.5315166355933
512,2048,27.464485675105,223207,49229,50311168,30179856,1.5004903772115812,0.253630118063964,1.0,512,0,1,1,107.34865192173089,0.7511740896914603,0.0998734782116337,163.5315166355933
512,256,38.06617084968821,283163,38809,33529856,29840144,0.9205551739941725,0.1471985362095953,0.48793944202267,512,0,1,1,335.1471566998175,0.874926105171359,0.0578427552557496,163.5315166355933
512,512,45.16867620489864,252796,37314,33005568,29769808,1.0857698001005913,0.1850231733744683,0.5528338739306016,512,0,1,1,295.8058909684716,0.8605098338089328,0.0811864876390806,163.5315166355933
