cpu,memory,duration_std,userDiff,sysDiff,heapTotal,heapUsed,avg_cpu_util,cpu_util_std,slo_preservation,total_cpu_shares,cpu_shares_others,num_containers,arrival_rate,latency,memory_util,memory_util_std,slo_duration
1024,1024,213.95965265054772,56334,16180,25792512,14480480,0.08817030470761075,0.0643363820090895,1.0,1024,0,1,1,601.1560713457966,0.6574495153108162,0.0682542516195002,601.5613444666666
1024,128,166.32985026265155,8721,113,25112576,20880496,0.06012727678674858,0.0473954883457473,0.8899256438306139,1024,0,1,1,675.9680976011589,0.8623693094717364,0.0168603888224178,601.5613444666666
1024,1536,176.76953679167488,8475,79,39276544,24750456,0.06276190642341542,0.0439449572448749,0.9541805401075139,1024,0,1,1,630.4481376227654,0.584243658249893,0.0996536232015763,601.5613444666666
1024,2048,205.78552045545564,55651,7958,34312192,14618656,0.09091790001686749,0.0828881292038337,1.0,1024,0,1,1,564.19365077717,0.6481861881287894,0.1537610245026758,601.5613444666666
1024,256,211.55283501031928,5548,4234,25112576,20707288,0.06215555322751221,0.0426477467587972,1.0,1024,0,1,1,522.8623991435437,0.8653418963001505,0.01791289840555,601.5613444666666
1024,512,181.02193434945963,10023,459,25112576,20817008,0.05094558470048185,0.0294418477077133,0.8667071851966448,1024,0,1,1,694.0767940330159,0.8637370589701237,0.0178579287111339,601.5613444666666
128,1024,192.45997560253184,8826,821,30494720,24600464,0.07471503604854672,0.0599091814373993,1.0,128,0,1,1,587.1257845184422,0.6636451835233835,0.0826093009304515,601.5613444666666
128,128,204.66532987697832,5033,4132,25112576,20838736,0.05534502076934756,0.034393898236434,0.9410863374862232,128,0,1,1,639.2201443212143,0.8613288706245763,0.0169026904092733,601.5613444666666
128,1536,218.80997152203693,17213,8192,34836480,14744824,0.06483602279042613,0.0495680585869729,0.9772565749246801,128,0,1,1,615.5613171628245,0.5193424514209155,0.0501299604822799,601.5613444666666
128,2048,171.3620396556208,53696,9287,34574336,14619744,0.08312873509371883,0.0586908003536121,1.0,128,0,1,1,521.2177543594294,0.626278532590871,0.140749551064717,601.5613444666666
128,256,180.2936667562807,8523,77,25112576,20752776,0.056687721557677095,0.0333054929982819,0.9114133320133926,128,0,1,1,660.0313198598537,0.86026855116482,0.0165880249077299,601.5613444666666
128,512,184.9331461653588,10053,335,25374720,20853416,0.0645526687547846,0.0413353146001117,1.0,128,0,1,1,580.1552997469662,0.8625428773434022,0.0174421830246402,601.5613444666666
1536,1024,188.66888897716777,8967,187,30756864,24407840,0.060491379816972876,0.0306824980083843,0.8964778849111813,1536,0,1,1,671.0275340771695,0.6659044700034916,0.0857062740387982,601.5613444666666
1536,128,180.85022892656585,2024,7738,25112576,20730360,0.0698014751792359,0.0390866317053233,1.0,1536,0,1,1,535.054129684234,0.8624454958029831,0.0197226271924469,601.5613444666666
1536,1536,210.6667411899512,9115,194,39014400,24293296,0.04633048566701391,0.0223887563779004,0.9152714886781043,1536,0,1,1,657.2490806366986,0.520291620974402,0.0492761654911024,601.5613444666666
1536,2048,202.6204994069864,44008,19109,34574336,14614672,0.04615826022502651,0.0259573438607854,0.8813744303386966,1536,0,1,1,682.526431173522,0.629253314327803,0.1449519251950768,601.5613444666666
1536,256,194.11382115164997,8486,859,25112576,20705712,0.060431286238732514,0.0462868879475674,1.0,1536,0,1,1,563.6692902238333,0.8608748586481868,0.016045332769718,601.5613444666666
1536,512,211.57705370332428,6587,346,25374720,20705432,0.05145830342875213,0.0273900125994608,0.9657468961347778,1536,0,1,1,622.8975178427224,0.8598911492573263,0.0183392476653469,601.5613444666666
2048,1024,178.62861917995767,17655,8525,26054656,14610152,0.05741992049141582,0.0305005541469537,0.9471996681765361,2048,0,1,1,635.0945473035675,0.6749177129351656,0.0862517271127933,601.5613444666666
2048,128,197.47629158263132,13615,8832,25112576,20678784,0.06102404927171809,0.0385149116407864,1.0,2048,0,1,1,589.8375429102887,0.8614348570557169,0.0182058464591927,601.5613444666666
2048,1536,200.2830306082468,51871,11022,34312192,14615840,0.05497415091127388,0.0330713334377491,1.0,2048,0,1,1,582.9813300216891,0.522975422428828,0.0497140780239723,601.5613444666666
2048,2048,199.28779944320465,7946,3282,39538688,24235912,0.06200327678195177,0.0372786402962699,1.0,2048,0,1,1,594.0107572817319,0.6311891806647552,0.1444189969781656,601.5613444666666
2048,256,224.8050102361232,18667,3785,25112576,20683808,0.05305939864382443,0.0342719128075171,0.9063574531272273,2048,0,1,1,663.7131325958482,0.8622912933433527,0.0159415709429552,601.5613444666666
2048,512,241.59817358340783,7823,672,24850432,20994600,0.06942239403526014,0.0621448373002468,0.9216031857125013,2048,0,1,1,652.7335775229477,0.8595396865344626,0.0175876019653495,601.5613444666666
256,1024,182.9489756929437,8818,18,30756864,24781848,0.06077873098620435,0.033505695818632,0.9857337966394845,256,0,1,1,610.2675453732845,0.668162282148943,0.0853433193547591,601.5613444666666
256,128,207.36507106344064,6927,17,25112576,20821808,0.05403418168487902,0.0298080638196687,0.98028644248716,256,0,1,1,613.6587413576782,0.8685194688880389,0.0172698746899382,601.5613444666666
256,1536,190.076312503572,7500,18,39276544,24601336,0.048794819523653145,0.0209786296278092,0.9900759611411625,256,0,1,1,607.5911021749346,0.5236032811034055,0.0512357966514169,601.5613444666666
256,2048,165.78294119033984,16961,8778,34836480,14745384,0.0611279238131236,0.0381064329901024,0.9706735259346089,256,0,1,1,619.7360166874396,0.6567566843233263,0.1629485922763406,601.5613444666666
256,256,196.37000480943917,10603,22,25112576,20702600,0.06141324652387363,0.0360647907816354,1.0,256,0,1,1,594.608047246884,0.8616111147552523,0.0156235912143687,601.5613444666666
256,512,213.90955868378288,7715,25,25112576,20800296,0.05065741572835672,0.017878445758902,0.9342647713659381,256,0,1,1,643.8874320254591,0.8581493120115743,0.0183851634697142,601.5613444666666
512,1024,193.83164517509775,17795,9047,26054656,14607952,0.05389595498712038,0.0244491211418386,0.8917568346881383,512,0,1,1,674.5800212196212,0.6542978234362827,0.0676192526686406,601.5613444666666
512,128,218.7986591950068,10517,475,24850432,20816352,0.0853320999403589,0.0807688084163836,1.0,512,0,1,1,600.2999349477166,0.8612962740943553,0.0167775846135209,601.5613444666666
512,1536,170.57642256801273,9712,34,39276544,24450240,0.04842652983396533,0.0312926892637563,0.8806926419960678,512,0,1,1,683.0548091139298,0.5215187153315286,0.0490961161108131,601.5613444666666
512,2048,150.5026681247136,9097,242,39276544,24310856,0.06145844028951697,0.0382081439307829,1.0,512,0,1,1,563.804777109646,0.6369477640119843,0.1398830325082059,601.5613444666666
512,256,180.41233807533104,7609,20,25112576,20798296,0.05214903282262487,0.0189381010326411,1.0,512,0,1,1,556.9147353883911,0.8613745427485793,0.0168341322514955,601.5613444666666
512,512,187.0203414181212,4381,4048,25112576,20779496,0.0530591296244911,0.0299213568538638,0.9979010659790817,512,0,1,1,602.8266378054723,0.861140873032537,0.0160923617554591,601.5613444666666
