cpu,memory,duration_std,userDiff,sysDiff,heapTotal,heapUsed,avg_cpu_util,cpu_util_std,slo_preservation,total_cpu_shares,cpu_shares_others,num_containers,arrival_rate,latency,memory_util,memory_util_std,slo_duration
1024,1024,115.825061704144,348332,50944,38383616,30122624,0.9878691533974464,0.103067672231417,0.5625792415804903,1024,0,1,1,1078.356452093558,0.7763009614511962,0.0827812968784081,606.6609549722222
1024,128,569.4097818440142,477277,59695,36675584,29997424,0.8401027032358058,0.4490450483855318,0.23461248842873472,1024,0,1,1,2585.799924953696,0.8615994289745709,0.0680581951140489,606.6609549722222
1024,1536,88.43807915080556,382038,65692,61329408,45189504,1.0744592980109404,0.1441088241490952,0.7109776835477987,1024,0,1,1,853.2770704489161,0.7609178571378544,0.1070518056120573,606.6609549722222
1024,2048,55.64792864535318,366339,51762,57659392,45323096,1.0955957548831066,0.2343949120150923,0.8253026766729209,1024,0,1,1,735.0769264651864,0.7068745565782115,0.1409068619216023,606.6609549722222
1024,256,329.9696019783011,439413,39739,31956992,29477640,0.6105591782160656,0.0709133252667537,0.2542165637406026,1024,0,1,1,2386.3942854299876,0.8926129876638507,0.054882406309161,606.6609549722222
1024,512,162.4125168046385,484381,85988,43753472,29473560,0.9072796701723427,0.2557782403821343,0.38341335341155375,1024,0,1,1,1582.2635011906737,0.8712922516892038,0.0679385909079897,606.6609549722222
128,1024,94.98218048757305,405657,48448,38907904,30123544,0.9590960152264008,0.1029718097759374,0.581846422184488,128,0,1,1,1042.6479081792243,0.7858130291438875,0.1273415993361235,606.6609549722222
128,128,1047.3763495978958,403603,61614,37986304,29407032,0.7687729934921529,0.305152444717574,0.21280828413292532,128,0,1,1,2850.739375320966,0.8770686657671056,0.0592499149791705,606.6609549722222
128,1536,55.58206460826553,284893,51021,44806144,29973184,1.1207344680068319,0.2667649168044419,0.9261581649668273,128,0,1,1,655.0295380637833,0.6946955242625814,0.1542050683572813,606.6609549722222
128,2048,38.25899162895824,305712,46046,55824384,44550168,1.2142456200013227,0.3542817454568152,1.0,128,0,1,1,531.1118076324933,0.6924893636919784,0.1579968779532205,606.6609549722222
128,256,184.94903650905013,429440,64379,32481280,29460888,0.5190990535285306,0.0268950719724144,0.22186884502362794,128,0,1,1,2734.3224097444404,0.8976019136437947,0.045028815450459,606.6609549722222
128,512,218.60290830554405,435710,76655,32219136,29399248,0.7087952595557688,0.083223437564876,0.3169333684202333,128,0,1,1,1914.1593010421948,0.8865567892015184,0.0551977242962039,606.6609549722222
1536,1024,142.71064969647776,408365,70960,39170048,29823320,0.9493688321245407,0.1858452238463471,0.5065154559943746,1536,0,1,1,1197.714596450458,0.789926475753467,0.0982137950765327,606.6609549722222
1536,128,597.1727420758972,398288,74726,32481280,29861640,0.6834898188575631,0.1803622466111408,0.2491904802992912,1536,0,1,1,2434.5270101955325,0.8560853589386272,0.0614608437140382,606.6609549722222
1536,1536,61.59511928142166,348309,39711,44544000,30838344,1.1450175115868029,0.2320489586486609,0.873731154729382,1536,0,1,1,694.3336650964693,0.7106427874371712,0.1360584056547879,606.6609549722222
1536,2048,30.889200522880877,275939,63447,57135104,45380328,1.197604030390195,0.1971035823085332,1.0,1536,0,1,1,574.6750670130798,0.6833058966811127,0.1479641604160607,606.6609549722222
1536,256,421.2085392880844,433342,40793,35889152,29295280,0.7272060339850148,0.1927448363622306,0.2797560767776235,1536,0,1,1,2168.535396835914,0.8851779106440489,0.0610857462224637,606.6609549722222
1536,512,236.42162930874903,421983,35209,31956992,29416712,0.8273881600229028,0.2373030457011877,0.35911894073619693,1536,0,1,1,1689.3036990156018,0.8755948568197507,0.0607011420604712,606.6609549722222
2048,1024,120.3109901978428,373224,37241,44937216,30121976,0.9227447289046001,0.1142909636393611,0.5333702413168414,2048,0,1,1,1137.410578952498,0.7679295657038274,0.099508068418606,606.6609549722222
2048,128,533.9754716357331,441584,47888,32743424,29534288,0.8409376274131328,0.2981345958506524,0.2749688410706828,2048,0,1,1,2206.2898203665027,0.8957057914269578,0.048355675906547,606.6609549722222
2048,1536,63.00714099887642,329184,66720,59232256,45158328,1.155667107476158,0.2095724560984488,0.8665825478578788,2048,0,1,1,700.0613576535073,0.7045106625459989,0.1503906618663116,606.6609549722222
2048,2048,38.43335722681758,285447,54061,57135104,45490440,1.1838230793796827,0.2558553987419478,1.0,2048,0,1,1,508.09652372734524,0.6914537473976157,0.1537918351982014,606.6609549722222
2048,256,473.75853646047966,400230,65106,32481280,30026544,0.731549166015418,0.1974220102019364,0.2678530738056498,2048,0,1,1,2264.9019716398934,0.8947619589411762,0.0534672734788144,606.6609549722222
2048,512,162.55136292774156,448594,42804,32481280,29664096,0.7644730135954904,0.1185074195961616,0.3579158914283662,2048,0,1,1,1694.9818923970302,0.8544307163889379,0.0777951067273738,606.6609549722222
256,1024,86.2443949246148,409016,76944,48869376,30085592,0.9482915276652473,0.1530484276338524,0.5393110860576804,256,0,1,1,1124.8812988564055,0.7322093199651977,0.1140888833173602,606.6609549722222
256,128,961.2107892580618,441579,54778,33529856,29369312,0.8081388424778674,0.4050305295059503,0.20489498228361916,256,0,1,1,2960.838514495546,0.8906824160698764,0.0479977645141783,606.6609549722222
256,1536,59.41708952001043,326968,45360,58707968,44677248,1.1301267734741693,0.1945676711810661,0.860939736445083,256,0,1,1,704.6497324855668,0.6796615560102465,0.151291185819628,606.6609549722222
256,2048,40.75698464637458,327739,64895,58445824,44846808,1.2039276596371689,0.2977672847213525,1.0,256,0,1,1,524.7619193660574,0.6637880949037337,0.1684705507481901,606.6609549722222
256,256,299.496923162462,397039,56972,32743424,29403000,0.5691025938707975,0.0479802508542771,0.24996076577029394,256,0,1,1,2427.0247096687344,0.884258701888552,0.0608022406523037,606.6609549722222
256,512,215.9890477712477,411508,40007,32481280,29450632,0.736780741493157,0.0766611054761881,0.33591269341821944,256,0,1,1,1806.0078313769304,0.8916850790113439,0.0331510755512547,606.6609549722222
512,1024,86.3057481480828,429047,57596,45461504,29586392,0.8965525620864832,0.1107024624751221,0.4993541863482211,512,0,1,1,1214.8910964554755,0.7468051542560056,0.118012618535497,606.6609549722222
512,128,975.3733446505584,458020,53261,40083456,30041312,0.8002584545115451,0.3433415247395959,0.20667201917382527,512,0,1,1,2935.3802096546938,0.8649630193984781,0.0850793685642928,606.6609549722222
512,1536,57.52895658872786,312351,57314,60280832,44401392,1.1519096567181102,0.2012175230355674,0.8744254078215047,512,0,1,1,693.7823964694986,0.7406224974921756,0.0950541489893962,606.6609549722222
512,2048,33.132251136578155,338044,33033,57659392,44817312,1.18954797310197,0.2677036808703461,1.0,512,0,1,1,537.0362114909356,0.6944118680411073,0.1564237799901528,606.6609549722222
512,256,323.5104974459947,456694,69316,32219136,29964616,0.6706505088583321,0.1394211291667257,0.2658132096625905,512,0,1,1,2282.282945013478,0.8822675618415872,0.0638273099598119,606.6609549722222
512,512,225.6947585054101,446984,44048,32481280,30047472,0.7445450262493216,0.1688932051144518,0.3186231681789037,512,0,1,1,1904.0076666100695,0.9016445714195166,0.0599120482908634,606.6609549722222
