cpu,memory,duration_std,userDiff,sysDiff,heapTotal,heapUsed,avg_cpu_util,cpu_util_std,slo_preservation,total_cpu_shares,cpu_shares_others,num_containers,arrival_rate,latency,memory_util,memory_util_std,slo_duration
1024,1024,827.3747827891872,1889887,160180,43438080,34423824,0.6280795320784579,0.2254868246920344,1.0,1024,0,1,1,1010.3764933809646,0.8398305162299197,0.0855200515815631,2163.617037782177
1024,128,199.54281178657808,2358879,217531,37797888,34831952,0.4826974166949294,0.0073721706325837,0.3618942724296507,1024,0,1,1,5978.588783006413,0.9354579908887128,0.009822830938816,2163.617037782177
1024,1536,539.2809730818507,1805337,120152,62443520,34435072,0.7426958615024176,0.2814049118216821,1.0,1024,0,1,1,809.5807128282916,0.7669397594739367,0.1086442969922529,2163.617037782177
1024,2048,377.8844476206588,1533515,191867,82374656,56376808,0.7194908240107831,0.3363977272867573,1.0,1024,0,1,1,568.6266840616756,0.7629994877869495,0.0893293629232173,2163.617037782177
1024,256,3850.24120243552,2135009,140864,37535744,34688088,0.3908555808649673,0.1517461726511893,0.31641194016611085,1024,0,1,1,6837.97531991465,0.9165517438227248,0.0728126569602981,2163.617037782177
1024,512,1735.5278280394334,2082356,177149,37535744,33272952,0.5059063140850885,0.1247562973229819,0.8694473883466671,1024,0,1,1,2488.4967932291916,0.8995085986120929,0.0711152148291936,2163.617037782177
128,1024,765.481565864543,1780686,131513,48156672,37207728,0.6319969738148771,0.2344988818240427,1.0,128,0,1,1,1058.6367456723603,0.8004609384921484,0.106241592902125,2163.617037782177
128,128,668.4822683969818,1914091,206061,37273600,34752184,0.4057168351396955,0.0270851675516352,0.3184285812998684,128,0,1,1,6794.669715105348,0.8972951828495181,0.0840268466038691,2163.617037782177
128,1536,418.1345352634556,1759052,138366,60870656,40427168,0.6348806949192974,0.2486825499170801,1.0,128,0,1,1,627.7699478016243,0.7853644959914797,0.0816856954945032,2163.617037782177
128,2048,262.214568561077,1542564,158107,64016384,38857608,0.68749761548163,0.2957910746221794,1.0,128,0,1,1,443.41708012495565,0.7554535592118075,0.1072597815277393,2163.617037782177
128,256,3686.3167340156256,2130967,253618,38060032,35663064,0.3512674531709244,0.1193488463681268,0.29778301798828993,128,0,1,1,7265.750251302978,0.9101861610479708,0.0631991932271888,2163.617037782177
128,512,1693.8582575505686,2072474,229852,37011456,34022520,0.5746608962595549,0.2120269304288277,0.9381280605626275,128,0,1,1,2306.3131023760034,0.8784819588770485,0.0834366148213789,2163.617037782177
1536,1024,827.4091448730783,1868383,121787,45010944,36149024,0.6665366064764909,0.2219151003037723,1.0,1536,0,1,1,1099.8360093223996,0.8543897242045178,0.0491647141542098,2163.617037782177
1536,128,4104.107587371153,2308633,265669,51961856,49277304,0.4624806991105428,0.1534933525435859,0.2795953251586812,1536,0,1,1,7738.387745053464,0.878474685727127,0.1182454112521534,2163.617037782177
1536,1536,462.6677592289584,1718766,144222,52482048,37669928,0.7291427357970626,0.3304502989816967,1.0,1536,0,1,1,610.0489086923218,0.7837302250061751,0.078739054360765,2163.617037782177
1536,2048,214.15676034695144,1498043,167014,64016384,40770528,0.6259469161035592,0.3763286746060529,1.0,1536,0,1,1,515.1635360647939,0.7676375607300455,0.100191808495601,2163.617037782177
1536,256,3171.698607760049,2212557,181449,37273600,34906144,0.4011934263839418,0.112088235622242,0.3846293526516354,1536,0,1,1,5625.200008439807,0.9137051573034888,0.0581533204513202,2163.617037782177
1536,512,1811.9713688304437,2245463,227906,37797888,35319032,0.7422265465967786,0.3328415161236324,1.0,1536,0,1,1,1854.5845756507076,0.9033344313180196,0.0813393341696112,2163.617037782177
2048,1024,820.7178394704923,1935768,218125,47108096,37211496,0.7101426666914947,0.1561174193796337,1.0,2048,0,1,1,1022.2183727813289,0.8410583220188705,0.0676408384185756,2163.617037782177
2048,128,3353.3261961098497,2358903,335960,52486144,50190544,0.5520126128410141,0.1964038819864236,0.33274252152539535,2048,0,1,1,6502.376155182939,0.9456221994780374,0.0123913334632145,2163.617037782177
2048,1536,551.6869625931413,2099216,133851,53268480,39084760,0.7888502360195253,0.28533160284718,1.0,2048,0,1,1,725.5114632153883,0.7270303581440578,0.0965884727516395,2163.617037782177
2048,2048,344.0248486920012,1823607,149395,60870656,42344360,0.6488829211373112,0.3579169602391877,1.0,2048,0,1,1,606.060406416912,0.7745369652430182,0.0877252232077432,2163.617037782177
2048,256,2678.0233949355265,1928250,200639,37535744,34483576,0.3864653546406464,0.0756629119285099,0.378411427607814,2048,0,1,1,5717.631339676538,0.9036351686849572,0.067767933431452,2163.617037782177
2048,512,1895.6158780122737,2136924,203283,38060032,35154168,0.45172329678623574,0.076654220089666,0.7626540331393319,2048,0,1,1,2836.9574456664523,0.9021282654094318,0.0731874397828383,2163.617037782177
256,1024,784.5282455315659,1891232,168533,59174912,50248824,0.720132582469662,0.21145017588821,1.0,256,0,1,1,1055.7230363574695,0.8110445745961897,0.0931422757121852,2163.617037782177
256,128,726.5436092907258,1894922,191187,37535744,35302264,0.5458900385051765,0.0819679361690257,0.4397481264393589,256,0,1,1,4920.127927095418,0.9504936022034592,0.0106894627166849,2163.617037782177
256,1536,387.6455521564946,1740045,154635,64278528,33482664,0.7114266246454293,0.3619091993046848,1.0,256,0,1,1,588.2230797812148,0.7391105297319867,0.106731080636676,2163.617037782177
256,2048,183.00591351897117,1470486,137372,52219904,40471280,0.5314873466014559,0.2896058654339519,1.0,256,0,1,1,555.224064849342,0.8058334413818491,0.0802632298910647,2163.617037782177
256,256,3456.685331093163,2256656,221723,38060032,35592856,0.5243174079666146,0.2366219875712523,0.40304147731819295,256,0,1,1,5368.224263613558,0.924447903688016,0.0422334100231881,2163.617037782177
256,512,1809.9413443181047,2029711,130820,38060032,35896048,0.5211326791462244,0.1009420949904369,0.920917006299283,256,0,1,1,2349.4158789364747,0.9295331201968946,0.0280483177923346,2163.617037782177
512,1024,777.7282662680982,1998300,209133,58912768,52183064,0.6766319880079865,0.2393951388210951,1.0,512,0,1,1,1028.6741960849083,0.8240630714148498,0.1057222615718431,2163.617037782177
512,128,3081.578237434897,2601205,191794,37797888,35814416,0.5496023693620996,0.1857974844098111,0.32691786130457695,512,0,1,1,6618.228288745646,0.8968376024669669,0.0867876835285048,2163.617037782177
512,1536,575.965299911343,1804280,187770,73461760,57032744,0.6739923539095412,0.2871131370196006,1.0,512,0,1,1,723.1912368220775,0.7937930779050542,0.0691387824633155,2163.617037782177
512,2048,430.0052084108786,1794844,153085,53006336,41665456,0.743292622983991,0.3214576513514128,1.0,512,0,1,1,591.2817806427681,0.7443801955066146,0.1069423727242572,2163.617037782177
512,256,3532.3990739496176,2345516,158463,37535744,34397472,0.3798253282086956,0.1322408641121019,0.34040280594034394,512,0,1,1,6356.049362769805,0.9179838902099348,0.0631042592157997,2163.617037782177
512,512,1964.2596695608495,2210378,182545,42254336,34566472,0.4310493887484107,0.1017214786295603,0.7680435078861872,512,0,1,1,2817.050096207301,0.9011277283165422,0.0691898445108744,2163.617037782177
