cpu,memory,duration_std,userDiff,sysDiff,heapTotal,heapUsed,avg_cpu_util,cpu_util_std,slo_preservation,total_cpu_shares,cpu_shares_others,num_containers,arrival_rate,latency,memory_util,memory_util_std,slo_duration
1024,1024,67.72915055034483,184387,1012,25792512,17082376,0.9166374675923286,0.1046147107070408,0.5324163971151551,1024,0,1,1,447.837141677158,0.6636314050525973,0.0457613710748431,238.43583746610173
1024,128,205.47363303882133,87632,380,28094464,24298656,0.7269681001673431,0.170169575201709,0.3253497088656732,1024,0,1,1,732.8601531484526,0.8669022524985628,0.012005818258786,238.43583746610173
1024,1536,59.230092428142704,125750,0,41996288,29070984,0.9564396923505548,0.0908804863219457,0.6160694106914976,1024,0,1,1,387.02755457128296,0.6066513379315094,0.1169816249859241,238.43583746610173
1024,2048,33.642706734158764,142349,23,42258432,28602512,0.9882382980840101,0.0341233320006878,1.0,1024,0,1,1,225.8473144674148,0.5414618165117886,0.0542928757877293,238.43583746610173
1024,256,295.0428250321566,97520,4162,27570176,24212984,0.6964461817636152,0.2676102358838706,0.2950876854342339,1024,0,1,1,808.016902214111,0.8723717820090626,0.0122462723904654,238.43583746610173
1024,512,89.44787926097455,155998,35,28094464,24261816,0.7501175396187435,0.1918954648973235,0.5106693220155117,1024,0,1,1,466.90848105980245,0.8750789253228086,0.0157798761214685,238.43583746610173
128,1024,86.074078904845,142347,37,33738752,28818760,0.9034713718124134,0.1177039362759673,0.5016860146641625,128,0,1,1,475.2690537441329,0.667342035455124,0.082802776433918,238.43583746610173
128,128,331.13829745027306,151611,33,28352512,23965296,0.609575821820317,0.1805666365830412,0.2543019254808255,128,0,1,1,937.6092493805359,0.8647874176909114,0.0095838918203036,238.43583746610173
128,1536,44.145317946501095,224002,1963,41996288,28873584,0.984054910575598,0.040812215742429,0.701852170391768,128,0,1,1,339.723730330575,0.5527924544194138,0.0978631725787464,238.43583746610173
128,2048,45.58240665420957,81789,13366,34050048,15628552,0.9829915365159813,0.0779229019842676,0.889078592074032,128,0,1,1,268.1830825662796,0.5503958230352597,0.0575329837277567,238.43583746610173
128,256,200.8099587572504,185109,32,27570176,24236984,0.639943293221657,0.2036089024685916,0.2738298844143395,128,0,1,1,870.7443965660007,0.8696864908939269,0.0091557652847044,238.43583746610173
128,512,119.41420265613289,169045,1081,27832320,24376744,0.77753317016055,0.1938351516429832,0.42127275894494026,128,0,1,1,565.9892134095121,0.8770933671387313,0.0133979697159365,238.43583746610173
1536,1024,52.52757111614443,178751,5145,34263040,27276488,0.910262776495543,0.0869980801310178,0.5755905501639516,1536,0,1,1,414.24557334755673,0.6618870993911518,0.064353770696693,238.43583746610173
1536,128,114.20188285285744,150403,7616,27832320,24226328,0.7237044461988441,0.1113824337146261,0.3981882736402205,1536,0,1,1,598.8017559792288,0.8670606947892688,0.0120233350501489,238.43583746610173
1536,1536,56.21249929357033,214041,46,41996288,29163336,0.9266828329532895,0.1271565112312872,0.7499096363686513,1536,0,1,1,317.9527584426026,0.5891253754461282,0.1004585453598368,238.43583746610173
1536,2048,48.057223599354245,178067,2362,42258432,28555640,0.9797400125858505,0.0590467202216692,0.7858579218632401,1536,0,1,1,303.40832717036074,0.536514519689832,0.0715577005083629,238.43583746610173
1536,256,172.31355215794986,128014,7822,27570176,24140928,0.7257482910797485,0.2720045612366149,0.3982382612600037,1536,0,1,1,598.7265932502416,0.8666277862464495,0.0117873897927726,238.43583746610173
1536,512,106.2171492093708,160332,34,28356608,23884568,0.8084822245631872,0.188707312706494,0.4895342768744668,1536,0,1,1,487.06668507146185,0.8712054002627816,0.0162713908667281,238.43583746610173
2048,1024,67.29743630764297,180814,2565,33738752,28655368,0.8750283462063649,0.1399621149105145,0.5376462037583641,2048,0,1,1,443.48092816305393,0.6666776974009582,0.07384628701543,238.43583746610173
2048,128,147.17618463708132,220720,10646,28094464,24312360,0.7850858841187314,0.183993410998271,0.4266734378492279,2048,0,1,1,558.8251255292741,0.8658276922775625,0.0098485928042294,238.43583746610173
2048,1536,45.3095997663928,104491,32,41996288,28744824,0.9722186971114839,0.0666303498020547,0.7100535658707426,2048,0,1,1,335.79978881411085,0.5507873680021931,0.1108367640021376,238.43583746610173
2048,2048,39.53822643956981,122738,21,42258432,28424376,0.98493419754263,0.0617880299089078,0.8302002051632286,2048,0,1,1,287.2028168425013,0.545584537580172,0.0528833843934763,238.43583746610173
2048,256,169.02653110410537,119862,5691,28094464,23972576,0.7653317925243188,0.2391624601979867,0.34714023314558873,2048,0,1,1,686.8573985375617,0.8620592937738426,0.0142081605918446,238.43583746610173
2048,512,77.25737356128295,103741,2958,27570176,24279200,0.8764008184861259,0.1823280249597929,0.6286161239501975,2048,0,1,1,379.3027706126608,0.888707487420108,0.0148922828863362,238.43583746610173
256,1024,79.51236841264658,193315,1718,33738752,28652128,0.8532583311240355,0.1277725799368749,0.5058726228545326,256,0,1,1,471.33572107669823,0.6912927868771981,0.0986630133895978,238.43583746610173
256,128,338.5393819739726,91046,23,27570176,24247656,0.6911631913596742,0.2551967273061095,0.2556914485635873,256,0,1,1,932.5139296037337,0.8713444865503214,0.0106158062505255,238.43583746610173
256,1536,47.4518050167224,113024,10868,34836480,15791560,0.968236993730857,0.0844863430264989,0.7331417346315792,256,0,1,1,325.224750144556,0.5947329149093902,0.1143493380645437,238.43583746610173
256,2048,55.14660707325332,91686,27,42258432,28599744,0.9796229215536011,0.058808167031753,0.7915974574832063,256,0,1,1,301.20844276607613,0.5362086003905612,0.0727643217386001,238.43583746610173
256,256,161.27982392344683,122583,10166,27828224,24207032,0.617674521873122,0.1039796009561039,0.2755736922405559,256,0,1,1,865.2343971135115,0.8722454012786514,0.0074963898923856,238.43583746610173
256,512,107.79492406764888,103332,2975,28094464,24422368,0.8183848673451504,0.1987044246430875,0.5116342765962263,256,0,1,1,466.0278804077693,0.8775330144624022,0.0210817971688854,238.43583746610173
512,1024,72.28851788476659,189799,4012,34787328,26435000,0.9117447959356415,0.1314531975069879,0.5177021975165481,512,0,1,1,460.5656275169283,0.6736198475587724,0.0580409387560333,238.43583746610173
512,128,228.8828753282437,244804,6457,27570176,24196064,0.694479884962435,0.1756389532699422,0.2875438835279278,512,0,1,1,829.2154732720772,0.8638762018875196,0.013638182180934,238.43583746610173
512,1536,43.29223639067836,111149,35,42258432,28602072,0.9701794109268632,0.080137032526167,0.6887876339089017,512,0,1,1,346.16741899526755,0.6180280008994661,0.0893138873291715,238.43583746610173
512,2048,35.432247602833655,71588,15929,34050048,15557824,0.9811231326299007,0.0776880096147541,0.840971945654387,512,0,1,1,283.5241278834423,0.5951608227174645,0.0989825084296818,238.43583746610173
512,256,173.53734290393993,192835,784,28618752,23965480,0.7070698101414205,0.2719163736013397,0.32384016704802016,512,0,1,1,736.2762922202471,0.8637592871453625,0.0142665096845989,238.43583746610173
512,512,156.23572254441558,181137,4019,27828224,24529936,0.7553054117468696,0.2118118979489537,0.4160331722072701,512,0,1,1,573.1173699469128,0.8808844724954356,0.0160961640343054,238.43583746610173
