cpu,memory,duration_std,userDiff,sysDiff,heapTotal,heapUsed,avg_cpu_util,cpu_util_std,slo_preservation,total_cpu_shares,cpu_shares_others,num_containers,arrival_rate,latency,memory_util,memory_util_std,slo_duration
1024,1024,168.17741350038892,321324,68099,28938240,15393952,0.8394581325598032,0.2020962171161486,0.6907374397631415,1024,0,1,1,725.8004649654791,0.6660719480261805,0.1541977790713968,501.3375549491527
1024,128,162.02251917378862,472833,79473,20676608,15189488,0.7762284007001357,0.1542026765125071,0.5279831650668245,1024,0,1,1,949.5332202224679,0.7888516183561183,0.0943209982309306,501.3375549491527
1024,1536,126.14366766415134,271568,47296,58466304,40427136,0.7391949375663446,0.1832457586768602,0.6590647162549446,1024,0,1,1,760.6803134568372,0.5467962081824524,0.1530871085854531,501.3375549491527
1024,2048,158.61672618429102,335170,87793,82083840,62321312,0.7924106340922465,0.2841748612203387,0.6908594095532308,1024,0,1,1,725.6723264048192,0.5288640957946898,0.1521219450735243,501.3375549491527
1024,256,170.7615287054625,302227,50156,40304640,37252792,0.8095524221009949,0.2120529552847335,0.5237022621596233,1024,0,1,1,957.2949959806476,0.816367907020652,0.0783723288168577,501.3375549491527
1024,512,130.11533074938114,346416,73087,33259520,28680208,0.7925386841443961,0.1529058647367044,0.5743645414200518,1024,0,1,1,872.8560327029451,0.8358475963164771,0.0697597448203097,501.3375549491527
128,1024,142.853184685509,394123,57317,37195776,23135432,0.7520242474755108,0.1810338216981333,0.556619521813026,128,0,1,1,900.6826661705857,0.7000485945194799,0.1417836811745909,501.3375549491527
128,128,200.26386275153703,387082,88228,19890176,15196464,0.7307294422681111,0.1348201361597077,0.494487705230274,128,0,1,1,1013.8524166454024,0.8408096855705823,0.0705092789937577,501.3375549491527
128,1536,150.50562529036446,313194,47794,58204160,42525768,0.8398517455162553,0.2948441811241409,0.7263881501969874,128,0,1,1,690.178597783012,0.5322094501119263,0.1528449628701831,501.3375549491527
128,2048,147.04717862644003,314445,58773,56229888,36688816,0.8314870715877705,0.287284970764065,0.7011524481874709,128,0,1,1,715.0193317375501,0.5198927743595169,0.1711475430077686,501.3375549491527
128,256,138.81770478897923,360979,49142,32800768,26843672,0.8282824437454951,0.2428778814609561,0.5813833915222897,128,0,1,1,862.3183294528837,0.8207791609575305,0.083171160421639,501.3375549491527
128,512,144.5637341986491,295162,33533,40886272,37650848,0.8167654809129725,0.2531626750470105,0.6010295451915385,128,0,1,1,834.1312984695028,0.8469909345863341,0.0746865672457615,501.3375549491527
1536,1024,143.80587793481772,279181,49120,29724672,15393520,0.7396484324024571,0.2129177641428555,0.6095151823693092,1536,0,1,1,822.5185679548651,0.6380123462511665,0.1275923711479035,501.3375549491527
1536,128,180.47715795845417,288955,35404,40439808,37409456,0.773212914056445,0.2159046171424788,0.5347946427456399,1536,0,1,1,937.4393736917067,0.8448655966069705,0.0790012543850635,501.3375549491527
1536,1536,161.82094014002922,337047,63268,39292928,15524192,0.8128034258378226,0.2687013562734788,0.6625604788022652,1536,0,1,1,756.6668568210391,0.5276487047179926,0.1736458995576688,501.3375549491527
1536,2048,107.2742569916948,324849,44487,70123520,49793336,0.7030074832699621,0.2326941568005781,0.6970979757724716,1536,0,1,1,719.1780386302344,0.6367076477592484,0.148818768275585,501.3375549491527
1536,256,157.66241401758265,407054,77332,20152320,15185392,0.8532990390106934,0.2706055755922508,0.5556155171828836,1536,0,1,1,902.3102117289048,0.8136496951001895,0.0641821708676363,501.3375549491527
1536,512,196.74782206001575,232985,75833,40439808,37366152,0.8444525246819145,0.2150117948094234,0.5304561886881853,1536,0,1,1,945.1064303518773,0.8342074219600649,0.0876312014261121,501.3375549491527
2048,1024,180.72785616322443,390227,76363,47833088,36344072,0.8142627373305669,0.2210876438941955,0.6076940437849612,2048,0,1,1,824.9834930528892,0.6719491129150651,0.1262659836178553,501.3375549491527
2048,128,174.48038623249934,372946,84641,38785024,34034576,0.7719297393402405,0.182019031852164,0.5115477578609241,2048,0,1,1,980.0405675621253,0.8098985411057446,0.0790113641724314,501.3375549491527
2048,1536,139.1942716898882,259373,49033,59805696,40773944,0.7350528134103176,0.1819688253298813,0.5939124984697995,2048,0,1,1,844.1269652361858,0.5847311903929459,0.1622416642947353,501.3375549491527
2048,2048,138.17211305286168,274940,49266,63913984,44003592,0.7105805857929232,0.2018665751591533,0.6990288139451631,2048,0,1,1,717.1915448230454,0.5482777246313437,0.1800338504349455,501.3375549491527
2048,256,130.12557079161755,238630,37419,40439808,37349496,0.8056944167338107,0.2299819207727613,0.5654876748471489,2048,0,1,1,886.5578813626028,0.8022317205110063,0.0763656836695115,501.3375549491527
2048,512,160.6633509717316,327181,44237,33034240,27147432,0.8926065457841568,0.2255077920457409,0.6419199513704699,2048,0,1,1,780.996997957175,0.8229825330367276,0.0772574857099315,501.3375549491527
256,1024,192.20698851037335,364949,76483,28413952,15319992,0.7965440032870754,0.2647407096459571,0.600230126192735,256,0,1,1,835.2422397208572,0.6331484687817903,0.13457987796495,501.3375549491527
256,128,154.0052325761641,265546,35339,40701952,37329696,0.8502850046594905,0.2198147371195754,0.6228820277968865,256,0,1,1,804.8675874023326,0.8150151127513066,0.0886394482159644,501.3375549491527
256,1536,134.668092553384,224199,28788,45350912,28055608,0.7619776938064599,0.1781157549602088,0.619844980830188,256,0,1,1,808.8111873999324,0.5676417449096377,0.1816528383742411,501.3375549491527
256,2048,117.98029033903286,277229,43537,64176128,44034280,0.7759629703268077,0.2517080137284098,0.7661331364882359,256,0,1,1,654.3739345972681,0.5399840345722813,0.1718999833606503,501.3375549491527
256,256,176.39163936238444,386696,85787,19890176,15189768,0.8869374646241216,0.2481792974450777,0.6221515606528771,256,0,1,1,805.8125811386797,0.7902114655136762,0.0810944883469044,501.3375549491527
256,512,130.804827504993,349693,63455,32800768,26792640,0.7677394157457983,0.2319043495736294,0.5320760435669345,256,0,1,1,942.2291437672764,0.7958037510354733,0.0964878426155504,501.3375549491527
512,1024,136.30607770776575,277860,36433,45973504,36751064,0.7873963551325067,0.167855702960442,0.5872523344837074,512,0,1,1,853.7004035750865,0.691133298717713,0.1301303236910454,501.3375549491527
512,128,257.65824169795565,298269,58785,36999168,30578456,0.8018298268299711,0.2043632578199982,0.49535279933520504,512,0,1,1,1012.0818043664628,0.8229557567822008,0.0681741639869463,501.3375549491527
512,1536,135.8711625452126,333962,49892,53358592,34304584,0.8310170175839827,0.3070149047331958,0.752269135561933,512,0,1,1,666.4337685137934,0.5950563211879117,0.1987804439080127,501.3375549491527
512,2048,140.501136475478,377602,72117,37720064,15523872,0.8578986924844597,0.2839168207407337,0.7143978876002532,512,0,1,1,701.7623703132783,0.55012173039673,0.1700266463479244,501.3375549491527
512,256,155.45773402447904,320700,52666,21200896,15200624,0.8507894899613639,0.2326530220937486,0.5687198544143127,512,0,1,1,881.5193474570135,0.7898365971038778,0.0749781415070143,501.3375549491527
512,512,164.67507380957662,410996,68380,38522880,34242104,0.8370635864745103,0.2603631081730093,0.571565337130553,512,0,1,1,877.1307886969371,0.8231954152341237,0.1000881411519564,501.3375549491527
