cpu,memory,duration_std,userDiff,sysDiff,heapTotal,heapUsed,avg_cpu_util,cpu_util_std,slo_preservation,total_cpu_shares,cpu_shares_others,num_containers,arrival_rate,latency,memory_util,memory_util_std,slo_duration
1024,1024,91.84763039157224,306368,33643,37072896,30011384,1.0234798009218016,0.1655367485659452,0.4951345145656683,1024,0,1,1,601.1938361891351,0.7965639519095317,0.0588916784619926,297.67181824137936
1024,128,216.8523133832608,348934,67612,32743424,29693656,1.0364035127887445,0.3620561618383243,0.3823224510180529,1024,0,1,1,778.5883812178312,0.8989582472080007,0.0498018803995253,297.67181824137936
1024,1536,66.16430076236242,323325,48904,42708992,31048680,1.1773492301001776,0.1760206200585761,0.7137332182579667,1024,0,1,1,417.06314155857456,0.7460448033861244,0.06360087602966,297.67181824137936
1024,2048,43.246814202355225,264640,76007,36409344,15546112,1.241166594556308,0.1380120825545937,0.9261686442208257,1024,0,1,1,321.4013129237462,0.6862155793226468,0.1324657982817557,297.67181824137936
1024,256,84.86983302409631,307303,72755,31956992,29869968,1.024747305625723,0.1295957472081138,0.38846095896013594,1024,0,1,1,766.285031675285,0.9172511791445646,0.0145474098290758,297.67181824137936
1024,512,114.15137479549549,455247,81339,32743424,29645840,0.8907555026215126,0.0692959055127911,0.35450633259436104,1024,0,1,1,839.6798332569879,0.8965906175782907,0.0422627055977011,297.67181824137936
128,1024,105.0647353450864,378397,45687,38383616,30958512,0.864248863408691,0.1298341462521619,0.4152589397997816,128,0,1,1,716.8342200770024,0.7841979092623201,0.0925220728539185,297.67181824137936
128,128,545.0800809284459,369934,63520,32743424,29777224,0.9109578459426352,0.2919198548040406,0.24402598128661285,128,0,1,1,1219.8365791704716,0.9119726346559704,0.0085641396069759,297.67181824137936
128,1536,66.95666885085852,300585,48370,44806144,31127024,1.0681151988154483,0.1638020601782413,0.6695359268556978,128,0,1,1,444.59424252155964,0.7121542172906568,0.0832526319479124,297.67181824137936
128,2048,46.42714659898425,305321,54257,60891136,48356784,1.2279849671112792,0.1972583652192162,0.8015182746501824,128,0,1,1,371.38494237239485,0.6905619598455758,0.0971914084920405,297.67181824137936
128,256,79.49716543843749,182594,28678,34840576,29956880,1.134570173738198,0.1483392202308758,0.4805404702075522,128,0,1,1,619.452130874244,0.8992297429173168,0.0358853152588184,297.67181824137936
128,512,97.17442423514268,348477,56503,33005568,29997368,1.061727103434346,0.1524843426758772,0.43061176620066854,128,0,1,1,691.2765549064488,0.904804264418307,0.0406690681393214,297.67181824137936
1536,1024,97.46806836180076,372199,56491,39432192,29746488,1.0241603544208346,0.1127509929651816,0.491431187193803,1536,0,1,1,605.7243129829857,0.8129959083343401,0.046858124602531,297.67181824137936
1536,128,325.9262275218453,337665,71737,33267712,29602608,0.9103794253315823,0.2774297624248177,0.30957204522920573,1536,0,1,1,961.5591033776467,0.9087378128871466,0.0276015246731159,297.67181824137936
1536,1536,55.610195002372,254316,39983,47689728,30535888,1.1553658775302846,0.1692438290695081,0.7112250031089374,1536,0,1,1,418.5339617423227,0.6819219997424558,0.094081553012312,297.67181824137936
1536,2048,43.56262852705355,233504,40761,47427584,30607072,1.2054916644821954,0.1411552783149098,1.0,1536,0,1,1,290.60229726793847,0.7571766131631292,0.0725713028663644,297.67181824137936
1536,256,47.40252295515695,304888,48371,32481280,29620064,1.1554065418090114,0.1385048001998187,0.591170577662606,1536,0,1,1,503.5294879158672,0.9016448480989788,0.0356105907762589,297.67181824137936
1536,512,97.41308860865108,244050,41867,33005568,30178320,1.014164528413944,0.1241483542068565,0.4096079546512397,1536,0,1,1,726.7237241396635,0.9183878014990412,0.012830896508417,297.67181824137936
2048,1024,84.05596991659455,370232,36470,39432192,29742744,1.0270358229489318,0.1414530830586745,0.5376505911885209,2048,0,1,1,553.6529171917235,0.7917881727336603,0.0751038356685084,297.67181824137936
2048,128,214.40537526404236,237562,28513,32219136,29667240,0.9713182626478446,0.2908255161851404,0.3714045270432529,2048,0,1,1,801.4760094906253,0.9121540245917402,0.0164872457741883,297.67181824137936
2048,1536,50.97771512853628,293147,41388,44281856,31680560,1.0957837081461703,0.1351220714029853,0.6796339633131411,2048,0,1,1,437.98843835034654,0.708255293991652,0.0879757034160552,297.67181824137936
2048,2048,43.38298807716761,316973,74333,43757568,30210168,1.2414426514211254,0.1757775471314256,0.8806730713787585,2048,0,1,1,338.00490547003125,0.6980146701632666,0.1178993235967667,297.67181824137936
2048,256,95.2578047625378,310792,64687,32743424,29889648,1.0246316806213907,0.1680497376724445,0.44705101108934764,2048,0,1,1,665.8564925645289,0.911743961385325,0.027181684588419,297.67181824137936
2048,512,76.08960427678213,366504,42986,33005568,29629176,1.045173234377919,0.1754956206401119,0.41519242835903764,2048,0,1,1,716.949052799122,0.9135393040893536,0.0125629955934894,297.67181824137936
256,1024,85.61080518801299,468178,32791,39694336,30290936,0.983861136727277,0.1239929523799103,0.49733010699942043,256,0,1,1,598.5397104497562,0.7587025029676405,0.068718502768875,297.67181824137936
256,128,390.6944339143249,409463,102410,33267712,29646896,0.8793058134460427,0.2612247800046092,0.2947015888404539,256,0,1,1,1010.0787695533379,0.9115059169276576,0.0142531617429838,297.67181824137936
256,1536,57.39961959590671,253240,35861,67256320,55891240,1.1220374585394173,0.1349220339625596,0.7373350395208147,256,0,1,1,403.7131050150997,0.7099814562306279,0.1115428242390279,297.67181824137936
256,2048,39.78916991753409,255019,32934,44019712,30699624,1.244393928646084,0.2122485716777662,0.9318934909458253,256,0,1,1,319.4268670545787,0.6929413403068911,0.1083189012435636,297.67181824137936
256,256,58.20526291296935,307402,48699,31956992,29955968,1.0200839220680589,0.1445239577550621,0.47044253433627803,256,0,1,1,632.7485219025708,0.9081311220252278,0.016229776592466,297.67181824137936
256,512,61.25307360129732,290496,69513,33005568,30142384,0.9998346099476089,0.1028450648757357,0.426185929262384,256,0,1,1,698.4552933424412,0.9170646758668204,0.0129990125752705,297.67181824137936
512,1024,91.10317605403829,303067,39018,39694336,29740336,1.0305202955600425,0.1646050338583309,0.5425529825168411,512,0,1,1,548.6502292559777,0.7857422122135883,0.0922272440029443,297.67181824137936
512,128,242.47678067999297,405904,65979,32481280,29506816,0.8114259922636263,0.1708786891161167,0.2655920065357265,512,0,1,1,1120.7860587526288,0.9232710582034857,0.0093726987297501,297.67181824137936
512,1536,63.49542786232782,293459,53120,43233280,30515736,1.1350269114024865,0.1712842864289821,0.6675351210156678,512,0,1,1,445.9268267240618,0.6996996035423755,0.0953859118785267,297.67181824137936
512,2048,39.94138038622016,356906,67269,49000448,29913136,1.25394201565264,0.1895363484441243,0.8210862730198596,512,0,1,1,362.53415508528366,0.6675217055883529,0.0787017798145629,297.67181824137936
512,256,48.30276882708957,346715,54416,33267712,29760368,1.175660955138958,0.1662384598732662,0.511915391269878,512,0,1,1,581.4863614531351,0.9050160192538366,0.0313849316545253,297.67181824137936
512,512,96.47296517474524,288540,45205,32743424,30023336,1.013652578397323,0.1387626408142097,0.42266516127701614,512,0,1,1,704.2733717205622,0.9136491725953048,0.0137061858965328,297.67181824137936
