cpu,memory,duration_std,userDiff,sysDiff,heapTotal,heapUsed,avg_cpu_util,cpu_util_std,slo_preservation,total_cpu_shares,cpu_shares_others,num_containers,arrival_rate,latency,memory_util,memory_util_std,slo_duration
1024,1024,57.560752250660016,116169,8749,25268224,15197192,0.9043377054714837,0.1596313046470049,0.5172459208097089,1024,0,1,1,119.54449135439698,0.6737491791484427,0.059633265577356,61.83390050833334
1024,128,33.96317349034856,58397,54,18841600,15224048,0.9531202839972912,0.0630432406394263,0.5357839297884132,1024,0,1,1,115.40827761062602,0.8280863752410074,0.0238839661876247,61.83390050833334
1024,1536,31.84808579952969,31164,26,39071744,24375728,0.962004142717152,0.0830760127430891,0.643023722456736,1024,0,1,1,96.16114981277951,0.5341536144200596,0.0508714422331087,61.83390050833334
1024,2048,19.768078417667688,36391,73,39333888,24437016,1.0252706481597946,0.0793197780098638,1.0,1024,0,1,1,58.81394037201618,0.5432252961129783,0.0655436978336704,61.83390050833334
1024,256,30.809474320206448,76978,62,19103744,14620160,0.9640933859566388,0.054219123261155,0.6243760608716765,1024,0,1,1,99.03310582088703,0.8234865384572805,0.02203689025744,61.83390050833334
1024,512,30.370316103633392,38380,4432,19103744,14521576,0.9576901659929814,0.0964168159118608,0.6858945745988555,1024,0,1,1,90.15073569359666,0.8272205981430261,0.0258629188214586,61.83390050833334
128,1024,52.97747479121341,53141,3479,25530368,14650248,0.8782404191398028,0.1298546689210695,0.49799605619822557,128,0,1,1,124.16544215306111,0.6666994172786366,0.0501596329433572,61.83390050833334
128,128,38.06826185389315,151018,8758,18841600,15170824,0.930347183623942,0.0790237649100634,0.6151926439809624,128,0,1,1,100.51144322565541,0.8466136433515423,0.0236767814938121,61.83390050833334
128,1536,33.925497844829,93883,4127,39071744,24344344,0.9300706996400887,0.1346554069205666,0.7131492669386018,128,0,1,1,86.70541130018002,0.5353622469685909,0.0599661458015987,61.83390050833334
128,2048,16.088384756869186,31794,31,39333888,24414168,1.0156390710038714,0.0369394594028417,0.9701747860713043,128,0,1,1,63.734804693005884,0.5440424475615719,0.0606755267856516,61.83390050833334
128,256,39.41880171695183,64397,5337,18841600,15056272,0.9369487975291206,0.0972700691914674,0.645036647387116,128,0,1,1,95.86106581510863,0.8187314179648965,0.0175807219685821,61.83390050833334
128,512,29.758233958107024,51946,8595,18841600,15161984,0.9706364611726493,0.116368966636742,0.9323885486854869,128,0,1,1,66.3177390965482,0.8234061797609167,0.0185743622046712,61.83390050833334
1536,1024,37.89441720708489,59384,74,30814208,24406016,0.9676234419764222,0.08298314531924,0.7661173481788367,1536,0,1,1,80.7107431457084,0.663963473856998,0.0586366751855855,61.83390050833334
1536,128,31.20312616044816,31298,7956,18841600,15101456,0.9533689803581598,0.1203421658412043,0.6554016169817719,1536,0,1,1,94.34505333247152,0.8332808074863157,0.0228122834585878,61.83390050833334
1536,1536,30.12847363385999,62326,2606,39333888,24563560,0.9385342946198587,0.1173692248577308,0.684138484905426,1536,0,1,1,90.3821402722011,0.5303705170390182,0.0505625169426873,61.83390050833334
1536,2048,20.71189037164239,38526,6737,39071744,24480120,1.0218333900430265,0.0460652158280234,1.0,1536,0,1,1,57.007913404449226,0.5336492346850388,0.05819756594272,61.83390050833334
1536,256,44.86525021162572,146970,10996,19103744,15145672,0.8803069918757959,0.1452658356819569,0.5753116751143078,1536,0,1,1,107.47895998468597,0.8309443866204234,0.0238823801751845,61.83390050833334
1536,512,35.036020163695134,48913,34,18841600,15180024,0.9422141396899114,0.0880957456598126,0.5557031381411517,1536,0,1,1,111.27146180093585,0.8195997544838933,0.014413419107051,61.83390050833334
2048,1024,38.25373058880338,45343,4219,25530368,15351528,0.8998560992426167,0.1347332844881131,0.553588937160503,2048,0,1,1,111.69641652431675,0.6588681683587894,0.0451455927276465,61.83390050833334
2048,128,41.73759584605167,87248,7944,18841600,15211576,0.9433117890263434,0.0989662571920383,0.6536051116929879,2048,0,1,1,94.6043710523764,0.8162577178036321,0.016084467391496,61.83390050833334
2048,1536,36.46639475832795,39047,34,39333888,24407768,1.0000089287604388,0.1794326944129397,0.7381370281852334,2048,0,1,1,83.77021900710866,0.534927675606929,0.0623312357749208,61.83390050833334
2048,2048,16.216769285844826,31574,481,39071744,24448880,1.048188256629482,0.1846979304263364,1.0,2048,0,1,1,61.24082888936136,0.5486919763602568,0.0649812824608439,61.83390050833334
2048,256,21.263578590768404,69432,0,18841600,15150472,0.9699510375053523,0.1154985246073974,0.7972823800474697,2048,0,1,1,77.55583474032349,0.8243893696268451,0.0191327295004481,61.83390050833334
2048,512,35.691952306102785,50528,3764,25169920,21322288,0.9263308670639331,0.0728713529083995,0.6324835825738352,2048,0,1,1,97.76364511582393,0.8639512197451928,0.0124753182413958,61.83390050833334
256,1024,55.30587628529671,33736,93,30814208,24431144,0.8412284161951421,0.1192363087217639,0.46122921858089583,256,0,1,1,134.06327703735488,0.6691389707409706,0.0509508647888251,61.83390050833334
256,128,39.86933551480288,123202,7443,18841600,15106000,0.9544697927677178,0.0706016550822224,0.6780448037306871,256,0,1,1,91.19441690005662,0.8485695584138654,0.0292173504813328,61.83390050833334
256,1536,30.108085444935,73309,17,39333888,24586968,0.971758210198993,0.1492499312526332,0.6117726462552223,256,0,1,1,101.07333318485308,0.5351718304776727,0.0507827862529201,61.83390050833334
256,2048,19.70723251806712,47373,4554,39333888,24491328,1.026867164734571,0.082866565385092,0.9349543674599231,256,0,1,1,66.13574165798403,0.5415331518555104,0.0608528735519329,61.83390050833334
256,256,41.1236285304605,52051,76,19103744,14519544,0.9471137012596971,0.0884311197957999,0.6456203480394878,256,0,1,1,95.7743985239936,0.8167056750664425,0.0204089280480423,61.83390050833334
256,512,39.10333985720666,110574,15801,18841600,15195024,0.935486180078736,0.1003837175064678,0.6083726414706784,256,0,1,1,101.63820049313236,0.8342919313562327,0.0280479787488485,61.83390050833334
512,1024,39.393327694764544,63718,0,30814208,24476896,0.9014519646214741,0.115136758334072,0.4332935234094431,512,0,1,1,142.70672688985258,0.6635108374817116,0.0594487573277949,61.83390050833334
512,128,47.86432970211656,99854,385,18841600,15135280,0.923333973573063,0.0851563663796837,0.5366427659247414,512,0,1,1,115.22357969697278,0.8307265148023593,0.0283685570999364,61.83390050833334
512,1536,38.986320247947575,9900,11515,39071744,24587720,0.9758553592618221,0.071044569176853,0.7148037240172337,512,0,1,1,86.50472630559847,0.5322853902809704,0.0541544439624997,61.83390050833334
512,2048,18.46565124643228,61302,327,39071744,24405832,1.029019219959623,0.0987792159700666,1.0,512,0,1,1,49.80410262954928,0.5392622744590807,0.0652422767942515,61.83390050833334
512,256,20.489888680538037,60731,12145,24907776,20815248,0.9690359575586358,0.0825698048018777,0.7386774579646134,512,0,1,1,83.70893120078875,0.841476902939044,0.0237021281140739,61.83390050833334
512,512,33.24844784238925,61791,162,25169920,21444288,0.954526492911529,0.0557945807711312,0.642639286006361,512,0,1,1,96.21867485350296,0.8640097237455786,0.0159730993911813,61.83390050833334
