cpu,memory,duration_std,userDiff,sysDiff,heapTotal,heapUsed,avg_cpu_util,cpu_util_std,slo_preservation,total_cpu_shares,cpu_shares_others,num_containers,arrival_rate,latency,memory_util,memory_util_std,slo_duration
1024,128,561.2524709756156,307188,42658,32743424,29636600,0.30563956757337996,0.1243513570108226,0.44060735905235715,1024,0,1,1,1569.6886749739797,0.9178429214085816,0.0127505143252619,691.616381614679
1024,1536,127.08023488172684,180969,36517,72462336,54986728,0.40167965276216977,0.143648529364469,1.0,1024,0,1,1,471.03549431591205,0.7625557575199389,0.0691538681310292,691.616381614679
1024,2048,151.19250585584467,235258,33125,50835456,30054304,0.45022169490336067,0.2245777353423148,1.0,1024,0,1,1,414.34126476516235,0.7527869695637677,0.1116218753537066,691.616381614679
1024,256,305.66221675654384,261429,64520,33005568,29731144,0.35490111569503047,0.088823483395067,0.6730309013947792,1024,0,1,1,1027.6146016199011,0.8994395570784706,0.0389583109961178,691.616381614679
1024,512,254.8965593674734,328092,64455,32743424,29947672,0.38310541141956783,0.0641775130685058,0.822460437012489,1024,0,1,1,840.9114292803081,0.8617817844785274,0.0823844703509479,691.616381614679
128,1024,181.02158930020192,248442,36713,37597184,30134344,0.5052047514388625,0.1903371697083349,1.0,128,0,1,1,502.8701245644341,0.7756416546109348,0.1175497821638032,691.616381614679
128,128,1913.1820273617036,241237,55217,32481280,30213568,0.20486756500233283,0.0859739671442015,0.2488003576876588,128,0,1,1,2779.804611386156,0.9171986206506796,0.0124913187976788,691.616381614679
128,1536,175.04552658226294,229531,26785,50049024,30525528,0.43903921953638064,0.1257981090694097,1.0,128,0,1,1,406.1608336881126,0.7361549050347813,0.128584238601669,691.616381614679
128,2048,158.3260518791935,243731,29067,50573312,30094584,0.4658146185469602,0.2085496777588065,1.0,128,0,1,1,347.82180735235875,0.7180331551862489,0.1021185552075431,691.616381614679
128,256,192.3547201133475,252764,47699,32481280,30027584,0.307717135352057,0.0655500880292596,0.5964635894739706,128,0,1,1,1159.5282492006343,0.9050785553927064,0.0385951401917916,691.616381614679
128,512,189.69362534763107,247485,22818,32743424,29624184,0.42337604125963646,0.1038341201986446,0.8885153248112867,128,0,1,1,778.395557512272,0.8902334038836617,0.0399130735524719,691.616381614679
1536,1024,157.31689939778744,262164,32623,39694336,29717520,0.46625356593754974,0.2290501350470632,1.0,1536,0,1,1,526.4839191341814,0.8202795032400496,0.0792022390237316,691.616381614679
1536,128,702.1788049048292,275259,34604,32481280,29637928,0.17873864769042885,0.0951489119714874,0.2803091505985062,1536,0,1,1,2467.33429906931,0.912802858831814,0.0086465995213405,691.616381614679
1536,1536,143.18362475596828,176732,53378,39292928,15557432,0.4932622169022663,0.2065071961656295,1.0,1536,0,1,1,365.8013449238262,0.7067062870161323,0.1432423092647377,691.616381614679
1536,2048,145.55904241138882,299074,32361,50573312,30400120,0.514443026329716,0.2206479724700082,1.0,1536,0,1,1,363.75163500761676,0.7542550631462601,0.1004363982745315,691.616381614679
1536,256,230.1138651586925,343937,44268,33005568,29816456,0.44283730652359005,0.104852420436,0.8366724043032555,1536,0,1,1,826.627456645504,0.8929385790665015,0.0435676712140645,691.616381614679
1536,512,214.11244570362928,295245,41567,32743424,29776120,0.41986292756353516,0.1480949750276043,0.93059257223027,1536,0,1,1,743.1999805856416,0.8734848785390075,0.0582014762769744,691.616381614679
2048,1024,148.33744152632943,200246,54135,39694336,30399144,0.4729946112312397,0.1571765082616772,1.0,2048,0,1,1,470.8629311613074,0.8072054502241679,0.0912692431812945,691.616381614679
2048,128,560.7275777285136,298629,57553,33005568,29780912,0.32704925258877965,0.1144977412257093,0.48243810515753877,2048,0,1,1,1433.5857267925253,0.9147037203838884,0.010386041876404,691.616381614679
2048,1536,169.3705942264191,203297,21931,38506496,15556152,0.4077858810711,0.1949914758076542,1.0,2048,0,1,1,451.74190769073425,0.6791170051000226,0.1506790973781168,691.616381614679
2048,2048,136.0142315382573,221475,46485,50573312,30161032,0.5063366796011285,0.1969639769055244,1.0,2048,0,1,1,319.0006546620261,0.7303185540171387,0.1019285485718112,691.616381614679
2048,256,222.4842590781126,258442,53095,32743424,29636864,0.42465574079620355,0.1525319464903386,0.8229137229000509,2048,0,1,1,840.4482297091076,0.8882963472366026,0.0594984481332604,691.616381614679
2048,512,266.62560176247393,313067,44788,33005568,30211416,0.41481379305565413,0.1082970827896316,0.8480288106860463,2048,0,1,1,815.5576472162174,0.8829803630897437,0.0562435870851191,691.616381614679
256,1024,134.2134195451676,293011,34961,39170048,31580840,0.5722311171965477,0.2427755929387131,1.0,256,0,1,1,430.963168275473,0.8087468307151081,0.0960310872748839,691.616381614679
256,128,395.4758279289157,268324,44504,33005568,30079040,0.228484889029784,0.0832928828903069,0.39493767369252664,256,0,1,1,1751.2038675579163,0.9030695084512648,0.0069443575588972,691.616381614679
256,1536,139.90743845215783,253938,47570,50049024,29980296,0.41196133276548874,0.1846918640981611,1.0,256,0,1,1,448.29677913445073,0.7115582178453793,0.131225008742655,691.616381614679
256,2048,107.4303490103584,203808,47072,50049024,29969520,0.4469678977330969,0.1910865539314277,1.0,256,0,1,1,380.7271724643782,0.7532628366324894,0.123387460302356,691.616381614679
256,256,562.9038605209255,243636,41589,32219136,29784440,0.28630350723154885,0.0999743609594135,0.4935658748543159,256,0,1,1,1401.2645866548633,0.921999547262306,0.0148054436760193,691.616381614679
256,512,192.4090908410272,248610,35377,32743424,29758560,0.43185492999553415,0.1242254234876919,0.8642734549938059,256,0,1,1,800.228651728793,0.8893064528497008,0.0453480300451708,691.616381614679
512,1024,159.65690620620057,239759,42696,37859328,30198464,0.5610087311227426,0.2455840687421129,1.0,512,0,1,1,473.92454384875214,0.7700434325228933,0.1118472242472527,691.616381614679
512,128,697.9239604960064,282764,56109,33005568,29632032,0.2359173866657619,0.0674672321356145,0.3391806019741497,512,0,1,1,2039.0799992370726,0.9055501443338978,0.0079828578184277,691.616381614679
512,1536,134.4439386249514,226517,40425,72982528,55054416,0.4857132876887759,0.2192716300509054,1.0,512,0,1,1,454.7647449852923,0.7426181772743136,0.1126415859425405,691.616381614679
512,2048,154.59120185637912,247327,23062,50573312,30091184,0.47982877651984995,0.2526137446314284,1.0,512,0,1,1,399.8929029430201,0.7621651929234277,0.1216818373600124,691.616381614679
512,256,422.9811590993114,334022,23968,32743424,29625136,0.34794045234812354,0.1313247741393792,0.5888623104133888,512,0,1,1,1174.4959210059742,0.9066359849059684,0.0212584611020632,691.616381614679
512,512,162.39834755310946,335602,58848,32743424,29720808,0.41712457510444123,0.087811219965157,0.8427848280682282,512,0,1,1,820.6322166476978,0.8931033951296217,0.0529942494529131,691.616381614679
1024,1024,141.57489663550044,192584,52133,39694336,30232224,0.5089349160945178,0.2647323797085666,1.0,1024,0,1,1,450.9184948758512,0.7830444508612232,0.1199735951149849,691.616381614679
