cpu,memory,duration_std,userDiff,sysDiff,heapTotal,heapUsed,avg_cpu_util,cpu_util_std,slo_preservation,total_cpu_shares,cpu_shares_others,num_containers,arrival_rate,latency,memory_util,memory_util_std,slo_duration
1024,1024,697.9257362431525,1620489,195514,43175936,34225992,0.6460124399915097,0.2915346544820456,1.0,1024,0,1,1,1290.3476704497248,0.8152437028072071,0.0346704923495785,2694.092171418804
1024,128,2038.7669313548915,1883846,206346,36225024,33091488,0.5350558217494102,0.0666023124561654,0.20261409268902927,1024,0,1,1,13296.66725381081,0.9181934278622323,0.0111949906143582,2694.092171418804
1024,1536,320.3478432262289,1461003,111032,52482048,35147352,0.6521702180825023,0.386246124745473,1.0,1024,0,1,1,732.3870409407531,0.664922237595159,0.0405431473411465,2694.092171418804
1024,2048,229.0980341549854,1436144,122839,52219904,41113792,0.5515839884760966,0.346575717990098,1.0,1024,0,1,1,619.2592425040448,0.7179998247158624,0.0654755407378436,2694.092171418804
1024,256,3189.816873898661,1891301,168117,35962880,33221864,0.49835708293111425,0.0839707192575062,0.31042251406246,1024,0,1,1,8678.791161638252,0.9184739737370876,0.0104921074954487,2694.092171418804
1024,512,1527.2605100625933,1884080,189400,35962880,32781752,0.698637680219183,0.3154245960677913,0.9256574238033546,1024,0,1,1,2910.463528018043,0.9270357705381124,0.0141266395469549,2694.092171418804
128,1024,793.5293655160278,1821327,138384,43700224,37346216,0.6770133968463656,0.2826784430164678,1.0,128,0,1,1,1332.6988051471983,0.8206836979846115,0.0379958695402626,2694.092171418804
128,128,1694.2300717160158,1826882,178020,35962880,33487696,0.3583140979714756,0.0218839659706845,0.1439534215821917,128,0,1,1,18715.026998372414,0.9228977603325154,0.0069817578460982,2694.092171418804
128,1536,509.30281400009744,1656792,129476,52219904,34385504,0.6878534979666876,0.4146043740044873,1.0,128,0,1,1,1044.706103610354,0.6867246660863182,0.0547370253404361,2694.092171418804
128,2048,340.9085061833751,1459892,73171,51171328,35764376,0.5424250924998395,0.298244677310131,1.0,128,0,1,1,690.2196543301645,0.7218347656786216,0.038874659657439,2694.092171418804
128,256,3045.9104195475165,1728240,141576,35962880,32946384,0.47018309803869984,0.0141455642678106,0.24318516799437517,128,0,1,1,11078.357260180925,0.9209474110117144,0.0079310056780003,2694.092171418804
128,512,1576.5490534402795,2116014,214668,36487168,33530984,0.6931279575662669,0.2986457658829319,0.9283107732757562,128,0,1,1,2902.144679321221,0.925666883839685,0.0143924277155747,2694.092171418804
1536,1024,779.778849175593,1697123,116742,42913792,33650536,0.6438085655364579,0.269752177059423,1.0,1536,0,1,1,1324.485713800128,0.8281100394204121,0.0303169250187164,2694.092171418804
1536,128,2762.8684099307043,1847229,176645,36225024,33332600,0.5769389327687166,0.0937281727142418,0.21724270636494675,1536,0,1,1,12401.300906705652,0.9169301049960364,0.0080773802069837,2694.092171418804
1536,1536,359.08426055915487,1444652,85731,52219904,35988376,0.6352439180664052,0.3569938688187806,1.0,1536,0,1,1,756.6096402144101,0.6808920101562502,0.0621923929485138,2694.092171418804
1536,2048,261.8824093198378,1415552,126245,52482048,36226288,0.5206704881904584,0.254521454944032,1.0,1536,0,1,1,561.1493376826528,0.68445392887858,0.0542047527797429,2694.092171418804
1536,256,3077.5861308381222,1928599,167250,36225024,32844272,0.5555467751785603,0.1116397301926434,0.33290778267111076,1536,0,1,1,8092.607958283677,0.921538386712256,0.0133852836923188,2694.092171418804
1536,512,1290.8710031444125,2121557,155973,36487168,33833696,0.6402975266907819,0.2515416914620204,1.0,1536,0,1,1,2681.858042643692,0.9254493214194104,0.0119006656937258,2694.092171418804
2048,1024,761.7700307610439,1718125,126023,43438080,35357008,0.6168271848285068,0.2617259968576104,1.0,2048,0,1,1,1363.1570055926459,0.82284654849718,0.0249931380421377,2694.092171418804
2048,128,1581.9733474297543,1922989,168600,36225024,32862216,0.5531113252582499,0.0703556401344806,0.22087287735838154,2048,0,1,1,12197.478493692337,0.9168595177853792,0.007932073081628,2694.092171418804
2048,1536,543.9992023311554,1758125,141840,51957760,31819504,0.6519076791427774,0.3755336127314332,1.0,2048,0,1,1,972.958644043561,0.6833081030345132,0.0454690641392362,2694.092171418804
2048,2048,435.2392419081889,1437052,155008,51171328,36296816,0.5769891443177324,0.2729332304666622,1.0,2048,0,1,1,662.0922434853444,0.7070431011859192,0.0380726966061638,2694.092171418804
2048,256,2855.45967240149,2083405,150017,36487168,33953936,0.5582673920588209,0.0973410284135454,0.31718137253340356,2048,0,1,1,8493.853689768868,0.9218786054772424,0.0124333218850196,2694.092171418804
2048,512,1902.1428480966688,1738402,191178,35700736,32408848,0.5601540775964068,0.1631030117035154,0.8421024074647172,2048,0,1,1,3199.245302634623,0.928575763899262,0.0141612892975957,2694.092171418804
256,1024,697.7882306874485,1721410,131348,43438080,33637704,0.7041594450048437,0.3309777963851075,1.0,256,0,1,1,1286.9453702396881,0.8264573250469098,0.0209491729869093,2694.092171418804
256,128,3230.30776958432,1896578,157230,36225024,33180624,0.5969812852601091,0.1410812017045372,0.209689293164899,256,0,1,1,12848.019709333363,0.9185202951242658,0.0057756951452224,2694.092171418804
256,1536,528.5270361556434,1718799,135028,53006336,37397872,0.6805402698144637,0.3078304974747077,1.0,256,0,1,1,1058.5222928570333,0.6920677427765485,0.0628979053106048,2694.092171418804
256,2048,388.7610987449679,1561206,126133,52219904,37885440,0.5810924421637061,0.3037760218470008,1.0,256,0,1,1,785.2992285743703,0.7293016457029637,0.0403132437532752,2694.092171418804
256,256,3285.2916134424754,1936930,173380,36487168,33471472,0.472627309763871,0.0392327605575657,0.25680040690102646,256,0,1,1,10490.996505535659,0.9164894160363424,0.0102533727386157,2694.092171418804
256,512,1476.1166072987671,1953644,195483,36225024,33196968,0.6404508885131649,0.2430168246244282,0.932521064777853,256,0,1,1,2889.0416240201457,0.9299555782247386,0.0144120170436414,2694.092171418804
512,1024,742.2233257442934,1691148,114111,42913792,34642600,0.6028722833252964,0.2473184368220654,1.0,512,0,1,1,1328.3348569556042,0.8068860832389552,0.0332510964186402,2694.092171418804
512,128,1319.4635348057716,2043075,168105,36487168,33455088,0.41884896035466695,0.0174663782261202,0.16549718533539118,512,0,1,1,16278.779400139314,0.917769815788404,0.0077401678781057,2694.092171418804
512,1536,584.5614081076575,1945176,142930,53530624,36264312,0.6577525571502976,0.3773875896521716,1.0,512,0,1,1,1004.2541684224941,0.6727166468684987,0.0517566029816951,2694.092171418804
512,2048,371.1052264313782,1510005,103059,51957760,34645056,0.5532302534956962,0.3212030993148599,1.0,512,0,1,1,726.5497080623848,0.7197502180678143,0.0411949693838549,2694.092171418804
512,256,3027.8020122798616,1821359,163428,35962880,32807600,0.48569179799153084,0.0521355966547148,0.2778412192844524,512,0,1,1,9696.517235121282,0.9186659707235206,0.008707382697346,2694.092171418804
512,512,1854.025920995912,1797976,176472,36225024,33330528,0.5658181352693669,0.1557375070947479,0.8246981135200833,512,0,1,1,3266.761651629747,0.9274821575206096,0.0118554886381421,2694.092171418804
