cpu,memory,duration_std,userDiff,sysDiff,heapTotal,heapUsed,avg_cpu_util,cpu_util_std,slo_preservation,total_cpu_shares,cpu_shares_others,num_containers,arrival_rate,latency,memory_util,memory_util_std,slo_duration
1024,1024,116.64162843632536,405042,61132,44412928,30111336,0.8733106793085476,0.1116364869023778,1.0,1024,0,1,1,597.6877646081033,0.7342997623987559,0.1042008609600589,688.432048642857
1024,128,744.148981670882,456967,51394,37199872,29958096,0.6101067271422519,0.3376481866080776,0.4111568382247714,1024,0,1,1,1674.3782047144373,0.8941703872793377,0.0324208795021409,688.432048642857
1024,1536,65.9162061001193,287210,45511,45592576,30715272,1.0568718790117,0.1480071760923314,1.0,1024,0,1,1,414.3056436446104,0.6617623369286105,0.1415714286225739,688.432048642857
1024,2048,63.57902116961365,351389,53550,58707968,45807368,1.2909924844668128,0.2504193942063444,1.0,1024,0,1,1,296.47771530830386,0.7550452941007147,0.111017196782168,688.432048642857
1024,256,474.43352275362525,450561,39809,36937728,29859520,0.6170560142017681,0.280555037144666,0.5002775047325025,1024,0,1,1,1376.1003485674623,0.854045709971575,0.0782999313052489,688.432048642857
1024,512,176.75446901945455,398886,42920,33005568,30045296,0.5768512497943709,0.0924683656258682,0.5802966929359151,1024,0,1,1,1186.3449456515923,0.8855401799549656,0.0491165706072097,688.432048642857
128,1024,126.49178047893488,381059,37164,36286464,30183552,0.8516417577682602,0.1127480880362454,1.0,128,0,1,1,627.3697461880818,0.7301261334062854,0.1122765043538007,688.432048642857
128,128,1281.4074068603356,473196,56040,33005568,29730312,0.5374837135876072,0.2937421612760434,0.3205691690231315,128,0,1,1,2147.5304401253306,0.8710139465640346,0.0636220952204431,688.432048642857
128,1536,86.91256619957856,441505,55760,58445824,45657864,1.034055453829,0.1794759493127499,1.0,128,0,1,1,439.1862863485363,0.7333763508955313,0.1232413470008663,688.432048642857
128,2048,59.74305615624333,300622,77779,60805120,44726504,1.2388973120895628,0.2452994633813729,1.0,128,0,1,1,304.5839255611194,0.6355730226355447,0.1443498009429655,688.432048642857
128,256,361.1159577423503,416125,94625,32743424,29681144,0.3618942044136775,0.0463322923499889,0.3231974030390978,128,0,1,1,2130.066770863181,0.8950809994171531,0.0371276431647108,688.432048642857
128,512,207.43427671478705,387781,33767,33005568,30055600,0.5189666136243555,0.07174376378164,0.5350637440940489,128,0,1,1,1286.6355761190398,0.8803935480525629,0.053607934457853,688.432048642857
1536,1024,111.39009284143636,353340,66014,38121472,30686832,0.9330818317950818,0.1782680031261052,1.0,1536,0,1,1,566.7355647259789,0.7711579626522856,0.1022777424856113,688.432048642857
1536,128,1509.9646906450462,382629,83978,33005568,29703160,0.5594094929189684,0.3197263367869225,0.28675333953347243,1536,0,1,1,2400.7812769081875,0.8729279837867661,0.0389664248829498,688.432048642857
1536,1536,76.29538740699634,344248,36301,44806144,31146344,1.0316935261800706,0.1553759202398122,1.0,1536,0,1,1,432.7750518936361,0.6293573216071665,0.1597775353875171,688.432048642857
1536,2048,55.09935177138839,365046,53979,60018688,44805912,1.2027210834550865,0.1704191742498018,1.0,1536,0,1,1,330.33686145461627,0.6683330891906805,0.1375014003449432,688.432048642857
1536,256,484.9013376418089,414043,43758,33267712,29710040,0.5658134842156999,0.199933480224566,0.4705188280192766,1536,0,1,1,1463.1339016568595,0.8901010433987148,0.0305448844567473,688.432048642857
1536,512,214.4502317321001,445984,59421,47431680,43936720,0.5862893230356504,0.1370799048272442,0.580692608069058,1536,0,1,1,1185.5360978884482,0.8776178172338446,0.0564988124476122,688.432048642857
2048,1024,112.85093883505183,398345,50931,38383616,30491016,0.9354942718645005,0.1628603964937556,1.0,2048,0,1,1,577.5249861509444,0.7053440635571928,0.1111056430299273,688.432048642857
2048,128,1337.0338665730271,423199,74966,38772736,29696232,0.615355851902905,0.3633182141203183,0.35396818940183444,2048,0,1,1,1944.8980706606094,0.8657011850133164,0.071123497979747,688.432048642857
2048,1536,66.30293854458645,366935,40058,59232256,45123552,1.2906623090716018,0.2267550148990373,1.0,2048,0,1,1,323.0610651603141,0.7082748099442526,0.1370730289011206,688.432048642857
2048,2048,32.79273580405484,310260,47939,59232256,45078824,1.4715957287516295,0.2618057079617323,1.0,2048,0,1,1,226.35359891884286,0.654740201702918,0.1414279022153843,688.432048642857
2048,256,427.286941888542,402102,69010,33005568,29723944,0.5691936076896509,0.2063244411728323,0.4793310615556487,2048,0,1,1,1436.235003023964,0.8355601633231123,0.0760494793812878,688.432048642857
2048,512,192.04915380080615,410531,55199,32743424,29738960,0.5369460590564499,0.0581530910549853,0.5393449810120433,2048,0,1,1,1276.4224622078846,0.8801187711719246,0.0672930221811322,688.432048642857
256,1024,127.97643100266352,437773,53561,49655808,30452024,0.9160067238962439,0.1708697337925635,1.0,256,0,1,1,589.1790450234009,0.7402498426855204,0.0992496425784534,688.432048642857
256,128,899.3579017247438,451646,55550,32743424,29936960,0.4687628164065177,0.3266426615196526,0.31667717641575366,256,0,1,1,2173.9237934186967,0.8920434502986314,0.0423263581637748,688.432048642857
256,1536,81.81585071838006,366973,33821,58183680,45495640,1.0806451213330266,0.1438047561055093,1.0,256,0,1,1,436.36048265950706,0.716478426501279,0.1514821738912897,688.432048642857
256,2048,63.05260330281525,443834,51151,61591552,46202352,1.2488991741946434,0.1777336879158329,1.0,256,0,1,1,307.120893454355,0.725729618256167,0.1769341790371356,688.432048642857
256,256,870.5306209719395,434142,82514,33005568,29956576,0.3440738385227153,0.0840772591605656,0.2789358448405961,256,0,1,1,2468.0659061092574,0.8919135722672703,0.0441719342308832,688.432048642857
256,512,241.0156903584716,445322,61907,22249472,15285272,0.5611215492359216,0.0829932641276606,0.5647379853892734,256,0,1,1,1219.0291187307355,0.840511523275497,0.0932234041592572,688.432048642857
512,1024,78.04501804542926,363831,29889,38907904,30114016,0.9185198601506745,0.1194939928070715,1.0,512,0,1,1,566.3685987824689,0.7644798205296612,0.1150692884740524,688.432048642857
512,128,1086.6696102894812,462811,69984,32743424,29810608,0.5260809594627224,0.38189940036401,0.30257205539438586,512,0,1,1,2275.266457589826,0.88534395877879,0.0450162678182272,688.432048642857
512,1536,122.72352688275258,453697,34857,60280832,46231728,1.2603895059415218,0.4326849292107697,1.0,512,0,1,1,387.9484826086094,0.7516271968250722,0.1318350491825886,688.432048642857
512,2048,42.86158599207382,387386,37810,58970112,46245192,1.4622647243364186,0.2552185220499728,1.0,512,0,1,1,217.20475486644932,0.7227039577527183,0.1337219995968988,688.432048642857
512,256,259.6240734034714,461221,35987,33267712,30219680,0.4553617364303881,0.0768387620062345,0.4287960549505299,512,0,1,1,1605.4999590009784,0.8949498263937584,0.0515859001285294,688.432048642857
512,512,165.3648302000454,369962,54858,32219136,29765784,0.5324238979172349,0.0491515427592698,0.5098252229270714,512,0,1,1,1350.3295201644712,0.9045146609000204,0.0653769081288447,688.432048642857
