cpu,memory,duration_std,userDiff,sysDiff,heapTotal,heapUsed,avg_cpu_util,cpu_util_std,slo_preservation,total_cpu_shares,cpu_shares_others,num_containers,arrival_rate,latency,memory_util,memory_util_std,slo_duration
1024,1024,116.64162843632536,405042,61132,44412928,30111336,0.9018751673846607,0.1116364869023778,0.8921248483592304,1024,0,1,1,771.6768005162066,0.7342997623987559,0.1042008609600589,688.432048642857
1024,128,744.148981670882,456967,51394,37199872,29958096,0.6759985488021407,0.3376481866080776,0.3416714817322659,1024,0,1,1,2014.8946735399854,0.8941703872793377,0.0324208795021409,688.432048642857
1024,1536,65.9162061001193,287210,45511,45592576,30715272,1.0420559589071035,0.1480071760923314,1.0,1024,0,1,1,560.2616383392208,0.6617623369286105,0.1415714286225739,688.432048642857
1024,2048,63.57902116961365,351389,53550,58707968,45807368,1.203444181401057,0.2504193942063444,1.0,1024,0,1,1,424.06121606660776,0.7550452941007147,0.111017196782168,688.432048642857
1024,256,474.43352275362525,450561,39809,36937728,29859520,0.6823848033085474,0.280555037144666,0.41493206306585756,1024,0,1,1,1659.1440139770298,0.854045709971575,0.0782999313052489,688.432048642857
1024,512,176.75446901945455,398886,42920,33005568,30045296,0.6450939214512019,0.0924683656258682,0.4867102256231168,1024,0,1,1,1414.459800513711,0.8855401799549656,0.0491165706072097,688.432048642857
128,1024,126.49178047893488,381059,37164,36286464,30183552,0.8844454508788202,0.1127480880362454,0.8546983712325257,128,0,1,1,805.4678373261636,0.7301261334062854,0.1122765043538007,688.432048642857
128,128,1281.4074068603356,473196,56040,33005568,29730312,0.6077582339368656,0.2937421612760434,0.27186203101810474,128,0,1,1,2532.284652125661,0.8710139465640346,0.0636220952204431,688.432048642857
128,1536,86.91256619957856,441505,55760,58445824,45657864,1.0253259685337313,0.1794759493127499,1.0,128,0,1,1,590.5672778970726,0.7333763508955313,0.1232413470008663,688.432048642857
128,2048,59.74305615624333,300622,77779,60805120,44726504,1.1690750880481686,0.2452994633813729,1.0,128,0,1,1,430.36666112223884,0.6355730226355447,0.1443498009429655,688.432048642857
128,256,361.1159577423503,416125,94625,32743424,29681144,0.4305836917039961,0.0463322923499889,0.288406520301668,128,0,1,1,2387.0197106596947,0.8950809994171531,0.0371276431647108,688.432048642857
128,512,207.43427671478705,387781,33767,33005568,30055600,0.5899079708401624,0.07174376378164,0.4561541522068837,128,0,1,1,1509.2092120880798,0.8803935480525629,0.053607934457853,688.432048642857
1536,1024,111.39009284143636,353340,66014,38121472,30686832,0.948957455450875,0.1782680031261052,0.9265500526934668,1536,0,1,1,743.0057843519577,0.7711579626522856,0.1022777424856113,688.432048642857
1536,128,1509.9646906450462,382629,83978,33005568,29703160,0.6286542686722038,0.3197263367869225,0.24168616179504068,1536,0,1,1,2848.4545558163745,0.8729279837867661,0.0389664248829498,688.432048642857
1536,1536,76.29538740699634,344248,36301,44806144,31146344,1.0235832852677913,0.1553759202398122,1.0,1536,0,1,1,581.6054583372722,0.6293573216071665,0.1597775353875171,688.432048642857
1536,2048,55.09935177138839,365046,53979,60018688,44805912,1.1447070215435957,0.1704191742498018,1.0,1536,0,1,1,462.7712307592326,0.6683330891906805,0.1375014003449432,688.432048642857
1536,256,484.9013376418089,414043,43758,33267712,29710040,0.6347090073222386,0.199933480224566,0.395858193454642,1536,0,1,1,1739.0875319137192,0.8901010433987148,0.0305448844567473,688.432048642857
1536,512,214.4502317321001,445984,59421,47431680,43936720,0.6539230611091691,0.1370799048272442,0.48576053611106174,1536,0,1,1,1417.2251499768963,0.8776178172338446,0.0564988124476122,688.432048642857
2048,1024,112.85093883505183,398345,50931,38383616,30491016,0.9508277306385666,0.1628603964937556,0.9086827247301289,2048,0,1,1,757.615424951889,0.7053440635571928,0.1111056430299273,688.432048642857
2048,128,1337.0338665730271,423199,74966,38772736,29696232,0.6808246569465839,0.3633182141203183,0.2937206216219576,2048,0,1,1,2343.8328737058346,0.8657011850133164,0.071123497979747,688.432048642857
2048,1536,66.30293854458645,366935,40058,59232256,45123552,1.2032289806101013,0.2267550148990373,1.0,2048,0,1,1,462.0486452706282,0.7082748099442526,0.1370730289011206,688.432048642857
2048,2048,32.79273580405484,310260,47939,59232256,45078824,1.3163942520917171,0.2618057079617323,1.0,2048,0,1,1,337.38726203768573,0.654740201702918,0.1414279022153843,688.432048642857
2048,256,427.286941888542,402102,69010,33005568,29723944,0.6378960294710284,0.2063244411728323,0.40289021631352834,2048,0,1,1,1708.7335973110864,0.8355601633231123,0.0760494793812878,688.432048642857
2048,512,192.04915380080615,410531,55199,32743424,29738960,0.6072425760427805,0.0581530910549853,0.4574666721006689,2048,0,1,1,1504.879132465769,0.8801187711719246,0.0672930221811322,688.432048642857
256,1024,127.97643100266352,437773,53561,49655808,30452024,0.9356538826213863,0.1708697337925635,0.895141338255655,256,0,1,1,769.076367296802,0.7402498426855204,0.0992496425784534,688.432048642857
256,128,899.3579017247438,451646,55550,32743424,29936960,0.540553322572957,0.3266426615196526,0.27388195144211414,256,0,1,1,2513.608673437393,0.8920434502986314,0.0423263581637748,688.432048642857
256,1536,81.81585071838006,366973,33821,58183680,45495640,1.0592885087542352,0.1438047561055093,1.0,256,0,1,1,593.5440915690141,0.716478426501279,0.1514821738912897,688.432048642857
256,2048,63.05260330281525,443834,51151,61591552,46202352,1.175739054275267,0.1777336879158329,1.0,256,0,1,1,434.97523685870993,0.725729618256167,0.1769341790371356,688.432048642857
256,256,870.5306209719395,434142,82514,33005568,29956576,0.41156248951095414,0.0840772591605656,0.25023596216148686,256,0,1,1,2751.1315427899426,0.8919135722672703,0.0441719342308832,688.432048642857
256,512,241.0156903584716,445322,61907,22249472,15285272,0.6302750877529766,0.0829932641276606,0.4757529145646076,256,0,1,1,1447.0369546193656,0.840511523275497,0.0932234041592572,688.432048642857
512,1024,78.04501804542926,363831,29889,38907904,30114016,0.9376191959536025,0.1194939928070715,0.9305958589451898,512,0,1,1,739.7755341649379,0.7644798205296612,0.1150692884740524,688.432048642857
512,128,1086.6696102894812,462811,69984,32743424,29810608,0.5967882933043972,0.38189940036401,0.25742919025928107,512,0,1,1,2674.2579112705616,0.88534395877879,0.0450162678182272,688.432048642857
512,1536,122.72352688275258,453697,34857,60280832,46231728,1.1833561266487842,0.4326849292107697,1.0,512,0,1,1,550.9372147172189,0.7516271968250722,0.1318350491825886,688.432048642857
512,2048,42.86158599207382,387386,37810,58970112,46245192,1.3107825865744633,0.2552185220499728,1.0,512,0,1,1,323.0750385328986,0.7227039577527183,0.1337219995968988,688.432048642857
512,256,259.6240734034714,461221,35987,33267712,30219680,0.5271363997921747,0.0768387620062345,0.37228755278760245,512,0,1,1,1849.1943753908458,0.8949498263937584,0.0515859001285294,688.432048642857
512,512,165.3648302000454,369962,54858,32219136,29765784,0.6028992140282589,0.0491515427592698,0.4329819163784432,512,0,1,1,1589.9787556973636,0.9045146609000204,0.0653769081288447,688.432048642857
