cpu,memory,duration_std,userDiff,sysDiff,heapTotal,heapUsed,avg_cpu_util,cpu_util_std,slo_preservation,total_cpu_shares,cpu_shares_others,num_containers,arrival_rate,latency,memory_util,memory_util_std,slo_duration
1024,1024,100.8997385780418,447950,45579,45985792,29967008,0.7782938139818201,0.1177002489718235,1.0,1024,0,1,1,540.89163627449,0.7420659414257635,0.1250513086536233,681.8570086261681
1024,128,594.7006878241554,381337,68400,32481280,29899344,0.533972372859267,0.1805551747625544,0.5120908021799079,1024,0,1,1,1331.5158282937055,0.8691263348993777,0.0407619691302276,681.8570086261681
1024,1536,83.11278192819842,365030,56542,60018688,45464032,1.1801568741696231,0.2126997201279595,1.0,1024,0,1,1,303.6070347720895,0.7197980591696695,0.1543888684639094,681.8570086261681
1024,2048,62.08466845537663,325000,63530,58707968,44927824,1.370496009339314,0.1845793619709658,1.0,1024,0,1,1,243.73623627419465,0.7320321502719377,0.1325089058313092,681.8570086261681
1024,256,435.04402009650113,516853,29079,32481280,30216704,0.4399997065586358,0.120282627001573,0.4558795644039112,1024,0,1,1,1495.6954903599055,0.9074568019502096,0.0461414189096052,681.8570086261681
1024,512,160.39739437449222,475611,31740,46907392,44070096,0.5166724780204025,0.0826156739866109,0.6666850338512056,1024,0,1,1,1022.7573351801814,0.8869992761615391,0.0676825793067101,681.8570086261681
128,1024,141.50703096427208,491309,46248,52023296,45479976,0.9498724867899115,0.208561629570344,1.0,128,0,1,1,472.0061064725114,0.7425847677293924,0.1193263266826139,681.8570086261681
128,128,1079.923747670281,501410,54007,32743424,29635456,0.5368203240582171,0.4475879069871847,0.33834589862127973,128,0,1,1,2015.2660676681946,0.8432603687716983,0.0733231915112787,681.8570086261681
128,1536,60.64770836038301,336877,33127,58970112,44898952,1.4904406129225318,0.2294780151568837,1.0,128,0,1,1,217.66410255351576,0.7283693271174835,0.1289929279312422,681.8570086261681
128,2048,36.656007009264144,321543,42123,58707968,44670072,1.6003815743841772,0.2857336434994736,1.0,128,0,1,1,150.5321114312996,0.6629567792238165,0.1579700543191343,681.8570086261681
128,256,316.6379842840263,465348,28118,36413440,30288912,0.27853699101521995,0.0305329352037699,0.3308110624909225,128,0,1,1,2061.1674938920105,0.8760680158946741,0.0574017364802673,681.8570086261681
128,512,155.92919466702787,479840,52496,46907392,44270120,0.519599372434696,0.0739871726063375,0.6453633491523142,128,0,1,1,1056.547462017774,0.878925876201279,0.0868147704921324,681.8570086261681
1536,1024,130.3913287170046,405382,47607,43102208,30401632,0.8998260832942041,0.1298802357392713,1.0,1536,0,1,1,469.8314751877562,0.7691723905399597,0.1065732476413115,681.8570086261681
1536,128,609.8090978813749,509465,67963,46645248,44107560,0.5383135656769578,0.2267453946207249,0.4805136541850742,1536,0,1,1,1419.0169263401299,0.8834531909694728,0.0579670267172728,681.8570086261681
1536,1536,126.19609956047724,367728,68681,59232256,44575168,1.1019589275847201,0.287419253247629,1.0,1536,0,1,1,339.18795229309217,0.6073144345055523,0.1425446150510649,681.8570086261681
1536,2048,171.84834809427724,373523,56963,39292928,15553504,1.3661167006845483,0.4056380196192628,1.0,1536,0,1,1,273.09703183223195,0.6628788141968636,0.1546905329278238,681.8570086261681
1536,256,761.7779877993928,392038,63089,40607744,29861928,0.7140749322935275,0.4975919931011896,0.5333737621834957,1536,0,1,1,1278.3849843584728,0.8584799244121911,0.077905293576069,681.8570086261681
1536,512,167.8003757742239,371087,56260,37724160,29790048,0.4959707993476714,0.0545272209794314,0.6110267170597183,1536,0,1,1,1115.9201219666588,0.8251953058029535,0.0947468266191133,681.8570086261681
2048,1024,112.18047420727676,483476,55782,42053632,29873968,0.9194052108734916,0.1235606505328523,1.0,2048,0,1,1,478.648229200364,0.7504224818620344,0.0942552446676394,681.8570086261681
2048,128,531.3900094577818,468598,60135,32743424,30319928,0.3949767626132809,0.1295854065015708,0.3749199296077037,2048,0,1,1,1818.673681443467,0.9162659568205446,0.0116293282457951,681.8570086261681
2048,1536,89.69621559302222,416991,54591,56610816,45434752,1.1819663861173768,0.1643180074731585,1.0,2048,0,1,1,297.37118210875656,0.7453217038056209,0.1254756185973442,681.8570086261681
2048,2048,50.04601261578569,319464,34854,38506496,15581480,1.376973169648053,0.2152295913259381,1.0,2048,0,1,1,223.81763335369348,0.6539427246514181,0.1572206717224805,681.8570086261681
2048,256,340.5167653341985,433376,61750,35889152,30157552,0.5563305482720359,0.1921162144413404,0.598920175624139,2048,0,1,1,1138.477273562541,0.8722965866998817,0.0694870602088296,681.8570086261681
2048,512,182.66570157942897,418254,44248,38772736,29655456,0.6641898518732123,0.1844575143745983,0.8114577212086617,2048,0,1,1,840.2865495081444,0.8731259524454229,0.0749252014183877,681.8570086261681
256,1024,93.7039305161899,454918,60774,53334016,44478128,0.9215447970745924,0.0826000096557135,1.0,256,0,1,1,465.07476055700306,0.7592666128390771,0.1171995540556171,681.8570086261681
256,128,963.367947588918,342265,63065,38510592,30216616,0.427037275488924,0.1840920215087239,0.36853900126916034,256,0,1,1,1850.1624150443108,0.8558351511079931,0.0494687384448942,681.8570086261681
256,1536,64.2262188676659,443628,32559,64475136,44489024,1.468565305450776,0.2702998150051249,1.0,256,0,1,1,220.4882089334381,0.695283397675151,0.1725975648287316,681.8570086261681
256,2048,41.660385972162025,315679,63955,59756544,45401528,1.7921898782512924,0.3349278200367366,1.0,256,0,1,1,150.1934145586768,0.674288841121695,0.1496680199092658,681.8570086261681
256,256,255.425302071596,411476,50796,22249472,15184808,0.3617170703545823,0.0514517183335029,0.42915642011723815,256,0,1,1,1588.8309638706942,0.8682383541946379,0.0831273237830713,681.8570086261681
256,512,174.39451496463172,461274,39394,35364864,29702008,0.49066207157449443,0.06930178150977,0.592382352325692,256,0,1,1,1151.0420692804212,0.8841000558332519,0.079295110901276,681.8570086261681
512,1024,93.19087026823463,404574,52682,45199360,30816416,0.9264379231974252,0.112941730449327,1.0,512,0,1,1,444.9197102999867,0.7432400152097717,0.1172452505723569,681.8570086261681
512,128,569.9485348959449,566333,56678,46645248,44004576,0.5119447661430163,0.1402261047031217,0.49380485136839025,512,0,1,1,1380.8228224908353,0.9074165512570184,0.0465114445142966,681.8570086261681
512,1536,84.4391515414738,318910,32157,39555072,15549504,1.1644096010873035,0.1084058790433377,1.0,512,0,1,1,305.81973449043966,0.6642101106259283,0.1549666735801599,681.8570086261681
512,2048,67.85081185296552,353170,37902,60018688,45413936,1.3271105961730896,0.2447430406196051,1.0,512,0,1,1,237.50258970201577,0.7266274973555963,0.1680384654084321,681.8570086261681
512,256,609.3020967627215,444926,37355,32743424,30047496,0.43315484255612974,0.2832023270131438,0.36422922335815056,512,0,1,1,1872.0546427865584,0.889296573707196,0.060045277124203,681.8570086261681
512,512,166.0904314218538,472368,35523,33005568,29725712,0.49884428592625685,0.0799602107603357,0.6274490527668527,512,0,1,1,1086.7129460462063,0.8622870828845102,0.1039382904463142,681.8570086261681
