cpu,memory,duration_std,userDiff,sysDiff,heapTotal,heapUsed,avg_cpu_util,cpu_util_std,slo_preservation,total_cpu_shares,cpu_shares_others,num_containers,arrival_rate,latency,memory_util,memory_util_std,slo_duration
1024,1024,567.6047265187287,2094531,178496,58388480,47709336,0.9689529691617811,0.1691859149548173,1.0,1024,0,1,1,1457.2142788436934,0.8643601913558314,0.0542357693900177,1729.0044078737856
1024,128,1820.316366567058,2343117,222135,49864704,47612680,0.6293039708854768,0.093923000570115,0.1314906213418629,1024,0,1,1,13149.260306395096,0.9314407117965484,0.0194947386980188,1729.0044078737856
1024,1536,376.9606360767357,1824982,167678,67956736,47659960,1.0798534174979126,0.1965928107371231,1.0,1024,0,1,1,1004.0458950368933,0.7793691945132589,0.0790437979159724,1729.0044078737856
1024,2048,212.68146506408155,167368,5911,77402112,63199840,1.1317531570330435,0.2699739503134679,1.0,1024,0,1,1,572.7441148597313,0.7879218096485698,0.0775653833061314,1729.0044078737856
1024,256,3595.0251310570443,2331108,176536,50651136,47291552,0.6213963775669733,0.0820049614604637,0.20413151317755274,1024,0,1,1,8470.051394611986,0.9451197340239336,0.015077849736142,1729.0044078737856
1024,512,1537.9232204406949,2210237,244537,50651136,47102520,0.8018988585227845,0.0770938546614661,0.49814667842812455,1024,0,1,1,3470.8741074608133,0.9222279762957444,0.0417739764566355,1729.0044078737856
128,1024,626.8801015587078,2255927,137655,57339904,47135992,1.0097983176339191,0.2103824772610266,1.0,128,0,1,1,1479.038274308803,0.8475397589731143,0.0844581317266054,1729.0044078737856
128,128,12.324829500000304,1923542,228544,50388992,47053328,0.6683809959568843,0.0123775231058673,0.17386896860589005,128,0,1,1,9944.295533223823,0.9355179798000324,0.0017162478662006,1729.0044078737856
128,1536,381.4819897319232,1779139,159391,61665280,50234816,1.0671074919981454,0.200453941650834,1.0,128,0,1,1,935.8318697750817,0.8148989077026606,0.0567866091735057,1729.0044078737856
128,2048,231.42467660444413,1696854,179244,67694592,47454784,1.1329258812291072,0.2951242681068797,1.0,128,0,1,1,623.8045195524066,0.7962413828534185,0.093078891927964,1729.0044078737856
128,256,4129.881125059211,2297111,219226,49864704,47425280,0.7943990175690504,0.4373148938307832,0.1619111481732693,128,0,1,1,10678.723654182792,0.9301493765330212,0.0385258818030372,1729.0044078737856
128,512,1574.935156830846,2264602,157382,51699712,46964408,0.8113942394567639,0.1090953013371679,0.4515115456406808,128,0,1,1,3829.369203439487,0.9467057971631206,0.0180906142359464,1729.0044078737856
1536,1024,563.8637777829102,1919148,149804,57339904,49503656,0.9735006035951028,0.1610030607541393,1.0,1536,0,1,1,1372.916551872189,0.8600609915462678,0.0696792370482619,1729.0044078737856
1536,128,1817.354327374979,2506536,262070,50126848,47668248,0.6660194857029196,0.1183909627464983,0.13885366955795986,1536,0,1,1,12451.9893019613,0.940705655978265,0.0101798431812388,1729.0044078737856
1536,1536,374.8822196983494,1795791,128923,67956736,47278696,1.0767001620345353,0.2262486824583007,1.0,1536,0,1,1,952.1927482591768,0.7945502665713543,0.0734670776845794,1729.0044078737856
1536,2048,210.52198828480877,1478284,159440,67694592,49860360,1.1436532339217789,0.3312756568271698,1.0,1536,0,1,1,548.093536597797,0.8077561908546951,0.0714688448607895,1729.0044078737856
1536,256,4193.742155361878,2191822,235261,50388992,47024864,0.6603490565329239,0.1472242453807774,0.20620654575039918,1536,0,1,1,8384.818249012536,0.9324083111826408,0.039669752127132,1729.0044078737856
1536,512,1629.5690294973012,2095548,164916,51175424,47275360,0.8147112317431976,0.088181121228199,0.4820125931853375,1536,0,1,1,3587.0523557233496,0.929366930120424,0.0421555311748603,1729.0044078737856
2048,1024,604.4655814890253,1891966,122196,59174912,47282072,0.9849411012345842,0.1599461384318422,1.0,2048,0,1,1,1442.0345046077507,0.8198845251071056,0.0953232626025683,1729.0044078737856
2048,128,559.9059823691387,2207476,211197,50913280,47038224,0.6674322766790121,0.0434537608129745,0.14901485810966453,2048,0,1,1,11602.899400819206,0.9332902020909012,0.0107952765741914,1729.0044078737856
2048,1536,364.6101932204367,1917344,153944,58511360,33000232,1.094241184470142,0.2285654170155344,1.0,2048,0,1,1,932.0092933930899,0.7864755424149742,0.0872957613848636,1729.0044078737856
2048,2048,221.10859711668573,1565170,141737,63238144,51237216,1.1385114218917223,0.2925314352584039,1.0,2048,0,1,1,575.8204638561261,0.779915543081648,0.1053770267716324,1729.0044078737856
2048,256,3032.3073038003745,2076942,187584,50126848,47371728,0.6205055815807916,0.0514288430576234,0.2811665942428225,2048,0,1,1,6149.394854427743,0.9279854069496536,0.0417689109664249,1729.0044078737856
2048,512,1599.1978176564778,2520062,187206,50126848,47413120,0.8350430603545839,0.0694995163896492,0.474291169614642,2048,0,1,1,3645.449290735454,0.9251115141856046,0.0417626605269805,1729.0044078737856
256,1024,575.5565219210733,2062381,149151,56291328,50112920,1.0185599064827924,0.1682823204316715,1.0,256,0,1,1,1515.4352299990223,0.8410966000603681,0.0782147797293519,1729.0044078737856
256,128,2688.9102041203378,2351201,235582,52224000,46981808,0.5371816583414037,0.0630100866381776,0.11055931087807687,256,0,1,1,15638.704638639665,0.9371711527922166,0.0156958870796679,1729.0044078737856
256,1536,383.8075157126412,1863792,147847,57987072,33018944,1.0848848481459752,0.224154520451284,1.0,256,0,1,1,1002.7664827237601,0.7980623178061991,0.1030084743257067,1729.0044078737856
256,2048,223.1344267592562,1646251,115168,62189568,51080408,1.1446470167555574,0.3335270939643627,1.0,256,0,1,1,565.7103982625536,0.8039728435814653,0.0863244591617199,1729.0044078737856
256,256,3496.2250322593386,2246002,239404,50126848,47028584,0.6274669252858713,0.0960995442355076,0.22240342632499227,256,0,1,1,7774.180625019854,0.9227354723425912,0.038465130177167,1729.0044078737856
256,512,1525.7670065881066,2256831,183386,49864704,47466976,0.7892576181665489,0.0986552719943551,0.5270288228791692,256,0,1,1,3280.663851415563,0.9324798398940908,0.0413576173812721,1729.0044078737856
512,1024,588.0010730522778,1998639,184984,58650624,50182768,0.9872467020675904,0.1574950437591961,1.0,512,0,1,1,1401.4404114466054,0.8715958738510927,0.0739874274049229,1729.0044078737856
512,128,2087.4755040399205,2502916,221985,50126848,47264472,0.6544979820445785,0.1090756331651877,0.1331337279242802,512,0,1,1,12986.975087613837,0.9356063286456344,0.0107902719331654,1729.0044078737856
512,1536,392.72725637795065,1767747,99608,74772480,50505480,1.0970690578698483,0.2810135776797739,1.0,512,0,1,1,943.149779689164,0.8170124446308181,0.0685111504004998,1729.0044078737856
512,2048,210.0243156165887,1566930,114054,55103488,32991848,1.1208687400009802,0.2106328269898513,1.0,512,0,1,1,579.9094411275095,0.7964310317328641,0.0867744165949829,1729.0044078737856
512,256,3258.621722802144,2250182,218203,50126848,47311688,0.6959828119519582,0.2398660547644302,0.22097209550033795,512,0,1,1,7824.537319786341,0.921845175838748,0.0410934716217822,1729.0044078737856
512,512,1536.74003623626,2005509,156622,50126848,47387304,0.8229382722340084,0.0597910233240081,0.4485442129862963,512,0,1,1,3854.702296486008,0.9201341101882436,0.0396282988364892,1729.0044078737856
