cpu,memory,duration_std,userDiff,sysDiff,heapTotal,heapUsed,avg_cpu_util,cpu_util_std,slo_preservation,total_cpu_shares,cpu_shares_others,num_containers,arrival_rate,latency,memory_util,memory_util_std,slo_duration
1024,1024,47.275686248369546,352869,53197,48082944,30344224,1.1693896293953534,0.1663980271460867,0.851295667278908,1024,0,1,1,487.9627898276241,0.7097515733797072,0.1078909218545757,415.4006087735848
1024,128,440.0551446569672,569446,55028,47693824,44071176,0.883601640737882,0.3390428303270761,0.30440974412548205,1024,0,1,1,1364.6100914639273,0.8872222916349012,0.0542340538977208,415.4006087735848
1024,1536,44.62435450047657,273519,61015,58183680,44574104,1.3541820591594003,0.2433779930025519,1.0,1024,0,1,1,294.17516560892756,0.6914962898695676,0.1643591155307542,415.4006087735848
1024,2048,36.538522839874005,265770,62080,59232256,44611096,1.2917401290614903,0.285738487720798,1.0,1024,0,1,1,313.6480827378207,0.6528179290629558,0.1440891763263678,415.4006087735848
1024,256,200.577264100971,404388,46021,31956992,29601176,0.6578761481954406,0.1169907955708687,0.3034510621880869,1024,0,1,1,1368.9212546440476,0.8860093154246229,0.0587139207670514,415.4006087735848
1024,512,73.33507487839412,376176,64512,33267712,29622440,0.8767179802341698,0.0718207971990908,0.4627914784354208,1024,0,1,1,897.5977910784953,0.8598291079333826,0.0635808608169837,415.4006087735848
128,1024,69.01095667844444,404080,39076,49393664,30868544,1.203185949987877,0.2372805367416124,0.8267174739524142,128,0,1,1,502.4698544082004,0.7113040396992231,0.134282621915852,415.4006087735848
128,128,2705.444538262145,472701,53895,32743424,29921600,0.4821279165195434,0.2242140302450237,0.10858186853762924,128,0,1,1,3825.6903695631922,0.8844117291140458,0.0605888482576024,415.4006087735848
128,1536,41.624245048422,316961,57741,59232256,45867584,1.3794215250332085,0.2384567440826867,1.0,128,0,1,1,308.2018445938443,0.6844887940166237,0.1706033879975308,415.4006087735848
128,2048,36.769517173618205,294653,46719,59232256,44906216,1.2921059913382096,0.2350220016090519,1.0,128,0,1,1,315.1349892361945,0.687820671097394,0.1500211611493697,415.4006087735848
128,256,162.3304921107179,414902,32527,33267712,29622696,0.5730199584495962,0.0561723067294423,0.27115605100485757,128,0,1,1,1531.9614193899852,0.9032979952638462,0.0488501832170192,415.4006087735848
128,512,127.33425666913357,509560,36605,39559168,29680680,0.9135417464840966,0.1250831932914017,0.46523639010925805,128,0,1,1,892.8807324724328,0.8621231368419767,0.1011845224283532,415.4006087735848
1536,1024,44.33446772176678,292950,49809,54120448,44724760,1.1824430693896408,0.2264935028444158,0.8688264655737689,1536,0,1,1,478.11689127040603,0.7246370580697954,0.1360517157692621,415.4006087735848
1536,128,1025.1358535986,429849,76480,33005568,30237408,0.4667516993607767,0.1014157949658108,0.17658146018455514,1536,0,1,1,2352.458793462385,0.8725950949074773,0.0820755304213418,415.4006087735848
1536,1536,42.77245194969496,330082,46019,57397248,44770240,1.3749394912531443,0.2268324485345116,1.0,1536,0,1,1,319.8920200555797,0.7217054698361843,0.14090901848479,415.4006087735848
1536,2048,38.76296815287887,295418,73335,59494400,45410256,1.286116279492493,0.2739503676390842,1.0,1536,0,1,1,298.61334931191834,0.6850236175857634,0.1464043907963641,415.4006087735848
1536,256,206.2231693472285,411903,53011,34578432,30129640,0.6471202184610342,0.0876293452049207,0.30680218753292343,1536,0,1,1,1353.9688621972666,0.8898895842512908,0.0493355684291737,415.4006087735848
1536,512,105.3386570052284,407701,49461,40607744,29610232,0.92475616200563,0.09611135614683,0.4773808400546154,1536,0,1,1,870.1660685126373,0.8849533087028185,0.0641404066810381,415.4006087735848
2048,1024,51.1010547047313,442415,26225,44150784,30021528,1.1632819154378493,0.1808144534272018,0.8093137278956306,2048,0,1,1,513.2751298482299,0.6819788199148784,0.1199145120225821,415.4006087735848
2048,128,432.42321220506045,502739,75192,47169536,44584888,0.55299142122399,0.0692580445977582,0.24264547071917336,2048,0,1,1,1711.965228703363,0.93796152322928,0.015534754226104,415.4006087735848
2048,1536,44.55496380872093,312773,47084,56610816,45452872,1.3708965656707575,0.2757574546029688,1.0,2048,0,1,1,309.45062429609266,0.7135308840749717,0.1541912667642602,415.4006087735848
2048,2048,37.37139378074015,344797,61078,58183680,44805624,1.311411474807759,0.216909300213769,1.0,2048,0,1,1,310.0141371661727,0.6898985020079411,0.1608038245270054,415.4006087735848
2048,256,223.546220335367,419699,50994,33005568,29600776,0.7045418325539716,0.1668313089813945,0.3109256819059826,2048,0,1,1,1336.0125359448218,0.8859553311714444,0.0578331184777163,415.4006087735848
2048,512,90.88861185426713,452909,42699,37199872,30008328,0.9266270725912222,0.0826515053511787,0.4648314857129683,2048,0,1,1,893.6585010725653,0.8867629645724702,0.063514762431946,415.4006087735848
256,1024,64.40486916504226,518215,51693,54382592,44287608,1.2067745534063126,0.1814641443766137,0.8294822786652596,256,0,1,1,500.79503740817245,0.7838178658960657,0.0946211279762197,415.4006087735848
256,128,949.1753812806588,453419,90272,33005568,29681080,0.46908760464241533,0.1406061307963638,0.1652811289100563,256,0,1,1,2513.297262143218,0.8724592425159492,0.0569387155188464,415.4006087735848
256,1536,39.56996976298042,369658,34920,58445824,45016168,1.3917553414280763,0.2504721112595401,1.0,256,0,1,1,315.75613660286615,0.6899986987145943,0.137267334830631,415.4006087735848
256,2048,39.037362353329705,321754,62558,59232256,45466320,1.2999900975069845,0.245542912729255,1.0,256,0,1,1,304.5566980420356,0.7313677700586504,0.1477869014155356,415.4006087735848
256,256,166.30423269383255,358086,50891,33005568,29949424,0.6514533733162174,0.0485092611478559,0.31826192710427614,256,0,1,1,1305.2161549863358,0.89104978592334,0.0387600967179523,415.4006087735848
256,512,105.39415282548644,401389,53655,33005568,29755328,0.9014245027372139,0.1583545885970987,0.44431034648497053,256,0,1,1,934.9334582458038,0.889453377544352,0.0532904194815516,415.4006087735848
512,1024,50.17702340456728,274504,59719,52809728,44743480,1.1956918059054367,0.1906860662345048,0.8363044424269244,512,0,1,1,496.7097957391063,0.7327326486996129,0.1262325005760293,415.4006087735848
512,128,248.11800273810317,416406,72898,32743424,29856384,0.5781795821223701,0.1013260546542531,0.26210078455116415,512,0,1,1,1584.8888414620344,0.8398149518463595,0.0867254801188608,415.4006087735848
512,1536,41.74432901687466,326983,47404,58970112,45836000,1.3681344569982812,0.2192902687390837,1.0,512,0,1,1,292.19968590611654,0.7471371273514384,0.1409611890394723,415.4006087735848
512,2048,36.77972094531027,397020,12200,57921536,45697200,1.2976245639766848,0.2304154378429505,1.0,512,0,1,1,320.54522190398234,0.6747446966494212,0.1669302549829308,415.4006087735848
512,256,225.51243200680327,410823,48680,36413440,30204296,0.6389627030832745,0.1076863997410402,0.2921518174937932,512,0,1,1,1421.8655640655393,0.863781922263926,0.0819128416020833,415.4006087735848
512,512,110.86642250864408,418976,37570,33267712,30027024,0.9107603627656716,0.1446414480703974,0.4680020798223286,512,0,1,1,887.6041938345373,0.9108761347727096,0.0409798019792714,415.4006087735848
