cpu,memory,duration_std,userDiff,sysDiff,heapTotal,heapUsed,avg_cpu_util,cpu_util_std,slo_preservation,total_cpu_shares,cpu_shares_others,num_containers,arrival_rate,latency,memory_util,memory_util_std,slo_duration
1024,1024,60.8022253562063,88457,3589,31023104,21155480,0.9298960424955685,0.1435424356879899,0.6956843433490331,1024,0,1,1,185.56968831130274,0.7738294353464198,0.0503903095652607,129.0979267583334
1024,128,64.79908301471393,67339,28078,42229760,38167152,1.0399987705420155,0.0852938183931308,0.6274699700125831,1024,0,1,1,205.74359400139022,0.8843170644906342,0.0290981425196728,129.0979267583334
1024,1536,42.02101222462766,55725,16045,46809088,36425176,0.9962212677633726,0.1122162422298075,0.9160147355373724,1024,0,1,1,140.93433407771454,0.6527910216451221,0.0533195379205331,129.0979267583334
1024,2048,29.76804056930862,107234,28504,54386688,34407112,1.1377247603746623,0.1670856443621339,1.0,1024,0,1,1,106.85376067687068,0.6851143116028042,0.0688457434601973,129.0979267583334
1024,256,50.61096088387747,46106,559,32710656,30155336,1.1527957922956047,0.1752147936170227,0.7994553577550518,1024,0,1,1,161.48234608227892,0.8915827772759221,0.021558928887711,129.0979267583334
1024,512,45.60913224831385,80115,3478,26537984,21673064,1.2188273924054684,0.1714242986276492,0.915007170073557,1024,0,1,1,141.08952473886654,0.8809301972150655,0.0229695755466293,129.0979267583334
128,1024,76.32224817103503,164043,13151,49549312,38526552,0.9049897471404127,0.1526577939221336,0.7384378417647747,128,0,1,1,174.82571918281624,0.7528405824205215,0.0493341961236943,129.0979267583334
128,128,62.00091441599808,191931,39993,36327424,31673368,1.0584268147604217,0.1161872644901275,0.7299819019080889,128,0,1,1,176.85085948142856,0.8792009964931449,0.0257575710425936,129.0979267583334
128,1536,44.78882767146827,118553,21957,60563456,42504424,1.0034454110964879,0.1035884611589188,0.7894066000950013,128,0,1,1,163.53793690450152,0.6918035371047624,0.0597152880666094,129.0979267583334
128,2048,30.876727363757784,107580,31022,60563456,42497392,1.1290738696747478,0.1679752548793482,1.0,128,0,1,1,99.23824099704066,0.6560551344811214,0.0407843164469142,129.0979267583334
128,256,57.28677843158575,225829,31667,44171264,40186408,1.1759083151485445,0.1630406364991501,0.7187480908948457,128,0,1,1,179.6149838778781,0.8916360459805819,0.0233360830566805,129.0979267583334
128,512,40.47835299259409,154316,5072,35794944,31566736,1.1830083326724599,0.1341383140007078,0.8686731981635388,128,0,1,1,148.61506839540945,0.8871660127372911,0.0207069900351212,129.0979267583334
1536,1024,64.19421542546299,128601,3147,31023104,21431664,0.9092743774618652,0.1405200124985549,0.6959493216920076,1536,0,1,1,185.49903381537553,0.7727630050401634,0.0404870233781765,129.0979267583334
1536,128,60.603050141976,196942,60265,44433408,40252064,1.0450738895619158,0.1235752695385251,0.6198733894244001,1536,0,1,1,208.26499243371407,0.8799949123623797,0.0312571874209974,129.0979267583334
1536,1536,38.14008965727266,69535,20254,51818496,33500248,1.012084081278183,0.1040726011547718,0.9249680417180889,1536,0,1,1,139.5701483032208,0.664128234764447,0.0509819773319546,129.0979267583334
1536,2048,26.40641883177908,163881,31978,60166144,41531384,1.1368381509262224,0.1553967688951278,1.0,1536,0,1,1,108.97601904837612,0.6639434618114268,0.0607609327392059,129.0979267583334
1536,256,47.59497143431412,100699,27313,41967616,37500024,1.1506676238472942,0.1975442192704802,0.8889309554248652,1536,0,1,1,145.22829469543103,0.8767805116605265,0.0196712914051981,129.0979267583334
1536,512,40.85954608067386,80154,8532,26275840,21884424,1.1829237504044645,0.1750010939761596,0.8401008264901835,1536,0,1,1,153.66956285197975,0.8777802828438436,0.0274253158874176,129.0979267583334
2048,1024,65.7841699841245,90311,26948,50073600,38591200,0.9226583998025215,0.1375995559641197,0.6542939226239977,2048,0,1,1,197.3087664341977,0.7625077506392509,0.0330568615122633,129.0979267583334
2048,128,56.66193292422446,158997,8705,32186368,27955040,1.0401680773315038,0.094833721304296,0.7165254468568795,2048,0,1,1,180.1721450712409,0.8885157145720115,0.0237805194251802,129.0979267583334
2048,1536,38.17562443419273,137211,49453,66347008,47041496,1.0221634496834697,0.1324325792596949,0.9720320121500851,2048,0,1,1,132.81242299085952,0.6840757264065507,0.0633676781415485,129.0979267583334
2048,2048,27.03502001770841,84450,4011,58470400,41993760,1.11698901401394,0.1491918314695917,1.0,2048,0,1,1,105.78188688954846,0.7024293102947915,0.0441312885201528,129.0979267583334
2048,256,48.57696210341589,205365,28336,31948800,27801848,1.126062225234258,0.1143028081183128,0.7888134150094386,2048,0,1,1,163.6609168934946,0.8854660410147238,0.0250580554222959,129.0979267583334
2048,512,57.71662615209232,288478,36496,37212160,32662408,1.1119807151740535,0.1447496441767299,0.656130113027637,2048,0,1,1,196.7565947592709,0.8878421343541646,0.0234822001069005,129.0979267583334
256,1024,74.72042081076486,213234,54621,48435200,38769664,0.8914560340474968,0.2348070393712035,0.4885675740189343,256,0,1,1,264.23760729018466,0.7752356039612568,0.0373500642169024,129.0979267583334
256,128,60.02196861786668,188647,24749,31948800,27799872,1.0609794291770596,0.0891742104918725,0.6812678435480717,256,0,1,1,189.49658050200335,0.8852046969608329,0.0245970613693516,129.0979267583334
256,1536,42.31469341383249,54911,3680,47071232,36178152,1.0130225340852737,0.0868303274425542,0.992154842978926,256,0,1,1,130.11872861570612,0.6581324712053984,0.0492161796454465,129.0979267583334
256,2048,34.4218443229756,155178,26981,85647360,66007712,1.1195034803453352,0.1586133331213058,0.9537507678424559,256,0,1,1,135.35813664441343,0.6854970113307401,0.0686295467855868,129.0979267583334
256,256,68.82702236048259,106303,23780,31657984,27616272,0.9753614716435712,0.1233996747562584,0.6396757440530697,256,0,1,1,201.81776151203096,0.8798906539288966,0.0219191266194605,129.0979267583334
256,512,68.34803318249404,128655,19455,26537984,21878792,1.0394364159390752,0.0862283957288866,0.5994890982734367,256,0,1,1,215.34657949601234,0.877118834944581,0.0373761501193628,129.0979267583334
512,1024,52.860299244292015,110064,3990,30760960,21310672,0.9355364935049427,0.1241340300601682,0.7044781991527528,512,0,1,1,183.2532602337364,0.7588484271270202,0.0445898213302025,129.0979267583334
512,128,86.86555004084704,159151,36597,36327424,32706144,0.8948991068466778,0.0914426527250193,0.5158070472034894,512,0,1,1,250.28337138519822,0.8947081951218646,0.0191459189396707,129.0979267583334
512,1536,48.08504181981032,139899,18582,44855296,25488016,1.030015109436936,0.1356775783127783,0.83747299492055,512,0,1,1,154.15174882215842,0.6550562183118515,0.0593909110191434,129.0979267583334
512,2048,32.08368258670828,67868,4563,58470400,42024488,1.0983358868103017,0.1326737524941498,1.0,512,0,1,1,123.51105200597617,0.7026361119995604,0.0483266410482618,129.0979267583334
512,256,42.62665743494389,78107,12354,31924224,27809720,0.9579822186548211,0.1395710072241275,0.6624134919150507,512,0,1,1,194.89024353219116,0.8804181564026987,0.0274881995629485,129.0979267583334
512,512,61.01161293632052,206194,50715,37474304,32794472,1.0347788187770628,0.1530137243261363,0.640271479628258,512,0,1,1,201.6299817591246,0.8866835565111184,0.0210828291168761,129.0979267583334
