cpu,memory,duration_std,userDiff,sysDiff,heapTotal,heapUsed,avg_cpu_util,cpu_util_std,slo_preservation,total_cpu_shares,cpu_shares_others,num_containers,arrival_rate,latency,memory_util,memory_util_std,slo_duration
1024,1024,60.8022253562063,88457,3589,31023104,21155480,0.9431193218679361,0.1435424356879899,0.5644616741223369,1024,0,1,1,228.70981800325688,0.7738294353464198,0.0503903095652607,129.0979267583334
1024,128,64.79908301471393,67339,28078,42229760,38167152,1.03174506372962,0.0852938183931308,0.497992161172772,1024,0,1,1,259.2368652034756,0.8843170644906342,0.0290981425196728,129.0979267583334
1024,1536,42.02101222462766,55725,16045,46809088,36425176,0.9969747278720352,0.1122162422298075,0.7333660271995432,1024,0,1,1,176.0347793192864,0.6527910216451221,0.0533195379205331,129.0979267583334
1024,2048,29.76804056930862,107234,28504,54386688,34407112,1.1072262659431518,0.1670856443621339,0.9406295393304123,1024,0,1,1,137.24630299217674,0.6851143116028042,0.0688457434601973,129.0979267583334
1024,256,50.61096088387747,46106,559,32710656,30155336,1.118611952388304,0.1752147936170227,0.6205992940379181,1024,0,1,1,208.02138835569735,0.8915827772759221,0.021558928887711,129.0979267583334
1024,512,45.60913224831385,80115,3478,26537984,21673064,1.167721502132,0.1714242986276492,0.7013124606535881,1024,0,1,1,184.08046912216642,0.8809301972150655,0.0229695755466293,129.0979267583334
128,1024,76.32224817103503,164043,13151,49549312,38526552,0.9225195095137738,0.1526577939221336,0.6021931786465247,128,0,1,1,214.37959003204068,0.7528405824205215,0.0493341961236943,129.0979267583334
128,128,62.00091441599808,191931,39993,36327424,31673368,1.0462015696974662,0.1161872644901275,0.5772402595826919,128,0,1,1,223.6467824535714,0.8792009964931449,0.0257575710425936,129.0979267583334
128,1536,44.78882767146827,118553,21957,60563456,42504424,1.0027544308478686,0.1035884611589188,0.6310904068978385,128,0,1,1,204.5632849862538,0.6918035371047624,0.0597152880666094,129.0979267583334
128,2048,30.876727363757784,107580,31022,60563456,42497392,1.100660565984738,0.1679752548793482,1.0,128,0,1,1,127.25006719260165,0.6560551344811214,0.0407843164469142,129.0979267583334
128,256,57.28677843158575,225829,31667,44171264,40186408,1.1359439189706713,0.1630406364991501,0.5554565862700899,128,0,1,1,232.41767214469527,0.8916360459805819,0.0233360830566805,129.0979267583334
128,512,40.47835299259409,154316,5072,35794944,31566736,1.141237151033556,0.1341383140007078,0.6704007729932658,128,0,1,1,192.5682844635237,0.8871660127372911,0.0207069900351212,129.0979267583334
1536,1024,64.19421542546299,128601,3147,31023104,21431664,0.9260781813665582,0.1405200124985549,0.5670486252608429,1536,0,1,1,227.66641343843878,0.7727630050401634,0.0404870233781765,129.0979267583334
1536,128,60.603050141976,196942,60265,44433408,40252064,1.0357369509732433,0.1235752695385251,0.49146823455402455,1536,0,1,1,262.6780688592852,0.8799949123623797,0.0312571874209974,129.0979267583334
1536,1536,38.14008965727266,69535,20254,51818496,33500248,1.009643957349655,0.1040726011547718,0.7381903629056463,1536,0,1,1,174.88432963305206,0.664128234764447,0.0509819773319546,129.0979267583334
1536,2048,26.40641883177908,163881,31978,60166144,41531384,1.1065543798778625,0.1553967688951278,0.9224703965024708,1536,0,1,1,139.9480430459403,0.6639434618114268,0.0607609327392059,129.0979267583334
1536,256,47.59497143431412,100699,27313,41967616,37500024,1.1170082287194862,0.1975442192704802,0.6903423170302553,1536,0,1,1,187.0056688885776,0.8767805116605265,0.0196712914051981,129.0979267583334
1536,512,40.85954608067386,80154,8532,26275840,21884424,1.141174178292852,0.1750010939761596,0.6483605524195672,1536,0,1,1,199.11440675494939,0.8777802828438436,0.0274253158874176,129.0979267583334
2048,1024,65.7841699841245,90311,26948,50073600,38591200,0.9371546071930718,0.1375995559641197,0.5316590098148963,2048,0,1,1,242.8209141104943,0.7625077506392509,0.0330568615122633,129.0979267583334
2048,128,56.66193292422446,158997,8705,32186368,27955040,1.0318783633523354,0.094833721304296,0.5686520257762839,2048,0,1,1,227.02447350310226,0.8885157145720115,0.0237805194251802,129.0979267583334
2048,1536,38.17562443419273,137211,49453,66347008,47041496,1.017652511636089,0.1324325792596949,0.7741938484390419,2048,0,1,1,166.7514241021488,0.6840757264065507,0.0633676781415485,129.0979267583334
2048,2048,27.03502001770841,84450,4011,58470400,41993760,1.0914514482587638,0.1491918314695917,0.9540111818783116,2048,0,1,1,135.3211882738712,0.7024293102947915,0.0441312885201528,129.0979267583334
2048,256,48.57696210341589,205365,28336,31948800,27801848,1.098369641018938,0.1143028081183128,0.6155316735144707,2048,0,1,1,209.73401095873646,0.8854660410147238,0.0250580554222959,129.0979267583334
2048,512,57.71662615209232,288478,36496,37212160,32662408,1.0876221734105198,0.1447496441767299,0.5134057811133953,2048,0,1,1,251.4539794981773,0.8878421343541646,0.0234822001069005,129.0979267583334
256,1024,74.72042081076486,213234,54621,48435200,38769664,0.9112379093693399,0.2348070393712035,0.39952731507200145,256,0,1,1,323.1266596504617,0.7752356039612568,0.0373500642169024,129.0979267583334
256,128,60.02196861786668,188647,24749,31948800,27799872,1.0481957534350026,0.0891742104918725,0.5384474314362895,256,0,1,1,239.75957395500842,0.8852046969608329,0.0245970613693516,129.0979267583334
256,1536,42.31469341383249,54911,3680,47071232,36178152,1.0103909639318227,0.0868303274425542,0.7916619853455054,256,0,1,1,163.07202966426527,0.6581324712053984,0.0492161796454465,129.0979267583334
256,2048,34.4218443229756,155178,26981,85647360,66007712,1.0933711488265452,0.1586133331213058,0.7451900532964347,256,0,1,1,173.2416129110335,0.6854970113307401,0.0686295467855868,129.0979267583334
256,256,68.82702236048259,106303,23780,31657984,27616272,0.9801915671881507,0.1233996747562584,0.5142747900419448,256,0,1,1,251.02907873007743,0.8798906539288966,0.0219191266194605,129.0979267583334
256,512,68.34803318249404,128655,19455,26537984,21878792,1.0313022430955519,0.0862283957288866,0.4758382079212918,256,0,1,1,271.30634869003086,0.877118834944581,0.0373761501193628,129.0979267583334
512,1024,52.860299244292015,110064,3990,30760960,21310672,0.947755623665318,0.1241340300601682,0.5709435641534253,512,0,1,1,226.11328835934103,0.7588484271270202,0.0445898213302025,129.0979267583334
512,128,86.86555004084704,159151,36597,36327424,32706144,0.914113945264928,0.0914426527250193,0.42150576422056235,512,0,1,1,306.27796276299557,0.8947081951218646,0.0191459189396707,129.0979267583334
512,1536,48.08504181981032,139899,18582,44855296,25488016,1.023868802605085,0.1356775783127783,0.6659805004158705,512,0,1,1,193.84640643039606,0.6550562183118515,0.0593909110191434,129.0979267583334
512,2048,32.08368258670828,67868,4563,58470400,42024488,1.0771513599680258,0.1326737524941498,0.8200588015238852,512,0,1,1,157.42520721494049,0.7026361119995604,0.0483266410482618,129.0979267583334
512,256,42.62665743494389,78107,12354,31924224,27809720,0.9661009019458896,0.1395710072241275,0.5344218375149994,512,0,1,1,241.56559050547787,0.8804181564026987,0.0274881995629485,129.0979267583334
512,512,61.01161293632052,206194,50715,37474304,32794472,1.0276308612782403,0.1530137243261363,0.508678933215802,512,0,1,1,253.79059034781153,0.8866835565111184,0.0210828291168761,129.0979267583334
