cpu,memory,duration_std,userDiff,sysDiff,heapTotal,heapUsed,avg_cpu_util,cpu_util_std,slo_preservation,total_cpu_shares,cpu_shares_others,num_containers,arrival_rate,latency,memory_util,memory_util_std,slo_duration
1024,1024,115.7727014708577,2260,389,30625792,24444776,0.1053703830247743,0.0820189190933411,1.0,1024,0,1,1,264.9404334926449,0.6646669016886264,0.0834506224664607,312.08395578333347
1024,128,114.94396669573794,3737,29,24719360,20927168,0.12840322360519701,0.1590305618490445,1.0,1024,0,1,1,240.92907959674244,0.8664433294854001,0.0133372951838648,312.08395578333347
1024,1536,146.23567043800847,4516,24,39407616,24363608,0.07309831910774532,0.0535639627421407,0.905817070597176,1024,0,1,1,344.53309162918134,0.5783421759902373,0.0951600760962911,312.08395578333347
1024,2048,135.16033763218988,16171,5852,34574336,14696072,0.07189219605139471,0.0443254131818555,1.0,1024,0,1,1,288.91993338231276,0.5358046384462741,0.0551337913066422,312.08395578333347
1024,256,116.1636093735238,2021,3642,24981504,20587440,0.15369016457306287,0.1762435409077711,1.0,1024,0,1,1,200.5517387900084,0.8568823331328483,0.0193641537503116,312.08395578333347
1024,512,143.07971160706757,3653,26,24981504,20635432,0.09523468175206207,0.1461315363084918,1.0,1024,0,1,1,300.2829829697812,0.8629846160111823,0.0187228475442634,312.08395578333347
128,1024,147.9623842395095,4053,0,30625792,24194488,0.0993343736198028,0.0677205683091634,1.0,128,0,1,1,295.3380252405636,0.6616472544628231,0.0828372547653141,312.08395578333347
128,128,124.54210582497822,3344,18,24719360,21013248,0.10536490990420633,0.1501239797202516,1.0,128,0,1,1,300.7078342437638,0.867877509267341,0.01633820391052,312.08395578333347
128,1536,120.38610306428232,19909,3977,34312192,14693504,0.09886370525604952,0.1378903280925798,1.0,128,0,1,1,300.2630912419694,0.515208561445236,0.0489904190243455,312.08395578333347
128,2048,119.40118783781432,59549,878,34836480,14564648,0.07405657908500768,0.0831939143429442,0.8433664036678303,128,0,1,1,370.04551571662006,0.5289199138374485,0.0549258919689969,312.08395578333347
128,256,115.93534264684833,4128,24,24981504,20778224,0.06294626419605387,0.0580585539964252,0.8938073396404965,128,0,1,1,349.1624446817125,0.866519163590182,0.0135956835445886,312.08395578333347
128,512,128.74805373661215,4388,62,24981504,20531048,0.12289015310518009,0.1684020217371944,1.0,128,0,1,1,286.19681359004926,0.860813147143743,0.0172709638034629,312.08395578333347
1536,1024,162.95398097599033,2248,444,30625792,24573208,0.10282283182379223,0.1390108277826466,1.0,1536,0,1,1,285.1024758545567,0.6727165138931867,0.0948993924731896,312.08395578333347
1536,128,115.21869557850502,3958,605,24981504,20597320,0.11678177006256288,0.1785440007974926,1.0,1536,0,1,1,240.35986834624657,0.8614016688017955,0.0166693690991855,312.08395578333347
1536,1536,132.07196284563938,142,3409,38883328,24205992,0.061434265621536706,0.0292981380856436,1.0,1536,0,1,1,298.40074473562555,0.6015958129518564,0.0908698906335733,312.08395578333347
1536,2048,137.5946518522663,49579,10895,34574336,14566280,0.0669097469806349,0.037659508286654,0.9945769710605173,1536,0,1,1,313.78562430473164,0.5329317329478143,0.0553384817240784,312.08395578333347
1536,256,139.5512370034794,3465,19,24981504,20774392,0.10887470324893306,0.1230541651260289,1.0,1536,0,1,1,254.78946027982022,0.8656339055324274,0.0160559786896084,312.08395578333347
1536,512,150.35166050365947,3676,24,24195072,20582472,0.07642911534695694,0.0464681484649568,1.0,1536,0,1,1,284.05344690976113,0.8641205634424098,0.0174881487536384,312.08395578333347
2048,1024,160.09843647371457,2234,417,30363648,24661608,0.0829513049039952,0.0747261404841596,0.9608499126189188,2048,0,1,1,324.799900259874,0.6688999666462763,0.084759815749914,312.08395578333347
2048,128,155.60061762993715,4080,36,24981504,20642576,0.0632994851527311,0.04051881465476,0.9792777525647711,2048,0,1,1,318.68788499072093,0.8592852216051972,0.0179933345761434,312.08395578333347
2048,1536,152.49110440712968,23998,32,34574336,14682168,0.08087278513781958,0.0617415776735656,0.9177832221061838,2048,0,1,1,340.04103394606034,0.5137128765104845,0.0470332591000232,312.08395578333347
2048,2048,132.69897326448634,3787,905,38883328,24134928,0.061676336504034986,0.0594717212683786,0.9642234041710641,2048,0,1,1,323.66353526922506,0.5466256129014282,0.0606446825863134,312.08395578333347
2048,256,136.03130540177415,2396,413,24981504,20531800,0.09076402422141365,0.1255470598175873,1.0,2048,0,1,1,259.3387956550648,0.8624873947205298,0.0177169388717691,312.08395578333347
2048,512,126.96684323093766,503,4094,24981504,20528232,0.08708356709772214,0.1407325344990018,0.9308009209012454,2048,0,1,1,335.28539645315243,0.8617506604985354,0.017840811533565,312.08395578333347
256,1024,120.48564123888984,264,4024,30625792,24364720,0.1448496268985122,0.1975823304680627,1.0,256,0,1,1,303.0407206194643,0.6539634430832831,0.0752655807809413,312.08395578333347
256,128,146.2199300250111,2526,445,24981504,20630792,0.11751576731797758,0.1551733580625973,1.0,256,0,1,1,265.60614796372147,0.8629098548231526,0.0171924564105541,312.08395578333347
256,1536,131.3036004933555,40375,16798,34574336,14564976,0.06942841451695732,0.0458481523729813,0.8442671323923121,256,0,1,1,369.65072286897345,0.5150170449958222,0.0480257821232443,312.08395578333347
256,2048,160.05407845508913,9607,11092,34574336,14689600,0.08057158078822939,0.0534020651827023,1.0,256,0,1,1,284.0762759698879,0.5356961302163549,0.0551650221954712,312.08395578333347
256,256,128.05923539917774,4127,20,24981504,20524184,0.06981643525356693,0.072870151291576,0.9060314258843537,256,0,1,1,344.4515795671397,0.8646331413428241,0.0176617132373035,312.08395578333347
256,512,139.4008541800314,94,3259,24719360,20628720,0.10869181784801113,0.1588152550756352,0.8504867151202445,256,0,1,1,366.9474787024863,0.8644472748173557,0.0170187925534712,312.08395578333347
512,1024,116.17136338751928,16334,4067,26316800,14560088,0.09767163399760856,0.0827849135646258,1.0,512,0,1,1,300.42731951577116,0.6588127525499129,0.0851584065874006,312.08395578333347
512,128,127.36424855789852,612,3575,24981504,20595424,0.10125602651779209,0.0934739634840092,1.0,512,0,1,1,290.2359663000152,0.859759424578345,0.0165393368844008,312.08395578333347
512,1536,165.7811826364888,21036,17,34312192,14689264,0.1046884247926949,0.122990359801306,1.0,512,0,1,1,300.7659650520932,0.5184090483056286,0.0485018422758779,312.08395578333347
512,2048,156.50855280512243,10280,9606,34312192,14683592,0.07893396636233821,0.0659694660535475,1.0,512,0,1,1,309.3759699002369,0.5391921332219172,0.0557034914080972,312.08395578333347
512,256,132.13905607000115,31985,31,25243648,20505104,0.07273522775856207,0.0557744774082475,0.867598939334832,512,0,1,1,359.70993235953125,0.8622282127853843,0.0189591999846849,312.08395578333347
512,512,124.43572687887418,27908,902,24981504,20499184,0.07692956760968424,0.0752743913703596,0.8915298821873237,512,0,1,1,350.0543975235594,0.8631119915614075,0.0178207366551364,312.08395578333347
