cpu,memory,duration_std,userDiff,sysDiff,heapTotal,heapUsed,avg_cpu_util,cpu_util_std,slo_preservation,total_cpu_shares,cpu_shares_others,num_containers,arrival_rate,latency,memory_util,memory_util_std,slo_duration
1024,1024,115.7727014708577,2260,389,30625792,24444776,0.2274726389251387,0.0820189190933411,1.0,1024,0,1,1,306.8157459264495,0.6646669016886264,0.0834506224664607,312.08395578333347
1024,128,114.94396669573794,3737,29,24719360,20927168,0.26916548506465515,0.1590305618490445,1.0,1024,0,1,1,287.3331853174247,0.8664433294854001,0.0133372951838648,312.08395578333347
1024,1536,146.23567043800847,4516,24,39407616,24363608,0.16468815662950814,0.0535639627421407,0.8163106644370621,1024,0,1,1,382.31027644181324,0.5783421759902373,0.0951600760962911,312.08395578333347
1024,2048,135.16033763218988,16171,5852,34574336,14696072,0.16223531095593247,0.0443254131818555,0.9750290674615636,1024,0,1,1,320.0765661231285,0.5358046384462741,0.0551337913066422,312.08395578333347
1024,256,116.1636093735238,2021,3642,24981504,20587440,0.31224250781375446,0.1762435409077711,1.0,1024,0,1,1,246.78598340008384,0.8568823331328483,0.0193641537503116,312.08395578333347
1024,512,143.07971160706757,3653,26,24981504,20635432,0.20832679967845089,0.1461315363084918,0.9093911417791343,1024,0,1,1,343.17901444781165,0.8629846160111823,0.0187228475442634,312.08395578333347
128,1024,147.9623842395095,4053,0,30625792,24194488,0.21613193802507474,0.0677205683091634,0.9196688081330011,128,0,1,1,339.3438518556349,0.6616472544628231,0.0828372547653141,312.08395578333347
128,128,124.54210582497822,3344,18,24719360,21013248,0.22746243612686776,0.1501239797202516,0.896190584278967,128,0,1,1,348.23391503763855,0.867877509267341,0.01633820391052,312.08395578333347
128,1536,120.38610306428232,19909,3977,34312192,14693504,0.21524011082613256,0.1378903280925798,0.9051401007072154,128,0,1,1,344.7907738696939,0.515208561445236,0.0489904190243455,312.08395578333347
128,2048,119.40118783781432,59549,878,34836480,14564648,0.16663123847705588,0.0831939143429442,0.7590476906679635,128,0,1,1,411.1519732162006,0.5289199138374485,0.0549258919689969,312.08395578333347
128,256,115.93534264684833,4128,24,24981504,20778224,0.14378917353165135,0.0580585539964252,0.8166954484424379,128,0,1,1,382.13015191712515,0.866519163590182,0.0135956835445886,312.08395578333347
128,512,128.74805373661215,4388,62,24981504,20531048,0.2594074507533878,0.1684020217371944,0.9207293765552353,128,0,1,1,338.952968950493,0.860813147143743,0.0172709638034629,312.08395578333347
1536,1024,162.95398097599033,2248,444,30625792,24573208,0.2227078949214691,0.1390108277826466,0.9483671387775129,1536,0,1,1,329.07504174556647,0.6727165138931867,0.0948993924731896,312.08395578333347
1536,128,115.21869557850502,3958,605,24981504,20597320,0.24843534598164463,0.1785440007974926,1.0,1536,0,1,1,282.46434466246546,0.8614016688017955,0.0166693690991855,312.08395578333347
1536,1536,132.07196284563938,142,3409,38883328,24205992,0.14062671555821066,0.0292981380856436,0.9576100456061752,1536,0,1,1,325.89879065625473,0.6015958129518564,0.0908698906335733,312.08395578333347
1536,2048,137.5946518522663,49579,10895,34574336,14566280,0.1520172171475255,0.037659508286654,0.9038612770327364,1536,0,1,1,345.2785993973169,0.5329317329478143,0.0553384817240784,312.08395578333347
1536,256,139.5512370034794,3465,19,24981504,20774392,0.23397570495558395,0.1230541651260289,1.0,1536,0,1,1,296.3996505982021,0.8656339055324274,0.0160559786896084,312.08395578333347
1536,512,150.35166050365947,3676,24,24195072,20582472,0.1714205113187677,0.0464681484649568,0.9856785899430482,1536,0,1,1,316.61837739761137,0.8641205634424098,0.0174881487536384,312.08395578333347
2048,1024,160.09843647371457,2234,417,30363648,24661608,0.18443017654754806,0.0747261404841596,0.8545240812069169,2048,0,1,1,365.21376359874,0.6688999666462763,0.084759815749914,312.08395578333347
2048,128,155.60061762993715,4080,36,24981504,20642576,0.1445260737888573,0.04051881465476,0.8943590513285936,2048,0,1,1,348.9470535572091,0.8592852216051972,0.0179933345761434,312.08395578333347
2048,1536,152.49110440712968,23998,32,34574336,14682168,0.18030884511089615,0.0617415776735656,0.81849256240211,2048,0,1,1,381.29113216060296,0.5137128765104845,0.0470332591000232,312.08395578333347
2048,2048,132.69897326448634,3787,905,38883328,24134928,0.1411339076862112,0.0594717212683786,0.882572634023166,2048,0,1,1,353.6071069422506,0.5466256129014282,0.0606446825863134,312.08395578333347
2048,256,136.03130540177415,2396,413,24981504,20531800,0.19971909710311514,0.1255470598175873,1.0,2048,0,1,1,294.6467447506476,0.8624873947205298,0.0177169388717691,312.08395578333347
2048,512,126.96684323093766,503,4094,24981504,20528232,0.1925561969929311,0.1407325344990018,0.8232620296094882,2048,0,1,1,379.08216893152417,0.8617506604985354,0.017840811533565,312.08395578333347
256,1024,120.48564123888984,264,4024,30625792,24364720,0.297487612688905,0.1975823304680627,0.8460225697739779,256,0,1,1,368.8837235946428,0.6539634430832831,0.0752655807809413,312.08395578333347
256,128,146.2199300250111,2526,445,24981504,20630792,0.2497628150141203,0.1551733580625973,0.998906755084825,256,0,1,1,312.425513387215,0.8629098548231526,0.0171924564105541,312.08395578333347
256,1536,131.3036004933555,40375,16798,34574336,14564976,0.15719983349007488,0.0458481523729813,0.7646359408123833,256,0,1,1,408.1471182897335,0.5150170449958222,0.0480257821232443,312.08395578333347
256,2048,160.05407845508913,9607,11092,34574336,14689600,0.17970970896867525,0.0534020651827023,0.9801355101271391,256,0,1,1,318.40898789887865,0.5356961302163549,0.0551650221954712,312.08395578333347
256,256,128.05923539917774,4127,20,24981504,20524184,0.15799510554855095,0.072870151291576,0.8201423074266121,256,0,1,1,380.5241516713968,0.8646331413428241,0.0176617132373035,312.08395578333347
256,512,139.4008541800314,94,3259,24719360,20628720,0.2336377731909064,0.1588152550756352,0.7312632217707589,256,0,1,1,426.7737614748627,0.8644472748173557,0.0170187925534712,312.08395578333347
512,1024,116.17136338751928,16334,4067,26316800,14560088,0.21297644841453836,0.0827849135646258,0.9060562025988033,512,0,1,1,344.4421603077117,0.6588127525499129,0.0851584065874006,312.08395578333347
512,128,127.36424855789852,612,3575,24981504,20595424,0.21976176208115153,0.0934739634840092,0.9334938299106259,512,0,1,1,334.3181773501522,0.859759424578345,0.0165393368844008,312.08395578333347
512,1536,165.7811826364888,21036,17,34312192,14689264,0.22620024152263893,0.122990359801306,0.896803187263884,512,0,1,1,347.9960377209307,0.5184090483056286,0.0485018422758779,312.08395578333347
512,2048,156.50855280512243,10280,9606,34312192,14683592,0.17644380218596095,0.0659694660535475,0.9019601232039056,512,0,1,1,346.0063785023685,0.5391921332219172,0.0557034914080972,312.08395578333347
512,256,132.13905607000115,31985,31,25243648,20505104,0.16395059373202925,0.0557744774082475,0.7822529225996974,512,0,1,1,398.9553081453124,0.8622282127853843,0.0189591999846849,312.08395578333347
512,512,124.43572687887418,27908,902,24981504,20499184,0.17242683610537232,0.0752743913703596,0.7992956760599503,512,0,1,1,390.4486976855933,0.8631119915614075,0.0178207366551364,312.08395578333347
