cpu,memory,duration_std,userDiff,sysDiff,heapTotal,heapUsed,avg_cpu_util,cpu_util_std,slo_preservation,total_cpu_shares,cpu_shares_others,num_containers,arrival_rate,latency,memory_util,memory_util_std,slo_duration
1024,1024,152.2399900366012,89140,23514,25530368,14394568,0.3484059051462058,0.1445562935929114,1.0,1024,0,1,1,495.6190808449173,0.6515968837872446,0.0806101986830071,520.7069879583332
1024,128,263.65554937716854,125663,23564,27582464,23204768,0.2513579553744035,0.0829950516620345,1.0,1024,0,1,1,515.60201232296,0.8513088501489866,0.0505603697728856,520.7069879583332
1024,1536,145.75477356661264,125744,60642,59904000,40395064,0.400751261948063,0.2456091469836219,1.0,1024,0,1,1,473.2277491072627,0.5357862743845712,0.1082504027624711,520.7069879583332
1024,2048,135.3115497203152,61817,20538,45117440,25616416,0.36127372267304314,0.2373435104817895,1.0,1024,0,1,1,395.33606164985724,0.6034004452161741,0.1085245861273453,520.7069879583332
1024,256,171.3603708895271,103581,18085,27582464,23102792,0.33419377945764256,0.1944353424037412,1.0,1024,0,1,1,505.75862162573185,0.8448797335002844,0.0522140019489143,520.7069879583332
1024,512,257.3359911126603,40158,3458,32288768,28370184,0.32173051497286576,0.0699524688220488,0.824942694793901,1024,0,1,1,631.203829362261,0.8621454809717178,0.046927713577251,520.7069879583332
128,1024,163.91307409793905,182035,47599,26054656,14391920,0.4712827078531045,0.1936859514439841,1.0,128,0,1,1,453.46245738791674,0.6674382123381953,0.1002175166379323,520.7069879583332
128,128,436.7029043487951,95411,25013,27582464,23422448,0.21852202052826716,0.102538250486195,0.6140640407878141,128,0,1,1,847.9685397149973,0.8515845272343331,0.0486424502832091,520.7069879583332
128,1536,131.90553224977123,77858,24334,34836480,14614536,0.40026263017295427,0.2163068111441802,1.0,128,0,1,1,414.9286535150065,0.5026869715930397,0.0905949315816824,520.7069879583332
128,2048,147.06665818564102,119009,26900,34574336,14628440,0.4003197495484858,0.2111946400326508,1.0,128,0,1,1,359.610677437811,0.5403407055666036,0.1025357660216155,520.7069879583332
128,256,220.41280725437613,95119,29890,27582464,23561200,0.21638077342880438,0.065400258882454,0.7173333916156358,128,0,1,1,725.8925822281258,0.847165417935036,0.0560452770693304,520.7069879583332
128,512,184.30059126486333,33885,11499,32026624,28410288,0.30909727374530754,0.0982673647388655,0.8138742386108868,128,0,1,1,639.7880203790099,0.8687478938112972,0.046465537441069,520.7069879583332
1536,1024,150.5460133068794,108241,32094,26054656,14394936,0.43909591357079464,0.2339089969966433,1.0,1536,0,1,1,445.5101745858066,0.6392957969308803,0.0830275284024738,520.7069879583332
1536,128,187.29957886255616,131339,26566,27320320,23553160,0.34183009948976156,0.1275960982268804,0.8755009886175177,1536,0,1,1,594.7531695887277,0.8303066465812494,0.0561461996114227,520.7069879583332
1536,1536,148.21482147758803,76331,21014,34574336,14619792,0.34772991710117723,0.1514940777465641,1.0,1536,0,1,1,434.7753843425088,0.51498433556836,0.1075297091993349,520.7069879583332
1536,2048,150.1131140019508,42894,15613,45117440,25551512,0.41381628844549084,0.2456116387980247,1.0,1536,0,1,1,390.2257449913673,0.5451930300027611,0.1058540580134141,520.7069879583332
1536,256,357.4670622357389,25588,20678,32288768,28423112,0.2697046322626314,0.1594657838426915,0.6708474108608741,1536,0,1,1,776.1928860843764,0.8483974778103025,0.055372625444175,520.7069879583332
1536,512,236.2122433456325,112665,12138,27582464,23754208,0.32287579031793434,0.1335188954364789,0.7743307924346835,1536,0,1,1,672.4606499518176,0.8496244043587302,0.0493748011821985,520.7069879583332
2048,1024,116.38010548428332,110764,19729,39952384,28418216,0.39542563914536344,0.1618319433424206,1.0,2048,0,1,1,453.7076581516254,0.6635283529032663,0.0855529975041708,520.7069879583332
2048,128,183.50300816149056,36564,7567,32735232,28533624,0.3101214422783801,0.1103044433702732,0.814759916279156,2048,0,1,1,639.0925443857092,0.8334142774484331,0.0565376147613734,520.7069879583332
2048,1536,132.98574362391037,120015,36175,46436352,26216432,0.3845084055161513,0.1719486411829616,1.0,2048,0,1,1,404.4428251715252,0.533424203140311,0.1066111173529685,520.7069879583332
2048,2048,105.15971831040537,37673,20536,45641728,25549496,0.37248164485459756,0.1955190903002333,1.0,2048,0,1,1,443.95527391139854,0.542139116315852,0.1226456878290819,520.7069879583332
2048,256,292.7707252231564,188564,41650,37736448,33447688,0.29254848794971267,0.119231139816383,0.8099915763025799,2048,0,1,1,642.8548187318657,0.8574335355131154,0.0393601065235007,520.7069879583332
2048,512,200.85942973183387,31616,13635,31764480,28401736,0.33736996833113864,0.1148272794209012,0.8981032647707191,2048,0,1,1,579.7852077636828,0.8463054417539,0.0536556985622611,520.7069879583332
256,1024,142.0018903400369,73225,24079,31547392,21726528,0.41687788023725897,0.1653731117734647,1.0,256,0,1,1,400.63511671764286,0.6734072546243062,0.0848620972879413,520.7069879583332
256,128,355.2683128433332,75127,41016,27582464,23754048,0.2833752482789129,0.1186815009248909,0.6576022138025185,256,0,1,1,791.8266955754264,0.8536119195339196,0.0444019389013506,520.7069879583332
256,1536,108.87492981009687,131436,44151,33787904,14537000,0.32825453933859694,0.1265260197823739,1.0,256,0,1,1,423.76314546734295,0.5529830308328901,0.1121360000491657,520.7069879583332
256,2048,146.7074418490465,91176,50289,34574336,14624160,0.46915729369456466,0.2270930403415523,1.0,256,0,1,1,365.17227875553755,0.5092670441024174,0.0861848998529181,520.7069879583332
256,256,366.08977531545554,97345,23396,18841600,14281904,0.213397875538328,0.0766364529812231,0.6163482408090559,256,0,1,1,844.8259498150296,0.8608792189002212,0.0481344595743295,520.7069879583332
256,512,194.8886207367934,176207,46684,36950016,33669280,0.3474124055574142,0.1109523085715866,0.7308983074600622,256,0,1,1,712.4205688310282,0.858243242488862,0.0554120196363025,520.7069879583332
512,1024,117.3105064668716,91901,23235,25792512,14390336,0.36137091443555336,0.1917077330247206,1.0,512,0,1,1,423.468046872066,0.6739034163504165,0.0876236326497683,520.7069879583332
512,128,346.4806701044078,38642,4576,32026624,28406704,0.2019807173688558,0.0887033467197234,0.7068869311507618,512,0,1,1,736.6199105006216,0.8257982078275561,0.0579655349009505,520.7069879583332
512,1536,139.68980461609937,155238,36948,64544768,44842816,0.38101174207336147,0.1803358007184634,1.0,512,0,1,1,425.5027629088196,0.5184268140914143,0.097847034769903,520.7069879583332
512,2048,143.6306903408214,113321,28267,34574336,14624288,0.3783476231893027,0.2025554256799345,1.0,512,0,1,1,393.9919225059873,0.5188496447521127,0.091460095550788,520.7069879583332
512,256,406.0903666383593,93688,32032,23482368,18913800,0.2294753563921007,0.0874596307877497,0.6537529286677657,512,0,1,1,796.4889564922381,0.8569620229138455,0.0484586370316905,520.7069879583332
512,512,210.25053649310604,124425,24173,36065280,32141496,0.3111653122481863,0.0902436561288746,0.8345812940696148,512,0,1,1,623.9140412784037,0.8394617427613295,0.0576557613412146,520.7069879583332
