cpu,memory,duration_std,userDiff,sysDiff,heapTotal,heapUsed,avg_cpu_util,cpu_util_std,slo_preservation,total_cpu_shares,cpu_shares_others,num_containers,arrival_rate,latency,memory_util,memory_util_std,slo_duration
1024,1024,24.25964301161339,15669,12382,34185216,28505056,0.7900424805159861,0.2203329948669766,0.9219502346761586,1024,0,1,1,54.99067771269724,0.6716817411027334,0.0896221904250862,50.698668222222224
1024,128,58.67570550444586,28239,2759,28278784,24636144,0.4998592790184896,0.2695071680174754,0.30571440201721345,1024,0,1,1,165.83670212359706,0.8799977247336151,0.0098338558425693,50.698668222222224
1024,1536,13.268555920706094,10640,16295,42442752,28209024,0.8927556374859488,0.2726197828742295,1.0,1024,0,1,1,35.47832586007092,0.5641644678207899,0.0792546508487437,50.698668222222224
1024,2048,9.327948523916383,38401,5306,34836480,15045056,0.9342853188982665,0.1876639313923536,1.0,1024,0,1,1,29.49791502121483,0.5350828442465619,0.0554340316574417,50.698668222222224
1024,256,67.52993486575173,22469,7523,28016640,24407264,0.6200975848675747,0.3494756243798655,0.4555931065827842,1024,0,1,1,111.28058675534405,0.8726989344479389,0.0081105821068433,50.698668222222224
1024,512,27.97409802093624,18157,11287,28540928,25049960,0.688182799453311,0.3015210372590998,0.772090065423605,1024,0,1,1,65.66418931243021,0.8823659952491608,0.0120841698770041,50.698668222222224
128,1024,28.549260542513736,22057,4519,33923072,28653344,0.8446676570600707,0.3347003746460883,0.7331904258018956,128,0,1,1,69.1480227210724,0.6643635199330247,0.0771016604160623,50.698668222222224
128,128,130.82249633240684,29097,857,28016640,24401944,0.5281215727232837,0.2767613659094509,0.23492560128437856,128,0,1,1,215.80733621641878,0.8800444129004346,0.0094869339452807,50.698668222222224
128,1536,9.66650600417536,25953,27,42180608,29212808,0.9375507484169316,0.2081187654048746,1.0,128,0,1,1,32.873989367452836,0.5601458875985159,0.0759076762801945,50.698668222222224
128,2048,19.10540983995389,20481,4125,42442752,28497928,0.9582099647161171,0.1926774604080652,1.0,128,0,1,1,41.327445398599764,0.5399884003862904,0.0617774185756655,50.698668222222224
128,256,48.373814580588586,25995,3637,28016640,24336488,0.4489233280053409,0.112669453370257,0.33038792148267343,128,0,1,1,153.45194217362157,0.8814459323840371,0.0098478137610478,50.698668222222224
128,512,45.73075336019443,23205,4584,28540928,24881648,0.7613864372827699,0.3283962245951344,0.6105237833604061,128,0,1,1,83.04126653865939,0.8779693125968979,0.0127551085031545,50.698668222222224
1536,1024,30.388097699374896,37433,4917,25792512,15069984,0.7809757515643945,0.1915380918020741,0.8317543172042615,1536,0,1,1,60.95389849328752,0.6585970312242728,0.0759392488209523,50.698668222222224
1536,128,55.28026093950155,31898,3960,28278784,24694720,0.5911474452976108,0.1782679929785107,0.39896516205823135,1536,0,1,1,127.07542673819337,0.8713348840933458,0.0108489544983189,50.698668222222224
1536,1536,11.809026267305178,46873,14671,42442752,28502472,0.9278220600596943,0.2556061494254713,1.0,1536,0,1,1,35.585478938434655,0.5632612299939638,0.0973300648336012,50.698668222222224
1536,2048,15.022363814149465,19127,22,42442752,28294904,0.9608502940966573,0.2464755694007061,1.0,1536,0,1,1,36.29265137232109,0.5397501587699358,0.0655047566241787,50.698668222222224
1536,256,51.8872383628703,24802,4148,28016640,25024272,0.6617729407936827,0.3172623003202078,0.5305846613268209,1536,0,1,1,95.55245735042777,0.8843899874591886,0.0105706368185944,50.698668222222224
1536,512,18.076460628478223,15382,8724,28540928,25011936,0.6602171432244971,0.2785685858336031,0.9389684402501886,1536,0,1,1,53.99400666620227,0.8805097275578341,0.0101810557331591,50.698668222222224
2048,1024,29.160646586315583,27717,47,26054656,15061056,0.7685898331216159,0.2542517616319521,0.8450578746061087,2048,0,1,1,59.994314881514434,0.6576493902778123,0.0720303601522552,50.698668222222224
2048,128,30.507632959093584,26078,2950,28540928,24650960,0.6540586945299346,0.2046184344210629,0.5042415433224859,2048,0,1,1,100.54440950692963,0.8788705438304731,0.0104344790605434,50.698668222222224
2048,1536,12.081906603393069,40620,4935,34574336,15138000,0.8306880006938338,0.2661779638435858,1.0,2048,0,1,1,35.391185863615185,0.5489731067613408,0.0717999101497292,50.698668222222224
2048,2048,14.893313210811362,12745,12098,42442752,28105512,0.9526917223354143,0.2083242457003746,1.0,2048,0,1,1,36.85151766971952,0.5356280066442137,0.0624043026631356,50.698668222222224
2048,256,50.29019581385919,10992,18377,28278784,24333984,0.7168826861874205,0.2844391479237217,0.5626661421968322,2048,0,1,1,90.10435215504185,0.8753590187451732,0.0116366908053157,50.698668222222224
2048,512,26.8664675875494,17632,7459,28278784,25051472,0.7430393166966265,0.3143147070590746,1.0,2048,0,1,1,49.39576378540921,0.886425794264385,0.0155350067506163,50.698668222222224
256,1024,25.017539752276228,13360,12141,33923072,28641912,0.8262020317788217,0.2798534777360556,0.7764325628926204,256,0,1,1,65.29693710081268,0.6611478855344253,0.0790248522076784,50.698668222222224
256,128,107.95985199642072,27499,3913,28016640,24954712,0.49248360135105546,0.306891957501395,0.22752298798105786,256,0,1,1,222.82877291697258,0.8813865804530984,0.010815056630834,50.698668222222224
256,1536,19.34593814425948,69831,12403,34312192,14640952,0.9072736251197169,0.239194369843287,1.0,256,0,1,1,49.527750994323085,0.5292450457602584,0.0614196493707678,50.698668222222224
256,2048,11.246159385885136,15377,3877,42704896,28306104,0.9576883011053657,0.2108846313656593,1.0,256,0,1,1,29.170529057904762,0.6213860038427592,0.0925371441296244,50.698668222222224
256,256,45.596355211156016,19725,7964,27754496,24662496,0.5609461033687287,0.1978893666454192,0.45161272412143266,256,0,1,1,112.26138129932323,0.8833016011739268,0.011612147717127,50.698668222222224
256,512,24.1507338390942,23284,3857,28278784,25030856,0.6573182026977463,0.28333221561218,0.6742851755528833,256,0,1,1,75.18876294536895,0.8777197599286447,0.0113907535765972,50.698668222222224
512,1024,18.27030888959349,27393,35,25530368,15212192,0.8628866461674316,0.1778329172923161,1.0,512,0,1,1,45.93758495926643,0.673396578411875,0.0507439550799162,50.698668222222224
512,128,68.97091760432853,19055,8172,28278784,24982000,0.5580912641711668,0.3347461568429121,0.2893461155234639,512,0,1,1,175.21807103061292,0.8771483362542264,0.0107698387607542,50.698668222222224
512,1536,16.18175732783237,26302,33,42180608,29101256,0.9408197666594003,0.3121734377053537,1.0,512,0,1,1,38.713636366374814,0.5645234614779923,0.087551627062972,50.698668222222224
512,2048,14.694407238461148,18398,7610,42967040,28286152,0.9353637221877054,0.2058551864842664,1.0,512,0,1,1,37.64734748881684,0.5452179537374426,0.0666611005937956,50.698668222222224
512,256,53.30630799057536,17665,10145,28278784,24832432,0.5259230169319841,0.3003904441564736,0.34877978472358145,512,0,1,1,145.36011100070624,0.8732251484448256,0.0087434268077302,50.698668222222224
512,512,26.853327765201666,25229,6236,28016640,24517464,0.5751309858671341,0.2096206232350758,0.6413848907766295,512,0,1,1,79.04562291892012,0.8832638764123859,0.0121243182868666,50.698668222222224
