cpu,memory,duration_std,userDiff,sysDiff,heapTotal,heapUsed,avg_cpu_util,cpu_util_std,slo_preservation,total_cpu_shares,cpu_shares_others,num_containers,arrival_rate,latency,memory_util,memory_util_std,slo_duration
1024,1024,41.17311591509062,142785,43380,25792512,14391952,1.027525009129053,0.1857072117119453,0.3932185750382444,1024,0,1,1,338.5416854660352,0.7461371399552952,0.0855719997862729,133.1208791499999
1024,128,88.67459080821192,178181,38760,29540352,24690768,0.9402514342085879,0.1727746081301826,0.25235275352331676,1024,0,1,1,527.5190275968193,0.8509441958062218,0.0442041522824826,133.1208791499999
1024,1536,42.09027659745847,34922,43497,45379584,25606224,1.0411672059014845,0.155797445945411,0.44185807399911564,1024,0,1,1,301.2751989460451,0.648920950051217,0.0812889227989333,133.1208791499999
1024,2048,26.973801493696016,129313,32271,34574336,14521536,1.0495018114397379,0.2197890835382307,0.5833531840586131,1024,0,1,1,228.19945581478888,0.6249647131026387,0.0774290138724152,133.1208791499999
1024,256,70.22387921385324,102754,41067,36851712,32266520,0.9969144602570154,0.2222978931829462,0.32490606522209925,1024,0,1,1,409.7211268093784,0.8491802559104705,0.0484643559567131,133.1208791499999
1024,512,96.69546239782738,133899,30660,36327424,32025416,0.9352003317364742,0.1593296888225268,0.2542715211500309,1024,0,1,1,523.5382969666233,0.8567269596013188,0.0446088490907083,133.1208791499999
128,1024,67.48011076691687,200942,42280,44163072,33627296,0.916727827686368,0.1483200611230221,0.30473493269762386,128,0,1,1,436.84154609898417,0.7502978714430163,0.069947405901641,133.1208791499999
128,128,129.44789763454085,29606,13248,35442688,31861960,0.8343491163291515,0.1431090780876107,0.26051882663398745,128,0,1,1,510.9837199482952,0.8625943447549629,0.0415195954186271,133.1208791499999
128,1536,57.40225801394419,101187,11313,55074816,37462872,0.9674710571412951,0.1849708670307912,0.44707522495932167,128,0,1,1,297.75946354914265,0.6169481121647225,0.0727736385100184,133.1208791499999
128,2048,46.29450441447841,22405,28671,44531712,26850024,1.0387471868344962,0.1726995715879885,0.4250188925792309,128,0,1,1,313.2116747614551,0.6359032360417451,0.0807207366431884,133.1208791499999
128,256,69.49201019203166,90753,31582,28368896,23134384,0.99266078743309,0.159730666040724,0.26685390177503143,128,0,1,1,498.8530363038355,0.8381656195503687,0.0568933506266544,133.1208791499999
128,512,79.27761601110865,173467,56447,37474304,33551248,0.9608955635909681,0.1956347710761376,0.272653328199227,128,0,1,1,488.24226731143676,0.845449421965051,0.0443745898486268,133.1208791499999
1536,1024,56.599940214346574,144430,71261,61181952,49902664,0.9698880102548824,0.1449421793367584,0.29876304992532365,1536,0,1,1,445.5734374892534,0.7324833387733818,0.0835909797912338,133.1208791499999
1536,128,90.14996554981808,36793,7288,35442688,31857296,0.9096544708677186,0.1147148627504522,0.30868980601079016,1536,0,1,1,431.2448178005162,0.8657695099010804,0.0425201503749078,133.1208791499999
1536,1536,24.19169597597439,80182,23304,64868352,46548264,1.0321255710504489,0.1341746778565443,0.5038181242063219,1536,0,1,1,264.22407760679266,0.6412556363480424,0.0657128328068023,133.1208791499999
1536,2048,28.66078741754461,39627,27948,55599104,37572840,1.0473439711098105,0.2038244378340221,0.578142185346756,1536,0,1,1,230.25629771361028,0.633701680714051,0.0791384330097857,133.1208791499999
1536,256,75.90032193715241,118297,30305,30965760,26249768,0.9953245573565351,0.2035230780562451,0.3272262433571806,1536,0,1,1,406.8160236301497,0.8671960982967135,0.0372566234188034,133.1208791499999
1536,512,82.58824338654402,81788,27534,28106752,23434232,0.9818836642136509,0.2120404663523874,0.281693757443435,1536,0,1,1,472.57305365288755,0.8409602141823859,0.0520004165705881,133.1208791499999
2048,1024,47.973156652260506,170046,47446,61181952,51588384,0.989092169612182,0.1603708377620103,0.34235309938215447,2048,0,1,1,388.840876248071,0.7115234472793628,0.086064831558852,133.1208791499999
2048,128,130.80616234419844,33784,13238,35180544,31743440,0.8540773713049021,0.1352204839666786,0.2605772153534687,2048,0,1,1,510.8692215066601,0.8609575698683937,0.0500154928321205,133.1208791499999
2048,1536,67.49231027228176,124467,33265,52322304,34917240,0.9254693008659569,0.1148328340734788,0.41781330519459436,2048,0,1,1,318.61330765423935,0.6438719473808321,0.0605301262977037,133.1208791499999
2048,2048,34.126713344325275,54873,11987,44269568,26795216,1.014973113506877,0.1369712843441099,0.5522231571580314,2048,0,1,1,241.063558136705,0.639885809823184,0.0670611683054787,133.1208791499999
2048,256,68.89543806075328,146025,26950,37113856,32760536,1.0099023420970157,0.1514509905019642,0.2549035158452517,2048,0,1,1,522.2402629817616,0.8326450574831122,0.0539267097159462,133.1208791499999
2048,512,69.6470562083227,113910,27611,30703616,25868784,0.9969860463452892,0.2074561735858657,0.30600523336491975,2048,0,1,1,435.0281127095939,0.8676088349979892,0.0307011978620301,133.1208791499999
256,1024,62.29525975534723,70462,35472,50073600,38846632,0.9541885448165582,0.1770942794211946,0.35753209724582186,256,0,1,1,372.3326665646816,0.7184172431874366,0.0787928153544972,133.1208791499999
256,128,80.34279559808121,164761,53884,37474304,33568056,0.9352133616409743,0.1858798795061662,0.2382038880383918,256,0,1,1,558.8526713239229,0.8572849762526881,0.0451970543579755,133.1208791499999
256,1536,36.90442190791588,46472,32006,55074816,37604416,1.0007764975343059,0.1902225010090645,0.5699204517307197,256,0,1,1,233.57799978179736,0.6559489864036729,0.0469944201361552,133.1208791499999
256,2048,29.163916260407003,133879,34514,60166144,41900696,1.0528199705670176,0.2259692393043385,0.5068531057384754,256,0,1,1,262.64193243138027,0.6294093995382009,0.0922478986535805,133.1208791499999
256,256,34.57691495530574,111076,16438,28368896,23114552,1.068059322646403,0.2398678942440871,0.44805551743841215,256,0,1,1,297.10800105993144,0.8671410555715238,0.0406639986469466,133.1208791499999
256,512,89.7762947443816,170393,29216,37998592,33353640,0.9729280601890795,0.2244363349425661,0.28231984670132754,256,0,1,1,471.5250475848814,0.8425664235877031,0.0545878160488498,133.1208791499999
512,1024,54.96768621089388,158849,38958,25530368,14385496,0.9644081548778993,0.1644304525300602,0.37676297351443716,512,0,1,1,353.3279236763929,0.7113184314550824,0.0822238639533745,133.1208791499999
512,128,94.97980191173713,106008,33895,36327424,32029848,0.8930913718046469,0.1664501204262172,0.27080857602211267,512,0,1,1,491.5681811314942,0.8686248025778125,0.0280728102378988,133.1208791499999
512,1536,36.62639581483893,67590,16398,45379584,25902808,1.034449399460473,0.1966073881539566,0.5163084502652624,512,0,1,1,257.83207515121387,0.5867604211659566,0.0911869178193276,133.1208791499999
512,2048,22.18968013341909,104435,45378,67133440,47066752,1.0567359686837803,0.1985294377262532,0.49862541935735755,512,0,1,1,266.975717606956,0.6125616221917435,0.0808625076793945,133.1208791499999
512,256,71.63322100018362,24401,12056,35889152,31926128,0.988763916632296,0.195725647812158,0.296552976499778,512,0,1,1,448.8940921154421,0.8548187039710842,0.0414150432454197,133.1208791499999
512,512,73.13578475817773,117225,46856,26324992,21242680,0.9860943403693977,0.2299329079887652,0.2656920091119329,512,0,1,1,501.03456101277635,0.8342455921069032,0.0428418609168213,133.1208791499999
