cpu,memory,duration_std,userDiff,sysDiff,heapTotal,heapUsed,avg_cpu_util,cpu_util_std,slo_preservation,total_cpu_shares,cpu_shares_others,num_containers,arrival_rate,latency,memory_util,memory_util_std,slo_duration
1024,1024,157.99785540941093,230035,35737,38121472,30118984,0.5923132650439963,0.1956249150860388,1.0,1024,0,1,1,579.0508768058135,0.7689778307910031,0.1152091779447523,622.9404659174311
1024,128,261.0806041462138,288618,11766,32481280,29928872,0.4506058465924669,0.1045739741276666,0.5455131569736713,1024,0,1,1,1141.9348148691797,0.9177379568904188,0.0087668842591117,622.9404659174311
1024,1536,118.69935391854536,247597,61948,50311168,29988304,0.5531659608463088,0.3004609610253064,1.0,1024,0,1,1,561.0652488817078,0.6113401500633983,0.1712609489870512,622.9404659174311
1024,2048,142.9688677998932,261580,52129,50049024,30032904,0.6939813415015187,0.3661304839232948,1.0,1024,0,1,1,454.3658119541144,0.5916862480876159,0.1914906550774959,622.9404659174311
1024,256,248.67328107841803,257333,38168,33005568,29930216,0.38247684849115215,0.0796275958460631,0.5391816584917112,1024,0,1,1,1155.3443187589578,0.8944441559813077,0.0489551425796432,622.9404659174311
1024,512,186.6687917343368,276186,63764,33005568,29729272,0.5163993642617443,0.0820920478409668,0.7577535542331613,1024,0,1,1,822.0884777608735,0.8506932501532777,0.0924247346131287,622.9404659174311
128,1024,181.19298199508407,325907,32684,39956480,29905792,0.5830602056101153,0.1896642810243383,1.0,128,0,1,1,609.346397030039,0.6903240638012741,0.1314104501432135,622.9404659174311
128,128,1326.7559584441176,254216,40660,32481280,29904776,0.40629301308999044,0.2189303225927613,0.30466267722668394,128,0,1,1,2044.6891348425095,0.914954892670054,0.009702541542544,622.9404659174311
128,1536,138.83431293527474,252463,38796,50311168,29943800,0.5797797669970346,0.2238905396357533,1.0,128,0,1,1,484.8267640065475,0.6279103862326865,0.1703246590325305,622.9404659174311
128,2048,123.575763067464,227767,48136,49786880,29936560,0.605768313185931,0.2841754271099882,1.0,128,0,1,1,405.97604148051846,0.655923530464207,0.1610200524080597,622.9404659174311
128,256,218.4859975919616,257899,32953,32481280,30278896,0.32274052264188274,0.0388556547026219,0.4366875067281787,128,0,1,1,1426.5131388455034,0.9067930027902148,0.0485071482191562,622.9404659174311
128,512,265.4968727481156,308826,35990,32743424,29904272,0.48553354046479397,0.1058743905152883,0.7168903583615273,128,0,1,1,868.9480318038852,0.8806382844539138,0.0571574874065888,622.9404659174311
1536,1024,148.8758164502217,213987,38677,37335040,30112952,0.6103755285015412,0.2855536493375259,1.0,1536,0,1,1,584.8734973088015,0.7864189581083413,0.0933849184403122,622.9404659174311
1536,128,429.6944427523936,307962,76148,32481280,29803864,0.3754610586813867,0.0851455852503646,0.396436644835822,1536,0,1,1,1571.349354385269,0.9156301668037884,0.0077562346069917,622.9404659174311
1536,1536,165.68550191308597,269196,44394,50049024,29982968,0.5741209617983147,0.2272938485798769,1.0,1536,0,1,1,515.0924772309746,0.6031775019680147,0.1725454567793433,622.9404659174311
1536,2048,126.69074729101092,229641,33514,50311168,29930936,0.5830308511752111,0.2821177177748918,1.0,1536,0,1,1,483.34859010014134,0.5958587310081074,0.150736126347447,622.9404659174311
1536,256,255.4834612358881,307826,46276,32481280,29789616,0.4204555832092769,0.1015786279286155,0.5678993336749457,1536,0,1,1,1096.9205790158398,0.8942764758105117,0.0639293546309754,622.9404659174311
1536,512,227.41738940033392,292161,52956,32743424,30000520,0.5207703540395509,0.1396833691504205,0.7551432166009411,1536,0,1,1,824.930228098211,0.8530240724533318,0.0924585740087823,622.9404659174311
2048,1024,185.7654041921568,260686,29918,38121472,30131248,0.6285482263712655,0.2880159197683163,1.0,2048,0,1,1,591.2219123497556,0.7317237692400917,0.1369061608030212,622.9404659174311
2048,128,530.4159264566815,323820,32668,33005568,30145632,0.37389745937826796,0.1053468217895095,0.3848253444060229,2048,0,1,1,1618.7615368185752,0.9214758421697186,0.0092609847942404,622.9404659174311
2048,1536,128.88349572391334,331155,42364,50049024,30029256,0.6424588024201283,0.2231149005694362,1.0,2048,0,1,1,504.5222833734606,0.6043886420622111,0.1783381099338357,622.9404659174311
2048,2048,128.50214418985402,294089,37222,49786880,30007144,0.6499697906150493,0.2948976699948498,1.0,2048,0,1,1,482.9356721959032,0.6448461542984247,0.1841553514376675,622.9404659174311
2048,256,258.24966543059617,246695,43614,32743424,30047688,0.46834606828554,0.1681391151763948,0.6498924478170034,2048,0,1,1,958.5285503930622,0.9087316780811882,0.0406860988425496,622.9404659174311
2048,512,251.06736404904015,237231,49782,32219136,30022800,0.4943733209719932,0.1068237842863308,0.7155802283244583,2048,0,1,1,870.5389574220844,0.878947707242682,0.0895854301614978,622.9404659174311
256,1024,190.75294869287592,258182,35990,37859328,30451672,0.622526064180071,0.209430883889523,1.0,256,0,1,1,585.3692214800408,0.7654509362147339,0.1174608087486747,622.9404659174311
256,128,631.9489814883705,303558,30149,32743424,30349008,0.44825883917900694,0.1569048930183693,0.47237468002609423,256,0,1,1,1318.742287124745,0.9147879351884036,0.0140207730577434,622.9404659174311
256,1536,166.52813601221098,249659,58590,50311168,29967856,0.5931493949088309,0.2845481239786377,1.0,256,0,1,1,502.60808790588703,0.6713693272483083,0.1565165042865549,622.9404659174311
256,2048,143.352246561981,272738,51288,49524736,30057568,0.7063834688142459,0.3654560291767084,1.0,256,0,1,1,446.54980371566364,0.58981093990354,0.1629703672905708,622.9404659174311
256,256,315.8423793764797,231659,45864,32481280,29724344,0.3492951477633561,0.0671893825540664,0.46985869742041025,256,0,1,1,1325.8038413196587,0.8905860223125843,0.0600920481128119,622.9404659174311
256,512,185.97462283495489,300885,56938,33005568,30400928,0.48198439213552036,0.0804980039229511,0.6892746270299233,256,0,1,1,903.7623633437295,0.8734652260127425,0.0763665657208361,622.9404659174311
512,1024,164.2329725378683,279361,36790,40218624,30868280,0.6022714458708598,0.1826654139196755,1.0,512,0,1,1,580.5091647688794,0.7700603730580156,0.0957458945152035,622.9404659174311
512,128,471.5779081421093,277892,37331,32743424,30163000,0.28028879816337404,0.0656443739028672,0.3003184315352622,512,0,1,1,2074.2665134899917,0.92314142108414,0.0063635395453869,622.9404659174311
512,1536,144.6703510466521,211674,32881,38506496,15618784,0.719598852150559,0.2903890764362157,1.0,512,0,1,1,438.90278308879397,0.5750576481496668,0.1567652070043891,622.9404659174311
512,2048,134.93628917124525,229556,39225,50311168,29927800,0.6461021367467845,0.3497653644446538,1.0,512,0,1,1,441.55233830474486,0.6205537019195613,0.165705027690499,622.9404659174311
512,256,227.09535938790583,264006,35376,33005568,30228408,0.31423052782047484,0.0403227302299433,0.4565480856802574,512,0,1,1,1364.457513799995,0.8987950672249655,0.0547037885384211,622.9404659174311
512,512,158.16736760120486,293488,50187,32481280,30180848,0.474571951437559,0.1004684238377027,0.7010142102653537,512,0,1,1,888.6274440594157,0.8667186255084841,0.0818621660051981,622.9404659174311
