cpu,memory,duration_std,userDiff,sysDiff,heapTotal,heapUsed,avg_cpu_util,cpu_util_std,slo_preservation,total_cpu_shares,cpu_shares_others,num_containers,arrival_rate,latency,memory_util,memory_util_std,slo_duration
1024,1024,13.40333398445579,7714,31,33976320,26897128,0.8395463611775674,0.2985577741938891,0.5525684857662755,1024,0,1,1,18.36338896392529,0.6487774222808703,0.0611286933777969,10.147030033333332
1024,128,6.452235314025407,7229,7971,18841600,14083032,0.9478382052813807,0.2608710829507791,0.9026804431435915,1024,0,1,1,11.240999082683372,0.833555852202163,0.0418071873450259,10.147030033333332
1024,1536,8.741321154489212,27854,3939,34312192,14679608,0.9710305215369734,0.2754170897796741,0.7467121216250275,1024,0,1,1,13.588945109463232,0.5201414632628663,0.0606222938274344,10.147030033333332
1024,2048,2.831871744236921,5089,216,42496000,26750840,1.1217901262890657,0.1955894560151684,1.0,1024,0,1,1,6.291713065770962,0.5367523121934595,0.0665346329355365,10.147030033333332
1024,256,7.821230756923053,12767,8239,18841600,14093416,0.8432004707689793,0.3545803490144782,0.6786123420481054,1024,0,1,1,14.952616397616344,0.8459764724052704,0.0401382256877465,10.147030033333332
1024,512,8.417714205685133,19071,24,18841600,14186064,1.0458202750558876,0.2853322670514535,0.9211608358967083,1024,0,1,1,11.015481377316327,0.8317284483215761,0.043007457470236,10.147030033333332
128,1024,15.763759865381736,2089,3632,33976320,26816280,0.7542209962291749,0.2324365304280438,0.4362716887689603,128,0,1,1,23.25851136929257,0.6344199207646748,0.0527583092192244,10.147030033333332
128,128,15.940337027333747,7119,33,28069888,23871752,0.8643360869825563,0.3415227624179147,0.4929874559873094,128,0,1,1,20.582734733101482,0.8844910212097611,0.0196609533709553,10.147030033333332
128,1536,7.671301292896674,7539,34,42758144,27020888,1.0088652099535311,0.2418828781126059,0.77800903990364,128,0,1,1,13.04230351178193,0.5219825988049507,0.0640756569233599,10.147030033333332
128,2048,2.47930593038489,1102,4236,43020288,26710624,1.075001842512916,0.1041204428154914,1.0,128,0,1,1,6.525525385454784,0.5508210840164077,0.0684931456895142,10.147030033333332
128,256,11.014966640746223,14742,4526,18841600,14187616,1.0040191733362094,0.260912382320304,0.7290221303352141,128,0,1,1,13.918685882234591,0.8036511957295154,0.0210325625657511,10.147030033333332
128,512,6.0823841866076,11935,8095,18841600,14184560,1.0309007724250079,0.1776328164921251,0.9101559295828245,128,0,1,1,11.148672115979384,0.8050911291069663,0.0235431599525777,10.147030033333332
1536,1024,8.165652078720521,22659,536,25530368,14286480,0.8995912399864657,0.3595555171143261,0.7533397641906512,1536,0,1,1,13.469393911835743,0.6425599016402728,0.0634754568601559,10.147030033333332
1536,128,7.5710405014655455,16423,37,28332032,23838240,0.9403178092862149,0.2655269113386027,0.7408899433024337,1536,0,1,1,13.69573190331628,0.8523589544420238,0.0384897075015651,10.147030033333332
1536,1536,8.258513198289899,2174,3638,42758144,26648792,0.9445297501259965,0.2039328619044791,0.8688462352624227,1536,0,1,1,11.678740865198737,0.5068425536059189,0.0546631694457394,10.147030033333332
1536,2048,2.580113593822181,5659,344,42758144,26841520,1.1338897952232347,0.2384063379530332,1.0,1536,0,1,1,6.794398155542131,0.550656750358337,0.0701031379488849,10.147030033333332
1536,256,9.350129790121056,9402,27,28332032,26346424,0.9271487558708152,0.2327571627695774,0.7617260303639097,1536,0,1,1,13.321101851390917,0.8140359629089865,0.033272033043824,10.147030033333332
1536,512,6.695446313714683,14849,3857,19103744,14179168,0.9984294502960783,0.2811255809496454,0.9221039685391547,1536,0,1,1,11.00421468677636,0.8361227203824357,0.037480864928973,10.147030033333332
2048,1024,8.156775178403768,5311,341,33976320,26822616,0.8572687882296823,0.3787243942565771,0.9419027903476545,2048,0,1,1,10.772905800170825,0.6476184589600744,0.0547574879574832,10.147030033333332
2048,128,6.541174181150755,6187,20,28332032,23894928,0.9630188083373153,0.3030002314898988,1.0,2048,0,1,1,8.447832557014953,0.8497453479832288,0.0368603203510829,10.147030033333332
2048,1536,6.868696684453503,6167,0,43020288,26909744,0.9213504624499055,0.2650237870375244,0.8990827588489536,2048,0,1,1,11.285979998464233,0.520164356325052,0.0584662083823841,10.147030033333332
2048,2048,5.0818555131744665,2774,3698,42758144,26989976,1.134639724391112,0.2205639513815359,1.0,2048,0,1,1,7.211229551877158,0.5127734120182197,0.0601058326234812,10.147030033333332
2048,256,4.768324995899027,10134,5240,18841600,14182296,0.9328528080386469,0.2662163110054681,1.0,2048,0,1,1,8.879354614244875,0.8130251083038328,0.0253682655192399,10.147030033333332
2048,512,7.202900913997548,22110,463,18841600,14189712,1.03950015462478,0.2870738380556836,1.0,2048,0,1,1,10.031404848524094,0.807051272959314,0.0248216159749395,10.147030033333332
256,1024,10.611335991359525,7262,35,33976320,26869240,0.9312056582811634,0.2186170099578868,0.7241054740462736,256,0,1,1,14.013193377246711,0.6614337493110762,0.0766543628428349,10.147030033333332
256,128,10.715561518933344,22922,40,28332032,23702208,0.919063986648558,0.238189053322878,0.6086055601223865,256,0,1,1,16.672588451694118,0.8359650595768822,0.0402478306125972,10.147030033333332
256,1536,10.754586557931368,5183,306,43020288,26842864,0.931108026610546,0.2003607063712467,0.8060764123865424,256,0,1,1,12.588173872116071,0.5247139620821873,0.0615472822538658,10.147030033333332
256,2048,6.831471010477199,5326,317,43020288,26898032,1.12639715006885,0.2116957961332314,1.0,256,0,1,1,8.659267178612264,0.5040633785883538,0.0514259254314536,10.147030033333332
256,256,7.320562051058787,17405,33,18841600,14181864,1.0717837032552933,0.2161430838003916,0.9212979230414061,256,0,1,1,11.013842297435952,0.8068759905939519,0.0218507567870523,10.147030033333332
256,512,6.06045206760794,17351,19,18841600,14184344,1.0581718886521825,0.2409941932168965,1.0,256,0,1,1,9.968418546747953,0.8283118518636629,0.0366029626675693,10.147030033333332
512,1024,19.171133644996623,5057,243,34238464,26882728,0.9136342732015336,0.2229869255518893,0.5984759625222414,512,0,1,1,16.954782929909626,0.6684564296125418,0.060475056707123,10.147030033333332
512,128,5.853245519744651,20245,113,18841600,14185368,1.0504232355101442,0.1930395966933994,0.8462223462402553,512,0,1,1,11.99097385978559,0.8042467831056979,0.0237954994549618,10.147030033333332
512,1536,12.954878037001022,7809,25,42233856,26781984,0.909901103406637,0.238210095918625,0.6716266641446196,512,0,1,1,15.108140541526206,0.5121988337755743,0.0706922257773333,10.147030033333332
512,2048,5.087676529000168,5492,29,42496000,26801520,1.0238725414721466,0.171846549243361,1.0,512,0,1,1,9.642472746105087,0.5175851055128387,0.061689773243956,10.147030033333332
512,256,7.146136672043848,9281,3563,28332032,23837296,0.9070761874183807,0.2762763919278004,0.7787202976938199,512,0,1,1,13.030391095986275,0.8734470356960223,0.0164236305976554,10.147030033333332
512,512,11.841223111632074,3560,3943,28069888,23846456,0.861236068459509,0.2698461081522771,0.5562687067112587,512,0,1,1,18.241238291695474,0.8836131118831801,0.0181810659345988,10.147030033333332
