cpu,memory,duration_std,userDiff,sysDiff,heapTotal,heapUsed,avg_cpu_util,cpu_util_std,slo_preservation,total_cpu_shares,cpu_shares_others,num_containers,arrival_rate,latency,memory_util,memory_util_std,slo_duration
1024,1024,355.2910955268799,48923,3387,31158272,24587216,0.8509077413686968,0.2929383047119469,0.35836836160014335,1024,0,1,1,174.27256011888323,0.6736827278059657,0.0659450719327586,62.45377184166667
1024,128,40.678167131790055,38266,16334,24989696,21592256,0.9455069695368601,0.1112106202520879,0.8812920544252353,1024,0,1,1,70.86614650395099,0.8535649375223411,0.029077183557565,62.45377184166667
1024,1536,33.58273332703941,105384,4740,39153664,24753872,0.9664908300746874,0.0558461578720071,0.8872402425382179,1024,0,1,1,70.39104951213535,0.5387041960066569,0.0516218652283607,62.45377184166667
1024,2048,22.88311745764192,81794,7491,39415808,24614120,1.0326287457007075,0.0959434682200814,1.0,1024,0,1,1,47.27280865040244,0.5489303620255016,0.0642665267977807,62.45377184166667
1024,256,38.50472511496472,42331,12243,19103744,15079928,0.9427311590883465,0.125343262559826,0.8065654565180373,1024,0,1,1,77.43174634738403,0.8209215624936217,0.0172331952592685,62.45377184166667
1024,512,22.950626595184644,46184,8389,18841600,15340656,0.9936148927286671,0.0446444149114621,0.9993914295269217,1024,0,1,1,62.49180250748216,0.826130750919323,0.0169062496911516,62.45377184166667
128,1024,51.68769678594135,48803,4348,30896128,24671104,0.7948506305731985,0.1542561601437862,0.5287284783190136,128,0,1,1,118.12068841123508,0.6580543892144451,0.0510514471027294,62.45377184166667
128,128,37.13602694083005,68266,11414,18841600,15308304,0.9146476653893413,0.0669782891644406,0.7210543586920594,128,0,1,1,86.61451260755612,0.8427341542994139,0.0216604524011645,62.45377184166667
128,1536,34.42192694996749,43821,23,39415808,24559080,0.9216687819199626,0.1007591944948714,0.9371272763521076,128,0,1,1,66.64385235352051,0.5360382433564755,0.0574946577502201,62.45377184166667
128,2048,20.774681438292596,43189,3218,39153664,24651040,1.0208577284282239,0.0248124746002931,1.0,128,0,1,1,44.78409734807788,0.5410819128907998,0.0584790766491022,62.45377184166667
128,256,40.18380901953548,36085,8027,19103744,15355304,0.9654693760715568,0.1115031135145557,0.9991684772388737,128,0,1,1,62.5057467928261,0.8228416262053271,0.0182659905139646,62.45377184166667
128,512,30.992657367866503,87524,4149,18841600,15338624,0.9810686516644165,0.0549301820442422,0.9890496331899888,128,0,1,1,63.14523533084389,0.8300206851695451,0.0139239659725742,62.45377184166667
1536,1024,27.34445028186522,109716,131,30896128,24597992,0.9486900964022242,0.0560164091713868,0.7796567981920144,1536,0,1,1,80.10418428530846,0.6611206342675672,0.058290822874683,62.45377184166667
1536,128,46.79334683411763,29791,4353,24727552,21651672,0.9393420984166051,0.1041827523842966,0.7513552794952546,1536,0,1,1,83.12149198395447,0.8547853999499821,0.0248451158925635,62.45377184166667
1536,1536,34.86224717177675,99280,5985,38891520,24984168,0.9628281567979127,0.0854286162073707,0.8255960890760744,1536,0,1,1,75.64688431549956,0.5502748781918018,0.0508497616132562,62.45377184166667
1536,2048,19.302948626567968,69605,19,39415808,24591384,1.0180914298600445,0.0328523408338982,1.0,1536,0,1,1,52.09547311959379,0.5440583423567602,0.0584060380822588,62.45377184166667
1536,256,31.21915372161958,90318,5054,19103744,15084248,0.9596726685579202,0.1028953976730725,0.911089994838123,1536,0,1,1,68.54841145825894,0.8190724169282821,0.0182319217456347,62.45377184166667
1536,512,31.28135274255341,132694,15584,24989696,21680088,0.9306499094214656,0.0823119131067691,0.7386120016337023,1536,0,1,1,84.55558764754433,0.8683865755447193,0.0119622247447309,62.45377184166667
2048,1024,43.3804131412042,95463,17223,25530368,14996112,0.8864076683593762,0.1754458891461092,0.7505535893565647,2048,0,1,1,83.21027669084509,0.6715193863390363,0.0505228488306795,62.45377184166667
2048,128,32.547149789924475,71242,4419,19365888,15075920,0.9509361024197898,0.0673845662958565,0.7151629810790578,2048,0,1,1,87.32802660931173,0.84811743741588,0.0310646706193888,62.45377184166667
2048,1536,22.07336677712497,99190,8833,38891520,24873888,0.9820958492674314,0.1267732419130433,0.8920867401591338,2048,0,1,1,70.00863148187354,0.5415695398123475,0.0518808303182959,62.45377184166667
2048,2048,19.22013136443232,88546,19,38105088,27498264,1.0219754206540508,0.046333177967965,1.0,2048,0,1,1,51.570616678981885,0.599861816125997,0.0990569403997426,62.45377184166667
2048,256,32.752164089711776,56762,13050,19103744,15063280,0.9645067997916376,0.0834184765895533,0.7915744655823287,2048,0,1,1,78.89816379526847,0.8202548364088479,0.0174027407138957,62.45377184166667
2048,512,35.73655581441209,53329,12795,18841600,15322672,0.9937466275666824,0.0424281489359895,0.836346008067551,2048,0,1,1,74.67456201049067,0.8316406416315394,0.0190947180049761,62.45377184166667
256,1024,37.37663497203789,81503,4876,30633984,24534664,0.8859775427340211,0.1449932740182321,0.7326960008450784,256,0,1,1,85.23831407518755,0.6626949136642867,0.0517087038107302,62.45377184166667
256,128,38.55179142808885,41859,11630,24989696,21648880,0.9419959930034556,0.0806307075245154,0.8474070232691723,256,0,1,1,73.69985157867723,0.8554501177424445,0.027959416346453,62.45377184166667
256,1536,31.4393363090014,38854,22,39153664,24822712,0.9268349915986464,0.0933488545323912,0.7537630506621973,256,0,1,1,82.85597415102752,0.5387254497547236,0.0593283683554748,62.45377184166667
256,2048,21.6209107482484,84832,8159,39415808,24609264,1.030183139044289,0.0655480958460391,1.0,256,0,1,1,46.84562115941414,0.5347403215883059,0.0580439244445504,62.45377184166667
256,256,50.54193439309731,64943,4003,25247744,21452208,0.8644445138852536,0.1048587743467966,0.6236683739432569,256,0,1,1,100.13939210479974,0.8528256577653364,0.02575491670217,62.45377184166667
256,512,36.55968605997385,110033,12814,19103744,15245352,0.9149522570643873,0.1055289799427524,0.7491531088813251,256,0,1,1,83.36583149861839,0.8456262151868182,0.0274316463083464,62.45377184166667
512,1024,50.84849514884155,42853,19770,30633984,24728872,0.8342682481730254,0.2102328641610228,0.6087932520997434,512,0,1,1,102.58617622035399,0.6763008822768978,0.06205590460321,62.45377184166667
512,128,26.22904899512271,82450,3982,18841600,15358952,0.9338070675626599,0.0513541061552085,0.7547379250391731,512,0,1,1,82.74895135079522,0.8423958000442434,0.0279988643107073,62.45377184166667
512,1536,29.46711727443835,37124,7317,39415808,24584088,0.9532464116893486,0.0678751767562235,0.8319759373191555,512,0,1,1,75.06680066121754,0.5344478821955817,0.055601984993985,62.45377184166667
512,2048,20.0537333310703,60835,4137,39415808,24528800,1.0364285864159273,0.0958274149414475,1.0,512,0,1,1,45.48697123246815,0.5491049546232929,0.0646837324454876,62.45377184166667
512,256,34.97363373709072,76053,7924,19103744,15030480,0.9272472099396072,0.1324909207710547,0.7982284844734838,512,0,1,1,78.24047006147813,0.843309395623384,0.0269980142808867,62.45377184166667
512,512,34.867671305615254,26339,12502,24985600,21679432,0.9385987530675883,0.068802894489788,0.8090926674356977,512,0,1,1,77.189887333431,0.8688581012204712,0.0121983293685698,62.45377184166667
