cpu,memory,duration_std,userDiff,sysDiff,heapTotal,heapUsed,avg_cpu_util,cpu_util_std,slo_preservation,total_cpu_shares,cpu_shares_others,num_containers,arrival_rate,latency,memory_util,memory_util_std,slo_duration
1024,1024,380.3016265092676,1909616,142258,59437056,47457880,1.291538458157117,0.12627050553246083,1,1024,0,1,1,272.14743919999995,0.8413560990370079,0.07276435886450622,273.97920544166664
1024,128,462.1993530511715,2046398,161629,51699712,47028032,1.338510126653494,0.23127847331204787,0.7762573320354469,1024,0,1,1,352.9489437777777,0.9073646511726879,0.08639251940969328,273.97920544166664
1024,1536,373.189020733301,1653154,153762,68481024,50809768,1.1082172989888026,0.20942581524790221,0.9622267781171142,1024,0,1,1,284.73454664999997,0.8034359234843066,0.08585367654040449,273.97920544166664
1024,2048,220.66361274334614,1649630,118048,67956736,47652560,1.5157419626999409,0.2494428948334292,1,1024,0,1,1,148.85731829999997,0.7534495297473678,0.10788426572858123,273.97920544166664
1024,256,359.09203611337773,1812841,166702,51437568,46941352,1.2016522011884556,0.2154645851853451,0.8062690840815092,1024,0,1,1,339.81112614999995,0.928558992860981,0.06292898936282336,273.97920544166664
1024,512,414.14715010307646,2013254,194381,51961856,47208360,1.2375030507567233,0.24705430262095587,0.8481976422544693,1024,0,1,1,323.01340135000004,0.9425394751299965,0.02962925001425359,273.97920544166664
128,1024,361.987067251971,1711119,128145,56815616,48639704,1.3592128007974673,0.24181464371752726,1,128,0,1,1,263.21010634999993,0.8453038492696578,0.08031188503160666,273.97920544166664
128,128,390.87071923594567,1706955,193639,51175424,46936320,1.1501090828833773,0.16950076589933877,0.8511578425905673,128,0,1,1,321.8900087999999,0.9492985724157915,0.017937625290232694,273.97920544166664
128,1536,356.4258664439844,1798689,141850,74772480,49989144,1.1139120484182143,0.2568238566299623,0.8671519869583008,128,0,1,1,315.95292355000004,0.7818121874420368,0.07766929492250889,273.97920544166664
128,2048,199.46581561136094,1521620,135139,76345344,48308176,1.455148825378271,0.21631870005304868,1,128,0,1,1,153.67863195000004,0.7384959787801444,0.13537280446314953,273.97920544166664
128,256,401.09417505700617,1982956,128318,51961856,46973632,1.1531767030868485,0.21978139184849085,0.8221411060733395,128,0,1,1,333.25082934999995,0.9361085496691711,0.038332292409758224,273.97920544166664
128,512,358.1628459438963,1907661,144142,51437568,47003648,1.1292547841973732,0.17884047233183015,0.8673400564962146,128,0,1,1,315.88441395,0.9277417643118395,0.05497504815167867,273.97920544166664
1536,1024,376.8399540916514,1855844,196176,59174912,47503864,1.317350123466732,0.19114300621591274,0.9733691234988363,1536,0,1,1,281.475135,0.8378983255334574,0.08695516946269169,273.97920544166664
1536,128,362.7096504688192,2062259,173571,51175424,46931720,1.2795687379905873,0.23130487437502648,0.9436633192961511,1536,0,1,1,290.3357583571428,0.9488745446689567,0.01481837949816649,273.97920544166664
1536,1536,335.3572549277332,1673982,184765,60878848,48203152,1.2642610134099503,0.12939579569430787,0.9873337690228602,1536,0,1,1,277.49400864999996,0.8037599978524179,0.0673746743409714,273.97920544166664
1536,2048,208.1855456722442,1468683,129472,62976000,50748136,1.4871236697756134,0.2031091948688363,1,1536,0,1,1,140.22734655,0.7480971382943282,0.11940835893456499,273.97920544166664
1536,256,398.0261406773052,1889731,148860,51175424,46990800,1.2250625065873353,0.20895239975343166,0.9330834181507247,1536,0,1,1,293.62777229999995,0.9429067061046522,0.0323625610743168,273.97920544166664
1536,512,368.41345172678047,1815644,158478,51699712,46928824,1.2586453997883722,0.20714486691188838,0.8761123417039323,1536,0,1,1,312.7215454000001,0.9406490592986619,0.03416055544586697,273.97920544166664
2048,1024,376.0670629371137,1810643,186306,57602048,49511864,1.2732056258486562,0.18704180684412952,1,2048,0,1,1,271.56986115,0.8747520691482318,0.053606907635972235,273.97920544166664
2048,128,437.7200737323774,2112093,193282,51699712,47128696,1.3165665021090913,0.2851888723168652,0.84511612128344,2048,0,1,1,324.19119520000004,0.9248240325563005,0.05572882339268002,273.97920544166664
2048,1536,375.6899838160905,1828753,158283,59822080,32993632,1.3472725033748374,0.247004207183514,1,2048,0,1,1,259.56512115,0.7924494934577536,0.08587754855247028,273.97920544166664
2048,2048,217.83176136527723,1573632,129741,61403136,50506544,1.5069535578088433,0.2820206895183577,1,2048,0,1,1,156.76266604999995,0.7211973373149468,0.13111740618281423,273.97920544166664
2048,256,371.6669870471737,1721024,145756,50913280,46921560,1.2328214904379466,0.1871730244837467,0.8487292368649446,2048,0,1,1,322.81108455000003,0.9448279823905533,0.023674138135403117,273.97920544166664
2048,512,372.94748140910536,1914824,162215,51437568,47475872,1.243326971130987,0.13821965810948517,0.8867349636266155,2048,0,1,1,308.9753045499999,0.9307654768934549,0.057813977415861424,273.97920544166664
256,1024,372.37888267567627,1862220,158618,57339904,49570016,1.2706485039956714,0.2589913906268945,0.9836110372220946,256,0,1,1,278.54425690000005,0.87436810483798,0.05311129202989262,273.97920544166664
256,128,400.68268550297825,1812118,131627,51175424,47382456,1.2438426144918062,0.21992197897102056,0.8414862752874639,256,0,1,1,325.5896305,0.9357256411705253,0.03213174406644529,273.97920544166664
256,1536,364.5189695280548,1865960,125915,67956736,47356056,1.1552102208112562,0.1892086410718098,1,256,0,1,1,270.38585015,0.8115236791079212,0.07480717074657549,273.97920544166664
256,2048,224.51421069223125,1785508,109791,67956736,47482624,1.4801270238110646,0.22680478322923575,1,256,0,1,1,145.926211,0.7571430522568168,0.1176267837721343,273.97920544166664
256,256,401.33171432080303,1980180,148247,51699712,47121176,1.3346095379020486,0.1914813577381506,0.9046082888042696,256,0,1,1,302.8705450000001,0.9287360721206781,0.04452298748243969,273.97920544166664
256,512,397.8870260182792,1922406,196032,50651136,47033784,1.2350754481302464,0.2727235457754301,0.8554420352561286,256,0,1,1,320.27793135,0.8989509774557021,0.09388511982206875,273.97920544166664
512,1024,383.5242782682606,1881507,68055,57602048,48463880,1.3482081680735964,0.29193291090303497,0.9519985391441944,512,0,1,1,287.7937246500001,0.8539504545778988,0.08174791353243055,273.97920544166664
512,128,431.3848792357648,1891994,183313,51175424,47059160,1.2391777931935477,0.18425042922303367,0.8357986185461544,512,0,1,1,327.8052863,0.9458123690138006,0.02605399007558853,273.97920544166664
512,1536,405.53344847555087,2002606,161381,60092416,49045296,1.292548893676116,0.15753439739341313,1,512,0,1,1,253.87500780000005,0.8062763497693799,0.04727236973009484,273.97920544166664
512,2048,205.3123484594338,1568328,95827,67170304,50194280,1.5459905619735899,0.31106429076229525,1,512,0,1,1,147.95811280000004,0.716727924120272,0.1260791672735229,273.97920544166664
512,256,382.005353265352,1875087,147785,51437568,46988488,1.1767672828652769,0.1677912346026082,0.8308741212392862,512,0,1,1,329.74815129999996,0.9399671250732219,0.03370284095997451,273.97920544166664
512,512,399.11794708709937,1887783,157887,51175424,46923176,1.2689184825229627,0.24648380674734666,0.838360245918415,512,0,1,1,326.80367035,0.9342426353884777,0.04015213804745851,273.97920544166664
