cpu,memory,duration_std,userDiff,sysDiff,heapTotal,heapUsed,avg_cpu_util,cpu_util_std,slo_preservation,total_cpu_shares,cpu_shares_others,num_containers,arrival_rate,latency,memory_util,memory_util_std,slo_duration
1024,1024,380.3016265092676,1909616,142258,59437056,47457880,1.1771441906957667,0.1262705055324608,0.6117083540402465,1024,0,1,1,447.89188120788776,0.8413560990370079,0.0727643588645062,273.97920544166664
1024,128,462.1993530511715,2046398,161629,51699712,47028032,1.2027911336562667,0.2312784733120478,0.46503218656614553,1024,0,1,1,589.1618114968827,0.907364651172688,0.0863925194096932,273.97920544166664
1024,1536,373.189020733301,1653154,153762,68481024,50809768,1.0696330330726935,0.2094258152479022,0.6191502623900559,1024,0,1,1,442.50842175863215,0.8034359234843066,0.0858536765404044,273.97920544166664
1024,2048,220.6636127433461,1649630,118048,67956736,47652560,1.2933901112036523,0.2494428948334292,1.0,1024,0,1,1,261.6719602011458,0.7534495297473678,0.1078842657285812,273.97920544166664
1024,256,359.09203611337773,1812841,166702,51437568,46941352,1.1259675870562094,0.2154645851853451,0.5036581323744169,1024,0,1,1,543.9785200132376,0.928558992860981,0.0629289893628233,273.97920544166664
1024,512,414.14715010307646,2013254,194381,51961856,47208360,1.1467198930986089,0.2470543026209558,0.5239826057036236,1024,0,1,1,522.8784361529654,0.9425394751299964,0.0296292500142535,273.97920544166664
128,1024,361.987067251971,1711119,128145,56815616,48639704,1.213867249322336,0.2418146437175272,0.6197371352619226,128,0,1,1,442.08937927509123,0.8453038492696578,0.0803118850316066,273.97920544166664
128,128,390.87071923594567,1706955,193639,51175424,46936320,1.0953040538811933,0.1695007658993387,0.5403989640964942,128,0,1,1,506.99432020514496,0.9492985724157916,0.0179376252902326,273.97920544166664
128,1536,356.4258664439844,1798689,141850,74772480,49989144,1.0731633049662264,0.2568238566299623,0.5569534228809008,128,0,1,1,491.924807687652,0.7818121874420368,0.0776692949225088,273.97920544166664
128,2048,199.4658156113609,1521620,135139,76345344,48308176,1.2634611985655588,0.2163187000530486,1.0,128,0,1,1,265.4912723338911,0.7384959787801444,0.1353728044631495,273.97920544166664
128,256,401.09417505700617,1982956,128318,51961856,46973632,1.097157068893027,0.2197813918484908,0.5214684640213739,128,0,1,1,525.3993756953954,0.9361085496691712,0.0383322924097582,273.97920544166664
128,512,358.1628459438963,1907661,144142,51437568,47003648,1.0826105850185836,0.1788404723318301,0.5543428811717418,128,0,1,1,494.2414068032105,0.9277417643118396,0.0549750481516786,273.97920544166664
1536,1024,376.8399540916514,1855844,196176,59174912,47503864,1.1913274822707538,0.1911430062159127,0.5868353277595166,1536,0,1,1,466.87578692253254,0.8378983255334574,0.0869551694626916,273.97920544166664
1536,128,362.7096504688192,2062259,173571,51175424,46931720,1.1704911592503353,0.2313048743750264,0.5754801284478273,1536,0,1,1,476.08803831443754,0.9488745446689568,0.0148183794981664,273.97920544166664
1536,1536,335.3572549277332,1673982,184765,60878848,48203152,1.16191169292182,0.1293957956943078,0.6049355520081159,1536,0,1,1,452.9064369455193,0.8037599978524179,0.0673746743409714,273.97920544166664
1536,2048,208.1855456722442,1468683,129472,62976000,50748136,1.2793842237358666,0.2031091948688363,1.0,1536,0,1,1,244.49504965216636,0.7480971382943282,0.1194083589345649,273.97920544166664
1536,256,398.0261406773052,1889731,148860,51175424,46990800,1.1395709423477127,0.2089523997534316,0.5786451681137094,1536,0,1,1,473.4839596687466,0.9429067061046522,0.0323625610743168,273.97920544166664
1536,512,368.41345172678047,1815644,158478,51699712,46928824,1.158744120980558,0.2071448669118883,0.5377156666146186,1536,0,1,1,509.5243126662104,0.940649059298662,0.0341605554458669,273.97920544166664
2048,1024,376.0670629371137,1810643,186306,57602048,49511864,1.166934593837392,0.1870418068441295,0.6164427345709005,2048,0,1,1,444.4519986635592,0.8747520691482318,0.0536069076359722,273.97920544166664
2048,128,437.7200737323774,2112093,193282,51699712,47128696,1.190900138385754,0.2851888723168652,0.5096331526872798,2048,0,1,1,537.6008291395149,0.9248240325563004,0.05572882339268,273.97920544166664
2048,1536,375.6899838160905,1828753,158283,59822080,32993632,1.2074958062271328,0.247004207183514,0.6306816475507108,2048,0,1,1,434.41759643027666,0.7924494934577536,0.0858775485524702,273.97920544166664
2048,2048,217.83176136527723,1573632,129741,61403136,50506544,1.2891133569077484,0.2820206895183577,0.9967240604036571,2048,0,1,1,274.8796947178234,0.7211973373149468,0.1311174061828142,273.97920544166664
2048,256,371.6669870471737,1721024,145756,50913280,46921560,1.1440360942455914,0.1871730244837467,0.5250702764599404,2048,0,1,1,521.7953057424105,0.9448279823905532,0.0236741381354031,273.97920544166664
2048,512,372.94748140910536,1914824,162215,51437568,47475872,1.1500477585496944,0.1382196581094851,0.5468057778444709,2048,0,1,1,501.0539693302127,0.9307654768934548,0.0578139774158614,273.97920544166664
256,1024,372.37888267567627,1862220,158618,57339904,49570016,1.1655014310862366,0.2589913906268945,0.6014776800505716,256,0,1,1,455.5101785632856,0.87436810483798,0.0531112920298926,273.97920544166664
256,128,400.6826855029783,1812118,131627,51175424,47382456,1.1503418281777567,0.2199219789710205,0.5188206551872397,256,0,1,1,528.0807591262706,0.9357256411705251,0.0321317440664452,273.97920544166664
256,1536,364.5189695280548,1865960,125915,67956736,47356056,1.0983834419573788,0.1892086410718098,0.6422961770351531,256,0,1,1,426.5620989780104,0.8115236791079212,0.0748071707465754,273.97920544166664
256,2048,224.51421069223125,1785508,109791,67956736,47482624,1.2759249995911246,0.2268047832292357,1.0,256,0,1,1,253.9208751917277,0.7571430522568168,0.1176267837721343,273.97920544166664
256,256,401.33171432080303,1980180,148247,51699712,47121176,1.2006888867189929,0.1914813577381506,0.5425572490705457,256,0,1,1,504.977504053296,0.928736072120678,0.0445229874824396,273.97920544166664
256,512,397.8870260182792,1922406,196032,50651136,47033784,1.145329190554805,0.2727235457754301,0.5288544573206428,256,0,1,1,518.0616361441648,0.8989509774557021,0.0938851198220687,273.97920544166664
512,1024,383.5242782682606,1881507,68055,57602048,48463880,1.2079967257674658,0.2919329109030349,0.5686614997369952,512,0,1,1,481.79664979672697,0.8539504545778988,0.0817479135324305,273.97920544166664
512,128,431.3848792357648,1891994,183313,51175424,47059160,1.1476780889867357,0.1842504292230336,0.516056031442553,512,0,1,1,530.9098019372066,0.9458123690138006,0.0260539900755885,273.97920544166664
512,1536,405.53344847555087,2002606,161381,60092416,49045296,1.1777035987152715,0.1575343973934131,0.655534291500011,512,0,1,1,417.94793803195273,0.8062763497693799,0.0472723697300948,273.97920544166664
512,2048,205.3123484594338,1568328,95827,67170304,50194280,1.3079481191115794,0.3110642907622952,1.0,512,0,1,1,262.32903577811203,0.716727924120272,0.1260791672735229,273.97920544166664
512,256,382.005353265352,1875087,147785,51437568,46988488,1.1112875241562183,0.1677912346026082,0.5230941062134594,512,0,1,1,523.7665693175746,0.939967125073222,0.0337028409599745,273.97920544166664
512,512,399.11794708709937,1887783,157887,51175424,46923176,1.1645305528178302,0.2464838067473466,0.5129282057051271,512,0,1,1,534.1472790817282,0.9342426353884776,0.0401521380474585,273.97920544166664
