cpu,memory,duration_std,userDiff,sysDiff,heapTotal,heapUsed,avg_cpu_util,cpu_util_std,slo_preservation,total_cpu_shares,cpu_shares_others,num_containers,arrival_rate,latency,memory_util,memory_util_std,slo_duration
1024,1024,359.83849534219075,1922113,185609,97030144,86042576,1.3608463221137024,0.2620427010652124,1.0,1024,0,1,1,501.04709242119014,0.8508394652984572,0.0608101104934562,1124.396658721153
1024,128,2976.9970753223283,2454213,271537,51429376,46128272,0.6534831562224751,0.4176733105814509,0.20561908752142252,1024,0,1,1,5468.347672751963,0.9341488081339228,0.020108618664129,1124.396658721153
1024,1536,232.7384937141161,1844366,152953,71614464,57106720,1.54177986215712,0.3365272052561673,1.0,1024,0,1,1,266.8061716386066,0.7962381995848717,0.0793014178876457,1124.396658721153
1024,2048,225.07944967777735,1758499,183352,91459584,71124120,1.4636895135448063,0.2528148219588426,1.0,1024,0,1,1,278.63505359125173,0.7859251823895635,0.0649935758838778,1124.396658721153
1024,256,2240.913541354602,2295165,181687,67788800,64487312,0.5039105395806848,0.0407340745000863,0.32975638933792295,1024,0,1,1,3409.779749768276,0.9194031637284256,0.0260622984357117,1124.396658721153
1024,512,848.4245983169651,2180502,146557,57561088,54557512,0.8956507065578809,0.1059815552775768,0.9700163398192089,1024,0,1,1,1159.1522869921114,0.9262806846037384,0.0363267658352267,1124.396658721153
128,1024,390.7239393090818,2139174,127384,82669568,74317648,1.2062526252976722,0.3644869550607169,1.0,128,0,1,1,566.0366356432152,0.8585938649583058,0.0676627219028998,1124.396658721153
128,128,2742.8984348899817,2000763,212233,77135872,73196824,0.8181495740894625,0.4788461607958165,0.2148468719834873,128,0,1,1,5233.479307101907,0.926042358802338,0.0204146983038793,1124.396658721153
128,1536,220.7597158583892,1800236,134754,77160448,59761864,1.5453941802044706,0.2969681985628881,1.0,128,0,1,1,301.41717719069266,0.7968465191225858,0.0438788902326339,1124.396658721153
128,2048,210.11956297089452,1575003,134762,101044224,58290752,1.4974563728942658,0.3376886248339079,1.0,128,0,1,1,264.7007764955548,0.7554813811286387,0.0725100088060864,1124.396658721153
128,256,2132.3511202709783,2153345,236741,62865408,57899704,0.5154055692318505,0.0857817330319388,0.3047221995966891,128,0,1,1,3689.907267043008,0.918468326013814,0.0305447151781431,1124.396658721153
128,512,846.7476011083721,2128407,166381,67731456,64122832,0.8523891304539433,0.0864121439245938,0.9032637654214855,128,0,1,1,1244.8154146828656,0.9269203130446122,0.0324878237245437,1124.396658721153
1536,1024,357.9636795348961,1825099,155956,61571072,49361024,1.259516902340792,0.1590697727354125,1.0,1536,0,1,1,509.76428484541,0.8432672761689133,0.0594972450501553,1124.396658721153
1536,128,883.5850334737105,2432243,250542,63651840,58850800,0.7801993890123872,0.1727128116386801,0.2638969352550734,1536,0,1,1,4260.741632464777,0.9257776863076485,0.0160356292427744,1124.396658721153
1536,1536,370.14956396234953,1978935,179817,86888448,61062608,1.1885092107853232,0.2389851789184657,1.0,1536,0,1,1,460.2768514831693,0.7641726807348489,0.0884168750892407,1124.396658721153
1536,2048,251.13009792068596,1858576,202901,90763264,72058696,1.5021879622701741,0.3815987290849872,1.0,1536,0,1,1,266.95019234419215,0.7934781594908349,0.0919468885622223,1124.396658721153
1536,256,2186.871045554813,2352575,195043,67342336,64217160,0.5220028415821866,0.0624833731257695,0.3409239324151471,1536,0,1,1,3298.086616436073,0.925495187681469,0.0354210980156115,1124.396658721153
1536,512,856.221441144124,2277634,170806,67788800,65241856,0.8911587815328723,0.1864828727607573,0.9630631295745405,1536,0,1,1,1167.5212394621378,0.9190510122066168,0.0309351685395244,1124.396658721153
2048,1024,379.848524739719,1971595,196289,82472960,72582520,1.335077855298508,0.1816862746953756,1.0,2048,0,1,1,472.111129914887,0.8404493961966152,0.0492183341631149,1124.396658721153
2048,128,2607.2152689048758,2287597,259429,58474496,54378312,0.624794258810873,0.4696126730876613,0.1492414951713856,2048,0,1,1,7534.075274640749,0.92055601777011,0.0240061728598713,1124.396658721153
2048,1536,227.74350741112505,1766226,184298,78761984,58223848,1.5196379859922478,0.230042957533546,1.0,2048,0,1,1,275.77901650289766,0.7680858556157193,0.0531957274764578,1124.396658721153
2048,2048,209.9275833555231,1563540,201134,78237696,60518000,1.5440882104738805,0.3607696529345804,1.0,2048,0,1,1,299.71046158030583,0.7652061570650568,0.0846229835725802,1124.396658721153
2048,256,2223.695233236356,2464078,223735,51691520,46273904,0.5231968870929599,0.0763533656891005,0.3512192805183748,2048,0,1,1,3201.409265065469,0.9180312646318592,0.0300293444251857,1124.396658721153
2048,512,790.3816944721839,1978481,134676,57745408,54717256,0.8792970724082457,0.112434916604337,0.9662629565869989,2048,0,1,1,1163.6549358082696,0.9234166114092328,0.0286738331111121,1124.396658721153
256,1024,374.79796878396303,1927024,169640,81096704,71408568,1.3126669697550915,0.283723861404632,1.0,256,0,1,1,482.24947062954755,0.8518310016350418,0.0582109417530153,1124.396658721153
256,128,2139.023642931246,2214412,234178,58474496,54484728,0.5866255844578736,0.15130357172177,0.22880680123897623,256,0,1,1,4914.174983578316,0.9203291915360684,0.022447769018053,1124.396658721153
256,1536,361.1976826316727,1731086,177537,86687744,58149112,1.2391554749734306,0.1973892768789726,1.0,256,0,1,1,453.8282723038392,0.7601725692711454,0.0796799921268075,1124.396658721153
256,2048,227.96368520545016,1705348,200782,80969728,63198152,1.466704345212174,0.2811780181150766,1.0,256,0,1,1,250.58875484995662,0.7828937537067904,0.0549093946049041,1124.396658721153
256,256,2111.4782005845564,2104427,192835,67604480,64241624,0.5254368198659095,0.104747319786716,0.3504664502779135,256,0,1,1,3208.286150727201,0.9359627678530288,0.0223727066211984,1124.396658721153
256,512,833.2269992018082,2157052,179544,77660160,73832288,0.8983346704915028,0.1334029642675336,0.9270362715054631,256,0,1,1,1212.8939215023227,0.9314640122421942,0.0226602644106678,1124.396658721153
512,1024,355.01890207125547,1998856,145859,72876032,64353456,1.2447683098453612,0.1475267436277334,1.0,512,0,1,1,482.2635193460832,0.846963658705676,0.0677649066114643,1124.396658721153
512,128,2318.461827446333,2943328,241224,64962560,58038656,0.8396237482923049,0.3752275181057787,0.31714112951822176,512,0,1,1,3545.4141833613835,0.9273398022881968,0.0262906404218147,1124.396658721153
512,1536,344.1456133880008,1858357,86051,72966144,60959528,1.300216729062269,0.2983816961429505,1.0,512,0,1,1,445.3539060073248,0.7710606599515114,0.0836454510469898,1124.396658721153
512,2048,196.6078336358429,1597816,154292,77713408,58077824,1.4850724897836418,0.2087203351412339,1.0,512,0,1,1,299.55100673038044,0.7884665451601883,0.0682545080967192,1124.396658721153
512,256,2064.5445298442537,2213677,220790,76795904,73355280,0.5180634168236502,0.0638924533685565,0.35926816212211826,512,0,1,1,3129.6863381369185,0.928327380645481,0.0248391798011288,1124.396658721153
512,512,852.5382689395321,2190119,195958,63913984,58802248,0.8724412770643583,0.1854153015648298,0.9031216081788683,512,0,1,1,1245.0113567634403,0.9316524276785816,0.0261601274472474,1124.396658721153
