cpu,memory,duration_std,userDiff,sysDiff,heapTotal,heapUsed,avg_cpu_util,cpu_util_std,slo_preservation,total_cpu_shares,cpu_shares_others,num_containers,arrival_rate,latency,memory_util,memory_util_std,slo_duration
1024,1024,70.28778273520665,387285,30322,39956480,32076288,1.0107848365662717,0.1612795453835964,0.42679263005313034,1024,0,1,1,501.84417359394644,0.7509443974731036,0.1120433134893231,214.1833947250001
1024,128,81.96981658548876,279406,47258,33267712,30290784,0.9898929195113778,0.1970205356503127,0.38738196008638626,1024,0,1,1,552.8997650722744,0.8845683628329652,0.056263742441195,214.1833947250001
1024,1536,49.87959244726382,312899,45480,68669440,52524184,1.208776066136366,0.238113271575445,0.6378893723821712,1024,0,1,1,335.7688715288376,0.6954320398398529,0.1385664844268089,214.1833947250001
1024,2048,33.968998285022785,227091,33402,68669440,51736816,1.2493481181749138,0.2888140297231841,0.7294902060966574,1024,0,1,1,293.6069503537938,0.7650954372088311,0.0937618275662863,214.1833947250001
1024,256,75.22046024391415,322674,16518,32743424,29909152,0.9888668678024638,0.1937394121231704,0.39024801841448586,1024,0,1,1,548.8391602734906,0.8711264265806016,0.0637851879716125,214.1833947250001
1024,512,50.57973475912887,316005,51401,33005568,29771776,1.065418733874703,0.1905476491231149,0.42451157940805095,1024,0,1,1,504.5407595798978,0.8611226943532728,0.0652767315904064,214.1833947250001
128,1024,96.459520231081,294156,31513,39956480,31089136,1.0256139863055778,0.2253084010798345,0.42159752284574126,128,0,1,1,508.02811477468737,0.7935473017069843,0.0999076537572967,214.1833947250001
128,128,163.59824384252124,417562,31354,32743424,30198256,0.9241242941315087,0.1433179674246984,0.32716471006115866,128,0,1,1,654.6653356499289,0.8924896570183757,0.0423596959376938,214.1833947250001
128,1536,66.36522473610516,340931,54578,50835456,30418992,1.1067013066725093,0.2838123009661484,0.5618029641274225,128,0,1,1,381.24290614533174,0.7876800186223989,0.1018380297602864,214.1833947250001
128,2048,31.816340898789228,306384,36217,68407296,51900440,1.2578267478980791,0.4074603462698642,0.761271434207587,128,0,1,1,281.3495753297839,0.7519551702207897,0.0933415949135687,214.1833947250001
128,256,47.8928216787341,295089,44914,33267712,29872416,1.1449221885790788,0.2821067065232678,0.4957063756365404,128,0,1,1,432.07714334915613,0.8899892048440134,0.0766349768919008,214.1833947250001
128,512,40.35731100564853,291981,32806,33005568,30288776,1.201608268844076,0.1768036433341247,0.5293420557887479,128,0,1,1,404.621912018412,0.8647405534370266,0.0584742416525494,214.1833947250001
1536,1024,74.36960887660405,285735,40577,38907904,31466584,1.016148834265559,0.2055098402460039,0.43005963282897147,1536,0,1,1,498.0318504112609,0.754118281478795,0.1122842427498928,214.1833947250001
1536,128,94.94987458107974,331036,54438,33005568,30324232,1.0760008611370802,0.2090666912159725,0.3903834509331958,1536,0,1,1,548.6487560192508,0.8712908456763927,0.0669486006140663,214.1833947250001
1536,1536,49.1389801087136,301905,36886,51097600,30591568,1.1173719678346017,0.2477490135514595,0.5549395633826394,1536,0,1,1,385.9580553591155,0.7259556870044803,0.101615201310875,214.1833947250001
1536,2048,33.09420591876069,259120,31659,36147200,16073360,1.273749229345312,0.5035112930566739,0.776312677956693,1536,0,1,1,275.89836003805215,0.7152688642982802,0.1452224071282407,214.1833947250001
1536,256,70.26792436976169,303328,44915,33267712,29927296,0.9613919377198276,0.1044456573929585,0.3552202392047541,1536,0,1,1,602.9594349818049,0.8747047047821722,0.0458637654031443,214.1833947250001
1536,512,75.25541026992957,281360,33640,33005568,29988056,1.0814723848299332,0.1464231524874839,0.4225654275228831,1536,0,1,1,506.86445405759434,0.8841619885925214,0.058541643180783,214.1833947250001
2048,1024,92.63559783112902,396414,29506,39170048,30644832,0.9949776101637997,0.15971038456981,0.4321009450852663,2048,0,1,1,495.67907027543157,0.7973541852675854,0.0967581271956644,214.1833947250001
2048,128,79.52971467086014,319184,52488,33005568,30404856,0.9532562102288032,0.1514771963496942,0.3428907134082308,2048,0,1,1,624.6404068400728,0.8840801801382471,0.0558039079686853,214.1833947250001
2048,1536,76.09285052689967,367231,52929,50573312,30486400,1.0907177964595325,0.1889957459185149,0.5656707620831712,2048,0,1,1,378.63614151849777,0.7055800854662742,0.1170964961532173,214.1833947250001
2048,2048,32.572402352948416,304079,40087,50573312,31466728,1.3083078004767013,0.3927230613239525,0.7599559907758626,2048,0,1,1,281.8365764921909,0.7289271762010443,0.1148639492572716,214.1833947250001
2048,256,44.12158422859297,298566,18218,33005568,30262736,1.0923161841105151,0.1614909770225932,0.48695240484099184,2048,0,1,1,439.84461847958016,0.8915790940717192,0.0498364869886035,214.1833947250001
2048,512,85.83464690767657,341987,41804,32743424,30481904,1.0888069795577953,0.2611043817306446,0.3946497901826604,2048,0,1,1,542.7176196542943,0.855349687942631,0.0875486955950216,214.1833947250001
256,1024,80.7812043575411,262835,35155,39956480,31277048,1.039929886943354,0.2611374499731295,0.44195622139357166,256,0,1,1,484.6258166694414,0.8038605238547077,0.0957258247753727,214.1833947250001
256,128,108.63433081266724,316899,39724,33267712,29879992,1.0200479784245053,0.2593501039053056,0.3856898355457826,256,0,1,1,555.3254843283934,0.8767525607940403,0.0795229801189431,214.1833947250001
256,1536,57.41042348661665,305511,33965,68669440,52490872,1.1949364168420205,0.3763766892994887,0.6203762879020135,256,0,1,1,345.2475520128676,0.7179223659458984,0.1122874236293043,214.1833947250001
256,2048,37.23674644906938,333703,44223,50573312,30763152,1.2759925771715968,0.4127106162636534,0.7465951775553786,256,0,1,1,286.88022795206587,0.7611032166256141,0.1018118739673259,214.1833947250001
256,256,82.06302762133859,281915,60304,33005568,30205104,0.9902769703436882,0.1485289894378584,0.3739956778662838,256,0,1,1,572.6894918865291,0.8554949808915839,0.0736904802365121,214.1833947250001
256,512,71.22965724402893,306969,38040,33005568,29925576,1.0649147347143912,0.1221023332527795,0.40311828359158147,256,0,1,1,531.3164980182333,0.8880874948612771,0.0639749472020569,214.1833947250001
512,1024,75.57896889198608,274257,34358,39694336,30563008,1.0113286276765923,0.1713117220749091,0.4302565417448886,512,0,1,1,497.80392380877635,0.7950751416876709,0.1019666674242881,214.1833947250001
512,128,407.49255000080296,331561,72253,33005568,29961560,0.8817177224302567,0.3085413650359093,0.2379211484875674,512,0,1,1,900.2284836238183,0.8678787629014101,0.0707223888844666,214.1833947250001
512,1536,75.39534587275162,272510,39852,67883008,52578360,1.150601561466622,0.2485877480320568,0.6279210299793755,512,0,1,1,341.09925372627686,0.7253206977235387,0.1347374525871147,214.1833947250001
512,2048,41.421261970217806,343367,37678,50311168,30712064,1.315877354730609,0.3056074936359706,0.8132406229794302,512,0,1,1,263.3702605021215,0.7249459408494763,0.0909717123908103,214.1833947250001
512,256,43.55621683947126,344067,43498,33267712,30574264,1.0996774515166272,0.1894554719213945,0.4883182798697316,512,0,1,1,438.6143291259498,0.8758640432783189,0.0629570833615109,214.1833947250001
512,512,91.55309329127984,249055,34899,32743424,30186296,1.1063467112925787,0.3168793773805562,0.4341849626121718,512,0,1,1,493.2998909875092,0.8683578529757139,0.0710185349177434,214.1833947250001
