cpu,memory,duration_std,userDiff,sysDiff,heapTotal,heapUsed,avg_cpu_util,cpu_util_std,slo_preservation,total_cpu_shares,cpu_shares_others,num_containers,arrival_rate,latency,memory_util,memory_util_std,slo_duration
1024,1024,98.14262799047503,284797,41554,38645760,30969120,0.8703027130319645,0.1585775907513028,1.0,1024,0,1,1,350.006179005471,0.7773757825180978,0.1033243261964831,433.7447709439251
1024,128,628.7665377097948,356246,101967,32743424,29749864,0.48679338782012366,0.3486438618655311,0.2624825900025191,1024,0,1,1,1652.4706302988031,0.9150164912548744,0.0094773157340889,433.7447709439251
1024,1536,86.60523458834346,229600,21175,72359936,55228736,0.9912586819954322,0.1660512383820424,1.0,1024,0,1,1,258.76591843411177,0.7506530046599305,0.1103695207196685,433.7447709439251
1024,2048,43.05702142563495,262109,64625,50573312,30381960,1.1934930018921799,0.2379100294706527,1.0,1024,0,1,1,164.3896744164594,0.7356402474775748,0.0911469286189947,433.7447709439251
1024,256,282.7166489266136,249220,40967,32743424,29625232,0.5180864556932717,0.1580967371922449,0.4615663566319397,1024,0,1,1,939.7235407471435,0.9058810282649992,0.0128987213407102,433.7447709439251
1024,512,147.76547161442866,260694,21506,32481280,29666496,0.6427211716355415,0.1995385909349875,0.6715495660596754,1024,0,1,1,645.8864585214869,0.8921983926455782,0.0524147104700171,433.7447709439251
128,1024,87.41879657181133,228417,43400,38645760,30103104,0.8742234917907629,0.1305265295642645,1.0,128,0,1,1,320.6420975430733,0.805919185297868,0.0934155977040692,433.7447709439251
128,128,1796.4810117619309,292664,53900,32743424,29758264,0.21347946016662686,0.1352814906741392,0.12665982233877582,128,0,1,1,3424.485862484412,0.9090178324817618,0.0110033027371753,433.7447709439251
128,1536,54.42587838902867,273793,40163,48214016,29832216,1.1933236327028023,0.3061361670036261,1.0,128,0,1,1,199.59196427053374,0.7186637047608226,0.1290687428752089,433.7447709439251
128,2048,24.15355293885022,217203,42925,50049024,29984736,1.2878865368340846,0.2080297108404106,1.0,128,0,1,1,122.72453179677971,0.7332467387133115,0.0949255788530549,433.7447709439251
128,256,820.2653057288962,263132,23968,32481280,29676328,0.5199477676022396,0.3081734393377281,0.355057674149823,128,0,1,1,1221.6177892296414,0.9131143274655243,0.0123579656268297,433.7447709439251
128,512,156.65842508138218,280633,37474,32481280,29664024,0.5488331964912584,0.0794814280276973,0.6140810323469116,128,0,1,1,706.3314906279186,0.8919869470469047,0.0469440019040707,433.7447709439251
1536,1024,96.76374419619312,222706,32066,38383616,30094896,0.8881908295787455,0.128431325215923,1.0,1536,0,1,1,349.64686113315327,0.7724276819237221,0.1143352508230065,433.7447709439251
1536,128,651.5271445664175,324625,50401,33005568,29754280,0.48256159166350526,0.2006340621395202,0.30919587337566595,1536,0,1,1,1402.8155234042697,0.9098126738378812,0.008489838430428,433.7447709439251
1536,1536,68.95092525407546,244642,43985,50049024,29993288,0.9587710519922478,0.1753780625653636,1.0,1536,0,1,1,226.61041888586976,0.7413073876090451,0.0813976206722837,433.7447709439251
1536,2048,57.995473361422114,237698,32062,50311168,29985208,1.1154816622848114,0.2063229158156833,1.0,1536,0,1,1,195.83457436526996,0.7165689321076305,0.1130982682956915,433.7447709439251
1536,256,244.13784924504583,244534,33301,32743424,29717984,0.6463721587606462,0.2279654020269142,0.5650552822368193,1536,0,1,1,767.6147530678938,0.901685032705512,0.0307319941597879,433.7447709439251
1536,512,147.48709379910295,287003,44298,32481280,30133224,0.6442202926952068,0.2719465383712149,0.6632691366332114,1536,0,1,1,653.9498779419107,0.8662100078886775,0.0740947256370266,433.7447709439251
2048,1024,85.14302560283467,282135,56955,39432192,30213416,0.8775600355719323,0.145346349711229,1.0,2048,0,1,1,335.24247028195026,0.8045763028838208,0.0910354624673414,433.7447709439251
2048,128,411.70281723973847,255502,58520,32481280,30063048,0.6559435136451761,0.2415031219911461,0.45994952814651685,2048,0,1,1,943.0268853450281,0.9066758208438076,0.0122892081612382,433.7447709439251
2048,1536,54.06639382750405,274124,42782,72884224,55303944,1.1693063826134873,0.2206032940227725,1.0,2048,0,1,1,174.98268998026828,0.7445426155072994,0.1051998035811183,433.7447709439251
2048,2048,23.453843265831736,231191,35355,50311168,29991704,1.3147404396239704,0.219972823413,1.0,2048,0,1,1,124.02535159234628,0.7412874622227651,0.1173755871885429,433.7447709439251
2048,256,215.60832068293604,277226,34591,32481280,29700176,0.5912935672374772,0.161220588164667,0.5472231025117837,2048,0,1,1,792.6287632101296,0.9067377363311336,0.0286015342443433,433.7447709439251
2048,512,115.66638889726192,302922,35145,33267712,29997696,0.6976567208064303,0.1818221842963749,0.7687339479376705,2048,0,1,1,564.2326218421324,0.8936542318030982,0.0453993490136351,433.7447709439251
256,1024,87.52634892747659,273066,30532,37859328,30119760,0.8549261620117028,0.1261928192009394,1.0,256,0,1,1,344.47515783092183,0.7730095537089035,0.1061536906305225,433.7447709439251
256,128,583.1845435511055,205758,73808,32219136,29684080,0.41271824144666724,0.1773731982786185,0.28963842742930607,256,0,1,1,1497.538758215334,0.9181330004442269,0.0129088120423956,433.7447709439251
256,1536,64.22165494077618,240725,64743,50049024,29877544,0.9752988415425303,0.1810196178639799,1.0,256,0,1,1,245.12002288678744,0.7471201703129309,0.0858815685397433,433.7447709439251
256,2048,43.76042948478556,220722,56158,50573312,30043960,1.1787880873501857,0.2620121307152389,1.0,256,0,1,1,186.428796995951,0.7122666743202921,0.0972100338922584,433.7447709439251
256,256,296.515120253552,248004,58631,33005568,29946808,0.4668606375672508,0.1193309438158983,0.4206422497344979,256,0,1,1,1031.148847310743,0.91106597743862,0.0118438216309564,433.7447709439251
256,512,103.44004329213406,222154,58476,31956992,29923968,0.5632351918609989,0.1007895915884262,0.607923630988205,256,0,1,1,713.4856235788286,0.8952810306213757,0.0517661249790567,433.7447709439251
512,1024,99.7633718673901,273276,22427,37597184,31098032,0.7951251896904555,0.1716169806063824,1.0,512,0,1,1,379.5252653743729,0.7764856818234432,0.0990676844578091,433.7447709439251
512,128,1618.7141587772355,264055,83707,32481280,29764768,0.49384533810843356,0.4241487395570474,0.17725015950721743,512,0,1,1,2447.07690052185,0.9059753838983364,0.0112703116976144,433.7447709439251
512,1536,89.1658999680861,239925,53200,72355840,55293432,0.9458578864083947,0.16862918883766,1.0,512,0,1,1,248.27799533708185,0.738275039076514,0.1059783879443885,433.7447709439251
512,2048,45.86078262132825,229737,27346,49786880,30621448,1.1296816292081466,0.3089799604621203,1.0,512,0,1,1,179.0343612506095,0.7537370608508333,0.0927922894645967,433.7447709439251
512,256,297.46363282955684,263407,45517,32219136,29960216,0.5288925648994174,0.1708616637878238,0.4613620930072818,512,0,1,1,940.1395942970962,0.9136041670085407,0.0103497030470046,433.7447709439251
512,512,99.45860762753397,304083,36733,32481280,29817688,0.5966698561628343,0.1507472599701591,0.6560890044115446,512,0,1,1,661.1065999085854,0.9035825174007756,0.0328582201203404,433.7447709439251
