cpu,memory,duration_std,userDiff,sysDiff,heapTotal,heapUsed,avg_cpu_util,cpu_util_std,slo_preservation,total_cpu_shares,cpu_shares_others,num_containers,arrival_rate,latency,memory_util,memory_util_std,slo_duration
1024,1024,125.19505369478142,346501,37071,38383616,30555384,0.9068909110010135,0.1428914463964391,0.5490813958627674,1024,0,1,1,964.9720417637676,0.7588163961520981,0.1339863731151034,529.8481956601942
1024,128,794.6902703394373,283357,90515,32743424,30544496,0.7624322881499522,0.4426430532020479,0.19366270303847258,1024,0,1,1,2735.933080284105,0.9198549308184164,0.0063141434463282,529.8481956601942
1024,1536,84.01943174817582,374523,29041,69025792,52087496,0.9707316564452374,0.1515459542554003,0.7768447030853146,1024,0,1,1,682.0516295674673,0.7577545618523339,0.0994327721922761,529.8481956601942
1024,2048,65.22764611448773,298077,27466,36147200,16020808,1.0501584056590862,0.1729885298305438,0.8854197995277173,1024,0,1,1,598.4146683220943,0.7345421520924582,0.1229503882183983,529.8481956601942
1024,256,368.77982211642455,366947,41726,32481280,30211680,0.739803201223158,0.2315061129669716,0.2944506300408938,1024,0,1,1,1799.4466358812272,0.9227520366586176,0.0089678990629676,529.8481956601942
1024,512,218.359895340458,363237,26174,32743424,30608680,0.7586096227032044,0.211707109203606,0.38203524457321886,1024,0,1,1,1386.9092006212695,0.8885361559281272,0.063223030385611,529.8481956601942
128,1024,135.8238735262864,423636,46297,28413952,15862800,0.9399524078468414,0.1469238039861043,0.6052088217532539,128,0,1,1,875.4799609914072,0.7780287645256257,0.1014629811545165,529.8481956601942
128,128,564.7964635759345,256327,58042,32219136,30457840,0.5559721562068191,0.0853235783707805,0.23057040927402722,128,0,1,1,2297.9887025766725,0.9224158395220062,0.0124430614435738,529.8481956601942
128,1536,54.36584066406352,285628,27794,49000448,31009696,1.0837712542381708,0.3262625993590799,0.937418655146718,128,0,1,1,565.2204516639006,0.7681116675263194,0.0968613263466643,529.8481956601942
128,2048,32.55615762070489,278157,44634,63520768,52222696,1.1462053786746746,0.3828268484845513,1.0,128,0,1,1,487.956616689928,0.7477677369717562,0.0872719176131047,529.8481956601942
128,256,404.5554575766208,384320,42763,32743424,30286640,0.5279272571668381,0.0978808943671777,0.23257116494099156,128,0,1,1,2278.219639973977,0.9221470640742684,0.0099412016479965,529.8481956601942
128,512,318.2376270853655,340116,18155,32481280,29678840,0.8298320316154181,0.3384381356747811,0.35243448590594684,128,0,1,1,1503.3948630146065,0.9004109976514107,0.0517993549064684,529.8481956601942
1536,1024,110.83902055865394,277756,39956,37597184,30868200,0.9742999186814342,0.184374907004515,0.6131441730717047,1536,0,1,1,864.1494430352037,0.77068723086884,0.1010806264160542,529.8481956601942
1536,128,1122.5517315465268,384722,59902,32481280,30215408,0.728050358893572,0.4114782724982707,0.15460226046800649,1536,0,1,1,3427.169784298473,0.9232940775125956,0.0089579830004378,529.8481956601942
1536,1536,65.6108568012625,329682,21804,42184704,31671144,1.0907616177844832,0.1576626628744021,0.9123266880410809,1536,0,1,1,580.7658622788592,0.7443591598244598,0.1295279195231251,529.8481956601942
1536,2048,41.15936079785111,225241,30578,63520768,52234400,1.1347515415723535,0.3067366842671295,1.0,1536,0,1,1,518.1502663685848,0.7197825212585676,0.1146495898014029,529.8481956601942
1536,256,177.39605776673417,354267,42829,33267712,30054312,0.7352584720354491,0.1109437899209582,0.34555217741099253,1536,0,1,1,1533.337742595104,0.8948563369131035,0.0530736031933947,529.8481956601942
1536,512,176.53055220155798,317616,23654,32481280,30110464,0.7960374549376843,0.1998102913312502,0.4380315180977122,1536,0,1,1,1209.612034223529,0.8876117507104178,0.0647799530564471,529.8481956601942
2048,1024,146.77247383625385,374426,34550,29200384,15849448,0.9246806428243162,0.1119875881366987,0.5830089918316718,2048,0,1,1,908.8165072643917,0.7670358638009452,0.0944971756100021,529.8481956601942
2048,128,472.3594532857785,296590,50483,33005568,30221184,0.8279932290863747,0.2030670695679883,0.2985337003480801,2048,0,1,1,1774.8354542298216,0.9219442312201012,0.0120318830246833,529.8481956601942
2048,1536,83.03661825246155,228914,45258,42446848,31178160,1.0344085974533097,0.1955225707016348,0.8003913461803589,2048,0,1,1,661.9864122578845,0.7041398372539972,0.1204271578436484,529.8481956601942
2048,2048,60.94501516927388,289335,31151,37195776,15629088,1.0761734970846732,0.3138457728021352,0.9048699611307739,2048,0,1,1,585.5517570702286,0.6731203760423524,0.1420187306740189,529.8481956601942
2048,256,261.33097096839464,329128,49407,32481280,30178520,0.6809427477927906,0.1075888820270215,0.32344722490327865,2048,0,1,1,1638.1287420803694,0.911368513579652,0.0192794566364235,529.8481956601942
2048,512,195.044675037534,212046,19440,35627008,30693768,0.7459737181797643,0.140981601200363,0.42228329743351395,2048,0,1,1,1254.7221234664526,0.9075911751849176,0.0245497835585201,529.8481956601942
256,1024,118.39098261015876,191625,17976,50974720,45216320,0.9276476395140573,0.115544664168957,0.6344771146706695,256,0,1,1,835.0942585773423,0.8131839150381852,0.0907398274446902,529.8481956601942
256,128,717.9183961528231,388210,35561,32481280,29761448,0.6862582249660845,0.3095879492374203,0.19758802966684672,256,0,1,1,2681.5804406449697,0.9183485472609306,0.0093971526086224,529.8481956601942
256,1536,69.00245275111178,432710,25157,49786880,30362624,1.1142234241093003,0.3325002802907699,0.9609427729159926,256,0,1,1,551.3837146122274,0.7490924344032893,0.1272849098905724,529.8481956601942
256,2048,33.74846337037803,302064,40457,69025792,51589184,1.1467344287505166,0.2618850431218212,1.0,256,0,1,1,467.08311226420204,0.7423894288707877,0.081490079256753,529.8481956601942
256,256,754.2420238767289,425522,36260,32743424,30240904,0.726364737717092,0.3967228903449674,0.21780583442036722,256,0,1,1,2432.663004966076,0.9151007021837336,0.0295468318272047,529.8481956601942
256,512,144.60075086110592,272730,34762,33005568,30221232,0.7818098708083637,0.1478549267978679,0.40566391887875913,256,0,1,1,1306.126009738988,0.8878644512943925,0.0707146175907907,529.8481956601942
512,1024,120.94032819199492,424449,55342,39694336,30380936,0.9290191093182302,0.1613061782785606,0.622541011279365,512,0,1,1,851.1056879149525,0.8038287776142076,0.0980290322805577,529.8481956601942
512,128,884.1470872621042,383656,52343,32481280,30609304,0.5351110048723037,0.1468460150065786,0.1822633422417204,512,0,1,1,2907.047512370872,0.922297472807991,0.0150557140789018,529.8481956601942
512,1536,39.494304859903885,280412,27566,42446848,31174848,1.1074480954314954,0.369315943142028,0.9066507332657614,512,0,1,1,584.4016623156282,0.7604681300628038,0.1003120485546616,529.8481956601942
512,2048,30.61814457285255,278381,41341,50049024,30417744,1.1383083537701657,0.2514753521090691,1.0,512,0,1,1,478.42472228413465,0.7137239899383473,0.0991807091288286,529.8481956601942
512,256,552.3493378987702,354373,34939,32743424,30296960,0.7584642775590499,0.360502316455299,0.2587482972591061,512,0,1,1,2047.7359707206624,0.9199737136037416,0.0104325219260427,529.8481956601942
512,512,186.1297933426525,494757,58414,32481280,29901672,0.7520480690001995,0.2089145568927666,0.37783142526528835,512,0,1,1,1402.3401978492648,0.90913235416407,0.0471426318919631,529.8481956601942
