cpu,memory,duration_std,userDiff,sysDiff,heapTotal,heapUsed,avg_cpu_util,cpu_util_std,slo_preservation,total_cpu_shares,cpu_shares_others,num_containers,arrival_rate,latency,memory_util,memory_util_std,slo_duration
1024,1024,398.1573346218,1819052,136752,59174912,49167504,1.0808096859854308,0.2216789402839619,1.0,1024,0,1,1,1061.6128641262762,0.8629929000495469,0.0610508083623899,1374.0714692300005
1024,1536,202.34656845693456,1400409,163098,93122560,47855016,1.1318625221915903,0.1916233870347815,1.0,1024,0,1,1,616.7493263703054,0.7686463454264049,0.0972839129458773,1374.0714692300005
1024,2048,231.6700566868816,1664287,151219,91025408,48568392,1.1419762750215037,0.3051998507610637,1.0,1024,0,1,1,617.7422184473492,0.7688678496625744,0.1028114015804912,1374.0714692300005
1024,256,2495.074268899089,2278727,163459,50126848,47502400,0.7377308699589199,0.0609429841703799,0.24022765914953664,1024,0,1,1,5719.872033447531,0.9287739251005316,0.0373271696409781,1374.0714692300005
1024,512,936.1015575607504,2039679,117417,50126848,46857568,0.9458056632732127,0.1094994304120733,0.6458343165937104,1024,0,1,1,2127.591293812309,0.9431879554581618,0.0242904909025666,1374.0714692300005
128,1024,391.38150747933,1794661,180963,58912768,48102936,1.0946299030797386,0.212367016725883,1.0,128,0,1,1,1040.2558501569702,0.8763739455498266,0.0558016200777463,1374.0714692300005
128,1536,208.8260716138487,1485296,133804,78442496,48164032,1.1338038801001153,0.2649000515579938,1.0,128,0,1,1,621.8695003165483,0.7924687578473322,0.0809651965828572,1374.0714692300005
128,2048,212.5568873040864,1525662,165768,93908992,47665840,1.162922709143064,0.3708581221074465,1.0,128,0,1,1,597.1723547090983,0.7498458438251838,0.123023603886736,1374.0714692300005
128,256,2118.0527502789296,2105539,147219,49602560,46981072,0.7091251064657852,0.0613561454175931,0.27241398097956343,128,0,1,1,5044.056345012203,0.935629124790578,0.030561170073598,1374.0714692300005
128,512,894.226816731941,2207275,142703,51437568,47296904,0.9681906741265203,0.128378114414598,0.6272096912200068,128,0,1,1,2190.768874373174,0.9182267787589018,0.0690353912211304,1374.0714692300005
1536,1024,404.2502670606999,1962430,187090,58388480,47324224,1.0796054964832842,0.2284663023976994,1.0,1536,0,1,1,1052.1282890831442,0.8315764575885817,0.0949730300218236,1374.0714692300005
1536,1536,225.20761903447857,1647475,142854,79228928,49116960,1.1457754513087708,0.2311275052912008,1.0,1536,0,1,1,660.59349673693,0.7714176808472255,0.0878670631578294,1374.0714692300005
1536,2048,213.56603265285025,1509517,169509,90763264,48816680,1.137338362733425,0.2446601851571861,1.0,1536,0,1,1,614.3170004254915,0.766885396607395,0.1261179100469039,1374.0714692300005
1536,256,2193.7942023821265,2134475,181960,51175424,46812424,0.7074877185858419,0.0486306744643572,0.28757467654107,1536,0,1,1,4778.137928406093,0.9279588779457282,0.050056599933101,1374.0714692300005
1536,512,871.6270162966447,2204800,158750,49864704,47143064,0.9354761901316981,0.1390214664117193,0.6795905642217813,1536,0,1,1,2021.9107526948808,0.9457026458419544,0.0246234586051726,1374.0714692300005
2048,1024,403.51880789872064,1890110,138255,58912768,47898520,1.1081206742459142,0.3021515043631523,1.0,2048,0,1,1,1035.1814865313052,0.8764629337583262,0.0544741000500508,1374.0714692300005
2048,1536,211.12697800559425,1634854,117587,78704640,49293024,1.1309018978751413,0.1752950303304551,1.0,2048,0,1,1,602.660018825436,0.7822912682587334,0.0781870022739866,1374.0714692300005
2048,2048,202.9553834739144,1495812,121786,93908992,47365912,1.1312968722089223,0.1770660970879408,1.0,2048,0,1,1,586.627485833425,0.7607836641843803,0.1024539711290994,1374.0714692300005
2048,256,2188.318796855944,2497326,197543,50126848,47192080,0.7165891786201728,0.0732851060089024,0.26990317314136547,2048,0,1,1,5090.979306531946,0.9098566838354878,0.0485996840132488,1374.0714692300005
2048,512,830.341904797702,1939242,161019,50126848,47521512,0.9530130299456314,0.1042325172512707,0.6484647881235042,2048,0,1,1,2118.960804650969,0.9394749575425256,0.0400614295483431,1374.0714692300005
256,1024,429.60309933437367,1974930,190313,58912768,47045208,1.0797400009968605,0.2742420701680643,1.0,256,0,1,1,1081.1299418282385,0.8799827989404732,0.0488464537200305,1374.0714692300005
256,1536,213.45624418341788,1516253,144049,78704640,48757768,1.1425355247909381,0.2633564191088738,1.0,256,0,1,1,621.1215201039131,0.7721863743679113,0.0895615802596616,1374.0714692300005
256,2048,214.73406929402708,1509138,167295,93646848,47778504,1.1318550636164668,0.2059915217349801,1.0,256,0,1,1,580.4110567811617,0.762275310252232,0.1010057586905382,1374.0714692300005
256,256,2209.117893911494,2059768,183548,49864704,47280616,0.7080725695763501,0.0372563956433563,0.2546990732379551,256,0,1,1,5394.882092665727,0.9207576109462884,0.055008755767771,1374.0714692300005
256,512,932.8027073327808,1937813,168988,51437568,48844408,0.918011828791417,0.1280383619161962,0.6389163257392233,256,0,1,1,2150.6282025900746,0.9326506944281496,0.0424016655294148,1374.0714692300005
512,1024,376.210220936202,1826688,130489,56553472,49867464,1.0536672334159025,0.2015811210500605,1.0,512,0,1,1,998.2377442505123,0.8355704333993816,0.0925013649853105,1374.0714692300005
512,1536,205.52513536230103,1594537,117122,58773504,32808904,1.1449664398884496,0.2587271043100401,1.0,512,0,1,1,584.3456406200472,0.7828074834659546,0.0936228215511237,1374.0714692300005
512,2048,216.34957965301484,1582147,139069,91549696,47709848,1.1339685298082194,0.1875471283137594,1.0,512,0,1,1,578.6963117925825,0.7637558102764441,0.0933336991184333,1374.0714692300005
512,256,2767.145616452945,2271668,133201,50388992,46912728,0.7150655522636792,0.1389308060075358,0.23928645519209354,512,0,1,1,5742.370449371771,0.9248707499028288,0.0360390129767225,1374.0714692300005
512,512,857.6653312263176,2084478,160412,50388992,46831176,0.9323326218588479,0.1531319071592046,0.6260054583908568,512,0,1,1,2194.983207913303,0.9391955785217648,0.0331309581485797,1374.0714692300005
