cpu,memory,duration_std,userDiff,sysDiff,heapTotal,heapUsed,avg_cpu_util,cpu_util_std,slo_preservation,total_cpu_shares,cpu_shares_others,num_containers,arrival_rate,latency,memory_util,memory_util_std,slo_duration
1024,1024,735.3845768193723,1954026,184078,43438080,36386024,0.8927816724354328,0.1275727229898879,1.0,1024,0,1,1,1020.506784925972,0.8124885970654256,0.0348166584133481,2071.535023271188
1024,128,2371.912296844177,2015803,278217,36225024,33151328,0.43563448636499985,0.1111778732839102,0.24117996329340904,1024,0,1,1,8589.16717203016,0.91535095830826,0.0119853192069302,2071.535023271188
1024,1536,557.6847001864107,1735483,150003,51957760,34970304,0.99784019759325,0.2180772817436879,1.0,1024,0,1,1,669.206855086885,0.710968086092376,0.0610129859927902,2071.535023271188
1024,2048,321.96230922279483,1558809,105180,52744192,35640928,1.1291065932872402,0.2918467422545309,1.0,1024,0,1,1,380.6149434516276,0.7641122672295068,0.0578376245041961,2071.535023271188
1024,256,2742.942467411751,2085248,201308,36749312,33936368,0.37521183060749064,0.0534505313667093,0.29662940351911915,1024,0,1,1,6983.579505926046,0.9248982299928726,0.0181221883693125,2071.535023271188
1024,512,1248.0660554028204,2054190,246129,36225024,32355448,0.7050882187649966,0.1916432867249342,1.0,1024,0,1,1,1946.7567475529027,0.9152328662439396,0.0184112657285503,2071.535023271188
128,1024,773.6488126826181,1638643,184061,42389504,36709736,0.8814088317998129,0.1673268630624551,1.0,128,0,1,1,913.9461692106137,0.8502862506746037,0.0325761572544782,2071.535023271188
128,128,1751.1139469781854,1924807,229831,36749312,34452728,0.21159479157834046,0.0157977871937522,0.12403208473769897,128,0,1,1,16701.6061017763,0.9248428333378628,0.0141596013731814,2071.535023271188
128,1536,567.2732251377414,1762291,180362,51695616,36640184,0.9872175774237065,0.1873390462181248,1.0,128,0,1,1,697.8878545908782,0.7278861268202765,0.0469217723868377,2071.535023271188
128,2048,337.6487807613116,1566536,122884,52744192,35941352,1.1473269986309012,0.2393972808191211,1.0,128,0,1,1,387.876670070195,0.7372239216634968,0.0419037065751328,2071.535023271188
128,256,4098.011305849873,1976839,208249,35962880,32554096,0.2922648718411663,0.0362965306344088,0.2058363411301871,128,0,1,1,10063.990702015959,0.9178534355126916,0.0137198606678584,2071.535023271188
128,512,1667.8584874990358,2085167,265691,35962880,32842704,0.7256288847389344,0.2773471917107046,0.9390401086504715,128,0,1,1,2206.0133578833666,0.9121086620188852,0.0179244495130538,2071.535023271188
1536,1024,754.2728377091281,1753305,150620,42389504,37075280,0.8462997473306083,0.1839881517336305,1.0,1536,0,1,1,921.1524358095253,0.82767885252476,0.0409534627126955,2071.535023271188
1536,128,3193.220080143083,2109167,209215,35700736,32283384,0.3739677878817797,0.0654228173354356,0.20079546471381324,1536,0,1,1,10316.642491022765,0.9260600673687612,0.0110779053657736,2071.535023271188
1536,1536,666.2350886877675,1954021,148613,52482048,39681200,0.8880691698783875,0.1825793021812025,1.0,1536,0,1,1,650.9490633369071,0.7562607315978254,0.0607495988470522,2071.535023271188
1536,2048,306.3440869877138,1566050,139118,51433472,37065304,1.1335212384746318,0.2225603573198611,1.0,1536,0,1,1,447.48588214173907,0.752407281138611,0.0619537392888123,2071.535023271188
1536,256,2882.737240322182,2290743,159472,37011456,34005920,0.38681748561963153,0.0694377995198323,0.2878423494374149,1536,0,1,1,7196.769437575754,0.9172380083872366,0.012380604389436,2071.535023271188
1536,512,1156.701476184982,2196433,219588,37535744,35147392,0.7821502915877189,0.198332421936989,1.0,1536,0,1,1,1840.1134668730926,0.9080161291269336,0.0200130866809628,2071.535023271188
2048,1024,784.9072445287401,1930932,166663,43962368,36139936,0.8634877373350346,0.1537451955582536,1.0,2048,0,1,1,969.7574512236263,0.8401961660514757,0.0364276921976536,2071.535023271188
2048,128,1688.1303466856325,2042625,235283,36487168,34196560,0.3112978063057875,0.0256626044733127,0.18042132360812155,2048,0,1,1,11481.652954562069,0.922349212124161,0.0102488333380086,2071.535023271188
2048,1536,565.6224709477204,1818350,168121,65130496,54593416,0.9937932499127388,0.1583839847172678,1.0,2048,0,1,1,648.7392802079796,0.7282925538322329,0.0678427954610577,2071.535023271188
2048,2048,346.4085360521965,1651738,177088,51957760,36962336,1.025048178711775,0.2185757429195581,1.0,2048,0,1,1,372.4667169197976,0.7470463337948011,0.0586008764852043,2071.535023271188
2048,256,936.5299245459636,2160590,170257,37011456,33451120,0.8091262662040215,0.1342521333113637,1.0,2048,0,1,1,1209.184760574933,0.9176174979693128,0.0172683140961772,2071.535023271188
2048,512,807.5503392710368,1932779,203987,36749312,34306752,0.8933520019544009,0.175193356333408,1.0,2048,0,1,1,1008.3887838740956,0.9183605845587884,0.019788902333448,2071.535023271188
256,1024,539.5712014780349,1778176,163013,43700224,37053496,1.0243503654605237,0.1199675605745682,1.0,256,0,1,1,617.5938891282292,0.8400785500838325,0.0333792230725089,2071.535023271188
256,128,1172.658778500889,1666474,194710,36749312,34462016,0.9380106274912835,0.2997054010604109,1.0,256,0,1,1,1460.9710811303412,0.9069277350155136,0.0215997069236072,2071.535023271188
256,1536,320.0190444684893,1450760,125677,51695616,37120800,1.0870046464132024,0.2206120119572941,1.0,256,0,1,1,397.0881602381968,0.7253080870487824,0.0519545667434794,2071.535023271188
256,2048,211.0890661299881,1520321,184649,51957760,37735856,1.1921765752858127,0.346964506670782,1.0,256,0,1,1,275.3042590587549,0.7752448373160253,0.0543495116440752,2071.535023271188
256,256,322.03267354574297,1491137,126265,36749312,33927792,1.204343698216471,0.2500249561444053,1.0,256,0,1,1,495.32510713023066,0.908838186235804,0.021876536531512,2071.535023271188
256,512,489.0074716299091,1738429,135109,36225024,32974000,0.991491277427765,0.2026717556681358,1.0,256,0,1,1,730.2164615056845,0.9124948119470264,0.0144276029739166,2071.535023271188
512,1024,566.2753952740306,1850461,185187,43438080,37357296,0.9404449400366813,0.188659077413249,1.0,512,0,1,1,722.1345276520499,0.8237894199849105,0.0386764456576608,2071.535023271188
512,128,1034.9746011163672,1914209,200591,35962880,32867856,0.9524794020435822,0.1260907177951162,1.0,512,0,1,1,1226.6737691219366,0.91530133134131,0.0134937403687276,2071.535023271188
512,1536,319.4625811994452,1498144,119081,51695616,38502176,1.0887888281996434,0.2446217379324828,1.0,512,0,1,1,443.21298920205584,0.71886454197634,0.0599900382002867,2071.535023271188
512,2048,188.54881757390223,1472346,106146,52219904,38114176,1.1526382576163245,0.3217426997139048,1.0,512,0,1,1,260.25130986508645,0.7488385568686475,0.0549691340936889,2071.535023271188
512,256,569.749888554401,1663213,147636,35700736,32700704,1.0557211477670934,0.1986046453470683,1.0,512,0,1,1,638.7348094506942,0.9160350272466548,0.0209046634638022,2071.535023271188
512,512,806.4075253493945,1998517,139687,36487168,33289400,0.8854981050668966,0.204905839635509,1.0,512,0,1,1,1002.937595980302,0.9184115841552136,0.0206350189612967,2071.535023271188
