cpu,memory,duration_std,userDiff,sysDiff,heapTotal,heapUsed,avg_cpu_util,cpu_util_std,slo_preservation,total_cpu_shares,cpu_shares_others,num_containers,arrival_rate,latency,memory_util,memory_util_std,slo_duration
1024,1024,95.31645935019168,253524,42646,39170048,30394712,0.8156070677331412,0.203083473708448,1.0,1024,0,1,1,290.74882532889217,0.7664691659115688,0.0840221495676216,405.63634510576935
1024,128,696.7464843591397,235977,54340,31956992,29656408,0.36425060044900726,0.2342990149958952,0.2604307727950441,1024,0,1,1,1557.5591960670495,0.916240637784183,0.0106369782702179,405.63634510576935
1024,1536,86.52576848483737,219569,20773,70402048,55059472,1.0517284812603749,0.1684646136422752,1.0,1024,0,1,1,187.63993236500824,0.7149702356833746,0.1202472573536159,405.63634510576935
1024,2048,46.861514168069945,235370,46315,50311168,29967112,1.2520927628300047,0.2252530816674921,1.0,1024,0,1,1,140.96937542506495,0.7563413562205858,0.1111599341783151,405.63634510576935
1024,256,275.4991944747595,254092,48878,32743424,30236128,0.4789918784360483,0.1725061472310812,0.5109057253102817,1024,0,1,1,793.955371824067,0.9164072215183108,0.0097100556949875,405.63634510576935
1024,512,115.53329283102282,244987,44537,33005568,29647832,0.5718001258457583,0.1584875737105522,0.7408232691657104,1024,0,1,1,547.548061715965,0.8990436813014812,0.0404918875377944,405.63634510576935
128,1024,92.87522549037564,259692,47109,38645760,30901720,0.8444906550154614,0.1367803068987251,1.0,128,0,1,1,276.9700099400359,0.753984265090071,0.1030675185178289,405.63634510576935
128,128,2130.020124330514,372149,77521,33005568,29684240,0.3252862139721473,0.3339609308682277,0.13725096982519777,128,0,1,1,2955.4351828798444,0.9080532412197828,0.0105457592985702,405.63634510576935
128,1536,53.88012294039031,221910,18889,72237056,55141872,1.3469777411073864,0.2568727387233646,1.0,128,0,1,1,127.49502819726166,0.710928681851432,0.1153549816177582,405.63634510576935
128,2048,28.931352388123763,249874,43399,50573312,30571888,1.4813966624146198,0.2340574643053564,1.0,128,0,1,1,100.15436195420394,0.703677994047232,0.1164286452672639,405.63634510576935
128,256,479.4022223639254,243330,30819,32219136,29642320,0.4605802766229806,0.3819422325730456,0.3674213016067041,128,0,1,1,1104.008785914028,0.9169778901784342,0.0146042350271237,405.63634510576935
128,512,84.67295328896837,248145,38836,32219136,29644672,0.5059041550668618,0.0717575432535742,0.6638231661757841,128,0,1,1,611.060845379347,0.8971573605909159,0.0637412089735659,405.63634510576935
1536,1024,90.2870733269703,315888,26251,38121472,30248424,0.8291164253779794,0.1095740772950322,1.0,1536,0,1,1,271.46803080025046,0.7915444928699207,0.087546640106417,405.63634510576935
1536,128,715.9186328784507,282777,48030,32743424,30116048,0.30346126210201413,0.2348676160681748,0.22815664065929372,1536,0,1,1,1777.8853332237918,0.9180444517789264,0.0053389137020459,405.63634510576935
1536,1536,51.51470976062474,134687,56781,109625344,94086128,1.3168287046864173,0.1705869563827518,1.0,1536,0,1,1,132.4036853019873,0.7112615983085206,0.0851747948708586,405.63634510576935
1536,2048,24.40747239866224,211418,47011,50311168,29960848,1.4187557762139338,0.18560248359804,1.0,1536,0,1,1,95.02813238806493,0.6723582179360397,0.1303320318960557,405.63634510576935
1536,256,142.66753688056482,245157,40610,31956992,29618216,0.6804456253001114,0.1943279447980121,0.8059348643594892,1536,0,1,1,503.3115739795496,0.9055023437139538,0.021967000747605,405.63634510576935
1536,512,151.98466406006966,310669,35979,32743424,29676912,0.6730097642726227,0.2762214288418626,0.7857051548824306,1536,0,1,1,516.2704388346122,0.8955464085300575,0.0500877246290444,405.63634510576935
2048,1024,105.6746873902044,272329,46809,37597184,31104984,0.8607024972873081,0.1395149838216599,1.0,2048,0,1,1,297.0531616195397,0.7950126210203585,0.0937016013076327,405.63634510576935
2048,128,528.7875535494355,271109,61809,32219136,29800040,0.47982005222686813,0.2102448264525978,0.36751966009840137,2048,0,1,1,1103.7133224305944,0.9195079596757316,0.0093350394519007,405.63634510576935
2048,1536,67.34922040220349,176603,58861,71450624,55006312,0.9540591175296667,0.1347624806723882,1.0,2048,0,1,1,196.06973764536892,0.7268836392586018,0.1051854490045296,405.63634510576935
2048,2048,59.62251459366741,263846,40505,50573312,29970376,1.2926533142199352,0.2911560400025627,1.0,2048,0,1,1,145.46609716860635,0.7496393764159812,0.102871081613986,405.63634510576935
2048,256,210.38618877770247,317647,45741,33005568,29933752,0.7616421239272153,0.3092899341720067,0.7670392362387121,2048,0,1,1,528.833892637443,0.9095270810618916,0.0485367298286246,405.63634510576935
2048,512,101.29356809047664,241971,46462,33005568,30153232,0.6840793723253767,0.2669022986392219,0.8486728252208129,2048,0,1,1,477.9655163345526,0.8837071771052125,0.0585933126134015,405.63634510576935
256,1024,99.12224731764482,289191,47810,38907904,31110904,0.7607536832050129,0.1363612173458674,1.0,256,0,1,1,309.9142160571826,0.8278574541126537,0.0691780410741187,405.63634510576935
256,128,1459.8144922584902,278918,50214,32743424,30059624,0.2761794569298488,0.212354445760884,0.16350344396327005,256,0,1,1,2480.903981428629,0.9076349288245852,0.0102965230129475,405.63634510576935
256,1536,68.16204999190661,278541,39114,50049024,30194032,1.0415834679922573,0.2252996115780253,1.0,256,0,1,1,182.19575984960616,0.7081118412015356,0.0719545839674048,405.63634510576935
256,2048,51.244825941182825,215997,45808,50049024,29965040,1.2316598978004778,0.2468312396058356,1.0,256,0,1,1,132.80106373031174,0.6935291298604698,0.1003634834875075,405.63634510576935
256,256,529.9047769959138,245516,49149,32481280,29633864,0.2903468432649698,0.1299838205802746,0.29023849422723896,256,0,1,1,1397.596642670634,0.9124971279448288,0.0240290057716426,405.63634510576935
256,512,202.27704109475303,247746,31811,32481280,30218136,0.5366296170619747,0.166182399648956,0.6402858512126621,256,0,1,1,633.5238305477452,0.8766940503910838,0.0796652179543861,405.63634510576935
512,1024,82.59597055515557,230078,13766,37859328,30078088,0.8695788343026299,0.168219684240464,1.0,512,0,1,1,280.8180810309255,0.7720785616110887,0.1011888786143064,405.63634510576935
512,128,779.1743836416524,262051,40923,32219136,29661704,0.35169837517182406,0.189433376419962,0.26402398616301065,512,0,1,1,1536.361718496766,0.9221721962479162,0.0077203303032205,405.63634510576935
512,1536,54.88954935850791,174575,48694,72761344,55149600,1.154670841998896,0.244589946644523,1.0,512,0,1,1,153.96091802517537,0.7296259937525631,0.0971749961190418,405.63634510576935
512,2048,26.797163301342803,220339,50889,50049024,30092064,1.4296239114612583,0.1971550972514533,1.0,512,0,1,1,96.68386328383758,0.6870992897577419,0.1144198873183256,405.63634510576935
512,256,249.03312425600657,217690,44981,55189504,52712160,0.48618372968928625,0.1868430222745134,0.51852148415763,512,0,1,1,782.2941912710723,0.9156235229338068,0.014288601261504,405.63634510576935
512,512,134.3676113909798,262231,30762,33005568,29632280,0.6384844333687925,0.217683615146554,0.8172546720038456,512,0,1,1,496.3401972498734,0.8950520914665973,0.0379218640453406,405.63634510576935
