cpu,memory,duration_std,userDiff,sysDiff,heapTotal,heapUsed,avg_cpu_util,cpu_util_std,slo_preservation,total_cpu_shares,cpu_shares_others,num_containers,arrival_rate,latency,memory_util,memory_util_std,slo_duration
1024,1024,111.3810120403628,152988,31347,40804352,30520448,0.9251356351347532,0.0924089074820904,0.65559038397503,1024,0,1,1,569.7066688100764,0.7176124647446109,0.072201931771243,373.4942137583332
1024,128,326.4447237084738,243637,34109,37736448,33461136,0.6974844410701885,0.139790582980325,0.3137008642928454,1024,0,1,1,1190.6062630725482,0.8726398622033493,0.0356264003617175,373.4942137583332
1024,1536,57.770130050011126,160455,30578,51888128,34530376,0.9676808986211922,0.1620114621242057,0.7859858958940463,1024,0,1,1,475.19200498310414,0.6346044142057805,0.0882736222640767,373.4942137583332
1024,2048,51.14630229178125,112917,15600,42205184,27942720,1.0091567920059055,0.1385540378374827,0.9280356187559942,1024,0,1,1,402.4567658933089,0.6541747326279854,0.0800041992122566,373.4942137583332
1024,256,295.63197387545966,312833,58036,29278208,25204224,0.849659670314487,0.2551180093315605,0.3905303320947913,1024,0,1,1,956.3769650232366,0.8734594412595342,0.0302901372988963,373.4942137583332
1024,512,221.60702915906268,114516,26933,27320320,24023808,0.6810523600943121,0.2722242338050063,0.3592742418322171,1024,0,1,1,1039.5797145200208,0.8837513252635574,0.0297409740869951,373.4942137583332
128,1024,70.00935458185747,180285,24753,40804352,30462112,0.9398906909226477,0.1129239509906863,0.6546138859655319,128,0,1,1,570.5565093649712,0.7305830144135512,0.0740920305760626,373.4942137583332
128,128,442.8602362899632,182103,33175,25800704,21758248,0.5564958644940148,0.1087646426513467,0.2404599799909288,128,0,1,1,1553.2489596498472,0.8531233557884512,0.039005581640717,373.4942137583332
128,1536,48.32495992240028,168917,38670,64806912,47619096,0.9890554427959534,0.1377891536356451,0.8314702170437825,128,0,1,1,449.19734477833526,0.6798902779762321,0.095347173829517,373.4942137583332
128,2048,40.62601402650228,70028,24548,42467328,28118288,1.0157052076356667,0.1026323435940444,0.9386976908158972,128,0,1,1,397.8855145938407,0.6747015961620081,0.0524279505928479,373.4942137583332
128,256,364.0609512940374,124760,11632,31993856,29060048,0.7126271976298564,0.3347910959257323,0.3056307386724706,128,0,1,1,1222.044010954633,0.8720066358522983,0.0309916886747531,373.4942137583332
128,512,137.26847094209782,202986,41373,30441472,26308536,0.7817323676334808,0.1885545415033289,0.43718683787773094,128,0,1,1,854.3125762235074,0.8771107128627127,0.0347314799081747,373.4942137583332
1536,1024,92.3212558441082,76401,13771,38055936,30819256,0.8928453375197245,0.1203176124432965,0.6443513488426369,1536,0,1,1,579.643721440471,0.7440561432483288,0.0637789823980635,373.4942137583332
1536,128,469.95323162479656,221104,42991,30412800,27049280,0.6097656397595225,0.1736269339478311,0.2553404843324543,1536,0,1,1,1462.73010617479,0.8552159532724515,0.0474222719151978,373.4942137583332
1536,1536,49.23854340527183,114846,12629,44412928,28064592,0.9554150589667416,0.1552450106460668,0.8996994544247957,1536,0,1,1,415.1321998934845,0.6374723950313793,0.0440336154760154,373.4942137583332
1536,2048,34.17308248720978,120745,23271,44855296,26208728,1.0195552591005692,0.1394471617764587,1.0,1536,0,1,1,338.0762373336084,0.6527573645751301,0.0562196583396635,373.4942137583332
1536,256,349.456221274557,163404,31587,36851712,32681176,0.6511044968378107,0.2232156319744286,0.2814561300993011,1536,0,1,1,1327.0068540577176,0.8648466884734118,0.0408727496870704,373.4942137583332
1536,512,167.2446738591116,244942,34319,25538560,21484416,0.7099811941647677,0.1008684725032517,0.36344995655860035,1536,0,1,1,1027.6358739861712,0.8800624712182227,0.0298236885352688,373.4942137583332
2048,1024,88.20851773615023,125630,28272,25530368,14868144,0.8900560430858563,0.1252027517653114,0.586684616562874,2048,0,1,1,636.6183861211,0.7734303412488968,0.0573711519891713,373.4942137583332
2048,128,267.7499397584036,214177,21914,18841600,14649128,0.7130551674569592,0.1705245979909184,0.3281151588713088,2048,0,1,1,1138.3022199983839,0.8578391548958473,0.0376602502115667,373.4942137583332
2048,1536,44.76369311393901,206485,47019,64806912,45435136,0.9916644062305344,0.1202706564910423,0.7977928647968583,2048,0,1,1,468.1593810110547,0.6666001883593022,0.0594860995163995,373.4942137583332
2048,2048,36.32522377810234,173042,29105,46174208,26560696,1.0140886320454983,0.146533758675249,1.0,2048,0,1,1,310.5285156430596,0.6560029884121213,0.068829087276882,373.4942137583332
2048,256,355.9049183891251,343768,35649,37212160,33694840,0.6713927054446963,0.1873749178782733,0.31435294632049227,2048,0,1,1,1188.1365138456333,0.8579375241796638,0.0414741211384746,373.4942137583332
2048,512,175.95142968399583,136514,6077,32256000,29095248,0.7527699719201967,0.1858464112943423,0.3964317310385592,2048,0,1,1,942.1400572044648,0.8786502984793255,0.0392928215217022,373.4942137583332
256,1024,103.72251576372403,199235,36932,50335744,39558888,0.9369722072253119,0.1423976798736704,0.6865672563828727,256,0,1,1,544.0023687206684,0.736558631744041,0.0771517104159003,373.4942137583332
256,128,289.6193671291272,65110,17338,32440320,29260736,0.7746457324004653,0.2788796719707873,0.3690158957046304,256,0,1,1,1012.1358405039749,0.8684930469728013,0.0399417206757423,373.4942137583332
256,1536,62.53125620186502,181486,48851,64282624,45368768,0.9879870676833201,0.1288882306427117,0.797740530515251,256,0,1,1,468.1900937352372,0.6674182481848565,0.0526216313555694,373.4942137583332
256,2048,42.21211078134798,73812,12315,45641728,26256240,1.0137988612019384,0.1106295919507677,1.0,256,0,1,1,354.7282430299559,0.6748553192629443,0.0502359974111707,373.4942137583332
256,256,303.41053601814866,251052,38610,18841600,14657040,0.5875626866106372,0.0999299614716156,0.28440718667397996,256,0,1,1,1313.2376088177934,0.8620732763547836,0.0512325801696068,373.4942137583332
256,512,167.3250850026498,174539,5196,32440320,29253488,0.7092596012777824,0.0836880075886867,0.3998037648995028,256,0,1,1,934.1938384502633,0.8733736239441635,0.0306750871842272,373.4942137583332
512,1024,87.55102291776487,134675,40215,48959488,37936856,0.9444569900345182,0.0861745158831326,0.6286396321896863,512,0,1,1,594.1308734502993,0.7659594301764225,0.047436328372518,373.4942137583332
512,128,519.7754128335681,308251,30515,18579456,14652696,0.6253180122528872,0.2265776400889977,0.2397634246641207,512,0,1,1,1557.7614237098633,0.8572282213407224,0.0472408767126366,373.4942137583332
512,1536,52.68447498248754,54623,11715,46878720,37525104,0.9948741983598429,0.1125424920416815,0.9067833523298005,512,0,1,1,411.88913845706776,0.6539229017891842,0.0911561256773207,373.4942137583332
512,2048,55.24094880813468,73404,22708,45117440,26207616,1.0198250756034113,0.1580188617369824,0.9346255292687,512,0,1,1,399.61910097895,0.6405715599257441,0.075202111675748,373.4942137583332
512,256,254.69350838044545,229329,29263,27320320,23633712,0.6163748498986581,0.1208793529328084,0.3160464560189285,512,0,1,1,1181.7699792082594,0.8942053457401679,0.0140764829402238,373.4942137583332
512,512,177.6412807064919,234245,28921,37474304,33946592,0.6777987469893835,0.1006143120583295,0.37715349139354903,512,0,1,1,990.2976434827765,0.8682102688854467,0.0414924016431051,373.4942137583332
