cpu,memory,duration_std,userDiff,sysDiff,heapTotal,heapUsed,avg_cpu_util,cpu_util_std,slo_preservation,total_cpu_shares,cpu_shares_others,num_containers,arrival_rate,latency,memory_util,memory_util_std,slo_duration
1024,1024,868.4789214947007,2281851,234496,59437056,53881224,0.8964594049123809,0.1189367259273228,1.0,1024,0,1,1,1121.644785271219,0.8440022331143325,0.0695867180508899,2549.6289465607474
1024,128,2232.7755558790905,2314543,248814,52486144,49428592,0.5389739334815041,0.2843361743644826,0.3686117449758739,1024,0,1,1,6916.841314233283,0.8917303172099164,0.086591168168282,2549.6289465607474
1024,1536,563.1039418203865,2110259,166241,53006336,38524128,1.0428201216338853,0.1698354118034784,1.0,1024,0,1,1,666.1449697258927,0.7897820352240833,0.0715256468810494,2549.6289465607474
1024,2048,343.5007546857824,1753551,198090,52482048,37700816,1.2897067385619378,0.1748796301876356,1.0,1024,0,1,1,431.6101711211327,0.7697663909046301,0.1048407880120264,2549.6289465607474
1024,256,4169.753450444443,2182533,217368,37535744,35325264,0.37644110839362577,0.2570830325883477,0.27567462933592585,1024,0,1,1,9248.689125664421,0.9231762734188984,0.0480074960390181,2549.6289465607474
1024,512,2084.8340804957943,2079209,232874,37535744,35291376,0.5637182727404839,0.2038865982653924,0.8382797017491388,1024,0,1,1,3041.5014716934447,0.929441176296196,0.0517754582913216,2549.6289465607474
128,1024,758.2043690916764,1949091,198311,53137408,37241568,0.85189571847287,0.1075885568332135,1.0,128,0,1,1,1117.1575325381625,0.8596129778116282,0.0665922636570919,2549.6289465607474
128,128,548.4115259901861,2209451,310621,37011456,34896592,0.46407650954660307,0.0239269922338973,0.38389992478982826,128,0,1,1,6641.389544310486,0.9359360283595316,0.0166965212640392,2549.6289465607474
128,1536,561.4693537665266,1972497,182747,68481024,56669432,1.0241157064224562,0.2064997469531906,1.0,128,0,1,1,711.0708006950287,0.7531939371788605,0.0824048051896908,2549.6289465607474
128,2048,360.29338220814685,1754576,166946,52744192,38669488,1.316971323537364,0.1908958734331519,1.0,128,0,1,1,441.7591451015122,0.7476445459145534,0.102375754446854,2549.6289465607474
128,256,5290.811745369646,2618794,218640,37273600,34382912,0.2811740657044191,0.1136941938878124,0.22864209547026043,128,0,1,1,11151.179057018302,0.8948834216463027,0.0747273157755038,2549.6289465607474
128,512,2065.8495456102446,2205105,199136,36487168,34133096,0.5056176354242075,0.0849367230258541,0.7500472105298297,128,0,1,1,3399.2912856241437,0.9301481956039952,0.0546068893171983,2549.6289465607474
1536,1024,817.1470295705195,2218574,191364,45010944,39451960,0.8599405434912724,0.0917923845252715,1.0,1536,0,1,1,1115.2555154086992,0.8414578127455661,0.0598741810557471,2549.6289465607474
1536,128,3074.826343190375,2309664,264901,36749312,33640240,0.47778906085291795,0.1666460319844572,0.32139733198375753,1536,0,1,1,7932.949943372891,0.9326998935719112,0.0158719692778695,2549.6289465607474
1536,1536,595.0400581284586,1832115,199772,68743168,51190392,1.119146849481611,0.1562111209735878,1.0,1536,0,1,1,724.4591917346354,0.7434386600808806,0.1029242136828197,2549.6289465607474
1536,2048,370.2299409171008,1890649,188763,61394944,40176376,1.3166805905273475,0.1858366127463382,1.0,1536,0,1,1,454.07756665041484,0.7525987096585729,0.0869660904512413,2549.6289465607474
1536,256,2683.971757014242,2288799,222894,51961856,49122032,0.41090687668180553,0.1239065712426716,0.3959597106750654,1536,0,1,1,6439.112055653151,0.9164003795121312,0.0456318824034609,2549.6289465607474
1536,512,1994.25791240618,2374355,192167,37797888,33876600,0.4974276108613836,0.0671490563658103,0.8057841447565581,1536,0,1,1,3164.1587429485053,0.9369597554549608,0.0193391389155894,2549.6289465607474
2048,1024,819.0687798208721,2166861,192057,46059520,34736048,0.8419504280782125,0.0929140882099932,1.0,2048,0,1,1,1105.9881914191308,0.8410850193837284,0.0618697999810037,2549.6289465607474
2048,128,235.76808733033465,1984837,314808,37011456,34965072,0.5495939372890035,0.0366134773704365,0.4863629556276482,2048,0,1,1,5242.235077855525,0.9400571242908944,0.0172357419886771,2549.6289465607474
2048,1536,345.84537918641934,1992783,141805,56414208,41761944,1.3214041549170632,0.1880237212727395,1.0,2048,0,1,1,475.84195731284296,0.8109011354827818,0.068229646030907,2549.6289465607474
2048,2048,219.93928734232017,1615838,200431,68743168,56780368,1.5696143565597696,0.3213999366903256,1.0,2048,0,1,1,292.5389697664329,0.7657356326980087,0.0870450159633924,2549.6289465607474
2048,256,3234.8679803570863,2162442,170288,52486144,50080488,0.3979745121419124,0.1347638603315483,0.3715963854333808,2048,0,1,1,6861.28564890963,0.9267050163403004,0.0418478440893755,2549.6289465607474
2048,512,2480.7005589919954,2418431,256743,37011456,34120104,0.5185027556458304,0.0975234567637712,0.802859999521744,2048,0,1,1,3175.68311795274,0.915693246079884,0.0408238466302872,2549.6289465607474
256,1024,802.3995915421693,2218450,206369,49991680,35824888,0.8912410223810618,0.1689255056795343,1.0,256,0,1,1,1078.1327228647417,0.8420218048806527,0.0630670874289097,2549.6289465607474
256,128,1381.3200261274917,2507300,293885,52224000,49376232,0.21330286584728944,0.0146539626155255,0.1691646654992824,256,0,1,1,15071.876499951244,0.9259126241196513,0.0313569070140532,2549.6289465607474
256,1536,596.7231551793155,2106409,165953,68218880,51527608,1.070515720062573,0.2293400040600627,1.0,256,0,1,1,717.8765635996551,0.7821784333420734,0.0851232859096445,2549.6289465607474
256,2048,375.41985604261737,1714207,174782,61132800,37973472,1.2333889147180777,0.2045659465507663,1.0,256,0,1,1,464.28506960288496,0.7566694845740013,0.0909290775409969,2549.6289465607474
256,256,4349.826635675012,2166396,222407,52224000,49461304,0.3152473835168658,0.092553424306772,0.26497578699177826,256,0,1,1,9622.120479407646,0.9333070014761372,0.0166781261778039,2549.6289465607474
256,512,2026.0539946170347,2049094,177752,37273600,34424912,0.5139630215827372,0.0725940182700556,0.756313261469266,256,0,1,1,3371.128177241879,0.936674016400668,0.0231389196702805,2549.6289465607474
512,1024,790.293563952478,2031484,195372,58650624,49753352,0.8914877154467005,0.0993727666725943,1.0,512,0,1,1,1009.7666109167557,0.8243910327839679,0.0648273419436605,2549.6289465607474
512,128,1796.8980247590048,2167162,325537,37011456,34586344,0.47032071659986086,0.0976458174647423,0.35964673074973524,512,0,1,1,7089.259344150522,0.9012710259109196,0.0631013104695446,2549.6289465607474
512,1536,577.3216522292572,1960744,175859,66121728,53144584,1.0374363585880515,0.2036778523963341,1.0,512,0,1,1,716.232249001187,0.7848643940836246,0.0876123278024437,2549.6289465607474
512,2048,321.60180491579115,1523115,184654,74240000,39004936,1.3056263953188427,0.2272395801991344,1.0,512,0,1,1,438.6261864302239,0.7446274676970168,0.1159157275035807,2549.6289465607474
512,256,3628.3643689489754,2293383,205371,37535744,35025360,0.3645099463798665,0.0984399748667366,0.32212199899198046,512,0,1,1,7915.103453161617,0.9327122536932496,0.0275941050311544,2549.6289465607474
512,512,1457.1715390010745,2358661,227179,38060032,35756960,0.617043590646161,0.1923379464892058,1.0,512,0,1,1,2468.1091364057315,0.936627828430461,0.0176165938937553,2549.6289465607474
