cpu,memory,duration_std,userDiff,sysDiff,heapTotal,heapUsed,avg_cpu_util,cpu_util_std,slo_preservation,total_cpu_shares,cpu_shares_others,num_containers,arrival_rate,latency,memory_util,memory_util_std,slo_duration
1024,1024,92.30771726272911,369975,46272,50450432,44508672,1.0219932378722272,0.1082788567872838,0.6163069527897133,1024,0,1,1,471.73646426074504,0.8014219243846765,0.1047438728083339,290.73446280833326
1024,128,382.6883540554542,424201,48852,32743424,30242056,0.7789362260041516,0.202993206530312,0.3193547420323998,1024,0,1,1,910.3809167137313,0.879763080713772,0.0848972617527632,290.73446280833326
1024,1536,69.77409179368018,400828,42428,59232256,44942112,1.2507505577291032,0.2081930086189515,0.9573564684075456,1024,0,1,1,303.68464872017546,0.7291794220585023,0.1212990770082215,290.73446280833326
1024,2048,46.19476486801735,302983,86228,58970112,46020192,1.5020182624214928,0.2802461825347495,1.0,1024,0,1,1,219.40959552771236,0.730194219654112,0.1519074264235047,290.73446280833326
1024,256,77.03732190655089,379059,40860,33792000,29784776,1.0826670097283912,0.1469290636892296,0.5761682803252329,1024,0,1,1,504.5999107139684,0.8951283641609045,0.0562656859492789,290.73446280833326
1024,512,81.84769805497399,472508,61679,46907392,44488776,1.1252131273256434,0.1322453800456836,0.5486788707120138,1024,0,1,1,529.8809163747288,0.8614412977622392,0.0881339493198522,290.73446280833326
128,1024,87.96144570511849,389124,67898,50180096,30855568,1.012030543759048,0.1203426365424879,0.6185333938748292,128,0,1,1,470.03842587546427,0.7510961432462778,0.1235859543910269,290.73446280833326
128,128,135.08359490228764,398045,66174,37199872,29749496,0.927514962673632,0.1390806683275591,0.4455218220855332,128,0,1,1,652.5706450188579,0.8899742315001617,0.076280882953164,290.73446280833326
128,1536,67.4153829056113,323460,39987,57659392,44525856,1.2688307591660504,0.2546793511408232,0.9272083575519978,128,0,1,1,313.5589325099767,0.7398770802959369,0.1332905675102096,290.73446280833326
128,2048,51.52934463121046,395922,30870,58183680,46128000,1.5017770539518118,0.2923600004432409,1.0,128,0,1,1,201.8982545941269,0.6249703108798811,0.160139346200708,290.73446280833326
128,256,77.40041454852545,457612,51852,33005568,29598592,1.067653464901078,0.1459448620200022,0.5359049097378938,128,0,1,1,542.5112879643682,0.8987199837057084,0.0521370378794157,290.73446280833326
128,512,83.17235809448721,343813,39856,32743424,29806384,1.0933325591328489,0.1901668783016111,0.5543157443312161,128,0,1,1,524.4925221438648,0.8852515435356242,0.0782836109127375,290.73446280833326
1536,1024,94.43780006207348,403362,54429,53858304,44043728,1.0710076808645657,0.1587890296590733,0.6328922537784597,1536,0,1,1,459.3743422716992,0.7929727060306103,0.1094072126534562,290.73446280833326
1536,128,308.6825823165935,368475,42441,33005568,29996904,0.9110850323350002,0.3330497568457911,0.368550765640618,1536,0,1,1,788.8586591401491,0.8834163204454445,0.0640458812523128,290.73446280833326
1536,1536,74.83033471621147,354810,63197,58445824,45861072,1.270753448685702,0.2782785147396888,0.8711843306138738,1536,0,1,1,333.72324615098313,0.6891502388146062,0.1610880738826323,290.73446280833326
1536,2048,44.07833087292151,353963,43745,58707968,44883792,1.4362682638852873,0.2976159926257241,1.0,1536,0,1,1,223.25240988419137,0.708290314403752,0.1539113675867754,290.73446280833326
1536,256,72.19249652064453,464877,39336,46907392,44057944,1.03115086637579,0.1351804852389797,0.5312299672727283,1536,0,1,1,547.2855085734894,0.9042514501071964,0.0530119312738926,290.73446280833326
1536,512,69.1020576905474,341684,65290,46383104,43905632,1.0969364045210213,0.1204609354821852,0.5736868592564974,1536,0,1,1,506.78250358588895,0.8844518571613571,0.0928608526661573,290.73446280833326
2048,1024,121.14944131192176,435458,43722,47034368,30270032,1.0805920798246194,0.1628743335936686,0.6093215768642436,2048,0,1,1,477.1445388567106,0.7301205796751116,0.1287091026867328,290.73446280833326
2048,128,284.8083057844567,393134,49255,33005568,29639440,1.016196483907924,0.3103907240308672,0.4226690251111928,2048,0,1,1,687.8537236833214,0.8704556067344782,0.0761679679458053,290.73446280833326
2048,1536,74.4006483722302,348789,46617,57135104,44997544,1.2850747756797831,0.2479441266796868,0.9196546905216643,2048,0,1,1,316.13437717956646,0.7345962575500706,0.1437464892364418,290.73446280833326
2048,2048,47.80726354279901,358867,62499,58970112,44513384,1.5558282624005486,0.2405453299585886,1.0,2048,0,1,1,197.59270363809432,0.7089934939836142,0.1607987435002732,290.73446280833326
2048,256,63.84453980035187,425243,47348,32743424,29625120,1.0190339531856345,0.0938839698195606,0.4917527585098698,2048,0,1,1,591.2208071579084,0.8860252665611956,0.0745586921142833,290.73446280833326
2048,512,64.87968124364,389473,64309,39821312,29526216,1.0586709587362246,0.1089771329931213,0.5261394796189175,2048,0,1,1,552.5805876018125,0.8667290648565992,0.0737694090808551,290.73446280833326
256,1024,83.22311173850733,332997,30162,50450432,44492840,1.1061153445518717,0.222491974990496,0.6437925015476884,256,0,1,1,451.5965347676503,0.7957632905085287,0.1099374897738171,290.73446280833326
256,128,126.16223261784712,401022,89752,40083456,29510592,0.9363042640265419,0.1704151289490206,0.4196517460163532,256,0,1,1,692.7993641589752,0.90373086030448,0.0592194854960877,290.73446280833326
256,1536,71.2935044451688,458225,84127,62640128,45102376,1.2543153955702249,0.2342395473379928,0.9466924995799478,256,0,1,1,307.1054887805001,0.762118013494092,0.1099087689864497,290.73446280833326
256,2048,43.91302155228953,350914,47439,58970112,46009352,1.4472141300910868,0.2924398183901406,1.0,256,0,1,1,227.26803040827576,0.7186468127134383,0.153226075287981,290.73446280833326
256,256,69.02622536402367,384519,59410,32743424,29986544,1.0372345975756043,0.2299726139394816,0.5402791037363569,256,0,1,1,538.1190218124827,0.8824367964626305,0.0783295807085386,290.73446280833326
256,512,61.11041499971815,428240,66478,34578432,29555712,1.095405448045458,0.0797601848725943,0.5520683442633044,256,0,1,1,526.6276645445005,0.8885343604688918,0.0823661615818983,290.73446280833326
512,1024,74.72641463478533,402653,42706,43888640,30099520,1.0807572361288027,0.1771832288143423,0.6342867848208695,512,0,1,1,458.3643704486769,0.7687769222613653,0.1172036621814044,290.73446280833326
512,128,88.7064174356587,390170,77837,33267712,30054472,0.8919382179531113,0.0850260785155092,0.419498707598287,512,0,1,1,693.0521061026517,0.8998159951604111,0.0354169793168809,290.73446280833326
512,1536,57.061984035506406,390604,57373,58970112,45489064,1.2547114461575475,0.2305712906261555,0.8907013035114898,512,0,1,1,326.41073013157757,0.7371768931759407,0.1163611939005193,290.73446280833326
512,2048,44.78627157934562,307486,71782,58970112,45325384,1.5702083049553532,0.3021926791818733,1.0,512,0,1,1,196.56210721046614,0.6860093905844563,0.168374380983086,290.73446280833326
512,256,59.095423075707984,448330,43442,32743424,29949016,1.0651547154952572,0.1124177082025378,0.549226032269203,512,0,1,1,529.3530272174532,0.870242058600958,0.0663522993773217,290.73446280833326
512,512,52.43239630050339,457666,52220,33005568,29640888,1.0971856505141369,0.112156123390418,0.5561112529159775,512,0,1,1,522.7991005106674,0.8784463101084417,0.0689728630100825,290.73446280833326
