cpu,memory,duration_std,userDiff,sysDiff,heapTotal,heapUsed,avg_cpu_util,cpu_util_std,slo_preservation,total_cpu_shares,cpu_shares_others,num_containers,arrival_rate,latency,memory_util,memory_util_std,slo_duration
1024,1024,148.00836828363649,526256,50830,40480768,29579584,0.914249405248154,0.1399949564339061,1.0,1024,0,1,1,689.3920687200261,0.7604777629163922,0.1050048242415487,712.2230388392857
1024,128,509.48023966535135,497901,68601,35889152,29471192,0.6547581289994536,0.3767880466698699,0.46084032850699364,1024,0,1,1,1545.4876554461034,0.8607064572084595,0.0761573412579982,712.2230388392857
1024,1536,66.27556395122221,373199,67060,60010496,29723608,1.2818041094745574,0.2430276185083255,1.0,1024,0,1,1,349.7812898773783,0.7250889781381765,0.1357145251503478,712.2230388392857
1024,2048,51.45922308362792,398659,29580,58707968,44665656,1.4203900298842156,0.2359124013017865,1.0,1024,0,1,1,270.3297369468364,0.7122164771167677,0.1379364660898279,712.2230388392857
1024,256,511.17028428429313,527827,46923,32481280,29428592,0.5320312408234241,0.2098241331463689,0.403386878171834,1024,0,1,1,1765.607850377062,0.8820613339812743,0.0698554051862392,712.2230388392857
1024,512,251.80638590968863,488138,65723,32481280,29478256,0.7023745629962653,0.1697554630724756,0.6265959153192809,1024,0,1,1,1136.6544553300728,0.8865323891991524,0.0680234333823328,712.2230388392857
128,1024,128.9920357975167,582005,63199,52285440,44227856,0.89773539539807,0.1129909073333833,1.0,128,0,1,1,685.5131067922262,0.7680969802640133,0.1047467081843352,712.2230388392857
128,128,1437.889817395428,480555,58390,46120960,43810472,0.6018619404289796,0.4514709540188073,0.27906497674230524,128,0,1,1,2552.176368218962,0.8423768210173563,0.0665499450858528,712.2230388392857
128,1536,69.68970589561127,308596,60192,58970112,44307400,1.2362965480174077,0.2184406474646636,1.0,128,0,1,1,343.6625242574977,0.7490238849736466,0.1391638011721625,712.2230388392857
128,2048,45.58387098386095,373175,49502,58707968,44676856,1.4628935017460911,0.2704429565037303,1.0,128,0,1,1,265.69528891714936,0.6988005645439437,0.1634068217773416,712.2230388392857
128,256,447.9231928196589,413842,50484,39821312,29421168,0.35391788115211836,0.0644488466154834,0.30940628022852956,128,0,1,1,2301.9023347335838,0.8710609225350692,0.0729327757400038,712.2230388392857
128,512,257.81594479109657,531504,64945,47169536,44049272,0.6096257761131733,0.1641196686462843,0.5563946895382924,128,0,1,1,1280.0680025007118,0.8567348515692438,0.09244719868915,712.2230388392857
1536,1024,131.79257715253473,436322,67221,38907904,29947592,0.8763226903583631,0.0940977341484905,1.0,1536,0,1,1,682.2682839439951,0.7520064556431181,0.1089371369782288,712.2230388392857
1536,128,691.2165343853901,560265,59496,34316288,29755568,0.5696319927877154,0.2601202617323929,0.3936903113993991,1536,0,1,1,1809.0946569338735,0.8674637348557432,0.0490964406745337,712.2230388392857
1536,1536,63.22676474974232,330809,46785,47427584,30810560,1.2667967075542816,0.15655867431652,1.0,1536,0,1,1,336.4050854226384,0.6614686359189534,0.1665769969839591,712.2230388392857
1536,2048,45.34149375822911,399778,33966,58707968,45214544,1.407040694355309,0.2513248747612465,1.0,1536,0,1,1,256.7547499491662,0.7163916078434023,0.1739071340392646,712.2230388392857
1536,256,431.9815879454155,489376,43793,32743424,29590368,0.5489166518749837,0.2146103076090623,0.4270586247180605,1536,0,1,1,1667.740674502213,0.8850370823315914,0.0652717044336391,712.2230388392857
1536,512,212.234842798067,468178,67735,46383104,44025856,0.6521234981754949,0.1701284366656353,0.6008470512026562,1536,0,1,1,1185.3649567118605,0.8878070231868737,0.0677718585624309,712.2230388392857
2048,1024,131.18119202664192,407554,56680,41529344,29796592,0.9143975534091241,0.0969498072256328,1.0,2048,0,1,1,675.9762410398426,0.7173973699229392,0.1112168534584565,712.2230388392857
2048,128,621.8914636862281,477033,76325,35627008,29537040,0.7372555365548058,0.230353094107652,0.5235066736612746,2048,0,1,1,1360.4851182854577,0.8592138714173364,0.0789254430360289,712.2230388392857
2048,1536,104.13197002111164,452371,63895,59232256,44751136,1.1169654236246047,0.1451681468846303,1.0,2048,0,1,1,469.73904876596487,0.7084001353208367,0.1309160035558597,712.2230388392857
2048,2048,58.31469678920336,449026,52693,62902272,44155312,1.1383897034430899,0.170579882321493,1.0,2048,0,1,1,398.1468689343068,0.7144460399347856,0.1260482083184577,712.2230388392857
2048,256,531.3255186122,495690,54023,37986304,29369368,0.6052701430822236,0.3155340183761178,0.43497936800138065,2048,0,1,1,1637.3720025199564,0.8784410533238739,0.0738986259152491,712.2230388392857
2048,512,256.7935002840974,484642,46104,36937728,29780424,0.6941034848484273,0.2301514951758108,0.6003891780843796,2048,0,1,1,1186.268948270731,0.8834884833925173,0.0519504748547098,712.2230388392857
256,1024,99.81928576992006,453721,28022,53596160,43983816,0.9396091203361732,0.1004826347289191,1.0,256,0,1,1,640.2372426368099,0.7510207179266265,0.0977657507851856,712.2230388392857
256,128,1147.275308140889,455343,78340,32743424,29785048,0.38238377360036785,0.1512368020454896,0.2577176455723967,256,0,1,1,2763.5788665437412,0.8666783729023958,0.0568911541368926,712.2230388392857
256,1536,60.72636363113018,453722,51679,62377984,44216320,1.2876069292590722,0.17264757152021,1.0,256,0,1,1,364.4054976115979,0.6446313800804361,0.1513922866151262,712.2230388392857
256,2048,45.07756848794841,365422,45281,58970112,44610280,1.4128738208524978,0.2625788330191977,1.0,256,0,1,1,265.4734786595956,0.6656869036375663,0.1535936164859976,712.2230388392857
256,256,293.2634050560144,452155,69602,32481280,29867640,0.34021009756636206,0.0312278136975048,0.2910395279308912,256,0,1,1,2447.1694408754215,0.921178375422806,0.0178756698769826,712.2230388392857
256,512,205.5523758362956,452684,42759,32481280,29634352,0.5687423874630132,0.053071726826767,0.5465415666014589,256,0,1,1,1303.145236085296,0.9062900478460114,0.0300199939767575,712.2230388392857
512,1024,123.6063900304164,472515,69395,45723648,29818456,0.8805348175153679,0.1041266304200414,1.0,512,0,1,1,691.4603582126201,0.7824123760044455,0.0980791772250321,712.2230388392857
512,128,1346.13649042345,510518,50292,46907392,43696104,0.6531859620054474,0.2595556851543748,0.3910257845617463,512,0,1,1,1821.4221848247953,0.8622232274282221,0.0652826917822595,712.2230388392857
512,1536,76.5222401621621,408590,60177,62115840,44711488,1.289319138771014,0.1979859417797206,1.0,512,0,1,1,332.14926558060233,0.7344455276626902,0.1394009819068135,712.2230388392857
512,2048,48.51831516079295,454279,42880,58970112,45971264,1.3987252794349692,0.2275525923472628,1.0,512,0,1,1,258.698736156796,0.7323152618959138,0.1367585125861271,712.2230388392857
512,256,431.6424230717673,555698,58180,33792000,29474544,0.44571009666843037,0.1057140356951275,0.3731216456715671,512,0,1,1,1908.8226242071355,0.8876391806519772,0.0548837662097901,712.2230388392857
512,512,209.27010778394936,423869,53376,32743424,29411368,0.5832323974244259,0.0791250005713066,0.5507677711441428,512,0,1,1,1293.1458159938122,0.8797016948028954,0.0685824698439802,712.2230388392857
