cpu,memory,duration_std,userDiff,sysDiff,heapTotal,heapUsed,avg_cpu_util,cpu_util_std,slo_preservation,total_cpu_shares,cpu_shares_others,num_containers,arrival_rate,latency,memory_util,memory_util_std,slo_duration
1024,1024,192.6705182565698,6232,29,25530368,14580528,0.03818182197483187,0.0191645386252907,1.0,1024,0,1,1,882.8260028885209,0.6354261072408133,0.0455785608689138,897.273357483333
1024,128,231.31774932309185,8891,29,23896064,21025088,0.01845756758957327,0.0014167383470206,0.9279569815927692,1024,0,1,1,966.9342170832424,0.8479433587435119,0.0168516775774308,897.273357483333
1024,1536,228.8483200982448,29088,303,34312192,14698704,0.03632886397828468,0.0163947648694609,1.0,1024,0,1,1,851.5771375485082,0.6135702129362712,0.0921491567956348,897.273357483333
1024,2048,191.066221820418,5941,305,34574336,14716768,0.03912936480417763,0.0275248406748676,0.9201195631012741,1024,0,1,1,975.1703946594314,0.5433319146921656,0.113099563018514,897.273357483333
1024,256,218.6102775040236,7868,736,24420352,20982520,0.026419847922624792,0.0225591603620205,1.0,1024,0,1,1,870.9163376976505,0.8496284156239797,0.0154646606244348,897.273357483333
1024,512,209.7449081344412,9247,175,24682496,20669760,0.04192698958677776,0.020377221379497,0.899194917454367,1024,0,1,1,997.8630217612063,0.857670487181978,0.0192742130889135,897.273357483333
128,1024,239.4330964867718,172,6449,25792512,14583624,0.04675468352870446,0.024924557603474,0.8624976597905194,128,0,1,1,1040.319758897966,0.639565946850692,0.0547209678087273,897.273357483333
128,128,261.93192265484043,7953,68,24158208,20525056,0.01717153128936674,0.0018929367402824,0.9927050537907969,128,0,1,1,903.8670187655001,0.8467566062695071,0.0107573814765084,897.273357483333
128,1536,243.86039875216272,5746,353,38060032,25468128,0.04504950940525407,0.0237710439655354,0.9168403975506775,128,0,1,1,978.658182907715,0.5547156827054363,0.1079481711534836,897.273357483333
128,2048,245.53897517873796,5156,190,39108608,24330488,0.05018048679024003,0.0290096842827978,0.9246120675121677,128,0,1,1,970.4322374870205,0.5459854424605701,0.1073745308063112,897.273357483333
128,256,196.42391403809765,6118,512,24420352,20865944,0.044570958272738485,0.0325674590704277,0.9566664398382335,128,0,1,1,937.9166239332661,0.8507163149100073,0.0113101709291579,897.273357483333
128,512,198.3021186221929,6246,35,24420352,20992448,0.056881812120798486,0.0362526506896809,0.9784807042864139,128,0,1,1,917.0066957403072,0.8596797010348339,0.0157974663412616,897.273357483333
1536,1024,265.47867147845704,5436,3660,25530368,14584504,0.046022147408367506,0.025298403885091,0.9677296999778946,1536,0,1,1,927.1941922458607,0.641998120526425,0.0545438301989486,897.273357483333
1536,128,224.6449544329372,6595,25,24944640,20677280,0.017586383049694086,0.0015726338160888,0.9169316537817995,1536,0,1,1,978.5607834374703,0.8399466767065453,0.0147441698403483,897.273357483333
1536,1536,280.26560450243096,144,6199,38060032,25574384,0.05688218717997339,0.0353106717718977,0.9307930887057898,1536,0,1,1,963.9879887064225,0.5326143766498144,0.0931652567368576,897.273357483333
1536,2048,230.7068792884724,5809,852,38846464,24090040,0.05264940837725435,0.0378060127190849,1.0,1536,0,1,1,863.8536759824973,0.5326750576400899,0.0836775238388152,897.273357483333
1536,256,254.9438502428927,6354,294,24682496,20607128,0.03479158200404044,0.0218855618310273,0.9659999398206967,1536,0,1,1,928.8544651978755,0.8498121766725129,0.0146247817997061,897.273357483333
1536,512,185.66493230791207,8981,979,24158208,20521320,0.04625537861214689,0.0273843390223376,1.0,1536,0,1,1,836.7983818369499,0.8616083021987008,0.0161039232032335,897.273357483333
2048,1024,269.9276860635205,24557,3383,25792512,14566640,0.045561157661209786,0.0175170790459607,1.0,2048,0,1,1,896.6854931632655,0.6489983187785898,0.0679760979447271,897.273357483333
2048,128,205.54461564332928,6157,3258,24420352,21022920,0.01977936766771933,0.0025396994583822,1.0,2048,0,1,1,802.7903543392879,0.8441771512988087,0.0149487975720096,897.273357483333
2048,1536,191.36423485767645,6187,400,38584320,24543544,0.04737067234287855,0.0267758866296342,0.9510664238637009,2048,0,1,1,943.4392119933812,0.6413681857236047,0.0933468575650335,897.273357483333
2048,2048,217.35978390569213,3229,3880,39108608,24130984,0.053934174425887944,0.0284397342014682,0.9741910409940009,2048,0,1,1,921.0445587426199,0.5624768560482801,0.1336309325317571,897.273357483333
2048,256,191.7086406812471,7462,729,24420352,20840736,0.01653543318495783,0.0019350244327269,1.0,2048,0,1,1,891.508822786493,0.849357118454852,0.0122053685726522,897.273357483333
2048,512,313.483665946016,10936,505,24944640,20601264,0.05952203209195321,0.0385277556275331,0.9547453918329443,2048,0,1,1,939.8038106900156,0.8580300517100575,0.0169681415392617,897.273357483333
256,1024,276.97775690823346,7219,462,25792512,14583104,0.04978371154145072,0.0184466440167249,0.8916522273251054,256,0,1,1,1006.3041732930906,0.6300291300654731,0.0395441365566276,897.273357483333
256,128,245.78344514615068,8236,481,24682496,20680928,0.01983294399285378,0.0079942479806453,0.9292129796711144,256,0,1,1,965.6272319839031,0.8446012548682013,0.0111022968825414,897.273357483333
256,1536,239.8450649020952,5995,20,38846464,24309888,0.07387899920632701,0.0663433195232804,0.91349772305463,256,0,1,1,982.2392928172338,0.5565560113959745,0.102172621879436,897.273357483333
256,2048,259.24715512981373,15434,11527,34574336,14705344,0.07703707334741601,0.0403127835611765,1.0,256,0,1,1,895.1736039428063,0.5673482689536437,0.1399954264150479,897.273357483333
256,256,245.1587471845171,1418,4196,24420352,20853096,0.0409766183115518,0.0247627057490379,0.8351360719204736,256,0,1,1,1074.4037859842038,0.8515156721991385,0.0140838778553066,897.273357483333
256,512,249.67180154575263,5935,353,24682496,20990800,0.052702491977706975,0.0317101226191316,0.967525669070795,256,0,1,1,927.3897180888939,0.86336588616545,0.020013000384513,897.273357483333
512,1024,253.7022187501968,7582,30,25530368,14582576,0.05648153802734113,0.0314388339019037,1.0,512,0,1,1,885.9326990659799,0.6396293782672797,0.0567890976899859,897.273357483333
512,128,231.0722903647996,4815,4225,24158208,21016880,0.019979145545944262,0.0059965715615826,0.9587649719118396,512,0,1,1,935.863724447621,0.8484602261328096,0.010111391761041,897.273357483333
512,1536,291.3671577242063,23302,23,34574336,14702424,0.06821975427056119,0.049706432191728,1.0,512,0,1,1,855.2900249148777,0.4997163203675041,0.0521538675651779,897.273357483333
512,2048,171.72453841531197,5188,1153,39108608,24092344,0.05818877802640303,0.0290571277808564,0.9111723943696491,512,0,1,1,984.7459855322642,0.5761236474537661,0.143150489395732,897.273357483333
512,256,231.2354616083062,8817,699,24682496,20904688,0.049359811625781604,0.050826115680515,0.9147364500785745,512,0,1,1,980.9091541134701,0.8450912430447887,0.0162799000394751,897.273357483333
512,512,235.7779858076084,4416,4674,24944640,20674432,0.08299335557883333,0.0412755602161131,1.0,512,0,1,1,883.5093756346395,0.8551723118083754,0.0173772623193828,897.273357483333
