cpu,memory,duration_std,userDiff,sysDiff,heapTotal,heapUsed,avg_cpu_util,cpu_util_std,slo_preservation,total_cpu_shares,cpu_shares_others,num_containers,arrival_rate,latency,memory_util,memory_util_std,slo_duration
1024,1024,75.02789127594916,74885,4710,30814208,24888568,0.9265801965329208,0.1204152254174987,0.26693310303347134,1024,0,1,1,412.2147938923955,0.6794953538890158,0.0507449904918763,110.03377404999996
1024,128,64.49505019671278,108676,8452,24645632,21135440,0.9508995499417485,0.0694976578072699,0.2668240133056776,1024,0,1,1,412.3833259487916,0.8699055747343035,0.0177402431225737,110.03377404999996
1024,1536,34.65700676735688,97966,46,39333888,24824632,0.9853430595934531,0.0470937893626017,0.32847645441830503,1024,0,1,1,334.9822264882195,0.5386330313913013,0.0592254089608079,110.03377404999996
1024,2048,35.21981997664322,91857,3717,39333888,24947696,1.0067120394344424,0.0291675133810667,0.5318370283999755,1024,0,1,1,206.89378169292777,0.5439899706811129,0.0605483826786699,110.03377404999996
1024,256,66.45408316921151,80606,8191,25169920,21007688,0.9523800781628836,0.1053363927675018,0.26252179127744324,1024,0,1,1,419.1414873202354,0.8456640617439678,0.0254052661286755,110.03377404999996
1024,512,51.738603860224096,148228,15536,18841600,14643504,0.9805413991544835,0.0378811278889537,0.31867304278169145,1024,0,1,1,345.28736127008756,0.8300971033691242,0.0279972317491318,110.03377404999996
128,1024,61.755124770489246,192694,67,31076352,24916264,0.9499746411562539,0.1189609910398222,0.27138007021092303,128,0,1,1,405.46003973128575,0.6808267008471389,0.0552485558395497,110.03377404999996
128,128,66.59147046692807,180557,31,24907776,21021936,0.929480316159172,0.0913605427525772,0.25176469393978307,128,0,1,1,437.0500578461481,0.8716809221678631,0.0163171460682466,110.03377404999996
128,1536,40.337803770677525,136996,16232,39596032,25076992,0.9797032332577025,0.0547938329103178,0.35096922821738513,128,0,1,1,313.5140211832095,0.557627643648278,0.0481998597890447,110.03377404999996
128,2048,25.84364625297158,57219,188,39596032,24966128,1.0052367582751947,0.0228943834185419,0.5475311955881567,128,0,1,1,200.96347922569407,0.5432654258798407,0.0534104346375069,110.03377404999996
128,256,43.43315394865756,68857,7429,18841600,14672440,0.9752400960084783,0.0699147408513685,0.3664255854277859,128,0,1,1,300.2895497090912,0.8271543591984095,0.0205896009291197,110.03377404999996
128,512,42.8082363107525,75515,11801,18841600,14640264,0.998709720683261,0.043239893887777,0.35232938579533524,128,0,1,1,312.3037092169131,0.8211634562345876,0.017918704450453,110.03377404999996
1536,1024,51.75633684184342,197438,11853,25530368,15807192,0.9552917428215081,0.0893843866996049,0.23230041982630853,1536,0,1,1,473.6701471838597,0.6782016073811543,0.0502089744329875,110.03377404999996
1536,128,43.45672435032089,75140,7925,18841600,14708640,0.9809724779064111,0.0414388278691787,0.3388248399689437,1536,0,1,1,324.7512020077558,0.8397030046105783,0.0260432695417239,110.03377404999996
1536,1536,50.59231927542645,117873,308,39333888,24946336,0.9848027799222835,0.0525485933845476,0.33516032255823536,1536,0,1,1,328.3019099937797,0.5498336310889864,0.0506647254365925,110.03377404999996
1536,2048,21.464727085285613,49734,4273,39596032,24875728,1.0067464060755336,0.0392124778836272,0.525576860522135,1536,0,1,1,209.3581021445403,0.5369228995662293,0.0565195022656295,110.03377404999996
1536,256,40.28928427793816,181498,3741,19103744,15105752,0.9901283158109012,0.0624080080513042,0.38833454528314576,1536,0,1,1,283.3478900770242,0.8225202536201692,0.0166257489114286,110.03377404999996
1536,512,37.50468607772449,95336,3439,18841600,14717040,0.9990324351148668,0.0385986467274882,0.3753483543302302,1536,0,1,1,293.15107627511435,0.8431256265024671,0.0330397370546734,110.03377404999996
2048,1024,48.448178058065615,219970,6660,30552064,24878152,0.9607291040273317,0.0766546206661168,0.27918946495763897,2048,0,1,1,394.11864651374015,0.6814042410669561,0.0580697221372078,110.03377404999996
2048,128,44.94899450069492,47554,57,25169920,20654872,0.9818230018899623,0.0514389078120825,0.2932450592679657,2048,0,1,1,375.2280578048946,0.8424717263360272,0.0323641591703289,110.03377404999996
2048,1536,42.29258181931503,116554,4152,38809600,24927344,0.9911639639201444,0.0227644992164489,0.37627395813213005,2048,0,1,1,292.4299481054205,0.5446543324305962,0.0521238346780832,110.03377404999996
2048,2048,29.429183322594763,108654,16,39333888,24844488,1.0086554860325643,0.0768497617738191,0.43962723278114746,2048,0,1,1,250.28880343446855,0.5516623360955047,0.0667711063001792,110.03377404999996
2048,256,54.02932132850584,54299,21,18841600,14703120,0.9875933084409177,0.061113245572995,0.3877819864547731,2048,0,1,1,283.7516385326815,0.8436183370275195,0.0283243011971629,110.03377404999996
2048,512,43.23107101623452,75818,11972,18841600,14732248,0.9996460727057112,0.0194320292722619,0.3866623682928377,2048,0,1,1,284.5732687559245,0.8235786207998157,0.0208772619739024,110.03377404999996
256,1024,87.01227528710335,48243,4027,25530368,15734416,0.937035447607138,0.202041802068619,0.3060966195848022,256,0,1,1,359.47399288255053,0.6775539738528822,0.0570756469811741,110.03377404999996
256,128,44.785090837858505,160721,8214,18841600,14623560,0.9730696079715965,0.0494156279314921,0.3239332868709266,256,0,1,1,339.68035552284465,0.8262502066135079,0.0306708746227385,110.03377404999996
256,1536,50.310642224106765,171414,3948,39333888,24901448,0.9877668695974007,0.0417860564411383,0.3322999876098776,256,0,1,1,331.12783073341654,0.5430834818088968,0.0587652140599901,110.03377404999996
256,2048,21.99614775326572,102434,552,39333888,24865680,1.0074732284301993,0.0837459821620683,0.4233595049498666,256,0,1,1,259.90623279623765,0.5488341875349008,0.0666345812107199,110.03377404999996
256,256,38.33190524292935,114554,8685,19103744,14685896,0.9788882241795901,0.0771060235865706,0.3068020986937361,256,0,1,1,358.6473968675186,0.8217139570737005,0.0201362466899188,110.03377404999996
256,512,46.42408088712938,55314,8464,18841600,14522528,0.9726177557970629,0.1092399249508166,0.29394389298245266,256,0,1,1,374.33597593595374,0.8336324698829681,0.0344009459103119,110.03377404999996
512,1024,54.18397672583914,77001,4014,25268224,15822128,0.9602340237500986,0.0910525499141644,0.3071003644102753,512,0,1,1,358.2990670209649,0.6742846756934128,0.0465934008618796,110.03377404999996
512,128,53.27772291137126,47855,4614,18841600,14719216,0.9731946029560238,0.074611074563881,0.309785008592444,512,0,1,1,355.1939926013702,0.8283247100308863,0.0301032765727649,110.03377404999996
512,1536,39.18027412363735,69984,4406,39071744,24820920,0.9916124129558437,0.0503685418034004,0.4005646330688617,512,0,1,1,274.6966780541603,0.5285077795484978,0.0532869842784717,110.03377404999996
512,2048,24.014493328256773,121958,186,39071744,24882680,1.002080339927287,0.0296342895521647,0.5212250948814312,512,0,1,1,211.10605596422894,0.5456521105009486,0.0603077216979778,110.03377404999996
512,256,52.94809984027696,149307,4387,18841600,15096072,0.9811724597916468,0.062412708190902,0.29191880560343314,512,0,1,1,376.9328043890363,0.831623367051104,0.0198508058966641,110.03377404999996
512,512,26.21065320268893,83995,9442,18841600,14667872,0.9865537564666965,0.0665203893647832,0.4084675244536816,512,0,1,1,269.3819397200996,0.8210831066669282,0.0172810179369152,110.03377404999996
