cpu,memory,duration_std,userDiff,sysDiff,heapTotal,heapUsed,avg_cpu_util,cpu_util_std,slo_preservation,total_cpu_shares,cpu_shares_others,num_containers,arrival_rate,latency,memory_util,memory_util_std,slo_duration
1024,1024,527.790315937096,174847,33834,58712064,48405168,1.072059610500844,0.1849446927728227,0.7928222125829041,1024,0,1,1,392.87401660245496,0.836454512039227,0.0246862484575621,311.4792471090909
1024,128,824.2280933371328,2075495,234917,61554688,57577880,1.1573663613699288,0.21018248128335,0.25767797989157587,1024,0,1,1,1208.792645922454,0.9266365193727624,0.0094929640557264,311.4792471090909
1024,1536,191.35176469222196,1385443,148085,65953792,47848344,1.1194091214924682,0.2133321928120235,1.0,1024,0,1,1,147.53453217537273,0.7537658732256591,0.0447659735750369,311.4792471090909
1024,2048,223.38811926010567,70514,36774,84516864,64573584,1.1448053771103535,0.214685531221606,1.0,1024,0,1,1,183.36958098502066,0.7561464555372532,0.0512247375694368,311.4792471090909
1024,256,560.0921844151271,2134750,176437,62078976,57766880,0.9817502772006919,0.1449070905280621,0.5681010137393584,1024,0,1,1,548.2814492071931,0.9315485019598964,0.006857985144596,311.4792471090909
1024,512,578.3452450313587,1914020,183181,54226944,51039368,0.9683859143877946,0.1621065579272476,0.5718548403181112,1024,0,1,1,544.682365433545,0.9247206944003622,0.0130216119797649,311.4792471090909
128,1024,351.8485363274726,1682505,179941,67784704,57369800,1.000399578551892,0.2319611893769667,0.9733923850316517,128,0,1,1,319.99351124876796,0.8395202147507931,0.0250094285293062,311.4792471090909
128,128,729.7788934685786,1925783,232124,61816832,57290592,1.164082404542103,0.1117138665477086,0.28505284976872924,128,0,1,1,1092.7070098116967,0.9231347944543352,0.009433076538819,311.4792471090909
128,1536,207.7039655990391,152189,32233,73342976,53094352,1.131928999050333,0.2575373613871267,1.0,128,0,1,1,167.72999848209125,0.742532385189229,0.044190474404296,311.4792471090909
128,2048,200.636717568812,1433628,95064,73912320,55066056,1.1214176489708787,0.1730423571180274,1.0,128,0,1,1,164.92963029111675,0.7401492289084686,0.041171609002737,311.4792471090909
128,256,565.5263913127025,2053608,133513,54226944,51011848,1.0539594623062056,0.1582670228783348,0.5586883565612795,128,0,1,1,557.5187731246847,0.9358392168071316,0.0096913714727199,311.4792471090909
128,512,554.2827213339967,1859381,152881,65933312,62485032,0.9671188326710007,0.1994760027951385,0.6085559492594416,128,0,1,1,511.8333778317893,0.9277620622246412,0.013072631389501,311.4792471090909
1536,1024,312.4184389418665,1646252,142332,80465920,70302696,1.0419860886233936,0.2077039130178458,0.9839339482689352,1536,0,1,1,316.56519998835876,0.84547762942671,0.0288323610455271,311.4792471090909
1536,128,682.0781336613537,1854359,278602,62447616,58843488,1.104996004145095,0.1909026162640564,0.4436563413826524,1536,0,1,1,702.0732446613242,0.9264476905305576,0.0158359624578364,311.4792471090909
1536,1536,185.2971083016137,1406931,115906,60375040,47544696,1.1366347250881614,0.2250237871703294,1.0,1536,0,1,1,183.2369292302755,0.7471397862091165,0.0379434251580729,311.4792471090909
1536,2048,190.4989274501536,1492109,119455,58236928,42069992,1.143116402466471,0.2362837038939576,1.0,1536,0,1,1,197.31891552572546,0.7592911882203283,0.0458440894156341,311.4792471090909
1536,256,326.5311610270084,1616881,121233,43397120,39790528,1.2807958815969618,0.2282972327046119,0.8649415835554033,1536,0,1,1,360.11593503081855,0.9290633839338004,0.013271910852082,311.4792471090909
1536,512,538.9737382243005,1615581,146176,43397120,40084584,0.9988235565263598,0.1796372577043861,0.5550534693497189,1536,0,1,1,561.1698049090821,0.9268181342997984,0.0137026660353793,311.4792471090909
2048,1024,349.0420284209369,1809798,153546,59908096,50748008,1.0950405811785129,0.2305122981040546,1.0,2048,0,1,1,309.92336602557435,0.8397478338571377,0.0337139937807202,311.4792471090909
2048,128,769.0157079045032,1755590,217462,52916224,49847992,1.0149688106318149,0.2252095989103308,0.27780648066478353,2048,0,1,1,1121.2094345809694,0.9236509894570156,0.0113804742372623,311.4792471090909
2048,1536,197.8317698392117,1491891,91022,85303296,67116808,1.1713932543837038,0.2764348555007709,1.0,2048,0,1,1,162.22869058681633,0.7755782663510093,0.0392923789121073,311.4792471090909
2048,2048,188.45017523567,1431137,182944,73732096,55994296,1.1500592277042965,0.1657903315984974,1.0,2048,0,1,1,195.67844492475737,0.7525927077109332,0.0457330342274873,311.4792471090909
2048,256,327.63295005576083,1817213,115958,61292544,57196704,1.233958511429869,0.3158255431644611,0.9300798360125221,2048,0,1,1,334.8951724880716,0.9278625816127024,0.0160542846689731,311.4792471090909
2048,512,613.7865157347626,1836831,169806,44048384,40909064,1.028621166062905,0.2194298719250981,0.5875407927308591,2048,0,1,1,530.140631872302,0.9253429748460252,0.0124574406996391,311.4792471090909
256,1024,321.8608202810024,1552414,138012,59383808,49184096,1.1219469375313653,0.1850686588192656,0.9591559591157555,256,0,1,1,324.7430661810653,0.8499419154579027,0.0262896858834625,311.4792471090909
256,128,720.9135074391332,1871838,185211,53440512,50094192,1.0567066414952049,0.1587519295260885,0.2954492870877798,256,0,1,1,1054.2562149305459,0.9289546679434366,0.0093750433270396,311.4792471090909
256,1536,219.8657860372604,1615089,144692,84516864,65828808,1.13754097186808,0.159076325454206,1.0,256,0,1,1,171.30491602723308,0.7386378861148643,0.033235049595798,311.4792471090909
256,2048,206.93653435378943,1526831,118535,63811584,46001432,1.1398540919251872,0.2163895969406632,1.0,256,0,1,1,182.34342527198842,0.7359639688366613,0.0435714514911738,311.4792471090909
256,256,366.9536914544703,1702416,121934,61554688,57778384,1.1691086351479403,0.2504482431265629,0.8216424616612734,256,0,1,1,379.0934154976766,0.9255239963526584,0.0144862537574447,311.4792471090909
256,512,554.8261420613269,1678866,136757,53440512,50051232,0.9437623211395385,0.1714259381280031,0.5455929549446581,256,0,1,1,570.9004199672733,0.9288395749694072,0.0112002776682109,311.4792471090909
512,1024,324.58336360093915,1621204,130845,48472064,38707816,1.1108934390155407,0.2328574606938812,0.9770462409744177,512,0,1,1,318.79683278700264,0.8474747246756982,0.0242737683024913,311.4792471090909
512,128,804.4954043880854,1783923,198951,42999808,39962352,1.0282370097824258,0.2512277909524199,0.24559388019079104,512,0,1,1,1268.2695793035089,0.925036635398498,0.0141993194267455,311.4792471090909
512,1536,190.52272479490597,1418171,129410,74764288,56599776,1.217033432003733,0.3053401202090943,1.0,512,0,1,1,173.11986795820025,0.7406340452550282,0.0417916540939481,311.4792471090909
512,2048,197.44775191028705,1385469,118692,64086016,46318448,1.132392298296842,0.2031162569839577,1.0,512,0,1,1,163.71998130029235,0.7437451654463191,0.0504289586834625,311.4792471090909
512,256,535.4333374604996,1863976,137766,43921408,41069920,1.0813031892888398,0.1668145395760747,0.581702411753463,512,0,1,1,535.4615019906466,0.92890633690208,0.0100758496432047,311.4792471090909
512,512,574.576515648761,1745151,186665,43397120,40185968,0.9942573915481975,0.229041671262734,0.5253339700547593,512,0,1,1,592.9166299232909,0.9279004507627387,0.0087787708324593,311.4792471090909
