cpu,memory,duration_std,userDiff,sysDiff,heapTotal,heapUsed,avg_cpu_util,cpu_util_std,slo_preservation,total_cpu_shares,cpu_shares_others,num_containers,arrival_rate,latency,memory_util,memory_util_std,slo_duration
1024,1024,116.00893565764297,334535,70459,45461504,30120152,0.89426384028077,0.0910850671146809,0.5863835040867542,1024,0,1,1,1196.369173231964,0.7840139603534031,0.0834821488653963,701.5311479811321
1024,128,1100.7838573506326,541272,94451,46907392,44227416,0.6748923295866129,0.2860238949454549,0.20409950407993244,1024,0,1,1,3437.201629389497,0.8970473318853632,0.0517966810583404,701.5311479811321
1024,1536,77.58619791024918,349225,34129,44806144,31184200,1.0346092452838915,0.2276397461691936,0.8246069515583054,1024,0,1,1,850.746099890875,0.7158191595285193,0.1180658099212977,701.5311479811321
1024,2048,64.63129072641146,415049,35031,59232256,44742704,1.0984931047846513,0.259972353804779,0.9828751902797161,1024,0,1,1,713.7540502792461,0.6987873136994234,0.1516597636523588,701.5311479811321
1024,256,355.3662439767003,488246,65136,32743424,29831360,0.7576154682057062,0.1867503374313761,0.3368550617214119,1024,0,1,1,2082.5904897974106,0.8874581263658061,0.0728701501840759,701.5311479811321
1024,512,221.70982408477556,363684,48217,32743424,29982328,0.7476423945400245,0.1701433659151555,0.37360819866245915,1024,0,1,1,1877.7188254772186,0.8788524593073175,0.0706405873516227,701.5311479811321
128,1024,88.61402960596912,404485,76186,42577920,30482920,0.9309820489090771,0.1041438620030098,0.59678178520027,128,0,1,1,1175.5237263913978,0.7699624856268243,0.0908894645493594,701.5311479811321
128,128,713.781051272512,417490,72329,33267712,29782088,0.6156848424058342,0.1981624214506293,0.2290488468731075,128,0,1,1,3062.8014834310807,0.8481074073789151,0.0848105466847085,701.5311479811321
128,1536,56.09579386501677,365861,40565,58445824,45159344,1.133412163856322,0.2028791283579445,0.9547845007827586,128,0,1,1,734.7533892789395,0.6941885752238033,0.1530935012173556,701.5311479811321
128,2048,35.85967323932152,269191,52340,45068288,31211448,1.1819430014922172,0.3088053965932581,1.0,128,0,1,1,530.634247058928,0.6932843183699751,0.1626665378169188,701.5311479811321
128,256,306.683195688877,412709,54278,33267712,29966840,0.5350255744065243,0.0387261827692628,0.25791901715156573,128,0,1,1,2719.96673889649,0.8948875778401418,0.0521062429504099,701.5311479811321
128,512,193.83976664534245,415556,52853,33529856,30204248,0.7045111027169277,0.0590596675717659,0.35712956561331033,128,0,1,1,1964.3603205362447,0.9014681986914486,0.0620542335072813,701.5311479811321
1536,1024,97.375129670711,421056,35050,39432192,30167064,0.9527464552539562,0.092284107213798,0.6304697819866011,1536,0,1,1,1112.7117714835083,0.6998920507779189,0.090906993617127,701.5311479811321
1536,128,1249.4554815892443,446274,69083,33267712,29929656,0.7720684924307916,0.2962146321992593,0.22472065553313547,1536,0,1,1,3121.7920146983997,0.9010031099900608,0.0577458733399505,701.5311479811321
1536,1536,62.99902229153436,336697,63453,57397248,45690264,1.1156044681599295,0.2201018916016913,0.9151756443109266,1536,0,1,1,766.5535597916221,0.7281347333846993,0.1309958738845798,701.5311479811321
1536,2048,36.23893023677663,303689,43271,59232256,44987296,1.1869872070160281,0.3151886785204505,1.0,1536,0,1,1,529.3092956219327,0.7259288798886402,0.1382242254126232,701.5311479811321
1536,256,455.0505376019861,467314,67432,38510592,30367208,0.733884271620609,0.2369973524817714,0.30224736767175336,1536,0,1,1,2321.049653418351,0.8898149071270317,0.0478543089455581,701.5311479811321
1536,512,207.920883094892,372584,45116,34316288,29938576,0.8158257494596135,0.1831782955833956,0.3986038140478451,1536,0,1,1,1759.9709868730108,0.9055434065916844,0.0445198159399643,701.5311479811321
2048,1024,109.98203251818846,522566,43227,49131520,30967352,0.9423947970603306,0.0846885586629641,0.6162817344054877,2048,0,1,1,1138.3286390239725,0.720585075826266,0.1231095627987061,701.5311479811321
2048,128,399.6479583939028,424257,100036,32219136,29854688,0.7722451050853815,0.1923718759479459,0.31951161978802844,2048,0,1,1,2195.6357907939137,0.8607698359681762,0.0801509014202019,701.5311479811321
2048,1536,77.96538779267466,338810,54089,39817216,15639976,1.1380419350045388,0.1704114804662805,1.0,2048,0,1,1,664.5772424024212,0.7008742866984174,0.1689177145080668,701.5311479811321
2048,2048,35.46125079194648,305440,36109,44806144,31495016,1.1874476748306118,0.265882374561501,1.0,2048,0,1,1,542.5190527957316,0.7091204580299825,0.1466915536127633,701.5311479811321
2048,256,282.6883406888869,460312,85228,33005568,29778760,0.7952186611313153,0.2316199389798116,0.3581960365610081,2048,0,1,1,1958.5117543913611,0.8505516503871,0.0760526775690345,701.5311479811321
2048,512,381.1706659688438,465261,68843,35627008,29863288,0.7771094305013497,0.2334997521348291,0.3560032572397172,2048,0,1,1,1970.5750824317638,0.8968129041572213,0.0425179790821399,701.5311479811321
256,1024,122.3057450537396,403257,49907,45985792,30349736,0.9722248430030767,0.093596156519765,0.6158248791449917,256,0,1,1,1139.1731184279768,0.7675643220342437,0.0994759453265231,701.5311479811321
256,128,599.763557993841,475045,91077,38510592,29831824,0.5828131353968786,0.0858282440227183,0.23382339062396512,256,0,1,1,3000.260778483598,0.8490874457593087,0.061921655237444,701.5311479811321
256,1536,58.11519983401052,310255,38906,44806144,31210920,1.1493444633372463,0.2189785155753575,1.0,256,0,1,1,671.8945470454499,0.7505402631730271,0.1053788003800466,701.5311479811321
256,2048,38.99663753391115,345103,73144,59232256,46231784,1.1875264094258005,0.2943287813885297,1.0,256,0,1,1,561.3023092694025,0.6596024107795124,0.1507115765580249,701.5311479811321
256,256,421.6723467840903,440864,38158,33529856,29752272,0.5821550442001774,0.0808325431668372,0.26637590469566874,256,0,1,1,2633.613384748981,0.8743779128088797,0.0613171891808072,701.5311479811321
256,512,164.69307687973486,384511,27693,32481280,29745448,0.7009947192558645,0.0720038065823217,0.3537180633345071,256,0,1,1,1983.3059735988154,0.8603630107444463,0.0854480175574402,701.5311479811321
512,1024,109.561944914512,428567,46775,44412928,30070008,0.98330450110564,0.1561260171493861,0.6473864561973067,512,0,1,1,1083.6358117558818,0.7844062582534914,0.1208310754977178,701.5311479811321
512,128,508.42627093044246,439497,92050,41394176,30306368,0.7062355613725009,0.1863870332194923,0.269367137219653,512,0,1,1,2604.3679834970917,0.8473245249669136,0.0803312385058439,701.5311479811321
512,1536,99.95724578484293,398541,52108,62377984,45595832,1.044020884783537,0.1770216449990106,0.7829149210054462,512,0,1,1,896.0502976239126,0.7216865384658925,0.1329916657018192,701.5311479811321
512,2048,67.02157351704597,357786,42589,61853696,45577176,1.1111853325766934,0.2022096976872172,1.0,512,0,1,1,697.6170085031642,0.7405719257080654,0.1049253535203197,701.5311479811321
512,256,336.6626091787828,469429,63359,32743424,30153040,0.5887849991788163,0.0917475890448506,0.28441099948339715,512,0,1,1,2466.6104660346823,0.8765272478778009,0.0642705971101599,701.5311479811321
512,512,152.33876550720566,388057,46541,33267712,30217896,0.723845228256518,0.0750817918111105,0.38256224196828015,512,0,1,1,1833.7699621681404,0.8852638718732492,0.0662827025123743,701.5311479811321
