cpu,memory,duration_std,userDiff,sysDiff,heapTotal,heapUsed,avg_cpu_util,cpu_util_std,slo_preservation,total_cpu_shares,cpu_shares_others,num_containers,arrival_rate,latency,memory_util,memory_util_std,slo_duration
1024,1024,35.6856270937726,26885,30,30380032,24722392,0.6341411139800087,0.208764245316709,1.0,1024,0,1,1,43.984158531432676,0.6727742688674823,0.0663300605497384,58.14775791666666
1024,128,51.11706072302495,29693,5574,24997888,21282864,0.46048198269869994,0.2469070805780518,0.5544120165022456,1024,0,1,1,104.88184993449028,0.8682942942004631,0.0106118311113714,58.14775791666666
1024,1536,15.5848365626249,19476,21,39161856,24257240,0.8513506165765378,0.2532334175129851,1.0,1024,0,1,1,21.799731995999586,0.5421185437140708,0.0644585460906127,58.14775791666666
1024,2048,10.573981622961378,23575,3926,39161856,24279824,1.0457909548810191,0.203811232799719,1.0,1024,0,1,1,15.379189615558538,0.5263626015657421,0.0527246537961974,58.14775791666666
1024,256,73.04272628001976,17141,11799,24473600,21370648,0.40243338752587454,0.280962847414508,0.4489253296062914,1024,0,1,1,129.5265695247412,0.8704029558341058,0.0091371659964531,58.14775791666666
1024,512,34.56771556628838,25319,3616,24735744,20919720,0.46019321559829685,0.2419420706322281,0.8877770892898876,1024,0,1,1,65.49815107661509,0.8747646076534361,0.0132915562475956,58.14775791666666
128,1024,12.284105213884011,20355,7263,25268224,15004160,0.7256819266160567,0.2678904224247407,1.0,128,0,1,1,36.34433231612306,0.6628241887091024,0.0633568530712515,58.14775791666666
128,128,143.45064720933712,17188,11194,24735744,20891760,0.5424592972874819,0.3605619507606159,0.37752201113119815,128,0,1,1,154.02481498346037,0.8658188534441911,0.0135377028698913,58.14775791666666
128,1536,8.784624040090236,18310,8515,38375424,25240032,0.9684236383791662,0.1933999498058325,1.0,128,0,1,1,18.275266038172344,0.6193199396557156,0.1081558067660979,58.14775791666666
128,2048,10.106413262911088,20454,102,39686144,24201496,1.024921754317583,0.1763502174062656,1.0,128,0,1,1,15.827345302224318,0.5201405810018109,0.0545148655945711,58.14775791666666
128,256,70.1354203594077,23490,4563,24735744,21586912,0.45841570801930825,0.3032061739729084,0.47895212040293383,128,0,1,1,121.40620208080088,0.871720378191473,0.0133817722321475,58.14775791666666
128,512,24.39157208050951,29171,31,24735744,21322384,0.5658241268276475,0.1977057007403264,1.0,128,0,1,1,52.144503069713714,0.8709806233600137,0.0133522735922689,58.14775791666666
1536,1024,16.03980239047232,23248,3866,25006080,14968608,0.8077145085849183,0.1753168511144051,1.0,1536,0,1,1,23.04931458369854,0.6642721436494827,0.0539338029272404,58.14775791666666
1536,128,44.62529808407685,14915,12446,24473600,21282184,0.5308075717715726,0.278084838761798,0.6374755633629186,1536,0,1,1,91.21566575809716,0.8653201009818545,0.0116974094061464,58.14775791666666
1536,1536,15.17161556336502,27772,33,39161856,24293280,0.8854679423246137,0.1970693628769521,1.0,1536,0,1,1,21.912897413911022,0.5134304672505915,0.0537359094712468,58.14775791666666
1536,2048,11.450721597396145,14770,4566,39161856,24098392,1.0197431077402648,0.2416692597551159,1.0,1536,0,1,1,16.602430916466822,0.5247825469827883,0.0521969353462901,58.14775791666666
1536,256,236.39186129086383,26961,3873,24473600,20941016,0.526307239100272,0.3148956783618468,0.4320934130324367,1536,0,1,1,134.57219240762086,0.8659140114755891,0.0121480712728092,58.14775791666666
1536,512,24.897834842177023,26740,4965,24473600,21049592,0.6747567452448044,0.3481520814399095,1.0,1536,0,1,1,39.17146990679384,0.8719892443865757,0.009460415003102,58.14775791666666
2048,1024,26.39375740192491,29402,1004,25268224,15053744,0.7853796561625458,0.2645340891928852,1.0,2048,0,1,1,32.80143980225529,0.659554197215421,0.0457595682318046,58.14775791666666
2048,128,55.70574028379692,24624,6544,24473600,21301968,0.44192470126743,0.2445889257984685,0.5145274404823809,2048,0,1,1,113.01196659628465,0.862320971331281,0.0111608608724552,58.14775791666666
2048,1536,20.36528189355458,68423,11279,34312192,14685008,0.8948543659010681,0.2024364650267382,1.0,2048,0,1,1,26.792425839217373,0.5044691877319047,0.0511360697276451,58.14775791666666
2048,2048,10.76790970368114,10495,8392,39686144,24050904,1.0169308197324107,0.2052009901370865,1.0,2048,0,1,1,16.389678959988732,0.525570677298693,0.0509408848952078,58.14775791666666
2048,256,142.41000579347687,26144,4998,24735744,21236888,0.6376509174822661,0.3558832666151748,0.5477685337726206,2048,0,1,1,106.1538849560933,0.8535608505313418,0.0253654363530633,58.14775791666666
2048,512,22.761865395231933,17047,12096,24211456,21276264,0.6834604083406838,0.3505335388477255,1.0,2048,0,1,1,37.206245620802946,0.8752389814429644,0.0129113601251974,58.14775791666666
256,1024,10.15232692137694,21941,4355,25006080,15009112,0.7677151016997296,0.2622111930031454,1.0,256,0,1,1,29.36215314840897,0.6588688658935654,0.038924117369409,58.14775791666666
256,128,82.73020499516313,19489,8524,24735744,20880944,0.42739274762798773,0.2835095661262328,0.43161154245648314,256,0,1,1,134.72243486752757,0.8644458851368089,0.0123057109197651,58.14775791666666
256,1536,17.48208986235434,26678,0,38899712,24204888,0.885145936190199,0.1640723339398211,1.0,256,0,1,1,28.052096073514775,0.5123084791354422,0.0562466558191688,58.14775791666666
256,2048,9.257609249913298,16438,4089,39161856,24254568,1.0550798188158443,0.1469583040332933,1.0,256,0,1,1,15.323212473341668,0.5212107636895826,0.0515852951160459,58.14775791666666
256,256,68.4972658136621,29088,3226,24735744,20936128,0.4308518169403668,0.3226610149419403,0.48367341014293347,256,0,1,1,120.22111759148191,0.8685162854809312,0.0112644600437545,58.14775791666666
256,512,26.1566678740521,27625,741,24473600,21236104,0.5414964226033712,0.3228534680922014,1.0,256,0,1,1,56.142597940031045,0.873300269673622,0.0173047503998268,58.14775791666666
512,1024,19.775342033714097,17710,11522,25268224,15008264,0.7955819211951747,0.2196872558635894,1.0,512,0,1,1,30.46501764447237,0.6572484643042249,0.0426362455256353,58.14775791666666
512,128,352.4268408720475,18694,12266,24473600,21591816,0.432215393946131,0.3087392032155217,0.23561370587293126,512,0,1,1,246.79276488281334,0.8635491928902213,0.0119533982178854,58.14775791666666
512,1536,17.93903932645526,18772,3741,39424000,24292496,0.9375573517000702,0.1205969236951819,1.0,512,0,1,1,24.565377613070414,0.5215353285044415,0.056375334390034,58.14775791666666
512,2048,11.675053963415602,26250,400,39161856,24309544,1.019777297684866,0.1912974613293885,1.0,512,0,1,1,17.356112460556897,0.5191551108084965,0.0531332961864213,58.14775791666666
512,256,47.36132081634417,28602,3249,24473600,20969424,0.36926500671781404,0.2468597753996344,0.4934308960160483,512,0,1,1,117.8437718151631,0.8677595221153261,0.0108959978436948,58.14775791666666
512,512,21.864078747885294,31526,36,24473600,21332624,0.6093792831240266,0.2762624690664931,1.0,512,0,1,1,43.56462714299386,0.8720002598726415,0.0103016558342565,58.14775791666666
