cpu,memory,duration_std,userDiff,sysDiff,heapTotal,heapUsed,avg_cpu_util,cpu_util_std,slo_preservation,total_cpu_shares,cpu_shares_others,num_containers,arrival_rate,latency,memory_util,memory_util_std,slo_duration
1024,1024,152.81553252087818,595130,36142,44150784,31425544,0.974213637345992,0.1741953973105412,0.6031161440010244,1024,0,1,1,1518.597908986511,0.8182474413007412,0.0989643199006791,915.8909151559632
1024,128,697.6072111181587,577812,72989,33792000,29731832,0.6574432560774448,0.1002434045521542,0.24251340955009207,1024,0,1,1,3776.6609147721474,0.8516443894774186,0.074374824867048,915.8909151559632
1024,1536,81.1085990043622,538782,65536,58183680,44377256,1.058916955777641,0.1347913476575679,0.8454315012308962,1024,0,1,1,1083.3413633422488,0.6779319039924155,0.1097290870770199,915.8909151559632
1024,2048,40.92661206527748,382598,63891,69988352,59547944,1.1259627770771752,0.1533670401552073,1.0,1024,0,1,1,886.8171891636578,0.581822308494634,0.1722520900162246,915.8909151559632
1024,256,640.3726017456701,624593,82991,32743424,29873408,0.7107462975881793,0.1449494119526141,0.29329215052448576,1024,0,1,1,3122.793820148621,0.907336704525993,0.0454327183405331,915.8909151559632
1024,512,274.455332543724,562633,67963,32481280,29654200,0.8096374320636259,0.1877561767233077,0.38544314998057394,1024,0,1,1,2376.2023406100834,0.8710620317636231,0.0729893394349413,915.8909151559632
128,1024,144.08399711883052,556300,58538,66711552,58886848,0.9784662501204008,0.1273427663936471,0.622401613061805,128,0,1,1,1471.5432864166025,0.7965032026201089,0.1175486479205173,915.8909151559632
128,128,898.9060393089663,599706,78491,32481280,29815280,0.7489443456107722,0.265685206013304,0.27424408469507555,128,0,1,1,3339.692508497739,0.9158198609846064,0.0142401876945281,915.8909151559632
128,1536,87.94530379379887,483898,64826,70774784,59593504,1.0658976542900573,0.1222009738112415,0.7869598171784242,128,0,1,1,1163.8344108086867,0.6987120318367783,0.1272598667828404,915.8909151559632
128,2048,59.8578321743465,487132,76215,56610816,44931224,1.1058953969763397,0.2156889341064395,0.9296845222255953,128,0,1,1,985.1631314280555,0.6323466899104883,0.1315816678289992,915.8909151559632
128,256,615.3183282265927,590897,74723,32743424,29603528,0.504243559192113,0.062345062844316,0.20928295405323408,128,0,1,1,4376.32830298732,0.8798054668199559,0.0799026829361727,915.8909151559632
128,512,193.88464035985615,609028,75145,32481280,29568872,0.7201081822889476,0.0498681720476025,0.3515938292249776,128,0,1,1,2604.968685528049,0.8907958322869035,0.069710139768241,915.8909151559632
1536,1024,130.89543630172,567911,56089,54120448,44539984,0.9545492873586808,0.074318880930168,0.61374959962458,1536,0,1,1,1492.2875969551717,0.7645963917285913,0.0900799080762045,915.8909151559632
1536,128,654.5226834467499,631433,84066,34054144,29594744,0.7667274652198555,0.212342073501184,0.2778418429091635,1536,0,1,1,3296.44702024022,0.8875690190521957,0.0439925087228252,915.8909151559632
1536,1536,84.70003926057352,383805,64888,70512640,58791344,1.0736182149413336,0.2704869983459673,0.8025509953829704,1536,0,1,1,1141.224570681528,0.7121131034215313,0.1124402903517625,915.8909151559632
1536,2048,60.78919800995188,509922,67372,61067264,44466584,1.0968026760093283,0.1302830463436443,0.9210608013613655,1536,0,1,1,994.3870304785949,0.703429924538785,0.1178903969766244,915.8909151559632
1536,256,603.057120176258,633500,51293,32743424,29771104,0.6765452539784853,0.191341464574716,0.2715807035081983,1536,0,1,1,3372.444740457471,0.8843938818163307,0.0775852824564425,915.8909151559632
1536,512,285.7065142715932,514293,84422,33267712,29480384,0.7385656434687756,0.098119052669242,0.36801530157324114,1536,0,1,1,2488.7305262596146,0.8943037130862934,0.0677358004048566,915.8909151559632
2048,1024,118.08802085941063,577182,77564,50442240,29945792,0.9715126140244158,0.0982674076236938,0.6244680917759352,2048,0,1,1,1466.6736815186919,0.8143905000519055,0.0735557800256027,915.8909151559632
2048,128,656.4904851371532,646819,112268,31956992,29559512,0.7701774655719573,0.2217896266098798,0.28632894289324534,2048,0,1,1,3198.7367602493587,0.9184658349314332,0.0114021945572382,915.8909151559632
2048,1536,87.00631038613949,594991,57376,62640128,44931640,1.0600134077461563,0.1557346826467569,0.8021270464788894,2048,0,1,1,1141.827743094395,0.6927532600297038,0.1246745385021806,915.8909151559632
2048,2048,51.15815604134971,439013,62031,70250496,59470256,1.1215317179645383,0.257289056216774,0.9695677715165417,2048,0,1,1,944.6383657362906,0.7140641419311723,0.1593282341190062,915.8909151559632
2048,256,448.8337281300176,580460,81492,32481280,29583640,0.7402597856789813,0.2513136760223092,0.3026195967225741,2048,0,1,1,3026.541985632227,0.8732882856571044,0.08042823402388,915.8909151559632
2048,512,236.50282985521625,555688,58617,32481280,30034256,0.7780740397026177,0.1409134115643271,0.3735559429313478,2048,0,1,1,2451.81727793924,0.8871477693014391,0.0640356044541424,915.8909151559632
256,1024,144.4696053227505,617740,52722,40480768,30445784,0.9693315899093541,0.2189152495767081,0.590987085398179,256,0,1,1,1549.7646865478953,0.8197454485020097,0.057988729638112,915.8909151559632
256,128,1171.4470742175497,690827,51900,32743424,29643632,0.715427797318405,0.2442899497393822,0.2286361552866054,256,0,1,1,4005.888368827117,0.8968831218802943,0.0536756519302644,915.8909151559632
256,1536,66.5969116849357,500042,66458,61329408,44387096,1.1502170700882441,0.2109907179394009,0.9644421197606037,256,0,1,1,949.658767892995,0.6410400960850554,0.1696676322005177,915.8909151559632
256,2048,27.39991309649155,340191,61816,69988352,58828472,1.201273826154642,0.2093719504846783,1.0,256,0,1,1,734.9662917004953,0.5822433592980044,0.2171364291665176,915.8909151559632
256,256,360.5992599411634,586917,36030,32481280,29626480,0.552163383386863,0.0393767147820267,0.2548324582344044,256,0,1,1,3594.0904918536417,0.8844092169826009,0.0584680508336584,915.8909151559632
256,512,173.30064065485826,540786,78503,32219136,29777296,0.7156850569041401,0.0553576196789343,0.3543479852843512,256,0,1,1,2584.721666812906,0.8934744312037974,0.0794895273467739,915.8909151559632
512,1024,142.4459566178788,612547,59709,46510080,29768008,0.9671309300675054,0.1462333322546926,0.5902812777845889,512,0,1,1,1551.6177619480568,0.7478776563476097,0.1194962627689001,915.8909151559632
512,128,951.9883862515794,752205,115721,32743424,30210024,0.6049620589215764,0.116169715191068,0.24736854359177338,512,0,1,1,3702.5359079909404,0.912088984246644,0.0087728564654271,915.8909151559632
512,1536,86.64109825054341,511033,82560,74969088,60207736,1.0509329262518685,0.1379728932429764,0.836786480532412,512,0,1,1,1094.5335954438704,0.6398296844262177,0.1159307894320981,915.8909151559632
512,2048,62.611994659418414,456085,55480,73396224,59740824,1.1152999059800746,0.1811929447580902,0.9355422638306026,512,0,1,1,978.9946970496272,0.7119568364345866,0.1515827786756908,915.8909151559632
512,256,674.5495511884659,594940,78592,32743424,29522552,0.6755314312994559,0.1483580719110913,0.26907933281736623,512,0,1,1,3403.7951022333295,0.8953488695168395,0.0580841164708253,915.8909151559632
512,512,295.2458746403042,678884,72722,32481280,30091960,0.7246468454077236,0.0681366911506913,0.3459468278901028,512,0,1,1,2647.49042719049,0.8953784733078767,0.0588509642950713,915.8909151559632
