cpu,memory,duration_std,userDiff,sysDiff,heapTotal,heapUsed,avg_cpu_util,cpu_util_std,slo_preservation,total_cpu_shares,cpu_shares_others,num_containers,arrival_rate,latency,memory_util,memory_util_std,slo_duration
1024,1024,152.81553252087818,595130,36142,44150784,31425544,0.9497237171543377,0.1741953973105412,1.0,1024,0,1,1,778.8785126966277,0.8182474413007412,0.0989643199006791,915.8909151559632
1024,128,697.6072111181587,577812,72989,33792000,29731832,0.48969494887537435,0.1002434045521542,0.3612710012413171,1024,0,1,1,2535.1907903180368,0.8516443894774186,0.074374824867048,915.8909151559632
1024,1536,81.1085990043622,538782,65536,58183680,44377256,1.125210960157773,0.1347913476575679,1.0,1024,0,1,1,509.7570940730622,0.6779319039924155,0.1097290870770199,915.8909151559632
1024,2048,40.92661206527748,382598,63891,69988352,59547944,1.2882320655771369,0.1533670401552073,1.0,1024,0,1,1,387.55561662841444,0.581822308494634,0.1722520900162246,915.8909151559632
1024,256,640.3726017456701,624593,82991,32743424,29873408,0.5512850544920511,0.1449494119526141,0.45497972970846773,1024,0,1,1,2013.0367472476814,0.907336704525993,0.0454327183405331,915.8909151559632
1024,512,274.455332543724,562633,67963,32481280,29654200,0.6801603594333637,0.1877561767233077,0.647606301412489,1024,0,1,1,1414.2711600525206,0.8710620317636231,0.0729893394349413,915.8909151559632
128,1024,144.08399711883052,556300,58538,66711552,58886848,0.9578403554808886,0.1273427663936471,1.0,128,0,1,1,751.6155657416507,0.7965032026201089,0.1175486479205173,915.8909151559632
128,128,898.9060393089663,599706,78491,32481280,29815280,0.59864990257081,0.265685206013304,0.4384202792784035,128,0,1,1,2089.07059833872,0.9158198609846064,0.0142401876945281,915.8909151559632
128,1536,87.94530379379887,483898,64826,70774784,59593504,1.141093006762494,0.1222009738112415,1.0,128,0,1,1,543.5702265771718,0.6987120318367783,0.1272598667828404,915.8909151559632
128,2048,59.8578321743465,487132,76215,56610816,44931224,1.2368747384103054,0.2156889341064395,1.0,128,0,1,1,440.4194452695138,0.6323466899104883,0.1315816678289992,915.8909151559632
128,256,615.3183282265927,590897,74723,32743424,29603528,0.33711608750938166,0.062345062844316,0.279835604706066,128,0,1,1,3272.9606231415673,0.8798054668199559,0.0799026829361727,915.8909151559632
128,512,193.88464035985615,609028,75145,32481280,29568872,0.5626320696203706,0.0498681720476025,0.5494117930275778,128,0,1,1,1667.039053000433,0.8907958322869035,0.069710139768241,915.8909151559632
1536,1024,130.89543630172,567911,56089,54120448,44539984,0.9130504918276092,0.074318880930168,1.0,1536,0,1,1,780.0565658512928,0.7645963917285913,0.0900799080762045,915.8909151559632
1536,128,654.5226834467499,631433,84066,34054144,29594744,0.6217015652234078,0.212342073501184,0.4505765515303466,1536,0,1,1,2032.7087862100552,0.8875690190521957,0.0439925087228252,915.8909151559632
1536,1536,84.70003926057352,383805,64888,70512640,58791344,1.1589370951128353,0.2704869983459673,1.0,1536,0,1,1,528.6048274703819,0.7121131034215313,0.1124402903517625,915.8909151559632
1536,2048,60.78919800995188,509922,67372,61067264,44466584,1.2143555421125853,0.1302830463436443,1.0,1536,0,1,1,449.0638524696487,0.703429924538785,0.1178903969766244,915.8909151559632
1536,256,603.057120176258,633500,51293,32743424,29771104,0.5111963639197128,0.191341464574716,0.4104117716523469,1536,0,1,1,2231.6389987268676,0.8843938818163307,0.0775852824564425,915.8909151559632
1536,512,285.7065142715932,514293,84422,33267712,29480384,0.5854966924317269,0.098119052669242,0.5834870434086382,1536,0,1,1,1569.6850949859563,0.8943037130862934,0.0677358004048566,915.8909151559632
2048,1024,118.08802085941063,577182,77564,50442240,29945792,0.9446033342478729,0.0982674076236938,1.0,2048,0,1,1,754.2276903921729,0.8143905000519055,0.0735557800256027,915.8909151559632
2048,128,656.4904851371532,646819,112268,31956992,29559512,0.6262508971915579,0.2217896266098798,0.46564270027205057,2048,0,1,1,1966.9392747290062,0.9184658349314332,0.0114021945572382,915.8909151559632
2048,1536,87.00631038613949,594991,57376,62640128,44931640,1.1276899229004103,0.1557346826467569,1.0,2048,0,1,1,536.6513845860987,0.6927532600297038,0.1246745385021806,915.8909151559632
2048,2048,51.15815604134971,439013,62031,70250496,59470256,1.2766900534711216,0.257289056216774,1.0,2048,0,1,1,414.91742114657274,0.7140641419311723,0.1593282341190062,915.8909151559632
2048,256,448.8337281300176,580460,81492,32481280,29583640,0.5876289232204677,0.2513136760223092,0.4804476244900725,2048,0,1,1,1906.3283248159514,0.8732882856571044,0.08042823402388,915.8909151559632
2048,512,236.50282985521625,555688,58617,32481280,30034256,0.6367603807298245,0.1409134115643271,0.6114215673762013,2048,0,1,1,1497.96959090981,0.8871477693014391,0.0640356044541424,915.8909151559632
256,1024,144.4696053227505,617740,52722,40480768,30445784,0.9404883087705216,0.2189152495767081,1.0,256,0,1,1,798.6467527494738,0.8197454485020097,0.057988729638112,915.8909151559632
256,128,1171.4470742175497,690827,51900,32743424,29643632,0.5569385635349429,0.2442899497393822,0.35597244718407955,256,0,1,1,2572.9264228204156,0.8968831218802943,0.0536756519302644,915.8909151559632
256,1536,66.5969116849357,500042,66458,61329408,44387096,1.3535422160194326,0.2109907179394009,1.0,256,0,1,1,403.5019050982487,0.6410400960850554,0.1696676322005177,915.8909151559632
256,2048,27.39991309649155,340191,61816,69988352,58828472,1.5039870552523324,0.2093719504846783,1.0,256,0,1,1,293.51840703762383,0.5822433592980044,0.2171364291665176,915.8909151559632
256,256,360.5992599411634,586917,36030,32481280,29626480,0.38137133503261955,0.0393767147820267,0.3520182530409035,256,0,1,1,2601.827908763411,0.8844092169826009,0.0584680508336584,915.8909151559632
256,512,173.30064065485826,540786,78503,32219136,29777296,0.5572504320310803,0.0553576196789343,0.5518085531733988,256,0,1,1,1659.7983302157263,0.8934744312037974,0.0794895273467739,915.8909151559632
512,1024,142.4459566178788,612547,59709,46510080,29768008,0.9363538498937859,0.1462333322546926,1.0,512,0,1,1,801.3089973370141,0.7478776563476097,0.1194962627689001,915.8909151559632
512,128,951.9883862515794,752205,115721,32743424,30210024,0.4336527639197505,0.116169715191068,0.3546405962271492,512,0,1,1,2582.5890349263063,0.912088984246644,0.0087728564654271,915.8909151559632
512,1536,86.64109825054341,511033,82560,74969088,60207736,1.1073326167574653,0.1379728932429764,1.0,512,0,1,1,519.3928982734675,0.6398296844262177,0.1159307894320981,915.8909151559632
512,2048,62.611994659418414,456085,55480,73396224,59740824,1.260653088565124,0.1811929447580902,1.0,512,0,1,1,433.0583502624068,0.7119568364345866,0.1515827786756908,915.8909151559632
512,256,674.5495511884659,594940,78592,32743424,29522552,0.5100396092919214,0.1483580719110913,0.40632045059606653,512,0,1,1,2254.1098136024502,0.8953488695168395,0.0580841164708253,915.8909151559632
512,512,295.2458746403042,678884,72722,32481280,30091960,0.5681930865959941,0.0681366911506913,0.5425114238270734,512,0,1,1,1688.2426340351226,0.8953784733078767,0.0588509642950713,915.8909151559632
