cpu,memory,duration_std,userDiff,sysDiff,heapTotal,heapUsed,avg_cpu_util,cpu_util_std,slo_preservation,total_cpu_shares,cpu_shares_others,num_containers,arrival_rate,latency,memory_util,memory_util_std,slo_duration
1024,1024,559.6278110689823,2113587,112080,57864192,48769392,0.9507540073986813,0.1406451239072369,0.7098305201865417,1024,0,1,1,625.3161987010567,0.8703295987035549,0.0639920619775726,443.8685226050419
1024,128,621.4990337199387,2022874,169715,50913280,46609752,1.085113877671089,0.1212228789721251,0.6541569844022815,1024,0,1,1,678.5351730374246,0.9299957550416732,0.0598747178780773,443.8685226050419
1024,1536,341.86537775505053,1714957,168515,67432448,47498488,1.2348113866975838,0.1667270086412402,1.0,1024,0,1,1,359.4886386066509,0.8121117481572918,0.0618206149464095,443.8685226050419
1024,2048,201.83133740972343,1520858,132659,55627776,32663120,1.3810212531286508,0.205588933964073,1.0,1024,0,1,1,212.67883470245397,0.7734513253048018,0.0829342418360636,443.8685226050419
1024,256,540.6781499164646,1949288,139272,50126848,46796608,0.942922140349569,0.1797014597682355,0.6261678108349699,1024,0,1,1,708.8651235731215,0.9452457083673904,0.0222845247320462,443.8685226050419
1024,512,644.8507700314582,2204856,205347,49864704,46706120,1.0896306102594473,0.1280940079359604,0.6726248033770672,1024,0,1,1,659.9050769113749,0.9192450798434668,0.0559692702742012,443.8685226050419
128,1024,1135.2554902041202,2216200,167008,57077760,50489136,0.9232744919470419,0.1735591224358438,0.48296294128458456,128,0,1,1,919.0529638245963,0.8707973155755667,0.0591337924357461,443.8685226050419
128,128,831.5616280476469,2092066,143977,49602560,46776480,0.9503938021664312,0.1639486327834733,0.48949176944786166,128,0,1,1,906.7946599096406,0.9369232485776544,0.0380196027727657,443.8685226050419
128,1536,345.1551263256894,1940811,99018,67170304,47126768,1.1443849076766401,0.1915055831636224,1.0,128,0,1,1,401.97225251354797,0.7976096673688748,0.0519499709695215,443.8685226050419
128,2048,234.08394710005075,1712155,137936,66908160,50353864,1.35707457555233,0.2736546273933688,1.0,128,0,1,1,232.49402820817727,0.8006654884757533,0.0814592593662436,443.8685226050419
128,256,570.0466696072825,1912953,137093,50913280,46959496,1.0154011625934598,0.1589212438469465,0.681304836454057,128,0,1,1,651.4976833501073,0.9387911243712552,0.0348290945547728,443.8685226050419
128,512,602.7439061141711,2017487,121168,49864704,46744488,1.0375104851351755,0.1826769308612852,0.6693119893840532,128,0,1,1,663.1713306279186,0.9091015223798126,0.0843081294000664,443.8685226050419
1536,1024,600.343541173213,2155486,198493,58650624,46953848,1.0962623483750835,0.1020054933424872,0.7443004226377556,1536,0,1,1,596.3566714526356,0.857893907275427,0.0798586069488514,443.8685226050419
1536,128,887.0831058722206,2153833,209985,50388992,46820776,0.9193324663460143,0.1371601151805218,0.4455638195865781,1536,0,1,1,996.1951646273498,0.9193869087489792,0.0610717449982801,443.8685226050419
1536,1536,392.7228539839506,1989232,103806,63500288,51261792,1.230884492382015,0.2019364043905551,1.0,1536,0,1,1,375.979844425196,0.8095887611246324,0.0541527239479289,443.8685226050419
1536,2048,221.47249384717293,1667400,105759,66646016,49280728,1.3920348837735268,0.2322370143630779,1.0,1536,0,1,1,209.31865302180705,0.7894015412762803,0.0692167372379966,443.8685226050419
1536,256,401.3814264735543,1948062,131462,51175424,46621056,1.152254009670852,0.1976352792190717,0.9434598720144316,1536,0,1,1,470.46889409012647,0.9360458451797204,0.0404078174538323,443.8685226050419
1536,512,620.7848232718518,1936866,191394,49864704,47228392,1.0167768494077039,0.1541654475149341,0.6587113195344275,1536,0,1,1,673.8437756296112,0.9459105124328978,0.0182064169812513,443.8685226050419
2048,1024,607.7904962397374,2007212,159673,57077760,46846952,1.0648731689102524,0.1689500608158707,0.7284878035863759,2048,0,1,1,609.3012407618338,0.85959708732089,0.0711480612504497,443.8685226050419
2048,128,1054.012312326329,2168294,234139,49864704,46927072,1.0087254158008105,0.2503061851381539,0.4471154597762415,2048,0,1,1,992.7380342141948,0.9379813185451924,0.0404111599885538,443.8685226050419
2048,1536,365.31120533115615,1696101,122060,75296768,48904800,1.2410537627661287,0.1499465298967291,1.0,2048,0,1,1,355.2752499222888,0.7971336895481287,0.0705295530751182,443.8685226050419
2048,2048,217.26032568358255,1623253,135352,54317056,32680144,1.359877751561418,0.1748738827180214,1.0,2048,0,1,1,219.15676207500678,0.8037554610879276,0.0859081431756035,443.8685226050419
2048,256,393.3131052996195,2011100,186860,50913280,46765672,1.230539834678849,0.2317146984262711,1.0,2048,0,1,1,415.9062068540059,0.94636116324589,0.0162526317465466,443.8685226050419
2048,512,416.3075873553026,1807802,134059,49602560,46977984,1.2119228296969524,0.2253935121492803,0.9522617399930862,2048,0,1,1,466.1202944142905,0.9485504275060382,0.0121502418087922,443.8685226050419
256,1024,583.2623250426348,2131898,179214,53669888,47374568,1.0817714088379704,0.1653623553455012,0.7584617327434274,256,0,1,1,585.2220401410731,0.8744534523859425,0.0687684576093912,443.8685226050419
256,128,622.9731125514046,2063016,180416,50913280,46601032,0.9699685040504168,0.1515402060407588,0.6376920817851494,256,0,1,1,696.0546246120548,0.9413868993044344,0.0410298523474388,443.8685226050419
256,1536,400.3553401628132,1972029,165459,67956736,47005072,1.2520479562218734,0.1543799320588376,1.0,256,0,1,1,363.39881093808054,0.812122780306822,0.0599718051365368,443.8685226050419
256,2048,206.8226093329213,1530117,118111,62189568,50303072,1.3711537817629393,0.2547859372360638,1.0,256,0,1,1,212.6368170370684,0.8233658782452361,0.0582081892455578,443.8685226050419
256,256,586.3469693933749,2033876,179460,49602560,46946896,1.0490391385782258,0.1395354099476767,0.6916751919944112,256,0,1,1,641.7297132273444,0.9208088584539474,0.0615420770573982,443.8685226050419
256,512,625.6320118038101,2059368,159806,50126848,46875064,1.0778131294008815,0.1589951717371865,0.6836107162542079,256,0,1,1,649.3001236686066,0.9361588738275448,0.0429997022069342,443.8685226050419
512,1024,615.2511710497179,2004361,184017,57339904,47276776,1.0713645596142696,0.1458859721833578,0.7134074162451602,512,0,1,1,622.1809761121236,0.8615683201158225,0.0717424755581188,443.8685226050419
512,128,906.7245706313424,2257283,199342,51175424,47105432,0.8566144423439457,0.1043456608622628,0.42738778499631924,512,0,1,1,1038.5615550731395,0.9288137219792754,0.0440638317578151,443.8685226050419
512,1536,397.42460192349495,1810548,184102,62189568,50076704,1.1523343814869842,0.1507837924894786,1.0,512,0,1,1,390.86295048155705,0.8053564661674872,0.043162153977115,443.8685226050419
512,2048,216.27372304594715,1660651,142716,54841344,32688992,1.3424868360411144,0.2173844957731554,1.0,512,0,1,1,223.86149500729655,0.7982860682604838,0.0845974182639688,443.8685226050419
512,256,366.5874071278048,1964539,105622,51699712,46954456,1.089503068510481,0.2021029538560962,0.9992938538531623,512,0,1,1,444.1821801400418,0.9515828255219716,0.0160758040656797,443.8685226050419
512,512,603.8134412559491,1984708,200390,50388992,46938328,1.025775680334674,0.1568069081787358,0.6530838232615286,512,0,1,1,679.6501563740218,0.9108740736049452,0.0705155696027712,443.8685226050419
