cpu,memory,duration_std,userDiff,sysDiff,heapTotal,heapUsed,avg_cpu_util,cpu_util_std,slo_preservation,total_cpu_shares,cpu_shares_others,num_containers,arrival_rate,latency,memory_util,memory_util_std,slo_duration
1024,1024,559.6278110689823,2113587,112080,57864192,48769392,0.9698586685244738,0.1406451239072369,0.4344564069120801,1024,0,1,1,1021.6641199052832,0.8703295987035549,0.0639920619775726,443.8685226050419
1024,128,621.4990337199387,2022874,169715,50913280,46609752,1.049386921639851,0.1212228789721251,0.37957147074983427,1024,0,1,1,1169.393794871333,0.9299957550416732,0.0598747178780773,443.8685226050419
1024,1536,341.86537775505053,1714957,168515,67432448,47498488,1.1287902638403502,0.1667270086412402,0.6772251185793916,1024,0,1,1,655.4224148332544,0.8121117481572918,0.0618206149464095,443.8685226050419
1024,2048,201.83133740972343,1520858,132659,55627776,32663120,1.1983782240663166,0.205588933964073,1.0,1024,0,1,1,408.4881619122701,0.7734513253048018,0.0829342418360636,443.8685226050419
1024,256,540.6781499164646,1949288,139272,50126848,46796608,0.9649531239405791,0.1797014597682355,0.3844787767644748,1024,0,1,1,1154.4682032656078,0.9452457083673904,0.0222845247320462,443.8685226050419
1024,512,644.8507700314582,2204856,205347,49864704,46706120,1.051917024326377,0.1280940079359604,0.3896066107144595,1024,0,1,1,1139.2735913568742,0.9192450798434668,0.0559692702742012,443.8685226050419
128,1024,1135.2554902041202,2216200,167008,57077760,50489136,0.9525071293153561,0.1735591224358438,0.29895268337711234,128,0,1,1,1484.7450693229812,0.8707973155755667,0.0591337924357461,443.8685226050419
128,128,831.5616280476469,2092066,143977,49602560,46776480,0.9696337394076959,0.1639486327834733,0.2996406755202538,128,0,1,1,1481.3360096534666,0.9369232485776544,0.0380196027727657,443.8685226050419
128,1536,345.1551263256894,1940811,99018,67170304,47126768,1.0819008461613273,0.1915055831636224,0.6263612200950283,128,0,1,1,708.6462385677397,0.7976096673688748,0.0519499709695215,443.8685226050419
128,2048,234.08394710005075,1712155,137936,66908160,50353864,1.1874686323947112,0.2736546273933688,1.0,128,0,1,1,442.8351846408863,0.8006654884757533,0.0814592593662436,443.8685226050419
128,256,570.0466696072825,1912953,137093,50913280,46959496,1.0091841191113908,0.1589212438469465,0.40628002796476986,128,0,1,1,1092.5186867505372,0.9387911243712552,0.0348290945547728,443.8685226050419
128,512,602.7439061141711,2017487,121168,49864704,46744488,1.022173594171283,0.1826769308612852,0.3956507726598015,128,0,1,1,1121.869469939593,0.9091015223798126,0.0843081294000664,443.8685226050419
1536,1024,600.343541173213,2155486,198493,58650624,46953848,1.0556159213466991,0.1020054933424872,0.43002227207715876,1536,0,1,1,1032.1989148631787,0.857893907275427,0.0798586069488514,443.8685226050419
1536,128,887.0831058722206,2153833,209985,50388992,46820776,0.9499856666398023,0.1371601151805218,0.2762521227143652,1536,0,1,1,1606.7515363999066,0.9193869087489792,0.0610717449982801,443.8685226050419
1536,1536,392.7228539839506,1989232,103806,63500288,51261792,1.1268185232803234,0.2019364043905551,0.6484518171680234,1536,0,1,1,684.5050177259802,0.8095887611246324,0.0541527239479289,443.8685226050419
1536,2048,221.47249384717293,1667400,105759,66646016,49280728,1.2033351426567163,0.2322370143630779,1.0,1536,0,1,1,403.5712309090353,0.7894015412762803,0.0692167372379966,443.8685226050419
1536,256,401.3814264735543,1948062,131462,51175424,46621056,1.0861082738205081,0.1976352792190717,0.533580042809427,1536,0,1,1,831.868673850633,0.9360458451797204,0.0404078174538323,443.8685226050419
1536,512,620.7848232718518,1936866,191394,49864704,47228392,1.0099990088980189,0.1541654475149341,0.3925922075825563,1536,0,1,1,1130.6096097480563,0.9459105124328978,0.0182064169812513,443.8685226050419
2048,1024,607.7904962397374,2007212,159673,57077760,46846952,1.0379394016612224,0.1689500608158707,0.4260373255975994,2048,0,1,1,1041.853602809169,0.85959708732089,0.0711480612504497,443.8685226050419
2048,128,1054.012312326329,2168294,234139,49864704,46927072,1.0052170411392105,0.2503061851381539,0.267336227966693,2048,0,1,1,1660.338091776857,0.9379813185451924,0.0404111599885538,443.8685226050419
2048,1536,365.31120533115615,1696101,122060,75296768,48904800,1.1319130069832357,0.1499465298967291,0.6836960948091402,2048,0,1,1,649.2190404114444,0.7971336895481287,0.0705295530751182,443.8685226050419
2048,2048,217.26032568358255,1623253,135352,54317056,32680144,1.188755140686486,0.1748738827180214,1.0,2048,0,1,1,417.841031975034,0.8037554610879276,0.0859081431756035,443.8685226050419
2048,256,393.3131052996195,2011100,186860,50913280,46765672,1.126645195805739,0.2317146984262711,0.5862754225875018,2048,0,1,1,757.0989768700297,0.94636116324589,0.0162526317465466,443.8685226050419
2048,512,416.3075873553026,1807802,134059,49602560,46977984,1.1172172899112145,0.2253935121492803,0.526708427816601,2048,0,1,1,842.7215118714528,0.9485504275060382,0.0121502418087922,443.8685226050419
256,1024,583.2623250426348,2131898,179214,53669888,47374568,1.0475088975100868,0.1653623553455012,0.4406635673555643,256,0,1,1,1007.2730207053663,0.8744534523859425,0.0687684576093912,443.8685226050419
256,128,622.9731125514046,2063016,180416,50913280,46601032,0.9817620168635742,0.1515402060407588,0.38726733604462166,256,0,1,1,1146.1553332602741,0.9413868993044344,0.0410298523474388,443.8685226050419
256,1536,400.3553401628132,1972029,165459,67956736,47005072,1.1373783961424286,0.1543799320588376,0.6657422313657804,256,0,1,1,666.7273032904025,0.812122780306822,0.0599718051365368,443.8685226050419
256,2048,206.8226093329213,1530117,118111,62189568,50303072,1.1939048601926736,0.2547859372360638,1.0,256,0,1,1,407.0086675853421,0.8233658782452361,0.0582081892455578,443.8685226050419
256,256,586.3469693933749,2033876,179460,49602560,46946896,1.028857425825312,0.1395354099476767,0.4070211289773718,256,0,1,1,1090.5294369367214,0.9208088584539474,0.0615420770573982,443.8685226050419
256,512,625.6320118038101,2059368,159806,50126848,46875064,1.045278570727293,0.1589951717371865,0.3977852632861841,256,0,1,1,1115.8495891430334,0.9361588738275448,0.0429997022069342,443.8685226050419
512,1024,615.2511710497179,2004361,184017,57339904,47276776,1.0416303627663992,0.1458859721833578,0.41616468593168593,512,0,1,1,1066.569407760618,0.8615683201158225,0.0717424755581188,443.8685226050419
512,128,906.7245706313424,2257283,199342,51175424,47105432,0.9087341855249943,0.1043456608622628,0.2720350287155346,512,0,1,1,1631.6594399656988,0.9288137219792754,0.0440638317578151,443.8685226050419
512,1536,397.42460192349495,1810548,184102,62189568,50076704,1.086151117983235,0.1507837924894786,0.6422333082983605,512,0,1,1,691.1328280077856,0.8053564661674872,0.043162153977115,443.8685226050419
512,2048,216.27372304594715,1660651,142716,54841344,32688992,1.180732676594264,0.2173844957731554,1.0,512,0,1,1,424.2155684364827,0.7982860682604838,0.0845974182639688,443.8685226050419
512,256,366.5874071278048,1964539,105622,51699712,46954456,1.0518457013619014,0.2021029538560962,0.5788526760240357,512,0,1,1,766.8074123002089,0.9515828255219716,0.0160758040656797,443.8685226050419
512,512,603.8134412559491,1984708,200390,50388992,46938328,1.0153075828558489,0.1568069081787358,0.38785144006236105,512,0,1,1,1144.4292240701081,0.9108740736049452,0.0705155696027712,443.8685226050419
