cpu,memory,duration_std,userDiff,sysDiff,heapTotal,heapUsed,avg_cpu_util,cpu_util_std,slo_preservation,total_cpu_shares,cpu_shares_others,num_containers,arrival_rate,latency,memory_util,memory_util_std,slo_duration
1024,1024,160.0136240697998,297336,34982,40218624,29828504,0.6348901413813203,0.2511057262296826,0.930168265506746,1024,0,1,1,471.26481475620244,0.6974864081494708,0.1569483818733825,438.3555753361348
1024,128,687.3775378544123,258180,67332,32481280,29649432,0.49580202957922137,0.2146848157872149,0.35986718686490604,1024,0,1,1,1218.1037653224362,0.8895173329630304,0.0688985858542749,438.3555753361348
1024,1536,163.2962309325055,227599,35848,51097600,29982120,0.6398135902463178,0.3830465966981909,0.9759472006595685,1024,0,1,1,449.1591092631687,0.5837776437033808,0.1706884133225317,438.3555753361348
1024,2048,159.85251478520487,231200,30333,50573312,29858856,0.5996201338189519,0.3126973909751965,0.8686260078633277,1024,0,1,1,504.6539838410031,0.5628439902189635,0.1670901352654984,438.3555753361348
1024,256,199.1184413016354,282211,27832,32481280,30120848,0.5969847558276777,0.1955117532999465,0.6696420368352888,1024,0,1,1,654.6117943965885,0.8896932851470154,0.0560048780500678,438.3555753361348
1024,512,129.0198168907425,281213,39644,33005568,29748752,0.5640577579217572,0.1477150701124608,0.7200068678347064,1024,0,1,1,608.8213806271208,0.8773856009403485,0.0540130996102246,438.3555753361348
128,1024,130.41723947973392,326391,15941,39694336,30225056,0.6333267215355559,0.2530157785810253,0.8919193447500552,128,0,1,1,491.47445664941404,0.7221891335281728,0.1396760449890074,438.3555753361348
128,128,547.3892844813029,240561,37177,32481280,29992880,0.4423272298301438,0.1711139963392985,0.37977218567434357,128,0,1,1,1154.2592951028455,0.8870269734235375,0.0693082337370596,438.3555753361348
128,1536,154.70537282504085,194820,33529,47951872,30210816,0.6107718520170057,0.3429184781025519,0.97807830591707,128,0,1,1,448.18045005621707,0.6201824961333148,0.1726714324219763,438.3555753361348
128,2048,126.50540054426654,255491,47508,50311168,29946360,0.5587281417716572,0.3308583514140407,0.886255414674033,128,0,1,1,494.61539876443305,0.5937960756947365,0.167200943002302,438.3555753361348
128,256,198.72708953462757,237551,28795,31956992,29742312,0.5992871131160299,0.1704506225953259,0.6386578033618746,128,0,1,1,686.3700295035069,0.885137231094417,0.056458940045094,438.3555753361348
128,512,136.51637073233118,209769,51810,33005568,30160800,0.5902293804622216,0.1823215831166117,0.7555393091868136,128,0,1,1,580.188972308981,0.8607655285551216,0.0742546172538927,438.3555753361348
1536,1024,120.70635551606198,245946,31054,39694336,30764320,0.5532865512447073,0.1901817653697278,0.854753950398089,1536,0,1,1,512.8441642556635,0.6607158042217324,0.1398800070054429,438.3555753361348
1536,128,180.341372394062,242882,55481,33267712,30032240,0.5743745691811747,0.1807389226468779,0.7010378246130176,1536,0,1,1,625.2951837200982,0.8849150345789114,0.0438750223245838,438.3555753361348
1536,1536,147.05888422199126,267507,16182,49524736,31108688,0.5776601724961843,0.2640669578580331,0.9211690520752984,1536,0,1,1,475.86876084098253,0.6037076482063372,0.1832701767286164,438.3555753361348
1536,2048,123.41210391091744,200996,47086,36147200,15556336,0.5242171511251418,0.2020126384467594,0.881450781482763,1536,0,1,1,497.3114603162978,0.5976612713195925,0.1671365050436168,438.3555753361348
1536,256,135.4431795177415,201628,32437,32743424,29867384,0.5786674507888713,0.1730856989346495,0.7443779885581994,1536,0,1,1,588.8884170059818,0.872533169978205,0.0806577579914347,438.3555753361348
1536,512,153.6703867414302,210732,42571,32743424,29947216,0.6483861971659703,0.200817373967383,0.777565793592864,1536,0,1,1,563.7536771141185,0.8773694042322839,0.0697749555248827,438.3555753361348
2048,1024,139.78330069872902,208851,29039,37335040,30172800,0.6291710379574936,0.2826222647175056,0.8922608101828892,2048,0,1,1,491.28637090570396,0.6678018481922696,0.1518738570522853,438.3555753361348
2048,128,150.40853651142362,211771,57639,32481280,29766600,0.5926233936823575,0.1653797998675609,0.6963358991091324,2048,0,1,1,629.5174152258292,0.8595960261748304,0.0777559013943914,438.3555753361348
2048,1536,151.87241861991478,278096,34014,48738304,29871456,0.5862349096124281,0.3105846737754716,0.8439509716593824,2048,0,1,1,519.408816455578,0.6109692147468767,0.1719287378562412,438.3555753361348
2048,2048,120.52604475101056,196770,31618,37457920,15570168,0.5320128575344434,0.2092078089576787,0.9054998938783307,2048,0,1,1,484.10339780231413,0.5795372066361202,0.1828264077650065,438.3555753361348
2048,256,159.8472166818212,286656,18582,33529856,30484464,0.5877870551148352,0.2078799796972201,0.7060393033783601,2048,0,1,1,620.8656844436662,0.8525678098938488,0.0777368129263443,438.3555753361348
2048,512,169.0741840744142,184603,37174,32743424,29938288,0.6557268551882671,0.2225417470601678,0.8065956088166886,2048,0,1,1,543.4638752611384,0.8526064116819851,0.0750896900011233,438.3555753361348
256,1024,142.5202162727484,223784,23716,39956480,29936880,0.5690307491753759,0.2433244849964328,0.894777241430337,256,0,1,1,489.9046992248104,0.7535731826542275,0.1287794958154173,438.3555753361348
256,128,211.5913786327478,288606,55900,33005568,30377248,0.5676499398806534,0.2389860221661897,0.6066430387731632,256,0,1,1,722.5922780266919,0.8727672484138977,0.076366870210987,438.3555753361348
256,1536,159.31551821155773,260699,54094,51097600,31130872,0.6723381059385484,0.296590337281456,0.9980098989480196,256,0,1,1,439.22968679789227,0.5840357484072574,0.1620308683584326,438.3555753361348
256,2048,157.31529448896077,288654,45006,50835456,30110464,0.5853405933620514,0.2553291308352479,0.9517153868087768,256,0,1,1,460.5952382528951,0.6086583005494554,0.154068317133085,438.3555753361348
256,256,145.44145617714878,265332,40972,33005568,29755008,0.678818869548822,0.2460941970414563,0.8591362089925285,256,0,1,1,510.22826269908376,0.8115447838676122,0.0850198202290766,438.3555753361348
256,512,141.21674603968398,272580,35474,32743424,30061744,0.6598648557920128,0.2845589940201456,0.8086461253603211,256,0,1,1,542.0857920277672,0.8658638274015316,0.0783397994745592,438.3555753361348
512,1024,132.8951389597782,245733,33316,39694336,29763960,0.6041878910496007,0.2734108367420127,0.9800397036960263,512,0,1,1,447.2834862536316,0.6567919996152722,0.1564199417409101,438.3555753361348
512,128,183.59733515543013,251946,44664,33267712,29622336,0.6343929325178213,0.2622513914830958,0.7381391957349853,512,0,1,1,593.8657340905088,0.854741618922383,0.0961920436319951,438.3555753361348
512,1536,129.69098610942112,209306,33128,49000448,30536168,0.5112840230341088,0.1740196660263816,0.887472650605338,512,0,1,1,493.93699629744754,0.5473160267003829,0.1656083931794394,438.3555753361348
512,2048,128.04117316979355,190633,34545,37457920,15561048,0.5669451642694663,0.3062110710125613,0.8416835329037743,512,0,1,1,520.8080688282278,0.5545541644167453,0.1790357701493936,438.3555753361348
512,256,177.19205225737053,220355,29104,32743424,30311944,0.7091108898681443,0.3365676574992574,0.8122748484173756,512,0,1,1,539.6641003845193,0.8428245837264455,0.0908337810682967,438.3555753361348
512,512,140.19695270113638,251854,31211,33005568,29919720,0.6626209819790045,0.1870649981613729,0.8895258041694483,512,0,1,1,492.79691862950295,0.8508109396188519,0.0930942502959579,438.3555753361348
