cpu,memory,duration_std,userDiff,sysDiff,heapTotal,heapUsed,avg_cpu_util,cpu_util_std,slo_preservation,total_cpu_shares,cpu_shares_others,num_containers,arrival_rate,latency,memory_util,memory_util_std,slo_duration
1024,1024,570.7277606650075,1898891,162793,59174912,50821304,1.1113969999862356,0.183240925595943,0.6867832863744443,1024,0,1,1,629.1888537873374,0.7969729455101721,0.0903180306203551,432.1163887542373
1024,128,615.2255157488173,2189318,223566,41730048,34503928,1.1369173931502827,0.1673673696636836,0.5887164930634562,1024,0,1,1,733.9974229457515,0.8794426867593792,0.1053599765582797,432.1163887542373
1024,1536,385.4223814634559,1711728,180668,67956736,52709656,1.3040721420833197,0.2567986456185596,1.0,1024,0,1,1,390.85395639239516,0.7258972982352518,0.1061433963711096,432.1163887542373
1024,2048,245.5538743289597,1851728,154926,65064960,38486088,1.3575476968697104,0.2434470781262673,1.0,1024,0,1,1,228.8588154548417,0.72577451449439,0.119439299089802,432.1163887542373
1024,256,585.0412658035997,1945635,148879,51961856,49204600,1.0836103585417496,0.1981296568276312,0.596908185664087,1024,0,1,1,723.9243808886429,0.8968727590520379,0.0729532344790433,432.1163887542373
1024,512,609.7692395245506,2151477,168598,37011456,33813048,1.109077661897889,0.1419730757622721,0.6231195329594271,1024,0,1,1,693.4727061145962,0.9354566152139496,0.0224379780764056,432.1163887542373
128,1024,539.543081017417,1973507,147685,58650624,52652368,1.0831200476659737,0.153770390068676,0.6676214094734461,128,0,1,1,647.2476505734711,0.798160999839776,0.0963993030423682,432.1163887542373
128,128,830.8060409144545,2254712,168978,37273600,33789984,0.9178246515719539,0.0987714787922013,0.41257931352620497,128,0,1,1,1047.3535017086876,0.8967461946722688,0.0681897351901307,432.1163887542373
128,1536,366.5159026434372,1689468,141013,68218880,51128552,1.2678517520068064,0.2301349866957097,1.0,128,0,1,1,406.61538765527865,0.7482755683970165,0.1020078446885266,432.1163887542373
128,2048,243.85330654395077,1822845,139949,64540672,39775952,1.4995887593332031,0.3945963906833333,1.0,128,0,1,1,237.24936506953588,0.6985646094010632,0.118068629061118,432.1163887542373
128,256,331.1861166553972,1705200,168119,37011456,33886512,1.277885158068288,0.231110408386795,0.9104652650876845,128,0,1,1,474.6105154408293,0.8823532423372425,0.0953974536277975,432.1163887542373
128,512,543.6272098810028,2084837,132017,37535744,34753968,1.1504171224559818,0.1030355176528696,0.6193787620138578,128,0,1,1,697.6609713727466,0.8787616282937067,0.083030759268442,432.1163887542373
1536,1024,564.2915573863922,1984874,159455,59437056,52809112,1.1075852185294528,0.1893703744933219,0.7010122529231417,1536,0,1,1,616.4177401355837,0.7867418375641951,0.0922444163620776,432.1163887542373
1536,128,842.2766081094809,2069199,204438,37273600,34965552,1.0524778719222785,0.2359405943330294,0.45781330950737037,1536,0,1,1,943.8703064775809,0.9036752829390606,0.0758624647188077,432.1163887542373
1536,1536,379.8901783625316,1798828,180907,72675328,57699344,1.323722719746842,0.1486534551445212,1.0,1536,0,1,1,370.5345313711158,0.7864413307563297,0.0821236897976476,432.1163887542373
1536,2048,226.02997106301208,1750248,129946,64540672,38449800,1.4003727000823796,0.2988772573205675,1.0,1536,0,1,1,247.43657933336982,0.7402994586861784,0.0965293041398984,432.1163887542373
1536,256,372.0838971250525,1785964,154662,52224000,50120816,1.3559909044250043,0.2983193415166502,0.9357524129756493,1536,0,1,1,461.7849580319298,0.8735444101830666,0.0750205454898508,432.1163887542373
1536,512,581.8071578728677,1953738,137732,37011456,34735920,1.1607739364345582,0.1660474621399345,0.6827130248975467,1536,0,1,1,632.940009924498,0.8649689816113686,0.101292313096494,432.1163887542373
2048,1024,574.6585260346916,2196293,165806,47632384,36739632,1.0792207817583852,0.2237609513350267,0.6642610196422779,2048,0,1,1,650.5219725025313,0.8227702063606648,0.0874397100292012,432.1163887542373
2048,128,914.1010683973778,2180939,209252,46972928,33344136,0.984205569605956,0.2528622726069412,0.42673024455895353,2048,0,1,1,1012.6218946605263,0.8972040250627153,0.0680711563552167,432.1163887542373
2048,1536,362.90629096122217,1794088,146011,66646016,51147400,1.39603757111902,0.278104620699205,1.0,2048,0,1,1,360.2087814611209,0.7502408695319442,0.1080993709435274,432.1163887542373
2048,2048,316.7390381715764,1737737,158523,51957760,40853872,1.4509917567863073,0.2966010921737898,1.0,2048,0,1,1,281.13724392737333,0.6841511711942526,0.1150315086471039,432.1163887542373
2048,256,381.8699970242743,2005736,154391,37273600,34101800,1.3322910287716758,0.3541049342552491,0.964330894020524,2048,0,1,1,448.09970460724503,0.9046262305797051,0.0801024226508698,432.1163887542373
2048,512,362.4176598808926,1776200,150063,37535744,35255848,1.4074990514244587,0.2730721989723638,0.9797196605492686,2048,0,1,1,441.0612608426947,0.9067395853854944,0.0720268700804632,432.1163887542373
256,1024,577.4263266433795,2015356,148465,42913792,33396368,1.0297259663964646,0.1925185717198703,0.6472511164264976,256,0,1,1,667.6178345430615,0.825159027340747,0.086286990322076,432.1163887542373
256,128,602.9410379733195,1968799,248983,37011456,34821312,1.1483153348202644,0.1777013578284426,0.5656679475069882,256,0,1,1,763.9046735079487,0.8653183764728578,0.1036087671080742,432.1163887542373
256,1536,376.0094955480716,1812971,162926,61657088,40556208,1.2809087898327935,0.2264673458746989,1.0,256,0,1,1,379.95722925144923,0.7442879305612278,0.100556632093389,432.1163887542373
256,2048,236.79613326155837,1785802,104814,64802816,41402136,1.4737313052577838,0.4014810249552293,1.0,256,0,1,1,215.56216636749366,0.7129748093158684,0.1021379745713141,432.1163887542373
256,256,515.3184270781691,1966714,134313,36487168,33537464,1.046070679962701,0.1366721926402614,0.6055860870398679,256,0,1,1,713.550720536599,0.8753053082195841,0.0945568282060659,432.1163887542373
256,512,581.0023397210881,2100451,111423,37273600,34244088,1.043449073017701,0.147118685403806,0.6052955196826145,256,0,1,1,713.8932549522531,0.869289756683122,0.0979131483520664,432.1163887542373
512,1024,567.6408820917582,2072912,114614,59174912,49361568,1.129470299776616,0.1520540240606339,0.7160799715363111,512,0,1,1,603.4471091645739,0.8433305529750349,0.0951120836318831,432.1163887542373
512,128,778.6181841621699,2154679,252207,48021504,33482936,1.0610537856312465,0.2220884297666839,0.4740920576860154,512,0,1,1,911.4609320041003,0.8854971283844156,0.0941920986648678,432.1163887542373
512,1536,372.7552075652298,1869203,153383,66908160,53411456,1.287358330992563,0.2226918563366953,1.0,512,0,1,1,381.562584616947,0.7287457407578011,0.150804744720446,432.1163887542373
512,2048,222.6116338275921,1659170,159179,63229952,38526512,1.458424926707456,0.2932006593307932,1.0,512,0,1,1,212.02982164993313,0.7326546370402867,0.095531656172253,432.1163887542373
512,256,386.56076419236285,2047641,142066,37797888,35562424,1.3741331102950298,0.2876795142347997,0.997143626075769,512,0,1,1,433.3542104208391,0.857625813786125,0.0975623480280021,432.1163887542373
512,512,560.7487795319945,1990387,166778,40157184,34661232,1.1315860078219988,0.1627622212435885,0.6062286926927709,512,0,1,1,712.7943529608362,0.9050562773471004,0.0620080866734139,432.1163887542373
