cpu,memory,duration_std,userDiff,sysDiff,heapTotal,heapUsed,avg_cpu_util,cpu_util_std,slo_preservation,total_cpu_shares,cpu_shares_others,num_containers,arrival_rate,latency,memory_util,memory_util_std,slo_duration
1024,1024,85.45115289852416,341246,32840,44924928,37164632,1.053784452433881,0.1177134359367423,0.45080866544665404,1024,0,1,1,688.7451481602934,0.7834712388854076,0.0728853293473394,310.4922810749999
1024,128,323.12371598495963,446820,50523,29941760,24014816,1.0146139240550573,0.3412896613777602,0.32600121145793326,1024,0,1,1,952.4267707056217,0.8882360658060954,0.045430633364628,310.4922810749999
1024,1536,58.61178784330172,279767,34243,47738880,26364400,1.1304168913114812,0.1986035525793937,0.5645327251197866,1024,0,1,1,549.9987286106707,0.699893114722412,0.1004858176826466,310.4922810749999
1024,2048,41.336750373216354,278220,42566,45088768,27753728,1.2338694898238478,0.2269948960624445,0.7058200829040214,1024,0,1,1,439.9028712777802,0.6692601330161206,0.0943685442114223,310.4922810749999
1024,256,63.563926867111206,294865,53492,40701952,37482472,1.1519069464511975,0.13605010931449,0.4660794394421432,1024,0,1,1,666.1788845408678,0.8739179109844837,0.0638458711988653,310.4922810749999
1024,512,55.96574037830966,349893,63939,50348032,46911288,1.045546482605283,0.1266290792542621,0.4214517793237598,1024,0,1,1,736.7207740187978,0.8796856343011894,0.0447554415877444,310.4922810749999
128,1024,81.70050366821289,456255,88183,47472640,33260760,1.0723600683125594,0.125833211942145,0.4763926120980558,128,0,1,1,651.7571288680928,0.7731596019750845,0.0709389737591226,310.4922810749999
128,128,348.0516051385262,407889,111858,38948864,33284304,0.8813108564832215,0.2290501765160543,0.2806485358895096,128,0,1,1,1106.338503035126,0.8745533833533988,0.0438454028196855,310.4922810749999
128,1536,61.80255804256832,378892,32442,63684608,45550040,1.1667193295636624,0.1569022679164341,0.6306500932337061,128,0,1,1,492.3368511418546,0.6822812518831903,0.1063006904981408,310.4922810749999
128,2048,51.11443650408834,413309,72139,82345984,62265472,1.2241312737277088,0.218297911039794,0.7644090013468121,128,0,1,1,406.1860607710579,0.6844632941951632,0.0988040095289501,310.4922810749999
128,256,76.71342569980212,378785,48185,50483200,47142320,0.9948224486041227,0.1178696100557045,0.3754621229280506,128,0,1,1,826.9603299891297,0.8929750985801037,0.0462638314983305,310.4922810749999
128,512,91.46671971556108,238717,48549,40886272,37559528,1.0552825124053165,0.1142518001387294,0.41137569887772146,128,0,1,1,754.7657334209514,0.8776687377196721,0.0537086021624812,310.4922810749999
1536,1024,87.61931639953664,422915,53060,75935744,66502856,1.0100989158775509,0.1401543323015356,0.4290330978131415,1536,0,1,1,723.7023965228665,0.7813082817232737,0.0957856452328527,310.4922810749999
1536,128,132.13570187246572,371671,34619,41410560,37622864,1.0199635047586457,0.2344694589101434,0.3615930034786216,1536,0,1,1,858.6788961290205,0.8715002882238464,0.0469920093637582,310.4922810749999
1536,1536,71.74258641957626,392882,56591,61902848,40762096,1.1694137024165585,0.1740289833280695,0.6144341618868281,1536,0,1,1,505.3304329979444,0.703857720441958,0.0802537532158481,310.4922810749999
1536,2048,51.384046249825005,374568,55431,84291584,64114496,1.2375314538853586,0.2155893652460169,0.7464372392322147,1536,0,1,1,415.9656897535983,0.7200153971708512,0.0731971930482377,310.4922810749999
1536,256,78.80357646873009,370799,47773,50483200,47054800,1.1377129504449999,0.1362440157688681,0.44334678649097053,1536,0,1,1,700.3372766779343,0.8878327805846029,0.0344435463522241,310.4922810749999
1536,512,88.28343661436269,422733,50314,29679616,23979928,1.062817456466162,0.1511700674909073,0.43525806616023566,1536,0,1,1,713.3521586724494,0.8716055181488105,0.0661436430495073,310.4922810749999
2048,1024,73.67762477407422,302521,47062,54890496,45214752,1.0055187335473947,0.1408664373193336,0.4137324782439089,2048,0,1,1,750.4662974318261,0.7863180928262289,0.0720145176425843,310.4922810749999
2048,128,331.2020247150005,507591,66783,45481984,40851736,0.9358672266058945,0.2618964213151722,0.2813962238222668,2048,0,1,1,1103.3988902108028,0.8867879837729099,0.035764493284677,310.4922810749999
2048,1536,71.39272840132071,378405,68206,60198912,41634728,1.1295130374006483,0.1853199928137822,0.6117364899120982,2048,0,1,1,507.55886921117826,0.7083111361863821,0.0949985266089041,310.4922810749999
2048,2048,41.99251861454098,311305,37638,75698176,59992824,1.2438305488882015,0.2063805448353406,0.8474656040568548,2048,0,1,1,366.3774430356345,0.7118302339108473,0.090690898496327,310.4922810749999
2048,256,66.39694028788256,369800,55615,30203904,24768712,1.171159609319411,0.1236727713783073,0.5187288030789365,2048,0,1,1,598.563795247266,0.8689733609687591,0.0634150104821318,310.4922810749999
2048,512,94.66753455995628,378751,25049,40701952,37453176,1.0106458343787796,0.1543997742209048,0.40349509449872384,2048,0,1,1,769.5069538843721,0.885096633222515,0.0383221795945331,310.4922810749999
256,1024,83.15855013901337,379488,31926,55640064,45513824,1.0670363169944137,0.1102704269178646,0.473143044903305,256,0,1,1,656.2334254294161,0.7562565483552797,0.0964284543232586,310.4922810749999
256,128,96.60803950098908,434030,44402,40886272,37645576,1.0308336638677538,0.1714019486252777,0.4043178766860526,256,0,1,1,767.9410161626193,0.8652484388394107,0.0690398190826117,310.4922810749999
256,1536,51.1209494249575,345815,42069,54886400,38183536,1.1793303933900154,0.1618124355725843,0.5592218313486573,256,0,1,1,555.222031168196,0.6949693360579957,0.0895932982224828,310.4922810749999
256,2048,43.980874504058846,347304,48631,62750720,43030992,1.2333685332340405,0.258346677023012,0.6926965731990392,256,0,1,1,448.2370681308151,0.6674465923544253,0.1004315975136536,310.4922810749999
256,256,87.6977029888837,300045,45629,40177664,37378968,1.0174847780982201,0.1294881498513775,0.3853494850326991,256,0,1,1,805.7420423142718,0.8855095176712282,0.0456035774955703,310.4922810749999
256,512,83.07446903251144,467600,69241,38260736,34175712,1.0176002020661905,0.0995597665046542,0.3918333155843576,256,0,1,1,792.4090901049331,0.8728573839210799,0.040765730147266,310.4922810749999
512,1024,61.85638561657589,385915,56563,45187072,36761552,1.0203581071631187,0.1098119075080568,0.4307314219190018,512,0,1,1,720.84892179839,0.7662186043216338,0.0635030306301094,310.4922810749999
512,128,277.8332736727025,431955,66133,51433472,46060960,0.8980712669985279,0.2859193026083604,0.3072705058101785,512,0,1,1,1010.4851432334077,0.8910785293817585,0.0412638540467445,310.4922810749999
512,1536,70.6505585012539,356469,69300,70123520,49767208,1.1725460023415815,0.2606625281149226,0.6575808895637829,512,0,1,1,472.1735166010832,0.7431963098203849,0.0976922222309273,310.4922810749999
512,2048,45.716580525812695,341668,58380,85028864,64422072,1.2207851439652517,0.1973806623533469,0.7390277432029535,512,0,1,1,420.13616394064354,0.6902711084309311,0.1010373015979512,310.4922810749999
512,256,55.65036248969754,315905,50115,40964096,37367448,1.1745084731880309,0.1215959294006277,0.48965570140664744,512,0,1,1,634.1032692625454,0.8671228443075469,0.0437958836891958,310.4922810749999
512,512,75.65135623496685,391704,30500,50221056,47125152,1.0472017668760922,0.118233513771393,0.4078848965144666,512,0,1,1,761.2252469465674,0.8418382310013186,0.0625635921038405,310.4922810749999
