cpu,memory,duration_std,userDiff,sysDiff,heapTotal,heapUsed,avg_cpu_util,cpu_util_std,slo_preservation,total_cpu_shares,cpu_shares_others,num_containers,arrival_rate,latency,memory_util,memory_util_std,slo_duration
1024,1024,54.79998793180135,260352,29192,39432192,30232560,1.0439099642133118,0.1925525454797193,0.28044943272444045,1024,0,1,1,696.9850490741159,0.7667803367995998,0.1131622597552956,195.46906163025207
1024,128,76.45585375673647,303681,51465,33005568,30311240,0.916786061177008,0.1263665105454861,0.23699413913675052,1024,0,1,1,824.7843695301781,0.8601920485894029,0.0797376594169865,195.46906163025207
1024,1536,61.93524720578525,370095,38135,50573312,30468984,1.0969401316791574,0.2302015973725779,0.3483794314220676,1024,0,1,1,561.0809479548119,0.7157906121905019,0.0894013062294517,195.46906163025207
1024,2048,40.45315495087318,304137,33087,50573312,31700048,1.1493497106853192,0.3621174286596439,0.5081486358330815,1024,0,1,1,384.6690669744521,0.6381192242691384,0.1436892943033798,195.46906163025207
1024,256,41.75791832218498,337822,37718,33005568,30341056,1.0597323987241962,0.1168605062571302,0.28097635429133416,1024,0,1,1,695.6779766157024,0.8720627258882944,0.0654355550730719,195.46906163025207
1024,512,46.28489929131473,251375,42353,32219136,29971856,1.1039299172001624,0.1885167568797327,0.2987754873722605,1024,0,1,1,654.2339311347407,0.8645605598181273,0.0509525972103146,195.46906163025207
128,1024,92.74885379126052,305797,28786,37859328,30560480,1.0330171166083242,0.155170794789111,0.28917328314512686,128,0,1,1,675.9582334311029,0.794476516902192,0.0868561348717447,195.46906163025207
128,128,137.72546390041757,328124,35536,32743424,30363328,1.0391575553912245,0.2434347604380652,0.21577261455411018,128,0,1,1,905.903012920268,0.8848582523364424,0.0511552167924471,195.46906163025207
128,1536,57.341793949436905,405308,46137,51097600,31050288,1.0829414832894342,0.2551027622522911,0.35503936583557233,128,0,1,1,550.5560240347509,0.6967575832031025,0.1054854117580732,195.46906163025207
128,2048,40.70613732724455,313825,28414,50573312,31088128,1.149884153814094,0.3591050764327971,0.4572078555740112,128,0,1,1,427.52778467650415,0.6835177595039363,0.1373456549825274,195.46906163025207
128,256,52.44663450109346,243596,44510,32743424,29829936,1.0801108715803063,0.2339809067762793,0.27892701024316396,128,0,1,1,700.7892905740658,0.8595152793355595,0.0792499491336056,195.46906163025207
128,512,66.40027007487141,357670,26418,32743424,30496736,1.0295034558763516,0.1322286682530751,0.2563599643410225,128,0,1,1,762.4788922588148,0.9127312572050597,0.0496223865275188,195.46906163025207
1536,1024,78.21968683722092,292845,37339,39694336,30203192,1.0436179669075454,0.1969330646026204,0.28006160372518035,1536,0,1,1,697.9502331996302,0.7827544488460088,0.1011908310817537,195.46906163025207
1536,128,476.2762495426404,337345,47957,32481280,29802064,0.9222611283710593,0.2908984333876159,0.14564263616436193,1536,0,1,1,1342.114279019638,0.890420630430127,0.0700945086133376,195.46906163025207
1536,1536,45.66313005867434,327837,20363,72704000,55580240,1.1028182150499017,0.2352556220675498,0.38029159756182085,1536,0,1,1,513.99784503121,0.7444665288897867,0.1160341763448138,195.46906163025207
1536,2048,41.67747645981776,345525,25140,50573312,31107624,1.1408460761045907,0.3082183149025874,0.4572777419478499,1536,0,1,1,427.4624450287464,0.6782000700495103,0.1329615175861285,195.46906163025207
1536,256,44.58169460336074,307614,24938,33005568,30278432,1.0799719481075358,0.2437608792093625,0.2962157627898815,1536,0,1,1,659.8874407939818,0.8924178208739274,0.0422745669609315,195.46906163025207
1536,512,54.42369317968409,324731,19856,33529856,30271016,1.1113644220243646,0.1514797702535703,0.30072606171367056,1536,0,1,1,649.9904282202301,0.873112333849841,0.0644514838638574,195.46906163025207
2048,1024,94.27516316712278,412190,44217,38383616,30692032,1.0059740508075636,0.1425124049261752,0.27878624557322024,2048,0,1,1,701.1431328986215,0.7747768925149046,0.1149291284340908,195.46906163025207
2048,128,77.82058952824137,297889,47787,33005568,30295296,1.0801366790082985,0.2005878251643343,0.2507252182162163,2048,0,1,1,779.6146834407646,0.8763010639433764,0.0599028208497797,195.46906163025207
2048,1536,56.46898673233428,267676,40081,50311168,30125400,1.0662567376755416,0.1793339690080627,0.3496774649767042,2048,0,1,1,558.9981660478875,0.7186079413702781,0.1032029388221502,195.46906163025207
2048,2048,36.461799091914216,305296,33318,50311168,31680200,1.1801112041289268,0.4518645218473089,0.4778688128897814,2048,0,1,1,409.0433532337174,0.6946198248079177,0.1215379658374017,195.46906163025207
2048,256,49.8196372169385,289690,19743,33005568,30215664,1.1099333630837018,0.2025681024151923,0.3259340283469676,2048,0,1,1,599.7197120583211,0.8772657182334406,0.0586598374327754,195.46906163025207
2048,512,74.7590750793287,239441,26021,32743424,30129736,1.0505006559124048,0.2172490750126632,0.2635238343130526,2048,0,1,1,741.7509772495379,0.8752928358690412,0.0683127119700765,195.46906163025207
256,1024,65.0574750583532,382289,29951,39170048,30863328,0.9852473183813416,0.2684738545942517,0.2943565151648629,256,0,1,1,664.0554958356331,0.8064791156517697,0.0717698304101005,195.46906163025207
256,128,547.9559471599373,333406,41556,32481280,29591656,0.8975659343541796,0.2652606988377735,0.14106521076884698,256,0,1,1,1385.6645487919245,0.88424473918846,0.0605192058282969,195.46906163025207
256,1536,52.89970956313315,304517,32491,71917568,55544488,1.1140179122111196,0.2784650437903466,0.35343277309930293,256,0,1,1,553.0586762403376,0.7351146264423154,0.1133760169134626,195.46906163025207
256,2048,40.57552260343152,295486,48454,49000448,31584928,1.1216982134865565,0.2209867782374562,0.39074500350378577,256,0,1,1,500.24711737192627,0.6618257396450259,0.1352522440568506,195.46906163025207
256,256,39.68340159892541,326147,28551,33529856,30077192,1.08899180554441,0.2044910171304275,0.2771871041036166,256,0,1,1,705.1881517445447,0.8498450303580419,0.0725584667444713,195.46906163025207
256,512,54.841781531199686,249618,28881,33267712,30150968,1.1327927971936724,0.2508048393094274,0.30365601139581255,256,0,1,1,643.7187287409242,0.8608753014991054,0.0823274350207631,195.46906163025207
512,1024,86.21994596598049,354734,36261,40218624,30146680,1.014359456954073,0.1845251037110711,0.27809513841261957,512,0,1,1,702.8855763031273,0.7938748777045515,0.0941086604386925,195.46906163025207
512,128,168.3378036569469,294440,55415,33005568,30505840,1.0230168087509202,0.2672819193053469,0.24528520260167627,512,0,1,1,796.9052334056952,0.9227565126130748,0.0431015853744644,195.46906163025207
512,1536,62.51790487353246,357489,27200,72704000,55606304,1.0907904841881977,0.2577406913213212,0.3416336382639762,512,0,1,1,572.1598804600602,0.7250690427382228,0.0841265341619473,195.46906163025207
512,2048,35.83844209143969,305669,36362,50573312,31825112,1.1563745983836096,0.3676353665475783,0.5529870207263053,512,0,1,1,353.4785705702797,0.6534889284656765,0.1554178375196867,195.46906163025207
512,256,35.518158485824586,231390,25813,33005568,29679936,1.040171460701383,0.1737728810565429,0.2900566739462697,512,0,1,1,673.8995485636054,0.8845150821092691,0.0533344654036189,195.46906163025207
512,512,66.24003557271575,300534,54923,33005568,30674840,0.9954965203918439,0.1319823420280915,0.2432704935513406,512,0,1,1,803.5050152475629,0.8704108870590236,0.0683029980314274,195.46906163025207
