cpu,memory,duration_std,userDiff,sysDiff,heapTotal,heapUsed,avg_cpu_util,cpu_util_std,slo_preservation,total_cpu_shares,cpu_shares_others,num_containers,arrival_rate,latency,memory_util,memory_util_std,slo_duration
1024,1024,629.2271559968863,2148680,123815,59437056,47493504,1.013304642406839,0.1970013085584122,0.49045873068803253,1024,0,1,1,1006.8347661260808,0.8612633333628491,0.063095689950179,493.8109014067797
1024,128,1331.295847854877,2221403,246631,50388992,47360160,0.8694592962884292,0.2194352538283097,0.1874037395825872,1024,0,1,1,2635.010926178245,0.9244408829173772,0.0313102468988958,493.8109014067797
1024,1536,373.7815106235374,1715728,147953,68218880,47240200,1.0828821813165888,0.199286505263443,0.8390963920188131,1024,0,1,1,588.5031876000584,0.7806890505039792,0.0664649755265726,493.8109014067797
1024,2048,224.30082514782708,1675089,118499,62713856,50664976,1.1829084842344304,0.2930246444957625,1.0,1024,0,1,1,377.44462933388786,0.8013182641335949,0.0808564200974187,493.8109014067797
1024,256,612.2401339810135,1945696,221199,49864704,47355520,1.0266361499866827,0.146949495227128,0.5073781393527468,1024,0,1,1,973.2601054446795,0.9448161967049288,0.0269461568053643,493.8109014067797
1024,512,616.0184508505007,2113386,194125,51175424,47062560,1.0374815724982975,0.156016607358053,0.44381411148869293,1024,0,1,1,1112.6525466943394,0.9370521713192193,0.0400641909149773,493.8109014067797
128,1024,558.9476618731347,1790968,155637,56291328,47618400,0.9853219073421607,0.1290687751495778,0.5268272730962497,128,0,1,1,937.3297978758249,0.8497568617851682,0.0887122886043915,493.8109014067797
128,128,983.9711130165635,2006560,219145,49864704,47158184,1.0053618877618087,0.3116188340950966,0.27869683703223613,128,0,1,1,1771.8568558769177,0.9336303596781304,0.0336793222434844,493.8109014067797
128,1536,404.42010070160535,1904799,153643,67956736,47284320,1.0957196274766412,0.1815151397625257,0.783306427347497,128,0,1,1,630.4185490714876,0.7566812114285195,0.0861788118228779,493.8109014067797
128,2048,232.49017474447183,1701882,125970,62713856,51446664,1.223301230352438,0.2833897334892361,1.0,128,0,1,1,381.2709987095442,0.7762424597894174,0.0829941408657603,493.8109014067797
128,256,637.3492220548225,1965821,144181,50913280,48656408,1.0011893419725322,0.1611272424654128,0.480719609008354,128,0,1,1,1027.2326989644357,0.9458736384222308,0.0237571333957241,493.8109014067797
128,512,611.1635075486757,2054021,203891,50651136,47209200,0.9799007457270686,0.1765470656130326,0.4917648780642226,128,0,1,1,1004.1605723259681,0.9353812861196223,0.0394353833133963,493.8109014067797
1536,1024,577.0133441458934,1801150,157788,58650624,49925056,0.9935098652657013,0.1694428322334978,0.5369564323568359,1536,0,1,1,919.6479856649082,0.8522602771912922,0.0642331491139544,493.8109014067797
1536,128,588.96240093232,2039372,214304,51437568,47250552,1.031599309203,0.2881794567615033,0.42898166495324586,1536,0,1,1,1151.1235601656763,0.9164725571774665,0.0887476688410524,493.8109014067797
1536,1536,351.6266451197251,1600552,130656,60354560,48942920,1.087124329251556,0.1499633101167382,0.8911890705333969,1536,0,1,1,554.1034082826247,0.8000086632044068,0.0869700937449611,493.8109014067797
1536,2048,225.57395421843987,1732937,129298,67956736,47569240,1.2034611374393063,0.2169324062968663,1.0,1536,0,1,1,374.4703260818892,0.7727587354960678,0.0976112961253187,493.8109014067797
1536,256,622.1247385994806,1990428,118638,50388992,47019304,1.0220041883308262,0.142926320049613,0.4699361509687803,1536,0,1,1,1050.8042430631933,0.9358153570382104,0.0432854891839475,493.8109014067797
1536,512,607.8886234344754,2043749,137110,51699712,47237928,0.9986100769755445,0.2241000470399365,0.45514267068251524,1536,0,1,1,1084.958482724283,0.934994971398355,0.0414049957304635,493.8109014067797
2048,1024,582.9188410948257,2013687,172434,45273088,32669904,1.022386017222051,0.1931090790785171,0.49727485915938424,2048,0,1,1,993.0341184783398,0.8621287705882578,0.0724034517287867,493.8109014067797
2048,128,1142.2130528509354,2200577,207885,50388992,47046360,0.8729687839931382,0.2337895139366868,0.25198884799488874,2048,0,1,1,1959.653791570951,0.9300345006416634,0.0426927160040726,493.8109014067797
2048,1536,376.5872912046684,1774524,127659,61665280,50057576,1.1237264403306222,0.2306805977114315,0.8321264550019176,2048,0,1,1,593.4325227115171,0.8089854750092418,0.0689552719025056,493.8109014067797
2048,2048,226.75556081141636,1688965,109414,62451712,51061224,1.2138325288609446,0.3213873437089524,1.0,2048,0,1,1,333.58123571308863,0.7908564731301119,0.0816644018780426,493.8109014067797
2048,256,661.1142169527487,2201532,164550,51699712,46839872,1.0301927355957055,0.1329470428023777,0.44647975137248863,2048,0,1,1,1106.00962280774,0.9348704281095432,0.0384543523874853,493.8109014067797
2048,512,646.6733450569001,2253796,155845,50651136,46866136,1.037409063899868,0.1546840484777759,0.46898012719563514,2048,0,1,1,1052.9463249533096,0.932958784333476,0.0464470235829992,493.8109014067797
256,1024,619.8178651841718,2065930,196949,59699200,47083080,1.0379813083396674,0.1956299388199096,0.49808364418234063,256,0,1,1,991.4216360535686,0.857329957873025,0.0660748357155078,493.8109014067797
256,128,1534.7248785149975,2411093,211146,51699712,46863936,0.9089798773867797,0.2475514945924805,0.21934013529756544,256,0,1,1,2251.3476648350584,0.9317815400874864,0.0389769976324512,493.8109014067797
256,1536,398.5566994152904,1846447,152860,75034624,50585720,1.0435943417127407,0.2014711806607427,0.7525348446286594,256,0,1,1,656.1967262133253,0.8035010036820708,0.0850324835126505,493.8109014067797
256,2048,213.1480164911691,275839,23938,78188544,65939696,1.1962025952790747,0.2394374319255267,1.0,256,0,1,1,381.8577401435712,0.7767182337567534,0.0600894705483514,493.8109014067797
256,256,595.3471321173715,2133719,164617,51961856,47038712,1.0036773202734197,0.1591688386184992,0.4918584165594303,256,0,1,1,1003.9696074756779,0.9323867869821232,0.0476896438159647,493.8109014067797
256,512,576.6021708826498,1934435,147804,50126848,47109152,1.0100341876155827,0.1332657210711753,0.4916149343526567,256,0,1,1,1004.4668436629464,0.9294824307599928,0.0484033001824112,493.8109014067797
512,1024,593.1737048768342,1972108,161970,57864192,47101816,0.9858769680015783,0.2089602339298167,0.5377000518248495,512,0,1,1,918.3761462006214,0.86796438273592,0.0554008495193065,493.8109014067797
512,128,1165.657353852154,2228505,247630,51437568,47609880,0.8838133690011355,0.2995324724456947,0.2364733555906213,512,0,1,1,2088.2306176669513,0.9344194696229214,0.0336511570639913,493.8109014067797
512,1536,363.4651182502904,1762282,109159,64024576,51629392,1.0727102729122144,0.2029820189060705,0.8701689387936073,512,0,1,1,567.4885408934427,0.7949997762967412,0.0810905198996927,493.8109014067797
512,2048,236.6750080513746,1727134,147265,67956736,47458600,1.2272397685363026,0.2053626946559211,1.0,512,0,1,1,370.64195301237544,0.8166447823201122,0.0703638337879042,493.8109014067797
512,256,592.1914613016478,2002702,155321,50913280,46899656,0.9792992122844942,0.2168024271213167,0.49520406851676047,512,0,1,1,997.1866808078665,0.9443585985756794,0.0217956766065081,493.8109014067797
512,512,584.2925295291449,2072148,198949,52486144,47394632,1.01028774439653,0.1669791275039105,0.46352398182750587,512,0,1,1,1065.3405665438572,0.915331253184207,0.0652831363754924,493.8109014067797
