cpu,memory,duration_std,userDiff,sysDiff,heapTotal,heapUsed,avg_cpu_util,cpu_util_std,slo_preservation,total_cpu_shares,cpu_shares_others,num_containers,arrival_rate,latency,memory_util,memory_util_std,slo_duration
1024,1024,139.85163748110966,144916,10466,26054656,14344976,0.403768704994451,0.1441462690313991,0.6585975124824094,1024,0,1,1,509.84361967806336,0.6452194811765533,0.0461111724753355,335.7817396750001
1024,128,142.44193112004376,122954,6705,25169920,21423880,0.3951352954505189,0.1067181790171354,0.6307819562336759,1024,0,1,1,532.3261649396457,0.8385182460809512,0.0255602912534944,335.7817396750001
1024,1536,175.20770055816038,97556,12272,34312192,14470192,0.4476231866068856,0.1631333887902957,0.7083643729770224,1024,0,1,1,474.02403690041604,0.5303230072682718,0.0510312976479791,335.7817396750001
1024,2048,122.02646874152067,85503,115,39333888,24495648,0.4230002194402705,0.1455387813659988,0.8646744354665247,1024,0,1,1,388.3331412404174,0.5363475656736136,0.0639630546197221,335.7817396750001
1024,256,135.30345603421063,94435,34,24907776,20855432,0.40080204224657545,0.1217161078028708,0.6080686632063961,1024,0,1,1,552.2102354434701,0.8446593253721952,0.0337754032207399,335.7817396750001
1024,512,156.00389878880077,84932,26,24907776,21486680,0.4546927639506821,0.1535276340741896,0.6970856394033971,1024,0,1,1,481.69366960762517,0.8531624762617712,0.0237618450116748,335.7817396750001
128,1024,155.55053571682103,32672,6030,25530368,15244928,0.44713390120244667,0.1048565911024986,0.6747362548181625,128,0,1,1,497.6488772868613,0.6604208688942361,0.0520232340613908,335.7817396750001
128,128,120.29674107680172,97035,510,24383488,20671112,0.40638849024930535,0.1155081047918213,0.6617238610663151,128,0,1,1,507.43483714477924,0.8622798195679529,0.0149107690625294,335.7817396750001
128,1536,143.21483134401873,89203,4864,39333888,24492776,0.44021868068742076,0.1399618522140516,0.6904371671197301,128,0,1,1,486.33207432295063,0.5224701046330211,0.0508201311315255,335.7817396750001
128,2048,118.4948482754795,28229,22,39071744,24431448,0.3921268627062112,0.1066388556952731,0.6642019449732735,128,0,1,1,505.5416386781455,0.5516985197414167,0.0596180700880019,335.7817396750001
128,256,147.62321118863068,38266,16556,19103744,15191776,0.3775144351708739,0.093456359823553,0.6837397076291707,128,0,1,1,491.09585991327685,0.8329078916348648,0.025796628075776,335.7817396750001
128,512,124.74323918289768,79239,4059,18841600,15198824,0.3656547393021329,0.0853926927339016,0.618247655465203,128,0,1,1,543.1185006635242,0.8302548669279378,0.0314276275403527,335.7817396750001
1536,1024,122.70749486537396,78392,4561,25792512,14342824,0.45446310798004647,0.1517724445974125,0.6837982343069968,1536,0,1,1,491.0538267407227,0.6593319163259126,0.0552784537492955,335.7817396750001
1536,128,129.59332774218242,130959,3708,24121344,21118568,0.4449680051688103,0.1398659832476083,0.7000010617219108,1536,0,1,1,479.68747197185826,0.8703736663245815,0.0128868250245583,335.7817396750001
1536,1536,148.89921115894452,100407,19373,34312192,14473736,0.41511543800179473,0.1190635191828845,0.7831202710195114,1536,0,1,1,428.77416420067885,0.527397964799873,0.0498297503636289,335.7817396750001
1536,2048,121.30174954350288,36691,766,39333888,24338920,0.41400753832321424,0.1140512639883392,0.6943631114196843,1536,0,1,1,483.58234208102704,0.5414627449149212,0.0636336586056345,335.7817396750001
1536,256,134.18864313920608,62548,4524,19103744,14534328,0.3778827951702728,0.1131640089592538,0.7671003949176789,1536,0,1,1,437.72854492016575,0.8191536668354089,0.0238298593038148,335.7817396750001
1536,512,146.85337095249758,78995,8352,19103744,14714392,0.39581005221819,0.1023037304304374,0.7116238725456571,1536,0,1,1,471.8528321342349,0.8192189675687214,0.0203727968006794,335.7817396750001
2048,1024,153.64718595986366,65661,4504,25006080,15350992,0.4387002734129486,0.1249517616483542,0.6540744833704698,2048,0,1,1,513.3692694212813,0.656079015611742,0.0467383915099356,335.7817396750001
2048,128,152.77012224881517,165507,4538,19103744,14720480,0.5179180375512212,0.1384416551038131,0.7252175398613427,2048,0,1,1,463.0082991914393,0.8179324974060446,0.0207641127881644,335.7817396750001
2048,1536,131.63028491463558,81146,4268,39333888,24480080,0.4015366066194838,0.1050733720234356,0.6579035814632195,2048,0,1,1,510.38138282846876,0.5226187395285443,0.0520316698506061,335.7817396750001
2048,2048,152.20059504070198,18464,4633,39071744,24387192,0.3502814635137775,0.0876480692934269,0.8561562550651224,2048,0,1,1,392.19679548969634,0.5340446149391913,0.0584101043824999,335.7817396750001
2048,256,135.96199050415802,68984,14603,18841600,14728744,0.4351392746126929,0.137583375535342,0.7027518700994457,2048,0,1,1,477.8098130531961,0.8181946609922068,0.0201552520504498,335.7817396750001
2048,512,129.3082118389761,64169,9024,19103744,14625352,0.48937230444409857,0.1472290260072296,0.8290929712764761,2048,0,1,1,404.99889796198454,0.8220642490748213,0.020149161430933,335.7817396750001
256,1024,127.9087240223574,94733,433,25792512,14344976,0.4576035656057712,0.1390045148047349,0.7058414462559675,256,0,1,1,475.7183662933158,0.6598440427401661,0.0480651070239991,335.7817396750001
256,128,119.09482593908264,61755,25,24907776,21415648,0.39943212297259084,0.1095945320166472,0.6776247025654165,256,0,1,1,495.52759573812085,0.8469878090210257,0.024316804131534,335.7817396750001
256,1536,148.917693008259,92099,3699,39071744,24557240,0.45319672166107183,0.0980316465591081,0.7073110560722093,256,0,1,1,474.72994631193797,0.5333283697146431,0.0503648515447032,335.7817396750001
256,2048,109.52932973781542,67335,73,39333888,24404872,0.36732380272221593,0.0998828168416585,0.6569144883645751,256,0,1,1,511.14984617091835,0.5588488320522584,0.0870019136936153,335.7817396750001
256,256,148.28244204745457,97580,4250,18841600,15165040,0.35306703532069217,0.0915157527411856,0.6859510058270244,256,0,1,1,489.51271566423486,0.828212234635966,0.0198224234753812,335.7817396750001
256,512,125.3800628289971,71819,1178,18841600,15180512,0.36492253094091787,0.0811022362928944,0.6475018094109734,256,0,1,1,518.5803881852589,0.818631147919463,0.0166811265844101,335.7817396750001
512,1024,164.6399541201441,129834,2642,26054656,14347696,0.3737794898399707,0.1217645516537073,0.7478247417492198,512,0,1,1,449.01127353660524,0.6564837579928597,0.0511434426512666,335.7817396750001
512,128,148.05376034463768,39159,8557,19365888,14529696,0.4541817485019507,0.1249490488563144,0.7736018322582267,512,0,1,1,434.04982469446486,0.8255386021882589,0.0296544112875684,335.7817396750001
512,1536,138.2024460384362,18898,3729,39596032,24424400,0.42523441020671354,0.1238023167748852,0.7492826494748704,512,0,1,1,448.13761523816197,0.5231086110565606,0.0509102936321856,335.7817396750001
512,2048,116.34130225606808,139904,5066,34050048,14479368,0.43194681863074136,0.1172733278272393,0.7785061196657646,512,0,1,1,431.3154787006183,0.5366688117444063,0.0537590141981764,335.7817396750001
512,256,158.04341044616234,66140,7769,18841600,15099424,0.47207711905252103,0.1387048811586131,0.6696519795404693,512,0,1,1,501.42723374822447,0.8107655759003933,0.0205371982457704,335.7817396750001
512,512,121.00792160131503,130172,26,18841600,15121352,0.5097039179500559,0.1798510958342457,0.8009058307210426,512,0,1,1,419.2524598961918,0.8548280269899641,0.0246245650853799,335.7817396750001
