cpu,memory,duration_std,userDiff,sysDiff,heapTotal,heapUsed,avg_cpu_util,cpu_util_std,slo_preservation,total_cpu_shares,cpu_shares_others,num_containers,arrival_rate,latency,memory_util,memory_util_std,slo_duration
1024,1024,14.124160243103248,49502,13567,25530368,14471080,0.8689682510546355,0.2844800560406165,0.7529809009367221,1024,0,1,1,22.44503543048069,0.6555988202238889,0.0602808574721707,16.900682999999997
1024,128,12.860931282116484,11452,4478,24858624,20738312,0.7582041214693551,0.2046074607481411,0.6404682354215895,1024,0,1,1,26.38801124754468,0.8638789769460946,0.0166786555738685,16.900682999999997
1024,1536,15.626693079538962,21032,9106,34312192,14824848,0.8827933192690013,0.2427262540928212,0.7415507504579115,1024,0,1,1,22.790999792750174,0.5323874661437589,0.0642213098371381,16.900682999999997
1024,2048,7.261661371513935,5320,4234,39022592,24331576,1.0722477677881588,0.0906904235589642,1.0,1024,0,1,1,11.080484920300412,0.5388188585576914,0.0590267864011843,16.900682999999997
1024,256,12.45460701061759,16454,7481,25120768,20789312,0.9401515942632103,0.247659347971593,0.8956077986309394,1024,0,1,1,18.87062956110368,0.8648140941491267,0.0170003660997227,16.900682999999997
1024,512,8.781242594196652,9940,3708,25120768,21080640,0.8593203624341165,0.2284769405124595,0.9847420298487558,1024,0,1,1,17.16254865509877,0.868766815784819,0.0151523208571398,16.900682999999997
128,1024,24.552972337517584,45491,11248,25792512,14472696,0.8029578250600716,0.3032584359152539,0.5390492279760785,128,0,1,1,31.352763574962403,0.6740334608016131,0.0676751891997883,16.900682999999997
128,128,9.263498757650073,11698,721,25120768,20974648,0.9212236691018145,0.1482333459376459,0.8032885890934439,128,0,1,1,21.039366461153598,0.8633767688676663,0.0165896028800787,16.900682999999997
128,1536,11.01723560651325,25911,4347,34050048,14852992,0.9530382304545493,0.2688379240403653,0.8476810056256003,128,0,1,1,19.937550668045297,0.5300941566263768,0.0533286203913051,16.900682999999997
128,2048,4.506750653734562,9267,2695,39284736,24294072,1.0627544277824816,0.0744923970559328,1.0,128,0,1,1,10.148534697555146,0.5510981233690485,0.0588766709408134,16.900682999999997
128,256,14.583636229295184,8174,4046,24858624,20885552,0.7414957738492592,0.2208381233252276,0.5301499025922419,128,0,1,1,31.879064614294467,0.860067615324873,0.0169931202783111,16.900682999999997
128,512,11.500789802957383,12818,150,24858624,20890752,0.9162615619885955,0.1995873502364631,0.7986112367279367,128,0,1,1,21.162591036466424,0.8638213980300578,0.0155218876437015,16.900682999999997
1536,1024,21.716546553215263,49504,11591,26054656,14477600,0.7886841053694035,0.2581652493883926,0.5473383068667954,1536,0,1,1,30.877946578866226,0.6570671709961269,0.0697727604675423,16.900682999999997
1536,128,20.50597316804625,8927,3494,24596480,21373152,0.7526186051633899,0.2060430958771329,0.6122089153561331,1536,0,1,1,27.606071352568527,0.8681735413678207,0.0157159845245965,16.900682999999997
1536,1536,10.115828412425648,22313,5309,34574336,14808656,0.9947498585009351,0.2286021923042693,1.0,1536,0,1,1,16.079452739577935,0.5270342397206259,0.064480417113696,16.900682999999997
1536,2048,4.357516511281047,16872,3494,39284736,24430048,1.1034209403977044,0.1684810485560037,1.0,1536,0,1,1,11.785906363919155,0.5514556254238405,0.0589620653123646,16.900682999999997
1536,256,7.368164188235124,17859,8998,25382912,20779448,0.9375725848546604,0.2737139344377682,1.0,1536,0,1,1,15.522351385208747,0.8658810078351806,0.0182504110583729,16.900682999999997
1536,512,9.545137531581783,19120,4737,25382912,20677312,1.014696059685352,0.2089661120109178,1.0,1536,0,1,1,14.401535164066361,0.8626912243358185,0.0167049779008339,16.900682999999997
2048,1024,22.868476821493047,51980,7977,25792512,14468024,0.8331470374323483,0.3231651677917143,0.577943539659461,2048,0,1,1,29.24279248792764,0.6499146255800345,0.0533092757353922,16.900682999999997
2048,128,8.651272149531781,12432,77,25120768,20832360,0.8881875378724258,0.2068374546189601,0.9511120035453896,2048,0,1,1,17.769393023114603,0.8622096533701707,0.0161204650598308,16.900682999999997
2048,1536,18.74016760047196,8926,25,34312192,14861056,0.9211395556087353,0.1356473361008753,0.8661738449865669,2048,0,1,1,19.51188332206233,0.527697681273756,0.0536116991805191,16.900682999999997
2048,2048,9.158163630765191,8457,45,39284736,24313600,1.092825763286921,0.0609810689100317,1.0,2048,0,1,1,11.23149316518197,0.539437024337954,0.0585674113768163,16.900682999999997
2048,256,13.66041208227182,19208,4710,25120768,20801904,0.9441710369614686,0.1891664883728732,0.9576069170718224,2048,0,1,1,17.648873142728576,0.8665595927888126,0.0162367050561427,16.900682999999997
2048,512,10.535853633975677,27850,26,25382912,20790264,0.8726281444755164,0.1603033306228079,0.8764887907115856,2048,0,1,1,19.282258003869075,0.8573896787302779,0.0192238736934565,16.900682999999997
256,1024,25.18577347613492,54761,11768,25792512,14486120,0.8038777899806837,0.2323807987207439,0.45956886332543856,256,0,1,1,36.77508279761757,0.6628883792598002,0.0702511758241248,16.900682999999997
256,128,21.96064244289053,11683,674,24596480,20937088,0.7762419576987539,0.18736011380782,0.49851698650625714,256,0,1,1,33.901920009676275,0.8662545643284363,0.0150493428971751,16.900682999999997
256,1536,14.653411879194325,28797,1625,34574336,14873696,0.9714269707343498,0.2759632398952921,0.8715038102093573,256,0,1,1,19.39255204855619,0.5218027240365126,0.0496400887069045,16.900682999999997
256,2048,7.5568419625190195,17872,32,39022592,24428152,1.0943657760744188,0.1442666138084304,1.0,256,0,1,1,11.349524415916708,0.5485718259691645,0.058996514220418,16.900682999999997
256,256,14.582894937472089,12299,63,24858624,20945192,0.7878548570403139,0.2485709015008542,0.5489938068759551,256,0,1,1,30.784833614377547,0.8634043969259091,0.0147703630666211,16.900682999999997
256,512,10.25740990304673,6313,4326,25120768,20907336,0.8764807119766062,0.1907327768466356,0.6907085339333368,256,0,1,1,24.46861761466401,0.865016640229269,0.0166036447591266,16.900682999999997
512,1024,22.03547072294907,6953,4375,30502912,24586888,0.8164799459439482,0.1831784394725492,0.548642674307544,512,0,1,1,30.804535978413973,0.6568729118259423,0.0685195314949536,16.900682999999997
512,128,14.399487943017093,12368,62,24858624,20948272,0.7272892075891393,0.2282441395268995,0.5070935143567217,512,0,1,1,33.32853314331878,0.8654634034899432,0.014392312826785,16.900682999999997
512,1536,11.828522154935316,17046,129,39284736,24444984,0.9736671787258893,0.2253537489500713,0.9337263697481106,512,0,1,1,18.10025243750935,0.5323388421193503,0.0546789684340118,16.900682999999997
512,2048,6.692576746216636,1810,7697,39284736,24317144,1.0641515855838573,0.1213387122012118,1.0,512,0,1,1,12.682188034213482,0.5423931432192066,0.0590322720812241,16.900682999999997
512,256,9.750142369041782,22003,4335,25382912,20771120,0.9427960070467433,0.221017477475236,0.8658506759131034,512,0,1,1,19.51916591411906,0.860654943955512,0.0190709049256892,16.900682999999997
512,512,11.98355084190817,9915,3728,25120768,21020520,0.9009478540220853,0.207120174821367,0.7218779303145858,512,0,1,1,23.412106521437607,0.8674810489673108,0.0151504458019531,16.900682999999997
