cpu,memory,duration_std,userDiff,sysDiff,heapTotal,heapUsed,avg_cpu_util,cpu_util_std,slo_preservation,total_cpu_shares,cpu_shares_others,num_containers,arrival_rate,latency,memory_util,memory_util_std,slo_duration
1024,1024,154.25459573558473,85078,7983,26316800,14439496,0.6641548610424686,0.2523170474428339,0.5676870501545597,1024,0,1,1,657.422430410186,0.6802550271501994,0.0904324717607736,373.2102002249998
1024,128,150.82256425563807,84824,26814,18841600,14227280,0.7088138232517498,0.2076829294401483,0.5464900088165912,1024,0,1,1,682.9222752547225,0.8547508561854646,0.0485718031273067,373.2102002249998
1024,1536,160.99266866184882,72079,19069,35360768,14579840,0.628656810657192,0.2215619469206879,0.6434293848309081,1024,0,1,1,580.0328816550377,0.5490892059212117,0.1133824799220465,373.2102002249998
1024,2048,120.15400315129848,79660,55205,34050048,14481304,0.5663527646582108,0.1944419649434915,0.6210982057725308,1024,0,1,1,600.8875838898869,0.5812963004507616,0.1243536008462858,373.2102002249998
1024,256,123.50717946789398,14242,16341,36016128,31811264,0.5773524256985889,0.2122737764865046,0.6273077380830449,1024,0,1,1,594.9395768103743,0.8543841761599366,0.0423009003563565,373.2102002249998
1024,512,136.4354619106699,158430,43871,29016064,24636232,0.6669850789713117,0.1743634774318488,0.6018265127016751,1024,0,1,1,620.1292105753404,0.8382959104567856,0.0533366811413738,373.2102002249998
128,1024,136.67128428513575,79616,27696,26054656,14349712,0.6622168384382424,0.1945501305184369,0.5740100215824203,128,0,1,1,650.1806348191287,0.6323599173480158,0.0803580861337191,373.2102002249998
128,128,146.10904277668942,101206,32906,30965760,25845936,0.6042978728249011,0.1215673496669203,0.4476839497878981,128,0,1,1,833.6465946608491,0.8267503469103126,0.05372223295039,373.2102002249998
128,1536,134.49828726545013,95270,15797,34574336,14571824,0.5925336406627472,0.1987054417298892,0.5475537338792595,128,0,1,1,681.595571599729,0.5058518669393853,0.0944199858673751,373.2102002249998
128,2048,125.95744122089988,125151,40453,60166144,41256744,0.630347511203264,0.2587284866767473,0.5479030748000803,128,0,1,1,681.1609888504045,0.5711557059039828,0.1174203662646574,373.2102002249998
128,256,119.4063155569154,35752,11991,35958784,31527032,0.6965245880992976,0.1961462754784053,0.6066901366593521,128,0,1,1,615.1578502331117,0.8272708868791165,0.0515895628884402,373.2102002249998
128,512,155.4357119141906,158337,51812,19103744,14197736,0.6922610177502089,0.1708299636070327,0.4391574833792798,128,0,1,1,849.8322682632636,0.8318879955371751,0.0490890123839721,373.2102002249998
1536,1024,146.42581599119865,76940,8789,25792512,14439760,0.6422061464998259,0.2219148622708737,0.5546360364046606,1536,0,1,1,672.8920872943547,0.6456656171163248,0.0766869997570277,373.2102002249998
1536,128,146.996988968133,83652,23343,19103744,14238152,0.6969140794080172,0.1966332235568966,0.45943505928766637,1536,0,1,1,812.3241635143074,0.8264408206558356,0.0462181984113216,373.2102002249998
1536,1536,132.5376347370898,84894,8243,34312192,14572216,0.6355708958595472,0.1970958481907524,0.5859680608108043,1536,0,1,1,636.912188880378,0.5324147700789991,0.1115490575946128,373.2102002249998
1536,2048,130.37043594632445,115649,22314,34050048,14480248,0.5617706390130537,0.1796243332702959,0.5639437769441618,1536,0,1,1,661.7861841606115,0.5215404553515339,0.1046734721617897,373.2102002249998
1536,256,100.90592794433928,30063,7553,35569664,31650896,0.5256300377236354,0.1475887694870191,0.5245628977524438,1536,0,1,1,711.4689236010901,0.8311829813362606,0.049017461255148,373.2102002249998
1536,512,158.57106860495267,11725,23729,36278272,31871232,0.7425871451877821,0.2787956017422027,0.5158357243349502,1536,0,1,1,723.5059198471904,0.8229236610742369,0.0585372594023974,373.2102002249998
2048,1024,154.66177750723458,68264,25892,25792512,14439552,0.6369064109876419,0.2218995838272632,0.540101446493563,2048,0,1,1,691.0001864426553,0.6251619824682685,0.0676497195547531,373.2102002249998
2048,128,159.81367972873633,131776,18209,26062848,21208832,0.673199178414028,0.2119982099411352,0.4924116783816222,2048,0,1,1,757.9231293855698,0.8347607900459513,0.0437958531203496,373.2102002249998
2048,1536,155.5461442830381,112175,27862,34312192,14475392,0.6444088917520527,0.2072607580161207,0.6111969305809724,2048,0,1,1,610.6218496062233,0.5163553719925144,0.0983979334068837,373.2102002249998
2048,2048,152.0347144050917,73974,15396,35098624,14581240,0.6561991467091061,0.2206942982239896,0.5775432719877984,2048,0,1,1,646.2030090671449,0.4972652015797704,0.0912103628463104,373.2102002249998
2048,256,138.8428216036414,121344,41359,36499456,31640232,0.6408539618447551,0.2151441087137784,0.577508765452781,2048,0,1,1,646.2416201291662,0.8582177516664311,0.0457690262669605,373.2102002249998
2048,512,135.896001626866,108415,28698,36851712,32690888,0.7095169209053286,0.2292829691819642,0.4753331201376138,2048,0,1,1,785.155051087018,0.8247885681937698,0.0564178443155607,373.2102002249998
256,1024,149.59554079340307,82163,8407,26054656,14368128,0.7037692624379102,0.2881641595160128,0.5414912419111579,256,0,1,1,689.2266602646773,0.6715647379185515,0.0901800171366924,373.2102002249998
256,128,157.2179109611189,163783,35988,37998592,32973864,0.6640004876060712,0.1509083163250658,0.5223445305543915,256,0,1,1,714.4904912259585,0.8346900896039717,0.0506540456752652,373.2102002249998
256,1536,119.82923254487532,115217,30981,34312192,14480448,0.6514673730933416,0.22541149644794,0.6351171294600861,256,0,1,1,587.6242080610647,0.52096690810197,0.1045117391139903,373.2102002249998
256,2048,149.6879233957103,101128,32175,34836480,14475384,0.5790333691001616,0.1921637506818997,0.5829393966647813,256,0,1,1,640.2212689008115,0.5208203790822178,0.1034305948401197,373.2102002249998
256,256,139.90554420238132,120915,24190,32473088,28071048,0.6511433962898464,0.2684214055631884,0.5387375482103437,256,0,1,1,692.7495613862138,0.8404744570215664,0.051734383095181,373.2102002249998
256,512,159.79085247799503,99740,12056,28106752,23130128,0.7252252099934426,0.232740534394993,0.5389544716911626,256,0,1,1,692.4707370066328,0.8405299081673447,0.0453197786907869,373.2102002249998
512,1024,157.05401143078538,13383,19389,31023104,21385344,0.6165275767761936,0.2386723261466798,0.5946921365694233,512,0,1,1,627.5687490638812,0.6896663441031451,0.0830243210035443,373.2102002249998
512,128,134.25900910335815,117985,22477,32210944,28047008,0.6493452769386615,0.1952899256255876,0.4955899261400771,512,0,1,1,753.062523146431,0.8503540975186489,0.0476122979298904,373.2102002249998
512,1536,172.88135642821248,100190,40864,34312192,14475840,0.6571553994461866,0.2675006359781885,0.5670457956530016,512,0,1,1,658.1658890446695,0.5423136774193217,0.1068520204581632,373.2102002249998
512,2048,106.30404001105528,105988,27486,34574336,14573640,0.6837341644790234,0.2416234468973111,0.6580911864389359,512,0,1,1,567.1101633263248,0.5087774970103387,0.0858280912677032,373.2102002249998
512,256,133.52508788640506,136513,39900,37736448,33000632,0.6618591261302722,0.2226263461914761,0.5496451707293113,512,0,1,1,679.0020545978707,0.838553345296455,0.045983013903039,373.2102002249998
512,512,150.88284875909576,36599,12100,33644544,29064024,0.6479365014636137,0.2480395867006345,0.5801209759322274,512,0,1,1,643.3316768545877,0.8332157631115432,0.0498747487913758,373.2102002249998
