cpu,memory,duration_std,userDiff,sysDiff,heapTotal,heapUsed,avg_cpu_util,cpu_util_std,slo_preservation,total_cpu_shares,cpu_shares_others,num_containers,arrival_rate,latency,memory_util,memory_util_std,slo_duration
1024,1024,548.764933331597,1762530,180267,43700224,34846192,0.9728698876100561,0.1874342165550483,0.251243324951815,1024,0,1,1,959.7237693959738,0.8266043067971518,0.0289034843025396,241.1241908583334
1024,128,964.6893613891826,1839513,189423,36225024,32715864,0.954110654491106,0.0956491267546215,0.14613021865758485,1024,0,1,1,1650.063847665487,0.9266619303447948,0.0135115382941317,241.1241908583334
1024,1536,326.4655956510935,1441564,143487,52219904,34488192,1.0087061865689393,0.1816692402907011,0.4143259666156942,1024,0,1,1,581.9673645557118,0.7005996457267945,0.0391570468855038,241.1241908583334
1024,2048,199.4582749549843,1382296,142975,52482048,38025120,1.0425610917202612,0.1228523794408627,0.8878044703751132,1024,0,1,1,271.5960539784781,0.7230458101885253,0.0529808922781018,241.1241908583334
1024,256,576.9920828609105,1765358,131263,36225024,32837824,0.9632313046618012,0.1796506382334622,0.259405654526881,1024,0,1,1,929.5255776058914,0.9295535207463178,0.0113336759397093,241.1241908583334
1024,512,565.6945687820978,1602587,150384,35962880,32847336,1.0088626427401226,0.1356629948439651,0.25663527854313206,1024,0,1,1,939.5597995222947,0.9269671418669968,0.0093097299029907,241.1241908583334
128,1024,573.9382797325054,1714458,101384,43438080,34527360,0.9689133581567729,0.1905164171466958,0.26733426096468926,128,0,1,1,901.9576839430326,0.8256159946568568,0.0215201610187323,241.1241908583334
128,128,1147.6616692946468,1842474,129032,36225024,32963032,0.9581969184462445,0.1828422996084368,0.13375761180281406,128,0,1,1,1802.695096065258,0.9129150823980714,0.0327711821058939,241.1241908583334
128,1536,338.6220199610663,1520666,110968,52482048,38758360,0.9598674543924051,0.220634055284799,0.4842673291280856,128,0,1,1,497.91546188439565,0.7235272764779583,0.0553542639530898,241.1241908583334
128,2048,192.85145916729903,1338491,117893,51957760,33859968,1.0271904900326687,0.1374872436099352,0.8352168447058618,128,0,1,1,288.69651323094433,0.7029326345944883,0.0596628200633715,241.1241908583334
128,256,580.62604743067,1731348,143212,36225024,33122888,0.9829908523260446,0.1279828840924267,0.2493359301726443,128,0,1,1,967.0655596703414,0.9262562087770174,0.0103763162112167,241.1241908583334
128,512,574.1400947504574,1775344,92638,36225024,33597376,0.9931936809882865,0.1262077825798062,0.24777201157096992,128,0,1,1,973.1696059192208,0.9329734550451708,0.011829600312915,241.1241908583334
1536,1024,571.6010531398038,1789213,153730,43175936,33864160,0.9266352908376094,0.2311691830882766,0.2936937569342631,1536,0,1,1,821.0055037441732,0.8238758354919472,0.0283503016572089,241.1241908583334
1536,128,995.9499393997212,1823119,208729,35962880,32523272,0.9449460626002287,0.0991280229581565,0.14537978968277404,1536,0,1,1,1658.5812332269736,0.9270295071593344,0.0098527625406368,241.1241908583334
1536,1536,364.25906288046366,1537265,119031,52219904,34858504,0.9948005885957533,0.1919647297456239,0.3923833621861463,1536,0,1,1,614.5117609343088,0.6946513627854947,0.0430707402733364,241.1241908583334
1536,2048,205.96552631291453,1420130,106321,52482048,34652704,1.0453126511930404,0.1141321948852283,0.9486921629961131,1536,0,1,1,254.1648389893164,0.7394956250335719,0.0435820470882091,241.1241908583334
1536,256,450.8232998831906,1584581,112088,35962880,32514608,1.027543405599826,0.1799890255065918,0.31205104466733463,1536,0,1,1,772.7075264733897,0.9305578081082462,0.0130867300447832,241.1241908583334
1536,512,532.7072223150786,1641528,177944,35962880,32029240,1.001049741062434,0.1663330730706,0.2705995922386806,1536,0,1,1,891.0737405903088,0.9234853119805936,0.0133114300439007,241.1241908583334
2048,1024,525.1619924884844,1618098,127746,43175936,34399392,0.9356307349993369,0.221707569035993,0.28258754021849625,2048,0,1,1,853.2725493554902,0.8109702692640134,0.0301798804006057,241.1241908583334
2048,128,608.1317666496374,1704036,114985,36225024,32647640,1.007401207807022,0.1549817540426327,0.24911154639362437,2048,0,1,1,967.9366305941113,0.9235795160683896,0.0116392838059686,241.1241908583334
2048,1536,367.115371770475,1697730,164881,53268480,35063824,0.9801103468566815,0.1888050475628767,0.38983385092727574,2048,0,1,1,618.5306644992089,0.6887430729234864,0.0368783122636587,241.1241908583334
2048,2048,187.24434129658587,1407167,64284,51695616,40230184,1.060048675533545,0.1722954963543372,0.9943893111733272,2048,0,1,1,242.48469703864728,0.7193391479562512,0.0431928256362985,241.1241908583334
2048,256,338.2597789158935,1606627,85080,35962880,32632712,0.9860341102608636,0.2276745584814761,0.49251152569328827,2048,0,1,1,489.5808083250697,0.9296256680427089,0.0095169142086672,241.1241908583334
2048,512,566.4949991431173,1848701,123578,35962880,33063568,1.0045884356066985,0.1279568885362265,0.24739113650794384,2048,0,1,1,974.6678650736171,0.9300752615224738,0.0102868898154812,241.1241908583334
256,1024,554.435853339897,1769516,133800,43438080,33506376,0.9645732999906997,0.1952725756181993,0.2683702320042551,256,0,1,1,898.4759190971312,0.8209625740116724,0.0328985171195588,241.1241908583334
256,128,610.537621847309,1772686,157739,35962880,32458448,1.0011466609606055,0.1639763382080402,0.25616456800163934,256,0,1,1,941.2862705383609,0.9284765806166236,0.0113263655023305,241.1241908583334
256,1536,369.2024348938601,1703398,126588,52482048,35600296,1.0026808535795675,0.1671994919649963,0.4309027525007712,256,0,1,1,559.5791381209658,0.6689831217382194,0.0392190057196957,241.1241908583334
256,2048,200.51744344189845,1428428,92039,52219904,38396664,1.0499712994412422,0.1417924161829975,0.9254574680833197,256,0,1,1,260.5459453017508,0.7240328262596296,0.0293481816191804,241.1241908583334
256,256,357.614598214428,1653323,89746,36225024,32035880,1.00943121940444,0.1955548708872125,0.4458065868599132,256,0,1,1,540.8717546250666,0.9251520429984332,0.0140988567598477,241.1241908583334
256,512,563.5384492512632,1773628,110071,36487168,33822512,0.9981237932815582,0.1583961485121463,0.2617405326540401,256,0,1,1,921.2336676071615,0.9220788413811706,0.0317934090926069,241.1241908583334
512,1024,596.7543818485118,1667586,149771,43175936,36486424,0.9776012132512457,0.1805611086485556,0.2519789021613614,512,0,1,1,956.9221422511125,0.8296331488798737,0.0262898340390082,241.1241908583334
512,128,609.3064921450178,1781892,184895,36225024,33318296,0.9934279641176366,0.1180891796557176,0.24273585848330242,512,0,1,1,993.3604056893807,0.9275802688423458,0.0087270972441729,241.1241908583334
512,1536,360.49147408600015,1543230,111863,52744192,36540392,1.015563982645187,0.1449572703573966,0.4458969491725257,512,0,1,1,540.762145392114,0.7323667602526087,0.0395815741300704,241.1241908583334
512,2048,199.38045858513215,1390066,111427,51957760,39381320,1.0459472783305863,0.1182426052782798,0.8360557114208724,512,0,1,1,288.40684605639984,0.6798959069137374,0.0433336169018137,241.1241908583334
512,256,395.2816404459006,1630895,173840,36225024,33162560,1.0011878497666482,0.1966984045071481,0.4180703974481247,512,0,1,1,576.7549970773828,0.931342773902658,0.0090186151678814,241.1241908583334
512,512,585.1715790179019,1947926,121235,36749312,33731768,1.0012676574636252,0.1954979419290481,0.24723510104971794,512,0,1,1,975.2829991961552,0.9287070751536796,0.0131780353405825,241.1241908583334
