cpu,memory,duration_std,userDiff,sysDiff,heapTotal,heapUsed,avg_cpu_util,cpu_util_std,slo_preservation,total_cpu_shares,cpu_shares_others,num_containers,arrival_rate,latency,memory_util,memory_util_std,slo_duration
1024,1024,93.63143957205628,389593,74336,44937216,30169712,0.8582638422954798,0.0877824520121188,1.0,1024,0,1,1,475.15342504285655,0.777049720867814,0.1024199991183939,634.1674401238937
1024,128,312.02145924607635,405792,49430,46645248,44205400,0.3942805848998241,0.0615383381702844,0.4054819278147498,1024,0,1,1,1563.984475317041,0.8801862263230511,0.0486460513099199,634.1674401238937
1024,1536,69.6072384319191,389212,51618,59494400,44550664,1.1538202720752555,0.1170066949893687,1.0,1024,0,1,1,295.9627883661258,0.719359030665909,0.1123714025988038,634.1674401238937
1024,2048,56.048850774566375,327686,18985,59494400,44860936,1.2789191560000295,0.2296027226984241,1.0,1024,0,1,1,237.28954780000097,0.7046547993345156,0.1500800824238442,634.1674401238937
1024,256,503.1741555578728,423489,59608,33005568,29968336,0.5022529082626769,0.2772370662003142,0.45572812883963076,1024,0,1,1,1391.5477232853782,0.8465419246832904,0.0790638115719179,634.1674401238937
1024,512,172.8429754341035,403911,43790,33005568,29877472,0.5062935365695539,0.0436651089715611,0.6015303031718293,1024,0,1,1,1054.2568458811982,0.8819713080731009,0.0758248334871794,634.1674401238937
128,1024,107.60111055540844,405299,61648,52809728,45306312,0.8989934453288604,0.1014428675276362,1.0,128,0,1,1,475.10023383144664,0.7407054753557534,0.1047877821085946,634.1674401238937
128,128,493.8527030166944,471113,107417,46383104,44280960,0.6011043267857101,0.2759920310149818,0.5088652297286762,128,0,1,1,1246.2384990659075,0.8999741375963769,0.0337840825987405,634.1674401238937
128,1536,94.64991851169134,427090,38573,56872960,45158248,1.1798241085259336,0.1648201742812029,1.0,128,0,1,1,303.2104133554861,0.6924928431370057,0.1206977133563914,634.1674401238937
128,2048,58.27147219204127,279551,33271,54243328,30561864,1.3460230321028295,0.2242193554385669,1.0,128,0,1,1,214.71025565721675,0.7089287393742963,0.170660328574194,634.1674401238937
128,256,1094.0917279005932,388547,63174,34840576,29849952,0.38349245516445424,0.1966890582639704,0.3042258264603118,128,0,1,1,2084.528613176846,0.8550235855534036,0.0563507399241672,634.1674401238937
128,512,276.21557833163695,480570,38087,33005568,30194432,0.5272436549954154,0.1092427557718691,0.6153423725949099,128,0,1,1,1030.5928347654626,0.8870264474906765,0.0547576770045095,634.1674401238937
1536,1024,120.1937057830088,511490,55065,51761152,45440576,0.9073613131760557,0.140661722072502,1.0,1536,0,1,1,456.6035465104236,0.7620442212051632,0.1243396467220835,634.1674401238937
1536,128,987.0791940319442,417913,76619,36151296,29548344,0.45018866068330576,0.2080998092656083,0.3487584237995781,1536,0,1,1,1818.3573409206952,0.8719119839105378,0.0572591037939471,634.1674401238937
1536,1536,58.66095231380094,415926,32183,62902272,44400376,1.5016565651422038,0.2349346327290899,1.0,1536,0,1,1,217.05096314658456,0.7476674856005318,0.128483828941118,634.1674401238937
1536,2048,35.52398756799008,252619,64869,44806144,30536160,1.6279849402348023,0.3133092622858539,1.0,1536,0,1,1,163.36318334602393,0.7457816252102022,0.1163159751853112,634.1674401238937
1536,256,430.33347922154303,483726,41931,34578432,30014328,0.5617499180394994,0.2382715756390793,0.5358504896142972,1536,0,1,1,1183.4783254193994,0.8873769380670665,0.071682500595396,634.1674401238937
1536,512,274.74701523621127,429063,58672,36937728,29641688,0.7207103259669763,0.2946857882069321,0.7778636526412516,1536,0,1,1,815.2681231094492,0.8578618414313324,0.0699625421296312,634.1674401238937
2048,1024,185.14652376141893,458597,62016,40480768,30762992,0.9693502970165757,0.3561455737995748,1.0,2048,0,1,1,473.89602378519163,0.7846462376214247,0.0673598319126783,634.1674401238937
2048,128,512.3787203722675,411911,57857,39034880,29610408,0.6872459296660389,0.3682777031327892,0.5392698413323778,2048,0,1,1,1175.9742368626655,0.8717179505290744,0.0645081990112667,634.1674401238937
2048,1536,60.9000535474256,288414,47170,44806144,30524000,1.5072696090283846,0.2501014359882527,1.0,2048,0,1,1,214.70738752506958,0.7347594949319576,0.1179901059670686,634.1674401238937
2048,2048,37.77388771768199,342174,52466,58970112,45706192,1.6086882927851256,0.3048858214305799,1.0,2048,0,1,1,154.03203942199733,0.6830211044805895,0.1551589463861515,634.1674401238937
2048,256,359.4416255989553,468694,46363,32743424,30176264,0.5661711843101908,0.2577795131448344,0.560974664989155,2048,0,1,1,1130.4742971523565,0.8737911478063969,0.0794774168122538,634.1674401238937
2048,512,169.99103771748912,413709,62012,39821312,29938936,0.5265302684529962,0.109834033918952,0.6350307626993338,2048,0,1,1,998.6405027501812,0.8696712125417164,0.0783274474306771,634.1674401238937
256,1024,98.35102165183288,371646,51369,44150784,30017224,0.9502460290404647,0.1048905634193673,1.0,256,0,1,1,445.4223071530357,0.7238267884299628,0.0909808479301748,634.1674401238937
256,128,509.16159301164095,429646,51235,35627008,29794240,0.39997538788684456,0.132525431138296,0.38184565368631,256,0,1,1,1660.7952296999786,0.8575532833710847,0.0644893533841466,634.1674401238937
256,1536,63.45543829739872,444782,16406,57921536,46162312,1.4366086560508866,0.3858841541813194,1.0,256,0,1,1,223.01186729238538,0.7486516066906168,0.1291238814640047,634.1674401238937
256,2048,34.93338736312371,346671,50587,59756544,45000088,1.6847998872446168,0.2987218782548553,1.0,256,0,1,1,162.00179686536552,0.6979296143929405,0.1391663741967561,634.1674401238937
256,256,257.92098729781634,389445,63387,32481280,29608016,0.3529061233337159,0.053226109615884,0.40748636593264354,256,0,1,1,1556.2911870006467,0.8797030152263234,0.0520385530381682,634.1674401238937
256,512,174.8453036593537,338648,51358,32481280,29615120,0.518876843821477,0.0807249386046956,0.6134924483236318,256,0,1,1,1033.7004829590915,0.8724320242528277,0.0786506603693194,634.1674401238937
512,1024,119.77729692438054,501063,74026,54382592,44543816,0.9105649833198507,0.0980680952511417,1.0,512,0,1,1,461.7121460041384,0.740846881921143,0.1125680387323596,634.1674401238937
512,128,817.42411845479,388036,76943,40607744,30136456,0.3749810003199377,0.2465690870545676,0.30684776520351387,512,0,1,1,2066.7168284679806,0.8268702930464316,0.0791522150958324,634.1674401238937
512,1536,54.56038591468116,278588,60648,45068288,30206504,1.460796395482796,0.1904451592262825,1.0,512,0,1,1,206.5332033502634,0.7424020578763466,0.1285814744239019,634.1674401238937
512,2048,39.386204802810255,371350,48017,58970112,46095152,1.637182743799565,0.3170588196038875,1.0,512,0,1,1,155.37242093663752,0.6946406686685254,0.1530332737930783,634.1674401238937
512,256,294.6224041979126,435905,54630,35102720,29639280,0.3732027641739657,0.0620749194504591,0.40467680035960746,512,0,1,1,1567.0961111690965,0.8791436377739654,0.0648686364913512,634.1674401238937
512,512,229.2310082037409,493626,42852,46907392,44181424,0.5135817674161766,0.0855709854830369,0.597935755360085,512,0,1,1,1060.594611442812,0.8933933342676207,0.0661916130677636,634.1674401238937
