cpu,memory,duration_std,userDiff,sysDiff,heapTotal,heapUsed,avg_cpu_util,cpu_util_std,slo_preservation,total_cpu_shares,cpu_shares_others,num_containers,arrival_rate,latency,memory_util,memory_util_std,slo_duration
1024,1024,560.5362540436838,2005025,209544,63881216,53954544,1.070298307807587,0.1652960799861998,1.0,1024,0,1,1,678.2577974840864,0.8314663511740003,0.0627503302922027,1902.9208897857145
1024,128,2441.707585473137,2331302,255686,57688064,54461544,0.45456612230441373,0.1444121739052259,0.236165878398219,1024,0,1,1,8057.560654791293,0.9273891660874276,0.0309263230828724,1902.9208897857145
1024,1536,397.9107852247626,2151053,135352,88031232,67213840,1.3059976380526477,0.2262434840569299,1.0,1024,0,1,1,416.7778128446418,0.7869941288730073,0.0598118742907365,1902.9208897857145
1024,2048,208.9162491030734,1647488,137099,75677696,59320824,1.4866568777800602,0.3301712912478089,1.0,1024,0,1,1,267.148122411519,0.7739018466166283,0.0852986550178981,1902.9208897857145
1024,256,3754.796558485939,2251914,217951,48111616,41455000,0.38893759754409934,0.069810039252719,0.29069124307093935,1024,0,1,1,6546.192687756101,0.9160510795315208,0.0275456092962347,1902.9208897857145
1024,512,1591.811183991682,2330333,170764,57561088,54479616,0.6692779454978679,0.1101445495240555,0.9242628223133375,1024,0,1,1,2058.8525729325493,0.9144905237257068,0.0390064974520132,1902.9208897857145
128,1024,590.2451039044066,1976917,159547,73846784,62861544,1.075107084844742,0.2059212038191142,1.0,128,0,1,1,730.0202131576011,0.8462899777492368,0.052254070849961,1902.9208897857145
128,128,1024.8540475,2315355,236709,77320192,73414848,0.8900692837071852,0.2722982288107303,0.49755342570442157,128,0,1,1,3824.555899884751,0.9479939925601016,0.001497286509666,1902.9208897857145
128,1536,386.682496142712,1879920,136680,67977216,45401440,1.16390593585741,0.1723415213570857,1.0,128,0,1,1,434.7022331487089,0.7710396203456844,0.0588628843588639,1902.9208897857145
128,2048,236.7710062956336,1851435,158550,79286272,58240096,1.4772694777897342,0.2632115249160759,1.0,128,0,1,1,274.8908451641329,0.7938422396812934,0.0595246663274416,1902.9208897857145
128,256,4268.489846252766,2147610,214248,68837376,64453120,0.4443010467584039,0.2554674925924548,0.2555547315426797,128,0,1,1,7446.236187052992,0.9175065796158778,0.0279678091958265,1902.9208897857145
128,512,1392.7891226887966,2183507,207953,57823232,54784760,0.6441064115979226,0.056532456503343,0.9146123307816056,128,0,1,1,2080.5764647405576,0.919606954422933,0.0362783879703424,1902.9208897857145
1536,1024,577.1169588691898,1911032,158329,83316736,65951800,1.0102130669156844,0.2019927957143468,1.0,1536,0,1,1,819.3772638048858,0.8202866118673325,0.0546991857688469,1902.9208897857145
1536,128,2770.780635394395,2201240,304117,89882624,86107336,0.43220897550293663,0.2993522539904352,0.19772483770604626,1536,0,1,1,9624.086239558586,0.9228928528096588,0.0261175819306578,1902.9208897857145
1536,1536,388.5720829121264,1987143,195457,99729408,79657848,1.2509803694075283,0.1912313503164484,1.0,1536,0,1,1,429.4198532393897,0.7851966755706444,0.0666400879905674,1902.9208897857145
1536,2048,203.7355819907136,1608195,149026,63782912,45404504,1.5098248579343645,0.2867941562707977,1.0,1536,0,1,1,270.6294370604391,0.7660501936074068,0.0549374254672278,1902.9208897857145
1536,256,3047.2772835324004,2296443,216191,63389696,58608504,0.39355786093754447,0.0696248696124061,0.31930105789223173,1536,0,1,1,5959.644801515112,0.9141680849456086,0.0258819931876905,1902.9208897857145
1536,512,1428.9220894115324,2228843,186030,58269696,54789744,0.6373179852289081,0.0527424842493679,0.8562062626797246,1536,0,1,1,2222.502885963505,0.9312180965517616,0.0227183496917764,1902.9208897857145
2048,1024,578.1479397484505,2048921,213728,64405504,54106920,1.093672893946377,0.1861413624774332,1.0,2048,0,1,1,729.9947139441412,0.8289103860193471,0.0597425973544651,1902.9208897857145
2048,128,1414.556099027741,2599062,331476,52215808,45869736,0.5916435195063579,0.1545375694896425,0.31934592045631865,2048,0,1,1,5958.807574765945,0.9304837628110127,0.0290630975230875,1902.9208897857145
2048,1536,407.8807028404568,1973835,235836,104292352,83923656,1.2908429402609995,0.1610168351789734,1.0,2048,0,1,1,459.56716797633135,0.7858577556319781,0.0781342585598595,1902.9208897857145
2048,2048,205.7788592767761,1558176,171213,72990720,56034688,1.484670440531855,0.2691879704671218,1.0,2048,0,1,1,264.310293674461,0.7712622092819077,0.0411456553114473,1902.9208897857145
2048,256,4549.230679972702,2631368,261856,67604480,64364328,0.3974897919882301,0.1336063636963384,0.25829379560745497,2048,0,1,1,7367.272935497455,0.917416583797428,0.0403903263821296,1902.9208897857145
2048,512,1444.6298488516318,2232802,175264,67342336,64343424,0.6471653275681907,0.0597568575984347,0.8744595893412539,2048,0,1,1,2176.110723674743,0.9157147807895292,0.0341891863083227,1902.9208897857145
256,1024,585.0808582554297,1990588,173817,95219712,83579640,1.0719580924451848,0.1959717179060279,1.0,256,0,1,1,740.552852727421,0.8430891986690243,0.0601306884761986,1902.9208897857145
256,128,3061.7760215024223,2330133,199888,58474496,54392408,0.5758529883922557,0.2535530638251173,0.2821405975001417,256,0,1,1,6744.583752378134,0.9285581680325768,0.0103611278846743,1902.9208897857145
256,1536,373.1942470979211,1810430,173837,78761984,58444016,1.2318271317388259,0.1878595941855187,1.0,256,0,1,1,440.53048692548884,0.7770040045029561,0.0573260662838542,1902.9208897857145
256,2048,281.6278115188612,1790277,204080,89452544,71580384,1.4613514917008013,0.2713515564724311,1.0,256,0,1,1,283.85421260188747,0.7939198976222598,0.0728356799362029,1902.9208897857145
256,256,3269.516496175053,2135795,185626,68837376,64483392,0.35188107860495155,0.0409224259756982,0.2949614465488349,256,0,1,1,6451.422421644044,0.922016424701932,0.0267503114638901,1902.9208897857145
256,512,1444.3955543232405,2202497,189115,68653056,64246896,0.6535443717999396,0.0986618063735334,0.8155475178813747,256,0,1,1,2333.3047407576114,0.9278214123836894,0.0234711802322325,1902.9208897857145
512,1024,559.076803810788,1984419,223561,72613888,62242856,1.075768120381725,0.1047921856669864,1.0,512,0,1,1,733.7915944527183,0.8338250010708123,0.0470523577228048,1902.9208897857145
512,128,390.6670040439567,2230212,273068,57823232,54615856,0.5770347207428376,0.0721045821615988,0.35516371604431674,512,0,1,1,5357.869635388856,0.9252030986081118,0.0182450538133445,1902.9208897857145
512,1536,390.9310779904279,1883174,119488,76111872,59225928,1.330461671943641,0.1981676814305683,1.0,512,0,1,1,421.99336254729985,0.79353680882559,0.0686425251236003,1902.9208897857145
512,2048,238.8787488375409,1860308,191659,100515840,79687624,1.4981665662468862,0.2277152877567133,1.0,512,0,1,1,283.94046055016724,0.7679084412576194,0.0668992437974584,1902.9208897857145
512,256,4474.143013667927,2269450,250863,76873728,73508848,0.4155500885763656,0.1309879027749352,0.2881138681865289,512,0,1,1,6604.752842212154,0.9245198834871248,0.039367349796658,1902.9208897857145
512,512,1589.231145718652,2324089,185178,58007552,54821184,0.6661125066409875,0.1693940107200967,0.9342245253357367,512,0,1,1,2036.8988804932656,0.9259669896425702,0.0345439217260288,1902.9208897857145
