cpu,memory,duration_std,userDiff,sysDiff,heapTotal,heapUsed,avg_cpu_util,cpu_util_std,slo_preservation,total_cpu_shares,cpu_shares_others,num_containers,arrival_rate,latency,memory_util,memory_util_std,slo_duration
1024,1024,79.90074112732012,253899,39236,39694336,30953448,0.9875169616006363,0.1733375511912633,0.3123930617899306,1024,0,1,1,535.6682102736708,0.8047974899525178,0.1012475335076848,167.33903231092435
1024,128,77.66772565683732,261424,53876,33005568,29860920,0.9566570241704084,0.1245393916396772,0.22951124702643777,1024,0,1,1,729.1103790292608,0.8868037617595442,0.0589623839373019,167.33903231092435
1024,1536,47.23057548374074,239522,40245,50311168,29934192,1.0612698544626378,0.2631617788086552,0.41297701160741784,1024,0,1,1,405.2018093200775,0.7415917720526268,0.0937532958149595,167.33903231092435
1024,2048,30.587551662891656,253359,53285,49786880,29922960,1.1942775311986575,0.2077293739514486,0.5919194530349607,1024,0,1,1,282.7057489881833,0.7547790810751953,0.0998309393579556,167.33903231092435
1024,256,52.23683545923395,274773,40529,32481280,29826088,1.0184547627073068,0.1527332275675688,0.26324236740250745,1024,0,1,1,635.6842705910508,0.8860906478282653,0.043782733169361,167.33903231092435
1024,512,50.05027379730027,299640,39667,33267712,30452624,1.043253010472648,0.1412607208493402,0.2804707137766773,1024,0,1,1,596.6363833771493,0.8670349188408333,0.0626916990154743,167.33903231092435
128,1024,70.48805326924494,240966,33025,38121472,30141360,0.9701288741376548,0.1941488816464239,0.30519907711201244,128,0,1,1,548.29468651869,0.8093517902880212,0.0777746772103852,167.33903231092435
128,128,207.50092507440925,302418,32136,32743424,29958832,1.0596597447025358,0.3293406347903944,0.2165392981006098,128,0,1,1,772.7882826754814,0.8890835163168744,0.0691789522727033,167.33903231092435
128,1536,56.39228708572804,256117,44622,50573312,29967568,1.1135991480635081,0.1938091423369884,0.4297175800350512,128,0,1,1,389.41630523302035,0.7665092078832637,0.0976021789288576,167.33903231092435
128,2048,33.53112032962088,249543,35351,49786880,29961952,1.1763977350943169,0.2704193035428368,0.5915632986296124,128,0,1,1,282.87595376280785,0.7463343852485907,0.1063978789630726,167.33903231092435
128,256,75.16669412363154,313143,35914,32743424,30136944,0.9773835114153755,0.1624902539165816,0.24565665422658584,128,0,1,1,681.1907165216709,0.8967696469810799,0.0358721672034625,167.33903231092435
128,512,45.069097918014464,278463,42271,33267712,29739608,1.0445541172261612,0.1363367261728528,0.27056087560181513,128,0,1,1,618.4893951821678,0.8446529426340887,0.0699849029372516,167.33903231092435
1536,1024,79.76466801055837,207102,30771,37859328,30501352,1.0171833064016276,0.1398087909441265,0.3001366221936692,1536,0,1,1,557.5428652720209,0.8010739189611478,0.0810308715379904,167.33903231092435
1536,128,106.63503485967624,224988,51972,33005568,30092736,0.9701526522579096,0.1461268881303594,0.24170805987533198,1536,0,1,1,692.3187931640938,0.8610859958580148,0.0745002664268748,167.33903231092435
1536,1536,41.10635798938457,250264,25718,48738304,30554672,1.0774179850751213,0.2291300418402875,0.42877288773410516,1536,0,1,1,390.2742852871245,0.7407980464366356,0.1326431252144009,167.33903231092435
1536,2048,29.470438017030588,265774,29836,50049024,29997736,1.1608870005627474,0.2799733315232592,0.570829395528046,1536,0,1,1,293.1506919963841,0.7346291507562204,0.0896260280686922,167.33903231092435
1536,256,71.71511406464559,296492,39781,32743424,30135504,1.0208489317996965,0.2372390179965585,0.2653784289696161,1536,0,1,1,630.5675746165618,0.8776414814200469,0.0489152982353964,167.33903231092435
1536,512,58.47384254334845,285805,40591,33005568,30048968,1.0414064035633512,0.1353177499454555,0.2805775983079099,1536,0,1,1,596.4090979468863,0.8770560204878797,0.0648031155235531,167.33903231092435
2048,1024,74.88207994558147,277813,40361,39432192,29911656,1.0233594873494227,0.1266716913692155,0.32390227410816547,2048,0,1,1,516.6343236449225,0.7788992673223747,0.1033567372115259,167.33903231092435
2048,128,84.01013711708882,296695,56077,32481280,30263216,0.9637839024170788,0.1388677580464611,0.2367184802653156,2048,0,1,1,706.9115690645262,0.8857846571891546,0.0637726428518937,167.33903231092435
2048,1536,49.06940126972444,253279,33805,50049024,30055624,1.1017024062251592,0.2277750672259773,0.4717380367026499,2048,0,1,1,354.728725036864,0.7614492294774289,0.090624436366902,167.33903231092435
2048,2048,33.70642964223158,264359,44822,50311168,29958696,1.1633740020021566,0.2958343701967962,0.6224757421632278,2048,0,1,1,268.8281983959531,0.7265439656016636,0.1170554071615754,167.33903231092435
2048,256,55.95913405844767,320005,21378,33005568,29782152,1.0078921480764238,0.1708604866935904,0.2648064491364059,2048,0,1,1,631.9295955844543,0.8575473794556459,0.0803998728968811,167.33903231092435
2048,512,50.18183880890548,303181,44500,33267712,30273184,1.04870930883627,0.1162174953753574,0.28326835207534123,2048,0,1,1,590.7438338414063,0.875489870792349,0.0535840106941578,167.33903231092435
256,1024,72.42708439428648,303598,43367,28413952,15437464,0.9502737387628618,0.1788069290093622,0.2895602148247645,256,0,1,1,577.9075430379628,0.7715978533600012,0.1318631310897853,167.33903231092435
256,128,385.4973172363838,218839,46813,32481280,29981416,0.9649413571871261,0.3993166270037324,0.16113420512923973,256,0,1,1,1038.5072007318865,0.8769379786051049,0.0643523066138538,167.33903231092435
256,1536,57.164334920998186,284822,42396,49000448,29936296,1.084280307986982,0.2190701643097778,0.4332002305716368,256,0,1,1,386.285649225323,0.7678805795127646,0.0980966096492614,167.33903231092435
256,2048,32.95775295113518,291976,41015,50049024,31053640,1.1871563194692014,0.2187329435500385,0.5958854804173493,256,0,1,1,280.82414794487454,0.7279288947424483,0.1042287932870605,167.33903231092435
256,256,64.5771213331268,201431,41107,32743424,29716400,0.9924243752226531,0.1416107815384406,0.2599232842777225,256,0,1,1,643.801623144028,0.8635369379994191,0.066764196520751,167.33903231092435
256,512,43.80389066228556,264740,33033,32743424,29939216,1.0348118185234731,0.1199755032640503,0.2771539040378515,256,0,1,1,603.7765655578515,0.8580611536285667,0.0614492796454769,167.33903231092435
512,1024,78.40226570136977,261885,48002,37859328,30123568,0.987434461040498,0.1389601917222034,0.30981152331434364,512,0,1,1,540.1317243488628,0.7956504850191914,0.0897613634509663,167.33903231092435
512,128,83.57896995294861,283697,36478,32481280,29747048,0.9307935259987482,0.1024092023493378,0.2374995380573297,512,0,1,1,704.5867696404976,0.9132038284561512,0.0501367907132634,167.33903231092435
512,1536,61.88298813345247,259310,39477,50311168,30231536,1.0800813615116753,0.330822424431021,0.40853486233001524,512,0,1,1,409.60771709061044,0.770098917548484,0.0991439274002932,167.33903231092435
512,2048,30.081305574251164,263498,20478,68825088,51538784,1.2002874482891108,0.2391526143693054,0.581473706819048,512,0,1,1,287.78434922939607,0.7646492787781779,0.105148835168173,167.33903231092435
512,256,52.705893870687454,235405,32539,33529856,29669344,1.000978200422832,0.1534848599331003,0.2567265580783661,512,0,1,1,651.8181584464039,0.8533034549614603,0.065137538360698,167.33903231092435
512,512,47.41115269790425,269488,23264,32743424,30420184,1.0450647053445965,0.0994537982694169,0.27377098341658107,512,0,1,1,611.2372838880973,0.8676016560333183,0.0563714361957586,167.33903231092435
