cpu,memory,duration_std,userDiff,sysDiff,heapTotal,heapUsed,avg_cpu_util,cpu_util_std,slo_preservation,total_cpu_shares,cpu_shares_others,num_containers,arrival_rate,latency,memory_util,memory_util_std,slo_duration
1024,1024,150.14612832224847,320548,74137,53858304,44319240,0.7556477778617753,0.281959050083846,0.892496973635623,1024,0,1,1,510.9155308775678,0.6134427775782636,0.1524001750605558,455.99056509166695
1024,128,158.73040179006037,388142,58944,47169536,44344880,0.7041060055944173,0.1661826129633931,0.5391597506807926,1024,0,1,1,845.7429630381189,0.8639593301800573,0.0882875708177021,455.99056509166695
1024,1536,124.80910082968607,333750,60246,58970112,46033424,0.7124854672922828,0.2405904880136552,0.801264653993262,1024,0,1,1,569.0885811811954,0.6954099982927294,0.1357500672864156,455.99056509166695
1024,2048,130.00023557010746,355260,35393,59232256,44941584,0.6945487184529213,0.2422439317429515,0.8367112279022303,1024,0,1,1,544.9796176811308,0.7295374264874879,0.1167548174111626,455.99056509166695
1024,256,130.61651022482718,393183,60930,36151296,29681976,0.8608030767940055,0.2231798660083564,0.7303390927380841,1024,0,1,1,624.354590389146,0.8930433871329366,0.05414083084948,455.99056509166695
1024,512,156.75287139508413,390111,38097,37986304,29899480,0.8288353962462417,0.3173351096857421,0.6402123813070034,1024,0,1,1,712.2489011548873,0.863865770706634,0.0646630144488056,455.99056509166695
128,1024,114.65735482171269,320510,72762,53858304,44173496,0.6410991194271559,0.1700758023763337,0.7655331803572955,128,0,1,1,595.6509486353597,0.622617103986616,0.1431584022057427,455.99056509166695
128,128,180.6522367131437,436907,39656,37462016,29887968,0.788266954924365,0.2150937397884106,0.5932370106968156,128,0,1,1,768.6482078319101,0.8594147643752216,0.071896224017497,455.99056509166695
128,1536,142.88351477195278,337812,55783,59232256,44991368,0.668322560721528,0.2292688900746248,0.8301153682874353,128,0,1,1,549.3098700634777,0.7275639080358496,0.1275171393224483,455.99056509166695
128,2048,145.42252317630974,363607,74427,59232256,45458352,0.7546296869406592,0.3039099758851696,0.8338457300717187,128,0,1,1,546.8524316271877,0.7342260115749389,0.1293731804559375,455.99056509166695
128,256,153.21428791468594,368059,55822,34054144,30205832,0.8381391770979715,0.2543069544944782,0.6393008404505762,128,0,1,1,713.2644542908578,0.8690180664984981,0.0589561728098335,455.99056509166695
128,512,167.51871884415317,415388,49768,34054144,29922392,0.841802000292048,0.2444683500580263,0.6623441099669171,128,0,1,1,688.4496415533051,0.8649149940163804,0.0827118037142302,455.99056509166695
1536,1024,181.12917549544045,460991,59976,54120448,45523368,0.7251730910689832,0.2530190428609737,0.7581337723174265,1536,0,1,1,601.4645195106098,0.6680848309092441,0.1587285856013697,455.99056509166695
1536,128,154.75808548610573,350130,66764,38510592,29840088,0.8201186244109069,0.2447506957488586,0.6854177752008223,1536,0,1,1,665.273912626595,0.820852695914318,0.1216776958627966,455.99056509166695
1536,1536,164.65757322818314,294928,45094,57921536,45932736,0.7449842930286978,0.2722466692393944,0.8284604524893053,1536,0,1,1,550.4071603195246,0.7210012484560799,0.1122857307225748,455.99056509166695
1536,2048,148.64384165569416,301490,56314,59232256,44549392,0.7324793261565193,0.3150658064809011,0.8881102718463897,1536,0,1,1,513.4391297419162,0.7511748770601517,0.1124715658698783,455.99056509166695
1536,256,155.06635226022004,347068,35768,33005568,29815504,0.8847468148248837,0.2761376514665214,0.6684236369564613,1536,0,1,1,682.1879716401598,0.8543150134625097,0.0901766908628477,455.99056509166695
1536,512,147.56129218315405,365012,35325,33005568,29815328,0.7942029523106324,0.1732611740150111,0.6527190280356684,1536,0,1,1,698.6016118818417,0.8726723582871667,0.0863270019371716,455.99056509166695
2048,1024,153.0403213623883,461089,44635,53596160,43986448,0.7179419762191046,0.2399007249352994,0.847930339621608,2048,0,1,1,537.7688989111468,0.574125016196984,0.113859262008611,455.99056509166695
2048,128,150.4109598082133,382536,52532,35102720,29604896,0.7265419772062478,0.1723387102094637,0.5761520310879649,2048,0,1,1,791.4413913123009,0.8675694429771832,0.0683115080927565,455.99056509166695
2048,1536,124.9750939752198,288599,18697,44806144,30511032,0.7582720138619413,0.2074837911498644,0.9317893130711797,2048,0,1,1,489.37088963675814,0.7539256374963633,0.0968625940776569,455.99056509166695
2048,2048,141.26864770740568,357170,34478,59232256,45379896,0.7787816260609189,0.3044016295244705,0.8611109245771579,2048,0,1,1,529.5375451374952,0.7120314437671231,0.1209333152638275,455.99056509166695
2048,256,182.73289592136567,353716,59529,47169536,44485136,0.8195259380922226,0.2709159871380117,0.6796041942892086,2048,0,1,1,670.9649071082956,0.892900739843725,0.0920595655069928,455.99056509166695
2048,512,132.74720335203148,379045,40882,33529856,29983544,0.8536962028773067,0.2327268656561034,0.7319310933821697,2048,0,1,1,622.9965760637205,0.905609786276458,0.0422843516723636,455.99056509166695
256,1024,127.6692315579932,376510,45550,47558656,30341568,0.7516524322154873,0.2943053532597616,0.7977995627515835,256,0,1,1,571.560309608307,0.6565488116163752,0.122352196828155,455.99056509166695
256,128,136.31668589836366,355807,53151,33005568,29602008,0.732172695750106,0.1809380705974861,0.579394233679795,256,0,1,1,787.0126048642595,0.8767310522630865,0.0527597720045054,455.99056509166695
256,1536,156.80873428299006,291597,45987,44806144,31050976,0.8189363547105072,0.2660960078426435,0.8507110175024383,256,0,1,1,536.0111197694227,0.7071900096899533,0.1169392245580395,455.99056509166695
256,2048,136.83477150572622,290536,25813,45330432,30551832,0.794009761662012,0.2983267901332189,0.9803297085397591,256,0,1,1,465.14000455100296,0.7135454700867456,0.1547287318807755,455.99056509166695
256,256,149.48248796326695,341871,31900,33005568,29875368,0.8676736095109309,0.2610909744369409,0.721890675298802,256,0,1,1,631.6615253451296,0.8575819250679348,0.0970892231156621,455.99056509166695
256,512,195.85076320927791,404142,31148,36151296,29601736,0.8303997026316485,0.300733545099169,0.6526984012016395,256,0,1,1,698.6236893673604,0.8048995417777371,0.1255268219971928,455.99056509166695
512,1024,150.56018695787932,407278,44674,54120448,44287536,0.7923620076531751,0.2541778068376503,0.8506357825024776,512,0,1,1,536.0585275994298,0.6241495206471555,0.1233937899451884,455.99056509166695
512,128,137.84070593379977,370368,40214,39821312,30333000,0.7987042669030414,0.2468067729260025,0.6551256838745305,512,0,1,1,696.0352437945298,0.8844702028594421,0.0680105541714911,455.99056509166695
512,1536,177.00520074302173,328963,60839,57921536,45031280,0.7802300235335864,0.3442088561931409,0.8334780735328277,512,0,1,1,547.0936543763885,0.7191868516708285,0.1222268763791923,455.99056509166695
512,2048,128.18461661072106,339551,43504,45330432,31765592,0.742724577244049,0.2930560697501329,0.8779588560759617,512,0,1,1,519.3757793271969,0.7283448890763375,0.1458128415752821,455.99056509166695
512,256,148.0629992702769,343500,47611,33792000,29593896,0.8181607898902515,0.2338428711288691,0.7073610431702382,512,0,1,1,644.6362426859366,0.8981743358301513,0.0463727867835537,455.99056509166695
512,512,168.93356849187222,399600,39245,33005568,30232480,0.7228362185805384,0.1590807735493115,0.5723710984483177,512,0,1,1,796.6694445751102,0.8641438106131686,0.0933355387550311,455.99056509166695
