cpu,memory,duration_std,userDiff,sysDiff,heapTotal,heapUsed,avg_cpu_util,cpu_util_std,slo_preservation,total_cpu_shares,cpu_shares_others,num_containers,arrival_rate,latency,memory_util,memory_util_std,slo_duration
1024,1024,79.07267641555616,317893,42679,39432192,30458008,1.027599762972609,0.1150111346824581,0.3129601561599349,1024,0,1,1,960.9126812814868,0.8100669616458405,0.0589458801134174,300.72738278991585
1024,128,191.74464815047125,346519,73846,33005568,29479352,1.0178905240169465,0.245702914352631,0.23581972276642305,1024,0,1,1,1275.2427119413721,0.8972429919838723,0.0487858973257864,300.72738278991585
1024,1536,54.04311699292481,297959,50641,44281856,30859720,1.0525394207347178,0.1347815849967525,0.39008471315922666,1024,0,1,1,770.928397461101,0.7006782176470174,0.0810832249381617,300.72738278991585
1024,2048,49.598597283361,304642,47983,43495424,30084624,1.1184712288903373,0.1487642709276451,0.48912863933369044,1024,0,1,1,614.822683864061,0.7048234566332785,0.0942387789949239,300.72738278991585
1024,256,47.32895137083321,395398,96899,33005568,29322752,1.0843075582894717,0.0765935239803805,0.26976076047094133,1024,0,1,1,1114.7929085939475,0.9064629874702308,0.0166906463895647,300.72738278991585
1024,512,84.44508421111247,344888,12723,32743424,29416024,1.0174550786901548,0.1144442944520361,0.2406355645979405,1024,0,1,1,1249.7212674792197,0.9146749799455842,0.01280561867701,300.72738278991585
128,1024,116.44066020239768,434020,96808,39432192,30525408,1.0153164253796534,0.1164010120259427,0.29167433642873253,128,0,1,1,1031.0381999048288,0.8065145293321395,0.0787768826763486,300.72738278991585
128,128,196.8017877663027,517976,59744,33005568,29334160,1.0294990675606437,0.1838101477171891,0.24466648467025293,128,0,1,1,1229.1319066247202,0.9182255876492283,0.0138470695707106,300.72738278991585
128,1536,67.04021160704865,347619,70088,36147200,15315872,1.0858454758521439,0.1102899285245948,0.4098674977800907,128,0,1,1,733.7185417694852,0.7031246507074392,0.1122214238255521,300.72738278991585
128,2048,38.89704714623748,279698,42880,44544000,31469128,1.127487022683727,0.158809047098361,0.42735308731888283,128,0,1,1,703.6976956844089,0.7040862693822496,0.0880030716049936,300.72738278991585
128,256,87.96640375272408,334544,44737,32743424,29426872,0.9875798312961008,0.1236604015484367,0.2473258894582777,128,0,1,1,1215.9155009958902,0.9087570543992562,0.0147085462470214,300.72738278991585
128,512,82.81959201546586,413735,46940,32481280,30003584,1.0409933121606485,0.0953795653707927,0.2693566616402622,128,0,1,1,1116.4653621656132,0.9046157859773334,0.0510703857314196,300.72738278991585
1536,1024,84.9252010815236,442371,59047,39432192,29600112,0.9800192920836883,0.1193484354818631,0.28822673635764595,1536,0,1,1,1043.370877352469,0.8229103193826106,0.0379861434373115,300.72738278991585
1536,128,280.948997890512,355007,65487,32481280,29490360,1.0085555125202919,0.3782420799653591,0.19766805418151998,1536,0,1,1,1521.3757429602447,0.906394882260598,0.0210370276667189,300.72738278991585
1536,1536,61.03277873625745,404161,31890,42708992,30793440,1.0910570508467925,0.1499759506300013,0.38686664118880665,1536,0,1,1,777.3412095336198,0.7242361598301297,0.0800165081423013,300.72738278991585
1536,2048,43.53213977247593,335651,60938,60104704,48156096,1.1192990175584743,0.1399545476877809,0.44015100555435244,1536,0,1,1,683.2368414361836,0.7518588722243275,0.0756265549528457,300.72738278991585
1536,256,59.27298868199992,274201,43705,32219136,29504192,1.0780060774764801,0.0895913884737384,0.26978916204709896,1536,0,1,1,1114.675550745125,0.9095930021060368,0.014284976448373,300.72738278991585
1536,512,72.78399289597527,350910,73399,32743424,29414312,1.1175768187118762,0.1552344399205953,0.30376983778900346,1536,0,1,1,989.9843413643955,0.8990226397061509,0.0540168785473297,300.72738278991585
2048,1024,100.8886168287858,530270,40142,39170048,30114632,1.0403308176810566,0.088343350570238,0.3292645404357049,2048,0,1,1,913.3306076383847,0.8049927274160714,0.0732525544570801,300.72738278991585
2048,128,94.74682687534104,443314,69331,33005568,29936344,1.0433649981947457,0.1412066789096006,0.2444411224147616,2048,0,1,1,1230.2651035927136,0.8938458999601643,0.0447147696058909,300.72738278991585
2048,1536,68.59557083001421,407987,36058,43495424,30344472,1.0843524530574138,0.1017647349599865,0.4337085338480737,2048,0,1,1,693.3859016370184,0.7432925451780148,0.0618010620209631,300.72738278991585
2048,2048,47.34769025734828,309511,31592,42971136,30080008,1.1143890424800316,0.1427375422530794,0.4516367352889916,2048,0,1,1,665.8612094463209,0.7149577674915684,0.0786954489304724,300.72738278991585
2048,256,61.18640232312194,338354,46533,33005568,29414592,1.102978682834745,0.0969889357337666,0.29007260176896055,2048,0,1,1,1036.7314284630083,0.8948461013891474,0.0361930651302013,300.72738278991585
2048,512,84.04153530093863,362242,53393,33005568,29404328,1.0377367023667439,0.0902598347493444,0.26478157212778214,2048,0,1,1,1135.756466635021,0.8957441376596483,0.0481393848124568,300.72738278991585
256,1024,79.4984457088882,415025,65545,39170048,30313632,1.006865880217157,0.124929301576085,0.30192104881899323,256,0,1,1,996.0464299069357,0.7935610429538913,0.0745873898116896,300.72738278991585
256,128,131.30503566415135,556740,68947,32481280,29653832,0.9586245673280678,0.1150661686172595,0.21394250143568683,256,0,1,1,1405.6458196564436,0.9062050875531568,0.0524674282186191,300.72738278991585
256,1536,70.65614568021984,289192,92149,43233280,30342976,1.0738262513963484,0.1471910157995453,0.3871837314421102,256,0,1,1,776.7045936300635,0.714091202698152,0.1137584164121274,300.72738278991585
256,2048,49.58753591085289,292309,51667,43495424,30413856,1.134366044144112,0.1987027521773592,0.4798949866503382,256,0,1,1,626.6524784703206,0.7140295757729975,0.1028735029549395,300.72738278991585
256,256,90.801387134083,401576,71329,32743424,29692432,1.0187748221403121,0.0880340771110763,0.2382359334619792,256,0,1,1,1262.3090833520707,0.9085069373167473,0.0151037809837984,300.72738278991585
256,512,82.86736890544728,325859,81710,33005568,29437656,1.0106409432008256,0.1138655996023234,0.24718073557347375,256,0,1,1,1216.6295326058107,0.9125987602990636,0.0196458345846897,300.72738278991585
512,1024,107.69647090075664,442145,63606,39170048,29741392,1.0136798199746444,0.154469536356022,0.2720594900415545,512,0,1,1,1105.3736178950517,0.8053281062084929,0.0602506735131327,300.72738278991585
512,128,102.8200048868681,386809,63240,32743424,29370000,0.9693811377560461,0.0824153813430581,0.219344349549042,512,0,1,1,1371.028628766559,0.9187106769418508,0.0096023383335528,300.72738278991585
512,1536,72.15449650070211,341547,67444,45068288,30870752,1.0819462353077276,0.1612916272142166,0.3941151621949276,512,0,1,1,763.0444388769225,0.7270177623370399,0.0828651383468719,300.72738278991585
512,2048,55.20357255039109,397666,73201,47689728,29686816,1.1337174018731828,0.1499361510627118,0.4911426982029602,512,0,1,1,612.3014429212649,0.7080689014955828,0.1244562242034537,300.72738278991585
512,256,53.73989622267764,292017,56006,33005568,29994992,1.0892525436017768,0.1174501419902412,0.26799876385445426,512,0,1,1,1122.1222757327193,0.9023426108504718,0.0194982422151663,300.72738278991585
512,512,86.15786511178682,363255,34608,32743424,29485976,1.0497810094103301,0.1191038507065082,0.26667881030771495,512,0,1,1,1127.676332599928,0.892888601221858,0.0515116003315004,300.72738278991585
