cpu,memory,duration_std,userDiff,sysDiff,heapTotal,heapUsed,avg_cpu_util,cpu_util_std,slo_preservation,total_cpu_shares,cpu_shares_others,num_containers,arrival_rate,latency,memory_util,memory_util_std,slo_duration
1024,1024,43.44861180576547,108345,3695,26054656,15577776,0.8300924073471133,0.1716462914046947,0.7319086879411921,1024,0,1,1,90.22686133943805,0.6737293499420693,0.0467347125402388,66.03782369999998
1024,128,55.014855225666686,55638,179,24866816,22042200,0.8280001040176896,0.09434843891798,0.6141194141760675,1024,0,1,1,107.5325452601096,0.8718522395442564,0.0132507520067955,66.03782369999998
1024,1536,32.612182743835035,47680,4684,39555072,25431824,0.9624816187500349,0.0889240840438419,0.8550921511445123,1024,0,1,1,77.22889703947178,0.5400143216839067,0.0603714626439077,66.03782369999998
1024,2048,25.60053473998124,81334,4450,39030784,25318240,1.0114837298487862,0.0812888278162509,0.9814482807539556,1024,0,1,1,67.28609647089019,0.5584772422980574,0.0562993064252113,66.03782369999998
1024,256,25.986759109742408,73247,4371,25391104,21108304,0.9669283135886779,0.0711821221836277,1.0,1024,0,1,1,62.524246644374614,0.8651132403698958,0.0155200867501942,66.03782369999998
1024,512,26.107428336417584,49352,3538,25653248,21766536,0.9968353184836333,0.0477142659002101,0.9624855387941856,1024,0,1,1,68.61175678829733,0.8640867919087786,0.0141135892589486,66.03782369999998
128,1024,42.88848208643338,105526,208,31821824,23423432,0.8965953654323829,0.1140723837523545,0.7072971956396968,128,0,1,1,93.36644356446763,0.6630526468324313,0.0479536008814988,66.03782369999998
128,128,31.14397507126237,73588,3700,25387008,21138272,0.9144907858631496,0.0760116008855905,0.7227755903973795,128,0,1,1,91.36698108979111,0.8713054561347195,0.0155753635650747,66.03782369999998
128,1536,32.97466799470681,78517,4476,39292928,25441600,0.8845000788887676,0.1180388522593373,0.8335439882883696,128,0,1,1,79.22536138207236,0.540289405278365,0.0563928082917668,66.03782369999998
128,2048,21.76598339324804,70544,3619,39292928,25258672,0.9884821233170786,0.1100562983641475,1.0,128,0,1,1,49.76205128595982,0.5544279296228294,0.056136611541997,66.03782369999998
128,256,38.92911210278925,73949,14901,25128960,21082480,0.8862112157313742,0.0952211807265843,0.6557156917690339,128,0,1,1,100.71106201811138,0.8635470837322623,0.0159339537969276,66.03782369999998
128,512,42.57436074331688,120473,4227,25124864,21673560,0.8926506809276856,0.0876808362558342,0.6613799185809259,128,0,1,1,99.84854671985272,0.8700089782892302,0.0109106846397726,66.03782369999998
1536,1024,32.58287832726669,81172,9780,26054656,15601648,0.8805771678060521,0.1357318599712079,0.6994402775749669,1536,0,1,1,94.41524289816432,0.676516807899572,0.0473170012706932,66.03782369999998
1536,128,43.774490568145445,65213,19,24866816,21474496,0.8299785658901249,0.0902669723176789,0.6421234178453599,1536,0,1,1,102.84288326002714,0.8746018323213234,0.0157464209348056,66.03782369999998
1536,1536,31.575779130108383,78944,3924,39026688,25559856,0.9792544758986118,0.100070185788157,0.7293861729323794,1536,0,1,1,90.53890264262286,0.5725348148560447,0.0954531597115861,66.03782369999998
1536,2048,19.71353207761668,74029,8369,39292928,25314488,1.0178831000554789,0.0167051575869334,1.0,1536,0,1,1,44.98554090581369,0.5575599073236889,0.055830876781377,66.03782369999998
1536,256,36.07938508941892,109201,1198,25391104,21718888,0.9444822313525398,0.0783444729418699,0.7809592260632008,1536,0,1,1,84.55988673428608,0.8669902748218661,0.0108609170402399,66.03782369999998
1536,512,26.73115165230738,113444,7368,25391104,21090640,0.9905536920533926,0.0875627215412725,1.0,1536,0,1,1,51.12744059033238,0.8590179742232049,0.0140106473459958,66.03782369999998
2048,1024,48.529060076956114,52262,7414,32346112,23498744,0.8635406905034724,0.1585410348634721,0.6347361412411371,2048,0,1,1,104.03980395833821,0.6645769220989662,0.0470489030819593,66.03782369999998
2048,128,37.73593744262627,83508,740,25391104,20942256,0.9180950126231587,0.0719363483244327,0.7251679894916864,2048,0,1,1,91.06555261256062,0.8607660756878083,0.017928409861959,66.03782369999998
2048,1536,30.89906839425436,73037,8118,39030784,25566640,0.9386055769364404,0.0858073628045447,0.8672577892528334,2048,0,1,1,76.14555270456941,0.5488688935281576,0.0629172090789769,66.03782369999998
2048,2048,18.162502250269768,70906,2487,39288832,25320072,1.020788803152158,0.0250076694643587,1.0,2048,0,1,1,42.952852760170956,0.556185926667501,0.0570972017443496,66.03782369999998
2048,256,35.647170788160054,104704,3760,25653248,21673840,0.9760417331674748,0.0546586650301222,1.0,2048,0,1,1,64.95816481090185,0.8589641776392671,0.0182024293780602,66.03782369999998
2048,512,41.4173694195601,98567,9202,25653248,21075680,0.9293425972091326,0.0956559770374183,0.7753654511614174,2048,0,1,1,85.16993322449709,0.8594369294211642,0.0201354084400763,66.03782369999998
256,1024,48.455135252169775,99516,7405,32083968,23453104,0.86587512175287,0.1311303111337581,0.5069188963076503,256,0,1,1,130.2729572344083,0.6674332047579965,0.0440516704469011,66.03782369999998
256,128,44.06673548614791,65305,3066,24866816,21331720,0.8454917045059139,0.0624382683211901,0.5688696361130613,256,0,1,1,116.08604064583109,0.8727277118125463,0.0146252322568113,66.03782369999998
256,1536,27.59254204568794,48871,22,34312192,15698024,0.9605584259479303,0.0749947698419548,0.8536059377664872,256,0,1,1,77.36336027932518,0.5656820938552591,0.0624298503408991,66.03782369999998
256,2048,19.788058876499715,26992,3815,39030784,25516072,1.0301666354024548,0.0490097901437354,1.0,256,0,1,1,43.49522085384945,0.5508309081817578,0.0579486490089528,66.03782369999998
256,256,37.2568642680717,83290,561,25387008,21666696,0.8591865672135254,0.1202452997730286,0.6464966772990863,256,0,1,1,102.14719737754993,0.8755561987449217,0.0135153772074451,66.03782369999998
256,512,39.45405523168,54794,21,25124864,20901960,0.8870412379697471,0.0691850298454364,0.8222337832481463,256,0,1,1,80.31514277986078,0.8637129386407134,0.0151168523969772,66.03782369999998
512,1024,35.41552910291156,123028,4218,25530368,15691368,0.8672751513442083,0.1540752884459134,0.6525422625714459,512,0,1,1,101.20083784269772,0.6698010487959691,0.0401981468825633,66.03782369999998
512,128,36.94050416570707,62148,3671,25124864,20888808,0.9181136839144256,0.0910520698013132,0.8681831439652427,512,0,1,1,76.06439281737975,0.8612844386880777,0.015378199359144,66.03782369999998
512,1536,33.45727821466601,56488,4,39292928,27001360,1.0043526219425123,0.1151684832742948,0.9117347074438212,512,0,1,1,72.4309639205756,0.6060258751774015,0.1137269864850838,66.03782369999998
512,2048,16.02316230315518,60270,3358,39555072,25327256,1.0146317144116053,0.0372310566670425,1.0,512,0,1,1,40.81889524356019,0.5583560974532448,0.0567379015348201,66.03782369999998
512,256,33.18174260415813,26652,19,25124864,20893288,0.9404478213419415,0.1335297033894201,0.888706595907269,512,0,1,1,74.30779067480964,0.8649287457455201,0.0128315454218447,66.03782369999998
512,512,23.10276245306545,92515,4186,25124864,20927344,0.924345117984855,0.074801035002288,0.7627125681086465,512,0,1,1,86.58284452262107,0.858357194305664,0.0174523309377802,66.03782369999998
