cpu,memory,duration_std,userDiff,sysDiff,heapTotal,heapUsed,avg_cpu_util,cpu_util_std,slo_preservation,total_cpu_shares,cpu_shares_others,num_containers,arrival_rate,latency,memory_util,memory_util_std,slo_duration
1024,1024,44.46223829127701,53958,19,24743936,15247488,0.938561832158283,0.1336113440971072,0.7644779968229164,1024,0,1,1,195.24754978166067,0.6647784027830242,0.0421184437018997,149.2624557416666
1024,128,161.22758624911745,32051,3876,24440832,21051864,0.8222103824093835,0.2941060960160328,0.34430925495588405,1024,0,1,1,433.5127609648234,0.8568565114445146,0.011291947671838,149.2624557416666
1024,1536,32.83986243262073,54491,28,39133184,24230144,0.9745079689696403,0.0776844644793332,0.7053136239065165,1024,0,1,1,211.62565230903593,0.5627905742557509,0.0901117864759126,149.2624557416666
1024,2048,30.75793023844264,61068,4426,39129088,24292624,1.0081287259068534,0.1239475505542261,1.0,1024,0,1,1,137.09315430002164,0.528086606767714,0.0580730888148292,149.2624557416666
1024,256,268.333692259937,88351,5009,24440832,21071736,0.7819709436762441,0.3442062587313507,0.2582629410056621,1024,0,1,1,577.9476341454432,0.8664995217329503,0.0134900535975423,149.2624557416666
1024,512,84.28541722222673,53275,4775,24440832,20867256,0.7547315409434111,0.2115986316419534,0.44575968923931675,1024,0,1,1,334.84960471948705,0.8694012812417103,0.0113626106307434,149.2624557416666
128,1024,44.74388970035206,55788,4076,25006080,15249848,0.9227241687780933,0.1189211201044046,0.6520700342867862,128,0,1,1,228.9055590553631,0.6632489002511636,0.0444791099673314,149.2624557416666
128,128,301.886696649582,114296,4685,24440832,20960720,0.7770994236434389,0.279055162347512,0.2817488008709454,128,0,1,1,529.7713966493012,0.8614150825712722,0.0112990665290687,149.2624557416666
128,1536,32.8418368044556,85369,31,38080512,25540704,0.9867069910455708,0.0535308284222132,0.7332889507529509,128,0,1,1,203.5520316901024,0.5517548442319864,0.0924013377989647,149.2624557416666
128,2048,30.732464945409312,91543,106,39391232,24295736,1.0087557397663531,0.1128075570519658,0.9121205687073617,128,0,1,1,163.64333933747184,0.5307769913412398,0.050678345219553,149.2624557416666
128,256,153.67159443075275,63561,26,24440832,20951104,0.683218498045078,0.2139410046839983,0.310786600353977,128,0,1,1,480.2731378111571,0.8623325570353912,0.0106333369268288,149.2624557416666
128,512,79.98890039853656,28854,10623,24440832,20885368,0.7448636183897219,0.1313468946039467,0.44887985860971136,128,0,1,1,332.5220610342559,0.8643046504341652,0.0137475354200621,149.2624557416666
1536,1024,47.3319970943632,65381,642,25006080,15213256,0.9351269053699729,0.116716662819224,0.6574416203575131,1536,0,1,1,227.03530035183732,0.6565787524752354,0.0413076816270079,149.2624557416666
1536,128,92.77826043580104,122273,5202,24440832,21421976,0.7470355714093163,0.121965189253479,0.3195787702402992,1536,0,1,1,467.0599853345467,0.8607915963882349,0.0103384774926312,149.2624557416666
1536,1536,35.35912881909907,97792,610,39391232,24408384,0.982793050786394,0.084378896083605,0.7669426470803338,1536,0,1,1,194.62010139857568,0.514028922367922,0.0583444887219359,149.2624557416666
1536,2048,39.81038485788086,92457,23,39133184,24445992,0.9985026497395685,0.0323965198658433,0.7447262719835608,1536,0,1,1,200.4259301126971,0.5283661434691884,0.0509205429255138,149.2624557416666
1536,256,139.43833391407324,119128,8047,24440832,21017304,0.6580591723306412,0.2299168360882503,0.32929155226472034,1536,0,1,1,453.2835862781965,0.8621299611022076,0.0091927008144714,149.2624557416666
1536,512,101.2961883337588,75748,33,24178688,20907752,0.7310591853703429,0.1664439732535055,0.4078950550823506,1536,0,1,1,365.93347696144974,0.8673289627784424,0.012008545321683,149.2624557416666
2048,1024,51.87465688252549,158424,8123,25530368,15004712,0.9399172587194052,0.1230561699207693,0.5383011688348562,2048,0,1,1,277.2842869071651,0.664232740204371,0.0455265940545004,149.2624557416666
2048,128,147.11422174472506,49620,12336,24440832,21333552,0.6963635308518296,0.2461219272893992,0.31002154891170647,2048,0,1,1,481.4583252862086,0.8584752964803952,0.0096587437845572,149.2624557416666
2048,1536,24.44452688150332,130264,1957,39395328,24430608,0.9642296676664697,0.1316057255893865,0.7501067676205165,2048,0,1,1,198.98828031528888,0.5551702976285957,0.0635232825239899,149.2624557416666
2048,2048,23.2682808050472,33015,4189,39391232,24238616,1.0016893602504837,0.2200983444177135,0.9883975576941554,2048,0,1,1,151.0145938542005,0.5270220313164432,0.0662370662128544,149.2624557416666
2048,256,121.6659669660417,167126,1653,24440832,21467040,0.70690136881208,0.1917052392802964,0.3625541188919813,2048,0,1,1,411.6970349084286,0.8618608331538488,0.0119427527222626,149.2624557416666
2048,512,76.25346316359715,118247,17187,24702976,20843648,0.8343909485928017,0.2241854973732144,0.4470791555194585,2048,0,1,1,333.8613619063485,0.8697500127294122,0.0143645137154292,149.2624557416666
256,1024,37.86350136734755,132965,11505,25268224,15168552,0.9283713270858389,0.0819964027348422,0.5790711664759285,256,0,1,1,257.7618510174454,0.66919932790434,0.054554634431429,149.2624557416666
256,128,219.49705026059976,129054,8338,24178688,20908776,0.6521347239304992,0.2307027568159759,0.24445612363879035,256,0,1,1,610.589964038772,0.8645441444255288,0.0077333139857031,149.2624557416666
256,1536,35.39472783358179,55405,3141,38342656,25168288,0.9847554762175608,0.0915395026167783,0.8192370326410666,256,0,1,1,182.19690980090635,0.5554721422639146,0.0836706290314518,149.2624557416666
256,2048,20.218661992863705,85033,0,39129088,24319456,1.0123867993047178,0.1596798556901278,0.8356904779795007,256,0,1,1,178.6097361101295,0.5337363007683413,0.061809777250215,149.2624557416666
256,256,169.0180776725966,87300,9141,24178688,20938488,0.6311295974682142,0.2007097782584523,0.2387047191758296,256,0,1,1,625.3016540980911,0.8638625891267997,0.0106136925829394,149.2624557416666
256,512,75.82734727015135,28655,9730,24178688,20904280,0.6317936425165565,0.0752154711773002,0.4527976253836224,256,0,1,1,329.6449614001562,0.8683057680615661,0.0121658607724885,149.2624557416666
512,1024,30.57690330884809,134028,4709,24743936,15168592,0.9327075459244776,0.1241339526134593,0.5682323460272952,512,0,1,1,262.6785623613492,0.6645416278730668,0.0405621338255778,149.2624557416666
512,128,190.12217634368488,132254,13341,24178688,20886808,0.5891960605357082,0.1418892626384876,0.2460391931226867,512,0,1,1,606.661295898647,0.8627452374666582,0.0101671765924176,149.2624557416666
512,1536,47.33569490509256,85957,4342,39391232,24331304,0.9774818708711231,0.0878092340774669,0.6280021568567292,512,0,1,1,237.6782533498829,0.5126375333907917,0.0653743348983442,149.2624557416666
512,2048,20.892904766704408,39453,688,39391232,24433144,1.0031494162903447,0.0587144234628863,0.9733777081122117,512,0,1,1,153.34484701848083,0.5273397139901002,0.050382029297672,149.2624557416666
512,256,138.39497327119952,68061,1617,24178688,21066200,0.6475594041303667,0.2493276958343225,0.28977381975577593,512,0,1,1,515.0998660523106,0.8681521274764139,0.011288380109758,149.2624557416666
512,512,72.987220505411,44686,9231,24178688,20900408,0.766846127674945,0.1980659615994287,0.4301709566320899,512,0,1,1,346.9840384164418,0.8692188619942012,0.0118853850573833,149.2624557416666
