cpu,memory,duration_std,userDiff,sysDiff,heapTotal,heapUsed,avg_cpu_util,cpu_util_std,slo_preservation,total_cpu_shares,cpu_shares_others,num_containers,arrival_rate,latency,memory_util,memory_util_std,slo_duration
1024,1024,905.5065761726836,2193355,195991,44748800,37938696,0.8027641856263519,0.1151622028774785,1.0,1024,0,1,1,981.1212094509373,0.819155457565043,0.0792897601293942,2117.2092558282825
1024,1536,411.0128119790381,2041285,168142,57200640,36695872,1.2968567134087174,0.2224069063716077,1.0,1024,0,1,1,372.34976826938976,0.7685480749962176,0.0804598869744603,2117.2092558282825
1024,2048,203.30950524423443,1439404,175512,86036480,40158712,1.5238837067309285,0.3224434735271933,1.0,1024,0,1,1,195.37709853854096,0.7637983848567688,0.116867136834113,2117.2092558282825
1024,256,2649.7873711183497,2137030,201804,37011456,33825680,0.44859329601308545,0.1774333627730724,0.4341912021343094,1024,0,1,1,4876.214085916373,0.9172534114795023,0.0523312736888753,2117.2092558282825
1024,512,1605.5811740372037,2101618,129889,37273600,34998144,0.5525035331773185,0.0600248070556162,0.9577722533238671,1024,0,1,1,2210.556057017405,0.9189747100962656,0.0602023994895964,2117.2092558282825
128,1024,858.2852927614853,1863921,163337,48680960,38232688,1.0027987110324477,0.3107725981046066,1.0,128,0,1,1,905.0940930647328,0.8314886639227129,0.085879243036574,2117.2092558282825
128,1536,357.13848292822104,1872418,141593,55365632,39165992,1.315828939055984,0.2983486548870468,1.0,128,0,1,1,367.09083776574545,0.743652251449867,0.1154846904823675,2117.2092558282825
128,2048,209.43044257871995,1483429,108283,87871488,38182232,1.6514657013162708,0.389042495398851,1.0,128,0,1,1,188.97306422275201,0.7339356086302947,0.1349416747504649,2117.2092558282825
128,256,3427.045289277007,2091970,270567,52486144,49965984,0.5779463459211152,0.3744083219290358,0.37168978753684856,128,0,1,1,5696.172794681335,0.916552201530117,0.0479969449139614,2117.2092558282825
128,512,1660.4390919477923,2160654,167032,37797888,34993904,0.5517598144077155,0.0693522685959389,0.9275855327911866,128,0,1,1,2282.4949085368044,0.9254959390615196,0.0377191049457226,2117.2092558282825
1536,1024,761.8510532464213,1742007,166894,58912768,52794008,0.8609373539078549,0.1060945580057082,1.0,1536,0,1,1,865.977658685308,0.8243981683056392,0.092408215681146,2117.2092558282825
1536,1536,404.5283526964538,1957344,154262,57200640,36643432,1.2356166623701748,0.1975989999711702,1.0,1536,0,1,1,394.1927205702777,0.7703353475303985,0.1269193946737701,2117.2092558282825
1536,2048,217.0112958171647,1576944,141364,84725760,37714416,1.5202983851412284,0.3355602662707387,1.0,1536,0,1,1,209.59773813631583,0.7505272939872143,0.131157864438874,2117.2092558282825
1536,256,2673.963445325517,2189888,195481,38060032,35509264,0.4971463057939891,0.1851798651489541,0.4496592794255349,1536,0,1,1,4708.474511041197,0.924036460760599,0.0497983237012149,2117.2092558282825
1536,512,1933.409766490304,2033585,192658,37535744,34652624,0.5514471233233552,0.1078179454009849,0.856721854953039,1536,0,1,1,2471.2912873505916,0.9178500280699068,0.0711394308451241,2117.2092558282825
2048,1024,850.1154967380593,2052831,161608,46845952,37882632,0.8685126840544024,0.136519557366659,1.0,2048,0,1,1,917.3225840727974,0.8165614205709193,0.0836867657261811,2117.2092558282825
2048,1536,390.1530730296167,1798400,145929,86306816,50728000,1.3045781580778169,0.2942960680309955,1.0,2048,0,1,1,356.97796652362615,0.7359857519473805,0.1173248499505968,2117.2092558282825
2048,2048,227.20545397059564,1703413,124569,90501120,55996616,1.4986850261523996,0.2879594444697764,1.0,2048,0,1,1,213.22977449400236,0.7116500635877542,0.1013556257618616,2117.2092558282825
2048,256,3541.226834486796,2132986,205977,37797888,35480368,0.534271820059923,0.3061419897627989,0.44271683307269577,2048,0,1,1,4782.310266211695,0.8876694374367707,0.0941013772258043,2117.2092558282825
2048,512,1836.1532082587412,2277440,233791,37273600,35239312,0.8371932383661388,0.3269549422473778,1.0,2048,0,1,1,1768.4187034167926,0.927129546730358,0.0468829013562506,2117.2092558282825
256,1024,820.3125543153153,1977771,187419,45797376,36527664,0.8832804028982594,0.2606079420169579,1.0,256,0,1,1,913.7771020808651,0.8399859273882448,0.0769188463044363,2117.2092558282825
256,1536,373.4191810302728,1746891,187209,52744192,36981024,1.2058734440592018,0.2201820310412674,1.0,256,0,1,1,361.91236609095176,0.746572757814349,0.102971506367465,2117.2092558282825
256,2048,215.81252876210604,1535524,166773,82890752,41443256,1.50142685586584,0.2946359328769894,1.0,256,0,1,1,214.52688398728841,0.729250281699042,0.1283432173592268,2117.2092558282825
256,256,4286.780338952978,2328427,201466,38322176,35973168,0.31036071525499964,0.0400035212379561,0.34030975513735584,256,0,1,1,6221.41805771549,0.9052153684285982,0.0644935759761994,2117.2092558282825
256,512,1778.788194596997,2263877,141029,37535744,34969592,0.5345543602708823,0.0663628365580699,0.8965156195864264,256,0,1,1,2361.59773413092,0.9065818919176608,0.0605708221230462,2117.2092558282825
512,1024,857.6695143488924,2078938,156118,43175936,33888112,0.8233753937875565,0.1361546741649782,1.0,512,0,1,1,957.0231971919594,0.8104572386002443,0.0834215704342278,2117.2092558282825
512,1536,381.11029588699074,1855176,161327,56676352,38061112,1.3224822700514929,0.2904000230322239,1.0,512,0,1,1,362.79449220146114,0.7669027788543817,0.103917486899416,2117.2092558282825
512,2048,221.2610463432246,1598209,140456,89714688,50186696,1.5093489364247767,0.3695389479398971,1.0,512,0,1,1,208.21978068711664,0.7147668674755092,0.1204788983483413,2117.2092558282825
512,256,5040.537905911328,352460,16273,50913280,48202432,0.4499415316449013,0.2986233619783331,0.28837600848529393,512,0,1,1,7341.835636567013,0.92835054466351,0.0348983417908,2117.2092558282825
512,512,1893.2162900667888,1929987,201130,37011456,34526992,0.5563285080880036,0.0805421896014899,0.883057112209264,512,0,1,1,2397.5904010685927,0.915089369437546,0.0591965270706306,2117.2092558282825
