cpu,memory,duration_std,userDiff,sysDiff,heapTotal,heapUsed,avg_cpu_util,cpu_util_std,slo_preservation,total_cpu_shares,cpu_shares_others,num_containers,arrival_rate,latency,memory_util,memory_util_std,slo_duration
1024,1024,802.6957412661967,1854758,118270,43700224,35974200,0.8722303028387162,0.183928601941263,1.0,1024,0,1,1,727.1800895859442,0.8159784450662885,0.053989657041153,3320.329169025424
1024,128,2549.017331249643,1859532,232204,36487168,33177944,0.3787183706665443,0.106635423984863,0.345192976387072,1024,0,1,1,9618.76224648983,0.91656654453172,0.0073129730085936,3320.329169025424
1024,1536,1025.845925924643,1912683,205551,52482048,37030536,0.9118902132608692,0.307393570509904,1.0,1024,0,1,1,1015.6412809174527,0.7253989511414949,0.0382601091241295,3320.329169025424
1024,2048,529.4500578679327,1777195,142416,52219904,37937656,1.0053296455823388,0.1476358282791769,1.0,1024,0,1,1,446.88716126742656,0.7445184717097655,0.0411300072020284,3320.329169025424
1024,256,3457.532482113219,2171231,133806,36749312,34577008,0.3704145745614965,0.1175016455585876,0.4774457411395941,1024,0,1,1,6954.359171997801,0.9228211012436676,0.0134287811716903,3320.329169025424
1024,512,1910.7419233160497,1933107,167171,36487168,32826760,0.5520398856853398,0.052373483749084,1.0,1024,0,1,1,2271.9836166558953,0.9284236126210084,0.0127116534262109,3320.329169025424
128,1024,749.5426675775246,1687859,126647,42389504,34024040,0.8884166432905681,0.1371518429681965,1.0,128,0,1,1,692.903899294815,0.839282560436733,0.0300920061409359,3320.329169025424
128,128,4700.793856369741,2121673,236446,36749312,34401416,0.2126689641799456,0.0382174822639746,0.18301645943458203,128,0,1,1,18142.24348609614,0.9228427326311324,0.0089456202539833,3320.329169025424
128,1536,3240.568579635965,2254302,200337,52744192,40734208,0.26036858626153964,0.0509817644655186,0.24359493523753875,128,0,1,1,13630.534501005302,0.7308560348673049,0.0379991259147193,3320.329169025424
128,2048,5926.478675733384,2026245,186133,52219904,42825408,0.278949400055441,0.0966836950911458,0.3101076637386178,128,0,1,1,10707.020681127213,0.7325362301152525,0.0533466197329546,3320.329169025424
128,256,5204.184499015756,1927119,241498,35700736,33021520,0.27146564968814163,0.0606459452069708,0.270540716837539,128,0,1,1,12272.936982788058,0.9249630612239128,0.0101119317354932,3320.329169025424
128,512,7148.436466456774,1970796,181273,35438592,33392672,0.28890035158366917,0.0729641285996723,0.293825020926215,128,0,1,1,11300.362231095429,0.923232636791575,0.0135207530680461,3320.329169025424
1536,1024,3177.1619083852866,1972633,175297,43438080,35164280,0.5019072484020763,0.1427820715833741,0.6306637789687141,1536,0,1,1,5264.8166578631735,0.8202241798347826,0.0283062734806018,3320.329169025424
1536,128,2910.4506930653533,2011507,235158,35962880,33777392,0.4382614940494266,0.1103905253835384,0.38565076659909203,1536,0,1,1,8609.678643468413,0.9185752186476744,0.010192736630043,3320.329169025424
1536,1536,1717.3931957475306,2003939,167126,52744192,39380472,0.5649167688873045,0.221779680132166,1.0,1536,0,1,1,1742.8098575344316,0.7200483316112497,0.0488101354014279,3320.329169025424
1536,2048,755.331255746507,1808799,169103,51957760,37524136,0.9135174645249944,0.1492247143253011,1.0,1536,0,1,1,683.2030472641721,0.7632456640695384,0.0453700665049803,3320.329169025424
1536,256,2718.8736188167686,1966368,178031,36225024,33692568,0.39616140768438945,0.0773187313429257,0.5951806569437628,1536,0,1,1,5578.691327226978,0.9226789763469928,0.0110424449642964,3320.329169025424
1536,512,2057.881754645043,2071988,130474,37011456,33503200,0.5665571600601899,0.1397015929207744,1.0,1536,0,1,1,2289.8689201131297,0.916833832692458,0.0355019009562594,3320.329169025424
2048,1024,821.120327524187,1734303,149579,43700224,36771104,0.8983464099463566,0.1405571572714534,1.0,2048,0,1,1,719.4153150193547,0.8500103346911686,0.023246720176391,3320.329169025424
2048,128,4431.148688354097,1758104,228442,36487168,33343824,0.4869991182857789,0.1976576571212557,0.38996422266444547,2048,0,1,1,8514.445623598873,0.9167994203052656,0.0102589365801206,3320.329169025424
2048,1536,547.3168780988734,1675849,129277,52219904,39209976,0.9886755578582156,0.2371455620474748,1.0,2048,0,1,1,424.5261978672901,0.7153403027593848,0.053559335620047,3320.329169025424
2048,2048,344.9431508119167,1689002,68804,53006336,38127328,1.0552414382466775,0.1244463944535015,1.0,2048,0,1,1,286.4964989780939,0.7683268625632365,0.0486314935091863,3320.329169025424
2048,256,2616.4229868659268,2107573,138557,36749312,34120624,0.5153597535606851,0.1573664943976785,0.6677516798759838,2048,0,1,1,4972.401072269982,0.9209807598808784,0.0125797699454992,3320.329169025424
2048,512,1864.807278207315,2172559,155357,37011456,33990536,0.5782969507440313,0.1013118661281692,1.0,2048,0,1,1,2152.0490045842703,0.9281938277931748,0.0110360456781414,3320.329169025424
256,1024,917.4859915006514,1988082,175106,43700224,37583568,0.9104864701072576,0.1740395163741649,1.0,256,0,1,1,863.4707502760391,0.833232611559404,0.0375276966416485,3320.329169025424
256,128,3897.193296936941,1949814,189050,36225024,33745720,0.31607922757844326,0.086738188881705,0.26761696385513234,256,0,1,1,12407.020546062246,0.9234519383578664,0.0091521246183715,3320.329169025424
256,1536,1924.115160451459,1853326,172871,51957760,41583752,0.4800303456862798,0.145307840640551,1.0,256,0,1,1,2988.4002520859244,0.7229842058540178,0.053621146997068,3320.329169025424
256,2048,1374.6675263138063,1704791,185573,51957760,40150816,0.688816756099564,0.1277558498609459,1.0,256,0,1,1,1393.1429658801674,0.7510563158660777,0.0503519466884922,3320.329169025424
256,256,4614.260711545537,2113625,182051,37011456,34523936,0.2819787234388132,0.0294185888256127,0.3714638988168108,256,0,1,1,8938.49760259707,0.9232764294630422,0.0111866745601765,3320.329169025424
256,512,1952.6547338504304,1845536,204324,35962880,32452344,0.5060946746120387,0.1288222071853708,1.0,256,0,1,1,2181.1298094099884,0.9277109470733896,0.0125704103837985,3320.329169025424
512,1024,800.383340241865,1600399,167325,43438080,35199568,0.8449944499378172,0.1235348790488305,1.0,512,0,1,1,708.4211836512198,0.835131299690649,0.0230245023041549,3320.329169025424
512,128,1334.2115451488278,2051039,211073,36225024,33277992,0.29014412962545827,0.0287832279947025,0.2796590956202438,512,0,1,1,11872.77374855772,0.92151195621381,0.0093666075708937,3320.329169025424
512,1536,1767.1223828198588,1902080,189233,52219904,35613104,0.5653589897969405,0.1011826807663882,1.0,512,0,1,1,1839.0387846241715,0.7113515798459019,0.0356202386961206,3320.329169025424
512,2048,780.0258482633801,1598979,141220,50909184,35166096,0.9006498882523669,0.1576143991220209,1.0,512,0,1,1,684.7347696346537,0.7363933424491618,0.0340808558953329,3320.329169025424
512,256,3854.776457300239,2094817,137543,36225024,33507008,0.31776992243050584,0.0233265686119076,0.4267691023881963,512,0,1,1,7780.15360166631,0.9253842632317136,0.0107024543097495,3320.329169025424
512,512,2042.497135164098,1800521,123893,35962880,32651680,0.5239575395173783,0.0668417434374225,1.0,512,0,1,1,2348.990436382229,0.9251448815484032,0.0118096109665916,3320.329169025424
