cpu,memory,duration_std,userDiff,sysDiff,heapTotal,heapUsed,avg_cpu_util,cpu_util_std,slo_preservation,total_cpu_shares,cpu_shares_others,num_containers,arrival_rate,latency,memory_util,memory_util_std,slo_duration
1024,1024,56.27680157635369,63832,7158,25792512,15181952,0.8814541910283537,0.1531594557894368,0.7091374417135125,1024,0,1,1,95.70715099225042,0.6568505110866145,0.0557749200306193,67.86952420833332
1024,128,44.77823855347291,123991,6556,25124864,21415272,0.8051138203243187,0.0944653360378478,0.7211570876550879,1024,0,1,1,94.11198387998604,0.8686603506544033,0.0132221070326139,67.86952420833332
1024,1536,34.76755192995694,57121,295,34312192,15285464,0.9653143256463615,0.0994837535924767,0.973781243526591,1024,0,1,1,69.69688999404106,0.5376382748736986,0.0572036130530073,67.86952420833332
1024,2048,21.009727028586283,72941,63,39026688,24594040,1.0104671198705975,0.0196524295548068,1.0,1024,0,1,1,45.549556092735045,0.5632813850505333,0.0679860240395919,67.86952420833332
1024,256,42.39828045852124,54634,8539,25124864,21252224,0.8098300565039636,0.186429393057513,0.6451385233924718,1024,0,1,1,105.20147495058934,0.8670326696729586,0.0122748428371279,67.86952420833332
1024,512,30.54941061282086,52234,111,25387008,21317568,0.9413884033174661,0.0710076545839935,0.8664089213594831,1024,0,1,1,78.33428596492195,0.8626423790296556,0.0127491501569165,67.86952420833332
128,1024,60.02751805260015,47513,3837,26054656,15185792,0.7645957621475015,0.1344544884254221,0.6173320701959117,128,0,1,1,109.94005898121374,0.6580240441881455,0.0400111157777466,67.86952420833332
128,128,52.54352337136917,28218,6936,24600576,20950968,0.8003832619795461,0.1360489557636651,0.572457899857919,128,0,1,1,118.55810571428601,0.8690441172585143,0.0120327903235067,67.86952420833332
128,1536,30.09114832031122,68533,31,39550976,24832688,0.8910519712139842,0.174891025918127,0.885940837027313,128,0,1,1,76.60728727220975,0.5366201464828004,0.054220798296384,67.86952420833332
128,2048,24.080540696186365,47159,3097,39288832,24802520,1.0524495656393322,0.4033327572718015,1.0,128,0,1,1,60.51875381007442,0.5485781931326851,0.0565072214400229,67.86952420833332
128,256,39.450987423759,57494,350,25124864,21315688,0.9809377478451211,0.0651874867580772,0.8940135228874944,128,0,1,1,75.91554542612242,0.8724608837668422,0.0157952547991663,67.86952420833332
128,512,45.76369160801151,35964,20,24600576,20922952,0.8481218633394719,0.1068568943671441,0.7358658598635374,128,0,1,1,92.23083704538132,0.859967030217299,0.0191932230622414,67.86952420833332
1536,1024,55.742897235280026,18752,3766,30769152,24955024,0.8822657730456,0.1480250578505162,0.6700477936472373,1536,0,1,1,101.29057188428688,0.6750773753120114,0.0691931576972354,67.86952420833332
1536,128,36.57848597748632,57266,4298,25387008,21285232,0.8952323693433047,0.0972932614778851,0.8037272842945573,1536,0,1,1,84.44347421638591,0.8721306065030561,0.015626731668694,67.86952420833332
1536,1536,25.885002457483207,31803,28,38764544,25139184,0.9909522629204066,0.0636084349177032,1.0,1536,0,1,1,67.36422276477062,0.5756422877331283,0.1024718234571216,67.86952420833332
1536,2048,16.54886890414639,36935,8201,39026688,24930720,1.019213796403033,0.0443791207658255,1.0,1536,0,1,1,47.43010349036774,0.5491944715476811,0.061292737845454,67.86952420833332
1536,256,33.395271156336726,129547,94,25387008,21211376,0.9398596032915166,0.1665341423238463,0.7698685455658081,1536,0,1,1,88.1572894479709,0.8553191695505957,0.0179183498755804,67.86952420833332
1536,512,36.96547548051452,130275,4323,25649152,21289304,0.8641902182247019,0.1493612250064022,0.7352105190687496,1536,0,1,1,92.31304836919347,0.8585907319130701,0.0124827259066118,67.86952420833332
2048,1024,46.15769421037392,83828,7161,25530368,15160472,0.893514722277799,0.1273789038073155,0.7339677087821825,2048,0,1,1,92.46935988634175,0.6785955909752046,0.0594720284715231,67.86952420833332
2048,128,50.78269316071626,41951,1488,24862720,20873272,0.7627111296159128,0.1169542651674555,0.6095472369223502,2048,0,1,1,111.34415857745766,0.8683980329752921,0.0172377310279189,67.86952420833332
2048,1536,32.816511988374046,88282,3378,39288832,26118760,0.9853746146919268,0.0445262607388441,0.8200387445840871,2048,0,1,1,82.76380190152582,0.5384123849440305,0.0569403250464992,67.86952420833332
2048,2048,20.336644346444533,26798,3687,39550976,24762152,1.0115459661307307,0.0228449858075914,1.0,2048,0,1,1,45.56874936736307,0.5492500531901543,0.0594198687430696,67.86952420833332
2048,256,34.77424517364543,127780,13022,25124864,21242328,0.9840476809309803,0.0485569421108865,1.0,2048,0,1,1,67.20747576056881,0.8642960443783064,0.0146333244412725,67.86952420833332
2048,512,30.6588489536986,26243,244,25124864,21299408,0.9756657761771201,0.0524997973133654,1.0,2048,0,1,1,65.04714442570115,0.8650954958138228,0.0123700643030391,67.86952420833332
256,1024,27.09431211317926,57172,3393,30769152,24953584,0.9630204109685729,0.234998836984055,0.8679390040956685,256,0,1,1,78.19619107802235,0.6692106542496392,0.0766481341661824,67.86952420833332
256,128,34.315617691155346,43610,11932,25387008,21225456,0.9243080547923099,0.080961156031263,0.7386512905464427,256,0,1,1,91.88303747242423,0.8604650133045444,0.0128823028778064,67.86952420833332
256,1536,31.468099790641745,79605,8817,34574336,15337880,0.9708803202390862,0.0507110222460029,0.8866573648580349,256,0,1,1,76.54537919413785,0.5440622459159912,0.0595173155507063,67.86952420833332
256,2048,20.880184116695546,69884,228,34574336,15012312,1.037521169566268,0.2033502050436139,1.0,256,0,1,1,60.69077916321842,0.5506836978734746,0.0610596336257531,67.86952420833332
256,256,41.99585224808761,31677,8697,25649152,21275184,0.8490474576145882,0.1374438932524052,0.751095214274421,256,0,1,1,90.36074643864849,0.8621768496516318,0.0148236171741106,67.86952420833332
256,512,32.924117911490605,64038,16542,25124864,21248512,0.9665186121359263,0.0967782279922146,0.7739055291772496,256,0,1,1,87.6974277215546,0.862831070332048,0.0124587478442111,67.86952420833332
512,1024,49.72021784442055,47516,131,30769152,24932912,0.866553788446869,0.1147352011703741,0.7145425019101667,512,0,1,1,94.98318718186756,0.6677434558089262,0.0657999197353035,67.86952420833332
512,128,31.921750972249203,79899,28,25124864,20887304,0.8326304743319066,0.0924717962150713,0.6118054720389094,512,0,1,1,110.93317616488558,0.8665185289463906,0.0142597391926529,67.86952420833332
512,1536,36.64731602308386,88279,371,34836480,15293288,0.9596571730130391,0.1192183914053049,0.8318108217567384,512,0,1,1,81.59249968039204,0.5386753322491489,0.0535265823796672,67.86952420833332
512,2048,23.4165000887127,54433,3288,39026688,24876480,1.0879629602704761,0.4079366732677198,1.0,512,0,1,1,45.13267846046357,0.546973563986388,0.0520305067390131,67.86952420833332
512,256,31.357703630032884,84326,33,25124864,21294232,0.9517176544647814,0.0679564356754397,0.855885786378168,512,0,1,1,79.29740777158504,0.8644579708170778,0.014824134775418,67.86952420833332
512,512,29.21607357229353,52615,3389,25124864,21279144,0.9949898660293796,0.1420261542227987,1.0,512,0,1,1,62.694739670999006,0.8674695013253488,0.015574778366829,67.86952420833332
