cpu,memory,duration_std,userDiff,sysDiff,heapTotal,heapUsed,avg_cpu_util,cpu_util_std,slo_preservation,total_cpu_shares,cpu_shares_others,num_containers,arrival_rate,latency,memory_util,memory_util_std,slo_duration
1024,1024,104.7005577827879,233230,59312,36024320,30092688,0.9257949973428689,0.2134119828822618,0.6226157156074409,1024,0,1,1,662.8162800111638,0.8032917867663345,0.0884398727071466,412.6798324954127
1024,128,349.8870566359332,370808,73853,32743424,29657808,0.6753425609376132,0.1270511016208076,0.22371329486083155,1024,0,1,1,1844.6817510427095,0.9137789125735434,0.00787316386188,412.6798324954127
1024,1536,85.29752056503186,280447,47765,49524736,30444928,1.0594789979947348,0.1873639678064475,0.8227545037327908,1024,0,1,1,501.5831947720828,0.7267159234811919,0.1080356091864373,412.6798324954127
1024,2048,45.61412108332837,202558,37810,37720064,15458480,1.103428425515599,0.2074137648896848,1.0,1024,0,1,1,376.06468402052934,0.7185954617905167,0.1231151636067572,412.6798324954127
1024,256,376.7378916858403,276383,60942,32743424,29571616,0.7069240486080854,0.2971779870378784,0.26143274132959693,1024,0,1,1,1578.5315580466395,0.9086705412300032,0.0462558376673368,412.6798324954127
1024,512,140.97612367409502,254630,52264,32481280,29808456,0.8049526025463097,0.223271037181453,0.3939989539692979,1024,0,1,1,1047.413523152578,0.8969028494749305,0.0430288167702811,412.6798324954127
128,1024,122.7648265735375,250763,48867,36286464,30134592,0.8822615348647568,0.0937593808518713,0.5949370152035982,128,0,1,1,693.6529782975198,0.7971114790723179,0.0834361085410104,412.6798324954127
128,128,864.3153260236033,260625,60876,32481280,29594200,0.6094251446427386,0.2590065427597031,0.1705751783634641,128,0,1,1,2419.342816784682,0.9171438391552408,0.0113411558412995,412.6798324954127
128,1536,81.00231779926881,292978,32648,67743744,52064216,1.0531714578805835,0.2566613249931702,0.8827070181575281,128,0,1,1,467.5162018727326,0.7438115809473282,0.1231422127234949,412.6798324954127
128,2048,55.41418305036817,314122,48884,43757568,31792808,1.1095203040493054,0.2330924270205935,1.0,128,0,1,1,386.4930650428905,0.7510151672847978,0.1027343214321752,412.6798324954127
128,256,692.0023483230398,301244,44310,32481280,29735784,0.6340918739604261,0.2884895323744981,0.18665282158400417,128,0,1,1,2210.948803201905,0.9131886819142688,0.0297333294489052,412.6798324954127
128,512,206.2483838905333,260270,37737,32481280,30203880,0.721204816161053,0.1167418212000403,0.34565865607000507,128,0,1,1,1193.8941069418324,0.8964818441478238,0.0389025613003112,412.6798324954127
1536,1024,94.26612435541134,300812,57807,39694336,30588952,0.9650920555347712,0.1380291063551642,0.6785356393410799,1536,0,1,1,608.1918304190515,0.7681899654974731,0.1037464905613989,412.6798324954127
1536,128,1246.7095178823754,277076,36642,32743424,29968544,0.6051169196022376,0.3663110087842827,0.12628456452664458,1536,0,1,1,3267.856479865693,0.917336522198218,0.0069387527670703,412.6798324954127
1536,1536,88.72301516383399,269333,25832,50311168,29744192,1.0420931813476229,0.159719345071447,0.8905134134214967,1536,0,1,1,463.4178736396906,0.7642141884180165,0.0971804468289703,412.6798324954127
1536,2048,47.73306908822417,227720,47941,36671488,15463256,1.1046346708879795,0.20654607112291,1.0,1536,0,1,1,352.9644269476667,0.7441681712478315,0.1018903111917989,412.6798324954127
1536,256,349.2139007413012,322966,30091,32481280,30243200,0.850576054348637,0.2923448176189854,0.30129464165599484,1536,0,1,1,1369.688588642717,0.908563602477068,0.0177553530637106,412.6798324954127
1536,512,104.80507434399212,261440,30380,31956992,29798704,0.9316083168356523,0.1760640391484014,0.4776166731663234,1536,0,1,1,864.0398371346275,0.897367045975668,0.0314473528012953,412.6798324954127
2048,1024,101.26997927514697,376761,36449,39170048,29811200,0.9207208691612168,0.1506777036908127,0.6052294348039353,2048,0,1,1,681.8568443041783,0.7998669445244861,0.0812385362771139,412.6798324954127
2048,128,1057.743422304804,358198,48163,32481280,29694344,0.700055675273034,0.287263753182446,0.15060219418985188,2048,0,1,1,2740.198007840317,0.9167809196308152,0.009017761448123,412.6798324954127
2048,1536,65.45410338613081,191334,45259,63811584,52516048,1.0205887668291338,0.197730166836376,0.9359075782275063,2048,0,1,1,440.94079596724447,0.7656320866083937,0.076843885822839,412.6798324954127
2048,2048,48.67887181404577,298973,43265,50311168,30104424,1.1203961570213257,0.2404251007541697,1.0,2048,0,1,1,375.12419489125097,0.7443826786117025,0.092239076332031,412.6798324954127
2048,256,309.21431532163865,270799,32565,33005568,29489928,0.8071503868114047,0.2488412345327076,0.32671262886143565,2048,0,1,1,1263.1278868330407,0.9087405309281628,0.0195836506398877,412.6798324954127
2048,512,159.94281248114078,240031,33176,32219136,29590664,1.0399099679091337,0.4023968665604934,0.4904951118330606,2048,0,1,1,841.3536089139819,0.9097731641308024,0.0246790995141635,412.6798324954127
256,1024,92.487426488009,219411,47998,36024320,30133752,0.9337873234301675,0.150909779321812,0.6374774481072781,256,0,1,1,647.3638145485654,0.7988143845211841,0.0867127023848605,412.6798324954127
256,128,397.7597832585817,316743,25837,32219136,29606248,0.4668289179007758,0.0842312471613448,0.18025900138140866,256,0,1,1,2289.3715672052713,0.9196576048150702,0.0102046180528534,412.6798324954127
256,1536,68.04472126144495,276855,45400,50311168,29784784,1.0375867403951615,0.1499286201188828,0.8913283223222683,256,0,1,1,462.99418761900887,0.7475010144767618,0.1161301902595099,412.6798324954127
256,2048,52.7979011768883,304874,41723,50573312,30211920,1.1024711260694544,0.2022552657783149,1.0,256,0,1,1,372.48849495111375,0.7606990487308177,0.0900838540414363,412.6798324954127
256,256,354.3028189212771,324527,34949,32743424,29660888,0.5930869722831579,0.0780622032254246,0.24683039626702524,256,0,1,1,1671.916582141564,0.9177916767138304,0.009179575647906,412.6798324954127
256,512,171.04017640835863,321321,38508,32481280,29917464,0.7184212988563107,0.0779685176089953,0.3600240246976426,256,0,1,1,1146.2563723129083,0.9115995167911632,0.0202394699430541,412.6798324954127
512,1024,93.23233174806244,262152,30029,39170048,30318992,0.9195353299629109,0.1486021246112479,0.6118184556299915,512,0,1,1,674.5135402469592,0.7762257775187499,0.1120820284073206,412.6798324954127
512,128,811.9349940592034,271276,38248,32743424,29681152,0.5384595634873679,0.123793140428415,0.17277412185208385,512,0,1,1,2388.55117926004,0.9182588270787906,0.00916756846969,412.6798324954127
512,1536,49.65718717388824,256434,26491,50049024,29819112,1.1138561553787143,0.2114221912585171,1.0,512,0,1,1,382.82769597164565,0.7392501563829333,0.119700900203459,412.6798324954127
512,2048,36.34775860007862,217613,24444,68268032,51355240,1.1854843815113427,0.2497262435119022,1.0,512,0,1,1,276.80678560050524,0.7248400303987366,0.1429546495065683,412.6798324954127
512,256,636.2924652748687,338196,29649,32743424,30137800,0.6790626063253873,0.33141294598858,0.2067940153745227,512,0,1,1,1995.6081985642195,0.8982761303675184,0.0573841304135595,412.6798324954127
512,512,144.14270650915117,293239,39340,32481280,30129720,0.7919956144835819,0.1843815036069721,0.398602178467631,512,0,1,1,1035.3175541636556,0.8923193960787387,0.0521939597258566,412.6798324954127
