cpu,memory,duration_std,userDiff,sysDiff,heapTotal,heapUsed,avg_cpu_util,cpu_util_std,slo_preservation,total_cpu_shares,cpu_shares_others,num_containers,arrival_rate,latency,memory_util,memory_util_std,slo_duration
1024,1024,159.693417688823,265437,28633,39956480,30012904,0.6316856238822427,0.2370446985072076,1.0,1024,0,1,1,583.2721639617811,0.7493966015142315,0.1070374317297973,671.5295387009347
1024,128,512.689956910611,371885,55649,33005568,29808112,0.34350013373320665,0.0910411680590465,0.3961934722772641,1024,0,1,1,1694.9535660975882,0.9144251831595714,0.0077850563113134,671.5295387009347
1024,1536,135.10379745678958,218929,25574,35885056,15523008,0.6430009600752254,0.3076823155064022,1.0,1024,0,1,1,509.9188082988609,0.6317538413556855,0.168825217503953,671.5295387009347
1024,2048,141.4970057299411,295491,37299,49000448,29962240,0.5725333236001031,0.2730665534852485,1.0,1024,0,1,1,544.3665458509097,0.5916308908585153,0.1623118207538479,671.5295387009347
1024,256,270.2208209018562,223175,38569,32481280,29893312,0.3931152416919495,0.1147520065658985,0.5974034458581945,1024,0,1,1,1124.0804574474041,0.9156246186754714,0.0130859448321511,671.5295387009347
1024,512,179.31380433634996,291899,53100,32481280,29709296,0.46816526088397387,0.1039883478237528,0.7494807248762847,1024,0,1,1,895.9930741538187,0.9002904334232941,0.0489757157266961,671.5295387009347
128,1024,200.29371038241075,263033,56205,39432192,30912784,0.6403298245483177,0.222625170032487,1.0,128,0,1,1,590.0525762603596,0.715736260021284,0.1239169491069001,671.5295387009347
128,128,800.0765333287281,222621,32292,32743424,29621928,0.38119189539075843,0.1664203079413165,0.40871389158198757,128,0,1,1,1643.0308647001948,0.910151853513697,0.0046630910649519,671.5295387009347
128,1536,149.21320322467122,179099,44792,36409344,15527016,0.6666842921078192,0.2552860422253327,1.0,128,0,1,1,469.9568384556859,0.6432592738365684,0.1460455712462371,671.5295387009347
128,2048,122.45321749653692,233805,28281,36147200,15552424,0.5166171487500985,0.165414327408524,1.0,128,0,1,1,544.8118568866813,0.5963086332806201,0.1713475633672961,671.5295387009347
128,256,316.03677489915515,267320,39059,32743424,29936400,0.3204985706900767,0.0511174491343177,0.46544877360590287,128,0,1,1,1442.7571341492483,0.9131493832614136,0.0224399092738909,671.5295387009347
128,512,278.2043049747899,279281,44138,32481280,30015416,0.4915322481083904,0.2016417744706839,0.6976794795570648,128,0,1,1,962.518689996828,0.9047622259331156,0.0365157999595589,671.5295387009347
1536,1024,153.92546077920375,271945,41745,37335040,30190816,0.6632179228588267,0.2271582436548402,1.0,1536,0,1,1,555.2120612107977,0.7604403292499002,0.1134932192125005,671.5295387009347
1536,128,637.4071174445791,255957,39598,31956992,29808408,0.3267361096855254,0.1117420780255113,0.39487624159763024,1536,0,1,1,1700.6076029897179,0.914264817693744,0.0106490813790015,671.5295387009347
1536,1536,151.01418828126603,216375,41608,37457920,15515800,0.6751372505945151,0.3987835029378246,1.0,1536,0,1,1,498.03167425521667,0.5965157317301222,0.1567431573690713,671.5295387009347
1536,2048,152.53655817064683,298507,24424,48476160,29915600,0.6224189235130118,0.3139011501543023,1.0,1536,0,1,1,452.11004214765535,0.6544359336293385,0.169513668193492,671.5295387009347
1536,256,387.0258821019581,240561,55737,32219136,29926080,0.3629686360004283,0.1140199801820509,0.5065224421066259,1536,0,1,1,1325.7646312926327,0.8940121582307354,0.0542113003297921,671.5295387009347
1536,512,229.92725273413885,281639,30230,33005568,29821864,0.5175693376621583,0.1797056637317723,0.8109664684297635,1536,0,1,1,828.060795166027,0.8884809511088306,0.0699442841689738,671.5295387009347
2048,1024,180.83007591199217,285755,40410,28413952,15382960,0.6537067388523311,0.231673946473471,1.0,2048,0,1,1,549.4544304830029,0.7296876941621216,0.1223698423524383,671.5295387009347
2048,128,739.714351287978,307490,34063,32743424,29976288,0.5206653422008465,0.2792919842982387,0.46002320652946316,2048,0,1,1,1459.7731791992219,0.9148866675157306,0.0113250987102898,671.5295387009347
2048,1536,177.5020431719677,214104,36469,37457920,15552464,0.7395453247236582,0.4358120561058905,1.0,2048,0,1,1,507.8345445080265,0.6252455310190785,0.1552212613814402,671.5295387009347
2048,2048,157.8021619182818,239866,78106,37720064,15561056,0.6321753548308621,0.3706917858783832,1.0,2048,0,1,1,502.7966163495008,0.5973488825008657,0.1759458549906375,671.5295387009347
2048,256,267.12165477178166,259531,32658,33267712,29570896,0.4264865056004485,0.1403101828108698,0.5836403418450182,2048,0,1,1,1150.58794013121,0.8954483640799098,0.0464113097510239,671.5295387009347
2048,512,199.5377673263128,252756,27615,32481280,29880984,0.4310010481313354,0.0657910003604676,0.7102646315844883,2048,0,1,1,945.4638578903448,0.8828611617969292,0.0772989053042735,671.5295387009347
256,1024,186.9524897356881,259362,27912,39170048,30076072,0.6149181051738268,0.279974569783055,1.0,256,0,1,1,629.7662450535981,0.7083954928202255,0.1240455738627421,671.5295387009347
256,128,875.3621904723329,247310,74021,33005568,29886448,0.28603234088722096,0.1046812505714008,0.3339407503086016,256,0,1,1,2010.924207603775,0.9135088846683572,0.0114055458519711,671.5295387009347
256,1536,117.00921692765752,204342,35797,36933632,15520896,0.588020906649299,0.2318305747441458,1.0,256,0,1,1,515.7797969640674,0.6088126825652803,0.1580674103989973,671.5295387009347
256,2048,100.70911737764489,260864,61208,50049024,29990128,0.6912688584643779,0.334765329148312,1.0,256,0,1,1,437.3585408816302,0.564770155102276,0.1781225230487919,671.5295387009347
256,256,268.4522131609549,310354,36371,32743424,30251824,0.37724327774280775,0.109713040650697,0.5369252902226883,256,0,1,1,1250.6945583107467,0.9033536171687808,0.0455597725162869,671.5295387009347
256,512,189.0829037531297,239425,31448,32481280,29918136,0.6001237942969038,0.1988173946620712,0.8752104503587363,256,0,1,1,767.2777883601416,0.8746249448156362,0.097529791861159,671.5295387009347
512,1024,140.14550732546107,233860,48485,37859328,30061840,0.6162970629088912,0.2119509594878059,1.0,512,0,1,1,577.7327825842939,0.7188484560366846,0.1265851694163873,671.5295387009347
512,128,884.6575580604842,265205,29824,32219136,29886328,0.29469257135644306,0.0934483171653383,0.3540932756314753,512,0,1,1,1896.4763945414006,0.9148013376278148,0.0090723155793321,671.5295387009347
512,1536,138.23576697969568,268463,35292,49786880,29919888,0.6585437779652402,0.262210013639959,1.0,512,0,1,1,448.594183254564,0.616530729398851,0.1677444616952892,671.5295387009347
512,2048,152.97948076331087,241896,37869,50573312,29865528,0.652197352839105,0.2685620925953167,1.0,512,0,1,1,447.29776208827656,0.594457423821802,0.1687041689495338,671.5295387009347
512,256,247.8176101993329,282022,18436,32481280,29993232,0.4004369518904752,0.0872766609252159,0.5871653007147678,512,0,1,1,1143.680557899911,0.8960035773473422,0.0548072066695138,671.5295387009347
512,512,218.3540992029112,244349,75912,33005568,30014128,0.5109563409742308,0.1345809667502957,0.8312280520592873,512,0,1,1,807.876414946879,0.8632667550190775,0.0739646252819076,671.5295387009347
