cpu,memory,duration_std,userDiff,sysDiff,heapTotal,heapUsed,avg_cpu_util,cpu_util_std,slo_preservation,total_cpu_shares,cpu_shares_others,num_containers,arrival_rate,latency,memory_util,memory_util_std,slo_duration
1024,1024,795.2226404319878,2019979,140211,43962368,34144488,0.8819014389403214,0.1261259206617037,1.0,1024,0,1,1,1041.6833549738828,0.8341392360470798,0.0806469554927823,2181.863886817308
1024,128,1625.0239016567523,2173096,192688,52224000,49758128,0.5832684768533388,0.2130210690806252,0.3179577682836748,1024,0,1,1,6862.118508992358,0.9338522753835398,0.0127844949981999,2181.863886817308
1024,1536,563.0641255465005,1816992,150255,52482048,39578736,1.07668050683246,0.1522587591374283,1.0,1024,0,1,1,721.9299113239153,0.7554350437844269,0.0890859285337683,2181.863886817308
1024,2048,396.8791302054269,1881342,145953,53268480,43064032,1.2419467219860458,0.3189068492654137,1.0,1024,0,1,1,489.8287761351705,0.8061960686078065,0.0663073186431205,2181.863886817308
1024,256,3263.48318274915,2176641,175304,37535744,35493680,0.39734345363858536,0.0848052708874624,0.2849991478007311,1024,0,1,1,7655.685652586049,0.9372798714672492,0.0232881976473968,2181.863886817308
1024,512,1811.5111591874763,2223830,184285,37797888,35151536,0.6054442734007017,0.0778801448362839,0.7551780332097199,1024,0,1,1,2889.2046522377914,0.9241886226525012,0.0448650243491862,2181.863886817308
128,1024,851.4567841717909,2228779,128680,44486656,34901960,0.9205433143993251,0.1354887853965146,1.0,128,0,1,1,1093.4845306687264,0.842419555269742,0.0661155214556169,2181.863886817308
128,128,1081.6620771449868,1907933,201341,52748288,50652688,0.6389718796269507,0.1605604385050405,0.37680313456308673,128,0,1,1,5790.461083470649,0.9446684054473676,0.0169800800511252,2181.863886817308
128,1536,355.8950016890672,1840962,122233,63229952,34242632,1.2995004575932156,0.3437495093535659,1.0,128,0,1,1,441.64092616400563,0.7303281738979764,0.1058399317386577,2181.863886817308
128,2048,231.31278548305275,1702264,191641,65064960,38839912,1.3723352016047143,0.3980116100265536,1.0,128,0,1,1,288.5695627951601,0.7582679387627941,0.1078065086617908,2181.863886817308
128,256,3890.313580184019,2161776,201123,51699712,48685160,0.308708941883868,0.0287665030302735,0.22882059144541858,128,0,1,1,9535.260236130262,0.923246122986461,0.0516428608244734,2181.863886817308
128,512,2714.2612885910144,2055579,217103,36749312,34731088,0.7075057378949533,0.3811353048946791,0.578711905558197,128,0,1,1,3770.207362008199,0.9289527220618816,0.0549248125149928,2181.863886817308
1536,1024,845.2669194110623,1901946,183902,43700224,37368896,0.8816164676420284,0.177487326746722,1.0,1536,0,1,1,1103.717052429815,0.8098852007468139,0.0901596509035251,2181.863886817308
1536,128,1593.441049077759,2267394,195376,37273600,35150376,0.5594047590679083,0.1188426681968936,0.32461426471578997,1536,0,1,1,6721.404830214712,0.9038882732578484,0.0965348980930428,2181.863886817308
1536,1536,577.7865730037068,2086360,126015,52482048,36423576,1.1403226450302273,0.1803407150417402,1.0,1536,0,1,1,721.3693276228579,0.7416256581405477,0.1167447328215704,2181.863886817308
1536,2048,381.6597109135624,1854335,146624,53006336,39238160,1.1451879478229543,0.1964924688098521,1.0,1536,0,1,1,479.9796719322922,0.7858892767342424,0.1023966259145012,2181.863886817308
1536,256,3225.5930001537145,2115506,173168,37273600,34418832,0.49896736838216527,0.3061439494578734,0.2767836539766448,1536,0,1,1,7882.921753036093,0.914204714273413,0.0457069745541993,2181.863886817308
1536,512,1688.1452016087517,1985512,164390,37011456,34888256,0.5596287966547127,0.053276941155933,0.782790020969679,1536,0,1,1,2787.291391520973,0.9150482855830804,0.0537504267590124,2181.863886817308
2048,1024,793.5213701411102,2055795,186073,51302400,37612928,0.897544328986512,0.1723671927440053,1.0,2048,0,1,1,1121.7769047958536,0.8355595916782681,0.0653322816415744,2181.863886817308
2048,128,0.0,1817858,164168,47497216,33727768,0.8216991947807573,0.0,0.6030313759486489,2048,0,1,1,3618.159807,0.7100998930126767,0.0,2181.863886817308
2048,1536,416.1953154975114,1868367,158814,53530624,40651152,1.3008928330472664,0.2521615551801862,1.0,2048,0,1,1,500.60500528961734,0.721359089629114,0.120870986770664,2181.863886817308
2048,2048,223.6852014304483,1646658,162430,65064960,40193152,1.3530216183154467,0.3330283705145099,1.0,2048,0,1,1,278.9203061549259,0.7458347773332791,0.1056294626139503,2181.863886817308
2048,256,3506.8473964794,1928247,202551,51961856,50043896,0.5057423096557635,0.2103832961129741,0.336356610633381,2048,0,1,1,6486.757857110995,0.8961104330601919,0.0816049534163102,2181.863886817308
2048,512,1542.6096830610222,2206000,187914,37535744,34490936,0.6439647080781805,0.1184992395993346,0.863339116960497,2048,0,1,1,2527.2385369249305,0.9147556875267584,0.0665218278103016,2181.863886817308
256,1024,886.9278363784546,2020546,177361,50778112,34997200,0.8811349187659981,0.1544987307715203,1.0,256,0,1,1,1122.7924272150788,0.8420961157947622,0.0802310464223949,2181.863886817308
256,128,1015.4408158193178,2169419,225736,37273600,34091144,0.5736122060605673,0.0916877524233631,0.3385594924681594,256,0,1,1,6444.550914556047,0.9019292695985582,0.0809461855914473,2181.863886817308
256,1536,571.8630129889923,1847500,198712,60608512,39746672,1.0270135327327594,0.1640202148594702,1.0,256,0,1,1,745.5559100653256,0.7458972340283431,0.108708754313974,2181.863886817308
256,2048,366.6782354183228,1702071,135009,65589248,38462392,1.1728292903329407,0.3073352466988857,1.0,256,0,1,1,458.685543127339,0.7490421975375913,0.0942758810396036,2181.863886817308
256,256,3678.124731751021,383295,25595,52486144,48715272,0.4616948276252157,0.3211748419992933,0.21636346461134856,256,0,1,1,10084.25286004995,0.912962618059158,0.0510739468311899,2181.863886817308
256,512,2113.712878644332,2304968,180940,38322176,36211352,0.5343601312779777,0.0563947640362486,0.6964280057172496,256,0,1,1,3132.935305452301,0.9362201076257076,0.0177291431213103,2181.863886817308
512,1024,819.1316520447634,1974071,160726,44486656,34242232,0.9437309161572395,0.1773305498544286,1.0,512,0,1,1,1041.8762345034725,0.8330532888322246,0.0703543696024349,2181.863886817308
512,128,1509.2174214119775,2163464,270851,51699712,48842064,0.49507872443819134,0.0987800893926525,0.285259717964699,512,0,1,1,7648.6925752598345,0.8738685897843426,0.0689691756944331,2181.863886817308
512,1536,551.3227260892845,1803613,159029,62705664,34770752,1.0988755205273155,0.2024736362136437,1.0,512,0,1,1,718.98991205412,0.7627462612524756,0.1148940168367592,2181.863886817308
512,2048,353.73069534761777,1790970,147836,65327104,36694440,1.1411714753327031,0.2420721621709125,1.0,512,0,1,1,475.29688528323646,0.7552503100146515,0.1061824872007335,2181.863886817308
512,256,3953.97004529644,1945516,166088,51961856,49480632,0.3547019842083398,0.0814467186822963,0.25024372918944715,512,0,1,1,8718.955291644997,0.9220277060195592,0.0407278318494901,2181.863886817308
512,512,2146.2610182368016,2261380,169839,37535744,34957240,0.5474057052432814,0.0527954896697549,0.6727393523562076,512,0,1,1,3243.2529465914704,0.9230742555402028,0.0435209269532201,2181.863886817308
