cpu,memory,duration_std,userDiff,sysDiff,heapTotal,heapUsed,avg_cpu_util,cpu_util_std,slo_preservation,total_cpu_shares,cpu_shares_others,num_containers,arrival_rate,latency,memory_util,memory_util_std,slo_duration
1024,1024,92.29000984506678,435272,43286,53858304,44202992,1.0111366005538005,0.1663253705170126,0.5680623201759833,1024,0,1,1,557.3118288358264,0.7446421019530434,0.1083336023555048,316.58785055000004
1024,128,327.86435379155336,443946,30374,38510592,30082976,0.8831124483209349,0.2345533421617318,0.371936279302483,1024,0,1,1,851.1884109388802,0.8732662420686086,0.0585583238852172,316.58785055000004
1024,1536,67.36966019348466,406172,34501,60805120,45445224,1.297981244835836,0.2432913490325203,0.8789455987095477,1024,0,1,1,360.19049531029987,0.6912780167173396,0.1383552399422218,316.58785055000004
1024,2048,38.399567550215295,397699,34700,58445824,46055856,1.4461822441232026,0.3316256157636705,1.0,1024,0,1,1,252.61302248313513,0.7116519257883275,0.1292331191699796,316.58785055000004
1024,256,69.45518353249281,471465,32822,34054144,29937096,1.0526546088732465,0.115079177309143,0.5245341391853637,1024,0,1,1,603.5600486208236,0.8733202945395991,0.052366712252122,316.58785055000004
1024,512,82.34120067643455,497578,67003,33529856,29626520,1.0524144283391215,0.1161560393344303,0.5075731987708808,1024,0,1,1,623.7284618585786,0.8582669770561188,0.0683644258177915,316.58785055000004
128,1024,89.84116603428926,455402,53702,44937216,30354152,1.0411555437096862,0.1353856615981874,0.5903655891753299,128,0,1,1,536.2572893048109,0.7258720337683217,0.1123355610586401,316.58785055000004
128,128,129.00919172454678,442243,42991,33005568,29599728,0.9352451781439363,0.1359824522829462,0.4307053873304473,128,0,1,1,735.0450211738504,0.8895354515879037,0.0602615682865947,316.58785055000004
128,1536,69.28348313878756,393531,42609,62640128,44446688,1.2940822493258524,0.2340165796925093,0.9039700105158529,128,0,1,1,350.21941753282096,0.7098389317770692,0.1208135163509395,316.58785055000004
128,2048,33.410568655747134,356490,60931,58707968,44911328,1.3599670901628944,0.2181819941683778,1.0,128,0,1,1,277.0980662181576,0.6420296056434938,0.126590544605884,316.58785055000004
128,256,62.14181786185961,429557,49341,41656320,29945688,1.2619566166319875,0.1751100234788203,0.6749444455314466,128,0,1,1,469.0576426637913,0.8713184895155248,0.0924025846760092,316.58785055000004
128,512,77.81882657600076,378034,54212,37986304,29733232,1.048056056774822,0.1450450850086732,0.51355537167308,128,0,1,1,616.462932747852,0.8550625100520062,0.0761268399732866,316.58785055000004
1536,1024,100.47279189727271,361030,44391,38121472,30343800,1.0203591897202675,0.1301971027336553,0.5706495693197503,1536,0,1,1,554.78505123099,0.709089729576793,0.09832224436885,316.58785055000004
1536,128,206.9374098982739,429568,32531,34316288,29741000,1.0331349428049386,0.3133658626328536,0.44168535400141035,1536,0,1,1,716.7723531738142,0.857902657330297,0.0694599079661992,316.58785055000004
1536,1536,68.59668316484543,434704,45781,58970112,46114064,1.3194686112901235,0.2631312263056012,0.8970901234415158,1536,0,1,1,352.9052904244123,0.7481669022259921,0.1249133155358437,316.58785055000004
1536,2048,39.60545217405556,414834,51670,58707968,45414896,1.4073983129641503,0.315476927159949,1.0,1536,0,1,1,280.0601609496851,0.6921942484870179,0.1456336857494172,316.58785055000004
1536,256,70.7419652039861,503943,26175,34578432,29958872,1.016323875333079,0.1007723628487516,0.524156722251727,1536,0,1,1,603.9946395993339,0.8896768971131435,0.0557593264075745,316.58785055000004
1536,512,82.11575702258135,419110,41232,32743424,29721688,1.099067462592118,0.1699374831937747,0.5495901266304368,1536,0,1,1,576.0435553873851,0.8603495234249859,0.0643957381011564,316.58785055000004
2048,1024,99.48157860320217,462783,57140,44675072,30372664,1.0628952499060278,0.1385539389318257,0.5769409046059263,2048,0,1,1,548.7353176427007,0.71776206363388,0.1311853208365856,316.58785055000004
2048,128,320.49825934947006,360659,34557,38772736,29638992,1.0553061343041095,0.3664326733219002,0.45402178664948645,2048,0,1,1,697.2966052715262,0.8697036623124874,0.0595038635670895,316.58785055000004
2048,1536,58.8617699717641,426699,33068,59232256,45448688,1.3295261843899473,0.225662610148967,0.8792297237158166,2048,0,1,1,360.07409896475144,0.6942059437733322,0.1631527978297137,316.58785055000004
2048,2048,33.3960441896717,340357,68030,58707968,44847600,1.3866226029524984,0.2628068609376548,1.0,2048,0,1,1,272.6989865205397,0.6833990071733301,0.1511611592924278,316.58785055000004
2048,256,49.39124708604884,359187,59729,34578432,29656048,1.1824051137426614,0.126070216828178,0.6268288881331296,2048,0,1,1,505.0626359817055,0.8463317584344274,0.0808521836218976,316.58785055000004
2048,512,68.7482063103145,506840,59057,32481280,29728640,1.0561291887520154,0.1120578064976041,0.5386794200231076,2048,0,1,1,587.7110555595746,0.8391394468901711,0.0785499991635223,316.58785055000004
256,1024,82.2068647134474,435490,43402,39956480,30030224,1.072649895226046,0.1715958407528706,0.5872853723461331,256,0,1,1,539.0698720883688,0.7369601208025947,0.1108249789728453,316.58785055000004
256,128,182.4929763605336,471407,51898,34840576,29617240,0.980077824567603,0.3083832156271224,0.4377260425080164,256,0,1,1,723.2556891887513,0.8570027632388427,0.0791489916604916,316.58785055000004
256,1536,71.61598382060421,364433,49199,57135104,46001832,1.2762564970630481,0.1442047258133213,0.8658085506598919,256,0,1,1,365.65572182061123,0.701336717738437,0.1198680860422299,316.58785055000004
256,2048,35.856839104348005,370006,43923,58707968,44988512,1.4175516755151354,0.3270978517643115,1.0,256,0,1,1,273.151542999491,0.72826751006645,0.1364488431836939,316.58785055000004
256,256,66.32175803745626,372126,39716,32743424,29638616,1.1999156135550506,0.1205347913924222,0.6905343651323554,256,0,1,1,458.46791490141015,0.8720296919093045,0.075009230017692,316.58785055000004
256,512,59.35171506647618,480519,42974,42442752,30058792,0.9877245826118621,0.1341216381536107,0.48598818684263845,256,0,1,1,651.4311646272798,0.861522151207625,0.0758500906884148,316.58785055000004
512,1024,98.18550052159436,509047,42325,43888640,31289912,1.040173636431508,0.1011323237625109,0.5849214037020503,512,0,1,1,541.2485310783137,0.7400648659982224,0.110555329547722,316.58785055000004
512,128,68.66003765380616,395141,26870,32743424,29818216,1.0387891006537842,0.1249374468476188,0.5261357488098224,512,0,1,1,601.7227517159915,0.871656714096354,0.057002637375801,316.58785055000004
512,1536,77.52062965726728,482247,34155,59756544,44963640,1.2411983486713196,0.2272165230339775,0.8602018052637176,512,0,1,1,368.039044573897,0.6554267643206054,0.1588633186622745,316.58785055000004
512,2048,47.88254789987293,416405,51397,59494400,44667896,1.4422660856413336,0.3300684776083948,1.0,512,0,1,1,264.7336546368913,0.6515739728767566,0.1453850603291905,316.58785055000004
512,256,340.04337062924435,523157,69765,34578432,29775128,0.3837761016852663,0.0628121631505289,0.1503550039337313,512,0,1,1,2105.60235620449,0.8777711156228938,0.0444015872383906,316.58785055000004
512,512,241.6273540890471,487924,52610,42704896,29612872,0.47210880242920766,0.0666492824940038,0.19907850085316087,512,0,1,1,1590.2663983968484,0.8560337427601297,0.0732315592173467,316.58785055000004
