cpu,memory,duration_std,userDiff,sysDiff,heapTotal,heapUsed,avg_cpu_util,cpu_util_std,slo_preservation,total_cpu_shares,cpu_shares_others,num_containers,arrival_rate,latency,memory_util,memory_util_std,slo_duration
1024,1024,92.29000984506678,435272,43286,53858304,44202992,1.008329260503566,0.1663253705170126,0.42486385537023597,1024,0,1,1,745.1512915216529,0.7446421019530434,0.1083336023555048,316.58785055000004
1024,128,327.86435379155336,443946,30374,38510592,30082976,0.9096954673077204,0.2345533421617318,0.28734909245029117,1024,0,1,1,1101.7534381277605,0.8732662420686086,0.0585583238852172,316.58785055000004
1024,1536,67.36966019348466,406172,34501,60805120,45445224,1.207991539186359,0.2432913490325203,0.6135058870479921,1024,0,1,1,516.0306644705996,0.6912780167173396,0.1383552399422218,316.58785055000004
1024,2048,38.399567550215295,397699,34700,58445824,46055856,1.3010553006770809,0.3316256157636705,0.8456146606307717,1024,0,1,1,374.38784506627024,0.7116519257883275,0.1292331191699796,316.58785055000004
1024,256,69.45518353249281,471465,32822,34054144,29937096,1.038977865588121,0.115079177309143,0.388289299095636,1024,0,1,1,815.3401375916471,0.8733202945395991,0.052366712252122,316.58785055000004
1024,512,82.34120067643455,497578,67003,33529856,29626520,1.0388023702407483,0.1161560393344303,0.37575613828241344,1024,0,1,1,842.535406067157,0.8582669770561188,0.0683644258177915,316.58785055000004
128,1024,89.84116603428926,455402,53702,44937216,30354152,1.0305523085646238,0.1353856615981874,0.43826493396989225,128,0,1,1,722.3663725096219,0.7258720337683217,0.1123355610586401,316.58785055000004
128,128,129.00919172454678,442243,42991,33005568,29599728,0.9506347236896135,0.1359824522829462,0.32834451311132035,128,0,1,1,964.1941250977007,0.8895354515879037,0.0602615682865947,316.58785055000004
128,1536,69.28348313878756,393531,42609,62640128,44446688,1.2054564157722096,0.2340165796925093,0.6315458983053513,128,0,1,1,501.29032806564186,0.7098389317770692,0.1208135163509395,316.58785055000004
128,2048,33.410568655747134,356490,60931,58707968,44911328,1.2476856471979325,0.2181819941683778,0.7861380060168961,128,0,1,1,402.7128164863152,0.6420296056434938,0.126590544605884,316.58785055000004
128,256,62.14181786185961,429557,49341,41656320,29945688,1.184391799491614,0.1751100234788203,0.47509477893148166,128,0,1,1,666.3677745775826,0.8713184895155248,0.0924025846760092,316.58785055000004
128,512,77.81882657600076,378034,54212,37986304,29733232,1.0356141733964348,0.1450450850086732,0.3805940662409511,128,0,1,1,831.8255028957041,0.8550625100520062,0.0761268399732866,316.58785055000004
1536,1024,100.47279189727271,361030,44391,38121472,30343800,1.0151920677428456,0.1301971027336553,0.42581984026117986,1536,0,1,1,743.4783930119801,0.709089729576793,0.09832224436885,316.58785055000004
1536,128,206.9374098982739,429568,32531,34316288,29741000,1.0246470375587486,0.3133658626328536,0.32854245662375225,1536,0,1,1,963.6132078739441,0.857902657330297,0.0694599079661992,316.58785055000004
1536,1536,68.59668316484543,434704,45781,58970112,46114064,1.2218804950602749,0.2631312263056012,0.6230558924054151,1536,0,1,1,508.1211082488247,0.7481669022259921,0.1249133155358437,316.58785055000004
1536,2048,39.60545217405556,414834,51670,58707968,45414896,1.2773053062386994,0.315476927159949,0.7694525864360984,1536,0,1,1,411.44556029937013,0.6921942484870179,0.1456336857494172,316.58785055000004
1536,256,70.7419652039861,503943,26175,34578432,29958872,1.0121931466483578,0.1007723628487516,0.3915197617435108,1536,0,1,1,808.6126971986678,0.8896768971131435,0.0557593264075745,316.58785055000004
1536,512,82.11575702258135,419110,41232,32743424,29721688,1.072504878362849,0.1699374831937747,0.4022306036526369,1536,0,1,1,787.0804649747704,0.8603495234249859,0.0643957381011564,316.58785055000004
2048,1024,99.48157860320217,462783,57140,44675072,30372664,1.0464412046366314,0.1385539389318257,0.426007220800933,2048,0,1,1,743.1513718354013,0.71776206363388,0.1311853208365856,316.58785055000004
2048,128,320.49825934947006,360659,34557,38772736,29638992,1.0409139032707826,0.3664326733219002,0.3358723891216637,2048,0,1,1,942.5837335956837,0.8697036623124874,0.0595038635670895,316.58785055000004
2048,1536,58.8617699717641,426699,33068,59232256,45448688,1.2283341204250362,0.225662610148967,0.6092327563828129,2048,0,1,1,519.6500799295028,0.6942059437733322,0.1631527978297137,316.58785055000004
2048,2048,33.3960441896717,340357,68030,58707968,44847600,1.2644102111899993,0.2628068609376548,0.7939656306356088,2048,0,1,1,398.74251269107936,0.6833990071733301,0.1511611592924278,316.58785055000004
2048,256,49.39124708604884,359187,59729,34578432,29656048,1.1308374789974145,0.126070216828178,0.44961848822832445,2048,0,1,1,704.1255171634111,0.8463317584344274,0.0808521836218976,316.58785055000004
2048,512,68.7482063103145,506840,59057,32481280,29728640,1.0415143498690818,0.1120578064976041,0.3984188335398024,2048,0,1,1,794.6106556691493,0.8391394468901711,0.0785499991635223,316.58785055000004
256,1024,82.2068647134474,435490,43402,39956480,30030224,1.053515448488125,0.1715958407528706,0.4326068192366951,256,0,1,1,731.8142860267378,0.7369601208025947,0.1108249789728453,316.58785055000004
256,128,182.4929763605336,471407,51898,34840576,29617240,0.9849835784797287,0.3083832156271224,0.32993780157218744,256,0,1,1,959.5379766775026,0.8570027632388427,0.0791489916604916,316.58785055000004
256,1536,71.61598382060421,364433,49199,57135104,46001832,1.1938072451356336,0.1442047258133213,0.6074064204903517,256,0,1,1,521.2125520412225,0.701336717738437,0.1198680860422299,316.58785055000004
256,2048,35.856839104348005,370006,43923,58707968,44988512,1.2835631858000467,0.3270978517643115,0.78710052551676,256,0,1,1,402.22035214898204,0.72826751006645,0.1364488431836939,316.58785055000004
256,256,66.32175803745626,372126,39716,32743424,29638616,1.1427997359588593,0.1205347913924222,0.4932487425964118,256,0,1,1,641.8421847028203,0.8720296919093045,0.075009230017692,316.58785055000004
256,512,59.35171506647618,480519,42974,42442752,30058792,0.9907650963847926,0.1341216381536107,0.3656131536478841,256,0,1,1,865.9093563545596,0.861522151207625,0.0758500906884148,316.58785055000004
512,1024,98.18550052159436,509047,42325,43888640,31289912,1.0298306261413492,0.1011323237625109,0.4343289098475604,512,0,1,1,728.9126820066276,0.7400648659982224,0.110555329547722,316.58785055000004
512,128,68.66003765380616,395141,26870,32743424,29818216,1.0288124234916143,0.1249374468476188,0.39081200010517025,512,0,1,1,810.0770970819832,0.871656714096354,0.057002637375801,316.58785055000004
512,1536,77.52062965726728,482247,34155,59756544,44963640,1.1706109892834053,0.2272165230339775,0.6084613837029348,512,0,1,1,520.308862697794,0.6554267643206054,0.1588633186622745,316.58785055000004
512,2048,47.88254789987293,416405,51397,59494400,44667896,1.2986759980930884,0.3300684776083948,0.8076101625384905,512,0,1,1,392.00577857378255,0.6515739728767566,0.1453850603291905,316.58785055000004
512,256,340.04337062924435,523157,69765,34578432,29775128,0.4536660702747198,0.0628121631505289,0.13330226298854234,512,0,1,1,2374.9623108589803,0.8777711156228938,0.0444015872383906,316.58785055000004
512,512,241.6273540890471,487924,52610,42704896,29612872,0.5438871064166008,0.0666492824940038,0.17200944340846575,512,0,1,1,1840.525986693697,0.8560337427601297,0.0732315592173467,316.58785055000004
