cpu,memory,duration_std,userDiff,sysDiff,heapTotal,heapUsed,avg_cpu_util,cpu_util_std,slo_preservation,total_cpu_shares,cpu_shares_others,num_containers,arrival_rate,latency,memory_util,memory_util_std,slo_duration
1024,1024,590.493942283334,2092380,217896,58388480,47223832,1.0061147141210451,0.154304919187425,0.488742580292023,1024,0,1,1,726.3507008687168,0.851058768149749,0.0741848616105246,354.998515739496
1024,128,873.215284283706,2285138,185645,49864704,46957544,0.9441533282989834,0.1287939342662093,0.3073462907903038,1024,0,1,1,1155.0440866771494,0.9415292326846126,0.0329367856973575,354.998515739496
1024,1536,385.5234996575679,1936316,119845,67170304,47649704,1.1154362215269291,0.1610901775157266,0.7979698321347429,1024,0,1,1,444.87711369964666,0.8166858323443942,0.0799985944815683,354.998515739496
1024,2048,217.2801385017918,1634867,148874,65859584,49585464,1.4047295850449588,0.3223842850178474,1.0,1024,0,1,1,258.9859748083173,0.8062796896329969,0.07598630015224,354.998515739496
1024,256,598.2259295510391,2135144,141272,50913280,47058968,1.0224861376003738,0.1362397320857759,0.44236824930544294,1024,0,1,1,802.4954690958831,0.9278999556863944,0.0463799925404299,354.998515739496
1024,512,637.6925855769991,2349082,167419,51437568,46555072,1.0736439263334498,0.1095946440134073,0.4875389246253218,1024,0,1,1,728.1439446344016,0.9495398516689002,0.0140301473583159,354.998515739496
128,1024,598.0223528681073,1996594,146518,55767040,48258352,0.9778650929291319,0.1880522654378953,0.4643143294377902,128,0,1,1,764.5650655868018,0.8566864730014977,0.0781232084556749,354.998515739496
128,128,897.541856120101,2365399,201209,49864704,47281712,0.9829837790275141,0.193708879714415,0.3389334010938442,128,0,1,1,1047.399030587734,0.9315644000205058,0.0402668067426598,354.998515739496
128,1536,376.2768008125527,1702384,153782,75034624,49630320,1.1290216401911433,0.2083933531940625,0.7895618911604924,128,0,1,1,449.6145517075574,0.798128270077135,0.0706818178778284,354.998515739496
128,2048,230.68982969490645,1656441,172217,62189568,50605176,1.3572770854005989,0.4067112098679935,1.0,128,0,1,1,257.5816699149088,0.808798382392701,0.0899268330240288,354.998515739496
128,256,608.1519848250653,2003790,177588,50913280,46874296,1.0736712352375803,0.1751042427975204,0.4505129167829622,128,0,1,1,787.9874305813057,0.9418381760887022,0.0227687523096394,354.998515739496
128,512,597.0343655334256,2118427,180391,50651136,46721464,1.0794326894892068,0.1922601541366403,0.4833118303213469,128,0,1,1,734.5123654504023,0.9301183792814188,0.0502225785954562,354.998515739496
1536,1024,605.6328848443126,1971255,202246,55242752,48718328,1.0454620966964554,0.1656626518783878,0.4862927893596626,1536,0,1,1,730.0098284552987,0.83844960407367,0.091469664742589,354.998515739496
1536,128,565.6892543524008,1948014,193722,51175424,46714792,1.1574851315158352,0.3185068664914166,0.45570726844104753,1536,0,1,1,779.005603649748,0.9439328015448492,0.0167027310450784,354.998515739496
1536,1536,392.25534323581377,1959070,184788,67694592,47370472,1.2183308487475386,0.2169479238631658,0.8398641752385545,1536,0,1,1,422.6856272785566,0.8137261354171613,0.0618375407760439,354.998515739496
1536,2048,240.5068806360641,1791883,150851,68218880,47080624,1.4019123095232002,0.3075603806971175,1.0,1536,0,1,1,254.87472863799852,0.7968166517471049,0.0857272366360315,354.998515739496
1536,256,342.3786735357157,1835986,135792,50913280,47127816,1.15473565782483,0.2025986514634363,0.7337500158981735,1536,0,1,1,483.81398030356036,0.9287812379304448,0.0391562281277329,354.998515739496
1536,512,389.4808767387443,1994087,160783,50126848,46938840,1.2330916445754345,0.2212616778127577,0.7317768001562409,1536,0,1,1,485.11857121420167,0.9292693990362236,0.0487656998262965,354.998515739496
2048,1024,599.7134997065672,1922915,108790,53669888,47449832,1.0529222987536766,0.2003968026190552,0.4984209751711004,2048,0,1,1,712.2463407917983,0.8986983127350661,0.0285335141844975,354.998515739496
2048,128,568.9017796835702,2054674,177605,51175424,46766960,1.1137615935846925,0.1709701679418239,0.48916678968815064,2048,0,1,1,725.7208036666012,0.9252970065057616,0.044237003720946,354.998515739496
2048,1536,374.205442294413,1690847,142277,62189568,50187528,1.1845941113367087,0.2356998665255657,0.8244345318310172,2048,0,1,1,430.5963688239339,0.8058083144255139,0.0529560772563295,354.998515739496
2048,2048,220.99341118227665,1594392,120997,62451712,50548824,1.3540170770499493,0.2992248041281543,1.0,2048,0,1,1,266.49062097426827,0.8199987238528579,0.0710735026969989,354.998515739496
2048,256,372.2625416871337,1899799,143163,51175424,46689128,1.2224818333160743,0.1696899427982171,0.7163039760915658,2048,0,1,1,495.59757810714177,0.9198646236422562,0.0678751911177478,354.998515739496
2048,512,359.7689667077362,1787285,124284,49864704,46667528,1.2502167163879665,0.1889945471751698,0.827128348326461,2048,0,1,1,429.1939896120945,0.9480788947895664,0.0130448718775758,354.998515739496
256,1024,380.4161351653701,1866791,114510,57602048,49157416,1.1517950753670272,0.1793990087510532,0.7778995636523917,256,0,1,1,456.3552061563167,0.8717240071037791,0.0450982327778701,354.998515739496
256,128,590.1752330324099,2000216,247809,51175424,46707680,1.0850032446447722,0.1824999816889697,0.4868048895386902,256,0,1,1,729.2418859553823,0.9254215862564954,0.0390320075468111,354.998515739496
256,1536,364.4075639366193,1742263,151766,75821056,49917464,1.2069714465420156,0.3023863749806348,0.8221065675228237,256,0,1,1,431.8156912542124,0.8092995130996898,0.0679154224265423,354.998515739496
256,2048,225.58321499111628,1662242,108073,62713856,51163024,1.3808544695287337,0.3972975437784743,1.0,256,0,1,1,259.59163613765054,0.7926174006352587,0.0776920030777088,354.998515739496
256,256,569.4971724870165,1855409,125737,50388992,47293336,0.9970518737385019,0.1805543006219299,0.4658691017846132,256,0,1,1,762.0134376364449,0.9395872864723048,0.037831846498384,354.998515739496
256,512,610.4932858247132,2161213,192464,51961856,46856024,1.082484798289816,0.1409831926895547,0.4708332859069622,256,0,1,1,753.9792244205192,0.9409775157532726,0.0363507500116861,354.998515739496
512,1024,627.128891876944,2083201,161024,58650624,49759256,1.0526858160193628,0.2281033949747716,0.48512585511919,512,0,1,1,731.7658129193646,0.8568773536066912,0.065393296769463,354.998515739496
512,128,899.0216082407347,1999453,271415,49864704,46921688,0.9680249219106422,0.1925318513766835,0.3163100066630948,512,0,1,1,1122.3119985502349,0.9218414524570387,0.0678694249573412,354.998515739496
512,1536,372.8319814773228,1776879,146623,67694592,47044736,1.1158006586659805,0.1398444856843747,0.8080844354057424,512,0,1,1,439.30869125235637,0.7895482955177352,0.0742981519008531,354.998515739496
512,2048,236.5247981629956,1774855,143217,56152064,32713472,1.2827708840557883,0.1507930297903656,1.0,512,0,1,1,260.8435896765636,0.7891443386000723,0.0913461538931587,354.998515739496
512,256,579.1813960139541,2093464,168172,49340416,46899568,1.0119748821836025,0.200772185530013,0.47072654894612925,512,0,1,1,754.1501887545387,0.9405985529753864,0.0355693050788087,354.998515739496
512,512,618.4832216017534,2133747,176371,51437568,46737104,1.0742894811299637,0.1811900778857704,0.4650073621995514,512,0,1,1,763.4255811785478,0.9308661529796906,0.0374698614379768,354.998515739496
