cpu,memory,duration_std,userDiff,sysDiff,heapTotal,heapUsed,avg_cpu_util,cpu_util_std,slo_preservation,total_cpu_shares,cpu_shares_others,num_containers,arrival_rate,latency,memory_util,memory_util_std,slo_duration
1024,1024,811.5026851177154,1644996,134263,42389504,34222104,0.43052532134711413,0.2710070979472681,1.0,1024,0,1,1,745.600001184386,0.827726241416436,0.0272627682187231,2164.649557490385
1024,128,1917.6033909048824,1890529,204121,36225024,33178008,0.40734533915545723,0.0802623335094034,0.3206682077499409,1024,0,1,1,6750.433953771908,0.9200269898596246,0.0070058867255852,2164.649557490385
1024,1536,501.9403530500479,1768264,152391,51695616,31777296,0.4197171374680807,0.414452855991781,1.0,1024,0,1,1,625.179835618063,0.684876862289867,0.0448093595359041,2164.649557490385
1024,2048,407.60625419002463,1834232,143341,53530624,31817432,0.3398171378226515,0.3152804118685365,1.0,1024,0,1,1,496.6610976625931,0.6973693762797352,0.057819500426866,2164.649557490385
1024,256,3197.631300025977,1879954,155359,36225024,32937400,0.29770426236074166,0.0705043352977361,0.33614254404615107,1024,0,1,1,6439.677439917237,0.9224819569421788,0.0119819292218984,2164.649557490385
1024,512,1904.5334208513823,1894277,125046,35962880,33102016,0.37919254342406106,0.1217976930061499,0.9611942134272788,1024,0,1,1,2252.041811375466,0.8686364092565574,0.1397592566045421,2164.649557490385
128,1024,811.4907896682496,1644680,131282,42913792,35536752,0.38628963528183086,0.2514814527959765,1.0,128,0,1,1,905.6325422045952,0.8285069143193875,0.0255068466516203,2164.649557490385
128,128,1871.9508691622184,1876059,148731,36225024,32607016,0.30602290979699703,0.0787032695823809,0.24264194090059824,128,0,1,1,8921.168160195211,0.915703112684224,0.0085835746566688,2164.649557490385
128,1536,419.97030792290496,1807989,121014,51957760,31807896,0.3277396058864217,0.303780552962156,1.0,128,0,1,1,516.6126793546009,0.6807624002241557,0.0572968587297663,2164.649557490385
128,2048,197.62780112509748,1314158,132758,51433472,32876312,0.2914508484558779,0.3220680429835707,1.0,128,0,1,1,392.36430305485624,0.6924004527308443,0.0543227983762904,2164.649557490385
128,256,4361.079710370995,1984613,204057,36487168,33299912,0.2550313616429818,0.0806419812506106,0.2615996509807263,128,0,1,1,8274.665311575161,0.9179945108591052,0.009623498938593,2164.649557490385
128,512,1893.5237342570608,2266788,153870,36487168,33410584,0.36444647937044694,0.1764023476871339,1.0,128,0,1,1,2083.534224387652,0.9179399453430774,0.0403164411557196,2164.649557490385
1536,1024,715.0957172805269,1618259,124725,42913792,33209440,0.4569240983069571,0.2683727322888172,1.0,1536,0,1,1,776.1978340195312,0.8227033562591874,0.0258794781228637,2164.649557490385
1536,128,1962.448977351655,1619475,181436,35438592,32064528,0.4111787682015106,0.1010018450691439,0.33489566789428543,1536,0,1,1,6463.653504689966,0.907845460322454,0.0055650960424166,2164.649557490385
1536,1536,388.71110520436383,1681190,133170,52744192,35903376,0.34238378622202836,0.3822602515942392,1.0,1536,0,1,1,516.862519231807,0.70270640952567,0.0437143569985051,2164.649557490385
1536,2048,222.5095908733434,1562182,107965,52744192,31806560,0.3305034363703114,0.301200950049365,1.0,1536,0,1,1,387.07605076931816,0.7209731770732697,0.0469302600232115,2164.649557490385
1536,256,2842.077814802026,1934218,164693,36225024,33080784,0.32561818517499985,0.1266642688027807,0.42735772094555147,1536,0,1,1,5065.193516805977,0.9181645508374652,0.0129436526134598,2164.649557490385
1536,512,1161.1198701685887,1953964,241351,35962880,32641648,0.458652284536453,0.2943695231535411,1.0,1536,0,1,1,1601.8015553563741,0.9240350591916128,0.0118594161927019,2164.649557490385
2048,1024,759.9638033414712,1670636,131220,42127360,33136352,0.4195335751171336,0.3059780050344063,1.0,2048,0,1,1,821.0810741677699,0.8137518525078228,0.0381915490328649,2164.649557490385
2048,128,2497.9715743342254,1819061,241436,36225024,33338288,0.3842093895584784,0.0797054816379522,0.2953438858890873,2048,0,1,1,7329.251292858293,0.9208333793032444,0.0071113476016916,2164.649557490385
2048,1536,503.19369636422135,1627787,136591,51695616,38226128,0.4319216926978375,0.3339087317030312,1.0,2048,0,1,1,546.1390394082648,0.7045827551732884,0.0348121231095524,2164.649557490385
2048,2048,408.46335562578025,1865750,135567,52744192,31808024,0.3443459891096654,0.3491745285715247,1.0,2048,0,1,1,457.43968858744336,0.6967374943158774,0.0492140054270733,2164.649557490385
2048,256,2103.989338846483,1802729,160085,35962880,32814736,0.398834219699718,0.1365765848617962,0.4818959307061009,2048,0,1,1,4491.944047584339,0.9191175465147116,0.0078942784602084,2164.649557490385
2048,512,1758.6793848933687,1989955,115489,36487168,33359616,0.37368040000981917,0.1686760468731237,1.0,2048,0,1,1,1968.7459415421995,0.9235937586923806,0.0105390641071872,2164.649557490385
256,1024,765.496629126995,1708858,146327,43438080,36416200,0.4352381715083962,0.2859950000434804,1.0,256,0,1,1,809.9484468541441,0.7901754083482527,0.0405867300640768,2164.649557490385
256,128,2321.3552295509267,1673533,170950,35962880,32601056,0.36978328270536853,0.239601781251053,0.25356328592836574,256,0,1,1,8536.920278363647,0.9140099431594584,0.0101069439597459,2164.649557490385
256,1536,336.42425561410744,1691066,119016,52744192,31812936,0.2978646403175148,0.3650823530634692,1.0,256,0,1,1,521.2491124141789,0.7104820378232583,0.0535727032484555,2164.649557490385
256,2048,256.24486677533463,1396448,132521,52219904,34574752,0.21849414846518658,0.2127182522876127,1.0,256,0,1,1,447.58680818649304,0.7311651907509041,0.0530744136541202,2164.649557490385
256,256,4506.494240034307,1820922,162418,36225024,33113480,0.23669787517029384,0.030497725075451,0.2780289924668012,256,0,1,1,7785.697233531719,0.9199837749606268,0.0095477976280583,2164.649557490385
256,512,1561.239803258751,2054815,177090,36225024,33815984,0.4686663876295331,0.2886920485780079,1.0,256,0,1,1,1769.3007690248376,0.9264147222528362,0.0127585004894742,2164.649557490385
512,1024,777.0490258198804,1679277,82752,42389504,35929296,0.557008842595983,0.3117175315427454,1.0,512,0,1,1,745.487104710872,0.8237060278659751,0.0327329658794905,2164.649557490385
512,128,2747.1388412626798,1899260,238843,35962880,32370248,0.31175173811537416,0.0552611971799776,0.24348738310942247,512,0,1,1,8890.191885292053,0.9182154467268916,0.0078751329522279,2164.649557490385
512,1536,557.234802002914,1580223,134682,51695616,31782720,0.4110963119154151,0.3797041232586998,1.0,512,0,1,1,621.6585872838207,0.686314095360626,0.0494947792830053,2164.649557490385
512,2048,392.36600702432855,1669048,109278,52219904,35721888,0.36100194037347527,0.337350894008091,1.0,512,0,1,1,497.0382522326371,0.7043209821349994,0.0422392813575601,2164.649557490385
512,256,3124.343566269971,1803425,202344,35962880,32411168,0.2645408266544276,0.0485321237125863,0.2960555469741729,512,0,1,1,7311.633170241608,0.9197907715572436,0.0105475698553164,2164.649557490385
512,512,1644.5062128735058,1807855,171249,35700736,32581696,0.39096062071878795,0.2067282947424287,1.0,512,0,1,1,1841.2657659435936,0.9262598717706084,0.0118311898327214,2164.649557490385
