cpu,memory,duration_std,userDiff,sysDiff,heapTotal,heapUsed,avg_cpu_util,cpu_util_std,slo_preservation,total_cpu_shares,cpu_shares_others,num_containers,arrival_rate,latency,memory_util,memory_util_std,slo_duration
1024,1024,392.2510457399212,2114136,189187,71503872,61925664,1.1721412288796305,0.2302436596424195,1.0,1024,0,1,1,924.8639640114109,0.8136738787931378,0.1052886349412534,943.5227875137612
1024,128,2207.6342375008244,2264090,232181,64552960,61264176,0.9190779814856859,0.384933093497145,0.14473472220189476,1024,0,1,1,6518.980194659946,0.9071317198095408,0.0794087153327803,943.5227875137612
1024,1536,223.729653415727,1767334,134622,73469952,62525720,1.312888190978664,0.3812457477910916,1.0,1024,0,1,1,523.370843549035,0.7623114996151299,0.1225870081903171,943.5227875137612
1024,2048,250.4715182288911,1933675,142664,82120704,62015864,1.3015463894201014,0.3278057025341525,1.0,1024,0,1,1,524.1960088029603,0.7437912312744551,0.1545754122594892,943.5227875137612
1024,256,2222.508260318392,2461231,192008,64290816,61328520,0.6472535850884811,0.0584947634552609,0.22071934215125222,1024,0,1,1,4274.762593607196,0.9428194331948272,0.0327136537981199,943.5227875137612
1024,512,856.4574238744938,2320326,191235,54583296,46680120,0.9108728825389594,0.1239612275434901,0.5015975204031387,1024,0,1,1,1881.0355895608154,0.9058000004496324,0.0674429387450313,943.5227875137612
128,1024,386.0486214449004,2093949,152439,71503872,61410240,1.1512840834216809,0.1802688187285589,1.0,128,0,1,1,936.8127609830558,0.8288038191855917,0.0939726288095225,943.5227875137612
128,128,3680.880783191018,2602460,388710,64552960,60907976,0.4902239083909265,0.1454411396105051,0.06742291648841751,128,0,1,1,13994.096319993034,0.8976977753656804,0.0637628074216969,943.5227875137612
128,1536,214.8761500132471,1738345,130839,74772480,48683216,1.2902446300435082,0.2330657509195719,1.0,128,0,1,1,558.5733091731344,0.7698322654099438,0.1091778792854272,943.5227875137612
128,2048,209.77692222854725,1733150,113058,77926400,62912984,1.289079525743438,0.2928578300895023,1.0,128,0,1,1,520.517335482527,0.7732947967232559,0.1225117718430265,943.5227875137612
128,256,1422.6746524116998,2286443,213203,54321152,46647712,0.758863893352519,0.0688672514476015,0.3145007302655301,128,0,1,1,3000.0654902045967,0.9290576670916152,0.0378290530073434,943.5227875137612
128,512,582.0000932458134,2148715,182360,56418304,47046664,1.0086040431041672,0.1176024826339523,0.6508217661005244,128,0,1,1,1449.7406765710825,0.9262046767382314,0.0573596146862317,943.5227875137612
1536,1024,397.1549093413032,1935615,156652,70979584,62510144,1.2250662686917648,0.2453581332095417,0.9971879043757258,1536,0,1,1,946.1835461235755,0.8285199341032581,0.0865905813781792,943.5227875137612
1536,128,1008.343625398817,2462978,253239,64552960,60942928,1.0512296592256412,0.5732989086986029,0.3380084519382854,1536,0,1,1,2791.417735571986,0.943524908827589,0.020501056514079,943.5227875137612
1536,1536,239.9928188916448,1868488,162387,76877824,62195168,1.288757978986415,0.3098178136200533,1.0,1536,0,1,1,550.453611616013,0.7684042340885333,0.1144971546861831,943.5227875137612
1536,2048,241.9667358471945,1848928,142203,82382848,61623824,1.2877735777207473,0.3552933958176123,1.0,1536,0,1,1,513.4567496523118,0.6943715651512155,0.1605178625385936,943.5227875137612
1536,256,1444.5295905055502,2004717,233061,64815104,61703856,0.7758599133484173,0.1232554431735371,0.31228335865808754,1536,0,1,1,3021.3674899878492,0.9329638015045572,0.044865146092186,943.5227875137612
1536,512,606.3023216777955,2394220,203725,57991168,46779760,1.019254845931118,0.1898168922799953,0.635131238454427,1536,0,1,1,1485.5556306910614,0.8912515831374284,0.0640940850559876,943.5227875137612
2048,1024,331.6502357984801,1867799,155948,68096000,62076736,1.093078601630495,0.1526859913237462,1.0,2048,0,1,1,927.402401809159,0.8006699565349089,0.1260972949464686,943.5227875137612
2048,128,1094.4895398411177,2310125,247912,64552960,61325360,0.958721096421722,0.2836086815831341,0.240403917847672,2048,0,1,1,3924.7396463463997,0.9361087479845038,0.0363240837144466,943.5227875137612
2048,1536,231.1806659487528,1882307,166840,80285696,61855416,1.2853082384441594,0.2576501572256044,1.0,2048,0,1,1,570.7326332012434,0.7350496591825213,0.1292726499708562,943.5227875137612
2048,2048,214.7826947868757,1676759,145104,76083200,47620648,1.3132174592799526,0.3087037865643124,1.0,2048,0,1,1,502.69085107789545,0.7276396038721029,0.1266589353531927,943.5227875137612
2048,256,1918.3248675152777,2244205,236637,64552960,61359656,0.6890942443650954,0.0658855040931159,0.2570924400803611,2048,0,1,1,3669.9748433631034,0.9291252890606568,0.0469417492773869,943.5227875137612
2048,512,835.9888021218622,2246173,152632,64552960,61676904,0.9330078777203913,0.1088278193555954,0.49345898916821973,2048,0,1,1,1912.0591745712734,0.9348277732799763,0.0520511122419466,943.5227875137612
256,1024,379.2471744128647,2042995,170255,71766016,62456040,1.1655311482404818,0.1885633807446445,1.0,256,0,1,1,892.3868939263929,0.8462081904530476,0.1015533022421843,943.5227875137612
256,128,2710.23736615144,2082253,209839,64552960,61396776,1.0089809030099197,0.496144935073925,0.16425222886040278,256,0,1,1,5744.353023761138,0.938552741513162,0.0283868110333452,943.5227875137612
256,1536,222.03234558324328,1666235,183278,76615680,63086488,1.288264795912558,0.3001702475350429,1.0,256,0,1,1,533.8322363682333,0.7561507766381484,0.1276974440946391,943.5227875137612
256,2048,233.7653228543976,1822365,175027,76353536,63484840,1.3100748263885467,0.2971362648075549,1.0,256,0,1,1,532.4297504280858,0.7404468314263943,0.1267948045491102,943.5227875137612
256,256,1451.9101833336215,2289729,226895,53010432,46822432,0.7741384913160183,0.0866906028070162,0.3191135243270709,256,0,1,1,2956.699467700124,0.9215934150059508,0.0478476770444049,943.5227875137612
256,512,615.7002830388726,2138324,190621,64552960,61798760,1.0219259792174304,0.1145791546966283,0.6705578114666658,256,0,1,1,1407.0715028284549,0.8999615609796201,0.0907115149005234,943.5227875137612
512,1024,381.2069583432568,1985995,176922,69668864,61718504,1.1894695661585217,0.162491467069544,1.0,512,0,1,1,869.7165129987815,0.8823696163731588,0.0631928463805317,943.5227875137612
512,128,3143.187926632437,2406069,246974,52486144,46639016,0.7114860264419124,0.3978078747912016,0.08472145264979966,512,0,1,1,11136.763570542866,0.9315299996074268,0.0308711246861611,943.5227875137612
512,1536,226.51783760429876,1814040,155990,73469952,62708632,1.280525137316275,0.2836887585225799,1.0,512,0,1,1,562.7204293000777,0.756348644988962,0.1281530820219476,943.5227875137612
512,2048,213.73377805493087,1643100,152762,78966784,47219200,1.2905307509927881,0.232439071626783,1.0,512,0,1,1,513.916489700167,0.7417915369158611,0.1315038576712805,943.5227875137612
512,256,1531.0044296426286,2398285,205647,57729024,46891728,0.7456168167782916,0.0524597909156802,0.31390098758215834,512,0,1,1,3005.7974483651788,0.90987477450204,0.0659301929162449,943.5227875137612
512,512,556.0607162255367,2174806,149933,50126848,46924256,1.0144223505621226,0.1260566427114186,0.6618438031650373,512,0,1,1,1425.5973735822445,0.9202604286500596,0.0600788161963146,943.5227875137612
