0.22644754849061213
0.186787237610395
0.16455809153564493
0.14864703832300075
0.12293788897580316
0.10726466291539992
0.09651301026402288
0.089341119993123
0.08412656868188315
0.07889894188741856
0.07586604738997121
0.07355127029523792
0.07097043733850569
0.0677280589130898
0.06432424123660294
0.06193299396796665
0.059850311865283404
0.05867133395907997
0.05737003136413016
0.055854558132526766
0.053542691056460284
0.05290688109953298
0.051851953661188235
0.05122826941891617
0.05053184035412287
0.05133904693336453
0.05102547874309912
0.04910502086935103
0.04887428552742913
0.04736181202198618
0.04616830321103112
0.04480310600948929
0.04449804738987418
0.04385511279731804
0.043739915030300655
0.04355606420864533
0.04361464854395663
0.04334969507771275
0.042415745953962324
0.0418906547615019
0.04080225460106048
0.04048457207585925
0.04041836731491221
0.03994675657613784
0.04012982072391965
0.039760689906782956
0.03945738888862215
0.039242763812281915
0.038459894797633336
0.038259535031295665
0.03816914895274266
0.03758740798722218
0.03679626709651637
0.03660877237352105
0.036694349516050793
0.03702925554294678
0.03638709857217837
0.03588326749811273
0.03554063750905203
0.03516724844990314
0.034791752096795435
0.03477796413599458
0.03502700654811392
0.034275383794146776
0.034318044383301
0.03399082245120317
0.03388252162417839
0.03418211820271799
0.03419781285864983
0.03435904212565647
0.0344955334050399
0.03406860892828493
0.03404479667937533
0.03376722277083629
0.033353533911339606
0.03298162683755163
0.03246351048357161
0.03233442089386889
0.03228383883468094
0.032572389855967665
0.03198899763621608
0.03246516867684591
0.03265420859919193
0.03232557781322821
0.03237730558013493
0.031791953632250555
0.03144618018962476
0.03110369991048949
0.031175714255777802
0.030656312008471014
0.03079907177751347
0.031158694438842668
0.03102249313926859
0.030775433011566745
0.031213465558453026
0.03086828257711204
0.031150543235114493
0.031129202213227063
0.0305519227552802
0.030768182704087165
