cpu,memory,duration_std,userDiff,sysDiff,heapTotal,heapUsed,avg_cpu_util,cpu_util_std,slo_preservation,total_cpu_shares,cpu_shares_others,num_containers,arrival_rate,latency,memory_util,memory_util_std,slo_duration
1024,1024,82.84706353689837,287436,28564,38645760,30367944,0.9517123432677166,0.1550037170114811,0.4184185272952729,1024,0,1,1,388.839024271845,0.7791585628537494,0.1264703926222215,162.69745189075627
1024,128,719.8909751150067,253716,34089,32743424,29670520,1.1266570022105398,0.5757273917857739,0.1777218225755978,1024,0,1,1,915.4613065120318,0.8891262634683594,0.0232309124839987,162.69745189075627
1024,1536,40.79579202588486,277088,43901,50311168,29949184,1.178605328698244,0.177580306164329,0.7815794659290342,1024,0,1,1,208.1649518483241,0.7471816961417372,0.0888673477500189,162.69745189075627
1024,2048,24.364135938333717,204467,44385,68665344,51304816,1.1825666865102258,0.1659233461516065,0.9641277632337816,1024,0,1,1,168.75092502787456,0.7331319659332871,0.1153869053919255,162.69745189075627
1024,256,54.297664491674,291176,23460,33267712,29890808,0.9945969186395932,0.1547357959008568,0.38343229984490673,1024,0,1,1,424.3185875487413,0.8968240844575576,0.0356151494951766,162.69745189075627
1024,512,45.64418223166456,313691,47441,33005568,29700008,1.0646793923388571,0.0944204920374669,0.4211810951095206,1024,0,1,1,386.28859124944745,0.883326405220689,0.0551510724723076,162.69745189075627
128,1024,90.0085869040893,254955,27747,38121472,30416360,0.9849864857530863,0.1711509539896213,0.4309027707460742,128,0,1,1,377.5734642157405,0.7761233415522308,0.0994415805841391,162.69745189075627
128,128,302.68332574237587,187340,29087,33005568,29951088,1.166015292361032,0.4853518906125556,0.31436227364938935,128,0,1,1,517.5476370049861,0.9019182836304926,0.0426397543666091,162.69745189075627
128,1536,38.413324637585895,251028,28765,69189632,51997392,1.1279835838820134,0.2159712907122732,0.685939323398303,128,0,1,1,237.18927657436993,0.7437815566749897,0.1107663550570599,162.69745189075627
128,2048,24.866297036097468,225062,14050,69189632,51303736,1.3013269423922942,0.176611122090828,1.0,128,0,1,1,148.29363072158816,0.7482280193589466,0.0900744553528567,162.69745189075627
128,256,41.222470658610064,270047,20849,32743424,29755416,1.1501425411694082,0.2284334194416481,0.50129078730996,128,0,1,1,324.5570355757537,0.9003952234594459,0.0400125209050108,162.69745189075627
128,512,44.82156368814781,269226,37569,33005568,29870432,1.0343286080513698,0.1418606839431584,0.3922656100747302,128,0,1,1,414.7634860465104,0.8820033617526221,0.0474143819301847,162.69745189075627
1536,1024,75.85147277623223,200860,40565,37072896,30280808,1.0399763735302612,0.1183386338906197,0.519653249904937,1536,0,1,1,313.088491066917,0.8081760601235285,0.0920583513727129,162.69745189075627
1536,128,172.55084080023312,213322,61357,32743424,29835480,0.8472584089426011,0.187612055187415,0.2953659087741336,1536,0,1,1,550.8335493625673,0.8795698393767595,0.0589215532407789,162.69745189075627
1536,1536,46.3642738572101,281801,35847,50835456,30568248,1.1968122269747066,0.1903590085804126,0.6744083323231165,1536,0,1,1,241.24472384603655,0.7103676147664795,0.1161557506139637,162.69745189075627
1536,2048,25.70519760482932,276745,45151,50311168,30871624,1.18668748210246,0.1727341840162763,0.8949130913762899,1536,0,1,1,181.80251630976065,0.7444568996456639,0.0958264998549536,162.69745189075627
1536,256,60.595791132866,231116,32712,33267712,30376600,1.0282078440174685,0.1885465363498999,0.37600872502929966,1536,0,1,1,432.6959484200225,0.8791237545307938,0.0545555258625227,162.69745189075627
1536,512,43.72645645719883,277760,61285,33267712,30311384,1.0193555521857232,0.1627614492822759,0.4079132094222681,1536,0,1,1,398.8531092709315,0.876727792688809,0.0653161194842344,162.69745189075627
2048,1024,59.49249027436483,255580,26309,37072896,30089296,1.0562087110962284,0.1480829502927438,0.48405922881213265,2048,0,1,1,336.110629044324,0.7969734886849605,0.0875107817695925,162.69745189075627
2048,128,301.7180181803198,213349,76429,32481280,29946632,1.0086298914251575,0.4602238154804351,0.2609833711336003,2048,0,1,1,623.4016028839999,0.8782904547943899,0.055978260936749,162.69745189075627
2048,1536,53.53750825473415,200896,18071,68141056,52024784,1.1722097192295347,0.2900503052312048,0.6810395848177587,2048,0,1,1,238.89573457656346,0.7385670850575411,0.1223021894678811,162.69745189075627
2048,2048,22.219611128665186,204965,33297,69189632,51281264,1.2138918220932386,0.1429568293504802,0.9053177289859313,2048,0,1,1,179.71309594588155,0.7169780091414674,0.109028967855958,162.69745189075627
2048,256,42.27298746548635,222780,35076,32743424,30294176,1.0674550047557145,0.1554041183224293,0.44237028329002287,2048,0,1,1,367.7856719505049,0.8540135164320937,0.0748237984554408,162.69745189075627
2048,512,51.42368438541801,250794,37519,33529856,29823496,1.0569297349848024,0.0797064413712637,0.4386937008513339,2048,0,1,1,370.86799189280305,0.8806624271854231,0.0676585456567001,162.69745189075627
256,1024,74.16302313661694,256607,16802,39956480,30071224,1.0035601647269834,0.1997338831360692,0.44853265429246586,256,0,1,1,362.73268029370576,0.7641801400918553,0.1023386829043599,162.69745189075627
256,128,132.7120450615948,170107,38538,32481280,29738608,1.0055187284589844,0.3536536610649698,0.343330935423769,256,0,1,1,473.87938313784883,0.8836167711329036,0.0576251695595035,162.69745189075627
256,1536,41.37086595516401,246295,32535,50311168,29912008,1.1523623167397186,0.2300277008429072,0.7163226945798838,256,0,1,1,227.12871324868007,0.7382207397067594,0.1228736618685456,162.69745189075627
256,2048,27.69616493833847,235830,36842,69451776,51321072,1.2625684876548138,0.2838641681283366,0.9202149259163971,256,0,1,1,176.8037523720166,0.7549791780632849,0.0928548907953344,162.69745189075627
256,256,50.689482864446695,233643,29049,32481280,29911872,0.9811713831464633,0.1515537208352218,0.36869517110083594,256,0,1,1,441.2790419928215,0.8777615512798415,0.0566648975352866,162.69745189075627
256,512,48.79622725383454,200002,43842,33005568,29669064,0.995638237932184,0.1831446746234227,0.39508345023693364,256,0,1,1,411.8052826388596,0.8792381875669625,0.0678410465505048,162.69745189075627
512,1024,77.26684277617314,207911,53050,37597184,30414280,0.9851527513752847,0.1638384537852358,0.4711070263755668,512,0,1,1,345.35135920697087,0.8226849486417261,0.0767013125868519,162.69745189075627
512,128,58.95504259428554,237343,29073,33005568,29648248,0.9344389011510589,0.0728809519804315,0.3524142190486321,512,0,1,1,461.6654013846828,0.8955208368031551,0.0489292330276878,162.69745189075627
512,1536,49.66390331388413,285349,37640,51359744,30763608,1.0136002682599792,0.2275612540175212,0.5780060747897832,512,0,1,1,281.48052241480025,0.7225848429109379,0.115499272829847,162.69745189075627
512,2048,26.82307852906508,241905,29424,69713920,51296088,1.273200308203559,0.3374425925666852,0.9994078719785106,512,0,1,1,162.79384668910694,0.743265275621674,0.1067244701183294,162.69745189075627
512,256,40.786286747624565,216192,25504,33529856,29609816,1.1505231805308107,0.2476906546738952,0.4907603039526124,512,0,1,1,331.52121428807794,0.8722733870925257,0.0598922688697674,162.69745189075627
512,512,45.30931116128835,233383,26698,33267712,29658952,1.0435726952696662,0.1378489372533873,0.4385550944587868,512,0,1,1,370.98520561376296,0.8906957796209506,0.0698711242430497,162.69745189075627
