cpu,memory,duration_std,userDiff,sysDiff,heapTotal,heapUsed,avg_cpu_util,cpu_util_std,slo_preservation,total_cpu_shares,cpu_shares_others,num_containers,arrival_rate,latency,memory_util,memory_util_std,slo_duration
1024,1024,82.84706353689837,287436,28564,38645760,30367944,0.9220305469039966,0.1550037170114811,0.6756149696664897,1024,0,1,1,240.813864694369,0.7791585628537494,0.1264703926222215,162.69745189075627
1024,128,719.8909751150067,253716,34089,32743424,29670520,1.2305633086825496,0.5757273917857739,0.32352045858474493,1024,0,1,1,502.8969500181958,0.8891262634683594,0.0232309124839987,162.69745189075627
1024,1536,40.79579202588486,277088,43901,50311168,29949184,1.3379106420231992,0.177580306164329,1.0,1024,0,1,1,110.0272232496648,0.7471816961417372,0.0888673477500189,162.69745189075627
1024,2048,24.364135938333717,204467,44385,68665344,51304816,1.3464438856996515,0.1659233461516065,1.0,1024,0,1,1,88.9272361255749,0.7331319659332871,0.1153869053919255,162.69745189075627
1024,256,54.297664491674,291176,23460,33267712,29890808,0.9910271849657634,0.1547357959008568,0.6367601883384043,1024,0,1,1,255.50820366974824,0.8968240844575576,0.0356151494951766,162.69745189075627
1024,512,45.64418223166456,313691,47441,33005568,29700008,1.1126566984296495,0.0944204920374669,0.7336010729265495,1024,0,1,1,221.77919020988952,0.883326405220689,0.0551510724723076,162.69745189075627
128,1024,90.0085869040893,254955,27747,38121472,30416360,0.975225445011333,0.1711509539896213,0.7110543349843786,128,0,1,1,228.8115603631481,0.7761233415522308,0.0994415805841391,162.69745189075627
128,128,302.68332574237587,187340,29087,33005568,29951088,1.311126678233936,0.4853518906125556,0.589141449390717,128,0,1,1,276.16025329573404,0.9019182836304926,0.0426397543666091,162.69745189075627
128,1536,38.413324637585895,251028,28765,69189632,51997392,1.2332034485493493,0.2159712907122732,1.0,128,0,1,1,130.17103247487398,0.7437815566749897,0.1107663550570599,162.69745189075627
128,2048,24.866297036097468,225062,14050,69189632,51303736,1.628459404505342,0.176611122090828,1.0,128,0,1,1,71.10223190431762,0.7482280193589466,0.0900744553528567,162.69745189075627
128,256,41.222470658610064,270047,20849,32743424,29755416,1.2780711033361247,0.2284334194416481,0.9284143003962769,128,0,1,1,175.24229411515074,0.9003952234594459,0.0400125209050108,162.69745189075627
128,512,44.82156368814781,269226,37569,33005568,29870432,1.0585544076249747,0.1418606839431584,0.6690886037442672,128,0,1,1,243.1627903693021,0.8820033617526221,0.0474143819301847,162.69745189075627
1536,1024,75.85147277623223,200860,40565,37072896,30280808,1.0684515866824056,0.1183386338906197,0.8898028094953361,1536,0,1,1,182.84663765338343,0.8081760601235285,0.0920583513727129,162.69745189075627
1536,128,172.55084080023312,213322,61357,32743424,29835480,0.7689572406783854,0.187612055187415,0.44678174490841466,1536,0,1,1,364.1542067125134,0.8795698393767595,0.0589215532407789,162.69745189075627
1536,1536,46.3642738572101,281801,35847,50835456,30568248,1.377559226399538,0.1903590085804126,1.0,1536,0,1,1,125.75486976920732,0.7103676147664795,0.1161557506139637,162.69745189075627
1536,2048,25.70519760482932,276745,45151,50311168,30871624,1.355375204984197,0.1727341840162763,1.0,1536,0,1,1,95.50540818195213,0.7444568996456639,0.0958264998549536,162.69745189075627
1536,256,60.595791132866,231116,32712,33267712,30376600,1.047914109174331,0.1885465363498999,0.638691957116536,1536,0,1,1,254.73540112400448,0.8791237545307938,0.0545555258625227,162.69745189075627
1536,512,43.72645645719883,277760,61285,33267712,30311384,1.0326809589808947,0.1627614492822759,0.6887426789470431,1536,0,1,1,236.2238566941863,0.876727792688809,0.0653161194842344,162.69745189075627
2048,1024,59.49249027436483,255580,26309,37072896,30089296,1.0973283180336024,0.1480829502927438,0.8381738283995062,2048,0,1,1,194.1094393288648,0.7969734886849605,0.0875107817695925,162.69745189075627
2048,128,301.7180181803198,213349,76429,32481280,29946632,1.0144663812415489,0.4602238154804351,0.4374892751856827,2048,0,1,1,371.88900647153673,0.8782904547943899,0.055978260936749,162.69745189075627
2048,1536,53.53750825473415,200896,18071,68141056,52024784,1.3242411880165448,0.2900503052312048,1.0,2048,0,1,1,126.88137379531267,0.7385670850575411,0.1223021894678811,162.69745189075627
2048,2048,22.219611128665186,204965,33297,69189632,51281264,1.415773388598935,0.1429568293504802,1.0,2048,0,1,1,92.4521929491763,0.7169780091414674,0.109028967855958,162.69745189075627
2048,256,42.27298746548635,222780,35076,32743424,30294176,1.1177188238059703,0.1554041183224293,0.7720006784404484,2048,0,1,1,210.74780947010092,0.8540135164320937,0.0748237984554408,162.69745189075627
2048,512,51.42368438541801,250794,37519,33529856,29823496,1.0986260620237414,0.0797064413712637,0.7600005895186154,2048,0,1,1,214.0754285385606,0.8806624271854231,0.0676585456567001,162.69745189075627
256,1024,74.16302313661694,256607,16802,39956480,30071224,1.0059477244642012,0.1997338831360692,0.7493329229147286,256,0,1,1,217.12305293874115,0.7641801400918553,0.1023386829043599,162.69745189075627
256,128,132.7120450615948,170107,38538,32481280,29738608,1.0092318461329628,0.3536536610649698,0.5743312779519607,256,0,1,1,283.2815452275697,0.8836167711329036,0.0576251695595035,162.69745189075627
256,1536,41.37086595516401,246295,32535,50311168,29912008,1.2826470323446193,0.2300277008429072,1.0,256,0,1,1,122.434885169736,0.7382207397067594,0.1228736618685456,162.69745189075627
256,2048,27.69616493833847,235830,36842,69451776,51321072,1.5304707473409833,0.2838641681283366,1.0,256,0,1,1,87.51301387440333,0.7549791780632849,0.0928548907953344,162.69745189075627
256,256,50.689482864446695,233643,29049,32481280,29911872,0.9690079962864034,0.1515537208352218,0.6068742170934317,256,0,1,1,268.0908947985643,0.8777615512798415,0.0566648975352866,162.69745189075627
256,512,48.79622725383454,200002,43842,33005568,29669064,0.9927514741171357,0.1831446746234227,0.6565632353182669,256,0,1,1,247.8016482477719,0.8792381875669625,0.0678410465505048,162.69745189075627
512,1024,77.26684277617314,207911,53050,37597184,30414280,0.9754971192009714,0.1638384537852358,0.7774827244187011,512,0,1,1,209.26182252139418,0.8226849486417261,0.0767013125868519,162.69745189075627
512,128,58.95504259428554,237343,29073,33005568,29648248,0.8953073455626481,0.0728809519804315,0.5627602450452751,512,0,1,1,289.1061572369366,0.8955208368031551,0.0489292330276878,162.69745189075627
512,1536,49.66390331388413,285349,37640,51359744,30763608,1.0228745134460875,0.2275612540175212,0.9721578631361046,512,0,1,1,167.35702920296,0.7225848429109379,0.115499272829847,162.69745189075627
512,2048,26.82307852906508,241905,29424,69713920,51296088,1.55673373173803,0.3374425925666852,1.0,512,0,1,1,79.88617637782139,0.743265275621674,0.1067244701183294,162.69745189075627
512,256,40.786286747624565,216192,25504,33529856,29609816,1.278854698278586,0.2476906546738952,0.9091677175782292,512,0,1,1,178.9520775376156,0.8722733870925257,0.0598922688697674,162.69745189075627
512,512,45.30931116128835,233383,26698,33267712,29658952,1.0747938038653668,0.1378489372533873,0.7527926265773834,512,0,1,1,216.12519324275257,0.8906957796209506,0.0698711242430497,162.69745189075627
