cpu,memory,duration_std,userDiff,sysDiff,heapTotal,heapUsed,avg_cpu_util,cpu_util_std,slo_preservation,total_cpu_shares,cpu_shares_others,num_containers,arrival_rate,latency,memory_util,memory_util_std,slo_duration
1024,1024,341.97772677698293,1616022,114071,43962368,35396584,0.37469576841980773,0.3451452482813748,1.0,1024,0,1,1,484.7228610663151,0.8152626935058647,0.034724758307528,522.9658832857141
1024,128,2556.334764279596,1917869,224124,35962880,32605232,0.4247362271651866,0.1137926628193466,0.11779071495390442,1024,0,1,1,4439.788683601833,0.9201168517804964,0.0099224044441106,522.9658832857141
1024,1536,237.70313260780108,1582095,111200,52744192,31806728,0.26911569637848076,0.3137766172670971,1.0,1024,0,1,1,355.3228803298631,0.7008167575344755,0.0358618621541898,522.9658832857141
1024,2048,262.1177372005296,1361392,99545,51171328,36379368,0.34043112419349875,0.2413338255211257,1.0,1024,0,1,1,424.06656561061635,0.6754005754956889,0.0536984733183113,522.9658832857141
1024,256,2013.163974492472,1935783,141060,35962880,32936928,0.43996318045244415,0.1393501267687839,0.23399240022438983,1024,0,1,1,2234.969523729017,0.9215912649207284,0.0136277673362674,522.9658832857141
1024,512,769.8047714019528,1652918,151007,35700736,32268440,0.4154326008340809,0.3101264789459123,0.6485848404715774,1024,0,1,1,806.3183883629974,0.9283245557714572,0.0133728182171873,522.9658832857141
128,1024,307.6546475342373,1666480,128937,44224512,36792048,0.3469009579252225,0.3987161220625203,1.0,128,0,1,1,491.98509891651213,0.8275877422350397,0.0525621921557212,522.9658832857141
128,128,2724.301003551398,1937787,153167,36749312,33491048,0.45633974739986577,0.2251048469466439,0.07301326503576291,128,0,1,1,7162.61467049252,0.9151156891250918,0.0087491055200176,522.9658832857141
128,1536,286.7046770839424,1518876,121827,51957760,37319848,0.2877537897463895,0.2273878890727662,1.0,128,0,1,1,440.0359916013499,0.725699847364483,0.0666371685167669,522.9658832857141
128,2048,274.9048126190557,1512309,88978,52482048,31797512,0.2362768515465023,0.2526930426927872,1.0,128,0,1,1,428.1049106881661,0.713284142592506,0.0540507155262472,522.9658832857141
128,256,580.8776313632602,1660734,167100,35962880,33008520,0.38416368061311346,0.3029485800655124,0.8590653401379988,128,0,1,1,608.7614746530289,0.930864526151992,0.0125848245665431,522.9658832857141
128,512,551.4275719280911,1822453,132629,36225024,32384048,0.4060841486386383,0.3310833943061957,0.8342072076720894,128,0,1,1,626.9016600145245,0.9291902174886586,0.012909304177604,522.9658832857141
1536,1024,323.6153776986236,1600459,111619,43700224,35653912,0.35289210890635936,0.3516051591434265,1.0,1536,0,1,1,459.286326314142,0.840010383888478,0.0233047917943416,522.9658832857141
1536,128,640.4800081354857,1664427,186796,35962880,32809464,0.36260214279127073,0.3035981951176125,0.8528048237460074,1536,0,1,1,613.2304470189888,0.9312154692655232,0.0116111007077115,522.9658832857141
1536,1536,247.78501611179024,1589226,124165,52219904,31808424,0.3650697883525591,0.3286725380838872,1.0,1536,0,1,1,418.12288967305017,0.6843857554894753,0.0431143755374422,522.9658832857141
1536,2048,266.5200142177616,1461993,99633,52482048,31792512,0.24954692556441382,0.2647572417543668,1.0,1536,0,1,1,392.5882041080011,0.693801347037138,0.0441376458203661,522.9658832857141
1536,256,501.7151113922301,1664940,155236,36225024,32379864,0.3851982052100815,0.3326984787497464,0.7787274352653162,1536,0,1,1,671.5647344664787,0.9294960097537364,0.0126483382642,522.9658832857141
1536,512,553.0932791110233,1842110,114619,36749312,33142584,0.4021520521694703,0.330957291493631,0.8171143159879901,1536,0,1,1,640.0155682664611,0.918232366047086,0.0432719193063728,522.9658832857141
2048,1024,310.789278395885,1533434,111000,42651648,33828488,0.4153013782422946,0.3732901427080109,1.0,2048,0,1,1,426.38729125378245,0.8209359876194278,0.0410176094830894,522.9658832857141
2048,128,659.5210869869949,1789605,202511,35700736,32617440,0.4055431934231073,0.3017213316659421,0.79299124581277,2048,0,1,1,659.4850649955214,0.926351641634365,0.0110578420441631,522.9658832857141
2048,1536,291.6992011599559,1466401,68149,52219904,36777688,0.32085247955293295,0.3191616228270373,1.0,2048,0,1,1,343.21368604747215,0.691022537671772,0.0543384328879768,522.9658832857141
2048,2048,237.3382572461394,1587041,123426,53006336,31811616,0.3007756889964859,0.3285123427310396,1.0,2048,0,1,1,378.96816144435985,0.711022698458893,0.0579319084647567,522.9658832857141
2048,256,421.8388407000265,1586354,136018,36749312,32741968,0.34877191441160155,0.2983108655111328,1.0,2048,0,1,1,450.4254310653912,0.931642565484807,0.0131987510698549,522.9658832857141
2048,512,513.6698592875041,1716290,132580,35962880,32682000,0.411087246613039,0.350894333096617,0.8391067702729699,2048,0,1,1,623.24116764734,0.927237561013072,0.0131742641284269,522.9658832857141
256,1024,366.4865115227065,1533683,89178,43438080,34245112,0.37348847952839487,0.3068905086432846,1.0,256,0,1,1,522.0767595538107,0.787168453775703,0.0560978209387357,522.9658832857141
256,128,1077.897420978426,1911519,200385,36749312,33391024,0.39981624695963225,0.302898031780305,0.5763245118333706,256,0,1,1,907.4156530703247,0.92659264385567,0.0092276948206,522.9658832857141
256,1536,262.2119295555434,1629069,84002,53006336,31817520,0.3163643392886837,0.3520740550559842,1.0,256,0,1,1,376.25160391304286,0.6960167277223201,0.0483217937623738,522.9658832857141
256,2048,269.98831126918606,1462853,92911,51433472,31798808,0.2752845725710707,0.2453853835963879,1.0,256,0,1,1,391.8960199053234,0.7178817511824487,0.0433235723249453,522.9658832857141
256,256,331.6672089355487,1556157,120741,35700736,32304960,0.3763580270336457,0.3856487651840691,0.9716045971784866,256,0,1,1,538.2497003455859,0.9245263620704768,0.0379383301411107,522.9658832857141
256,512,572.2778027677599,1702981,122734,35962880,32283168,0.39182927908130694,0.3104420338461272,0.8389472124897095,256,0,1,1,623.359700705995,0.9272564448876636,0.0133910639935851,522.9658832857141
512,1024,321.9882485080287,1504241,128942,44224512,33871432,0.3782615840622746,0.3424275313943475,0.9813639676013942,512,0,1,1,532.8969684549595,0.8155923065476586,0.0383808991888024,522.9658832857141
512,128,988.1751215523398,1862381,207554,35438592,32661792,0.3850536355932574,0.2497374071142297,0.567770380317838,512,0,1,1,921.0869418601189,0.9307675837407312,0.008570482236458,522.9658832857141
512,1536,225.52745773472904,1374593,118887,52482048,39487688,0.42588786653108174,0.3612474207709093,1.0,512,0,1,1,398.16609710339543,0.7025152622966776,0.0603121584482265,522.9658832857141
512,2048,253.3044710244918,1447668,122565,51695616,31789496,0.24824845779478297,0.2515993501485019,1.0,512,0,1,1,417.5189484244098,0.7143895761055739,0.0495768037082449,522.9658832857141
512,256,376.6426387639641,1507176,172142,35962880,32598608,0.3138615296201482,0.3057359975763645,1.0,512,0,1,1,488.9619795021043,0.931394464462684,0.012787916554789,522.9658832857141
512,512,539.921404364171,1579090,129583,35962880,33174432,0.46024157476799404,0.3478134684373541,0.8109544469260036,512,0,1,1,644.8770153096314,0.9146546017890252,0.0408115024534875,522.9658832857141
