cpu,memory,duration_std,userDiff,sysDiff,heapTotal,heapUsed,avg_cpu_util,cpu_util_std,slo_preservation,total_cpu_shares,cpu_shares_others,num_containers,arrival_rate,latency,memory_util,memory_util_std,slo_duration
1024,1024,177.35918000448453,212023,54013,39694336,30405152,0.5012832892702956,0.1875501903573483,1.0,1024,0,1,1,486.18207968113893,0.7751404467868934,0.102885890497861,611.9179929074073
1024,128,709.8007050908569,263731,56120,32219136,30066792,0.29659843775070366,0.1114748827181519,0.3871842335423859,1024,0,1,1,1580.4310710405498,0.9257625183929395,0.0103678105552286,611.9179929074073
1024,1536,144.0235586530491,228803,39295,49524736,30396192,0.4924076204581072,0.2355182123742969,1.0,1024,0,1,1,449.64849597420414,0.7519949587955939,0.0982430848149446,611.9179929074073
1024,2048,147.17854945908778,268770,36428,69337088,51383016,0.5290491655082613,0.2104909691477847,1.0,1024,0,1,1,363.6011254677642,0.7753123662060115,0.085064675566934,611.9179929074073
1024,256,219.27071440012563,261397,29797,33005568,30335280,0.36012634919084907,0.1259162485887972,0.6073074683652757,1024,0,1,1,1007.5917468206707,0.9051220422453212,0.0415072958324845,611.9179929074073
1024,512,209.4235648116987,258134,25909,32743424,30128824,0.4491403573410758,0.1175084059985888,0.8370175613147178,1024,0,1,1,731.0694795295062,0.8835428223918866,0.0552128477229928,611.9179929074073
128,1024,169.61085227736643,308064,33343,40218624,31572232,0.46399288254326976,0.1575825016997476,1.0,128,0,1,1,502.63249829027137,0.7948756804404058,0.1026089009664091,611.9179929074073
128,128,1120.5472048670774,284026,53105,33267712,30067880,0.2698582050811935,0.1531639993805866,0.29821625684808994,128,0,1,1,2051.9270122122,0.9194316909009468,0.0104216237534513,611.9179929074073
128,1536,181.12993121346935,186697,31198,69861376,51937416,0.5237504838154867,0.2345631926593304,1.0,128,0,1,1,402.09722232200204,0.7647670011751803,0.0818283253974129,611.9179929074073
128,2048,155.2555287955272,195176,37735,37195776,15786432,0.43523415341997096,0.1787338796442777,1.0,128,0,1,1,422.396549828702,0.742869935823576,0.1259597815671927,611.9179929074073
128,256,371.5759616771932,254695,44493,32481280,29822704,0.3580582600105626,0.1180829534921784,0.5438576899053201,128,0,1,1,1125.1435885993187,0.918647304258252,0.0116354037574251,611.9179929074073
128,512,215.13080595066896,256205,32567,32743424,30075552,0.42505116878943566,0.1117217100907474,0.8015623102685339,128,0,1,1,763.4066435863318,0.8759379071598357,0.0719721731734811,611.9179929074073
1536,1024,194.0740328101864,243895,36435,37072896,30393976,0.5458750795114288,0.2120814189506686,1.0,1536,0,1,1,491.7139718097551,0.7862487047904659,0.115940307752562,611.9179929074073
1536,128,621.0965231652626,273757,50079,32481280,29880392,0.35997341098306995,0.1542269371619559,0.4721719010336262,1536,0,1,1,1295.964439154182,0.917780079589429,0.0085591897687318,611.9179929074073
1536,1536,179.1938222688064,308180,22804,50835456,30377032,0.5451781454529088,0.3164645805630507,1.0,1536,0,1,1,407.9953831388293,0.7418147726046934,0.123910926307081,611.9179929074073
1536,2048,150.899235876341,263158,25010,69599232,51291376,0.4361356226231257,0.2508925968444669,1.0,1536,0,1,1,412.67619774055333,0.725354666276788,0.1335272979356091,611.9179929074073
1536,256,312.14524580004314,259993,39903,32743424,29841112,0.38272182872827204,0.1307519716367117,0.6183172388419095,1536,0,1,1,989.6505458161125,0.9108038542682658,0.0212136421916259,611.9179929074073
1536,512,190.71534603630909,281636,58764,32743424,30334952,0.4262026298448681,0.1528145708329334,0.8238810427234187,1536,0,1,1,742.7261475572409,0.8991365324249365,0.0372539482902393,611.9179929074073
2048,1024,165.98948634116533,242308,41430,39956480,31693736,0.5529342647033747,0.1669328874120237,1.0,2048,0,1,1,448.29244649587935,0.784737403809691,0.1018592190841435,611.9179929074073
2048,128,463.9029635345652,317852,36962,32743424,30175344,0.47924437330636305,0.1336965120509522,0.5989870593918067,2048,0,1,1,1021.5880014648902,0.9198245862973466,0.0109003142864289,611.9179929074073
2048,1536,119.46531590957198,215237,27092,68288512,51871272,0.43201912666530684,0.1792770918244799,1.0,2048,0,1,1,461.3456131111949,0.749973546348859,0.0978442741081384,611.9179929074073
2048,2048,145.99994379436188,241888,21831,50049024,30078552,0.4840547792619094,0.2048132675196078,1.0,2048,0,1,1,355.04705431754513,0.7482077407385292,0.0932140158283576,611.9179929074073
2048,256,242.4539650039692,338770,34509,32743424,29992552,0.414698082208202,0.1287395649580314,0.7029680127928165,2048,0,1,1,870.477719855734,0.90995453469626,0.0390517668557796,611.9179929074073
2048,512,167.67535286203122,253933,52722,32743424,29904152,0.42511374880374897,0.1034704924625548,0.8147612225347054,2048,0,1,1,751.0396616615394,0.896590585987416,0.0514070734470402,611.9179929074073
256,1024,144.87899182925688,266221,41902,37859328,31116432,0.5079550124218585,0.1874930818997615,1.0,256,0,1,1,494.4852166984111,0.781132590567734,0.1117081508547999,611.9179929074073
256,128,749.247345504676,272672,49413,32743424,30207256,0.23126093204593712,0.0990282909649031,0.3080595516595999,256,0,1,1,1986.3626679024883,0.919650715037577,0.0087352436922933,611.9179929074073
256,1536,138.74420522419211,287747,28452,42971136,31279008,0.5078594213437929,0.2818551746818797,1.0,256,0,1,1,388.65733240613343,0.7769884711403281,0.1135157675701654,611.9179929074073
256,2048,124.33841714700937,237610,65698,50049024,30088416,0.41273689097892563,0.2323608555387963,1.0,256,0,1,1,407.0643899564783,0.7389831486765527,0.10355531630122,611.9179929074073
256,256,235.32488587097632,253719,45115,33267712,30074760,0.3080699971114557,0.076271192063404,0.5142469196701905,256,0,1,1,1189.9303029366858,0.9078356317185814,0.0308634628462668,611.9179929074073
256,512,158.89747590223257,244654,34270,32743424,30063784,0.3970933875794642,0.075300965638884,0.7747474725020753,256,0,1,1,789.8289631474315,0.8868877725302138,0.056894489072911,611.9179929074073
512,1024,170.40622962920213,227834,32392,36024320,30281928,0.5421204722980015,0.1821320387779035,1.0,512,0,1,1,453.8696631955512,0.8121277912242014,0.0879409375623677,611.9179929074073
512,128,943.411395809314,285977,61838,32743424,30332592,0.3453408226446281,0.2058609033117543,0.3545427991968187,512,0,1,1,1725.9354703963709,0.924510414340873,0.011644498105289,611.9179929074073
512,1536,172.43378623263672,293499,27605,36671488,15740992,0.5266071374348401,0.2287525920704387,1.0,512,0,1,1,422.4474009008655,0.7406002732598501,0.1150065942089634,611.9179929074073
512,2048,141.4457388772662,266875,46097,48476160,30044184,0.5951751372257332,0.2955931200695184,1.0,512,0,1,1,326.749947951784,0.771561164125194,0.0841348245694826,611.9179929074073
512,256,194.9306711455492,286247,37681,32481280,29924576,0.328244386308596,0.0686745581141666,0.5447911863853786,512,0,1,1,1123.215661705922,0.9164132150846274,0.0168249635967587,611.9179929074073
512,512,160.54784288079037,279062,41795,32481280,30209592,0.40353715450874883,0.0856904123017803,0.7467278241398982,512,0,1,1,819.4659059507143,0.8775588619074846,0.0685729762218232,611.9179929074073
