cpu,memory,duration_std,userDiff,sysDiff,heapTotal,heapUsed,avg_cpu_util,cpu_util_std,slo_preservation,total_cpu_shares,cpu_shares_others,num_containers,arrival_rate,latency,memory_util,memory_util_std,slo_duration
1024,1024,821.1750807466359,1939483,183948,67260416,57665280,0.8801597625381521,0.1329749036452296,1.0,1024,0,1,1,1198.8944075120717,0.8358414652178732,0.0272618378766608,3003.7656986216216
1024,128,1497.096562652888,2262082,272528,54497280,49961384,0.5286944975224676,0.0981878543794965,0.313452898912037,1024,0,1,1,9582.829538496488,0.9198900673328564,0.0154623095269868,3003.7656986216216
1024,1536,590.9666443920798,1810426,167956,72556544,54619120,0.9272304853938103,0.1262552239396158,1.0,1024,0,1,1,901.5646322267514,0.7487071026007418,0.0262946659778685,3003.7656986216216
1024,2048,319.0387770870068,1476235,126244,64643072,46485648,1.0569941383873132,0.1770083832596433,1.0,1024,0,1,1,497.30077912560347,0.7787165063858443,0.0492404556011956,3003.7656986216216
1024,256,2979.455867621725,2183064,185207,54497280,49766824,0.4245867126541834,0.0311683421630837,0.3264382612077948,1024,0,1,1,9201.634904891158,0.927864106633008,0.0110645542487291,3003.7656986216216
1024,512,2136.1912386108365,2261122,199577,54071296,50331040,0.6154678098573676,0.0549800206096411,0.8427995738416423,1024,0,1,1,3564.033243312975,0.9231304852491704,0.0141937580066088,3003.7656986216216
128,1024,746.7747118565911,1796973,159691,67719168,57643200,0.9387960350448439,0.1246768071634404,1.0,128,0,1,1,1177.0442449796,0.8413671620825021,0.026614356056741,3003.7656986216216
128,128,2060.648472496587,2161996,280786,53710848,50185616,0.29451776675758473,0.0229068833843228,0.17367610927482635,128,0,1,1,17295.215278391806,0.9222348630333316,0.012340163407357,3003.7656986216216
128,1536,362.0231584653708,1780729,178952,84779008,67021784,1.0720527260273767,0.1946561851636163,1.0,128,0,1,1,563.5677545138503,0.7719390020020455,0.043429409386901,3003.7656986216216
128,2048,184.66368974404443,1304868,133375,72032256,53813112,1.0776562260117866,0.2409457195191442,1.0,128,0,1,1,310.60283560136105,0.7668602762732522,0.0436144014005358,3003.7656986216216
128,256,3257.913627305402,1932438,191652,53305344,49916768,0.4117740842690714,0.0464245051222877,0.3218251146529213,128,0,1,1,9333.534152115793,0.9244361343645136,0.0154654918427969,3003.7656986216216
128,512,1876.6918424837704,1977827,183445,53440512,50075168,0.7734462997483504,0.2954856443783826,0.9463847207749845,128,0,1,1,3173.937229419627,0.9274762573085114,0.0142239984087372,3003.7656986216216
1536,1024,776.5200646735298,1881073,184239,49455104,41431112,0.9326954694669076,0.1820036614557659,1.0,1536,0,1,1,1226.2818337764188,0.8489216232002581,0.0158649828882593,3003.7656986216216
1536,128,2182.702769603382,2351893,250330,45490176,40970968,0.35872147444125,0.0703895631613275,0.21741792631957316,1536,0,1,1,13815.630336785187,0.92807667596914,0.0131390063398336,3003.7656986216216
1536,1536,549.3277461332201,1489029,131422,59326464,48546856,1.0195150626357767,0.1333818650770886,1.0,1536,0,1,1,755.0741039329035,0.7620263147816828,0.0476949556631717,3003.7656986216216
1536,2048,311.6504071384292,1457988,121346,59850752,46818792,1.0396546391449946,0.2444882312804532,1.0,1536,0,1,1,503.80084615522867,0.7698861773024216,0.0475457304048246,3003.7656986216216
1536,256,2411.622713624024,1869754,151373,43659264,40740320,0.49576192144694214,0.0510325197397929,0.39991385090153897,1536,0,1,1,7511.0319181247005,0.928272604307434,0.0089475146149999,3003.7656986216216
1536,512,1818.3004158556112,1961065,138502,44441600,40948600,0.6730090885797415,0.0745606080338892,0.9344209710551723,1536,0,1,1,3214.5743638755152,0.9215515258905808,0.0142673680622385,3003.7656986216216
2048,1024,817.7199261131531,1780130,163301,58712064,48785664,0.8685719355088353,0.1285188102492065,1.0,2048,0,1,1,1213.81295364777,0.8487037309487716,0.0312771976529606,3003.7656986216216
2048,128,2754.308248954246,2220233,224064,53710848,50198792,0.4312986705115696,0.0747775437993354,0.24714209604663512,2048,0,1,1,12154.002683763021,0.9295936011075728,0.0100672692276904,3003.7656986216216
2048,1536,543.6308322476388,1634977,170664,59850752,47129712,1.0011074300703067,0.1732736449948849,1.0,2048,0,1,1,758.9930522291927,0.7518613181550352,0.0387756441819466,3003.7656986216216
2048,2048,316.6168318358052,1601348,98771,60375040,47209120,0.9874992816300779,0.1825885429739498,1.0,2048,0,1,1,521.5308899238471,0.7623918239525903,0.0373902037230102,3003.7656986216216
2048,256,3289.6467574124267,2253279,199450,66195456,61735640,0.4449728424780808,0.0611784793596203,0.3519120793043094,2048,0,1,1,8535.557246456923,0.927445808680143,0.0168135488775323,3003.7656986216216
2048,512,1402.2411682004515,1895969,214546,52916224,49714688,0.8162049991598691,0.1795291108619856,1.0,2048,0,1,1,2651.4107549638816,0.9280451196623896,0.0145541004119837,3003.7656986216216
256,1024,835.5552017609853,1886976,130881,54775808,43205536,0.8763656099042771,0.1427550024594278,1.0,256,0,1,1,1177.5102871204263,0.8322955986301898,0.0243299240866043,3003.7656986216216
256,128,1808.3594087847173,2542435,222308,66719744,62275504,0.2803298137461271,0.0190985996836252,0.16640672192117856,256,0,1,1,18050.747373320697,0.9262700434057304,0.0122919677370124,3003.7656986216216
256,1536,505.6718474153682,1892596,87709,63287296,45686000,1.0171104094480483,0.1195949900842467,1.0,256,0,1,1,718.9599572452171,0.7542076764942923,0.0436212547001836,3003.7656986216216
256,2048,311.07521450650285,1564276,106392,63025152,45059248,1.0271412847827,0.1596016050242756,1.0,256,0,1,1,597.451464440213,0.7590417827010103,0.0419312473808813,3003.7656986216216
256,256,2045.106738945364,1972306,141547,44703744,40976376,0.38092297536374525,0.0201317393825873,0.28296272699362474,256,0,1,1,10615.411190496823,0.9279191221736752,0.0116255987121526,3003.7656986216216
256,512,1379.8392903479316,2208232,232600,49332224,45054176,0.7327741921141548,0.1945091786917439,1.0,256,0,1,1,2854.311260090869,0.929546830043128,0.0155051388614789,3003.7656986216216
512,1024,809.1035272958345,1658493,153797,58449920,48687768,0.9179679041625249,0.1263942951321061,1.0,512,0,1,1,1153.5948288427553,0.8367114049566038,0.0255754207031648,3003.7656986216216
512,128,2248.097243856244,2154628,221620,54091776,50337864,0.34268997415915003,0.0341764508792084,0.20683102829565933,512,0,1,1,14522.800197694807,0.9206146286636804,0.0155388921037575,3003.7656986216216
512,1536,318.19105228545965,1509722,127510,58630144,43400520,1.079749589036736,0.1848959339664613,1.0,512,0,1,1,514.3628899926626,0.7547930185169215,0.0361815742982592,3003.7656986216216
512,2048,177.79150508887224,1335403,77195,60112896,46669496,1.0831210755816343,0.2102419942178691,1.0,512,0,1,1,332.030127852617,0.7483783768611625,0.0449455389308589,3003.7656986216216
512,256,3121.035937800185,1894950,225747,61292544,57681352,0.41683114522093506,0.0263270779923929,0.35121364205417693,512,0,1,1,8552.531391016615,0.917451814973524,0.011182552161402,3003.7656986216216
512,512,1443.016164902401,2092256,253657,53702656,49286576,0.7300320536712501,0.169971751416132,1.0,512,0,1,1,2744.162804167229,0.926236612310823,0.0164020828106275,3003.7656986216216
