cpu,memory,duration_std,userDiff,sysDiff,heapTotal,heapUsed,avg_cpu_util,cpu_util_std,slo_preservation,total_cpu_shares,cpu_shares_others,num_containers,arrival_rate,latency,memory_util,memory_util_std,slo_duration
1024,1024,54.75277350960221,85753,3086,31387648,22839448,0.9048820896649254,0.1044598819111352,0.7434446402440271,1024,0,1,1,182.67262073979876,0.6804200642113772,0.0483330835205718,135.8069808083333
1024,128,113.20447639951377,142881,16639,24694784,20984288,0.759243029013001,0.2912107330832603,0.43165666422520377,1024,0,1,1,314.6180565799863,0.8520157487643623,0.0140667731911454,135.8069808083333
1024,1536,27.747769564665933,82759,37,38858752,24578400,0.9560240691382196,0.0957138169363649,1.0,1024,0,1,1,134.90679117835597,0.54526202450512,0.0647336619659653,135.8069808083333
1024,2048,32.54560384199484,71890,336,39120896,24055352,1.0023980592932724,0.1023479528797619,1.0,1024,0,1,1,125.24143228058325,0.5337282701051193,0.0537479043304838,135.8069808083333
1024,256,76.50530158477375,81463,650,24170496,20869272,0.8294736965906652,0.2398365666038693,0.5674598262076288,1024,0,1,1,239.32439714004116,0.8643148025721443,0.0124743069451064,135.8069808083333
1024,512,70.30708525374473,41382,1730,24956928,20706376,0.7274442870698546,0.2307551434176552,0.6464141561499573,1024,0,1,1,210.09283215144865,0.8677834242469171,0.0185984567725779,135.8069808083333
128,1024,40.63649219137159,102116,4966,25006080,15309072,0.8927136417244153,0.0920523206411145,0.7410098436620235,128,0,1,1,183.27284309366775,0.6614744994738747,0.0429849814020222,135.8069808083333
128,128,160.26197682143436,102750,2394,24170496,21180120,0.48678198646286863,0.2171679049319963,0.27138973182670284,128,0,1,1,500.4131139900807,0.8618048204567442,0.0102563357835438,135.8069808083333
128,1536,36.210192438287805,115920,4109,39120896,24509216,0.9463519442024567,0.0847619474260883,1.0,128,0,1,1,122.29116533838001,0.5252862684635358,0.055576066717141,135.8069808083333
128,2048,30.75260548640433,92629,19,38596608,24583552,0.9872269175399507,0.0810824157314479,1.0,128,0,1,1,102.9791163551329,0.5441717857878906,0.0670813401462656,135.8069808083333
128,256,140.94185907603,67841,14744,24694784,20987176,0.5918267029747114,0.2466224397105062,0.36498011497443333,128,0,1,1,372.0941915365622,0.8648596813882865,0.012837038055489,135.8069808083333
128,512,82.36473828066357,51785,1099,24432640,21039616,0.7117286430836693,0.1920455467993804,0.5351398457760578,128,0,1,1,253.7784877733904,0.867706339929559,0.0164445371463985,135.8069808083333
1536,1024,41.84336963732059,112017,3906,25268224,15268784,0.8951727152389107,0.1197846771229909,0.8237930889393267,1536,0,1,1,164.85569329452778,0.6661379389260363,0.0420378312944137,135.8069808083333
1536,128,96.0188975539127,133399,6454,24170496,21081840,0.8388496088382305,0.2660743701223484,0.5068522455739904,1536,0,1,1,267.9419534869322,0.8519757809658877,0.0166721081432727,135.8069808083333
1536,1536,37.65553961126708,78672,23,38858752,24563912,0.9936563937190083,0.1684803237819061,1.0,1536,0,1,1,114.05896940527724,0.5287795172185057,0.0645821640567361,135.8069808083333
1536,2048,30.70913056717464,82008,11697,39383040,24348048,0.9921290901989649,0.0662631899021813,1.0,1536,0,1,1,102.93421249798773,0.5302039380127312,0.0593331843545032,135.8069808083333
1536,256,142.8983540608732,119391,25,24432640,20658256,0.5478018061391314,0.2444377734000754,0.37007235023477814,1536,0,1,1,366.9741355228938,0.8600620415284738,0.0114064837937837,135.8069808083333
1536,512,88.53812631449595,127550,12915,24432640,20935976,0.6191968061640264,0.1167828710164619,0.4870976548789603,1536,0,1,1,278.8085293534829,0.8714115900191468,0.0147207101995447,135.8069808083333
2048,1024,45.11359116184542,81611,8909,24743936,15304072,0.8930694378463665,0.0931490480477517,0.8026627930912198,2048,0,1,1,169.195560049959,0.6674556543534536,0.0423781356960072,135.8069808083333
2048,128,196.28093774249547,77503,33,24432640,21457864,0.6716698852637877,0.2433445883824015,0.38969687341752873,2048,0,1,1,348.4938937727301,0.8639274969302925,0.0113710865655574,135.8069808083333
2048,1536,36.52177172566076,74072,4183,38858752,24583032,0.9814974064648907,0.0821838483687219,0.9538254345632755,2048,0,1,1,142.38137911526204,0.5380179098932711,0.0691948078743605,135.8069808083333
2048,2048,36.54171197813029,65867,7500,39645184,24519248,1.0043140507627637,0.068818834651639,0.9415676816085727,2048,0,1,1,144.23496415713936,0.5325763741690921,0.0537108715769056,135.8069808083333
2048,256,104.185413215375,91895,4288,24432640,21030152,0.7875624752166771,0.245003604258301,0.4610029331889428,2048,0,1,1,294.5902748793847,0.8559913571728472,0.0136758831138799,135.8069808083333
2048,512,84.9415530962449,79608,2370,24432640,21067168,0.7180788133346397,0.2143572754507723,0.556503017037705,2048,0,1,1,244.03637833131802,0.8656815750672578,0.0138695079040507,135.8069808083333
256,1024,47.58835391920865,64957,3530,25268224,15252480,0.8948638819396757,0.1106204413626028,0.6630203444522124,256,0,1,1,204.8307898010838,0.6668393771436727,0.0444870133922655,135.8069808083333
256,128,251.10672900578288,153299,4402,24432640,20590520,0.5236820824987201,0.2486151519303392,0.20392149663204134,256,0,1,1,665.976775628443,0.8595256628211105,0.0089340095169737,135.8069808083333
256,1536,37.97637041966615,40947,85,39645184,24470000,0.9721306215842394,0.0878624325762509,1.0,256,0,1,1,120.4153813695343,0.5187853159895439,0.0475126450600972,135.8069808083333
256,2048,29.100768534543786,55403,3872,39383040,24292448,0.9999420740894567,0.072542766894728,1.0,256,0,1,1,109.79922298003193,0.5363807881028569,0.0584969880566111,135.8069808083333
256,256,148.81997764118353,49089,448,24432640,20595544,0.5464152663162974,0.2169395966893167,0.3470870859124868,256,0,1,1,391.27638659127507,0.8625471080200038,0.0092988935593147,135.8069808083333
256,512,77.01576416078248,139356,8560,24694784,20684016,0.6216153741948656,0.1093539871449015,0.47382990384420315,256,0,1,1,286.61547046002204,0.8712143443353721,0.0149924314757309,135.8069808083333
512,1024,55.59807548221949,139331,2595,25268224,15234512,0.8821028468571374,0.0954826099716611,0.717844877212606,512,0,1,1,189.18708640183132,0.6630140258464275,0.0417166970699471,135.8069808083333
512,128,336.9755683152532,30240,8141,24432640,20759976,0.6529681813391148,0.2796021437575352,0.2932742837800317,512,0,1,1,463.0715624224126,0.8624434378035384,0.0116807373503669,135.8069808083333
512,1536,33.37562253319763,58956,24,39120896,24396864,0.9472092297161768,0.1042137006521745,1.0,512,0,1,1,122.95043046882317,0.5231050564225266,0.0538376026838513,135.8069808083333
512,2048,26.72250413585536,37507,4916,39120896,24488008,0.9941351246838717,0.0600271880114914,1.0,512,0,1,1,102.16793529817,0.5426583489955492,0.0524305770235055,135.8069808083333
512,256,122.04005543426112,36977,14416,24432640,20708880,0.5221001101921423,0.1643708562518865,0.34683395553019375,512,0,1,1,391.56195246434163,0.8635790725647169,0.0122577772920268,135.8069808083333
512,512,103.36859319846036,31264,1328,24432640,21240768,0.6416130290475394,0.1762993452516681,0.4938406218422576,512,0,1,1,275.00163980376794,0.8728265337543137,0.013259743116279,135.8069808083333
