cpu,memory,duration_std,userDiff,sysDiff,heapTotal,heapUsed,avg_cpu_util,cpu_util_std,slo_preservation,total_cpu_shares,cpu_shares_others,num_containers,arrival_rate,latency,memory_util,memory_util_std,slo_duration
1024,1024,155.72726066529736,53194,8212,31547392,21907152,0.46722932285656943,0.1781856901012254,1.0,1024,0,1,1,461.35937250121214,0.7560581047086443,0.0615707292155989,570.33022397479
1024,128,274.98871275066455,84419,22269,31596544,28648008,0.3063777147534655,0.0938180952321188,0.7039115589203933,1024,0,1,1,810.2299454345084,0.8658991805114681,0.0422462218756848,570.33022397479
1024,1536,184.9588172724941,179592,20826,45912064,26438688,0.4096730994247994,0.1560307945426838,1.0,1024,0,1,1,426.3284206429459,0.6422776296323371,0.0615840038327029,570.33022397479
1024,2048,139.04569909773394,175111,38379,66609152,47466664,0.3516204525298703,0.123999394837023,1.0,1024,0,1,1,496.36459494931387,0.6650289610075872,0.0644332633617005,570.33022397479
1024,256,250.4741516178339,248108,51226,18579456,14637248,0.37361951070902977,0.1702519334503612,0.7927860507637001,1024,0,1,1,719.399923126024,0.8465208595001866,0.0411937330653979,570.33022397479
1024,512,220.01474287511004,123030,12631,32382976,28670248,0.3748510465059057,0.0936066315753712,0.770673525695283,1024,0,1,1,740.0412820204922,0.8650356352351194,0.0438287760272142,570.33022397479
128,1024,118.85494686651244,71641,11939,31023104,21876960,0.473549814540644,0.1072175511064277,1.0,128,0,1,1,437.8516912477826,0.7423115346743342,0.0669717408133782,570.33022397479
128,128,309.52318079969467,101334,16274,32120832,28658152,0.23092873966432134,0.1224074368021626,0.610770747593291,128,0,1,1,933.7877202242336,0.860924386233567,0.0504170790647047,570.33022397479
128,1536,125.17433608890416,127058,22163,34312192,14903880,0.4239834627036739,0.1576458085697282,1.0,128,0,1,1,490.9497555628427,0.6627509709181233,0.0918846481531696,570.33022397479
128,2048,121.724860964419,120589,18809,42205184,27567976,0.3637465218217476,0.1472225804720828,1.0,128,0,1,1,464.7681955827669,0.6512169283929721,0.0731511790908913,570.33022397479
128,256,402.3546531100576,239011,14454,25538560,21182344,0.24189562590181335,0.0963484974277278,0.592334984299741,128,0,1,1,962.850817682219,0.8864416305404308,0.0332598801209982,570.33022397479
128,512,321.27436721160666,134523,15841,31858688,28713104,0.4101407881376107,0.1624984436234132,0.8461432275150725,128,0,1,1,674.0350870026086,0.8718930374559897,0.0444314824719378,570.33022397479
1536,1024,157.02966754228848,188758,52847,51384320,40431600,0.4569852310683595,0.1499783368763396,1.0,1536,0,1,1,490.6831898490911,0.717569378425584,0.0785560561683928,570.33022397479
1536,128,458.843295112813,311627,31876,29016064,24866000,0.318540436381504,0.1152582808638344,0.6695946805641427,1536,0,1,1,851.7544128252018,0.8568558787467051,0.0404599001628899,570.33022397479
1536,1536,142.95403082629127,145880,37486,34312192,14782688,0.41227841962901896,0.1872912091363295,1.0,1536,0,1,1,449.721845041027,0.6261314059482334,0.0648104562552553,570.33022397479
1536,2048,113.28554672227432,130451,36681,66871296,47497792,0.41418101749262753,0.1537714478052464,1.0,1536,0,1,1,391.87006133833495,0.6604351144906702,0.0559929383144906,570.33022397479
1536,256,185.07850301737903,143495,19451,36589568,32481440,0.41451426185365303,0.1602296582636879,0.8570644381279459,1536,0,1,1,665.4461422066947,0.8592944922288362,0.0539788332042148,570.33022397479
1536,512,199.83307575426247,143433,28383,30441472,25888560,0.4027053315643192,0.1177742317081465,0.776709968721232,1536,0,1,1,734.2898210947084,0.8807863686365971,0.0327505363725505,570.33022397479
2048,1024,183.70438670614405,130201,44388,44425216,35786784,0.4513727548464085,0.1687511254673321,1.0,2048,0,1,1,530.8922144252743,0.7666310617609737,0.0363382790694702,570.33022397479
2048,128,234.208159912698,144620,22145,30441472,26271168,0.33501938783349877,0.0859138901255198,0.745586716374023,2048,0,1,1,764.9415037173011,0.8426077624950932,0.0436396078616791,570.33022397479
2048,1536,163.43475352618404,205284,24158,34312192,14908112,0.449127717603728,0.1783606528481741,1.0,2048,0,1,1,422.748730941253,0.6140132562467164,0.0829354800076812,570.33022397479
2048,2048,102.59400126276223,141845,21257,52015104,34316344,0.47924223166796165,0.1538064182706881,1.0,2048,0,1,1,337.26255409726866,0.6404330488347257,0.0395467758747608,570.33022397479
2048,256,295.0366076820657,117288,14865,31858688,28710392,0.38064600156460016,0.1627429837761514,0.7070234888784884,2048,0,1,1,806.6637572104892,0.8487182765692586,0.0573897508069336,570.33022397479
2048,512,174.56924033759893,131083,5866,32567296,28866008,0.38803295535427923,0.1126845768891036,0.9103534384479888,2048,0,1,1,626.4931837321496,0.8562361129868222,0.0422137560243007,570.33022397479
256,1024,150.13121520422615,194953,45379,51122176,40434216,0.4298918014299566,0.1942205587086696,1.0,256,0,1,1,495.78287429119393,0.7643588871314739,0.0436724680019874,570.33022397479
256,128,491.1708664541151,73326,15377,31858688,28715024,0.2877946749792842,0.1308138316568244,0.5794020711301173,256,0,1,1,984.3427429632194,0.866157918110987,0.0485206271817784,570.33022397479
256,1536,151.6922504535035,36476,8118,44539904,27773416,0.40713291768562165,0.2019597865335605,1.0,256,0,1,1,428.8042982790831,0.6547816275780353,0.0735342324909175,570.33022397479
256,2048,137.54860203016526,69275,31093,53862400,34984384,0.40952394441588924,0.1799490721786059,1.0,256,0,1,1,425.40852416753864,0.6609947082712317,0.0559388588391626,570.33022397479
256,256,376.6751017000069,112251,46714,36327424,32552840,0.2805241258668744,0.0799267188230841,0.5159212525296335,256,0,1,1,1105.4598374817508,0.871699938484894,0.0419792523893271,570.33022397479
256,512,230.10935093918224,248734,29538,36327424,32470592,0.33963397733389106,0.0821426688673325,0.746081660039384,256,0,1,1,764.4340486062658,0.8769082137889018,0.0410658691033928,570.33022397479
512,1024,159.09299652607396,117952,17993,41328640,30288120,0.46031527577204734,0.1429914595737228,1.0,512,0,1,1,484.3593427013932,0.7713409584558822,0.0414927210963271,570.33022397479
512,128,290.7373001157312,161931,22689,32120832,28690784,0.35908398662249125,0.1277313772308246,0.7167543052764914,512,0,1,1,795.7123100290027,0.8600489258531429,0.0419856355430421,570.33022397479
512,1536,171.16951416291806,182917,17349,52322304,34545688,0.400314400820922,0.1879268031056916,1.0,512,0,1,1,468.00199266262246,0.6484538818161093,0.0686215526665432,570.33022397479
512,2048,141.46888413804132,149150,25282,51490816,34422240,0.4360707531859448,0.1707092124547737,1.0,512,0,1,1,352.2943867451928,0.6473863242698985,0.0466779841949377,570.33022397479
512,256,396.7083320011144,160094,28068,36065280,32814592,0.29281244006131646,0.1794382153555616,0.5918195151566835,512,0,1,1,963.6894515446921,0.870535711835948,0.0393647173271299,570.33022397479
512,512,222.8376826458447,200127,42397,29278208,25041616,0.35767307696301076,0.0622653852953374,0.6974842651977984,512,0,1,1,817.6961867563435,0.8719479090318705,0.0416643284304009,570.33022397479
