cpu,memory,duration_std,userDiff,sysDiff,heapTotal,heapUsed,avg_cpu_util,cpu_util_std,slo_preservation,total_cpu_shares,cpu_shares_others,num_containers,arrival_rate,latency,memory_util,memory_util_std,slo_duration
1024,1024,109.35665072137432,356705,54496,63778816,53615392,0.8279862301184685,0.130162602685525,1.0,1024,0,1,1,462.85593161806946,0.7446400040802581,0.0857552563035909,637.4222382641507
1024,128,1047.8504768641235,437385,44829,42565632,37009880,0.476411315850755,0.4145399138400576,0.33598988090889725,1024,0,1,1,1897.1471299666491,0.900900317684052,0.0390828064176426,637.4222382641507
1024,1536,82.29655321824086,297448,72548,70582272,50551952,1.1346209616328207,0.2153051687333401,1.0,1024,0,1,1,291.4383260211246,0.6863645265706542,0.1049984972562793,637.4222382641507
1024,2048,48.55835664882631,309956,35307,61116416,40799984,1.330601199373473,0.2055156485278567,1.0,1024,0,1,1,222.99220476954957,0.6927531114265524,0.1070145336182236,637.4222382641507
1024,256,416.3333259322952,408646,52931,41254912,36070112,0.41400368332881426,0.1210134224878621,0.4755416802312208,1024,0,1,1,1340.412974850531,0.8859880273635858,0.031871151614077,637.4222382641507
1024,512,244.22471956093293,533127,70504,38522880,34299232,0.6424518801878936,0.2598896775615123,0.761173446593606,1024,0,1,1,837.4204869031294,0.8832296185033932,0.0469732905802916,637.4222382641507
128,1024,99.852313039388,344335,40948,40509440,27843064,0.9049208746939381,0.1561546778523174,1.0,128,0,1,1,460.7335681090109,0.8153846365273065,0.0571271048966231,637.4222382641507
128,128,1023.7439195106969,289623,95959,40361984,37496736,0.3587869547277741,0.174816669638789,0.3323795054612661,128,0,1,1,1917.7543374088473,0.8876760873759305,0.0456780633017712,637.4222382641507
128,1536,69.2459280167441,297582,63213,63946752,43797136,1.1517728286445752,0.1608028979628624,1.0,128,0,1,1,290.57877102449015,0.6967204560937937,0.0887730356513455,637.4222382641507
128,2048,56.27046787294015,312527,63203,60854272,40882288,1.3063599174838707,0.1813987257497219,1.0,128,0,1,1,247.53574983899665,0.6869854456600515,0.0850676531263675,637.4222382641507
128,256,969.324340207797,486327,79031,38260736,34205632,0.5856248367183511,0.3656604200883335,0.4528116111110444,128,0,1,1,1407.6985276506825,0.8902381024202052,0.0424325791422882,637.4222382641507
128,512,256.8894723547663,502545,58303,52219904,45912520,0.492224350916401,0.0863880621941369,0.5894204047306798,128,0,1,1,1081.439042741325,0.8856961225895135,0.0434607316901514,637.4222382641507
1536,1024,124.49270947530096,302444,65142,55230464,45061912,0.8472348801373455,0.1478214278893374,1.0,1536,0,1,1,469.0905500587668,0.7613994550718497,0.0722165989267141,637.4222382641507
1536,128,483.2774304817689,420097,82484,33034240,27657128,0.3082175509774047,0.0998936063174868,0.27297866314517544,1536,0,1,1,2335.062495068184,0.8503782334107542,0.0435303812645522,637.4222382641507
1536,1536,65.0374885572753,234137,50484,44302336,28059528,1.1440665608208405,0.1432705471164557,1.0,1536,0,1,1,277.21637321856497,0.675314946801084,0.1045172285607126,637.4222382641507
1536,2048,48.72633942875847,332795,82191,82345984,62334656,1.2787164678211398,0.1791398986723534,1.0,1536,0,1,1,280.3420853416049,0.7217858444071352,0.0827081812681705,637.4222382641507
1536,256,531.1465013995474,380865,43982,30203904,24016792,0.5151906210434741,0.2347457245517866,0.4909811498066908,1536,0,1,1,1298.262140033516,0.8813642962045541,0.0459087974175425,637.4222382641507
1536,512,279.0184323931251,344689,64745,29417472,24027704,0.5788095788761012,0.247724382674727,0.6503307632099546,1536,0,1,1,980.1508314290884,0.8729721740858295,0.0394931877932168,637.4222382641507
2048,1024,84.84348664538798,299570,54915,54968320,44984360,0.9016994130224119,0.1189434312848139,1.0,2048,0,1,1,404.53527417901273,0.7858709036372987,0.0832934040174362,637.4222382641507
2048,128,1155.741311009385,316343,85606,40624128,37582920,0.472060656535203,0.2765480489429331,0.34252982508250746,2048,0,1,1,1860.9247767274296,0.8965852350345251,0.0512492115925383,637.4222382641507
2048,1536,63.95823509500914,237306,44443,79728640,65040856,1.0859901157182124,0.1745059206424868,1.0,2048,0,1,1,320.7013155309077,0.6784581146235468,0.0771279632228214,637.4222382641507
2048,2048,55.03122599607778,265871,58799,61640704,40858408,1.2588978877233434,0.2056440151221596,1.0,2048,0,1,1,253.9584337325786,0.7192644975293246,0.0850262481211115,637.4222382641507
2048,256,336.7486424571308,319395,64344,40624128,37621744,0.6876114736454096,0.3044808582679354,0.6948849044477139,2048,0,1,1,917.3062102576055,0.8906179675409083,0.0516983598526427,637.4222382641507
2048,512,224.12645171920283,505417,85796,45219840,41700144,0.5219769168429144,0.1125056039469856,0.6807840413692201,2048,0,1,1,936.3060817085864,0.8703829958684739,0.0435024377801003,637.4222382641507
256,1024,146.06132039911716,314694,73739,49516544,37347688,0.8528423966534784,0.1574286212560772,1.0,256,0,1,1,495.3799030443909,0.7437626596920077,0.0801748853034827,637.4222382641507
256,128,711.3510275605896,435211,66707,30203904,24169560,0.3234117710244051,0.1563088996015914,0.31065311551380687,256,0,1,1,2051.877822663654,0.8638764870402011,0.0358827792507345,637.4222382641507
256,1536,55.51100264244928,251614,44065,83247104,65696144,1.1565676123627107,0.1710836698443486,1.0,256,0,1,1,288.35138365197474,0.7240542277224031,0.1019510198554099,637.4222382641507
256,2048,58.14607971783882,348366,55560,69861376,49977104,1.3066135538309058,0.1880017978451597,1.0,256,0,1,1,238.01102666749244,0.6911628923127665,0.0870790542514817,637.4222382641507
256,256,572.180040035885,423457,70587,32473088,28453032,0.39027427299752876,0.1343561317256854,0.42431897591530154,256,0,1,1,1502.2242097213837,0.8905314415797226,0.0306811915317125,637.4222382641507
256,512,267.04581997625843,385779,65419,41517056,36880944,0.489113827109292,0.0917024042218797,0.6325122013264217,256,0,1,1,1007.7627545009128,0.8717603506325291,0.0323928390644755,637.4222382641507
512,1024,107.48483990380772,381603,73245,54968320,46996992,0.8992666056768447,0.1818414420150961,1.0,512,0,1,1,462.490593730205,0.7954356940299102,0.0609022870864267,637.4222382641507
512,128,496.8355798440453,514081,86721,37998592,33841928,0.29676113900582035,0.04717192494365,0.3061995797944837,512,0,1,1,2081.7214664108237,0.8873391408492122,0.0245650757420628,637.4222382641507
512,1536,67.0936636325587,297065,74111,72372224,52599096,1.1213030496227392,0.0874329052126852,1.0,512,0,1,1,287.5526538067747,0.678484123972357,0.1053089476519393,637.4222382641507
512,2048,58.83021856745474,376331,74473,80773120,62351528,1.2234051213930361,0.1909948726950392,1.0,512,0,1,1,236.8877205742835,0.6865303677176018,0.1050924590553931,637.4222382641507
512,256,356.78109203356576,354486,56007,29417472,24656480,0.4766895666911262,0.1340404058802618,0.5255766058715663,512,0,1,1,1212.8055760912537,0.868046773148925,0.0470930760458482,637.4222382641507
512,512,167.07021943665512,253456,59615,40177664,37336680,0.5034857263704748,0.0766403917320365,0.703921777690609,512,0,1,1,905.5299302649413,0.8955642911462496,0.0400791297587195,637.4222382641507
