cpu,memory,duration_std,userDiff,sysDiff,heapTotal,heapUsed,avg_cpu_util,cpu_util_std,slo_preservation,total_cpu_shares,cpu_shares_others,num_containers,arrival_rate,latency,memory_util,memory_util_std,slo_duration
1024,1024,11.200950659713415,17822,4363,25006080,14756608,0.8807290613003755,0.2781900021977991,0.7695170595293628,1024,0,1,1,61.62928161160157,0.6556980202824234,0.0478968917014843,47.42478356666667
1024,128,98.35192929683222,19963,7280,24702976,20960376,0.7130872078824007,0.3688259402572382,0.2192340228770447,1024,0,1,1,216.32036371135882,0.8685310076434873,0.008814773448483,47.42478356666667
1024,1536,13.077723406178032,14164,7742,39653376,23757776,0.9925379031183217,0.2510303455281053,1.0,1024,0,1,1,47.13594270781016,0.5283637548596994,0.0573459094000938,47.42478356666667
1024,2048,11.726694167055918,17775,0,39129088,23961248,1.0090598900430623,0.2345256532255603,1.0,1024,0,1,1,44.08700635989688,0.5181497509031004,0.0510761128192825,47.42478356666667
1024,256,41.16694694716234,23784,2422,24178688,21355464,0.715541227686051,0.3305189659701245,0.3688821933950348,1024,0,1,1,128.56349375443995,0.865084577485322,0.0148841330065689,47.42478356666667
1024,512,24.009024732402693,23079,1396,24440832,20950336,0.7568579768671538,0.2277321900376318,0.48938205834646503,1024,0,1,1,96.90748313680845,0.8680286721207896,0.0129705590704393,47.42478356666667
128,1024,24.67454551710847,13718,7736,25006080,14742648,0.8591664569291743,0.2393500720703561,0.5771697761487855,128,0,1,1,82.16782223614095,0.6523237868743947,0.048623054555407,47.42478356666667
128,128,52.51344394298561,24273,29,24440832,21327184,0.5675899380045244,0.162238701783749,0.27938505347952497,128,0,1,1,169.74703183304774,0.8610244209777591,0.0121225248767455,47.42478356666667
128,1536,26.376784306255395,23034,37,38342656,24574112,0.8679302426084448,0.2416203772629703,0.586570209714822,128,0,1,1,80.85099239820514,0.5470230707438704,0.0974352117498161,47.42478356666667
128,2048,8.075748922179615,17511,334,39391232,24158680,1.0084036342398057,0.1762625100836322,1.0,128,0,1,1,42.53174129484788,0.5201950426600684,0.051259153918971,47.42478356666667
128,256,73.54652816918284,20843,4894,24440832,21340384,0.692470197718589,0.3175469080821264,0.24698293679117697,128,0,1,1,192.01643717907575,0.8662453037449893,0.0116236124022857,47.42478356666667
128,512,49.53975019328036,19134,3865,24440832,21304160,0.6893191153109919,0.2708809249806479,0.32303633483785316,128,0,1,1,146.80944046270014,0.8725599295606636,0.0115165143169477,47.42478356666667
1536,1024,17.31994296042755,21587,472,25268224,14760640,0.8969288419586727,0.1909522477245143,0.7395229111402493,1536,0,1,1,64.12889019698355,0.6546614006277804,0.0437625959906077,47.42478356666667
1536,128,42.98560451154152,18570,4431,24178688,20942624,0.7835653528851324,0.2999776301912345,0.36472702498445403,1536,0,1,1,130.02815891881903,0.8650833835936463,0.0112538473908869,47.42478356666667
1536,1536,26.513168860662088,13999,8451,39129088,23794296,0.8848799665430289,0.1763009321329604,0.689185955885013,1536,0,1,1,68.81275388986488,0.5063833080316053,0.0538390649966657,47.42478356666667
1536,2048,8.19625225134551,23711,28,39391232,23964360,0.9961512622827658,0.1496374526821265,1.0,1536,0,1,1,42.27721056027446,0.5356744571513321,0.0604464737943305,47.42478356666667
1536,256,56.44717676641929,23420,4586,24440832,21329472,0.7147850850424794,0.2917079446552509,0.3370151255889313,1536,0,1,1,140.7200447866909,0.8663994810606438,0.0096725051674051,47.42478356666667
1536,512,35.90420214612293,21824,1499,24178688,20946264,0.6676740732172761,0.2233201876173457,0.4214636305005582,1536,0,1,1,112.52402374634758,0.8711278948242992,0.0112635558632133,47.42478356666667
2048,1024,14.657408333333867,24360,33,25006080,14753792,0.901604368837272,0.2188294149336341,0.8140121375885111,2048,0,1,1,58.260536147730306,0.6551936699600693,0.0427070528484061,47.42478356666667
2048,128,45.128369256109245,18757,4446,24702976,21310104,0.854952799853807,0.3444919394133162,0.3776614665746857,2048,0,1,1,125.57485410624497,0.8609998694766761,0.0128048710387737,47.42478356666667
2048,1536,21.117793581181548,14011,3698,39391232,23842144,0.9552162710596719,0.2165783841491189,0.7751024510373119,2048,0,1,1,61.18518075023315,0.5101729057648969,0.0580674428833392,47.42478356666667
2048,2048,13.867604645529124,20890,246,39391232,23907200,1.0092818592356694,0.2062534848502997,1.0,2048,0,1,1,45.9732698384886,0.5290025831506113,0.0529791154578667,47.42478356666667
2048,256,38.28297191547718,17161,8828,23916544,20991720,0.6874456266861475,0.3353308295397792,0.3560195970195622,2048,0,1,1,133.20835134831304,0.8694985582630634,0.0100516992366988,47.42478356666667
2048,512,44.09723234177761,22103,3047,24440832,21082640,0.7004685668099342,0.2377163107474154,0.44762938393633145,2048,0,1,1,105.94653807045904,0.8722532412166301,0.0132018598718232,47.42478356666667
256,1024,21.042763088337768,48485,3432,30609408,23823944,0.8247352276638749,0.212857412992337,0.598433396076717,256,0,1,1,79.24822357438586,0.6498233284347741,0.0504148511464091,47.42478356666667
256,128,64.86765849513775,21779,4431,24440832,21109072,0.552882025683247,0.2295892577756087,0.24232373794370163,256,0,1,1,195.70836918042562,0.8646079785364529,0.0105947318588683,47.42478356666667
256,1536,19.00163683100457,18846,3084,39129088,23997848,0.9075323022355624,0.2626104467681145,0.6912811000000777,256,0,1,1,68.60419526392569,0.5908534278723505,0.0937680885109982,47.42478356666667
256,2048,14.832758676514894,16630,61,39129088,23869152,0.9988372116881766,0.2108093504416548,0.976541031538712,256,0,1,1,48.56404598989619,0.5222186946160925,0.052288703450799,47.42478356666667
256,256,67.80192603031959,25091,1589,24440832,21002440,0.6124530172524145,0.2715107711320679,0.2519602785942012,256,0,1,1,188.22325420209364,0.8654831844580594,0.0133468937783149,47.42478356666667
256,512,32.89056205925464,21087,3662,24178688,20962576,0.7812053914411288,0.2503897222647105,0.4344028128634287,256,0,1,1,109.17236758680124,0.8699877520401147,0.0122128504977502,47.42478356666667
512,1024,19.52958113727757,18650,3724,25006080,14722168,0.8993034205681882,0.215602942446318,0.6132957657166617,512,0,1,1,77.32775312943639,0.6599741659365885,0.0528214207657066,47.42478356666667
512,128,122.0616011625992,26365,61,24702976,21356320,0.6569543997132379,0.2871181059895512,0.2139471397009841,512,0,1,1,221.66589201869346,0.8652288015258047,0.0112856689860668,47.42478356666667
512,1536,14.242012271623944,17908,5572,39391232,24015848,0.9276286838289166,0.2127475754176506,0.8636924255148439,512,0,1,1,54.9093429161393,0.5059234930818005,0.0512930337939137,47.42478356666667
512,2048,7.513683696995967,12903,4144,38866944,24052760,1.0021819748812817,0.1889703531879326,1.0,512,0,1,1,41.198596907191074,0.5218889487832198,0.0509029086617421,47.42478356666667
512,256,50.1872982702624,22290,3318,24440832,21273144,0.769913461302959,0.3984989505079604,0.2994081376115553,512,0,1,1,158.3951055738986,0.8644656530679706,0.0191578895717773,47.42478356666667
512,512,21.997757615033454,21900,491,24702976,20979968,0.7487660558657544,0.2617098376720331,0.5212319816573588,512,0,1,1,90.98594337183668,0.8695546033454237,0.013861818466994,47.42478356666667
