cpu,memory,duration_std,userDiff,sysDiff,heapTotal,heapUsed,avg_cpu_util,cpu_util_std,slo_preservation,total_cpu_shares,cpu_shares_others,num_containers,arrival_rate,latency,memory_util,memory_util_std,slo_duration
1024,1024,86.00361999050645,287226,21206,37859328,31028448,0.9182222531229853,0.112854077394255,0.6845378009931362,1024,0,1,1,595.0939602510921,0.7965469158426426,0.08701155554292,407.3643109345794
1024,128,1087.186549494979,344860,47154,32481280,29888816,0.676645127425958,0.4105975047733433,0.1294943357859153,1024,0,1,1,3145.807949531081,0.9128116427190528,0.0068044839604828,407.3643109345794
1024,1536,74.19478951935439,360388,25456,50835456,31089048,1.0168572100347641,0.1374681262540831,0.8700475553061195,1024,0,1,1,468.20924724195265,0.7303139207349685,0.1037126059643243,407.3643109345794
1024,2048,49.56655925344223,308407,33462,51097600,30994576,1.0951287346446201,0.2396172951757518,1.0,1024,0,1,1,366.2613377114774,0.6901166163929953,0.1208925505369075,407.3643109345794
1024,256,267.4967682946294,315598,42803,33529856,29759680,0.8044933979498458,0.2582364250508753,0.31963334015942,1024,0,1,1,1274.47377902256,0.9129652379430788,0.0159092594526664,407.3643109345794
1024,512,155.9363202078982,278368,36776,32481280,30124496,0.7810419575528673,0.1591371498483754,0.387691777823422,1024,0,1,1,1050.742714280924,0.8974138753173321,0.0316362768742829,407.3643109345794
128,1024,123.0300024376904,248348,36651,38121472,30549952,0.884374597341797,0.0971114088932618,0.6135647062400632,128,0,1,1,663.9304816453933,0.7942861739101768,0.1036553677105683,407.3643109345794
128,128,1163.756745328765,289716,94405,32481280,30406624,0.7765320605127489,0.570283121195814,0.10556378168236971,128,0,1,1,3858.940106563212,0.9081199220083952,0.0148900256174078,407.3643109345794
128,1536,59.66492190711239,284895,38555,70500352,55499552,0.9841267090703231,0.1667673052516685,0.9016718629161374,128,0,1,1,451.7877597035181,0.7283044631751493,0.0995442124620278,407.3643109345794
128,2048,63.4698771525461,295689,48165,51097600,30349584,1.0520957256442585,0.2792921588537399,0.9796692787767454,128,0,1,1,415.8181947312168,0.7511602917193799,0.1192546697694347,407.3643109345794
128,256,282.40459175540803,306772,63200,32743424,30100416,0.6274176533710537,0.1546722368750845,0.24868180418374555,128,0,1,1,1638.0945613278036,0.913683150473754,0.0097053807624319,407.3643109345794
128,512,145.0574948815487,332480,30551,32219136,29813288,0.7102537396971825,0.0570873092027102,0.3606228731820556,128,0,1,1,1129.6130701308207,0.887679919942191,0.0590437854546762,407.3643109345794
1536,1024,94.06721794810582,303019,37303,39956480,31077696,0.9384691493150231,0.1581550590391312,0.632937199289374,1536,0,1,1,643.609368183676,0.7809598312761847,0.0938491973178855,407.3643109345794
1536,128,660.5650333395373,302869,34509,33529856,30127576,0.8412663725716334,0.5112101898143349,0.17170610493166344,1536,0,1,1,2372.450945158325,0.9125514333504504,0.0124689212454722,407.3643109345794
1536,1536,70.46985147110672,298678,41093,37195776,15671184,1.0323932193088488,0.1455062088014886,0.9248725823693843,1536,0,1,1,440.45452173636005,0.7419492315061105,0.1137037342786669,407.3643109345794
1536,2048,43.82187990628605,276209,29068,50835456,30301880,1.05988416829194,0.2183966373066942,1.0,1536,0,1,1,364.9368516843982,0.7477064030040241,0.0902191732261239,407.3643109345794
1536,256,316.6786293244972,280167,38646,33005568,30370192,0.8520568640956576,0.3531505386659627,0.2949247411758705,1536,0,1,1,1381.248345969247,0.9169702973895922,0.0134807288938808,407.3643109345794
1536,512,110.61215281490304,295664,80054,33005568,30216848,0.8751414012609624,0.2692385512267365,0.4426503442259142,1536,0,1,1,920.2846360527714,0.886247943364153,0.0666268155955364,407.3643109345794
2048,1024,100.28400604604184,242046,40851,39956480,30204608,0.9199598249926917,0.1337239987841441,0.6384461551737697,2048,0,1,1,638.055860519208,0.785778237536531,0.1063932207108597,407.3643109345794
2048,128,167.00862248777997,302237,69737,33005568,30206472,0.7412552537356409,0.1265712896158856,0.2863678070050875,2048,0,1,1,1422.5213203778255,0.918397825917742,0.0070554558839095,407.3643109345794
2048,1536,71.40106077178942,260654,40565,36147200,15676672,1.0122926941150316,0.1455288164832327,0.9825175316016301,2048,0,1,1,414.61276550508273,0.7444023205351373,0.0998651601828025,407.3643109345794
2048,2048,60.12267744421423,337730,38375,51097600,31113152,1.1001539315016553,0.328726778042026,1.0,2048,0,1,1,373.79505589816443,0.7426154190087231,0.1176706681475688,407.3643109345794
2048,256,206.7095334831249,272167,31581,33005568,30133800,0.7699461264844074,0.2139288150477813,0.3300450706868578,2048,0,1,1,1234.2687321062313,0.9139358967190137,0.0199606314416769,407.3643109345794
2048,512,149.76505853923285,267609,47405,32743424,30023792,0.8713832605489383,0.2607315503560996,0.41427542126986544,2048,0,1,1,983.3175950576513,0.8859059655940452,0.0385154836687862,407.3643109345794
256,1024,78.94345337504387,265975,55783,38121472,30561712,0.9555322326409994,0.1429945913005972,0.6417091288091427,256,0,1,1,634.8114630853846,0.7913519333301287,0.0840504370983657,407.3643109345794
256,128,1594.21355239119,266037,86051,32481280,30101848,0.46517366322897324,0.2986724147385644,0.0946501969436912,256,0,1,1,4303.892903433962,0.9127988638918536,0.0092062590946761,407.3643109345794
256,1536,52.02737981742816,276359,26028,70238208,55394256,1.1069466887029207,0.1386218290951333,1.0,256,0,1,1,367.75803363159207,0.7420627002206409,0.0897369123487872,407.3643109345794
256,2048,30.113411089475168,270627,43304,50573312,31301712,1.127155022128707,0.168655713267581,1.0,256,0,1,1,301.40813687932604,0.7455650364413005,0.0960806161824612,407.3643109345794
256,256,458.82016481074106,306961,28981,32743424,29778880,0.5842717252492521,0.1870512090370214,0.21821424246942184,256,0,1,1,1866.8089961711046,0.898448837621071,0.0460660905426913,407.3643109345794
256,512,136.36028132310912,258829,30009,32743424,30028248,0.7311078405780436,0.0599084017175271,0.37731805086174014,256,0,1,1,1079.6311228795387,0.8885055358774814,0.0626103867131071,407.3643109345794
512,1024,103.98240985713676,295362,44576,38907904,31714848,0.9226184439565335,0.1576194060760274,0.6376673713084425,512,0,1,1,638.8351188468376,0.7756143352445884,0.0957556606758762,407.3643109345794
512,128,904.031656582171,302943,77676,33005568,30002704,0.7264460536877718,0.486867715970312,0.14144033608571294,512,0,1,1,2880.114132984783,0.912588187826194,0.0106461708338689,407.3643109345794
512,1536,58.39396723701322,221197,33767,72335360,55449520,0.9960981648352261,0.1464518660404709,0.9287907920995162,512,0,1,1,438.5964141760483,0.7340695334163303,0.0949217351695865,407.3643109345794
512,2048,48.15969707270856,231741,38043,93569024,77826904,1.0555049323679586,0.2529919829562111,0.9851699370390307,512,0,1,1,413.496489914146,0.7154405450256526,0.1177116234756409,407.3643109345794
512,256,600.189095165591,249389,36727,32481280,30020472,0.5400955196712732,0.128224788093422,0.20581283547684592,512,0,1,1,1979.294974440057,0.8993904906821798,0.0645379413060038,407.3643109345794
512,512,210.09532398997143,379729,39469,33005568,30357192,0.8025217798513561,0.2308854420545647,0.35454884376791435,512,0,1,1,1148.9652782544053,0.8999771846720928,0.0502370270799147,407.3643109345794
