cpu,memory,duration_std,userDiff,sysDiff,heapTotal,heapUsed,avg_cpu_util,cpu_util_std,slo_preservation,total_cpu_shares,cpu_shares_others,num_containers,arrival_rate,latency,memory_util,memory_util_std,slo_duration
1024,1024,69.20640708300466,284334,17093,39694336,29994920,1.0634693696961288,0.1316375577183223,0.8191528666667115,1024,0,1,1,181.9295454153227,0.7933922773793276,0.0999199435211259,149.02810865833328
1024,128,181.4805552255613,235429,27537,33005568,29648776,1.1432143166670334,0.4416732198004982,0.547258679131673,1024,0,1,1,272.3174877642761,0.8494776810710492,0.0584062813627824,149.02810865833328
1024,1536,51.53852818815498,279268,49057,50049024,31026152,1.21591916205931,0.2263356918766221,1.0,1024,0,1,1,140.3110600214991,0.7215137579114737,0.1146358715474946,149.02810865833328
1024,2048,32.21641639309225,270744,45650,50311168,30903024,1.5523933369258565,0.2787204294863326,1.0,1024,0,1,1,85.36441600201613,0.7409404511222359,0.0940689548086787,149.02810865833328
1024,256,41.49238431109773,238074,24458,32481280,29892072,1.2836038964402148,0.2634267395929727,0.7981841674564785,1024,0,1,1,186.70892600291916,0.8950973054417709,0.0480471363532685,149.02810865833328
1024,512,47.92448361772524,277409,29984,33529856,30391048,1.1084787017210422,0.1310959245487136,0.6394461201148988,1024,0,1,1,233.05811697091102,0.875140134561148,0.0595782794391929,149.02810865833328
128,1024,95.06276061663642,328887,55936,39956480,30388552,1.0358017725734427,0.1928342196659081,0.7141481780439045,128,0,1,1,208.67953351996272,0.7793060258965508,0.1063790728559934,149.02810865833328
128,128,57.82753733152931,236491,44899,33005568,29838968,1.083706244102884,0.1290511545948343,0.6429435065652505,128,0,1,1,231.7903628181504,0.8438417953519531,0.0683807823764469,149.02810865833328
128,1536,52.04495040401076,268616,56320,50311168,30947224,1.0389948456335198,0.2349759930701128,0.9337827869457883,128,0,1,1,159.59611886376018,0.714468915746252,0.1046593569689445,149.02810865833328
128,2048,31.02847843766663,271744,31418,50049024,30305008,1.7102887490039898,0.2334016570781791,1.0,128,0,1,1,75.74925366469665,0.7420315875980086,0.0995215693088318,149.02810865833328
128,256,42.40782414080814,265354,28744,33005568,30315704,1.2194526657493632,0.18802118449132,0.7324947149894326,128,0,1,1,203.45281079670758,0.8650192484943201,0.0583663994671606,149.02810865833328
128,512,52.66497608540731,285959,31657,33267712,29830368,1.045816809023116,0.1366654650195445,0.6210838439924758,128,0,1,1,239.94845478566126,0.8890786807828546,0.0476107681327614,149.02810865833328
1536,1024,90.07026251644459,332063,50301,39432192,30733760,0.9415759583310159,0.2422355274056521,0.6188643403136169,1536,0,1,1,240.80900926172527,0.7836746206297386,0.1018413537119129,149.02810865833328
1536,128,60.55390466821176,298115,28887,32743424,30175648,1.0228988894941673,0.2341675863331935,0.5951560702939654,1536,0,1,1,250.40172838147114,0.8844704379827842,0.0618698377948965,149.02810865833328
1536,1536,53.36398015072285,233573,23775,67252224,51962824,1.1736665230755585,0.2553453883569505,1.0,1536,0,1,1,140.0541375625674,0.7141936586632458,0.109034186389162,149.02810865833328
1536,2048,32.839625606873504,289521,33445,50049024,31056016,1.5269951827223054,0.2738554693116715,1.0,1536,0,1,1,89.60338572671776,0.7447194594821732,0.0975119912873449,149.02810865833328
1536,256,43.28184349724467,219773,54203,33267712,29618400,1.3663894809608073,0.1445782554506988,0.9237204774474527,1536,0,1,1,161.3346378009802,0.8818551412924922,0.0606670045711622,149.02810865833328
1536,512,44.372503643875554,237427,43364,32743424,29738592,1.1013960529226967,0.1091325266578585,0.6782664946195067,1536,0,1,1,219.71910722485993,0.8956225760755201,0.0388345931946532,149.02810865833328
2048,1024,77.8739270871991,277128,18796,37859328,30890160,1.0141698743111656,0.2204862556377272,0.7294405752127432,2048,0,1,1,204.30465993048008,0.7917802815709825,0.1032720998596088,149.02810865833328
2048,128,366.8025279141199,217011,77252,32743424,29851736,1.0047206835886158,0.3462269235125012,0.4039528852782678,2048,0,1,1,368.92448126883284,0.8795175964620162,0.0604969707218591,149.02810865833328
2048,1536,48.93210688100735,282512,51102,50573312,31117440,1.1316012747918724,0.2194919228138542,1.0,2048,0,1,1,145.35213000035208,0.7229646313477612,0.1251968312581263,149.02810865833328
2048,2048,32.33543255232079,262571,51035,50049024,30429328,1.6445401532672153,0.1863839117826855,1.0,2048,0,1,1,78.57205053944227,0.74332706169187,0.0892867919178017,149.02810865833328
2048,256,45.55342120844876,209245,34306,32481280,29916296,1.2051775310516488,0.2372896356304114,0.8016492209759616,2048,0,1,1,185.90189419369756,0.8804406082196066,0.0737193232168077,149.02810865833328
2048,512,74.14015280095195,250709,34883,32219136,29960936,1.1012660991055752,0.1992088818644962,0.6029807162192973,2048,0,1,1,247.15236267047294,0.8699630197722961,0.0731589575260905,149.02810865833328
256,1024,75.68453501533244,274204,33610,37335040,30217200,1.0629511150775628,0.1739286996568231,0.7367833624914542,256,0,1,1,202.26855850054815,0.7810340030523868,0.1083222160951409,149.02810865833328
256,128,261.52964279759,274613,62730,33005568,29590072,0.9454167388191802,0.3336495892018988,0.42391298036978686,256,0,1,1,351.55353942767545,0.8796343232570841,0.0586897713716285,149.02810865833328
256,1536,52.21700950876185,290036,35478,50311168,29810520,1.2828918417354749,0.2489656183546657,1.0,256,0,1,1,135.1699213177643,0.7723825126021022,0.0951144285173587,149.02810865833328
256,2048,33.6528351361537,246285,43977,50049024,29822376,1.474398335921151,0.2805273586518456,1.0,256,0,1,1,97.53631878466386,0.7272649458234371,0.1159881466288949,149.02810865833328
256,256,36.994310305595256,247950,16124,32481280,29884768,1.210637911013833,0.1539157607230784,0.7235631123253449,256,0,1,1,205.9642153113575,0.8690032241547575,0.0386583713416802,149.02810865833328
256,512,58.937241415054174,258120,41378,33005568,30210144,1.0886018307883754,0.1786943959062834,0.6558088975599448,256,0,1,1,227.24319418784836,0.8770118883364283,0.0658900451032887,149.02810865833328
512,1024,67.46633482730587,326818,35906,39432192,30187312,1.04922649764681,0.1643215805529034,0.7587240335077741,512,0,1,1,196.41938580663967,0.7859253787901495,0.1178166385434687,149.02810865833328
512,128,53.07091403942935,310609,48525,33005568,29699216,1.0488301020152597,0.1751753029786739,0.575216523722632,512,0,1,1,259.081758802524,0.8844219226148178,0.0625229670025705,149.02810865833328
512,1536,44.42736852889186,196832,32722,67252224,52163856,1.3016111704974234,0.299271154822095,1.0,512,0,1,1,123.11918342468098,0.7744091989442898,0.0922014050366165,149.02810865833328
512,2048,26.418745498329525,216695,38996,68038656,51360472,1.58856427503107,0.2688655344371666,1.0,512,0,1,1,79.38369785552445,0.7372661788100338,0.0882822500829283,149.02810865833328
512,256,38.37630589041016,243440,30592,33267712,29587936,1.271433463860729,0.2222964556489617,0.8348751043143898,512,0,1,1,178.50347661368713,0.8717900313584112,0.0657816016493007,149.02810865833328
512,512,50.04093620529551,251007,31643,33267712,29541496,1.100678239886045,0.0957499186976584,0.6327810937789217,512,0,1,1,235.51289715112773,0.8641680626279513,0.0729442334138664,149.02810865833328
