cpu,memory,duration_std,userDiff,sysDiff,heapTotal,heapUsed,avg_cpu_util,cpu_util_std,slo_preservation,total_cpu_shares,cpu_shares_others,num_containers,arrival_rate,latency,memory_util,memory_util_std,slo_duration
1024,1024,797.3129876413916,1899541,136184,58388480,48767224,0.876774791705131,0.1467732618884469,0.5606496282627791,1024,0,1,1,892.9152072396478,0.8325588473552493,0.0653840329281135,500.6125790090909
1024,128,982.1102263689776,1942464,197222,37273600,35001168,0.8199974194864877,0.1582534607091367,0.32476793776748364,1024,0,1,1,1541.447048161209,0.937853725637338,0.0208199384321769,500.6125790090909
1024,1536,365.8910158488288,1782715,156661,52219904,38282808,1.3543877644281166,0.302918207847196,1.0,1024,0,1,1,372.43921159661926,0.7102610410944388,0.1096763870327062,500.6125790090909
1024,2048,231.18951210952716,1776497,132172,64278528,38444008,1.5178111948089539,0.3634268663125811,1.0,1024,0,1,1,226.47465214413984,0.6838005356707763,0.1373493452158017,500.6125790090909
1024,256,345.64523415841285,1821153,142781,37535744,34676112,1.3867190605773057,0.2152689527090694,1.0,1024,0,1,1,429.41538005441834,0.88731720261732,0.0974941657143785,500.6125790090909
1024,512,591.2946836267747,2099027,170029,52748288,50340264,1.1212981305028267,0.2037499879756429,0.7568603553116964,1024,0,1,1,661.4332161748973,0.9009522936973402,0.0827279932566499,500.6125790090909
128,1024,584.9163305421464,2011856,188933,59961344,52224328,0.9729849912327965,0.3269382198508148,0.7591197230273361,128,0,1,1,659.4645927689376,0.7862491251722021,0.1174290693402395,500.6125790090909
128,128,761.1497550998602,2097745,199701,38060032,35555616,0.9005022140109139,0.1752261756791475,0.5410522350206425,128,0,1,1,925.2573903331003,0.9134281054174684,0.0577004491291501,500.6125790090909
128,1536,384.2653546324077,1985728,132691,57987072,36688432,1.276174872515701,0.2751016983035996,1.0,128,0,1,1,357.9079445729586,0.7560792201843566,0.0998077070951968,500.6125790090909
128,2048,201.02533385536796,1528668,119573,52482048,39776632,1.4690205632584619,0.3149311150205332,1.0,128,0,1,1,200.05407805422942,0.7310607603044594,0.1126809485889858,500.6125790090909
128,256,350.8331491888144,1724840,125752,37273600,34685560,1.294896244899887,0.2852585509448862,1.0,128,0,1,1,404.7327721808083,0.9287043181398836,0.0447685669477305,500.6125790090909
128,512,621.2808553255982,2092569,140799,52224000,49624192,0.9780112055136102,0.1975522711362954,0.6984152894138516,128,0,1,1,716.7835335180483,0.8721203198069174,0.1099495721033739,500.6125790090909
1536,1024,531.1312946319783,1956106,107581,59174912,50056432,0.9865666019166229,0.160314732985662,0.7691354168143772,1536,0,1,1,650.877034219201,0.788383616357829,0.1050725797180716,500.6125790090909
1536,128,874.7790272566705,2012288,174815,52224000,49655504,0.8772151304407899,0.1810153800083848,0.5423754525905384,1536,0,1,1,923.0000668688521,0.9045920276766054,0.0665555953273216,500.6125790090909
1536,1536,398.18080909878967,1868997,166674,60870656,35348520,1.323379060587789,0.289729138350517,1.0,1536,0,1,1,364.42531130483394,0.7372734954238548,0.097454738005324,500.6125790090909
1536,2048,202.6814053680304,1563117,138325,64540672,39641752,1.499721157029407,0.2934371136550761,1.0,1536,0,1,1,214.43965449105087,0.7417799531062946,0.1134568108313813,500.6125790090909
1536,256,559.2394298013179,1986505,152572,36749312,34200440,1.0793847074779144,0.1401416709031929,0.7643692450257029,1536,0,1,1,654.9355331430912,0.8916508040383351,0.1036546197145335,500.6125790090909
1536,512,837.1751114952899,2264847,212608,52748288,50026496,1.014524279840633,0.1899649150522903,0.5414089682147943,1536,0,1,1,924.6477402466703,0.8630448991885797,0.0933429848536666,500.6125790090909
2048,1024,878.904922809624,1979107,155383,46583808,37707640,0.8407399221365269,0.1170984136428777,0.5274307839100496,2048,0,1,1,949.1531292463726,0.7972400887508309,0.0936816096813122,500.6125790090909
2048,128,543.0054322239772,2054783,238924,51699712,48821416,1.1798339585016606,0.3101767605199538,0.8239849238970457,2048,0,1,1,607.5506535258415,0.9056295187834132,0.0652027361815225,500.6125790090909
2048,1536,362.5876301216756,1772435,149655,62705664,38125992,1.2073836868767076,0.2793348549022996,1.0,2048,0,1,1,366.145974234357,0.7598687325943879,0.0984904149551531,500.6125790090909
2048,2048,235.1575769319581,1754309,131762,60870656,37388040,1.5122557950866817,0.3183272806144409,1.0,2048,0,1,1,212.14291970065364,0.7260553637501086,0.1132399840632415,500.6125790090909
2048,256,372.51507414452095,1939628,147172,47235072,33981088,1.3624301453252228,0.2453651785695157,1.0,2048,0,1,1,447.7954269748963,0.8627219076026738,0.1064521903700347,500.6125790090909
2048,512,493.5633176576493,2449298,209651,44089344,33789712,1.2337576077919594,0.2037371048769055,0.8539184685918649,2048,0,1,1,586.2533689365155,0.9032406569149216,0.0654894940431849,500.6125790090909
256,1024,546.2347027677362,1857782,141436,43962368,33163544,1.0682500967704722,0.3253044715774727,0.8248015201618019,256,0,1,1,606.9491468818891,0.788622263422071,0.0996962726637508,500.6125790090909
256,128,884.431969145256,2062179,229928,37273600,35009216,0.9826448204315797,0.1790867852996196,0.4665255225079086,256,0,1,1,1073.065791380373,0.8697075004132597,0.0931833004745951,500.6125790090909
256,1536,587.8073294373221,1918273,148172,62967808,33759680,0.7609380245234463,0.2465934224793822,0.7238154832652607,256,0,1,1,691.6301054389419,0.7376651848350807,0.0969166156894102,500.6125790090909
256,2048,349.9060365832864,1413677,167875,82898944,50027176,1.0555961133664675,0.2867998354563065,1.0,256,0,1,1,375.87296082832023,0.7412598299760637,0.1126119977294418,500.6125790090909
256,256,2834.570874929901,2156173,179917,37273600,34507496,0.4224968271707919,0.1294540935747672,0.07529044199859962,256,0,1,1,6649.08540473706,0.8823404824994054,0.0745327755885109,500.6125790090909
256,512,2083.8563287207885,2045143,165740,37535744,35322688,0.454871234062877,0.0449594864358274,0.17088185926950428,256,0,1,1,2929.582936124049,0.9300178745632272,0.0272376117791913,500.6125790090909
512,1024,900.424658200651,1971926,151616,43700224,35663712,0.7899044600179026,0.1405554766124798,0.5177599643335937,512,0,1,1,966.881592811887,0.790916879993749,0.0801122619562957,500.6125790090909
512,128,1916.3614654596752,2449712,279491,45662208,34803992,0.551194464326812,0.1219858933540923,0.08851189175824101,512,0,1,1,5655.879329485473,0.8643152579375851,0.1025665753533031,500.6125790090909
512,1536,596.0857814181815,2049771,168782,53006336,40428008,1.0565063088862892,0.1929581954971164,0.8501845911588586,512,0,1,1,588.8281018204792,0.7524721044701582,0.0943715802187842,500.6125790090909
512,2048,374.4538001819405,1864640,183615,53006336,37134376,1.1712360157035773,0.3135919494141389,1.0,512,0,1,1,415.6137234345315,0.7233583709973381,0.1106407963827486,500.6125790090909
512,256,3840.866856195268,2121793,180621,47235072,33850552,0.2939159185724715,0.0840555761287814,0.060121115742059916,512,0,1,1,8326.734672671239,0.903760992710827,0.0734249999117725,500.6125790090909
512,512,2157.483212081959,2021108,187231,37273600,34601432,0.4730065381727086,0.0847898460810373,0.17365845554994228,512,0,1,1,2882.7423198239844,0.9248787019140418,0.0403373717476631,500.6125790090909
