cpu,memory,duration_std,userDiff,sysDiff,heapTotal,heapUsed,avg_cpu_util,cpu_util_std,slo_preservation,total_cpu_shares,cpu_shares_others,num_containers,arrival_rate,latency,memory_util,memory_util_std,slo_duration
1024,1024,702.5042901268947,1522223,175648,42127360,35703744,0.5044467967883878,0.2803296154158071,1.0,1024,0,1,1,837.6272646921998,0.8333797964227069,0.0411320012081877,2359.009234485149
1024,128,1279.2224691283834,1801690,248881,35962880,33000128,0.39494776992916686,0.0538935821149494,0.2805925948373253,1024,0,1,1,8407.239812771233,0.9236463585538164,0.0072231991419323,2359.009234485149
1024,1536,509.1537515568713,1430115,106366,51695616,39598064,0.4978746981091665,0.3513607393218287,1.0,1024,0,1,1,688.7917493770633,0.7454971720717013,0.0552755898921327,2359.009234485149
1024,2048,432.261998622739,1510614,115969,51171328,39578136,0.35757561797976734,0.2727077942753019,1.0,1024,0,1,1,547.1988338771424,0.7502436124349993,0.0511237721818188,2359.009234485149
1024,256,2798.880420361778,2264355,136723,36749312,34091552,0.35955302543503576,0.0769001506841893,0.37100734447134703,1024,0,1,1,6358.389583490673,0.9235078799242742,0.0091384800845243,2359.009234485149
1024,512,1249.434717393926,2243590,209375,37011456,34138000,0.5565614871599472,0.2894794966468919,1.0,1024,0,1,1,1567.9812721525473,0.9307615071423534,0.0115262261742407,2359.009234485149
128,1024,820.5000371475238,1573949,120651,42651648,35512728,0.5223188838885524,0.2353758664695232,1.0,128,0,1,1,889.8845113128855,0.8302553704726519,0.0278607724821794,2359.009234485149
128,128,1132.5591439994887,1823534,177767,36225024,33376224,0.37362203923585746,0.0464984826264997,0.2664078345385452,128,0,1,1,8854.879356574762,0.918653859526912,0.0092531790001321,2359.009234485149
128,1536,512.7317525781428,1423219,143392,51433472,35549952,0.4480038488695787,0.3427323819382644,1.0,128,0,1,1,678.1659155259256,0.7284904117339075,0.0287550985151211,2359.009234485149
128,2048,367.0883723649535,1459198,175225,51433472,35968992,0.4518311988163494,0.3586218062066785,1.0,128,0,1,1,545.5244830343615,0.734806957571958,0.0495335802272015,2359.009234485149
128,256,3044.132154571669,1865309,179184,35962880,33370376,0.27604089680204824,0.0507513032265002,0.2106692078920267,128,0,1,1,11197.693569409541,0.9217676453069606,0.0095711648416784,2359.009234485149
128,512,1538.397082170021,1669281,192586,35962880,33093432,0.4488989448328197,0.2021016053478803,1.0,128,0,1,1,1848.5292525486307,0.9299355602808768,0.012826451026636,2359.009234485149
1536,1024,1055.096312557198,1575963,144734,43175936,34021232,0.3786278519628975,0.2400828201281482,1.0,1536,0,1,1,1071.1341671393461,0.8374145517060848,0.0297055417980502,2359.009234485149
1536,128,1338.7873119569956,2004324,184154,36487168,32994512,0.6800306378403346,0.1716535171715378,0.4602790122872284,1536,0,1,1,5125.172279228439,0.9137034515699938,0.0076586443021696,2359.009234485149
1536,1536,573.3804535643739,1551239,127972,52744192,40782464,0.4110638003679462,0.3071581998156864,1.0,1536,0,1,1,676.2714490989897,0.7175104916799139,0.0536974446368183,2359.009234485149
1536,2048,360.308798584459,1603256,133372,52219904,40275816,0.3451011647392762,0.3442381024587807,1.0,1536,0,1,1,521.2196562149253,0.7371772511835897,0.0388310121136883,2359.009234485149
1536,256,2388.96063072825,1762832,177587,35962880,32475584,0.3683816138935284,0.057850150403111,0.34651750272867404,1536,0,1,1,6807.763578777352,0.921701570949988,0.0092408221670739,2359.009234485149
1536,512,1674.402743364466,2093730,189924,36749312,33527648,0.5186696055302328,0.1911899812457186,1.0,1536,0,1,1,2133.3827978809904,0.9250823050535474,0.0096948258169915,2359.009234485149
2048,1024,716.8558368775433,1830665,148881,43700224,38209272,0.42266464264061354,0.2914032417732859,1.0,2048,0,1,1,855.0281434883968,0.8379553362692331,0.027086424414181,2359.009234485149
2048,128,1456.467181137518,1636716,193005,35700736,33243776,0.7374035558822806,0.2691737190441087,0.4709024502786306,2048,0,1,1,5009.549712662008,0.9220971641037116,0.0067740916599784,2359.009234485149
2048,1536,318.5736826197951,1563827,100276,51695616,37021024,0.4042806454034981,0.3421979014939992,1.0,2048,0,1,1,513.6899878790144,0.7555917336581752,0.038920776974427,2359.009234485149
2048,2048,268.1470804236196,1300620,112731,51171328,38395536,0.30756155091577253,0.2429909949990842,1.0,2048,0,1,1,383.2214474581374,0.7356958620457579,0.0636104650703262,2359.009234485149
2048,256,2743.228145143936,1772723,162869,36225024,32406696,0.3992975457938588,0.0960023159723576,0.43600602782840525,2048,0,1,1,5410.496837015203,0.919843369033759,0.0120884720358295,2359.009234485149
2048,512,1863.4668788639417,1807856,138554,36225024,32912616,0.39943912845815316,0.1937302799494836,1.0,2048,0,1,1,2216.3355951874905,0.92451820653842,0.0116179788299952,2359.009234485149
256,1024,721.9397554276653,1597457,146122,43438080,36290880,0.48964314802494374,0.3130445882571819,1.0,256,0,1,1,842.9164260193498,0.8469264165960666,0.0282134486917279,2359.009234485149
256,128,1396.9996620130898,1824197,194389,35700736,32568800,0.3629730929027365,0.0452778994169705,0.2588663436814765,256,0,1,1,9112.846424670042,0.9217337963076372,0.0102236428095301,2359.009234485149
256,1536,517.2487502288249,1772098,146566,52219904,42460824,0.45035110646448984,0.3381765216910519,1.0,256,0,1,1,682.302168138027,0.7405488682984218,0.0489001611284111,2359.009234485149
256,2048,345.5019064977227,1470215,137080,51957760,37519056,0.40993885331611923,0.3834805874614185,1.0,256,0,1,1,486.4397957411516,0.7408631958186664,0.0463783475544395,2359.009234485149
256,256,4307.362706531245,1788562,143056,35700736,32669528,0.25817519325905147,0.0630468349475877,0.2817177147553927,256,0,1,1,8373.663106466018,0.923488640593023,0.0101749715605284,2359.009234485149
256,512,1778.651276857765,1850769,201893,35700736,32617272,0.4637160514936204,0.2138364667907424,1.0,256,0,1,1,2079.2254622380015,0.9262376394291072,0.0087374535584838,2359.009234485149
512,1024,751.8203694651718,1588124,116021,43438080,37539448,0.4079831765411461,0.2572690683149886,1.0,512,0,1,1,888.0393878302075,0.8381561872134216,0.0235714825871914,2359.009234485149
512,128,2229.4053155899574,1967488,220856,36487168,32808048,0.40952031779386033,0.0791575594647099,0.27296063541207166,512,0,1,1,8642.30562375377,0.9179729704153486,0.0111319992136114,2359.009234485149
512,1536,526.0702044712023,1743509,133561,52219904,42592616,0.4393459358381014,0.3370594588107204,1.0,512,0,1,1,659.1370544823766,0.7639643890900489,0.0526326744136717,2359.009234485149
512,2048,470.0334456874546,1663087,134929,52219904,36949560,0.3580689353134363,0.2822686721437496,1.0,512,0,1,1,511.4665559073974,0.7537040746086425,0.0332731968984382,2359.009234485149
512,256,4293.530476082069,1906640,195300,36487168,33648424,0.3004696736797329,0.0572580188389473,0.25454866030299284,512,0,1,1,9267.419564012584,0.9195148469083316,0.012542652308169,2359.009234485149
512,512,1277.3490668769266,1711733,160582,35700736,32909064,0.47525649877060583,0.2473540520374341,1.0,512,0,1,1,1638.7834813135314,0.9275507113545988,0.0088818846806765,2359.009234485149
