cpu,memory,duration_std,userDiff,sysDiff,heapTotal,heapUsed,avg_cpu_util,cpu_util_std,slo_preservation,total_cpu_shares,cpu_shares_others,num_containers,arrival_rate,latency,memory_util,memory_util_std,slo_duration
1024,1024,159.38547735831844,124793,36767,25530368,14456648,0.5009243290605682,0.2115793103718065,1.0,1024,0,1,1,500.75005541131907,0.6704326329742617,0.0936492770478134,532.4784294583334
1024,128,189.95878416391383,57322,6185,32518144,28541552,0.31151525875640856,0.137620696962657,0.770409334469292,1024,0,1,1,691.1630033988868,0.8526432103573146,0.0505891214016047,532.4784294583334
1024,1536,117.51557206416072,113779,40241,52060160,33457664,0.42692406503307007,0.2121629169783576,1.0,1024,0,1,1,439.19115739758536,0.5493360039823536,0.1151359599153898,532.4784294583334
1024,2048,147.71674279341678,135133,50803,65331200,44904992,0.4672391981141303,0.2428895466561774,1.0,1024,0,1,1,405.5685309426578,0.5919441133896574,0.1128472295808674,532.4784294583334
1024,256,317.05229721431124,257901,27010,18579456,14249840,0.24959945890496313,0.067564238996318,0.6075988794518185,1024,0,1,1,876.3650616649269,0.8476805270589589,0.0461706675813536,532.4784294583334
1024,512,200.0724540354605,200340,53674,18579456,14293560,0.3538026278887249,0.1270174110109344,0.7387310188382196,1024,0,1,1,720.8015040382986,0.8504258565021315,0.0461994110763642,532.4784294583334
128,1024,139.0815029703747,113715,27665,39952384,28469616,0.5028611805625174,0.2005362225620915,1.0,128,0,1,1,472.5850210505467,0.620488509158363,0.0749780634311072,532.4784294583334
128,128,318.3595017798983,182959,56178,18841600,14301992,0.25562749731226986,0.0757873779510458,0.5741485018746434,128,0,1,1,927.4228317582408,0.8559679277673603,0.0441249359376687,532.4784294583334
128,1536,166.19674648191923,132961,21625,45649920,26285136,0.4732980558313709,0.2142795629121883,1.0,128,0,1,1,475.6734442595528,0.5367506716390451,0.1094500594792019,532.4784294583334
128,2048,122.44396434464817,119907,23053,34050048,14588064,0.3898676671914692,0.1448654105780313,1.0,128,0,1,1,503.9124847684432,0.5136712468002042,0.0950727375706924,532.4784294583334
128,256,222.0925530635027,37735,20210,32178176,28796816,0.3420884133235493,0.1570041440167666,0.684841147888307,128,0,1,1,777.5210807648157,0.8710225262896788,0.0395318297720156,532.4784294583334
128,512,245.4499454019717,138088,23408,27320320,23193872,0.32008739378643986,0.0582027514246515,0.9005374430556762,128,0,1,1,591.2896055177271,0.8655567863435513,0.0389047664733754,532.4784294583334
1536,1024,117.01686074074406,112451,40626,25530368,14458176,0.4547020122518711,0.1804431935614995,1.0,1536,0,1,1,416.2175280652573,0.6639419503770151,0.0759228251941605,532.4784294583334
1536,128,158.8071734023977,113643,32110,27844608,23395384,0.3168973667975202,0.125662376195744,0.8351696253532668,1536,0,1,1,637.569199470229,0.8589725963895514,0.0436995148368163,532.4784294583334
1536,1536,140.60502780294686,52222,16172,42467328,27649192,0.4726885366905231,0.215922006599778,1.0,1536,0,1,1,411.5451958928722,0.5515161334890011,0.103260846027195,532.4784294583334
1536,2048,134.59734263559335,60413,8020,42467328,27479728,0.39959818196327923,0.2141364560530834,1.0,1536,0,1,1,428.94339946360117,0.5451496808790869,0.1031064988512669,532.4784294583334
1536,256,424.8509158456741,49164,11987,32120832,28410152,0.31853374310366694,0.1312561623058575,0.6359680244431194,1536,0,1,1,837.2723297285175,0.8445884117964779,0.0531468049463406,532.4784294583334
1536,512,170.00854831161965,89098,46322,27320320,23163424,0.41097258650768426,0.1900463602248628,0.9824576310254525,1536,0,1,1,541.9861504893115,0.8494294459087998,0.0484807668627088,532.4784294583334
2048,1024,139.91188079286658,186887,16964,25530368,14439264,0.42152117454154125,0.1544942439684436,1.0,2048,0,1,1,466.6402336020986,0.6430314828146175,0.0727510469512768,532.4784294583334
2048,128,325.9439558537612,50766,16649,32518144,28516136,0.3029493903510752,0.0897339143350658,0.6982265702460007,2048,0,1,1,762.6155350558049,0.8604256021520765,0.0375641302351836,532.4784294583334
2048,1536,135.13662798670285,71258,29084,45117440,25823296,0.39719213419028004,0.1946954798997885,1.0,2048,0,1,1,477.4289459561842,0.512150708469517,0.092350797818941,532.4784294583334
2048,2048,127.08132693673136,127151,58588,34574336,14593744,0.4740978896072969,0.1770572761174034,1.0,2048,0,1,1,469.8120489972208,0.4953031412661515,0.0920073086505146,532.4784294583334
2048,256,298.04830992392147,48553,13748,31993856,28562160,0.2644033445485662,0.0637983155406235,0.6140673670966771,2048,0,1,1,867.1335719660567,0.8578546935256691,0.0393897413421406,532.4784294583334
2048,512,215.25308008718272,136739,35340,32210944,28220088,0.3644297752357066,0.1092959949818027,0.8097508773508847,2048,0,1,1,657.5830225715181,0.8231537776880764,0.0525038482640147,532.4784294583334
256,1024,137.83470648585038,117476,18927,39952384,28469992,0.5048980087777669,0.2391487099023009,1.0,256,0,1,1,467.10875124550887,0.6405549672248578,0.085914379768272,532.4784294583334
256,128,512.5995512261844,131507,53500,36327424,32140880,0.2700547095004157,0.1149041709150511,0.5256576855606059,256,0,1,1,1012.9756381102909,0.8484818089959504,0.0537372148092314,532.4784294583334
256,1536,161.12434944642152,44719,52822,45117440,25746696,0.42612284249701876,0.2027642625945454,1.0,256,0,1,1,405.7082520842064,0.5385631743588775,0.0977102909959356,532.4784294583334
256,2048,151.12319152119957,109124,25072,49680384,29657960,0.4436760477264618,0.2395533969977981,1.0,256,0,1,1,462.07675963738905,0.5558585056193452,0.1133543491894736,532.4784294583334
256,256,387.4609846974705,256875,55294,37212160,33287496,0.2709891393700204,0.1456530762333399,0.5036480174425747,256,0,1,1,1057.2431758237703,0.8612963563508685,0.0401712101860601,532.4784294583334
256,512,203.31534619101905,120226,42997,30441472,25986360,0.3564258895094199,0.094756940873583,0.7809602552398481,256,0,1,1,681.82526048627,0.8493816375453804,0.0463686250983623,532.4784294583334
512,1024,131.30951439712624,53755,3585,31023104,21600136,0.5110631469305351,0.1911980275344683,1.0,512,0,1,1,472.6508056438696,0.7115579974500965,0.0872732217210111,532.4784294583334
512,128,189.62446839833888,53352,12444,31993856,28584064,0.2945548008699222,0.1308796959554665,0.7973766815414238,512,0,1,1,667.787811939759,0.8566548682527548,0.0518559680703036,532.4784294583334
512,1536,141.14560101562282,80630,28656,35098624,14675744,0.45856089873248146,0.2388282832043212,1.0,512,0,1,1,438.2701373975416,0.523050356445418,0.1024041472798115,532.4784294583334
512,2048,135.16505694065975,151310,32718,34312192,14592904,0.40155641229524525,0.1859143227986316,1.0,512,0,1,1,460.60220545607274,0.5751800175082703,0.1108942839330407,532.4784294583334
512,256,298.8786491982015,116664,25486,27582464,23564008,0.3143956172994219,0.0788949312712039,0.6326853704376888,512,0,1,1,841.6164721652522,0.8510208918818455,0.0530642319940934,532.4784294583334
512,512,191.91228570614743,218060,31188,37474304,33286160,0.34977631701605966,0.1234315383288294,0.7632898263405411,512,0,1,1,697.609755931384,0.8517204741776319,0.0479219752514809,532.4784294583334
