cpu,memory,duration_std,userDiff,sysDiff,heapTotal,heapUsed,avg_cpu_util,cpu_util_std,slo_preservation,total_cpu_shares,cpu_shares_others,num_containers,arrival_rate,latency,memory_util,memory_util_std,slo_duration
1024,1024,421.79802267155856,1805250,157515,58126336,47123640,0.7127321744408326,0.2916550998343991,0.7308356325365435,1024,0,1,1,880.6169442692219,0.8679549180268362,0.0658874519516661,643.5862414873949
1024,128,746.7821327890266,2134109,215689,50388992,47200848,0.7712397804130064,0.2538046302220025,0.4692971593646303,1024,0,1,1,1371.3832028276715,0.9333515660884972,0.0409577599230128,643.5862414873949
1024,1536,284.5880536496226,1641809,145272,68218880,47314192,0.6636509038840444,0.2932564053637302,0.9719433165396819,1024,0,1,1,662.1643778350102,0.7898991135786847,0.0791720419940999,643.5862414873949
1024,2048,238.90155772396477,1628712,112015,55627776,32871320,0.6594289930673362,0.3077108065231948,1.0,1024,0,1,1,608.3227593187551,0.7870059412063906,0.0847582474578705,643.5862414873949
1024,256,398.0547350731271,1748254,159657,50388992,46955248,0.7770661708113085,0.2792427392990632,0.6907938567730716,1024,0,1,1,931.6617905286547,0.9336143245020482,0.0574771532830551,643.5862414873949
1024,512,753.9510816287398,1817769,200248,50388992,46962856,0.7237639671869669,0.2480069059320921,0.4930846282815145,1024,0,1,1,1305.2247110813505,0.9121804026513104,0.0826300707460379,643.5862414873949
128,1024,406.1440959796536,2005444,120974,58126336,50173120,0.7890902074893641,0.3094880866215117,0.7193010144106076,128,0,1,1,894.7384038026792,0.8598659084316524,0.0572155409820861,643.5862414873949
128,128,628.2549633303686,2095276,232120,50913280,47333256,0.7702707567952931,0.2755785353316967,0.49961108206663235,128,0,1,1,1288.174471281165,0.9328615161341236,0.0402201620412891,643.5862414873949
128,1536,199.61200705874396,1653139,123985,60354560,48372000,0.6772927580180321,0.3574382338537968,0.978370592883976,128,0,1,1,657.8143764422375,0.7985502978632407,0.0609350396116656,643.5862414873949
128,2048,237.8911939453527,1514755,110589,62713856,50736800,0.6613301343969683,0.297294391860498,0.913179878513368,128,0,1,1,704.7748823979081,0.7641497958298509,0.0810366964108686,643.5862414873949
128,256,356.63105098155575,2025291,189882,52224000,47022032,0.7883660491672376,0.3340143733028805,0.6686236680584566,128,0,1,1,962.5537835898552,0.9249956471021328,0.0550718597292497,643.5862414873949
128,512,621.478522416666,1853536,113408,51175424,47041664,0.7630253540879435,0.2376831247142425,0.5402370914465261,128,0,1,1,1191.3033215919024,0.9370890691490836,0.0396950779407125,643.5862414873949
1536,1024,392.73666219294125,1848629,192974,59174912,47105808,0.8195779070310142,0.3098681470248352,0.7797881569244384,1536,0,1,1,825.334721709243,0.8517976783896423,0.0961219686306943,643.5862414873949
1536,128,822.0031052982089,2075869,200380,51699712,46824056,0.7812870874992303,0.2637820549649646,0.3965099371470363,1536,0,1,1,1623.1276474887845,0.9262805700094758,0.0424870615295231,643.5862414873949
1536,1536,258.34005015201456,1652866,138459,68481024,47996792,0.6847561070387032,0.266705285091717,0.9174733779346755,1536,0,1,1,701.4767479533542,0.7579720689604984,0.1207965181524032,643.5862414873949
1536,2048,304.30065982693696,1594269,113420,62713856,50720600,0.6803456151969183,0.3105407800685451,0.959988190314224,1536,0,1,1,670.4105821101151,0.7886530330170091,0.1119029423947122,643.5862414873949
1536,256,542.0899090750132,1952704,164051,51437568,46952472,0.7620536481184791,0.3164715327256543,0.5634483415350913,1536,0,1,1,1142.2275904370777,0.9269401383194776,0.0633346919697517,643.5862414873949
1536,512,645.5570626946696,1943031,201114,51699712,47056128,0.7481501934986577,0.2694644732328166,0.5086729601231545,1536,0,1,1,1265.2259741339044,0.9429240056073294,0.021823752278216,643.5862414873949
2048,1024,400.9969077851433,1907653,106263,45797376,32615360,0.7582744801101076,0.2935916725123033,0.7312507071065348,2048,0,1,1,880.1170860182591,0.8466120685926898,0.0700638894062867,643.5862414873949
2048,128,960.7154721876732,2428859,189792,50126848,47018040,0.8038734194850635,0.2786705663272399,0.37102121844977715,2048,0,1,1,1734.634596308171,0.9208226939617782,0.0518128553094159,643.5862414873949
2048,1536,227.02653668375416,1616108,155193,59830272,47855496,0.6713941090133568,0.3202840597799722,0.9426166555430631,2048,0,1,1,682.7656160145082,0.7619925596916657,0.110306477861222,643.5862414873949
2048,2048,230.389343157226,1622563,128020,56676352,32877408,0.6423930606573102,0.263080810002782,0.9380664579271208,2048,0,1,1,686.0774479769275,0.7780945539889024,0.0871406107837084,643.5862414873949
2048,256,599.7535893462195,1987860,210194,50126848,46913024,0.8012286191712115,0.3296025304109649,0.5063882089309768,2048,0,1,1,1270.9344928193595,0.93022307837903,0.0509374467553488,643.5862414873949
2048,512,581.7821366459831,2071850,204926,50126848,47108128,0.7924673190003207,0.300533373132941,0.5397916911820236,2048,0,1,1,1192.2863059971974,0.9233414348358656,0.0706858255874503,643.5862414873949
256,1024,382.7993929126303,1764637,163871,59174912,47140152,0.6987501791149732,0.3024908560568243,0.7602466336750161,256,0,1,1,846.5492814829217,0.8379921257834623,0.0885346113162748,643.5862414873949
256,128,817.8458881119293,1991962,203317,51437568,46814352,0.8340240010049057,0.2605420931121153,0.3849984446734684,256,0,1,1,1671.659328476624,0.91806918469928,0.0545184311661944,643.5862414873949
256,1536,257.5851963026082,1694480,129631,59568128,48377576,0.6320515541852585,0.2629690763859584,0.989348440567594,256,0,1,1,650.5152432626935,0.7683810899352894,0.0860744864076439,643.5862414873949
256,2048,308.3210397259657,1567672,167687,67170304,47230936,0.730799445535177,0.2526101740707155,1.0,256,0,1,1,589.5034145454566,0.7822433154297185,0.0572732720432515,643.5862414873949
256,256,579.8486790378968,2040876,158995,51175424,46804928,0.7492126968774404,0.2787241857893954,0.5526801016671089,256,0,1,1,1164.4823823873448,0.937389300606935,0.0437172459588471,643.5862414873949
256,512,884.2137881024255,2242588,187696,51961856,47039424,0.7994009724840456,0.1962260712677422,0.405579582622864,256,0,1,1,1586.8309674894213,0.9369594480361468,0.033119654294243,643.5862414873949
512,1024,436.1231893718246,1843677,146336,58388480,47141328,0.6771185760748142,0.2864757546099803,0.7458981608476519,512,0,1,1,862.8339299778029,0.8857519684589438,0.0370994991070552,643.5862414873949
512,128,1196.1273527861988,2344442,201211,51961856,47064272,0.7643396866529708,0.1835495976356842,0.35714838500721136,512,0,1,1,1802.013584562058,0.9013502053649912,0.0868642522276079,643.5862414873949
512,1536,244.4394952273943,1623667,108553,59568128,47860480,0.6728631005105546,0.2595124707282423,0.9014781747127485,512,0,1,1,713.9232646341886,0.7604797285875268,0.0843716457426167,643.5862414873949
512,2048,307.8482003389391,1767495,122019,62451712,51415728,0.6611894861617843,0.2171674771147441,0.9719319483701441,512,0,1,1,662.1721228185163,0.773477262821656,0.0982869025177769,643.5862414873949
512,256,607.4396971326034,1925585,190419,51175424,47424464,0.8230057168692656,0.2400105084724959,0.5382047921020887,512,0,1,1,1195.8017671557948,0.9393059372768786,0.0260945739315497,643.5862414873949
512,512,885.2749628188128,2100858,172574,51175424,46878480,0.7648278135248453,0.2103789209104996,0.4136745168245467,512,0,1,1,1555.7792789067582,0.919390241362798,0.0560322884086397,643.5862414873949
