cpu,memory,duration_std,userDiff,sysDiff,heapTotal,heapUsed,avg_cpu_util,cpu_util_std,slo_preservation,total_cpu_shares,cpu_shares_others,num_containers,arrival_rate,latency,memory_util,memory_util_std,slo_duration
1024,1024,38.46830269093947,138921,28,25792512,14958112,0.9333464884753799,0.121735122194057,0.6993667733261524,1024,0,1,1,88.6575341649583,0.6554001015956789,0.0445463166953601,62.0041336
1024,128,39.99347143450485,54385,7744,24465408,21282120,0.8269069042968867,0.1485945514515955,0.7419322862470311,1024,0,1,1,83.57114894357802,0.8743245610381198,0.0110440944786347,62.0041336
1024,1536,40.73268368099199,46155,4608,39415808,24750544,0.9640623533273727,0.0855485780290427,0.7336962477282826,1024,0,1,1,84.50926904966624,0.537770047438467,0.056872304046008,62.0041336
1024,2048,24.632773572602897,61751,24,39411712,24390984,1.0506225124264699,0.2342183993049119,1.0,1024,0,1,1,57.328460116931964,0.549267712015283,0.0649249806728129,62.0041336
1024,256,33.434630492902656,69271,12215,19103744,15299048,0.9678730947738693,0.1155557379911443,0.8086615205371116,1024,0,1,1,76.67501423687993,0.8449074667413055,0.0259014400567,62.0041336
1024,512,47.76750579495245,112311,12081,18841600,15263536,0.9215805767900485,0.0806514630481821,0.7162412521593664,1024,0,1,1,86.56878309238162,0.8231515175185298,0.0187486118063136,62.0041336
128,1024,42.88453192447513,56361,7470,25268224,15459648,0.8239868510386948,0.1219445061721728,0.554294093427052,128,0,1,1,111.86143661868203,0.661028700579323,0.0409861759848861,62.0041336
128,128,28.58812272798493,36990,8159,19103744,15312064,0.9133025885923153,0.1134431774786398,0.7818894527480028,128,0,1,1,79.30038368222301,0.8384257369917918,0.0276524981603329,62.0041336
128,1536,40.68946737593412,91433,3872,39415808,24649640,0.9341767103048039,0.1159056787655936,0.9028232558656533,128,0,1,1,68.67804212746894,0.53376171919884,0.05279810208226,62.0041336
128,2048,19.151316493005904,69638,7554,39153664,24526424,1.0218921919510222,0.0335169580581784,1.0,128,0,1,1,45.14362606543795,0.5500961690109325,0.0632733687604076,62.0041336
128,256,29.306669476689493,57512,13018,18841600,15328608,0.9805512631871313,0.0839469793433566,1.0,128,0,1,1,54.796768115744214,0.8251863499370267,0.0143285026687676,62.0041336
128,512,27.037092077685376,98338,5115,18841600,15380504,0.9898793497436651,0.0672506616110753,0.9900948376864912,128,0,1,1,62.6244388314176,0.8237779739675399,0.0165334093259132,62.0041336
1536,1024,35.748059227888504,148093,28,25792512,14604160,0.9607637570377927,0.1143323485723014,0.9961745218266086,1536,0,1,1,62.24223993031642,0.6587899696871744,0.0522095527217576,62.0041336
1536,128,46.39741996182868,62049,0,18841600,15263576,0.9100086646292816,0.1271842900828988,0.6766928862403979,1536,0,1,1,91.62817411083701,0.8300686484558829,0.019919514397504,62.0041336
1536,1536,32.235739703197595,94279,17,39153664,24751416,0.9216065647407516,0.0779329122302462,0.7459183145442465,1536,0,1,1,83.12456255734156,0.5340711072244448,0.0560331601361713,62.0041336
1536,2048,19.50855004903557,93199,19,38105088,27509336,1.0256555501021853,0.041855968717039,1.0,1536,0,1,1,36.817941548812975,0.5940258060850525,0.1001375810026881,62.0041336
1536,256,40.09327774856887,103614,797,19365888,15091328,0.8240834804879824,0.1600072489719281,0.7287411340476269,1536,0,1,1,85.08389427067489,0.8385601730677271,0.029878632170215,62.0041336
1536,512,34.202657961197964,124984,23,18841600,15367928,0.9024260474057015,0.1042609027594802,0.7776614320726238,1536,0,1,1,79.7315271695377,0.8192627733208411,0.0179896674347048,62.0041336
2048,1024,56.49176385035349,126492,207,30896128,24627616,0.8649518188294264,0.2074638861107089,0.5780312904269282,2048,0,1,1,107.26778052829,0.6690730752267495,0.0590964868583953,62.0041336
2048,128,40.59262752747272,59754,12651,19365888,15077632,0.9583714049569511,0.0921615731714576,0.8428487928787699,2048,0,1,1,73.56495509499803,0.8373004272038802,0.0321666525376451,62.0041336
2048,1536,32.6791547416498,93878,441,39677952,24507400,0.964852987523631,0.1718447023874322,0.9018695312141781,2048,0,1,1,68.75066897594871,0.5367494643015396,0.0587706773532286,62.0041336
2048,2048,17.063016709103106,49353,4155,39415808,24558184,1.0150425947647028,0.0153292246595846,1.0,2048,0,1,1,48.4489482189668,0.540641348580804,0.0564659846402918,62.0041336
2048,256,33.56123243364906,69371,16,19103744,15069960,0.9769420693397772,0.0603207781250335,0.7675277683422845,2048,0,1,1,80.78422196231057,0.8290088339098866,0.0211406765531435,62.0041336
2048,512,23.22177081537903,73316,15497,19103744,15051272,0.9888732328183796,0.0562149158336527,1.0,2048,0,1,1,61.95617906401838,0.8231442645623334,0.0197946581541849,62.0041336
256,1024,47.43070688064586,88234,3,26054656,15746992,0.877041008464623,0.2080488160849493,0.7247142844627603,256,0,1,1,85.55665995457015,0.6756595260102561,0.0646376531521133,62.0041336
256,128,24.16337590934095,53551,987,25251840,21472104,0.9223164189182378,0.1095816895702788,0.949636636938928,256,0,1,1,65.2924826066789,0.8500609887817705,0.0266916985833595,62.0041336
256,1536,37.19584720511809,58072,3549,39153664,24863752,0.945816680095302,0.0734357848879629,0.7922872810643744,256,0,1,1,78.25966045637186,0.5354596464023632,0.0524030158617412,62.0041336
256,2048,14.899997008691054,11350,16139,39415808,24533416,1.0894149671089888,0.3856294657174695,1.0,256,0,1,1,41.11027279801522,0.5460204296316483,0.0643534660968992,62.0041336
256,256,47.807301911037314,37683,12067,24989696,21517976,0.8567372037256953,0.1735333786522371,0.6781058786601387,256,0,1,1,91.43724534952156,0.8364829642437137,0.0255280802940418,62.0041336
256,512,38.270220366268624,81730,233,18841600,15395744,0.927057858446607,0.0808746416263561,0.6176369352288062,256,0,1,1,100.38929031507855,0.8486891847914144,0.0248391515204413,62.0041336
512,1024,45.14966684019157,45919,4286,25530368,15361344,0.8698628934515642,0.1341450506958523,0.578390438417765,512,0,1,1,107.20117325870297,0.6747094688944915,0.0592594252556523,62.0041336
512,128,61.83040139837134,66659,346,24465408,20895816,0.8106129021924694,0.0964431864356918,0.51888101899548,512,0,1,1,119.4958599951025,0.87029106712303,0.0170503186496336,62.0041336
512,1536,49.54321565630566,125228,4196,39153664,24755816,0.9241684753508804,0.1116880627577709,0.8229210104896164,512,0,1,1,75.34639753955142,0.5358082943783029,0.0516320992518799,62.0041336
512,2048,26.65441823811674,67307,19,39415808,24525944,1.0145415070919546,0.0823280675888327,1.0,512,0,1,1,59.56646720104934,0.5318183125604182,0.0550616324723959,62.0041336
512,256,26.98146959424598,81934,15051,18841600,15269032,0.9481076686257,0.1037194030802415,0.8645243758825945,512,0,1,1,71.7205151522765,0.8445909493332104,0.0257930812420027,62.0041336
512,512,34.18793232131599,114562,134,24985600,21522616,0.9452350056689909,0.0726981999550761,0.6738139828789168,512,0,1,1,92.01965998847791,0.853783677957856,0.0259214420413286,62.0041336
