cpu,memory,duration_std,userDiff,sysDiff,heapTotal,heapUsed,avg_cpu_util,cpu_util_std,slo_preservation,total_cpu_shares,cpu_shares_others,num_containers,arrival_rate,latency,memory_util,memory_util_std,slo_duration
1024,1024,117.0557225373857,360111,48901,50442240,30036864,0.9025848051180808,0.1433585284351682,1.0,1024,0,1,1,491.8234230001888,0.7740084557545956,0.0922826338817603,719.210978
1024,128,489.6881615700429,383751,58982,36413440,29567312,0.4259932575561031,0.0780953854329392,0.4170871298392501,1024,0,1,1,1724.3662691706445,0.86258430474272,0.0575485528568844,719.210978
1024,1536,92.81153037647913,411265,47259,59756544,45503728,1.1230709546723365,0.1448631189026793,1.0,1024,0,1,1,306.3620479841565,0.7705745028549649,0.1004752606467796,719.210978
1024,2048,65.1631325213816,375731,77506,58970112,46080800,1.3751965998261486,0.1502527243609246,1.0,1024,0,1,1,234.5437281851212,0.7650020736106176,0.1072522963619294,719.210978
1024,256,377.6484903541659,384897,66967,32481280,30150472,0.5523495323182775,0.2288285392104223,0.6212033272149099,1024,0,1,1,1157.770646890279,0.8668499263169901,0.0627799739224231,719.210978
1024,512,209.13035683962823,446148,45173,38510592,29578120,0.562945886771745,0.1384671143619375,0.7553610873509293,1024,0,1,1,952.1419491203753,0.8784729337402372,0.0611274054628642,719.210978
128,1024,138.83088061649988,392925,68945,43888640,29850696,0.842793590074042,0.1238645647166478,1.0,128,0,1,1,521.6941697585897,0.752906681689777,0.1063481165853918,719.210978
128,128,897.7964378632934,451815,89475,32743424,29628616,0.42812633214673146,0.231230248478949,0.34805525896775924,128,0,1,1,2066.3700934529516,0.8862320069772434,0.0538785158565117,719.210978
128,1536,60.299360958516445,346056,33875,57921536,44995672,1.4856960159585915,0.2815285069029016,1.0,128,0,1,1,231.32416726733692,0.7765766371266529,0.0877314343711525,719.210978
128,2048,38.64026272374052,345232,55858,58183680,45055520,1.6213220617956046,0.3017214703350774,1.0,128,0,1,1,164.20338591854602,0.6735394743353029,0.1568329291775565,719.210978
128,256,250.6825869857358,427551,38912,34316288,29695192,0.2810697334972134,0.0343041475385162,0.3348758121904332,128,0,1,1,2147.6946134019604,0.8625029546480297,0.0710585713373078,719.210978
128,512,271.936529302906,482404,84636,35364864,29637080,0.6645250659462264,0.2125054520772158,0.7671812411024914,128,0,1,1,937.4720593616771,0.8455679458958191,0.1021085432629394,719.210978
1536,1024,107.78515045187702,429071,62542,51499008,44438400,0.8524177185019736,0.1072650570203068,1.0,1536,0,1,1,495.6832814642165,0.7522170991850701,0.1109075792370024,719.210978
1536,128,475.5528024430705,483984,86227,32743424,29710952,0.40135493147272716,0.1518516794405026,0.3979422878914807,1536,0,1,1,1807.3248304692102,0.8759783166697658,0.0663564984426109,719.210978
1536,1536,78.23711387692676,388084,45698,60280832,44928808,1.1428719354477836,0.1198825618866363,1.0,1536,0,1,1,323.00265151535285,0.7029888804418201,0.1456937294338601,719.210978
1536,2048,38.67622086185616,286031,72335,44806144,30556960,1.2947091604577001,0.1875376089574747,1.0,1536,0,1,1,234.19859430138706,0.7313040439351454,0.125743105201905,719.210978
1536,256,508.3803176071389,509526,55301,34316288,29796216,0.4520244129945678,0.1735065565915413,0.48165147375451084,1536,0,1,1,1493.2186802911538,0.8981234319054338,0.0235535300547978,719.210978
1536,512,170.9009617105435,456489,38871,33005568,30035680,0.5023405429893101,0.0874871060103022,0.6148529085755813,1536,0,1,1,1169.7285122488615,0.8621645239601226,0.0772870926852146,719.210978
2048,1024,120.80833313099944,461189,46843,52023296,44766312,0.9233706732422415,0.1028902265929826,1.0,2048,0,1,1,483.9689111336289,0.7821149857406968,0.10097859947094,719.210978
2048,128,404.51722031573655,478867,53567,33529856,30053280,0.5093045673861161,0.2303339138239795,0.49134340039576324,2048,0,1,1,1463.7644006629494,0.836082860195083,0.0731387407824152,719.210978
2048,1536,101.08144759101762,464373,54217,60018688,46072632,1.1994801905601835,0.1782348597969224,1.0,2048,0,1,1,315.2245805598672,0.6951080066028107,0.1418639957325022,719.210978
2048,2048,62.90156479433992,454616,46689,64212992,44893760,1.4312507370072771,0.2261977078174292,1.0,2048,0,1,1,223.43627615303126,0.7361706871642404,0.1232068544094448,719.210978
2048,256,166.577645003785,485943,58251,33005568,29713624,0.6262144697086893,0.1261184811620019,0.7785334908643541,2048,0,1,1,923.8022338660187,0.8802462460480636,0.0457280579681399,719.210978
2048,512,175.50401399010914,448353,51753,40083456,30207560,0.6230352013792891,0.1842091861705045,0.8163920745429114,2048,0,1,1,880.9627143951366,0.871115657754579,0.0768104353089681,719.210978
256,1024,106.85808961913388,433264,71933,42577920,30049608,0.904396290972862,0.1180075126648591,1.0,256,0,1,1,484.32979827844304,0.7767287560209772,0.092124142447304,719.210978
256,128,1251.1913400063115,399349,45079,34316288,29594344,0.5584197222768682,0.3874904369316442,0.3499756574775012,256,0,1,1,2055.031436139914,0.8780701282784129,0.0716113593383078,719.210978
256,1536,58.76346275106274,400094,52920,58970112,45622800,1.3866311956426896,0.1900239851241505,1.0,256,0,1,1,235.10083366315584,0.7160345898286741,0.139183935595881,719.210978
256,2048,40.58853352238929,341651,52338,58445824,44727224,1.5962445657089679,0.2978876517106675,1.0,256,0,1,1,155.182165630417,0.6531623769148377,0.1508795649007052,719.210978
256,256,806.1848018100662,481524,50328,33792000,29735632,0.4701212293658756,0.2410236380028864,0.4479508638151608,256,0,1,1,1605.5577432634886,0.8606216214052723,0.0570949979603561,719.210978
256,512,189.9120028301306,525421,44332,46907392,44556688,0.5225996861032833,0.1154027208120098,0.6631077259585068,256,0,1,1,1084.6065425650067,0.9122710489038384,0.0466512197937638,719.210978
512,1024,95.04385356928046,426604,61458,48607232,31062632,0.8182943460736734,0.1136213983431994,1.0,512,0,1,1,545.8431597435183,0.7622034429394865,0.1196256296226916,719.210978
512,128,832.4076934815135,458663,107719,39297024,29863016,0.4900310618054493,0.4134839985812023,0.387203665914383,512,0,1,1,1857.4487829333443,0.84286163995966,0.0706187756833522,719.210978
512,1536,78.52631463887091,331530,59819,62377984,44581928,1.2082151120068738,0.2046931910460069,1.0,512,0,1,1,310.18027936193374,0.7586040196734194,0.0813215270135321,719.210978
512,2048,63.35830691332161,395072,52176,58445824,46186216,1.334804848543182,0.2549514333502239,1.0,512,0,1,1,246.76668412049304,0.7513601684826794,0.1223598789472832,719.210978
512,256,446.912049158298,449693,73270,33529856,29737624,0.42632468732393153,0.1393743506532174,0.47268875515257164,512,0,1,1,1521.5318117052675,0.9064603053666012,0.0235496357358151,719.210978
512,512,188.48865723459195,498382,59384,46907392,44009704,0.4972681635183082,0.0758996612399758,0.6410846478908564,512,0,1,1,1121.8658571316223,0.8795987213153683,0.0632476782670814,719.210978
