cpu,memory,duration_std,userDiff,sysDiff,heapTotal,heapUsed,avg_cpu_util,cpu_util_std,slo_preservation,total_cpu_shares,cpu_shares_others,num_containers,arrival_rate,latency,memory_util,memory_util_std,slo_duration
1024,1024,797.4610515578196,2158471,163094,43962368,34078640,0.8959100201051491,0.205030268268955,1.0,1024,0,1,1,876.7991799572848,0.8133880019889006,0.088050618148065,2245.523718551402
1024,128,2845.65658521258,1905679,232659,37273600,34585048,0.3399241947062968,0.1316621202172057,0.2181465253742923,1024,0,1,1,10293.648797286909,0.935119751730126,0.0086527793614532,2245.523718551402
1024,1536,645.1280096512152,2086233,170220,62967808,39571152,1.0594633004278653,0.2269964844931578,1.0,1024,0,1,1,583.4242153791969,0.7289757107374555,0.1183501876209522,2245.523718551402
1024,2048,357.343373896675,1635318,142780,82636800,51878168,1.2127989116413687,0.2613827042061133,1.0,1024,0,1,1,351.4960384454904,0.7732796763407425,0.0999792985232795,2245.523718551402
1024,256,3528.9525833030584,2113478,170593,38060032,35597104,0.486683113666497,0.1844937726630816,0.34704673634863015,1024,0,1,1,6470.37843426262,0.9185337265260064,0.0639310930810128,2245.523718551402
1024,512,1937.3517742873369,2079060,202903,51699712,48846984,0.5296210566148183,0.1401363489243297,0.873228855495364,1024,0,1,1,2571.517998311639,0.8975454527215085,0.0867232942611594,2245.523718551402
128,1024,821.1544919543666,1920604,173573,57864192,52744888,0.8405498746136831,0.1267383690670221,1.0,128,0,1,1,917.7159788215745,0.8209198554225303,0.0888757698345442,2245.523718551402
128,128,146.89110272534464,2087351,177023,37535744,35225976,0.5153130480165128,0.0092192137670235,0.431016400708313,128,0,1,1,5209.833581416413,0.9312361818427828,0.0055544300731395,2245.523718551402
128,1536,401.269235188467,1844206,106896,63754240,36785624,1.4207065127024447,0.372526063159039,1.0,128,0,1,1,357.3628489939293,0.7469193481330876,0.1207535086076612,2245.523718551402
128,2048,213.76190917319929,1649245,107556,63229952,37069264,1.5541120952524339,0.3151643849165317,1.0,128,0,1,1,190.17518496072083,0.7807676793335234,0.0792615489245796,2245.523718551402
128,256,4445.1980730745845,2099403,249213,37797888,35241640,0.5355106092253054,0.6259041633867687,0.27155978189308705,128,0,1,1,8268.984836036816,0.9263821437116042,0.0505299837222001,2245.523718551402
128,512,2081.5218630173613,2043390,175468,37011456,34946200,0.5242875703359074,0.0867446730583564,0.7877088195925762,128,0,1,1,2850.7027758212053,0.9262181349283584,0.0360864574734858,2245.523718551402
1536,1024,818.5272533720018,2061508,150624,46059520,39560400,0.8681870008865926,0.131516657624214,1.0,1536,0,1,1,915.9706888602707,0.8010869209225172,0.0607911076427575,2245.523718551402
1536,128,386.8413108854467,2196777,280066,41205760,34078016,0.7102633958708914,0.0689286173330225,0.5748581239455772,1536,0,1,1,3906.222466056667,0.8527066032530809,0.098236869426219,2245.523718551402
1536,1536,568.0335027770549,1793017,168567,52219904,41044344,0.9602675279385219,0.14224249887975,1.0,1536,0,1,1,616.8603228116108,0.7811339678513624,0.0848665048862573,2245.523718551402
1536,2048,352.4417344765741,1747986,125407,65327104,38010448,1.1430397599612225,0.2295427779629133,1.0,1536,0,1,1,363.1031683895192,0.727459348488894,0.1215120912546321,2245.523718551402
1536,256,3086.346536319434,2126839,136339,37273600,34846208,0.38685629773735253,0.1104044675742546,0.3358283551194068,1536,0,1,1,6686.522100711198,0.9203504112313328,0.0485048188965534,2245.523718551402
1536,512,1290.7101707810318,1969605,239068,51961856,49928416,0.8495719830676105,0.3570990601610217,1.0,1536,0,1,1,1643.3722841480544,0.8968000654500131,0.0601793228423561,2245.523718551402
2048,1024,816.1950695162678,2095809,158811,54710272,36085648,0.8193784401689749,0.173385079431099,1.0,2048,0,1,1,959.5820734997183,0.7979043390975964,0.0908279498575193,2245.523718551402
2048,128,2457.830455378572,1955909,173002,51961856,49396016,0.5944047518450777,0.257676851782289,0.36966781950628047,2048,0,1,1,6074.436561858346,0.94175948599017,0.0163880466759777,2245.523718551402
2048,1536,598.9213141310128,2099913,174647,57462784,39032992,1.1724339705939528,0.2277281454395088,1.0,2048,0,1,1,591.9025545781219,0.7744703585323132,0.0867806396295671,2245.523718551402
2048,2048,378.7554011485913,1863252,126612,53530624,41910896,1.4379056470136258,0.2959165310376951,1.0,2048,0,1,1,339.5670525941501,0.7757540146808182,0.087550202783313,2245.523718551402
2048,256,2783.89520352805,2006631,139489,37797888,34603024,0.39865001243046977,0.0889503426081529,0.3490042694637709,2048,0,1,1,6434.086671780682,0.9206047162201773,0.043419618580492,2245.523718551402
2048,512,2149.0256119103037,2066737,203301,52486144,49699264,0.4890945917128745,0.0401347276643268,0.8156739732821181,2048,0,1,1,2752.967229683495,0.8919021525315014,0.0688227440663225,2245.523718551402
256,1024,783.7265225621751,2037390,147506,59174912,50471424,0.8803269828953423,0.1228384849811097,1.0,256,0,1,1,903.559451852672,0.8078616153464354,0.0841723750124007,2245.523718551402
256,128,1771.9481232859775,2232818,307085,37011456,34356952,0.48360168485174615,0.143942937471995,0.34155953785868104,256,0,1,1,6574.325907070641,0.904609699571492,0.0685433609756115,2245.523718551402
256,1536,561.3694965196934,1793818,166629,64278528,33215848,1.0805576106282124,0.2311642299135801,1.0,256,0,1,1,561.8911492229076,0.7660076160210069,0.1154055269666237,2245.523718551402
256,2048,375.0027580151849,1747716,130573,52482048,39574896,1.1599622851416902,0.1468338126266849,1.0,256,0,1,1,393.8170527780278,0.771728651012651,0.0953998626307956,2245.523718551402
256,256,3435.383571038547,2164254,189506,37535744,34797064,0.25604311317419526,0.0288565900022408,0.19672189803970777,256,0,1,1,11414.711534036487,0.9369349157974034,0.0098499288558549,2245.523718551402
256,512,2093.463438027507,2098311,189533,42516480,35488792,0.4945228923238586,0.0714562123963529,0.7713449620958448,256,0,1,1,2911.1796004345724,0.9134702454319104,0.0543438963960267,2245.523718551402
512,1024,906.1503480303448,2386297,193621,59699200,51076952,0.902580352549283,0.1249889895439245,1.0,512,0,1,1,939.8447846835468,0.7791877440387464,0.0985662244755692,2245.523718551402
512,128,827.6031983626823,2025271,197261,41730048,33825448,0.7345127048607837,0.1438982417491141,0.5188085262274518,512,0,1,1,4328.232103045542,0.8309406730234499,0.1002282207349362,2245.523718551402
512,1536,551.1594405234757,1965148,165813,64016384,38415496,1.175573781233094,0.1578515348653978,1.0,512,0,1,1,569.666976646697,0.735140570585253,0.1159741108514468,2245.523718551402
512,2048,391.1122074151273,1825499,139724,63492096,40535384,1.306900339478308,0.2784070450332078,1.0,512,0,1,1,351.7971460500522,0.7974830000467515,0.0743890014392301,2245.523718551402
512,256,4142.640836586959,2101568,144937,37535744,34762416,0.3927923364797905,0.2386491680048715,0.2502680323860457,512,0,1,1,8972.47521843947,0.932659984011608,0.0364652713726518,2245.523718551402
512,512,2066.349758763049,2059204,212206,43565056,33696472,0.498824261244132,0.0818227235678529,0.8462231613031934,512,0,1,1,2653.583382299853,0.8948654517837126,0.0737334363754676,2245.523718551402
