cpu,memory,duration_std,userDiff,sysDiff,heapTotal,heapUsed,avg_cpu_util,cpu_util_std,slo_preservation,total_cpu_shares,cpu_shares_others,num_containers,arrival_rate,latency,memory_util,memory_util_std,slo_duration
1024,1024,563.3784156846175,1676057,146790,43175936,36728432,0.9507894278342859,0.1735317601197949,0.5210983372414666,1024,0,1,1,551.8290976661586,0.8388826674888759,0.0264479431281347,287.55722523529414
1024,128,1097.8527224584052,1934403,226433,36225024,33137928,0.8212038475092692,0.2843052238399488,0.21676025456054074,1024,0,1,1,1326.6141701959477,0.9343870686836276,0.0131631554034011,287.55722523529414
1024,1536,330.34824776503723,1587900,140040,51695616,36119224,1.0280700374441534,0.1465022806457687,0.7940779170498671,1024,0,1,1,362.12721580725673,0.7358824739653229,0.0437216099330793,287.55722523529414
1024,2048,198.08407871740624,1483345,61705,53268480,38532992,1.0481350299022703,0.1427016969777284,1.0,1024,0,1,1,163.06650289280367,0.7457144946849618,0.051610644696742,287.55722523529414
1024,256,348.37666134201856,1532100,107419,35962880,32345568,1.0705565791286877,0.1723412405174174,0.8165781627377382,1024,0,1,1,352.1490511957878,0.928324751681296,0.0115254488109992,287.55722523529414
1024,512,558.4773898692121,1674877,117621,35962880,32765512,0.9308906451389405,0.1946942372397825,0.453508134749389,1024,0,1,1,634.0729155700808,0.9304865171488044,0.0122740756395679,287.55722523529414
128,1024,547.6975534693407,1584755,144682,43175936,35009272,0.9553715827458067,0.2062316338466055,0.4877973463365383,128,0,1,1,589.5014136401314,0.8349779184438203,0.0335731501958654,287.55722523529414
128,128,846.6622844218057,1752858,157660,35962880,32724760,0.8687798412601418,0.1624299654715583,0.3192522685521079,128,0,1,1,900.7210083093253,0.9277699838242714,0.0097174013462497,287.55722523529414
128,1536,387.21950758216434,1784932,136351,51957760,40841488,1.0181406625640883,0.1684400923068203,0.8292220130961975,128,0,1,1,346.77953635311275,0.7379843477285096,0.035175609375247,287.55722523529414
128,2048,187.796744260678,1305761,150171,51433472,40618696,1.0380161310286993,0.195348365510374,1.0,128,0,1,1,169.8496640850374,0.7600569817789036,0.0386701008969027,287.55722523529414
128,256,389.5817990064892,1605492,123444,35962880,33303416,1.0209374612226856,0.1848293947318854,0.72156265855449,128,0,1,1,398.52010331487907,0.9369763408678992,0.0073936686902849,287.55722523529414
128,512,575.0842811157764,1687628,124272,35962880,32961888,0.9385482410046327,0.2891310403813643,0.47223142089853504,128,0,1,1,608.9328505251655,0.9331727686300748,0.0083679751611466,287.55722523529414
1536,1024,565.1790563218711,1615990,124869,43438080,36865264,0.9540308302525718,0.1604851706622005,0.5185541156164976,1536,0,1,1,554.5365788745572,0.8294524214700362,0.0340576477688648,287.55722523529414
1536,128,1040.7369493184233,69644,5,36487168,34118712,0.8460126534847613,0.1365712649751591,0.26069311025181197,1536,0,1,1,1103.0488107550416,0.9239147479653028,0.0144804434299941,287.55722523529414
1536,1536,387.39542872859954,1585624,153001,51695616,40792168,1.021079718010725,0.1923844248852165,0.8163705774188331,1536,0,1,1,352.23859505628036,0.7283578348352403,0.0511038099769278,287.55722523529414
1536,2048,221.30869862032768,1552337,131711,52219904,39887768,1.0336974731946211,0.1651576414563602,1.0,1536,0,1,1,187.83858549979493,0.7647198744573698,0.0424866849212644,287.55722523529414
1536,256,370.3288042804263,13710,210,37011456,33678808,1.0472468951282896,0.1800846324128061,0.8125199112034807,1536,0,1,1,353.90791200350134,0.927767315251888,0.0139424931044586,287.55722523529414
1536,512,593.2043847918463,1789531,121663,35700736,33107488,0.9722454986175174,0.2652964756485844,0.4515285822626791,1536,0,1,1,636.8527631059383,0.9346371908803348,0.008539330547398,287.55722523529414
2048,1024,603.2745746441205,1885665,109008,43438080,37022200,0.9249037889622985,0.2104566327400713,0.4535428448237982,2048,0,1,1,634.024389354021,0.8334079151312579,0.0410221203390707,287.55722523529414
2048,128,803.3152816806095,1853880,265447,35700736,33299424,0.990684105919027,0.1740944776985386,0.2861509861237509,2048,0,1,1,1004.9143255824221,0.9304747221977644,0.0112017294394711,287.55722523529414
2048,1536,374.1598856961395,1629592,115433,52744192,37018448,1.0028832381607262,0.1735436020010576,0.7593403095478931,2048,0,1,1,378.69348119620315,0.7473017202073737,0.0462715640327151,287.55722523529414
2048,2048,222.48208371453475,1578860,74134,53006336,42983648,1.0495288291161595,0.2511664351281648,1.0,2048,0,1,1,188.73627669652234,0.7300089274169759,0.0657633239772047,287.55722523529414
2048,256,585.653671148075,79100,8952,37535744,34229824,0.9337068384592271,0.170544690206208,0.43871700592865975,2048,0,1,1,655.4503731320005,0.9249641478943064,0.033162342596979,287.55722523529414
2048,512,586.6164558340795,1764875,162001,36487168,33328712,0.9348263903519253,0.2087086713289815,0.4614230055375093,2048,0,1,1,623.1965502030403,0.9292224346640748,0.0107804424842538,287.55722523529414
256,1024,572.1284819987993,1908965,126175,43700224,36346040,0.9409714221437672,0.1857071601358074,0.46737738407942564,256,0,1,1,615.2570385956608,0.8272567915579987,0.0333755215699857,287.55722523529414
256,128,817.0866516962441,2061018,175455,36225024,33750632,0.8178804966419442,0.2564007561343038,0.3243556432504474,256,0,1,1,886.5491666912674,0.929513024868998,0.0109438966386194,287.55722523529414
256,1536,350.72356612073065,1560195,154584,52744192,38182584,0.9965380118331185,0.2404093657089778,0.8397497493838952,256,0,1,1,342.4320465070316,0.741011107244377,0.0423815609229023,287.55722523529414
256,2048,211.33182778554144,1484990,134848,53268480,42318768,1.0387816963429446,0.2340211571007366,1.0,256,0,1,1,197.45136529122408,0.70812087145681,0.0668657427235015,287.55722523529414
256,256,574.0365608192764,1668890,122408,35700736,33847696,0.9503826498145147,0.1565913164307195,0.48251663391320804,256,0,1,1,595.9529786635668,0.934534768764728,0.0122513416474417,287.55722523529414
256,512,537.8310091830803,1628638,161357,36225024,32865008,0.9253589490205466,0.1858061099428479,0.501807445833204,256,0,1,1,573.0429622418864,0.9241960371719182,0.0099363473289633,287.55722523529414
512,1024,560.9159374992994,1853719,157553,44486656,37162464,0.947204126062568,0.1598351528148429,0.4756583450898672,512,0,1,1,604.5457379307942,0.8389492667467822,0.0317208331718983,287.55722523529414
512,128,825.7741239799902,1781413,112136,35962880,33022816,0.8660999776912459,0.1684847940832763,0.3188694147936119,512,0,1,1,901.8024680147371,0.9275268548837888,0.0106265704981125,287.55722523529414
512,1536,326.72236434031475,1471704,112776,51957760,40411328,1.0365524847881207,0.2845723455534161,0.8771650630425801,512,0,1,1,327.82567084678254,0.727818387728018,0.0363979490755693,287.55722523529414
512,2048,219.90142171783552,1551649,113672,53530624,39559656,1.037460395088343,0.210823658228211,1.0,512,0,1,1,200.4558789222069,0.7225816990052746,0.0379041933376636,287.55722523529414
512,256,597.9617504011101,1615950,76503,36225024,33086856,0.9648841384548937,0.2354564491102448,0.46591506229956137,512,0,1,1,617.1880853476431,0.9277663028914884,0.0085526015024403,287.55722523529414
512,512,609.5245231086424,1909253,106305,36487168,33349944,0.9574446887431749,0.1235678788160049,0.4511127544576715,512,0,1,1,637.4398027849953,0.9317820029623364,0.0096534907676698,287.55722523529414
