cpu,memory,duration_std,userDiff,sysDiff,heapTotal,heapUsed,avg_cpu_util,cpu_util_std,slo_preservation,total_cpu_shares,cpu_shares_others,num_containers,arrival_rate,latency,memory_util,memory_util_std,slo_duration
1024,1024,75.26137916927378,255228,20313,39170048,30109544,1.0039222421646752,0.1629619852142049,0.2938109008307157,1024,0,1,1,675.3845790970114,0.8111817755529446,0.0743483876781503,198.4353515916667
1024,128,137.8570691739518,251545,33932,33267712,29972560,0.9228348674520244,0.1684474052970895,0.21598762310291597,1024,0,1,1,918.7348272132899,0.8903793135563104,0.0486338918314163,198.4353515916667
1024,1536,53.5755958115291,303789,37881,67616768,52087760,1.0791263438869483,0.2463803344800026,0.4058394490050297,1024,0,1,1,488.9503769979921,0.7612577860378102,0.1121026105285339,198.4353515916667
1024,2048,36.45937544168331,309981,38184,50049024,30978424,1.1391008284782824,0.1721718053701139,0.49574420747664344,1024,0,1,1,400.27770087664777,0.708123076277411,0.1033126511382889,198.4353515916667
1024,256,44.04512749351353,284360,19114,32743424,30124800,1.080456942013471,0.1482263585695352,0.30533836830268296,1024,0,1,1,649.8867230303564,0.8751721353344312,0.0724790750571157,198.4353515916667
1024,512,61.64597878464072,285763,25913,33267712,29894248,0.9861627536569837,0.1158069924271576,0.23385537133818657,1024,0,1,1,848.5387804272508,0.857006545741803,0.0592646482107355,198.4353515916667
128,1024,66.10495272628638,283067,34547,39956480,30127288,1.0288144560052401,0.1519867598835162,0.2888860732009959,128,0,1,1,686.8982965945988,0.7927024905672659,0.1102895514152077,198.4353515916667
128,128,93.40509620520317,289228,55224,32481280,29681624,0.990606883911434,0.2720480562880852,0.21515021081755864,128,0,1,1,922.3107466993574,0.8663944549317566,0.0501902106957412,198.4353515916667
128,1536,57.85858483493868,281587,33996,50049024,29907088,1.108204295279854,0.1182908777002957,0.4043224098631044,128,0,1,1,490.7849447643849,0.760762892078961,0.120220956668821,198.4353515916667
128,2048,39.09057306795233,299794,35735,50049024,31052912,1.1130706296601283,0.2672164738332456,0.43096944043354296,128,0,1,1,460.43949518101886,0.7515265600504599,0.100400763712548,198.4353515916667
128,256,46.474781201205616,232905,23129,33005568,29848656,1.0728256691228713,0.1912588629656295,0.3080840006094053,128,0,1,1,644.0949585150538,0.9028715638048244,0.0684708044196497,198.4353515916667
128,512,45.013839094630654,337652,3514,33005568,30203384,1.0762695531832565,0.173054026569712,0.30272526415365075,128,0,1,1,655.4965015769188,0.8698730787355228,0.077151264782385,198.4353515916667
1536,1024,104.3635982405241,308002,38476,39432192,30103488,1.004267355126818,0.1483691096354628,0.29185375954421905,1536,0,1,1,679.9136386029714,0.8064579713414085,0.0961313901154124,198.4353515916667
1536,128,69.1229394195872,331426,32089,33005568,30161240,1.0384054447622635,0.1212622268289259,0.26905382119016374,1536,0,1,1,737.5303227952119,0.8646215752870535,0.0746908709119619,198.4353515916667
1536,1536,61.39876759961254,350788,21700,50835456,30345488,1.0995797048355025,0.173219338497159,0.38943897308315045,1536,0,1,1,509.5415849643227,0.747200565547272,0.109171142518444,198.4353515916667
1536,2048,36.72152545621815,318155,19584,50573312,29933152,1.1400079248215593,0.1840076640423081,0.5282800903470639,1536,0,1,1,375.6252700367729,0.7770283914136235,0.1043340264986485,198.4353515916667
1536,256,59.62853843006542,212349,29608,32743424,29781456,0.9842951349361527,0.1422622143611127,0.257648742698081,1536,0,1,1,770.1778379108879,0.8603928790263866,0.0719913870582459,198.4353515916667
1536,512,52.29309350466112,318654,57391,33267712,30023112,1.016012636373698,0.1329552456247908,0.25818270248654995,1536,0,1,1,768.5849969054537,0.8888013861304944,0.0627227418843178,198.4353515916667
2048,1024,78.78337513549639,332673,50270,39694336,29850904,0.9966246552189614,0.1497476943995394,0.2935947220765258,2048,0,1,1,675.8818761733198,0.8020615376745237,0.0942858332262406,198.4353515916667
2048,128,115.17794664112591,259663,22097,33005568,29958896,0.9976480631087968,0.1814340985572568,0.2179015519313328,2048,0,1,1,910.6651597148767,0.893497449254805,0.0591960385979835,198.4353515916667
2048,1536,60.88038166720021,326008,36422,50311168,30006624,1.109363997663211,0.1922763756500739,0.39235487293331245,2048,0,1,1,505.75477783194054,0.72165446470065,0.1202901278816198,198.4353515916667
2048,2048,39.632387262758726,340612,18447,50311168,31052256,1.130323102006273,0.2531615437940051,0.45460748968321113,2048,0,1,1,436.49820140434656,0.7220982363701807,0.0955211216750098,198.4353515916667
2048,256,49.38819459775693,293905,37091,33267712,30400536,1.0703737146231593,0.209873311698253,0.3038396117107962,2048,0,1,1,653.0924341114005,0.899537968196529,0.0586348374674558,198.4353515916667
2048,512,68.52184176207297,351504,45788,33529856,30152920,0.9964769449963881,0.1444762945661485,0.2396647292442357,2048,0,1,1,827.9706080131912,0.8677977752408932,0.0797948795226784,198.4353515916667
256,1024,77.6886919623362,275567,43893,39956480,30982536,1.0188203652219094,0.0988595292452973,0.2833284586577528,256,0,1,1,700.3721141594431,0.7608543896953976,0.1102163670566536,198.4353515916667
256,128,110.0818705831719,311230,65485,33005568,29940120,1.0180653503019728,0.304120378408649,0.23842777377845295,256,0,1,1,832.2660923557202,0.8722670038071568,0.0715939105572075,198.4353515916667
256,1536,59.33465851532084,360872,28041,50835456,30427840,1.076892318777613,0.1818416511417536,0.36606227673224284,256,0,1,1,542.0808540094743,0.7202279986716064,0.1144975914310023,198.4353515916667
256,2048,34.94407435099476,289112,45342,50049024,29948392,1.1333511945377748,0.2277683702078909,0.5184532117456447,256,0,1,1,382.7449557570103,0.7511534241680946,0.0929636226598131,198.4353515916667
256,256,59.43631221783555,318413,48473,33005568,29774200,0.9704143640622733,0.1074426552796686,0.2401913000087347,256,0,1,1,826.1554501951173,0.8670476348219645,0.0651651913570354,198.4353515916667
256,512,64.9376323889297,259675,43934,32481280,29990312,1.0096267585121934,0.1337101586735723,0.2533777711156413,256,0,1,1,783.1600645863329,0.8621417526712296,0.0723444750762049,198.4353515916667
512,1024,59.84886472494169,247637,33962,37597184,30458120,1.0160010519739855,0.135209764183229,0.31659299477339975,512,0,1,1,626.7837724384775,0.7593527282271484,0.0964733841048312,198.4353515916667
512,128,90.03338435200585,354080,31666,32743424,29933944,0.9466769224824442,0.1768107664142719,0.22009983800383764,512,0,1,1,901.5697303157796,0.8844139053666469,0.0703401045388438,198.4353515916667
512,1536,72.02498177894489,313050,48025,50311168,29942400,1.0983030167306131,0.1888618919011765,0.4039443300700386,512,0,1,1,491.2443047715526,0.7171310219775646,0.0999976856936813,198.4353515916667
512,2048,28.259416482499702,266709,38704,50573312,29934232,1.1198757062439615,0.2053942231312885,0.47698496566768667,512,0,1,1,416.02013873518126,0.7308871722919852,0.0951068196449944,198.4353515916667
512,256,46.92893155997054,249273,33898,33267712,29779424,1.0816351744801957,0.1558282074882072,0.3229155094584791,512,0,1,1,614.5116780684756,0.9049078169759364,0.0497385256630984,198.4353515916667
512,512,54.42923865708131,286861,26214,33005568,29681792,1.039961626262875,0.1310293254178374,0.2661169953864882,512,0,1,1,745.6695928175283,0.8719921549163034,0.0678389916589046,198.4353515916667
