cpu,memory,duration_std,userDiff,sysDiff,heapTotal,heapUsed,avg_cpu_util,cpu_util_std,slo_preservation,total_cpu_shares,cpu_shares_others,num_containers,arrival_rate,latency,memory_util,memory_util_std,slo_duration
1024,1024,117.4725813069088,312195,22336,38907904,29826560,0.9367775914473977,0.0967678110277841,0.6145041897672596,1024,0,1,1,842.3550434884556,0.7897397443505618,0.0942965335019732,517.6307034952382
1024,128,720.4782246596923,272709,36606,32481280,29475064,0.7315917053743917,0.2519777405158058,0.22490594271786696,1024,0,1,1,2301.543023896792,0.9143377940003904,0.0069006525556653,517.6307034952382
1024,1536,74.0985063067345,364821,45247,48476160,31500408,1.043935126701765,0.1676968224024921,0.8434494260371789,1024,0,1,1,613.7068655405325,0.7259635984542777,0.1031790772222489,517.6307034952382
1024,2048,52.61820938488344,270401,31325,49524736,29702928,1.0558591068439431,0.113457845620576,0.8792696162216966,1024,0,1,1,588.7053230834309,0.7506255216161205,0.0998051022975295,517.6307034952382
1024,256,376.0918735076614,346991,20711,31956992,29491288,0.6961353512843389,0.3353971435470942,0.26730083179095376,1024,0,1,1,1936.5098867333804,0.907308622792692,0.0367183379263916,517.6307034952382
1024,512,167.45688179017134,300911,29922,32481280,29717104,0.8178780936743617,0.2221126296667964,0.4151313186953704,1024,0,1,1,1246.9083400452457,0.9236555752923208,0.0126580639708242,517.6307034952382
128,1024,98.38734360846486,424445,35541,39432192,30646456,0.9550642113489777,0.1667432922826023,0.614294274435955,128,0,1,1,842.6428912600996,0.8125775682206562,0.07244424989378,517.6307034952382
128,128,2263.2324670421863,350696,51719,32219136,29654656,0.6770277443099922,0.3779755433692595,0.12484291215697735,128,0,1,1,4146.2562395562345,0.914557897755424,0.0105619138786681,517.6307034952382
128,1536,55.96182791040562,322146,56064,50049024,29752488,1.0974056175915385,0.1571553026863953,0.94414753158753,128,0,1,1,548.2519269259454,0.7102009475386147,0.1388548112071728,517.6307034952382
128,2048,37.244757902411386,326020,26463,49524736,29733920,1.132992325901252,0.2111532462185372,1.0,128,0,1,1,416.170084930987,0.7231253509963648,0.1127201053771443,517.6307034952382
128,256,322.04625886748926,354900,59956,32219136,29429360,0.5472924802287641,0.0596372947866808,0.2530275617371103,128,0,1,1,2045.7482969110076,0.9051540869058332,0.0381329879357492,517.6307034952382
128,512,170.2784317370055,275970,31837,31694848,29543856,0.7361751903031242,0.0839456336773085,0.382190363083356,128,0,1,1,1354.3792661834923,0.8959378921032904,0.0533399899828739,517.6307034952382
1536,1024,98.3071745600473,363759,51357,36024320,30002160,0.9210456706365011,0.1549978948713246,0.5777452323799317,1536,0,1,1,895.9497620827418,0.796614250756393,0.0819387412941545,517.6307034952382
1536,128,817.0186789605629,345628,76198,32219136,29544944,0.6587269081404996,0.2671494313913046,0.20827697215015786,1536,0,1,1,2485.299734058218,0.9184978812996878,0.0100264475572879,517.6307034952382
1536,1536,133.10020023931062,350676,51903,49262592,30896944,1.041839255672248,0.3997414376636676,0.7282773496108965,1536,0,1,1,710.7604043594073,0.7247399040916052,0.1513480002763975,517.6307034952382
1536,2048,39.55967590614334,350372,49354,49786880,30900072,1.129008893683986,0.175496280938929,1.0,1536,0,1,1,467.91163486041467,0.7483440139376818,0.0868028870437788,517.6307034952382
1536,256,240.42537325184347,315546,44270,32481280,29451008,0.7242978085693748,0.2049391382097523,0.3251891041104702,1536,0,1,1,1591.7836635737758,0.9136585075154708,0.0171992090869909,517.6307034952382
1536,512,147.15133898207296,378207,20969,32481280,30075520,0.8303446370018887,0.2648265919502692,0.4137566846820568,1536,0,1,1,1251.050974301482,0.8887383205133716,0.0681133766312262,517.6307034952382
2048,1024,86.67731563323079,325526,61740,37072896,30021728,0.9438420110499345,0.1246534835087896,0.6645734127655109,2048,0,1,1,778.891682321754,0.7645215590530665,0.1143939569181496,517.6307034952382
2048,128,1100.8736131399307,464028,99708,32219136,30104416,0.8400604715455366,0.3924608096472391,0.19780807734525324,2048,0,1,1,2616.8329951044825,0.9190702311970812,0.0120144302041111,517.6307034952382
2048,1536,80.52281718816663,366461,30468,50311168,30895760,1.0364071920721762,0.1280235492194625,0.7780594534340104,2048,0,1,1,665.284254578034,0.7149160978458879,0.140881456351804,517.6307034952382
2048,2048,64.5390530802452,282883,37215,35622912,15378392,1.0920114098219738,0.1890700849228045,0.9092462502475558,2048,0,1,1,569.2964951511271,0.7619466630736527,0.1184469313173065,517.6307034952382
2048,256,222.083924075058,369445,39234,33267712,29703488,0.8720189413271431,0.2490343093567372,0.3728343538794292,2048,0,1,1,1388.3664370226857,0.909754487287968,0.0228529444460069,517.6307034952382
2048,512,223.69790157968745,311317,26738,32743424,30120608,0.8254338872172552,0.244520196956528,0.3966869820738814,2048,0,1,1,1304.8845232809567,0.8891096225236828,0.0539089611161949,517.6307034952382
256,1024,113.37187496712598,339421,25566,39694336,30508624,0.9363791375117358,0.1258145745705355,0.629431900617118,256,0,1,1,822.3776122368984,0.7964537793804878,0.1091643856588882,517.6307034952382
256,128,1415.9205995037082,306184,25007,32481280,30034728,0.6605918376654385,0.2668419923574658,0.1918619276114919,256,0,1,1,2697.9334041895336,0.9219818056997182,0.0089523647403398,517.6307034952382
256,1536,61.04090370601382,196641,32533,37982208,15380144,1.03898093275377,0.1276970949372257,0.8644058545897616,256,0,1,1,598.8283174469018,0.6832160238422984,0.1413840703459766,517.6307034952382
256,2048,64.28471792124722,331649,35255,50311168,29992944,1.0408524286464726,0.1661700445399767,0.880218613475219,256,0,1,1,588.0706174248736,0.7163281802262158,0.1150060098064324,517.6307034952382
256,256,262.7059944650233,274987,51273,32481280,29479352,0.6033432376576077,0.08213437478985,0.2821318445027384,256,0,1,1,1834.7120808272105,0.9097770046899584,0.0191823645067284,517.6307034952382
256,512,131.4257550175072,376051,18794,32219136,29886480,0.7447628442625901,0.0618261001621893,0.39407711930352124,256,0,1,1,1313.5264092725847,0.8929339367919482,0.0612927592086014,517.6307034952382
512,1024,119.28911058802645,307283,28831,38907904,30734712,0.9437466881988971,0.0932994147304408,0.6017538588097351,512,0,1,1,860.2033803640381,0.7833132217536343,0.106103007035287,517.6307034952382
512,128,922.8835303567224,374569,41646,32481280,30175520,0.6179806958632135,0.2110506104550683,0.1815625234377445,512,0,1,1,2850.9776890864114,0.919502538778569,0.0111644780769294,517.6307034952382
512,1536,70.71569938403594,291196,43941,38244352,15389136,1.0442383839352998,0.116599184417787,0.7988200782265963,512,0,1,1,647.9941073143697,0.6969476518013906,0.1419256567378855,517.6307034952382
512,2048,62.23989839178326,275645,35741,68755456,51115800,1.0681811192551482,0.2411853919913733,1.0,512,0,1,1,510.1169422468017,0.7519256758244593,0.1068644294513476,517.6307034952382
512,256,257.89145333648463,354369,58406,32219136,29527944,0.682292163913105,0.1384108738149554,0.3333218755517271,512,0,1,1,1552.9454904165414,0.91731487324622,0.0234750475941236,517.6307034952382
512,512,135.18870090243084,356275,52065,32219136,29732520,0.7508705908398952,0.1320857862846595,0.38893235154462197,512,0,1,1,1330.9016373657225,0.9053899985795658,0.0265778125648522,517.6307034952382
