cpu,memory,duration_std,userDiff,sysDiff,heapTotal,heapUsed,avg_cpu_util,cpu_util_std,slo_preservation,total_cpu_shares,cpu_shares_others,num_containers,arrival_rate,latency,memory_util,memory_util_std,slo_duration
1024,1024,712.2926939274247,1691848,156434,43175936,35724880,0.8194250089075936,0.2531641404041524,0.4166703211593887,1024,0,1,1,1637.3973121408658,0.8061174221070673,0.0439989819357897,682.2548639152543
1024,128,905.4281719486928,1978021,186068,36487168,32835272,0.7984542740778056,0.1661822968885717,0.2990962663039355,1024,0,1,1,2281.054432227385,0.9150200858083072,0.0185561158800878,682.2548639152543
1024,1536,385.2416058437278,1591343,168784,52219904,33294944,0.8039019571887538,0.3409118043553165,0.6322934768569911,1024,0,1,1,1079.0161355239843,0.6872675058552612,0.069226537662077,682.2548639152543
1024,2048,256.1148420702715,1347430,127910,52744192,36525656,0.7935167228435587,0.3761984370808482,0.8325315737213759,1024,0,1,1,819.4942815989646,0.6844259502784242,0.0704027069058423,682.2548639152543
1024,256,553.9265006741224,1946647,158512,36225024,33177192,0.8556987622080663,0.210459760010183,0.385068375038339,1024,0,1,1,1771.775892651081,0.9069328666659964,0.0222137677972928,682.2548639152543
1024,512,781.1992872971857,1845959,199678,36487168,32754096,0.8219066244292395,0.2043552067934315,0.3298576308304953,1024,0,1,1,2068.3313046222847,0.9104955645421352,0.0219581303725356,682.2548639152543
128,1024,754.2565688477083,1718915,144030,42389504,35807504,0.8060328779706389,0.2622625542329009,0.362718756842907,128,0,1,1,1880.9472933067477,0.8129660394422304,0.0437088521845017,682.2548639152543
128,128,750.4740583511895,2076592,221015,35962880,32901216,0.7962991493104125,0.2645191556214408,0.27411849190729276,128,0,1,1,2488.904922714932,0.9194885144778844,0.016374345251163,682.2548639152543
128,1536,308.31233377430493,1586220,130192,52744192,41381016,0.7756067645487585,0.2634912663780708,0.5690231766920009,128,0,1,1,1198.9931023223385,0.6912453318321934,0.0731632758409603,682.2548639152543
128,2048,204.063670539752,1517466,103301,53006336,31842448,0.7236414074869644,0.3406984003029392,0.794615716361504,128,0,1,1,858.597243758602,0.7240736208689647,0.0713068352561153,682.2548639152543
128,256,359.52925712093537,1713836,140129,36487168,32817856,0.8497095812101347,0.2974201972278602,0.5031032901417007,128,0,1,1,1356.0930275830533,0.9012317956103572,0.023092146628696,682.2548639152543
128,512,513.0404706195346,1871015,115993,37273600,34705816,0.8371540272749743,0.2751262679512901,0.4266002635023696,128,0,1,1,1599.2837376938578,0.9113219420325815,0.0165901672751935,682.2548639152543
1536,1024,475.8878845452143,1724923,132931,43700224,34494584,0.8589317835610957,0.3335640233392166,0.4461112093690241,1536,0,1,1,1529.3380878732678,0.7915316926664144,0.0525683279429759,682.2548639152543
1536,128,993.7083593487896,1769259,213433,36225024,33628760,0.7979764295165404,0.2136902982937908,0.2985742388138191,1536,0,1,1,2285.0426300196837,0.904065277799922,0.0229797508505986,682.2548639152543
1536,1536,356.8968059696137,1611535,158940,51957760,31827624,0.7472421739447724,0.2687501999248882,0.636516064792128,1536,0,1,1,1071.85804357988,0.7327434577919665,0.0727016047181954,682.2548639152543
1536,2048,227.1737319326801,1461897,160755,51957760,31827408,0.7538538158596347,0.3408318020462682,0.7670648767236686,1536,0,1,1,889.4356717639586,0.6987247718348792,0.0865188919956773,682.2548639152543
1536,256,416.091056500686,1616293,127311,37011456,34170392,0.8558458662202484,0.2832488230008527,0.5658313009923103,1536,0,1,1,1205.7566676123602,0.902406535954026,0.0203219698083025,682.2548639152543
1536,512,594.5012132917739,1864232,159979,37273600,35011848,0.8155375930735296,0.2712090716795527,0.43401334375189177,1536,0,1,1,1571.9674838045357,0.9092447399071404,0.0215811658864267,682.2548639152543
2048,1024,503.76191948811777,1727977,208093,42913792,34660520,0.8069717928967031,0.3092216918170602,0.45781776674032687,2048,0,1,1,1490.2323882555384,0.8047585864654245,0.0515847165791104,682.2548639152543
2048,128,938.5184462275046,1893852,273976,35962880,32511528,0.8447854815071919,0.2579705612197831,0.2672030182813616,2048,0,1,1,2553.3201993880475,0.9047418576734756,0.0223837709389246,682.2548639152543
2048,1536,336.4936510955631,1618375,207072,52744192,31808608,0.7440945759682476,0.3319586303769125,0.6076455913775546,2048,0,1,1,1122.7841913055895,0.6991307034948393,0.0703667262777635,682.2548639152543
2048,2048,257.7327352528829,1560094,114467,53530624,31873360,0.6892912504798224,0.3066306647302388,0.8231416743809603,2048,0,1,1,828.8425737019581,0.7087185600414134,0.08403964393546,682.2548639152543
2048,256,346.64110520481995,1617791,121291,37011456,34358312,0.8112512986336405,0.3273211391468424,0.5511722487804852,2048,0,1,1,1237.825136197986,0.9098236217582748,0.0226452943643428,682.2548639152543
2048,512,556.0336143757263,1638938,164992,36487168,33661872,0.825389056221003,0.2331289842747561,0.40864904340551733,2048,0,1,1,1669.5374060578135,0.9144468116526404,0.0265538744674517,682.2548639152543
256,1024,490.16909123649305,1682668,137814,42127360,34975672,0.8355895225324695,0.2923037141716984,0.45258760592374025,256,0,1,1,1507.4537061675796,0.8022670389592301,0.0451597973902808,682.2548639152543
256,128,861.1836435380018,1808781,164748,36749312,34107152,0.7886783495165924,0.1898794203244994,0.31224111283663736,256,0,1,1,2185.025724886543,0.913511952922988,0.019098759347987,682.2548639152543
256,1536,353.4658753302557,1609600,148248,51957760,39308456,0.7958333919719162,0.3615349496191674,0.6273616366946013,256,0,1,1,1087.4985399328377,0.6903830962884094,0.0658105173323691,682.2548639152543
256,2048,289.8863017681312,1661330,131241,51957760,36916568,0.7451240767870705,0.299843889895004,0.7922396192297977,256,0,1,1,861.1723616884135,0.6900526521776289,0.0719811103057949,682.2548639152543
256,256,309.63313424796263,1571440,139389,36487168,32617536,0.825884753994386,0.2926565775898171,0.5243818573389353,256,0,1,1,1301.0649670022383,0.9141137002992944,0.0214472923719473,682.2548639152543
256,512,501.3595161327246,1794362,95442,36487168,33613560,0.8649273315820762,0.3265524751237244,0.40307798843464393,256,0,1,1,1692.6125551156877,0.9192918085033008,0.0201838033501437,682.2548639152543
512,1024,578.2082663674146,1826825,146822,43175936,34910680,0.7612806748673618,0.3036598559805385,0.4911032523504215,512,0,1,1,1389.228966922904,0.8125313266258074,0.0458049707190551,682.2548639152543
512,128,1143.815480153439,1687828,242464,37011456,32178568,0.7539280226729234,0.1962848635618023,0.28798794258230404,512,0,1,1,2369.039682000828,0.9029769447616368,0.0240848899691606,682.2548639152543
512,1536,343.3809916917248,1561959,122551,51957760,38388464,0.7574668035817077,0.3075381815222374,0.6234113804851376,512,0,1,1,1094.3894918702397,0.6768227990664955,0.0703371376473217,682.2548639152543
512,2048,249.88848037786445,1309933,113002,51957760,37683736,0.7064558403643181,0.3494358237806323,0.7327159591898781,512,0,1,1,931.1314368934782,0.7079052104433521,0.0582770911120624,682.2548639152543
512,256,524.237145625702,1701564,155581,36487168,33572624,0.8362030672959564,0.2634357696196921,0.41833707618176613,512,0,1,1,1630.873529409133,0.9150101768597066,0.0213868887528104,682.2548639152543
512,512,788.6560748657838,2113357,174477,36225024,33181464,0.810962479441484,0.246137867160813,0.33643986455268954,512,0,1,1,2027.8657073600355,0.9171880722788344,0.0133969072614045,682.2548639152543
