cpu,memory,duration_std,userDiff,sysDiff,heapTotal,heapUsed,avg_cpu_util,cpu_util_std,slo_preservation,total_cpu_shares,cpu_shares_others,num_containers,arrival_rate,latency,memory_util,memory_util_std,slo_duration
1024,1024,91.18930615583432,366694,47787,53858304,44241728,1.0771549247547751,0.1068204114270067,0.7565672339688326,1024,0,1,1,449.68930541100667,0.7590860753853049,0.1124921695408058,340.22019394017093
1024,128,351.04816898618213,399220,83062,32743424,29601144,0.8098627293678734,0.2740527528506722,0.3864924264325728,1024,0,1,1,880.2764832431342,0.887234711712195,0.0752375625531149,340.22019394017093
1024,1536,59.396076326863856,352547,37537,58970112,45872704,1.2290357506072254,0.2307374821863259,1.0,1024,0,1,1,306.9117359576087,0.7642806790003421,0.0842282026369728,340.22019394017093
1024,2048,38.94672220703577,337958,48334,58707968,45810072,1.4370247873472983,0.2299088931259915,1.0,1024,0,1,1,202.42846162161305,0.7524170589885003,0.1256080014238669,340.22019394017093
1024,256,63.65787320704169,402406,49110,42442752,29611744,1.0028075301866672,0.1321692145330943,0.599089957798238,1024,0,1,1,567.8950039331999,0.8665902737470319,0.0720002931339669,340.22019394017093
1024,512,78.08832432270967,465408,83601,34578432,30195464,0.8610213283910949,0.1326048353903722,0.49393187773505226,1024,0,1,1,688.7998310622642,0.8919259928649069,0.0543324541945279,340.22019394017093
128,1024,130.19760867711972,414293,55491,49917952,30361624,0.8513598645111179,0.1342045563383625,0.5648210934104851,128,0,1,1,602.350368832481,0.8052631330666955,0.1079749228089614,340.22019394017093
128,128,266.9277488071476,405812,43427,32219136,29637024,0.8019943036619894,0.2560862263948461,0.3738749003246924,128,0,1,1,909.9840445151734,0.8885192914330795,0.0529999095296325,340.22019394017093
128,1536,81.4292411461801,400255,57857,60805120,46031192,1.0576245948384613,0.1696273731342219,0.8620500505086692,128,0,1,1,394.6640844570654,0.6852010464601738,0.1372956001142183,340.22019394017093
128,2048,53.564916652950814,378412,64497,57921536,46340960,1.248143258850791,0.2478147334992069,1.0,128,0,1,1,316.5777975579133,0.6609530271533706,0.1197978382685125,340.22019394017093
128,256,73.49162292612861,408535,57588,46645248,44266208,1.022596706475458,0.1359227626366802,0.5893710294403401,128,0,1,1,577.2597853397036,0.8711903848027156,0.083785681006374,340.22019394017093
128,512,75.64373871512025,456025,72490,44277760,29596544,1.0252746396612158,0.1091824761701369,0.5978322959402836,128,0,1,1,569.0896866069526,0.8577190071800403,0.0855193652015048,340.22019394017093
1536,1024,88.08257535949679,326901,62035,50712576,44583128,1.0889802622082239,0.184267410549766,0.7575735871532856,1536,0,1,1,449.0919426304281,0.7506118715996052,0.1044448478695169,340.22019394017093
1536,128,229.60202004186476,409345,81443,33005568,29662776,0.8255150413900225,0.1715591279555839,0.4254954173022938,1536,0,1,1,799.586035725647,0.8805449336343052,0.0625900810121143,340.22019394017093
1536,1536,53.38235339393897,361296,47439,58445824,44716240,1.337966060288126,0.2741595576370692,1.0,1536,0,1,1,291.5091224514894,0.6817176011137246,0.1540809317722572,340.22019394017093
1536,2048,44.0910118417211,365985,46526,59232256,45473176,1.4406923048711189,0.22190244293259,1.0,1536,0,1,1,218.47187842669058,0.7615724745548811,0.128158631017153,340.22019394017093
1536,256,48.91347079198109,417764,50065,47431680,44691640,1.3210890887428621,0.1581107382537367,0.8688323286275744,1536,0,1,1,391.5832580465667,0.8747511596267966,0.0760561659949393,340.22019394017093
1536,512,54.49904660879709,398055,54989,33005568,29992968,1.0853017252788237,0.1082932823243748,0.6685197126342547,1536,0,1,1,508.9157245633899,0.884148339621847,0.063692424654138,340.22019394017093
2048,1024,87.98740075877362,397655,63659,40218624,30123136,1.0340313361520939,0.122183138328812,0.6794311365750759,2048,0,1,1,500.7427178789255,0.7628519021436584,0.1217860102576539,340.22019394017093
2048,128,268.29027628663295,439814,79346,39821312,29652240,0.902567135971313,0.2073665089413179,0.4468619163969135,2048,0,1,1,761.3541934461454,0.8821137716718526,0.077634951883368,340.22019394017093
2048,1536,64.22064568619612,352145,58931,60542976,45442432,1.227699429156484,0.1723976612371338,1.0,2048,0,1,1,306.7234061439556,0.7495835400748775,0.1248755096325709,340.22019394017093
2048,2048,33.886775424319474,317356,50628,59232256,44962976,1.4634821471981856,0.3062794238735768,1.0,2048,0,1,1,216.61678316531106,0.6957355532183213,0.14673788924479,340.22019394017093
2048,256,90.54225120516666,427892,55038,33267712,29943312,1.057756240123801,0.245455907987309,0.5852251089819805,2048,0,1,1,581.3492769166993,0.8672004106354381,0.0676800878785705,340.22019394017093
2048,512,63.34429317902784,454475,75554,33267712,29852032,1.0321246567464764,0.1372764976077632,0.6005073993645474,2048,0,1,1,566.5545408769142,0.8753110123634071,0.0718732904518915,340.22019394017093
256,1024,72.69590035519985,392234,60236,52809728,45296072,1.0627266676910359,0.1495070634523838,0.7674187292197535,256,0,1,1,443.33058470709733,0.7625074128384141,0.1094120076798288,340.22019394017093
256,128,449.7802995581123,371764,68647,33792000,30201248,0.7248279052171432,0.2708173146005791,0.32768522328582916,256,0,1,1,1038.2530848618949,0.8944976059961854,0.0657175326205697,340.22019394017093
256,1536,89.76291848792543,387373,55220,61067264,44594856,1.0341270944381336,0.1658526294052872,0.8251717689456414,256,0,1,1,412.3022705622678,0.7120728130906381,0.1289122596491312,340.22019394017093
256,2048,62.28989477291811,374389,43808,57135104,45616672,1.2634315649000627,0.1777742933770887,1.0,256,0,1,1,312.3038741164204,0.7057600814157099,0.1435983969705597,340.22019394017093
256,256,54.91360516099145,369710,57803,36675584,29603552,1.0899715018965388,0.0983637909326765,0.6323672079644773,256,0,1,1,538.0104939901984,0.8666663488935059,0.0792376817390334,340.22019394017093
256,512,66.73446075665457,440934,55338,38772736,30388488,0.9955133401128656,0.1227878526844055,0.5894987491949651,256,0,1,1,577.1347172573046,0.8827093011013417,0.053416783272967,340.22019394017093
512,1024,58.38103835815229,378043,48439,39432192,30233352,1.0346407077376956,0.1591168338886054,0.7068714210400776,512,0,1,1,481.3042143358649,0.7504451954971116,0.1020639824175801,340.22019394017093
512,128,529.7235824741075,459432,55558,47169536,44235896,0.7503338547903506,0.3384630247312891,0.29374546397236445,512,0,1,1,1158.2142898117359,0.8980900724727895,0.0449823060694844,340.22019394017093
512,1536,73.42639928906443,369212,66565,58445824,45551760,0.9665963042944852,0.142890596174536,0.7592412206524737,512,0,1,1,448.1055357450085,0.7099408489588439,0.1255810121659369,340.22019394017093
512,2048,53.30909049906655,284535,53879,58970112,44928208,1.2609930058700451,0.169449890974311,1.0,512,0,1,1,313.2117391353612,0.7415880531355752,0.1180930419604142,340.22019394017093
512,256,70.83812147619673,439470,39374,35102720,29693600,1.0004047825839104,0.0945998601111933,0.5844796522599264,512,0,1,1,582.0907410971258,0.8723254414725281,0.0691989770973172,340.22019394017093
512,512,77.68054954773187,338727,40942,47169536,44229312,1.062332056086446,0.1473394677624343,0.6503940773133196,512,0,1,1,523.0985425721734,0.8898352378637459,0.0752635788038514,340.22019394017093
