cpu,memory,duration_std,userDiff,sysDiff,heapTotal,heapUsed,avg_cpu_util,cpu_util_std,slo_preservation,total_cpu_shares,cpu_shares_others,num_containers,arrival_rate,latency,memory_util,memory_util_std,slo_duration
1024,1024,860.6771468464161,1622456,156197,43175936,37584768,0.8152837888452751,0.239271995630711,1.0,1024,0,1,1,912.7560750992154,0.8360246388831539,0.0261545581241318,1962.2101576415096
1024,128,2671.992825855079,2118185,314840,36749312,33680400,0.37944839667049557,0.0506852074002353,0.15121612213380703,1024,0,1,1,12976.196783469975,0.9253046294526284,0.010083803511505,1962.2101576415096
1024,1536,349.3853345688359,1620793,137000,52482048,36716064,1.0533767012116988,0.1783049525512488,1.0,1024,0,1,1,396.4126304310624,0.7415868339662243,0.0340355629044632,1962.2101576415096
1024,2048,195.72587509438316,1460711,61909,51695616,40420264,1.0485402876259213,0.2476798246612754,1.0,1024,0,1,1,185.01383286189034,0.7444787701058234,0.0284805878421784,1962.2101576415096
1024,256,2826.003079621863,1814586,153941,35962880,32311832,0.48943419374808217,0.0391516222232793,0.3103606534637728,1024,0,1,1,6322.354769337895,0.9183255144889402,0.0114853424763726,1962.2101576415096
1024,512,1399.3468470966675,2094627,165800,36749312,34023784,0.7747589472868305,0.2753050103117051,1.0,1024,0,1,1,1595.1859218906484,0.929665495962083,0.0095877748481121,1962.2101576415096
128,1024,803.8327231794884,1812019,135783,43438080,37003656,0.8415620794230776,0.2093594057930367,1.0,128,0,1,1,842.9937257351332,0.836998885310616,0.0348040280531469,1962.2101576415096
128,128,2823.186217071592,1970294,175433,36749312,33809448,0.3626297016497111,0.1631395539358248,0.13465813926838102,128,0,1,1,14571.790225993824,0.9199903614817736,0.0103835094128347,1962.2101576415096
128,1536,533.7257196123564,1789071,115633,52482048,36421336,0.9997312067599683,0.1558800928903036,1.0,128,0,1,1,598.4917196715373,0.73550810609234,0.0612614249834223,1962.2101576415096
128,2048,363.1009879772862,1559987,121302,51957760,37889896,1.021624991763854,0.2079339556813008,1.0,128,0,1,1,366.0643470908809,0.723688120380961,0.049594550618734,1962.2101576415096
128,256,3167.654768213892,1923880,156582,35700736,33234592,0.4087194937446354,0.0220903234848246,0.268589617841126,128,0,1,1,7305.606871231264,0.92309159158035,0.010312981039818,1962.2101576415096
128,512,1825.795893539079,1822327,217812,36225024,33770384,0.6213088183989414,0.1351363227254453,0.7604620998345225,128,0,1,1,2580.2865889943614,0.9294737456685626,0.0089202578354299,1962.2101576415096
1536,1024,817.717410867018,1764528,142830,43175936,33849120,0.8637866232665852,0.1656015811852699,1.0,1536,0,1,1,938.6474906795593,0.8290543817824126,0.0264781984801443,1962.2101576415096
1536,128,687.9676490065181,1848048,151661,35962880,33468920,0.5272033215633467,0.0344465104324342,0.24803233394114002,1536,0,1,1,7911.1062919206215,0.9168705549086028,0.0081565193171363,1962.2101576415096
1536,1536,374.3295820131128,1673121,131130,52482048,35384848,1.02405176280645,0.2074270872143083,1.0,1536,0,1,1,361.26392319112034,0.7310362803135811,0.0388753826102555,1962.2101576415096
1536,2048,194.22223136586092,1376499,117956,52219904,38055272,1.0354598371918622,0.1342824170603527,1.0,1536,0,1,1,183.17508779066188,0.7480538561309528,0.0432577347065079,1962.2101576415096
1536,256,3238.496550850525,2056128,149693,37011456,34278376,0.4866856899600035,0.0928173369113092,0.32701302330891935,1536,0,1,1,6000.403708043972,0.923891829730618,0.0092536427703463,1962.2101576415096
1536,512,1146.0545679220852,2021431,213254,36749312,33571384,0.7862494358508858,0.23838861955499,1.0,1536,0,1,1,1536.7529266671042,0.9287220556177412,0.0119039819105145,1962.2101576415096
2048,1024,823.9532454837802,1761579,137702,43438080,33803296,0.8561988572930647,0.1622133816884934,1.0,2048,0,1,1,949.6652725222123,0.8377317224944875,0.031042842024458,1962.2101576415096
2048,128,2594.791462116016,2012490,291624,35962880,32598840,0.6649074448614214,0.2638387577115918,0.2347185488274745,2048,0,1,1,8359.842745465317,0.9226732760337876,0.012903915661415,1962.2101576415096
2048,1536,513.7116555038315,1658439,135563,51433472,35228360,0.9896431188387129,0.1638004983946933,1.0,2048,0,1,1,582.9027033725774,0.7220324255448163,0.0495349904773654,1962.2101576415096
2048,2048,368.59914763547744,1753632,111775,52219904,38796696,1.0076536943979393,0.1706515618317211,1.0,2048,0,1,1,375.45905607413016,0.7440259761620884,0.0397863099618089,1962.2101576415096
2048,256,2550.822109575879,1910499,163956,36225024,33104624,0.5656983527992305,0.1866728254569939,0.3747016978478972,2048,0,1,1,5236.726091478855,0.9259194306527136,0.0093531997687712,1962.2101576415096
2048,512,1765.2015785569383,1855238,133355,35962880,33598376,0.6014619726759753,0.108942070744134,0.9211461648473871,2048,0,1,1,2130.1832787488215,0.9270176477236228,0.0106269430805802,1962.2101576415096
256,1024,856.251233835689,1831131,134250,42913792,35408504,0.883978009325273,0.1834653858480242,1.0,256,0,1,1,948.7403355328114,0.8446580173213172,0.025412680575703,1962.2101576415096
256,128,1128.3623326914258,2139570,226369,36487168,33715728,0.45517563279218076,0.0434077241691636,0.19163648757983243,256,0,1,1,10239.230443127835,0.9261323728142524,0.0087599578510256,1962.2101576415096
256,1536,342.98561091076164,1551021,152397,52219904,40509768,1.0534245849986776,0.1628462647121762,1.0,256,0,1,1,365.69478259639385,0.7265664821853837,0.0514828434451967,1962.2101576415096
256,2048,223.343808826252,1497549,138776,53268480,38776360,1.0335694981282264,0.1421661773576471,1.0,256,0,1,1,175.66833918340592,0.7367618643432873,0.0525385267950752,1962.2101576415096
256,256,2993.7828208531696,1888215,221481,36225024,33130352,0.4208526716000141,0.0418772938442355,0.28290224732318403,256,0,1,1,6936.000601649181,0.9195153554779848,0.008516606955311,1962.2101576415096
256,512,1573.3247855889438,1971532,166680,36225024,33449400,0.6560198706123627,0.1456494881727807,0.8674191618549,256,0,1,1,2262.1245228725347,0.9239069914709948,0.0131039988635656,1962.2101576415096
512,1024,837.5818105096914,1735739,127380,42127360,35824672,0.7850197070095182,0.1803227129949182,1.0,512,0,1,1,893.6090272752132,0.8397051832928208,0.0318112943228924,1962.2101576415096
512,128,2762.6781229651897,1910455,206480,35700736,33197744,0.5528159824765136,0.1388648763856095,0.20849614876436035,512,0,1,1,9411.253729483387,0.9204115799453992,0.0066078952503856,1962.2101576415096
512,1536,352.47739054088584,128799,12607,51957760,39933728,1.0629304027530697,0.2035722093657873,1.0,512,0,1,1,331.4679890507113,0.7286611393004875,0.0490387316920623,1962.2101576415096
512,2048,196.91256039606532,1396390,118277,53006336,38451896,1.0456911385935648,0.1830782787168724,1.0,512,0,1,1,164.18122458706895,0.7336206174785579,0.0336065266378335,1962.2101576415096
512,256,3082.9325942052533,1802080,147689,36225024,32768032,0.43373496427466873,0.0423994689983608,0.31578500804040693,512,0,1,1,6213.753369160675,0.9240386832676848,0.0117525710052196,1962.2101576415096
512,512,1519.4475891706732,1905981,196576,36225024,33021104,0.7686039629160737,0.3001818109943638,1.0,512,0,1,1,1850.9254042770358,0.9305064175799496,0.0142730479224016,1962.2101576415096
