cpu,memory,duration_std,userDiff,sysDiff,heapTotal,heapUsed,avg_cpu_util,cpu_util_std,slo_preservation,total_cpu_shares,cpu_shares_others,num_containers,arrival_rate,latency,memory_util,memory_util_std,slo_duration
1024,1024,531.2330126620767,1691501,105101,42651648,36184368,0.9519670637246289,0.185945809716343,0.656042185682343,1024,0,1,1,455.969155114427,0.8487069192781359,0.0273212167909545,299.135001125
1024,128,870.8451332319073,1817767,169635,36487168,33309400,0.8361422235549522,0.1385770699045184,0.3998509152567403,1024,0,1,1,748.116334641696,0.92819744142658,0.0127207050426305,299.135001125
1024,1536,364.3420047700681,1485211,103362,51957760,34967280,1.0976131657145036,0.3942674070818877,1.0,1024,0,1,1,270.22243680164814,0.7392172644232594,0.0469186694294268,299.135001125
1024,2048,227.307766014654,1602136,127385,53530624,38342816,1.0555142945733589,0.2059915558085148,1.0,1024,0,1,1,157.20380126575955,0.7209636254983114,0.0681619258942281,299.135001125
1024,256,605.6295611127383,1993295,155486,36749312,33764640,0.9792837809057877,0.1965315418720371,0.6234572905169923,1024,0,1,1,479.80030978055754,0.9282898321929488,0.0081805899017331,299.135001125
1024,512,571.1177040668173,1653675,106915,35700736,32888312,0.9907500455563104,0.1447904246861392,0.6440005290419707,1024,0,1,1,464.4949617820963,0.9264203188832246,0.0099903879891388,299.135001125
128,1024,512.1453724334077,1698337,155139,42651648,36268800,0.9299669267717274,0.2506295901454363,0.630633061243214,128,0,1,1,474.3408164096135,0.8505147062472904,0.0191558377851625,299.135001125
128,128,843.9711409295171,1750354,188596,35962880,33377640,0.8774650189373563,0.1268045242046013,0.3882094661055839,128,0,1,1,770.5505075026745,0.9240118087753396,0.0078836646278576,299.135001125
128,1536,342.0799580099896,1480909,112947,51957760,34723616,1.0199190979876875,0.1717335466630485,0.9693500304118402,128,0,1,1,308.5933788003378,0.7649253607217308,0.048519530897697,299.135001125
128,2048,221.25080379752657,1539975,120897,53268480,38589024,1.1069569454391177,0.1662159812871333,1.0,128,0,1,1,128.32097075908715,0.6950513249658103,0.0538763760871191,299.135001125
128,256,587.8281966686905,1834289,148229,36487168,33770512,0.9365094688025918,0.2390315402432798,0.6190766554483259,128,0,1,1,483.1954144812179,0.9353788761901484,0.010002117542226,299.135001125
128,512,563.1335548714208,1756306,113437,35962880,32428656,0.9873702969984232,0.1495108418897352,0.6169278825354035,128,0,1,1,484.87839436862146,0.9297690479614478,0.0124558068338867,299.135001125
1536,1024,573.1590844002284,1918834,129939,43700224,34576632,0.9678493517628042,0.1550376873267291,0.6135891827646314,1536,0,1,1,487.51674496149997,0.8467272832203354,0.0310538199597639,299.135001125
1536,128,965.8617902796956,2059292,217308,36749312,33443432,0.8780311700823005,0.103782436240425,0.36674174396269393,1536,0,1,1,815.6557197247469,0.927555788775626,0.0100096634386657,299.135001125
1536,1536,349.1576133957011,1609834,104410,51695616,35450224,1.0246787275449716,0.1691591241622592,1.0,1536,0,1,1,268.13816607245525,0.7200335236925909,0.0496060061102768,299.135001125
1536,2048,223.5493947247774,1582659,87080,53268480,39173112,1.111480636459271,0.1777825931310145,1.0,1536,0,1,1,135.7651799075506,0.7262467936360385,0.0489428172174442,299.135001125
1536,256,575.233658505627,1792294,162646,36487168,33507400,0.9156432131731316,0.2026214913457562,0.6353069823649552,1536,0,1,1,470.8511151749949,0.930259663151364,0.011054673114195,299.135001125
1536,512,559.8223840350804,1768253,139511,35700736,33079056,1.0094055501863985,0.1295693422922256,0.6459089421219097,1536,0,1,1,463.1225574030539,0.931375787005302,0.0098995428790976,299.135001125
2048,1024,575.873529932675,1694001,114620,43438080,37193632,0.972773531647348,0.1708190383332307,0.640400643234104,2048,0,1,1,467.1060285235357,0.8362594854485375,0.0261805106643669,299.135001125
2048,128,834.0268007379767,1686406,142929,35962880,32188536,0.8793816688498178,0.1229687343007772,0.40838621253705154,2048,0,1,1,732.4806566476835,0.9295784065043022,0.0135091000545658,299.135001125
2048,1536,371.55420835289095,1497648,137525,51433472,36941824,0.9908274602832591,0.197662834659148,1.0,2048,0,1,1,286.5112247060459,0.7368538729217465,0.0402888608435416,299.135001125
2048,2048,205.2535965773955,1453060,107401,53006336,39915192,1.0614496628990238,0.1645272845792139,1.0,2048,0,1,1,135.25908568467673,0.7322104498564814,0.0492619111356214,299.135001125
2048,256,549.4135203212264,1775338,132585,35962880,32990280,0.9306749806044005,0.155297699170254,0.6667140968242207,2048,0,1,1,448.67058091298617,0.933585643088016,0.0104348104469586,299.135001125
2048,512,567.7580548587125,1825913,163597,36749312,34146584,0.9781891530421774,0.1544642562367901,0.6127096494712807,2048,0,1,1,488.2165661714802,0.9264223863307526,0.0336441279804424,299.135001125
256,1024,558.8932154668596,1503686,133198,42913792,34101944,0.9443717313967877,0.1640571223376319,0.6091804251800603,256,0,1,1,491.04499875645587,0.8385262029757484,0.0343465715087497,299.135001125
256,128,854.5846663358489,1867463,184837,35962880,33318400,0.8663872792288448,0.1470531730231686,0.39179621064400333,256,0,1,1,763.4964121610716,0.931844160146674,0.0106872213133854,299.135001125
256,1536,350.682557697712,1611917,96997,53268480,35948464,0.9957172940699895,0.1962634843882069,1.0,256,0,1,1,291.2520760783258,0.736153127534988,0.0540124515005976,299.135001125
256,2048,222.19917287796832,1509951,108065,53268480,37443448,1.0878399334591902,0.1245478712981154,1.0,256,0,1,1,142.6998493874134,0.7226346430570523,0.0649350764531452,299.135001125
256,256,592.5528987204434,1612455,154011,35962880,33379544,0.8392132768603805,0.2103260007245105,0.6654580805326731,256,0,1,1,449.5174224731844,0.9339595950738284,0.0104524926648225,299.135001125
256,512,574.3943283016896,1733563,117882,35962880,31909784,0.9212782364337461,0.2047603020138493,0.6772952497674114,256,0,1,1,441.6611532824501,0.92378283761732,0.01346823948015,299.135001125
512,1024,526.0715096811065,1712138,171774,43700224,33885008,0.9557584762937336,0.1706952076687167,0.6163538012823707,512,0,1,1,485.3300174390536,0.8408465403402008,0.0278147972677899,299.135001125
512,128,919.782258851218,1742247,165220,35700736,33392488,0.8088348014571042,0.1546628915058916,0.37991850574162556,512,0,1,1,787.3662288207547,0.930978147491136,0.0091345983331815,299.135001125
512,1536,401.3423851406809,1516148,123232,51171328,40476240,1.0112598178650678,0.1649280964813863,0.9762911255612059,512,0,1,1,306.3993856884101,0.7468717147489496,0.0410187088973253,299.135001125
512,2048,213.1686182935669,1491349,106314,53530624,38563184,1.0516807142475222,0.1205456476967904,1.0,512,0,1,1,141.28809326223134,0.7153696125300067,0.0420912832899966,299.135001125
512,256,552.9609842655395,1886720,146348,36749312,33996240,0.9433468323690365,0.1587935274783181,0.6465743568207618,512,0,1,1,462.6459400522186,0.9368685334653912,0.0126600008503891,299.135001125
512,512,557.8277215821134,1794427,136660,36225024,32790912,0.9515074929771964,0.1692966675080834,0.6354516948717484,512,0,1,1,470.74388744115896,0.9285329764178074,0.0151205768422138,299.135001125
