cpu,memory,duration_std,userDiff,sysDiff,heapTotal,heapUsed,avg_cpu_util,cpu_util_std,slo_preservation,total_cpu_shares,cpu_shares_others,num_containers,arrival_rate,latency,memory_util,memory_util_std,slo_duration
1024,1024,66.00567424283925,250146,38410,39694336,30372808,1.0399789042683043,0.2245298842553515,0.8052061716781812,1024,0,1,1,205.02977343687698,0.7563661985758874,0.1112033441403207,165.09123894915257
1024,128,116.32243246733393,260399,64115,32743424,30372328,0.8721893900895822,0.1478518237499023,0.48915508623628795,1024,0,1,1,337.50285664903566,0.8705123627951655,0.0894713310068913,165.09123894915257
1024,1536,42.21275247147012,222122,54002,38506496,15989536,1.3076512301515402,0.2675135222615821,1.0,1024,0,1,1,132.20480378316682,0.7052537792080249,0.1557096491134196,165.09123894915257
1024,2048,29.45917617468471,267362,25013,50573312,30426808,1.7372070680259242,0.2444043555523847,1.0,1024,0,1,1,84.21707177171024,0.7340390410680097,0.0890727161060714,165.09123894915257
1024,256,42.2906224751538,256191,39324,33005568,30462704,1.3364036648896835,0.2275299530990648,0.9488050464214928,1024,0,1,1,173.99911559472588,0.8708564310439861,0.0717820713481891,165.09123894915257
1024,512,53.8991849585453,251359,35690,23035904,15784544,1.1618062077803837,0.2083028604402381,0.7443221267692375,1024,0,1,1,221.80079432239677,0.8780862900352882,0.0848687520493223,165.09123894915257
128,1024,94.90106668232404,253777,28276,39694336,30365432,0.9937545562547044,0.1422612599435382,0.7121923356083736,128,0,1,1,231.80709858121017,0.7894361758605315,0.0905054551245671,165.09123894915257
128,128,290.8255815503516,268551,52906,32743424,30316640,0.8808104331725085,0.2457169492526837,0.42498946928895603,128,0,1,1,388.4595993057532,0.8836278121612567,0.0532859338832098,165.09123894915257
128,1536,62.19839968183662,317883,32258,51359744,30882856,1.2922011003460727,0.240208621819412,1.0,128,0,1,1,140.07264446841077,0.7431346124796823,0.0991949800997652,165.09123894915257
128,2048,28.94424390393237,270756,17464,50311168,30574208,1.7551809045776585,0.2821101724404943,1.0,128,0,1,1,81.63675775339999,0.7340262281448273,0.1121145294225855,165.09123894915257
128,256,58.63145681121763,332889,32310,33005568,30277160,0.952032025477781,0.1365475967230484,0.5875959163010309,128,0,1,1,280.9604940558756,0.8753975728362059,0.0613002307338991,165.09123894915257
128,512,53.02042970319369,340176,62855,33529856,30450472,1.0849531553658396,0.1301962819111564,0.6747509394888532,128,0,1,1,244.6698911960238,0.8680020411969809,0.0655997995041494,165.09123894915257
1536,1024,79.17557297396918,351172,23426,39694336,30433408,0.9232270827649857,0.172604388801524,0.6600546864748581,1536,0,1,1,250.11751652102086,0.7335868500928989,0.1149116630272776,165.09123894915257
1536,128,292.8545742862793,218592,57138,33005568,29922024,0.8569259117712592,0.3047761963372125,0.3998578450979885,1536,0,1,1,412.8748278246125,0.864624075231902,0.0661598936895113,165.09123894915257
1536,1536,45.04120993487204,248416,39445,39817216,15921680,1.198928033699062,0.2281566895847084,1.0,1536,0,1,1,143.47665613742694,0.7223905859280736,0.103373634970661,165.09123894915257
1536,2048,25.36148516508785,244022,29172,50311168,30536696,1.4440216361281102,0.2039616132394427,1.0,1536,0,1,1,97.96876149356333,0.7353909360194357,0.0838352092710289,165.09123894915257
1536,256,42.21036967637842,232563,19615,33267712,30694040,1.2192104169053377,0.1888262388861653,0.8416875271734829,1536,0,1,1,196.14314531136574,0.8889524814037244,0.0485303160920193,165.09123894915257
1536,512,58.35048575126182,302891,52901,33005568,30310032,1.0555404068906746,0.1637052169460765,0.6284603245625965,1536,0,1,1,262.6915852867161,0.8558303586224886,0.0751883781007658,165.09123894915257
2048,1024,74.93436331959843,248316,35705,39432192,30632880,1.0604337919906388,0.1618784884453707,0.7754104231882972,2048,0,1,1,212.90820191755734,0.7848325016335079,0.1126141571435317,165.09123894915257
2048,128,183.5224925067457,287906,55488,33005568,30311744,1.0061240205994801,0.2670633312437258,0.503437631499476,2048,0,1,1,327.92788742755005,0.8684533650817879,0.0699080342766706,165.09123894915257
2048,1536,52.19032518375015,278158,56347,50311168,30534240,1.3391979333392892,0.2439711101750443,1.0,2048,0,1,1,128.4031122842286,0.7139009434759491,0.1347763289567804,165.09123894915257
2048,2048,28.90067073593572,239838,46936,50835456,30685608,1.5952539878527898,0.3312642178904382,1.0,2048,0,1,1,91.62815685330628,0.7383603845781461,0.0875054715308881,165.09123894915257
2048,256,41.1499865419017,214654,32456,32743424,29951896,1.048295424649571,0.1388850887906148,0.6876493126960316,2048,0,1,1,240.08056999560978,0.865424041885032,0.0683214490828713,165.09123894915257
2048,512,47.653291134870166,220767,54114,33005568,30357520,1.1391027274793137,0.1704622852728685,0.7115426594387989,2048,0,1,1,232.01875075116612,0.8684916085394534,0.0737918886450657,165.09123894915257
256,1024,89.72990183226244,234275,43074,37597184,30517984,0.9443860027558556,0.2271910357579444,0.6975594293091437,256,0,1,1,236.669783265144,0.8107311549215703,0.1069230373859297,165.09123894915257
256,128,642.1181480652589,207888,45407,33005568,30400288,0.8258117161142513,0.3400189581812987,0.2775881040548498,256,0,1,1,594.7345600823423,0.8871056078682843,0.048347631240709,165.09123894915257
256,1536,49.81286127532759,238134,39674,37982208,15905984,1.2796954170876504,0.2565876034740803,1.0,256,0,1,1,142.46844547583876,0.6900952099760045,0.1433787068903615,165.09123894915257
256,2048,32.15335658175939,280038,50870,50311168,31934272,1.6281028818734957,0.3800925927119584,1.0,256,0,1,1,88.39617162940232,0.7499474478842485,0.1004702314419802,165.09123894915257
256,256,47.56971210765183,344994,42154,33267712,30550232,1.3461775136774856,0.252227173910749,0.9050367318104164,256,0,1,1,182.4138547602455,0.8695392114762364,0.1077781682355393,165.09123894915257
256,512,53.21627367729382,306905,48900,33005568,30307856,1.1367860076699836,0.2110684958605518,0.662381115628691,256,0,1,1,249.2390484177047,0.8515858959176977,0.072641510218464,165.09123894915257
512,1024,96.64949510677788,295168,31437,39170048,31480152,0.9721091096399738,0.1800795172707578,0.6539676689161573,512,0,1,1,252.44556695404202,0.7452919238321248,0.1413826041756803,165.09123894915257
512,128,53.24342905854398,217965,75993,33529856,30118544,1.2130868783348971,0.2644522136959763,0.7897183618582131,512,0,1,1,209.05077926856313,0.8703630390398518,0.0647274749604411,165.09123894915257
512,1536,50.74735909883719,331880,18662,49262592,30310992,1.1916720428512646,0.3134780792922729,1.0,512,0,1,1,157.35954053946722,0.6798668897047234,0.1511217328532686,165.09123894915257
512,2048,29.46030098806248,234772,46450,50573312,30577544,1.5683237400879912,0.2834674419213158,1.0,512,0,1,1,84.15486419294649,0.7226857304412031,0.0966405331417613,165.09123894915257
512,256,51.569729239385246,300943,43389,33267712,29982896,1.0454849356675513,0.1739930257198271,0.6659654559983678,512,0,1,1,247.89760108752128,0.8686349217177595,0.0791690249468539,165.09123894915257
512,512,62.35576806017016,277102,53893,33005568,30729920,1.1069921215231726,0.183074469991071,0.6909177733600714,512,0,1,1,238.9448430980156,0.8797142218700026,0.0641922445973952,165.09123894915257
