cpu,memory,duration_std,userDiff,sysDiff,heapTotal,heapUsed,avg_cpu_util,cpu_util_std,slo_preservation,total_cpu_shares,cpu_shares_others,num_containers,arrival_rate,latency,memory_util,memory_util_std,slo_duration
1024,1024,621.716293400515,2097072,173615,59699200,47353728,1.0164700077894844,0.2464680155050321,1.0,1024,0,1,1,564.2022695548827,0.8564210413984554,0.0920686928977029,1749.884018451923
1024,128,3361.1979880802555,2261256,235774,49864704,46977176,0.44540824203545,0.1666846940527081,0.21443172555039472,1024,0,1,1,8160.564925550971,0.9362494192109588,0.0116817601279955,1749.884018451923
1024,1536,339.3470572576134,1605181,136767,67432448,47242048,1.1764881722914529,0.1828920983217966,1.0,1024,0,1,1,316.15725603485464,0.8144766992721427,0.0667444091116281,1749.884018451923
1024,2048,223.2542002328676,1628836,159277,63762432,51398896,1.3882230609974842,0.2372645482882331,1.0,1024,0,1,1,199.37369119567006,0.8001784898538595,0.0702707644050888,1749.884018451923
1024,256,3515.90604036275,2211952,199841,51175424,46995368,0.504388835750205,0.155988539340339,0.36732237435399473,1024,0,1,1,4763.891721895303,0.9133234648871726,0.0617369232749672,1749.884018451923
1024,512,1541.9354238653998,2176342,184869,50126848,47232144,0.6331537691837318,0.0685025262422377,1.0,1024,0,1,1,1688.631360567531,0.9361862707647024,0.0398980528013422,1749.884018451923
128,1024,596.987319887231,2034641,130713,56815616,47064464,1.0099047700842085,0.1792754088343725,1.0,128,0,1,1,560.1252091229463,0.8857280088726693,0.0576649068869833,1749.884018451923
128,128,370.268689,1892737,180518,50126848,46895632,0.44701348622970977,0.0204316135923279,0.3071686054973877,128,0,1,1,5696.819229355797,0.9300935431334044,0.0054456713011437,1749.884018451923
128,1536,385.3865491572225,1963505,124380,62713856,50768176,1.2148102329298505,0.2160332512281084,1.0,128,0,1,1,356.5410564573308,0.8208609737578006,0.0615635884644027,1749.884018451923
128,2048,221.2970567527901,169855,31001,63500288,49486312,1.421806451692416,0.3011935579197711,1.0,128,0,1,1,193.67563932018112,0.7838562489952535,0.0781637395044418,1749.884018451923
128,256,3947.838282362569,2055714,230080,49864704,46940656,0.4045820177728026,0.120186129982651,0.2954988269871136,128,0,1,1,5921.796835180783,0.934070003494828,0.0236900071711719,1749.884018451923
128,512,1528.6422329505506,2088206,169445,50388992,47414240,0.6151126030577385,0.1022258173569712,0.9782589873380945,128,0,1,1,1788.7737716711092,0.9285684478598482,0.0401779938541021,1749.884018451923
1536,1024,569.6879133013737,1869812,143911,56291328,49307464,1.0558635057472967,0.1719201418256613,1.0,1536,0,1,1,547.1877000048138,0.8517376960030647,0.0751105290580124,1749.884018451923
1536,128,2080.3451110531832,2444799,238220,49864704,46985656,0.5541914315869628,0.1741342231026991,0.2876814974507295,1536,0,1,1,6082.7131183562515,0.9379764509354788,0.0069656188240393,1749.884018451923
1536,1536,348.8181202501992,1584141,132917,61403136,50348280,1.2159401605966689,0.1918176385016516,1.0,1536,0,1,1,331.47977530268184,0.8194030873205757,0.0506538038007465,1749.884018451923
1536,2048,204.62572549114407,1445654,112931,62713856,50678072,1.426323853839479,0.2610056671333727,1.0,1536,0,1,1,187.78967225762463,0.7995538656319386,0.0794802708716702,1749.884018451923
1536,256,3692.7271627385767,2176882,152980,50913280,46989688,0.4048162815763242,0.1392047376963602,0.3067560884584012,1536,0,1,1,5704.480153094737,0.9258568558492428,0.0492471458494388,1749.884018451923
1536,512,1574.9662348725476,2174147,133401,49602560,46915056,0.669889958374871,0.1176143208211636,0.9708679099947337,1536,0,1,1,1802.3914483499768,0.929518361710322,0.0417659820609178,1749.884018451923
2048,1024,608.2140301750683,1773286,174693,58912768,47187464,1.0345016727956715,0.2067555511631528,1.0,2048,0,1,1,574.2851299892618,0.8667134278716272,0.0754211794930076,1749.884018451923
2048,128,140.9582805,1888003,233601,51699712,47397800,0.795921279560675,0.039869965264687,0.5463739085539148,2048,0,1,1,3202.722514849461,0.9290564145229948,0.0122660076441324,1749.884018451923
2048,1536,343.0103099960776,1722995,151217,68743168,50815184,1.1394919283944867,0.1840677054669234,1.0,2048,0,1,1,354.54069116086873,0.8002841306984978,0.0455410646669949,1749.884018451923
2048,2048,224.8857449722952,1543491,140691,62976000,51210552,1.3942643833342592,0.256749371495499,1.0,2048,0,1,1,192.36025393949532,0.790609608251278,0.0683164772868095,1749.884018451923
2048,256,3555.6074315361816,2422741,157622,50126848,47311088,0.37016079480340586,0.0593449850919375,0.30937486541877574,2048,0,1,1,5656.193227214004,0.9335788611651652,0.023532070714765,1749.884018451923
2048,512,1555.7025602033918,2192344,146586,50126848,46917560,0.6435274413410477,0.0891463919659848,1.0,2048,0,1,1,1727.1466156854885,0.9034010341196244,0.0715818529912998,1749.884018451923
256,1024,653.2796774459309,2155704,187632,56815616,50456104,1.0690356492429456,0.1781242223789706,1.0,256,0,1,1,571.0902132346523,0.8833481675737398,0.0413444275808997,1749.884018451923
256,128,383.1724251820477,2306929,248068,50126848,47113080,0.4591294351629379,0.0259660396931022,0.2573148221042717,256,0,1,1,6800.556626088245,0.9330806690237206,0.011677180512109,1749.884018451923
256,1536,373.91392260767645,1713434,144699,63500288,51594416,1.2708714336732385,0.1942013605533446,1.0,256,0,1,1,322.25742739401323,0.8053365367555673,0.0585166078661842,1749.884018451923
256,2048,212.02471141823384,1541906,134698,67432448,49994920,1.4708141695158594,0.3612246228771913,1.0,256,0,1,1,175.98934603988118,0.7599385107013936,0.1152373501990148,1749.884018451923
256,256,3597.4096296342186,2092431,244728,50126848,46876816,0.3563954256641366,0.0675581782753198,0.28889149035280304,256,0,1,1,6057.236287281816,0.9273090104647176,0.0423013310311267,1749.884018451923
256,512,1553.2684357839498,2095349,205480,50126848,47278048,0.7083138053802628,0.1922997798365316,1.0,256,0,1,1,1716.22532599037,0.9330940556271616,0.0392704447247626,1749.884018451923
512,1024,630.2211485385741,2097183,145556,57077760,50468688,0.9930834683182677,0.1667005846062158,1.0,512,0,1,1,622.2839754547989,0.8582501464975766,0.063838506292754,1749.884018451923
512,128,1611.154183493429,2439974,247800,50126848,46995864,0.3299365231755525,0.0796240413673025,0.17696600993069975,512,0,1,1,9888.24926966021,0.9399313225224376,0.0071179777641365,1749.884018451923
512,1536,364.1202456867942,1838007,168051,62713856,50874016,1.245194461772782,0.1850197812846699,1.0,512,0,1,1,316.1471998412074,0.8308903726235801,0.0374413786190653,1749.884018451923
512,2048,195.4528014836957,1479001,105705,62713856,50310976,1.4446990264950659,0.3068798284380643,1.0,512,0,1,1,193.18248162270334,0.8113918128782723,0.0643231721816952,1749.884018451923
512,256,4031.661581175148,2460171,263913,52224000,46863688,0.3890678389867505,0.1245671841050493,0.3118333784611602,512,0,1,1,5611.599460863605,0.9419249618235996,0.0175156555889118,1749.884018451923
512,512,1602.972613963905,2104395,176551,50126848,46858616,0.6503798930908118,0.0468407596674639,0.9117673378143668,512,0,1,1,1919.2220930469375,0.9241175042048244,0.0388848894123377,1749.884018451923
