cpu,memory,duration_std,userDiff,sysDiff,heapTotal,heapUsed,avg_cpu_util,cpu_util_std,slo_preservation,total_cpu_shares,cpu_shares_others,num_containers,arrival_rate,latency,memory_util,memory_util_std,slo_duration
1024,1024,608.2047839646536,1958453,167746,57864192,48849752,0.9855856919888738,0.1782680625725108,1.0,1024,0,1,1,571.2481526952528,0.8479044258029529,0.0857748415062453,1724.260114885417
1024,1536,208.373881470096,118450,23744,76877824,64063416,1.4421362942339673,0.2425912454939029,1.0,1024,0,1,1,187.96022125808972,0.7531277243590591,0.095914602692498,1724.260114885417
1024,2048,199.4350748341121,1476907,152979,89714688,49214592,1.381698179491235,0.2266649599959747,1.0,1024,0,1,1,204.1110997366897,0.775527608405953,0.0943845609483421,1724.260114885417
1024,256,3559.192056715277,2109865,201359,50126848,46836136,0.36354758661954767,0.0717420043145426,0.3371882315812356,1024,0,1,1,5113.642628627764,0.9249326900788608,0.0491081218083886,1724.260114885417
1024,512,1598.451496535841,2073527,217110,50388992,47267048,0.6557830871623794,0.1075840901626919,1.0,1024,0,1,1,1664.2579780837277,0.9367537396582736,0.0440976960484931,1724.260114885417
128,1024,578.4977124806882,1843797,152494,57864192,47691872,1.0419962744157871,0.1549260000442044,1.0,128,0,1,1,569.5437470788236,0.8590463606131429,0.0769867192284508,1724.260114885417
128,1536,214.6561345981773,1619492,133533,79228928,49318200,1.4015249701663215,0.2235608903498189,1.0,128,0,1,1,183.73198667353836,0.7749744434122925,0.0847513433263883,1724.260114885417
128,2048,214.92054621661097,1489973,162915,93646848,47343464,1.3673700810942004,0.2327104840215511,1.0,128,0,1,1,177.0123137946851,0.7686081698344573,0.1012010798667601,1724.260114885417
128,256,3408.5495348110685,2243504,225794,50126848,47046872,0.38372381301862524,0.0440418825638449,0.3319607273307331,128,0,1,1,5194.168987247498,0.9274879429887865,0.0274740640590206,1724.260114885417
128,512,1488.0487403650045,2309978,204050,51437568,46778336,0.6385848369860934,0.0967562904784755,0.9979626378097879,128,0,1,1,1727.7802289969713,0.936256682342726,0.0302349348397853,1724.260114885417
1536,1024,625.4399791568173,2147610,129542,58126336,47362776,0.9977859407391243,0.1533601326076012,1.0,1536,0,1,1,599.5811793369221,0.8712411087855344,0.0732205770828016,1724.260114885417
1536,1536,209.8003912042374,1525230,138561,78704640,48573832,1.4614865343265235,0.2544247415144888,1.0,1536,0,1,1,198.06460835665015,0.7754760471704514,0.0835945865221595,1724.260114885417
1536,2048,229.91766144941337,1624288,154295,94695424,47464848,1.4344768690904757,0.3175365602678734,1.0,1536,0,1,1,197.11213904653277,0.757734877541069,0.0966090543658801,1724.260114885417
1536,256,3101.7750493835897,2232371,176369,50388992,47253040,0.3995215832747534,0.0440218360236391,0.4008054891442918,1536,0,1,1,4301.987277087104,0.9358884922037476,0.023794911667443,1724.260114885417
1536,512,1226.7461340033651,2350413,176570,50126848,47018816,0.7700808426095137,0.1207707874666477,1.0,1536,0,1,1,1314.57638152276,0.9307844074047996,0.0478875694499612,1724.260114885417
2048,1024,615.0080972504278,2144682,152454,58650624,47552256,1.0260061087039989,0.1439078013369109,1.0,2048,0,1,1,590.5182220950996,0.865983025900737,0.0562694427152318,1724.260114885417
2048,1536,210.9948517680045,1445395,199844,78704640,48499000,1.4454470205855119,0.2587936489762335,1.0,2048,0,1,1,192.68819312599612,0.7575958557206459,0.0819522494883544,1724.260114885417
2048,2048,226.6996553127955,1625162,151381,94171136,47473144,1.3985543389410215,0.1621215399319156,1.0,2048,0,1,1,205.03516690075878,0.7493174523836449,0.0842117084171225,1724.260114885417
2048,256,3000.1237318520857,2101639,154896,50388992,46795552,0.4593964444747645,0.1442496249110831,0.46064978455763456,2048,0,1,1,3743.104138301588,0.9131206166128945,0.0408574747328923,1724.260114885417
2048,512,1172.8752758575372,2090537,169962,50126848,47248944,0.6959128701255648,0.1068775547916923,1.0,2048,0,1,1,1352.7206441402957,0.9200858042713712,0.0445351110309988,1724.260114885417
256,1024,591.2818599730331,1883111,164086,57864192,48602080,0.9462944244919314,0.1602763572102606,1.0,256,0,1,1,572.6066456115375,0.8591664804120922,0.0749243631128431,1724.260114885417
256,1536,209.6327206198328,203175,16215,77139968,63840192,1.4696280131928052,0.2849734966057366,1.0,256,0,1,1,194.4577378116947,0.7788466532209173,0.0890539580443476,1724.260114885417
256,2048,213.63612087587444,1559004,126406,90501120,48244400,1.393736407701463,0.3064134417953318,1.0,256,0,1,1,190.46376954346462,0.7519034391600468,0.1165420865120766,1724.260114885417
256,256,3264.2040645958086,2111205,200566,51437568,46855160,0.4317152904572549,0.1145096900777758,0.3747153823455582,256,0,1,1,4601.519436144536,0.929222397335006,0.0378986106025867,1724.260114885417
256,512,1189.844893595456,445950,38706,56942592,47222904,0.7740685079313728,0.1359650520413668,1.0,256,0,1,1,1276.1792225600072,0.913647010401915,0.0586097762415073,1724.260114885417
512,1024,587.4231729122034,1924045,163015,57077760,48597624,0.995492946314428,0.1646582951976695,1.0,512,0,1,1,600.5180912447204,0.8536232530023847,0.0740072366325173,1724.260114885417
512,1536,227.1162559419444,1666829,154915,78966784,49464304,1.4878525260152415,0.307631721052275,1.0,512,0,1,1,180.11397018508552,0.7594838677400663,0.0926667511343622,1724.260114885417
512,2048,218.2050502444337,1563976,121116,90763264,49186496,1.4001234170383348,0.2031583906035003,1.0,512,0,1,1,190.54274930908602,0.7759956077983019,0.1020006236566059,1724.260114885417
512,256,2282.3282912768336,2224993,176251,51175424,46910712,0.5219545226567511,0.0994632376435385,0.5934287431052696,512,0,1,1,2905.5891459904337,0.9378580552423288,0.0274061418795769,1724.260114885417
512,512,846.232131859434,2043321,148850,49864704,47505768,0.8354501954359709,0.1238276290844723,1.0,512,0,1,1,923.3091019252037,0.939100956653488,0.031413219783638,1724.260114885417
