cpu,memory,duration_std,userDiff,sysDiff,heapTotal,heapUsed,avg_cpu_util,cpu_util_std,slo_preservation,total_cpu_shares,cpu_shares_others,num_containers,arrival_rate,latency,memory_util,memory_util_std,slo_duration
1024,1024,108.67561376915036,566423,62943,50712576,44269464,1.0161802779208096,0.1515452941601884,0.28325679890313166,1024,0,1,1,1395.88080860511,0.7761485790694436,0.1034031359181959,395.3927294957984
1024,128,172.51005607850269,593848,85283,35627008,29758240,1.0028018808037433,0.2470839835802815,0.20907800947839994,1024,0,1,1,1891.1253769930636,0.8981138030623018,0.0551038064594614,395.3927294957984
1024,1536,56.10159331662791,455281,70586,77066240,58848224,1.1217771370830054,0.1895516836332466,0.37539938981723603,1024,0,1,1,1053.258849696842,0.6489053822079875,0.1537777717767115,395.3927294957984
1024,2048,36.5623237657266,495583,61147,69726208,59726192,1.2081949600320507,0.160679073580434,0.5070786018633241,1024,0,1,1,779.7464299279798,0.4861566205557975,0.1934334948535753,395.3927294957984
1024,256,51.3392219194345,561669,69536,34316288,29719216,1.123734485019231,0.1227970937505249,0.2870878144015505,1024,0,1,1,1377.2536125227575,0.8789031900008203,0.0744767806257754,395.3927294957984
1024,512,77.1640710957627,567256,59196,36151296,29618072,1.0091260662818984,0.08969629301632,0.23780597039794835,1024,0,1,1,1662.6694814858593,0.8859966191263815,0.0821190464062508,395.3927294957984
128,1024,102.81042085775805,488217,66958,50712576,44501872,1.0458567567065813,0.1954119410003637,0.27854059300800577,128,0,1,1,1419.5156448325436,0.7913332979712735,0.1231234211559346,395.3927294957984
128,128,246.8412942776365,617376,78091,34316288,29581752,1.0347195106905869,0.2931627784419197,0.20521543897169794,128,0,1,1,1926.7201896555578,0.8478770253927849,0.1131732386331175,395.3927294957984
128,1536,73.87659247485429,570447,38695,77066240,58914360,1.122727598385806,0.1884132398157133,0.37659111211691976,128,0,1,1,1049.9258128350127,0.6193782028108633,0.1245703276121445,395.3927294957984
128,2048,34.38969624862617,563073,69299,71036928,59015248,1.2084358521405474,0.1907535987921851,0.5032164939750744,128,0,1,1,785.7308618254139,0.5114646858807606,0.186655447026143,395.3927294957984
128,256,59.47490102421945,584963,39467,35102720,29653728,1.1038461908246533,0.0872969178459405,0.28344744686400114,128,0,1,1,1394.9419332237235,0.8518750940514928,0.1128460052693263,395.3927294957984
128,512,79.21842848586752,621224,74838,37199872,29808176,1.016268616480502,0.1060789929581276,0.23604960688248122,128,0,1,1,1675.0408302634758,0.880066359263413,0.0903622702276768,395.3927294957984
1536,1024,77.82957425485344,623400,53883,49131520,30790864,1.0129597510857504,0.1065186042789246,0.27916087768415665,1536,0,1,1,1416.3615359568641,0.7605079936531336,0.1058051811886518,395.3927294957984
1536,128,77.10758329802424,642403,72151,60809216,58507488,1.0353918052505127,0.1707595807236975,0.23103954162819354,1536,0,1,1,1711.3638934243322,0.8836020032683974,0.0773085574922679,395.3927294957984
1536,1536,55.76968226531156,463994,78089,72871936,59059432,1.129331678432325,0.194284321605542,0.39806077446227217,1536,0,1,1,993.2973929167526,0.6836496207484287,0.1448409404162132,395.3927294957984
1536,2048,31.44894921580405,423697,60902,62115840,44276272,1.2051412280777183,0.1953440493468939,0.5163228423639983,1536,0,1,1,765.7858553874587,0.5880476420307197,0.2072545485771551,395.3927294957984
1536,256,79.65728043629332,563149,81735,32481280,29500568,1.0156872696599912,0.114833572830767,0.23874020409363814,1536,0,1,1,1656.1631544082888,0.9006384146335675,0.0554624704910443,395.3927294957984
1536,512,69.4099918012723,534573,55627,32743424,30156152,1.021519475881261,0.0704015480742975,0.24463334111563015,1536,0,1,1,1616.2667267374206,0.8551126666361032,0.100520128211929,395.3927294957984
2048,1024,96.0372433652435,483035,65538,52547584,44496336,1.024759733262765,0.1132147184220013,0.28736417215979415,2048,0,1,1,1375.9291094783136,0.7769185692692349,0.1174842822522031,395.3927294957984
2048,128,127.24189002348888,553199,51483,33005568,29569464,0.9496196105901005,0.1502975738280513,0.20004638907128933,2048,0,1,1,1976.505206274404,0.8939749272500238,0.0602871108733435,395.3927294957984
2048,1536,61.12380543266707,442747,57667,69726208,59594056,1.1007197904732713,0.105160713076018,0.36916068343883307,2048,0,1,1,1071.05861277698,0.6906632497099406,0.1329226397593438,395.3927294957984
2048,2048,28.253262677863184,413909,61107,69988352,59622640,1.2054261938218458,0.1466026865780932,0.5205660731342372,2048,0,1,1,759.5437926163878,0.4977158737130877,0.201084055264866,395.3927294957984
2048,256,70.82991006518438,640561,78163,38248448,29588968,1.0049339035218128,0.1160521655478671,0.23956069817096384,2048,0,1,1,1650.4908046879382,0.8650355496465792,0.086378572769042,395.3927294957984
2048,512,93.94981081074717,632767,35625,61333504,58339304,1.0461080813712915,0.1665851756328547,0.24402792196376127,2048,0,1,1,1620.2765909489453,0.9008159239338192,0.0626672744319025,395.3927294957984
256,1024,103.7096639097956,519281,75534,51499008,44517336,1.0233002359640335,0.1447907506420777,0.2866140693698042,256,0,1,1,1379.5300780773687,0.8079907230634722,0.1150487288057545,395.3927294957984
256,128,208.78744318355115,515504,100659,61333504,58241864,0.9917798836604966,0.2636164140162013,0.21124993519507365,256,0,1,1,1871.6821339172602,0.8964411550869145,0.0656172211693523,395.3927294957984
256,1536,71.08216844054205,399308,78525,60534784,29917672,1.1264620697301142,0.189214429820652,0.3731632913569966,256,0,1,1,1059.5702703177612,0.6637838289303277,0.147521305471937,395.3927294957984
256,2048,32.320276316913066,411107,67788,70250496,59711088,1.2028367680805374,0.1681410567850136,0.5118724315566795,256,0,1,1,772.4438846869539,0.5562502157952096,0.1968703850262801,395.3927294957984
256,256,58.482410186552464,610332,65945,35364864,29878768,1.1253027943124279,0.1151649423799681,0.3074070526634067,256,0,1,1,1286.2187970967962,0.8557912092129227,0.0986363636595028,395.3927294957984
256,512,97.78057967735126,543070,77993,32743424,30154680,1.0530374236572055,0.1447927588431093,0.24547480487485868,256,0,1,1,1610.7263215765333,0.8869771183019465,0.0699843750146968,395.3927294957984
512,1024,78.59869681780508,488310,45362,47034368,30081032,1.0363319239242332,0.1104465314332217,0.2919092624984509,512,0,1,1,1354.5055957170823,0.7921929453284344,0.0859262044435736,395.3927294957984
512,128,205.99746479327567,531267,53276,37986304,30124768,0.9950992766467524,0.3037875559766002,0.1999498637789468,512,0,1,1,1977.4593591767689,0.8759830217370999,0.0655955915894681,395.3927294957984
512,1536,58.6262192305817,524170,108367,71299072,58757120,1.113981345470595,0.2239437764802476,0.37964469520895927,512,0,1,1,1041.4809807316583,0.6258611624426551,0.1511327902214158,395.3927294957984
512,2048,39.41413618550165,574712,48227,76541952,58871944,1.2002232059865685,0.0904972573798521,0.5067161862530193,512,0,1,1,780.3041233389106,0.4690009777082725,0.1839543595240662,395.3927294957984
512,256,63.4688980047352,558738,59285,32743424,29843136,1.113148810993138,0.100604608964062,0.29859978895025857,512,0,1,1,1324.1560916229041,0.8858134334138346,0.0700960582128213,395.3927294957984
512,512,74.79010034441075,553676,47006,32743424,29848440,1.0147204442356363,0.1048716297791169,0.2396119109234923,512,0,1,1,1650.1380418523797,0.8528319523086146,0.1045922317596743,395.3927294957984
