cpu,memory,duration_std,userDiff,sysDiff,heapTotal,heapUsed,avg_cpu_util,cpu_util_std,slo_preservation,total_cpu_shares,cpu_shares_others,num_containers,arrival_rate,latency,memory_util,memory_util_std,slo_duration
1024,1024,104.52943341943208,442520,47817,43364352,30807144,0.9902550421856157,0.2432511844571962,0.6379279447818711,1024,0,1,1,1055.06222147044,0.7271761834446879,0.1298355432846232,673.053674559633
1024,128,1057.2671461812092,481739,35720,32219136,29411160,0.764094745400711,0.4058268073421776,0.21155902716920913,1024,0,1,1,3181.3989862097033,0.90161121513763,0.0306346913745672,673.053674559633
1024,1536,88.58024418024976,350367,52325,44806144,30780952,1.0452970653810174,0.1239877864130035,0.8281571081593696,1024,0,1,1,812.7125492595679,0.732116382933619,0.1172177760049344,673.053674559633
1024,2048,54.19291447959001,330785,28724,45068288,31027072,1.1324781402340158,0.2099125144831541,0.9947399963673365,1024,0,1,1,676.6126596070724,0.7431476901400855,0.1296872037566301,673.053674559633
1024,256,424.0452829016563,427208,46711,34578432,29905416,0.7195751071293426,0.1822236005793903,0.30709712682955004,1024,0,1,1,2191.6638605779012,0.9014476133980172,0.0403126304493426,673.053674559633
1024,512,134.1846643071867,372089,44633,32743424,29706136,0.7097054374708601,0.0661320434992206,0.3628871317286085,1024,0,1,1,1854.7190454330798,0.8464973782562847,0.0821998193195645,673.053674559633
128,1024,135.8653995839392,463038,66372,52809728,45406664,0.9480012838979295,0.1700473705655155,0.5832645852591819,128,0,1,1,1153.9422957773993,0.8111061038685022,0.0886479590177658,673.053674559633
128,128,1230.687265128565,426376,66240,33792000,29644328,0.5884257019196799,0.1477751597732549,0.20403896009997272,128,0,1,1,3298.652738819379,0.8746037025314444,0.0645479794695768,673.053674559633
128,1536,61.395253622986125,325030,63527,58445824,45971624,1.1413754075894782,0.2446368286508314,1.0,128,0,1,1,670.9720338268144,0.7330859816703754,0.1375127456137035,673.053674559633
128,2048,37.30399368066544,259349,72871,57397248,45286104,1.2211288933297493,0.3992074926753114,1.0,128,0,1,1,544.6829241783331,0.6758483384914735,0.1659556916157089,673.053674559633
128,256,305.42001707609154,406964,79044,32481280,29584720,0.550869462603251,0.0651764543493595,0.2476818986540813,128,0,1,1,2717.41164056416,0.8735692241137338,0.0786984844924468,673.053674559633
128,512,205.8278245934116,438171,43723,38510592,30203192,0.7448709495521997,0.1420393452807443,0.371842179323198,128,0,1,1,1810.051984378641,0.9019511059559286,0.0483347147609273,673.053674559633
1536,1024,116.96755983101106,376026,74441,45199360,30586936,0.943226253708971,0.1251726934170018,0.5943633113453727,1536,0,1,1,1132.3943818741782,0.7647829878033867,0.109392294179254,673.053674559633
1536,128,633.2648388883152,523004,64661,36675584,29604392,0.6871206107194635,0.2489788919988912,0.2424663108421155,1536,0,1,1,2775.8647055833626,0.9010771545180792,0.0563120727487497,673.053674559633
1536,1536,72.92519691552481,316249,55602,44544000,30983648,1.0597624182409973,0.1669677752826003,0.8082539176891785,1536,0,1,1,832.7255331887695,0.6739718333225648,0.1419393585703561,673.053674559633
1536,2048,62.47911131565406,455564,46467,62377984,44500304,1.1332244240393585,0.226522954170648,0.9289482321602863,1536,0,1,1,724.5330269851897,0.6697980098361473,0.1531893233404518,673.053674559633
1536,256,528.9486584359488,482038,45711,32219136,29495768,0.686691743372126,0.1911770030997539,0.2777407703694748,1536,0,1,1,2423.316078745943,0.9031106791876296,0.0334487916770274,673.053674559633
1536,512,221.4162956892532,414458,48615,41918464,29978168,0.8086358139828383,0.1961237600598072,0.38852820105752617,1536,0,1,1,1732.316142631766,0.8682564298697042,0.0789263676081074,673.053674559633
2048,1024,97.10196280059353,405726,56546,38907904,30845904,0.9763636439768005,0.0965907741579138,0.6102774766085773,2048,0,1,1,1102.865008716878,0.7776336624706006,0.1005825777290778,673.053674559633
2048,128,1072.202489789271,471395,47414,35627008,29904896,0.7586661286302191,0.4259571277950318,0.19944734403916264,2048,0,1,1,3374.5933183621387,0.8928684707401432,0.0319898885154764,673.053674559633
2048,1536,78.42081237891405,276335,45630,44544000,30108104,1.0578316176986724,0.0991975944763056,0.8488496011925117,2048,0,1,1,792.9009728155486,0.6673030600244111,0.1139396098734776,673.053674559633
2048,2048,67.51418442353722,335299,50013,57135104,45004256,1.1330714051915571,0.3031854977494093,1.0,2048,0,1,1,642.0846091948649,0.7097284161196041,0.1443199218941677,673.053674559633
2048,256,266.4119056750428,354964,59648,34316288,29506160,0.7628422618449294,0.1522802099742005,0.34657345317762367,2048,0,1,1,1942.0231653307956,0.8875247236850776,0.0535197720050629,673.053674559633
2048,512,242.55625831434935,424610,67042,46120960,43929744,0.8746501956357413,0.2299630300226292,0.40741829131469454,2048,0,1,1,1651.9967043889021,0.8885261662748208,0.0517678182280625,673.053674559633
256,1024,108.13963587862206,377901,57981,54120448,44162336,0.9508376072555886,0.1237226982434037,0.6271961166414697,256,0,1,1,1073.115181522046,0.7629655295382304,0.1064726063393402,673.053674559633
256,128,1217.9909270921278,468325,76894,37199872,29552528,0.508763799127427,0.0890421021492987,0.1847703737412293,256,0,1,1,3642.649310772321,0.899378776913847,0.0466154541944886,673.053674559633
256,1536,102.62781589267038,460254,43397,63426560,45165000,1.0685488075721505,0.1558390534510073,0.7973254258283423,256,0,1,1,844.1392344416921,0.7327909045289338,0.12084110387965,673.053674559633
256,2048,59.682174872265776,338958,50561,58183680,45782976,1.0811712999304433,0.269545766729415,0.9005831167656879,256,0,1,1,747.3532004206413,0.6684174385867795,0.159648405043773,673.053674559633
256,256,403.86745731033767,451609,63820,34054144,30195608,0.5974026004484814,0.0800597010183378,0.264614122412155,256,0,1,1,2543.5289259101028,0.8784740122093492,0.0696755278833585,673.053674559633
256,512,203.42655303718377,421338,80422,37986304,29706760,0.7138258406839878,0.0632341891061612,0.3630300240237603,256,0,1,1,1853.9890092274618,0.8617048922855094,0.0789705846937796,673.053674559633
512,1024,92.0929379625218,413037,70435,44412928,30064512,0.9407639666525008,0.1064253152830283,0.6101956043199446,512,0,1,1,1103.0129843523587,0.7656709685610402,0.1007737116692878,673.053674559633
512,128,777.1581550211873,494878,20399,36675584,29575800,0.7949865159566967,0.4647138715705401,0.23165590803542502,512,0,1,1,2905.402587257602,0.8354941806320724,0.0635834698150083,673.053674559633
512,1536,60.60211320830194,354861,60473,56610816,45068712,1.1532100766970466,0.2185887377944433,0.96649441348548,512,0,1,1,696.3865131226074,0.724685918319755,0.140742146567015,673.053674559633
512,2048,36.28126731810492,274326,42618,57135104,44462672,1.1842703299318555,0.2679620268890994,1.0,512,0,1,1,531.4985627222852,0.7095159624404441,0.1576924348357104,673.053674559633
512,256,409.8500405156601,453675,56203,32481280,29583456,0.6352171134888581,0.1351853878059603,0.2782464823009944,512,0,1,1,2418.9117109180706,0.8955353087498705,0.0545975400190033,673.053674559633
512,512,181.30771391948468,435956,65735,35627008,29650496,0.7214099765361449,0.0692819740402399,0.35725828391910414,512,0,1,1,1883.9414083734334,0.8864808163583102,0.0614724209554295,673.053674559633
