cpu,memory,duration_std,userDiff,sysDiff,heapTotal,heapUsed,avg_cpu_util,cpu_util_std,slo_preservation,total_cpu_shares,cpu_shares_others,num_containers,arrival_rate,latency,memory_util,memory_util_std,slo_duration
1024,1024,104.52943341943208,442520,47817,43364352,30807144,0.9759885907197887,0.2432511844571962,1.0,1024,0,1,1,428.19381069204394,0.7271761834446879,0.1298355432846232,673.053674559633
1024,128,1057.2671461812092,481739,35720,32219136,29411160,0.5643832750960424,0.4058268073421776,0.3906595921140455,1024,0,1,1,1722.864837178113,0.90161121513763,0.0306346913745672,673.053674559633
1024,1536,88.58024418024976,350367,52325,44806144,30780952,1.121497911729442,0.1239877864130035,1.0,1024,0,1,1,302.99692361595675,0.732116382933619,0.1172177760049344,673.053674559633
1024,2048,54.19291447959001,330785,28724,45068288,31027072,1.4133314166527013,0.2099125144831541,1.0,1024,0,1,1,216.86323176070724,0.7431476901400855,0.1296872037566301,673.053674559633
1024,256,424.0452829016563,427208,46711,34578432,29905416,0.5065156934991385,0.1822236005793903,0.5404213980810437,1024,0,1,1,1245.4238062177901,0.9014476133980172,0.0403126304493426,673.053674559633
1024,512,134.1846643071867,372089,44633,32743424,29706136,0.49441601590433576,0.0661320434992206,0.6320129465669242,1024,0,1,1,1064.936530518308,0.8464973782562847,0.0821998193195645,673.053674559633
128,1024,135.8653995839392,463038,66372,52809728,45406664,0.8794090700418886,0.1700473705655155,1.0,128,0,1,1,497.5790290127399,0.8111061038685022,0.0886479590177658,673.053674559633
128,128,1230.687265128565,426376,66240,33792000,29644328,0.3638183060238649,0.1477751597732549,0.3153886233396373,128,0,1,1,2134.0455068819383,0.8746037025314444,0.0645479794695768,673.053674559633
128,1536,61.395253622986125,325030,63527,58445824,45971624,1.4485619648987411,0.2446368286508314,1.0,128,0,1,1,211.47344667268146,0.7330859816703754,0.1375127456137035,673.053674559633
128,2048,37.30399368066544,259349,72871,57397248,45286104,1.8271984500647152,0.3992074926753114,1.0,128,0,1,1,145.60609032783327,0.6758483384914735,0.1659556916157089,673.053674559633
128,256,305.42001707609154,406964,79044,32481280,29584720,0.3291335621426196,0.0651764543493595,0.36996253702747894,128,0,1,1,1819.2481864985211,0.8735692241137338,0.0786984844924468,673.053674559633
128,512,205.8278245934116,438171,43723,38510592,30203192,0.5387100675508294,0.1420393452807443,0.6723148676353693,128,0,1,1,1001.0989001728642,0.9019511059559286,0.0483347147609273,673.053674559633
1536,1024,116.96755983101106,376026,74441,45199360,30586936,0.8692042789008781,0.1251726934170018,1.0,1536,0,1,1,491.5319155524179,0.7647829878033867,0.109392294179254,673.053674559633
1536,128,633.2648388883152,523004,64661,36675584,29604392,0.46764560417054973,0.2489788919988912,0.4125487674792636,1536,0,1,1,1631.4523945183364,0.9010771545180792,0.0563120727487497,673.053674559633
1536,1536,72.92519691552481,316249,55602,44544000,30983648,1.164118196008742,0.1669677752826003,1.0,1536,0,1,1,303.23079831887696,0.6739718333225648,0.1419393585703561,673.053674559633
1536,2048,62.47911131565406,455564,46467,62377984,44500304,1.4162413265936156,0.226522954170648,1.0,1536,0,1,1,231.89791366351898,0.6697980098361473,0.1531893233404518,673.053674559633
1536,256,528.9486584359488,482038,45711,32219136,29495768,0.4671491940246546,0.1911770030997539,0.47236033590830506,1536,0,1,1,1424.8733930324893,0.9031106791876296,0.0334487916770274,673.053674559633
1536,512,221.4162956892532,414458,48615,41918464,29978168,0.6282880632660334,0.1961237600598072,0.75468964750753,1536,0,1,1,891.8284181881766,0.8682564298697042,0.0789263676081074,673.053674559633
2048,1024,97.10196280059353,405726,56546,38907904,30845904,0.9429324145911628,0.0965907741579138,1.0,2048,0,1,1,456.78662948168784,0.7776336624706006,0.1005825777290778,673.053674559633
2048,128,1072.202489789271,471395,47414,35627008,29904896,0.5570232592378822,0.4259571277950318,0.366092558473713,2048,0,1,1,1838.479529236214,0.8928684707401432,0.0319898885154764,673.053674559633
2048,1536,78.42081237891405,276335,45630,44544000,30108104,1.1583122221054232,0.0991975944763056,1.0,2048,0,1,1,289.6475415665549,0.6673030600244111,0.1139396098734776,673.053674559633
2048,2048,67.51418442353722,335299,50013,57135104,45004256,1.4156440121041207,0.3031854977494093,1.0,2048,0,1,1,205.56798295948647,0.7097284161196041,0.1443199218941677,673.053674559633
2048,256,266.4119056750428,354964,59648,34316288,29506160,0.5626773355350193,0.1522802099742005,0.6390869939793579,2048,0,1,1,1053.1487589330793,0.8875247236850776,0.0535197720050629,673.053674559633
2048,512,242.55625831434935,424610,67042,46120960,43929744,0.736222227379738,0.2299630300226292,0.8573438941751216,2048,0,1,1,785.0451599788902,0.8885261662748208,0.0517678182280625,673.053674559633
256,1024,108.13963587862206,377901,57981,54120448,44162336,0.8855350727056311,0.1237226982434037,1.0,256,0,1,1,460.9002186172046,0.7629655295382304,0.1064726063393402,673.053674559633
256,128,1217.9909270921278,468325,76894,37199872,29552528,0.2929225547266875,0.0890421021492987,0.26595548861235785,256,0,1,1,2530.7004494298635,0.899378776913847,0.0466154541944886,673.053674559633
256,1536,102.62781589267038,460254,43397,63426560,45165000,1.1910125418980295,0.1558390534510073,1.0,256,0,1,1,302.93685100916923,0.7327909045289338,0.12084110387965,673.053674559633
256,2048,59.682174872265776,338958,50561,58183680,45782976,1.2310616062398678,0.269545766729415,1.0,256,0,1,1,262.5431016970641,0.6684174385867795,0.159648405043773,673.053674559633
256,256,403.86745731033767,451609,63820,34054144,30195608,0.372469638587593,0.0800597010183378,0.41245521222219766,256,0,1,1,1631.822449117326,0.8784740122093492,0.0696755278833585,673.053674559633
256,512,203.42655303718377,421338,80422,37986304,29706760,0.4994369267275455,0.0632341891061612,0.6349959232861411,256,0,1,1,1059.933851349062,0.8617048922855094,0.0789705846937796,673.053674559633
512,1024,92.0929379625218,413037,70435,44412928,30064512,0.8639945515509103,0.1064253152830283,1.0,512,0,1,1,480.40806209523583,0.7656709685610402,0.1007737116692878,673.053674559633
512,128,777.1581550211873,494878,20399,36675584,29575800,0.6080108744086101,0.4647138715705401,0.44292987484523405,512,0,1,1,1519.5490590803058,0.8354941806320724,0.0635834698150083,673.053674559633
512,1536,60.60211320830194,354861,60473,56610816,45068712,1.4973159032655903,0.2185887377944433,1.0,512,0,1,1,214.53854659726073,0.724685918319755,0.140742146567015,673.053674559633
512,2048,36.28126731810492,274326,42618,57135104,44462672,1.6366491475285083,0.2679620268890994,1.0,512,0,1,1,153.83577578222855,0.7095159624404441,0.1576924348357104,673.053674559633
512,256,409.8500405156601,453675,56203,32481280,29583456,0.41056595967736736,0.1351853878059603,0.4496042833501335,512,0,1,1,1496.9912420418073,0.8955353087498705,0.0545975400190033,673.053674559633
512,512,181.30771391948468,435956,65735,35627008,29650496,0.5087929970546111,0.0692819740402399,0.6299140534157864,512,0,1,1,1068.4849320473431,0.8864808163583102,0.0614724209554295,673.053674559633
