cpu,memory,duration_std,userDiff,sysDiff,heapTotal,heapUsed,avg_cpu_util,cpu_util_std,slo_preservation,total_cpu_shares,cpu_shares_others,num_containers,arrival_rate,latency,memory_util,memory_util_std,slo_duration
1024,1024,623.209836962771,2121463,175946,70979584,61465896,1.0573903285631179,0.1133526969209071,1.0,1024,0,1,1,1302.2295808071324,0.8513885251683752,0.0845619400229556,1730.3925016666662
1024,128,2859.64200651087,2552756,236877,64552960,61496096,0.623509965354895,0.2101800888865319,0.16764978679480103,1024,0,1,1,10321.471531512423,0.9326048830298728,0.0412403411646458,1730.3925016666662
1024,1536,376.18948300582485,1824003,190691,76091392,62870656,1.1076335320903399,0.1987003424402087,1.0,1024,0,1,1,844.0381372288969,0.7850363661922347,0.1010593995604071,1730.3925016666662
1024,2048,216.0917564662445,1703609,180800,82907136,61617704,1.2930716543229264,0.3586087477089724,1.0,1024,0,1,1,536.7071203469845,0.7307440346132562,0.1428329482173417,1730.3925016666662
1024,256,3556.98561351886,2366844,229050,64552960,61463472,0.6059216517908882,0.168297510800248,0.2882962929048414,1024,0,1,1,6002.132334867799,0.9271647787727554,0.0432897525526426,1730.3925016666662
1024,512,2395.8807495153333,2545142,204373,64552960,61438904,0.8379391132830563,0.2487549341004319,0.4351016648833935,1024,0,1,1,3976.9843264801307,0.920601445988186,0.0595550162711691,1730.3925016666662
128,1024,578.7216181797694,2162607,168771,71241728,61984472,1.0248625715911688,0.1148141829579194,1.0,128,0,1,1,1255.9918819837476,0.81187904447528,0.1041085074507704,1730.3925016666662
128,128,1311.4869750270354,2222199,255516,64290816,61224648,0.5815961593299972,0.0621890108590728,0.18603300084629767,128,0,1,1,9301.535178139355,0.9239663986935366,0.0417273958515783,1730.3925016666662
128,1536,362.0831113262498,1881525,189172,76615680,63081328,1.1512882738211272,0.2454482536298051,1.0,128,0,1,1,838.8554484870538,0.8208300905503687,0.1008919128231003,1730.3925016666662
128,2048,213.40782675411535,1657959,157169,76345344,47485640,1.2789147537796468,0.2929432690892473,1.0,128,0,1,1,544.6512408326048,0.71588373466098,0.1401872343564933,1730.3925016666662
128,256,4212.411894439119,2373925,234184,64290816,61347392,0.6442783367461464,0.2524721350498448,0.24514509061691747,128,0,1,1,7058.646360455614,0.935136047365154,0.0469421052577515,1730.3925016666662
128,512,1483.338262692719,2343343,238888,64552960,61361008,0.7557880225959671,0.1077121632517784,0.5537354496894097,128,0,1,1,3124.9444163945864,0.9083772561309168,0.057405439332804,1730.3925016666662
1536,1024,598.3406319949669,2341359,143932,56553472,47245064,1.0362990290908183,0.1299242773505673,1.0,1536,0,1,1,1284.7202070699964,0.8526510047900471,0.0838338796539304,1730.3925016666662
1536,128,953.3874616342702,2495333,238584,64290816,61400832,0.8233052930052333,0.1825325989897128,0.25044688930143455,1536,0,1,1,6909.2193817747475,0.953955326867809,0.0024989496293832,1730.3925016666662
1536,1536,341.859049594408,1852044,130698,72675328,48569168,1.1720476108594522,0.2407433232014586,1.0,1536,0,1,1,801.4025497151679,0.7975754909805826,0.0859377079915441,1730.3925016666662
1536,2048,214.62667334687168,1626960,158849,62451712,47512688,1.2618504689817154,0.344579442384708,1.0,1536,0,1,1,540.4034642543436,0.7569158639848668,0.1338315266040157,1730.3925016666662
1536,256,3099.538550180054,2406100,207029,54845440,46742032,0.512580683525385,0.0645402630546259,0.23051767475498805,1536,0,1,1,7506.550217920863,0.930368932526195,0.0400117619910267,1730.3925016666662
1536,512,1451.5690789601283,2220202,215733,64290816,61364968,0.7493641482231727,0.0982340612826404,0.5937664155358874,1536,0,1,1,2914.264694652608,0.9075677896294544,0.0756977391632265,1730.3925016666662
2048,1024,560.4046710211071,1812770,177242,69144576,61912552,1.049376251120731,0.1495582572350316,1.0,2048,0,1,1,1196.0301936916976,0.8730207863388599,0.0667332185219695,1730.3925016666662
2048,128,1745.921528,2455637,203241,51175424,46670848,0.7525376592620521,0.2235406278776729,0.21752158429779506,2048,0,1,1,7955.038150594266,0.9342329087056808,0.0222551593860071,1730.3925016666662
2048,1536,374.688473011654,1954068,182929,80023552,61790248,1.1820985961344526,0.2141862815346903,1.0,2048,0,1,1,879.114533245378,0.7765480612443395,0.1075761341443096,1730.3925016666662
2048,2048,224.93376990709288,1741119,177355,76353536,63214376,1.2884101679530013,0.2211941700712535,1.0,2048,0,1,1,515.3656319751607,0.7824290032615322,0.1180297913661473,1730.3925016666662
2048,256,3030.213217180912,2264165,183705,64552960,61184168,0.5665131530587353,0.0882419210696302,0.29183346199860416,2048,0,1,1,5929.383456633711,0.9316723572399755,0.0533820139980188,1730.3925016666662
2048,512,1536.606226235747,2362094,164771,64552960,60903568,0.7504328863836168,0.0670431999308124,0.5457821263384597,2048,0,1,1,3170.4821725759225,0.933910228314917,0.0531870459343136,1730.3925016666662
256,1024,534.7471514077787,2017423,167423,59699200,47407552,1.035161069117338,0.157876963913671,1.0,256,0,1,1,1269.9734727526413,0.8308297245537677,0.0787691844231697,1730.3925016666662
256,128,3458.237520026337,2526341,218625,64552960,60912912,0.5661137138413713,0.1359868826909299,0.15294228936461846,256,0,1,1,11314.02249080609,0.938641074347995,0.040275190806312,1730.3925016666662
256,1536,389.2517080419989,1925519,171867,78974976,65049296,1.1675625874485893,0.1956588698498488,1.0,256,0,1,1,837.7219021939767,0.7958281514197734,0.088728813745095,1730.3925016666662
256,2048,346.46175593400034,1933113,194899,82120704,62020200,1.2856421411718237,0.3364630018682092,1.0,256,0,1,1,625.1386624801081,0.7071888812357704,0.1565904224652099,1730.3925016666662
256,256,3555.158594943993,2301166,221493,64552960,61884792,0.5291615752943738,0.075597901693801,0.2308626036466223,256,0,1,1,7495.334776330212,0.9262176250616716,0.0531819565048631,1730.3925016666662
256,512,1433.3335944136215,2377723,218540,64290816,61430648,0.7200769448190903,0.0875223452888756,0.5541621482575859,256,0,1,1,3122.5382446408885,0.9265448893333664,0.0458148355382196,1730.3925016666662
512,1024,568.8044625352337,2159855,125169,57077760,47425648,1.0298878804436757,0.1821367158382218,1.0,512,0,1,1,1262.176326958988,0.8857489038559428,0.0693579283239594,1730.3925016666662
512,128,1593.2504780679803,2115123,304178,64290816,61257832,0.6782703606076167,0.1413841566948376,0.20114307437746007,512,0,1,1,8602.79433941362,0.8940596651173841,0.0625986168509938,1730.3925016666662
512,1536,386.3220505854593,2064205,163861,80809984,63004824,1.1782674154811723,0.2174254648427231,1.0,512,0,1,1,826.4339209545366,0.7894572272112005,0.1079854605527467,1730.3925016666662
512,2048,208.54924625116453,1623912,157442,79228928,47218280,1.2879904909276247,0.3576380897992429,1.0,512,0,1,1,521.6293636076241,0.7450598390933516,0.1369899256818526,1730.3925016666662
512,256,3662.5661259170097,2456296,212021,64290816,61314304,0.6212116662838929,0.1961111214585008,0.24214266638724716,512,0,1,1,7146.1693533155885,0.9341115957610158,0.0411993592589284,1730.3925016666662
512,512,1514.3572006905,2252088,188034,64552960,61778792,0.7568605668142665,0.0687501922471827,0.5754917935717977,512,0,1,1,3006.806562656544,0.9372294704223808,0.0388941733104904,1730.3925016666662
