cpu,memory,duration_std,userDiff,sysDiff,heapTotal,heapUsed,avg_cpu_util,cpu_util_std,slo_preservation,total_cpu_shares,cpu_shares_others,num_containers,arrival_rate,latency,memory_util,memory_util_std,slo_duration
1024,1024,596.9385446205476,1991268,182893,45535232,32990136,1.0763099798004114,0.2153056084754358,1.0,1024,0,1,1,1007.6189155956138,0.8398930683589867,0.0649840764632845,1475.4163974519238
1024,128,1553.2150372943147,2483256,238754,51437568,47893784,0.6533252890365652,0.1410472690867762,0.17470826512610096,1024,0,1,1,8445.029182717815,0.945174273151905,0.011013894906314,1475.4163974519238
1024,1536,391.9855326923434,1877507,120466,67956736,48502480,1.1529918410727575,0.2434802519520355,1.0,1024,0,1,1,658.3156613346121,0.7981560431314604,0.0793445051751913,1475.4163974519238
1024,2048,247.9556009547728,1806918,186744,68743168,47852448,1.2157845663709554,0.2323934560731959,1.0,1024,0,1,1,380.5691831629704,0.8078978829678786,0.0768136637617976,1475.4163974519238
1024,256,2850.7550491795832,2409171,196195,50126848,47576680,0.6125361896632289,0.2117655637621612,0.25539732445836616,1024,0,1,1,5776.945395105109,0.9209679780411414,0.0524810320801998,1475.4163974519238
1024,512,1617.311370794429,2316050,180778,51699712,47822320,0.766953079382075,0.0945806950062496,0.5758150325316208,1024,0,1,1,2562.309620443786,0.9397994366335058,0.031501328412572,1475.4163974519238
128,1024,581.8544601306388,1922739,159111,59174912,47546704,0.9885695010533811,0.1888473830803298,1.0,128,0,1,1,1005.7857315549372,0.8100849489113549,0.0875091060846472,1475.4163974519238
128,128,332.703616159387,2383487,249019,50126848,47764776,0.7209538631517892,0.0427242577208881,0.20085865081564838,128,0,1,1,7345.545693255139,0.9381464135085108,0.0184126330633456,1475.4163974519238
128,1536,350.6008210008126,1699062,140823,58249216,33184128,1.151454902262797,0.317924035561905,1.0,128,0,1,1,596.0430176884224,0.7727488815107613,0.095449437841329,1475.4163974519238
128,2048,222.9823598325244,1742408,77684,63238144,52461672,1.205161231905843,0.208064583963605,1.0,128,0,1,1,379.66728538365857,0.8035989843244187,0.0683129287141527,1475.4163974519238
128,256,3967.740247960607,2097786,220054,50126848,47704408,0.5403677157025698,0.1349986767615529,0.19026158782662497,128,0,1,1,7754.67299682367,0.9256013096730756,0.0498363943132456,1475.4163974519238
128,512,1546.8190189394638,2058769,185459,38584320,32752568,0.7988864008697982,0.3014394500300273,0.5481217092917834,128,0,1,1,2691.767854548725,0.9246076277016796,0.046047436781154,1475.4163974519238
1536,1024,569.3223875428988,1997172,185795,57339904,48810680,1.005965767659111,0.1752562832650418,1.0,1536,0,1,1,938.7284457020567,0.8490309588967223,0.0822662928966356,1475.4163974519238
1536,128,574.8963769014939,2312993,256432,50126848,47772016,0.7152009573639635,0.1016962152363739,0.21160551343977194,1536,0,1,1,6972.485609983235,0.9498641925380984,0.0067260091896212,1475.4163974519238
1536,1536,389.2897344847602,1700233,154933,54054912,33102488,1.1337948428851934,0.2238155259387215,1.0,1536,0,1,1,592.351652706674,0.8224705580364422,0.0757965815099376,1475.4163974519238
1536,2048,203.31914739684143,1465419,139528,88141824,48708168,1.2143054817269023,0.2837428377281259,1.0,1536,0,1,1,389.80265163762516,0.7452160867567845,0.1075773104513626,1475.4163974519238
1536,256,2869.3863370924164,2368997,132995,50388992,47755400,0.5722894221908994,0.1595850893644266,0.23850847120109964,1536,0,1,1,6186.012555536943,0.9255625267699532,0.0430807374305385,1475.4163974519238
1536,512,1448.1392357073296,1994151,171353,50388992,47691448,0.7643429609619745,0.10534958574664,0.6141816145637827,1536,0,1,1,2402.2477431204543,0.9131372991448125,0.0596677910516808,1475.4163974519238
2048,1024,653.4517386976815,2082477,125804,58650624,47447608,1.0572920367045193,0.1372713451073137,1.0,2048,0,1,1,1073.854582665381,0.8434431780039455,0.0673322964725622,1475.4163974519238
2048,128,180.8253745960911,1967345,222837,51437568,47372288,0.6528211680511493,0.0289796447661921,0.2202526829011617,2048,0,1,1,6698.744269616985,0.9238824704253864,0.0029572943947296,1475.4163974519238
2048,1536,389.5487276073589,1823052,127966,68743168,47476768,1.1346602376612402,0.2559980173851059,1.0,2048,0,1,1,645.9421553555987,0.7935394633303346,0.0515742747606047,1475.4163974519238
2048,2048,223.72770584308057,1628301,137195,66646016,50848328,1.2046982747188422,0.2464011143636328,1.0,2048,0,1,1,381.1054075015985,0.8002999266224021,0.0624963353095229,1475.4163974519238
2048,256,3183.794401643712,2082484,202222,50126848,47910000,0.7099638186901587,0.2645740939126646,0.22098484439035834,2048,0,1,1,6676.550156741413,0.9406883022699448,0.030596952656186,1475.4163974519238
2048,512,1517.234507421833,2216941,223220,50126848,47656240,0.7776439844103107,0.1454208721782514,0.5856980321217571,2048,0,1,1,2519.0735097863685,0.9255724848851272,0.0401608519913724,1475.4163974519238
256,1024,615.6781269096577,2101086,188608,59174912,47355384,0.9706119182254146,0.2223483085615773,1.0,256,0,1,1,995.4060018196121,0.8855590444511549,0.0372141098019693,1475.4163974519238
256,128,639.1308898926698,2327653,287847,51175424,47085264,0.6056608839958876,0.0362305619473553,0.17444208199949196,256,0,1,1,8457.915547328888,0.9343848345148444,0.013366657007752,1475.4163974519238
256,1536,395.52513833974433,1814760,147210,58511360,33179376,1.098967960808493,0.2204235639985071,1.0,256,0,1,1,658.9134323488951,0.7676924021366824,0.1078969934375539,1475.4163974519238
256,2048,236.90850602225663,1727895,146190,56938496,33346984,1.2078405473320144,0.2866966738172089,1.0,256,0,1,1,407.38683760333583,0.8122592463942793,0.0908947624139162,1475.4163974519238
256,256,3538.108520239477,2341895,181982,50388992,47646576,0.44862243588666334,0.0552057981675543,0.26505240151149756,256,0,1,1,5566.508316989999,0.9321203511027848,0.0371227766263991,1475.4163974519238
256,512,1489.1560442353004,2072201,193723,50126848,47339280,0.7205437838789077,0.096320119917264,0.5673679704623469,256,0,1,1,2600.4576822509216,0.9289950006929996,0.0416534266951071,1475.4163974519238
512,1024,593.9844382768799,2054459,125120,58912768,47428424,1.0168425249386084,0.1722888695644,1.0,512,0,1,1,981.6703445597399,0.850627192025813,0.0829208709893067,1475.4163974519238
512,128,1897.3257721652365,2215219,261775,50651136,47100304,0.6540849162085881,0.26464757461414,0.16059856322390126,512,0,1,1,9186.983792594374,0.9165642780011968,0.0359726922376281,1475.4163974519238
512,1536,386.61502982721805,1791980,182183,56152064,33208168,1.1503564419462222,0.212943161894245,1.0,512,0,1,1,633.2516555912556,0.7930796949995387,0.0928080796882025,1475.4163974519238
512,2048,226.52591352981457,1722297,132407,68218880,47921680,1.2309295751416556,0.3383425637261809,1.0,512,0,1,1,377.6599464912432,0.8012960867873039,0.0735179175495318,1475.4163974519238
512,256,4879.037659350518,2480008,193651,50126848,47401232,0.6483805849498508,0.3621399431411723,0.16433943611893667,512,0,1,1,8977.859680522008,0.9381595961647954,0.0288353768316671,1475.4163974519238
512,512,1457.0736291536357,1938686,217434,50126848,47577480,0.8124025817452216,0.2770202989475397,0.5799149204900634,512,0,1,1,2544.1945797930275,0.9338518096924208,0.0299329523005377,1475.4163974519238
