cpu,memory,duration_std,userDiff,sysDiff,heapTotal,heapUsed,avg_cpu_util,cpu_util_std,slo_preservation,total_cpu_shares,cpu_shares_others,num_containers,arrival_rate,latency,memory_util,memory_util_std,slo_duration
1024,1024,832.6708410259118,301668,48633,57864192,52132432,0.9283969995390806,0.1395979487082784,1.0,1024,0,1,1,2036.512522566068,0.8473464733188957,0.076784829338795,2279.8042512815528
1024,128,914.0735281225012,2152913,176028,37797888,34971976,0.8763941101873468,0.1980990210501461,0.26295019782058626,1024,0,1,1,8670.099015620774,0.9330584650984248,0.0133873033174464,2279.8042512815528
1024,1536,552.491016247279,1803721,143665,68481024,56638376,1.0543233187345131,0.126632212863001,1.0,1024,0,1,1,1384.749574562927,0.7647278359022158,0.0912880291427002,2279.8042512815528
1024,2048,365.7538077619758,1952509,147349,65064960,40482904,1.1012610829079483,0.3003653952506933,1.0,1024,0,1,1,1033.992998054462,0.7260743090673177,0.1104119993951457,2279.8042512815528
1024,256,3984.954265936684,2017221,192697,37535744,35595280,0.5775377292705912,0.1724643457404631,0.18823434835192937,1024,0,1,1,12111.520937821362,0.9097502509367316,0.0620608891128214,2279.8042512815528
1024,512,1966.3325785692423,2229087,206465,51961856,49416288,0.7399896251824776,0.0629713799050614,0.4767698125894588,1024,0,1,1,4781.771393829137,0.8938050533077698,0.0923307026528,2279.8042512815528
128,1024,917.8845596853092,2025572,152918,58650624,51189960,0.9795742278262576,0.1720697548502792,1.0,128,0,1,1,2190.7597111550663,0.8577185419727915,0.0643820097573883,2279.8042512815528
128,128,1323.785002407839,2274974,222886,38060032,35109944,0.8761434142047506,0.209220962019224,0.2484826909053738,128,0,1,1,9174.901652001743,0.9429867113796128,0.0137603102169116,2279.8042512815528
128,1536,385.7554810584652,1889319,133877,62181376,38482640,1.1345245293028496,0.3128618595685538,1.0,128,0,1,1,1064.8293661340772,0.7296178417802379,0.0912453145006729,2279.8042512815528
128,2048,205.14084086255124,1552900,131962,52219904,40630840,1.143171083173646,0.4000756158733496,1.0,128,0,1,1,651.4504759520981,0.7593465592365247,0.0998046198619149,2279.8042512815528
128,256,4442.460031972446,2056278,169377,37011456,34727024,0.48929603171350833,0.0655510274745843,0.16944118082402304,128,0,1,1,13454.841616391324,0.9318548736578496,0.0288382142183136,2279.8042512815528
128,512,2145.893243921444,2287884,204555,37535744,35260120,0.7320781487910271,0.0920407757994182,0.4322107468593719,128,0,1,1,5274.751421262857,0.917293822712136,0.0416736153597006,2279.8042512815528
1536,1024,844.6723991031292,1959472,153271,43700224,36068008,0.9620504246431993,0.0905496963568683,1.0,1536,0,1,1,1917.4987171257367,0.851215731422607,0.0627749965625594,2279.8042512815528
1536,128,322.98607176531243,2119139,232488,37011456,34145312,0.7177064108511192,0.043237792893113,0.22068371631374412,1536,0,1,1,10330.641015852638,0.8894330838548904,0.0481960446664526,2279.8042512815528
1536,1536,424.370687578825,1968850,168583,61657088,35333344,1.1250934564112283,0.3020705025454603,1.0,1536,0,1,1,1134.1326198386848,0.71602234996797,0.1167371290279012,2279.8042512815528
1536,2048,219.7443229010777,1661025,162845,65064960,39054464,1.1502125105275114,0.3279596671906377,1.0,1536,0,1,1,670.6582250233702,0.7078951175260705,0.1184352761733314,2279.8042512815528
1536,256,3462.817304303327,2383453,134729,37535744,35089616,0.6222617540348359,0.1602959378196455,0.20775576357693434,1536,0,1,1,10973.482574105892,0.8975373040156815,0.0598025799892136,2279.8042512815528
1536,512,1779.529238759471,2206436,159763,38060032,35133296,0.743386367568752,0.0837153031073459,0.5145596061308365,1536,0,1,1,4430.593121026817,0.8949158443151208,0.0731830803379645,2279.8042512815528
2048,1024,867.6689166318623,2232667,170085,59174912,50170816,0.9649397658463306,0.075655747217262,1.0,2048,0,1,1,2008.740937831156,0.8087521556639956,0.0893656076088513,2279.8042512815528
2048,128,2261.753337722497,2457361,283225,43565056,33923408,0.6844976761697278,0.0952980312843808,0.1959857883597926,2048,0,1,1,11632.497796708943,0.8971553771939358,0.0595152098898771,2279.8042512815528
2048,1536,569.4368530430106,1941910,143771,52219904,37919872,1.0431542261943123,0.1545026888215255,1.0,2048,0,1,1,1454.708379238871,0.7395095028342061,0.0926593175589773,2279.8042512815528
2048,2048,417.949131417272,2058005,133164,53006336,36614696,1.105184162218581,0.2513896113759461,1.0,2048,0,1,1,994.2683368044832,0.7366386830449593,0.1189641035554342,2279.8042512815528
2048,256,2729.521855595857,2092395,155687,37273600,34740728,0.648701399408991,0.0997373629843457,0.2465580917080884,2048,0,1,1,9246.519696383435,0.924187857755439,0.0406922547135885,2279.8042512815528
2048,512,1815.6296748404463,2580731,174144,52224000,50113208,0.762019679095475,0.0819579295895539,0.4974789879163542,2048,0,1,1,4582.714660633823,0.8791501290315719,0.0850401796629751,2279.8042512815528
256,1024,951.31101184358,1994746,195227,57602048,52406208,0.9971257784900067,0.3462378176688422,0.9734013446388118,256,0,1,1,2342.1009882901817,0.8306179473202693,0.0845704901242944,2279.8042512815528
256,128,397.2522832083046,2264802,191327,37797888,35640056,0.5935031685499566,0.0245243021372421,0.18734868250894543,256,0,1,1,12168.776533417564,0.9180488478858236,0.0419701031069567,2279.8042512815528
256,1536,580.5003496068543,1776168,160588,72675328,56280688,1.0595177053585478,0.2662087751767548,1.0,256,0,1,1,1509.7998576567886,0.7920654468640784,0.0914314779959869,2279.8042512815528
256,2048,403.147950976045,1939836,188773,82636800,54107040,1.111543171918554,0.2964604626101538,1.0,256,0,1,1,1092.3035994003335,0.7143160883948265,0.1106355356085313,2279.8042512815528
256,256,6336.697117628876,2296869,210996,37535744,35064176,0.5580129831009654,0.3291698336646115,0.11506526784535961,256,0,1,1,19813.139915908112,0.9121103462379214,0.0491574793794254,2279.8042512815528
256,512,2159.153993519726,2008596,201799,37273600,34980144,0.7128516675822119,0.0659263972741449,0.45850470138664917,256,0,1,1,4972.259268851058,0.9208024692895916,0.0470453080840973,2279.8042512815528
512,1024,882.5867730393182,2117939,190264,58650624,53026456,0.9854718291496668,0.2002521846137971,1.0,512,0,1,1,2211.13185449069,0.8064871521564481,0.0912363453433958,2279.8042512815528
512,128,1306.6702564377133,2364263,175136,37011456,34442120,0.6005611778744931,0.0616502722169308,0.18178217145644335,512,0,1,1,12541.407295422337,0.9365433721408128,0.0121108453057653,2279.8042512815528
512,1536,414.9730807622767,2053785,154093,61919232,40766072,1.1201822712643448,0.2594955867341659,1.0,512,0,1,1,1062.624643255922,0.7834298272191929,0.091002102787105,2279.8042512815528
512,2048,219.972657874176,1687541,140603,65064960,39964472,1.1675529466589627,0.2793223652953385,1.0,512,0,1,1,671.2975177766498,0.7080327037509722,0.1102032946864453,2279.8042512815528
512,256,4710.379874913293,2576922,165398,41730048,33851040,0.5864921395971617,0.225321659831835,0.17317917625353713,512,0,1,1,13164.424849462746,0.9139008557067974,0.0549842791695892,2279.8042512815528
512,512,2229.375408282943,2294194,194753,52486144,50442520,0.6982388832957965,0.0389212115287228,0.4406752389086594,512,0,1,1,5173.433971301703,0.901585474423586,0.0840067177353692,2279.8042512815528
