cpu,memory,duration_std,userDiff,sysDiff,heapTotal,heapUsed,avg_cpu_util,cpu_util_std,slo_preservation,total_cpu_shares,cpu_shares_others,num_containers,arrival_rate,latency,memory_util,memory_util_std,slo_duration
1024,1024,129.84890811711273,240850,38629,39694336,30308400,0.5617749576375198,0.2832893121140954,0.9961842082552397,1024,0,1,1,397.742435638585,0.6865949896024784,0.1462634831395769,396.2247333361344
1024,128,196.17948847001568,260714,54046,32743424,30066568,0.5233187285521809,0.1937073532509473,0.692508506617718,1024,0,1,1,572.1586515540962,0.8516699798070253,0.0756110373623437,396.2247333361344
1024,1536,150.60063609496356,239521,40060,50835456,30415256,0.5547851363616876,0.3066442486418496,0.9896619952126148,1024,0,1,1,400.3636951331158,0.5884409315717946,0.1784461298725892,396.2247333361344
1024,2048,143.3755372362267,257958,43173,50049024,30457808,0.5933719860385198,0.2614885176284653,1.0,1024,0,1,1,376.3931036211471,0.5933011576084666,0.1744392809081359,396.2247333361344
1024,256,155.49945430026364,254606,41416,33005568,30348696,0.6660743449238424,0.2415001055005757,0.92257960504929,1024,0,1,1,429.4748454958156,0.8548255153818396,0.0532606935164096,396.2247333361344
1024,512,124.70865352463692,242610,18639,33005568,30566400,0.6104869243158922,0.2501990912484674,0.8543592394264388,1024,0,1,1,463.768301495907,0.8544442727606638,0.071242824495527,396.2247333361344
128,1024,118.86716608169664,278772,50183,40218624,31084960,0.524574716592928,0.2417738315262009,0.9319998084174722,128,0,1,1,425.1339214424525,0.7105657716213689,0.1397601788687266,396.2247333361344
128,128,164.8516458702456,268007,60144,33005568,29971216,0.5388765074154472,0.1684726067372242,0.7570857229614858,128,0,1,1,523.3551780453943,0.8614105010649,0.0763483188521844,396.2247333361344
128,1536,159.45823201691346,233366,51413,50573312,30397448,0.5506988507588245,0.2930316178899732,0.924425210769082,128,0,1,1,428.6174032472486,0.5893827004035477,0.1823599760431774,396.2247333361344
128,2048,141.7082085794531,301498,27276,50573312,31502888,0.5927047301747291,0.366142437351195,0.9423366204538017,128,0,1,1,420.4704823477243,0.6095547160987906,0.1721903958647972,396.2247333361344
128,256,150.68417402715608,283303,32879,33267712,30490160,0.7172826096369841,0.2851353358524975,0.9039589315785711,128,0,1,1,438.3216089742181,0.8414953993559298,0.0884409988308306,396.2247333361344
128,512,173.71085724913186,289319,37930,33267712,30091440,0.6223124628577567,0.258851422032936,0.815682835696938,128,0,1,1,485.7583315426651,0.8213926413949952,0.0805281103267779,396.2247333361344
1536,1024,109.16112189922389,284408,42147,39432192,31428528,0.6019046712458161,0.299712540532127,1.0,1536,0,1,1,391.43138029532565,0.6845954015841544,0.1605676570957794,396.2247333361344
1536,128,152.4888399476117,242123,45081,33005568,30269072,0.5825245402155711,0.2019476702886755,0.7716600702785993,1536,0,1,1,513.4705663765677,0.870617709066302,0.0694114965841347,396.2247333361344
1536,1536,148.03825382624785,275117,47309,50573312,31020576,0.6040733224556301,0.3247553628796985,1.0,1536,0,1,1,394.56774165599154,0.5902817777327134,0.1831705971704494,396.2247333361344
1536,2048,130.2679313886997,321198,40509,50573312,30613528,0.5245628348555458,0.2072425836953291,0.8692298710269087,1536,0,1,1,455.83423504306666,0.5691469264357043,0.1741916812139551,396.2247333361344
1536,256,166.32641499024072,223914,44752,33005568,29933104,0.6356068111548148,0.2025846511652624,0.8554479694612954,1536,0,1,1,463.17806281736875,0.827283549674212,0.1252483389006238,396.2247333361344
1536,512,119.1493996103112,206829,38479,33005568,30469184,0.492713393456739,0.1326603784965402,0.7751491757741293,1536,0,1,1,511.1593299966177,0.8161116259116656,0.083133030496644,396.2247333361344
2048,1024,139.6035263766412,292679,32172,39694336,30718264,0.6158941460081795,0.3342216882912844,1.0,2048,0,1,1,388.4064909402832,0.6819275094569803,0.1543847616923942,396.2247333361344
2048,128,125.32315263637176,309542,67350,33267712,30096440,0.5488343381086281,0.1871417771560515,0.7591644765836575,2048,0,1,1,521.922120380552,0.8289158987874113,0.0945189338471595,396.2247333361344
2048,1536,168.25712654522926,281583,50313,51097600,30934936,0.5921945711939297,0.267775706437947,0.941864292661885,2048,0,1,1,420.6813406380754,0.579455693924779,0.1851755246597602,396.2247333361344
2048,2048,137.16826258646702,300736,39883,50311168,31472856,0.6575214705875546,0.3033556085234952,1.0,2048,0,1,1,349.0065018202441,0.5461580959313218,0.1714273706539401,396.2247333361344
2048,256,155.5471253179284,254711,26888,32743424,30672144,0.6258882952758695,0.2691052748912227,0.8169242397252208,2048,0,1,1,485.0201696419339,0.832986464496619,0.0793279827189052,396.2247333361344
2048,512,141.39909027822532,234592,34184,33005568,30466304,0.6318242160417461,0.2725416157300763,0.8266750120266181,2048,0,1,1,479.2992742877008,0.824887640361721,0.1047042391941236,396.2247333361344
256,1024,151.00127379872956,312723,21467,39694336,30794744,0.6403859220800338,0.3316586145473617,1.0,256,0,1,1,386.62519658583204,0.6691409025009294,0.1459407056158486,396.2247333361344
256,128,235.92975613876945,262738,38723,33267712,30780272,0.5573724461012646,0.1825458786898417,0.7371081903894261,256,0,1,1,537.5394528268673,0.8575911632038047,0.0438640775358611,396.2247333361344
256,1536,159.49254793403432,294080,24516,50573312,31629856,0.5878349567967031,0.2436658758577146,1.0,256,0,1,1,391.3641206969446,0.5974915827965478,0.1846327282000341,396.2247333361344
256,2048,132.7255343316494,318859,19350,49000448,30510656,0.5731742393772792,0.2697978347346255,0.9538234007505557,256,0,1,1,415.40680698790624,0.6057425776123614,0.1698592668001832,396.2247333361344
256,256,180.5636265037151,262467,22872,33005568,30692776,0.571114034285939,0.2735365736258545,0.7810816127728274,256,0,1,1,507.27699494748424,0.8522406264436357,0.1003770126278462,396.2247333361344
256,512,128.65427978332622,227233,57757,33005568,29991960,0.6416511224838867,0.2597364435975912,0.9000294695773573,256,0,1,1,440.23528865360004,0.8383801918725183,0.0974658691602207,396.2247333361344
512,1024,146.2989741276172,268825,23684,39694336,30314456,0.6052625150317238,0.3002095137028283,0.9712311064496598,512,0,1,1,407.9613293941294,0.6664515516974749,0.1514917321614862,396.2247333361344
512,128,198.44575571801167,254165,82969,33267712,30310944,0.573745278998425,0.1891049612980969,0.7498168951084886,512,0,1,1,528.4286549435592,0.8820708696211735,0.0573898755968538,396.2247333361344
512,1536,155.30584012962845,244605,45865,50835456,30431856,0.5954003350984576,0.2732732396596263,1.0,512,0,1,1,371.07137735363324,0.6046112088873917,0.1746776850109571,396.2247333361344
512,2048,133.85230600206984,265468,37240,50049024,30425984,0.5234957634410792,0.2491962306591952,0.9059660200048867,512,0,1,1,437.35054581185864,0.592578148176586,0.1886667917496955,396.2247333361344
512,256,151.5088221612963,215547,24445,33267712,30220072,0.6537061177612428,0.2899334291702398,0.8758139160796872,512,0,1,1,452.407441879564,0.8495514033637033,0.0682056795315884,396.2247333361344
512,512,129.12001013210065,274444,27319,33005568,30313720,0.6692210116049352,0.2806077606365646,0.8981400351290086,512,0,1,1,441.1614200888181,0.8122160564391919,0.1020060063585579,396.2247333361344
