cpu,memory,duration_std,userDiff,sysDiff,heapTotal,heapUsed,avg_cpu_util,cpu_util_std,slo_preservation,total_cpu_shares,cpu_shares_others,num_containers,arrival_rate,latency,memory_util,memory_util_std,slo_duration
1024,1024,49.27103499363357,83977,21724,26054656,14501584,0.9924557016459786,0.1964632659644981,0.5122489125850049,1024,0,1,1,251.1346329023569,0.6920897106801317,0.0877371128233142,128.64344261666673
1024,128,85.07023160120447,47657,4060,36175872,32400616,0.8945159852062077,0.1593058496469078,0.3839929720310862,1024,0,1,1,335.0150965946647,0.8353621596765807,0.0493797076411818,128.64344261666673
1024,1536,41.3145756107318,127627,29590,34574336,14847392,1.0395373426889718,0.1537207170573402,0.6813394342591333,1024,0,1,1,188.80962431970414,0.6393176843711545,0.0853369373471701,128.64344261666673
1024,2048,26.61420805161165,121916,55339,60166144,42652536,1.0509601298017126,0.1966223953418267,0.8757062926840227,1024,0,1,1,146.90249880742218,0.6478319503211789,0.0726121476311083,128.64344261666673
1024,256,57.67405865545098,186394,47383,19365888,14575032,0.9867929655241757,0.1788992067500015,0.45876928627599844,1024,0,1,1,280.40988458689895,0.8427796455634013,0.0446587018217332,128.64344261666673
1024,512,76.7850415232514,182481,46409,37736448,33594768,0.9015775977018529,0.1896990512606472,0.3773648749374833,1024,0,1,1,340.8993553996742,0.8499673330595728,0.0443158335305319,128.64344261666673
128,1024,51.06580696731852,206328,38775,25792512,14652456,0.9697760384894225,0.1786735795923315,0.5279642076888053,128,0,1,1,243.65940104123925,0.7329024170359879,0.0777380015961798,128.64344261666673
128,128,94.929044987503,38843,19879,35332096,32125624,0.8760423587817088,0.1961883269558661,0.34015656848760084,128,0,1,1,378.1889122078087,0.8485934050549652,0.0535688643035356,128.64344261666673
128,1536,30.450114872923717,83915,23985,54386688,35024152,0.9947566652087263,0.2159030912601964,0.8031532789657565,128,0,1,1,160.1729657162386,0.6474016158112719,0.0582732088077437,128.64344261666673
128,2048,28.775023798110464,125276,50050,59904000,42271440,1.0583839174040732,0.2156428576526383,0.8060738927777072,128,0,1,1,159.59261771072272,0.7061324810183189,0.052344852085478,128.64344261666673
128,256,51.38708222429376,173758,49494,19103744,14633328,1.1144912088013361,0.1921066749982198,0.4912808505427973,128,0,1,1,261.85315888973395,0.8478322104613637,0.0525109635960872,128.64344261666673
128,512,73.08789408942418,119215,30805,28106752,23610048,0.9805136990138877,0.2430447832295338,0.4042005773290379,128,0,1,1,318.26635050039783,0.8581438441630901,0.0462113686563241,128.64344261666673
1536,1024,68.791271792448,63655,12742,41938944,34248152,0.96387357737767,0.1508910999470183,0.557093508272838,1536,0,1,1,230.91894036873836,0.7199863491354365,0.0740767159930008,128.64344261666673
1536,128,108.50411136620696,130073,25537,25800704,21408928,0.9881230993301932,0.1574955155732194,0.39295465070041596,1536,0,1,1,327.3747807472649,0.8604419869988236,0.0419109287354584,128.64344261666673
1536,1536,35.34068056382114,141825,37598,60166144,41501792,1.0304183368224962,0.1785870213644015,0.584980051465793,1536,0,1,1,219.910819684061,0.6513936483740533,0.0910089891990405,128.64344261666673
1536,2048,18.641912418037855,39945,12628,44032000,26994576,1.0640801478943616,0.1806572149143668,1.0,1536,0,1,1,121.36532027229526,0.640177095501488,0.0360049359436568,128.64344261666673
1536,256,64.15718266195094,34642,19544,36253696,32171560,0.9420604127429423,0.1807838532792026,0.47677003914329474,1536,0,1,1,269.82283292764237,0.8403541860784405,0.0441038827887864,128.64344261666673
1536,512,74.90342859447881,102328,37310,26062848,21666056,1.0029932894177742,0.174015496134232,0.3689558490128989,1536,0,1,1,348.66893413084034,0.8485480856571833,0.0399249565146752,128.64344261666673
2048,1024,42.20321231283389,128710,30554,36229120,25151264,1.0170408374846327,0.1765057570801951,0.5257052334245864,2048,0,1,1,244.70641423645048,0.7205812807979576,0.0845781679102222,128.64344261666673
2048,128,88.5275943977025,193413,35523,37998592,33470192,0.8952257421134036,0.2065331009806608,0.36439270181491673,2048,0,1,1,353.03517873968735,0.8542703009559377,0.0453149632178775,128.64344261666673
2048,1536,34.89228995595885,88773,30469,54124544,34995256,1.0123541449197957,0.1683703891961522,0.7094807724365096,2048,0,1,1,181.32054822976733,0.6381791448641791,0.0677659227313633,128.64344261666673
2048,2048,29.190211802009767,44645,14046,42729472,27630832,1.0858420496575105,0.1966151475198236,0.7814176648909754,2048,0,1,1,164.62827550054843,0.638367337597296,0.0959267465701711,128.64344261666673
2048,256,50.47132908251135,181952,44545,19365888,14644736,1.1146886908120541,0.279382228389873,0.5285662471033714,2048,0,1,1,243.38187184984594,0.8342264415158931,0.0457882457856184,128.64344261666673
2048,512,48.80275218426589,106023,23593,19365888,14591936,1.0952345548171833,0.2325421518561775,0.5960811371027586,2048,0,1,1,215.81532212533318,0.8435860748069116,0.0580144190744415,128.64344261666673
256,1024,57.55647724115078,101987,15528,25792512,14485344,0.9955189701607482,0.1666546799909779,0.45131439199205486,256,0,1,1,285.0417467274818,0.7291422311335323,0.0941586709270769,128.64344261666673
256,128,63.63131947960923,190577,36446,37736448,33694912,0.9561520681194762,0.1556860349393238,0.36240844130963185,256,0,1,1,354.9681187110024,0.8523059151999925,0.0444015168549677,128.64344261666673
256,1536,35.572583698643776,137535,39381,34836480,14802232,1.0248084953643963,0.1895632852860244,0.6650064617741825,256,0,1,1,193.44690617510182,0.6148042368716035,0.0986210426043038,128.64344261666673
256,2048,24.32731677167581,31978,25384,44032000,27073816,1.0948665677813556,0.2243753273079703,0.723420574398198,256,0,1,1,177.82662972183664,0.6174996963895263,0.0896023896925272,128.64344261666673
256,256,53.70104671296184,54353,27423,41799680,37295240,1.0956884095555925,0.2140376673662297,0.46606679979615484,256,0,1,1,276.0193231376531,0.826559055618451,0.0532681844805295,128.64344261666673
256,512,74.68134910708474,165159,49912,19103744,14579256,0.993552151919769,0.1442756659701236,0.4334301146480857,256,0,1,1,296.8031944921871,0.8469985877045547,0.0525939473571488,128.64344261666673
512,1024,64.41432202359019,49346,15326,41451520,33956928,0.9035372072568292,0.1964257593927999,0.5363460563797343,512,0,1,1,239.85156800628522,0.7601471816341592,0.0607346373614278,128.64344261666673
512,128,102.53892998905788,199900,29184,37474304,33568480,0.8567154712739644,0.1602392308086835,0.33986066091254613,512,0,1,1,378.51819116473035,0.85920490442766,0.0479997340573141,128.64344261666673
512,1536,43.15772794899261,42259,13410,48148480,31302096,1.0248626351987113,0.1140811078843923,0.6720315173587985,512,0,1,1,191.42471639166266,0.593379785692004,0.0948349094663235,128.64344261666673
512,2048,23.81423994226714,138945,36866,60166144,42243584,1.0968442910846763,0.2143191936613533,0.7151696619306837,512,0,1,1,179.8782155682874,0.7056005555690754,0.0467279034429461,128.64344261666673
512,256,79.73917287321352,106505,27602,19365888,14680840,0.9686924544523122,0.211646760628576,0.3688013167908732,512,0,1,1,348.81503064050423,0.8396167840552751,0.0455386899783448,128.64344261666673
512,512,83.29923663343614,40881,23732,36253696,32231288,0.9270358519772149,0.224524505459727,0.41274614953110883,512,0,1,1,311.67690543645114,0.8776664885427177,0.0277380162876155,128.64344261666673
