cpu,memory,duration_std,userDiff,sysDiff,heapTotal,heapUsed,avg_cpu_util,cpu_util_std,slo_preservation,total_cpu_shares,cpu_shares_others,num_containers,arrival_rate,latency,memory_util,memory_util_std,slo_duration
1024,1024,780.3394917970306,1723490,144615,42127360,35454600,0.8808150296655297,0.1365814370756562,1.0,1024,0,1,1,705.6606815987269,0.850696081067837,0.0208957473226834,2170.0622341132075
1024,128,2553.252690317369,1946447,192298,36487168,33846728,0.4262408098182354,0.0736566374055199,0.2659166458576919,1024,0,1,1,8160.685943950042,0.9199718662244,0.00770035981578,2170.0622341132075
1024,1536,519.198311253177,1626657,157800,52219904,34947680,1.0226119224992545,0.1361331114693308,1.0,1024,0,1,1,474.41829157061176,0.7396511966137608,0.0502162302620656,2170.0622341132075
1024,2048,368.774557353753,1614990,132997,52219904,38352288,0.9929341687982969,0.1929861442335127,1.0,1024,0,1,1,264.8619108231814,0.7445421455399657,0.040904621404162,2170.0622341132075
1024,256,3423.919366751641,1962326,196146,36225024,33513760,0.3328462421363872,0.0539503275397078,0.2598619083732808,1024,0,1,1,8350.82851387362,0.9216585278279334,0.007850352017101,2170.0622341132075
1024,512,1182.5156377235169,2024433,205471,35962880,33343160,0.9402229516511456,0.1491111985813408,1.0,1024,0,1,1,1470.2023327367,0.9287843025180328,0.0123339654508394,2170.0622341132075
128,1024,808.3820687718453,140917,16109,44224512,38647456,0.7884496721313461,0.1504851162102569,1.0,128,0,1,1,733.463182483061,0.8483839541645743,0.0330702227757063,2170.0622341132075
128,128,579.8396609651104,2168229,169240,36487168,33847080,0.390021114038054,0.0206159692578358,0.24375852010292948,128,0,1,1,8902.508241340147,0.924991315884122,0.0096270243660243,2170.0622341132075
128,1536,547.6852571295078,1550872,154388,51695616,37973648,0.9740293114466305,0.1722261653644248,1.0,128,0,1,1,494.77655005747346,0.7300032203108809,0.0507285336573522,2170.0622341132075
128,2048,336.800340097615,1585052,147481,52219904,38322888,1.0510733564690367,0.1816436881842124,1.0,128,0,1,1,270.7187981657955,0.7453981786879742,0.0493882271034932,2170.0622341132075
128,256,4097.853581134626,2150260,176058,36749312,34044352,0.38416622915357107,0.2063384046165673,0.2558961138302941,128,0,1,1,8480.246931582382,0.9241893713765316,0.0071510190699033,2170.0622341132075
128,512,1498.9719889292858,1897083,136500,36225024,33278232,0.6253866236972435,0.1717592932677342,1.0,128,0,1,1,1724.880539785935,0.9296347793134248,0.007670544291446,2170.0622341132075
1536,1024,861.6615129503546,1973683,142352,44224512,34998096,0.8648472253640229,0.1812419436040496,1.0,1536,0,1,1,779.0794201757309,0.8303764816705732,0.0340748555762309,2170.0622341132075
1536,128,2126.4649721527244,2047007,246265,36225024,32760216,0.38603258039550287,0.064462514388415,0.24015513295306815,1536,0,1,1,9036.085164739276,0.9208893477894684,0.0089566886550802,2170.0622341132075
1536,1536,532.1570005170252,1726722,135261,52482048,40911144,1.0237784646082406,0.1134379840478438,1.0,1536,0,1,1,442.3133996344796,0.7349259573308916,0.040622265321484,2170.0622341132075
1536,2048,314.82065419313795,1531218,92300,51957760,37662744,0.9838725814200924,0.1793814818776083,1.0,1536,0,1,1,278.60468803883657,0.7510076168757085,0.0542509835335736,2170.0622341132075
1536,256,3015.304542463399,2029286,151864,36225024,33678424,0.426580042830443,0.1104666916182168,0.37410002551183,1536,0,1,1,5800.754039362087,0.9246622625076316,0.0116080121084723,2170.0622341132075
1536,512,1646.09949190443,1857869,147265,36225024,33123712,0.5819140866130454,0.1203921635844647,1.0,1536,0,1,1,1854.5997782885042,0.924044752532273,0.0147170206456246,2170.0622341132075
2048,1024,802.1483243384831,1701533,129118,43175936,37394208,0.8189545331298163,0.1554914590550954,1.0,2048,0,1,1,715.1166611570844,0.832531164275881,0.0245749209707258,2170.0622341132075
2048,128,1619.7406686804245,1901846,172410,36749312,33364304,0.47262073583802167,0.131223490594496,0.2966213446694509,2048,0,1,1,7315.934180432912,0.91185003152682,0.0049781629286753,2170.0622341132075
2048,1536,518.4063822710953,1541995,118895,51433472,37918272,1.0136909754914996,0.093414815622714,1.0,2048,0,1,1,483.3387481273519,0.7362090965089982,0.0340915883569647,2170.0622341132075
2048,2048,357.19883490282325,1630670,127608,52219904,40926096,1.012158260665364,0.1856759731616423,1.0,2048,0,1,1,251.76106424725373,0.7369739653952582,0.0377900556978665,2170.0622341132075
2048,256,3176.111626839882,1904085,167003,35962880,32983488,0.3855833923445936,0.0894764048029668,0.33022014708031616,2048,0,1,1,6571.562193585375,0.9216415710546014,0.0103865532840094,2170.0622341132075
2048,512,2217.8727442932477,1805331,144589,35962880,33092184,0.6546086926779225,0.268881998324053,0.7949604823082477,2048,0,1,1,2729.773721345511,0.9284303078366912,0.0114656941499467,2170.0622341132075
256,1024,794.4274104438656,1801999,195764,43962368,35205456,0.8619550715144149,0.1466804248057306,1.0,256,0,1,1,750.5167236062686,0.8516990015064387,0.0283338144918787,2170.0622341132075
256,128,876.7973810684243,2046958,205335,36225024,33540576,0.33101023786330763,0.0237534639910352,0.21001698896598753,256,0,1,1,10332.79376491133,0.923584270365016,0.0053564016564719,2170.0622341132075
256,1536,323.9468833094208,1519209,112681,51957760,34447288,1.0663004486409735,0.186224976234379,1.0,256,0,1,1,279.73331806889803,0.7238048661975449,0.0457449786076631,2170.0622341132075
256,2048,220.33318362914676,1537748,111008,52219904,37617112,1.0329514038509369,0.2319620476416888,1.0,256,0,1,1,131.5862269781897,0.7334364325344113,0.0596844608830166,2170.0622341132075
256,256,4074.863359627318,2007014,190352,36749312,33765120,0.3227501164403369,0.0524612876239198,0.26794003869406824,256,0,1,1,8099.059195072248,0.9246124452840364,0.0109033845133531,2170.0622341132075
256,512,1229.534428023112,1745882,169410,35962880,33235696,0.7424012857906783,0.1812207431693719,1.0,256,0,1,1,1394.272505457804,0.9306224638515556,0.0107869451748304,2170.0622341132075
512,1024,768.1045120832407,1714465,170288,42913792,35361648,0.8245242761827487,0.1712126113880285,1.0,512,0,1,1,699.0760378522868,0.8288772777371225,0.0223880578696477,2170.0622341132075
512,128,330.7386563214211,1878969,254642,36225024,33029000,0.44824669694997954,0.0217754867072734,0.2946646253120483,512,0,1,1,7364.515614370483,0.920723944491484,0.011541768672613,2170.0622341132075
512,1536,528.5008723589941,1723050,110983,51957760,33911520,0.998258678303662,0.1336858726726751,1.0,512,0,1,1,454.6608139800709,0.7521992734186548,0.0565424447453892,2170.0622341132075
512,2048,331.4784859559241,1434928,147954,52219904,38544240,1.05974274119775,0.1550784034403491,1.0,512,0,1,1,240.75731768598925,0.7274453171181184,0.0411832436777033,2170.0622341132075
512,256,4464.195143040473,1652600,176890,35962880,32458936,0.35427264824344645,0.2077893524906154,0.23551548706774986,512,0,1,1,9214.095689125335,0.922317026332883,0.0113697169788315,2170.0622341132075
512,512,2036.308326975141,2051917,175468,36749312,33552416,0.5237831451260927,0.1136585053805663,1.0,512,0,1,1,2064.929145416213,0.9061005808100848,0.0511368004768506,2170.0622341132075
