cpu,memory,duration_std,userDiff,sysDiff,heapTotal,heapUsed,avg_cpu_util,cpu_util_std,slo_preservation,total_cpu_shares,cpu_shares_others,num_containers,arrival_rate,latency,memory_util,memory_util_std,slo_duration
1024,1024,120.36599732727878,9831,421,33771520,28063064,0.16067771034606823,0.1287597128626504,0.8225579528798022,1024,0,1,1,378.3364015182627,0.6681844861932804,0.0846273726535661,311.203615932773
1024,128,212.26438029619436,10610,418,27602944,24074352,0.07837324738768811,0.0174140054566397,0.8282322390162593,1024,0,1,1,375.7443881952821,0.8675997355584952,0.0124360562312041,311.203615932773
1024,1536,143.7830313194148,8770,117,33787904,14722912,0.12396233296549668,0.0494588156887049,0.8914826669564646,1024,0,1,1,349.08543650683293,0.5113407017313587,0.058692109652215,311.203615932773
1024,2048,102.3372248636392,5001,3467,42557440,27641224,0.1612115619130259,0.0761074352508773,1.0,1024,0,1,1,268.8102940293888,0.6027046547283187,0.1147487596171827,311.203615932773
1024,256,133.00803543669565,661,12493,27865088,24433816,0.07521199247788495,0.0185296279415354,0.8749205820376987,1024,0,1,1,355.69355930337895,0.8696944242541956,0.0103912093053789,311.203615932773
1024,512,130.78072009335816,10504,36,27865088,24400496,0.1680867791755197,0.0789731872455019,0.9466887777705094,1024,0,1,1,328.7285359668783,0.8712420734634014,0.017766614704656,311.203615932773
128,1024,106.23842403993328,8373,78,33771520,28057024,0.16727524050718193,0.0951741844302778,0.9902830308547742,128,0,1,1,314.25724387517175,0.6525605587634344,0.071451862361475,311.203615932773
128,128,168.25808462180967,7259,3759,28127232,24455584,0.09849673636572268,0.0278960865239801,0.9985096070548624,128,0,1,1,311.6681239058666,0.8694944053974255,0.0068279960588944,311.203615932773
128,1536,140.18764262446982,11356,693,42029056,28539928,0.22646278050844026,0.2277234518698249,0.7828158480247971,128,0,1,1,397.5438370569563,0.5195877971448506,0.0729605400104533,311.203615932773
128,2048,143.09963534271344,19737,5970,34574336,14846440,0.1540308820016043,0.1308436547636983,0.8273292473758392,128,0,1,1,376.1544958308471,0.5245427457640754,0.0488451875868773,311.203615932773
128,256,162.65587658450315,4567,5972,27865088,24500968,0.10886249322196341,0.0579425068865674,0.7675897525746788,128,0,1,1,405.42961248365026,0.8744742547640869,0.009839336069092,311.203615932773
128,512,117.52962069101422,155,9342,27865088,24417040,0.12766570001957456,0.0626203707073521,1.0,128,0,1,1,263.28343517776375,0.8769401825098282,0.0122242572074733,311.203615932773
1536,1024,124.25639233786714,11279,704,33775616,28078152,0.2115589380199887,0.1339403786599676,1.0,1536,0,1,1,271.8356539307828,0.6519821383914978,0.0711251527823113,311.203615932773
1536,128,143.32579839958774,6152,4344,27865088,24413208,0.08747879659458231,0.0254038607745446,0.9789384065572749,1536,0,1,1,317.8990770494051,0.8709760089047427,0.0102281795352111,311.203615932773
1536,1536,113.38892912143194,5301,4310,42029056,28289464,0.13315119254560923,0.0532514193725025,0.9288245901860185,1536,0,1,1,335.0510087921416,0.5372186953628703,0.1022679643939818,311.203615932773
1536,2048,142.7578729430627,25765,4316,34312192,14845960,0.1519350073053158,0.0781663176781529,0.9063573856375242,1536,0,1,1,343.3564075983945,0.5263539245845597,0.0629771006164506,311.203615932773
1536,256,114.8231547722009,10071,404,28127232,24226872,0.06196772848289776,0.0175479465424685,0.9591334490113327,1536,0,1,1,324.4633124343221,0.8696316830492322,0.0138891169743912,311.203615932773
1536,512,116.23659292886092,10193,31,28389376,24128952,0.09948492782208634,0.0456295587139947,0.8906877824335666,1536,0,1,1,349.39697396824306,0.8755712241793777,0.0119055870324647,311.203615932773
2048,1024,133.6261996241899,9564,30,33775616,27903112,0.2149009185724554,0.1364242135654625,0.9618633370038773,2048,0,1,1,323.54244512754366,0.6693209788481866,0.088043288184934,311.203615932773
2048,128,139.87438934423514,13163,230,28651520,24077752,0.06831800518832258,0.0206512662059525,0.7719786099132697,2048,0,1,1,403.1246616635351,0.8642021958988476,0.0133502735913922,311.203615932773
2048,1536,120.60444574021982,10488,455,41771008,28555912,0.14838381967059724,0.0751146289220733,0.8934289379327371,2048,0,1,1,348.32497887616256,0.5162945448710635,0.0752429492799266,311.203615932773
2048,2048,142.43460058905765,2437,4708,42553344,27535440,0.13620289363417595,0.0429932988795325,1.0,2048,0,1,1,308.0470754241578,0.5256759696573654,0.0518322359987456,311.203615932773
2048,256,130.20129309990116,4243,8119,28389376,24116072,0.08128591582977492,0.0239849367750745,1.0,2048,0,1,1,304.0615098867046,0.8701328768754785,0.0147864606840658,311.203615932773
2048,512,132.7152788519367,13068,257,27865088,24511512,0.12817839816239568,0.1002923871698745,1.0,2048,0,1,1,306.5040470399353,0.8805242045655183,0.0119027205853954,311.203615932773
256,1024,152.5235144408691,8399,87,33771520,27876912,0.18549617884675262,0.0662194559893488,1.0,256,0,1,1,295.6655413153247,0.6516637924804405,0.0692468171464558,311.203615932773
256,128,149.3287784350692,8566,131,28389376,24126312,0.0857510503983245,0.024064893964374,0.9681954579716358,256,0,1,1,321.4264365428267,0.8691135310808084,0.0092451060181387,311.203615932773
256,1536,137.8932835157661,9475,348,42553344,27973896,0.2079635660735517,0.1167362203772223,1.0,256,0,1,1,259.58395415028315,0.5034821088220367,0.0559465900805862,311.203615932773
256,2048,142.67834298653605,4029,4023,42291200,27663160,0.20517898462731954,0.1346044384844625,1.0,256,0,1,1,297.7192281699721,0.5308045292186423,0.0736926650408713,311.203615932773
256,256,131.6251293812823,5782,4295,28127232,24387008,0.12212831981951838,0.0524222806302648,0.9008808292367237,256,0,1,1,345.4437100148329,0.8778379818883882,0.0081977394623387,311.203615932773
256,512,123.48425748237528,9476,4240,27340800,24104136,0.135061260717561,0.078253936583865,0.9014449327174662,256,0,1,1,345.2275392958601,0.8774336870051964,0.0139427907212779,311.203615932773
512,1024,138.8364238926236,26903,615,26054656,14704264,0.16381825701810396,0.0850216484493397,0.8209320813165233,512,0,1,1,379.0857039399628,0.6635774773290166,0.0826099357541376,311.203615932773
512,128,235.0253465165824,10732,550,28127232,24549880,0.06814890920607831,0.0181835518378461,0.6602118899647456,512,0,1,1,471.36929925541153,0.8712159838170911,0.007926797031207,311.203615932773
512,1536,111.80240046522898,8711,1123,41766912,28701624,0.15505035687225902,0.0908977347848863,0.890996280108311,512,0,1,1,349.27599910399465,0.5090810215656922,0.064419130660031,311.203615932773
512,2048,111.8783647557892,59212,4710,34574336,14709504,0.11048421566379953,0.0461142908556802,0.8231294570849196,512,0,1,1,378.07372006207663,0.5243684801355791,0.0511901078069659,311.203615932773
512,256,134.29401160825802,8879,172,27602944,24060304,0.14047419429124972,0.0724222385010681,0.870823688388759,512,0,1,1,357.36696197203514,0.8745209258257297,0.01299092283551,311.203615932773
512,512,147.54007039198152,10050,357,28127232,24366568,0.19828645860735394,0.147391805301481,0.8220671877490618,512,0,1,1,378.5622642169836,0.8736935641099587,0.0137828757226762,311.203615932773
