cpu,memory,duration_std,userDiff,sysDiff,heapTotal,heapUsed,avg_cpu_util,cpu_util_std,slo_preservation,total_cpu_shares,cpu_shares_others,num_containers,arrival_rate,latency,memory_util,memory_util_std,slo_duration
1024,1024,208.34323526112863,382993,71643,38907904,30024808,0.7714910976271536,0.2192914860184735,1.0,1024,0,1,1,748.0859404801602,0.7580267530177187,0.1065815753826196,835.238675902913
1024,128,281.08453828445033,528301,58483,32743424,29859528,0.3338425655429765,0.0434591999721914,0.35071223919691397,1024,0,1,1,2381.5498364570976,0.8569443122449842,0.0494019870462745,835.238675902913
1024,1536,121.09703093457792,341593,48728,58183680,45081008,0.8844293797617729,0.3481072468608344,1.0,1024,0,1,1,508.31175280213836,0.7062153180294068,0.1088129583932875,835.238675902913
1024,2048,144.82731765477973,336638,43025,59232256,44584880,0.6693473960274093,0.2218240296773145,1.0,1024,0,1,1,597.066253837273,0.6859643309503526,0.1615864922377584,835.238675902913
1024,256,376.3616487394772,377450,64347,32481280,29797912,0.3995558150963838,0.0746148379581757,0.46260802904027976,1024,0,1,1,1805.4997394569386,0.8826717585197731,0.0481601333164072,835.238675902913
1024,512,268.31156454933057,467273,50108,36151296,29650736,0.5683251648074231,0.1032790889746132,0.6680720788928627,1024,0,1,1,1250.222397090866,0.853272035994779,0.0645652955230636,835.238675902913
128,1024,210.6395734436023,413240,53339,42577920,30350632,0.7358486235953324,0.1792326020482654,1.0,128,0,1,1,801.5691442335925,0.7714836918000938,0.08210444418201,835.238675902913
128,128,717.9142340738741,385369,65711,38248448,29621096,0.4864983520491719,0.2368737503585061,0.4305586075484815,128,0,1,1,1939.8954317940652,0.8379467529480559,0.090397174613683,835.238675902913
128,1536,153.1621075923358,343186,33804,44806144,31032656,0.8802266201341111,0.357943945215979,1.0,128,0,1,1,546.3169237568535,0.6800336649649666,0.129826043028827,835.238675902913
128,2048,133.6789063607272,253694,58078,44806144,30219864,0.7078472149700609,0.2557704975957591,1.0,128,0,1,1,550.641673274635,0.7278198826571007,0.1272533543871669,835.238675902913
128,256,309.2701168362861,485621,61218,35102720,30255912,0.34082112159424116,0.0407909577376568,0.39720432055276456,128,0,1,1,2102.7935314010765,0.8814875377016127,0.0648165246572409,835.238675902913
128,512,145.92585835878026,424260,49175,33005568,30154768,0.5398179799334402,0.0694525198416272,0.6967275092192466,128,0,1,1,1198.8024943049572,0.870832836929228,0.0677881020462143,835.238675902913
1536,1024,193.4814289675201,481261,37047,46772224,30017024,0.7428788888750852,0.1899368726622748,1.0,1536,0,1,1,766.3039752164534,0.7276781016987683,0.1309195807335616,835.238675902913
1536,128,372.1763752741344,475447,56887,32743424,30462440,0.5829377660284296,0.1509177263225167,0.5709763217164929,1536,0,1,1,1462.825416983989,0.8727450413613056,0.0650442798771484,835.238675902913
1536,1536,190.12677036791248,397713,43276,58707968,46009152,0.845702475097551,0.3988743741388161,1.0,1536,0,1,1,604.6383891468209,0.7530663058388741,0.1112935217639064,835.238675902913
1536,2048,143.56391178584445,247154,71856,44806144,30212584,0.7539946862277097,0.3167150923653296,1.0,1536,0,1,1,587.711668626011,0.689416973152805,0.1335774514145321,835.238675902913
1536,256,397.2157688081333,408440,80424,37986304,29561224,0.478989294582644,0.1285256710576024,0.5313528273243673,1536,0,1,1,1571.9097235423892,0.84569128169752,0.0846883358452637,835.238675902913
1536,512,239.22781168457988,438949,42885,32743424,29622136,0.5495076046214085,0.0969413409465297,0.6602308687255526,1536,0,1,1,1265.0706222130736,0.8707767562673434,0.0705467400414076,835.238675902913
2048,1024,193.4597441030224,456124,29362,39956480,30029352,0.7280580604480767,0.2075053379673666,1.0,2048,0,1,1,802.2198608690923,0.7752685645808451,0.1262625281233965,835.238675902913
2048,128,1001.7979260251911,405135,66184,32743424,29889048,0.5165395038867631,0.1998545281498792,0.42633423120757535,2048,0,1,1,1959.1170841176217,0.8661907444629178,0.0638976632897855,835.238675902913
2048,1536,188.5262089810454,324336,51016,44806144,30513992,0.8416563920799269,0.3845881474079963,1.0,2048,0,1,1,590.764507662775,0.7070054076882132,0.1163310415814208,835.238675902913
2048,2048,133.33251877678546,360320,39956,58970112,44878392,0.7981060277186401,0.2941508736675929,1.0,2048,0,1,1,498.5310370156793,0.7542130969918318,0.0838809729373348,835.238675902913
2048,256,256.24861987903694,404700,56215,36937728,29617736,0.532892832768611,0.0944342713913985,0.6399857520180238,2048,0,1,1,1305.089485616221,0.8652399145436617,0.0741997471821659,835.238675902913
2048,512,182.01232400575896,414384,54326,36151296,29666408,0.5530289293866821,0.0778848197837407,0.6865862042716503,2048,0,1,1,1216.5095521966646,0.8457347978283586,0.0832651424289688,835.238675902913
256,1024,213.977356167526,434508,51368,44150784,30358824,0.7938828181967286,0.2295972825419689,1.0,256,0,1,1,744.7081018638771,0.7556849329107891,0.1179358399205434,835.238675902913
256,128,1101.5792862121584,445740,80915,33005568,30164496,0.3955406938999451,0.1205745802367288,0.35842251978978845,256,0,1,1,2330.3186317443806,0.8304322775433588,0.0741933497312954,835.238675902913
256,1536,132.88804278878783,336906,37945,58970112,45348984,0.8250631746851221,0.3303760015339382,1.0,256,0,1,1,527.0748686385573,0.7255182867331411,0.1244370369715435,835.238675902913
256,2048,154.10864637194908,372271,44014,59232256,45515072,0.8589421285877203,0.4067730523872293,1.0,256,0,1,1,533.2434579859867,0.7071204073795216,0.125149475317798,835.238675902913
256,256,282.06810699558866,438311,30613,36151296,29866688,0.3447476147776531,0.0432874595377444,0.40469090500156424,256,0,1,1,2063.892876217924,0.8394035338145467,0.0683380576485878,835.238675902913
256,512,212.1656397431244,433576,48135,37462016,29684344,0.5694506750911709,0.0831509346858168,0.6758469170237261,256,0,1,1,1235.8400325048628,0.8698260222046974,0.0544744535054499,835.238675902913
512,1024,144.323059625693,373683,45443,38383616,30024664,0.6574097469347688,0.1055123789688669,1.0,512,0,1,1,797.6894954228112,0.7759396573295223,0.1071381871379209,835.238675902913
512,128,1150.5011710299457,468182,68966,33005568,29802352,0.4618317148473988,0.1981714325730189,0.3805700122785493,512,0,1,1,2194.7043880367,0.8854147011307177,0.0432426364942098,835.238675902913
512,1536,121.38780495923874,366867,40802,59232256,44627688,0.7277139851262373,0.192743036099942,1.0,512,0,1,1,553.8325716535796,0.7475285288685708,0.0919740240398552,835.238675902913
512,2048,121.01306350382788,360182,57750,58970112,46103296,0.8669183105364282,0.3173838968230885,1.0,512,0,1,1,479.98235445332426,0.7404640431383654,0.0803043802772106,835.238675902913
512,256,403.2551280361272,371688,65314,34840576,29761384,0.3907622998650567,0.0735693472466281,0.43510898905439555,512,0,1,1,1919.607953212143,0.8835923661151367,0.0511469725501987,835.238675902913
512,512,189.6270480719844,431526,63363,40607744,29631680,0.5306789662508343,0.0587301633888326,0.6511295959702901,512,0,1,1,1282.7533582746614,0.8546939304910859,0.0658687956711317,835.238675902913
