cpu,memory,duration_std,userDiff,sysDiff,heapTotal,heapUsed,avg_cpu_util,cpu_util_std,slo_preservation,total_cpu_shares,cpu_shares_others,num_containers,arrival_rate,latency,memory_util,memory_util_std,slo_duration
1024,1024,98.5496597502599,271739,46399,38383616,31334296,0.8169699378541692,0.1148832789539626,1.0,1024,0,1,1,261.592144178818,0.8135459445513638,0.0736912295677282,434.9931471711711
1024,128,867.4411984798031,257890,58938,33267712,29707552,0.5155414812901057,0.2680140096303428,0.32832783248375813,1024,0,1,1,1324.8744216428545,0.9097667786780396,0.0122460124462787,434.9931471711711
1024,1536,76.50232340692057,261257,39233,37982208,15636096,0.9642093995498375,0.1339405944868289,1.0,1024,0,1,1,206.44464335094992,0.7096346528115289,0.1484963182786654,434.9931471711711
1024,2048,53.44507766761008,263989,49485,43757568,31631096,1.2700642736158474,0.3364141849528781,1.0,1024,0,1,1,152.98512611146424,0.7321004481377951,0.0998800271497232,434.9931471711711
1024,256,232.0277902662749,309312,45914,32743424,30168528,0.5521081215889783,0.2498101050016427,0.6325538829836069,1024,0,1,1,687.6776174693788,0.906273103137733,0.0444699800147931,434.9931471711711
1024,512,123.5922834407915,299544,27511,33005568,30393600,0.5282923376608205,0.0822074976941293,0.7923431860078075,1024,0,1,1,548.9958831637946,0.885107430552206,0.0576316458565257,434.9931471711711
128,1024,88.7238274952624,235812,21527,48869376,31407688,0.8058485820829786,0.1681973407795653,1.0,128,0,1,1,290.75928858955854,0.8040913434522332,0.0716435782738045,434.9931471711711
128,128,1294.961648739581,332673,55453,32481280,29744136,0.3725758626561187,0.2325489035747978,0.22372238790590182,128,0,1,1,1944.343394699194,0.9198513540748716,0.0072227356946473,434.9931471711711
128,1536,45.27123168337881,247937,37812,43495424,31975360,1.3020979485681148,0.2699595115667819,1.0,128,0,1,1,132.03243141498547,0.7133136405765587,0.1158646073207375,434.9931471711711
128,2048,28.50115137148429,291988,29258,49786880,30066288,1.4606267058107032,0.2156701805930069,1.0,128,0,1,1,93.98647378177233,0.7525811678904022,0.1154612899950703,434.9931471711711
128,256,271.8687789522601,296508,43448,32743424,30141608,0.3417618580780629,0.0877786447530302,0.40185674554719747,128,0,1,1,1082.458244115954,0.916922351701412,0.0247764933176211,434.9931471711711
128,512,152.40751678713528,244230,42795,32481280,29897784,0.5136525573123882,0.0797075282776406,0.6953624549473642,128,0,1,1,625.5631779890937,0.8835589126110085,0.056067568975569,434.9931471711711
1536,1024,92.14765704322562,285277,44591,28151808,15446296,0.8112925267056162,0.1078029560113501,1.0,1536,0,1,1,265.9307164649084,0.7864012936198104,0.1221085793056487,434.9931471711711
1536,128,1129.2929936496223,291168,29838,33529856,30130288,0.538927318090972,0.3907754498797743,0.28934554564325005,1536,0,1,1,1503.3690814355855,0.9131120034123776,0.0105838293793616,434.9931471711711
1536,1536,54.77092823028965,215047,28820,48214016,30592568,1.2121154269783643,0.3149452174306663,1.0,1536,0,1,1,143.96100814205766,0.7218603708906137,0.1135754453932111,434.9931471711711
1536,2048,27.738868708249115,293797,28686,49786880,30074888,1.5034805702700864,0.198276263694735,1.0,1536,0,1,1,100.27546933719867,0.7039259755363477,0.1250614371204855,434.9931471711711
1536,256,278.0335598100061,257567,36759,32743424,29670880,0.493934920076197,0.2564552050079137,0.5388384294839069,1536,0,1,1,807.2793686742098,0.9132161217837536,0.0108990358279786,434.9931471711711
1536,512,147.97660682225424,283464,36213,33005568,29843240,0.6121216756335234,0.2645998068038717,0.7799720131931265,1536,0,1,1,557.7035327079918,0.8817067162228559,0.059684268085995,434.9931471711711
2048,1024,94.69759894821458,262574,29849,37072896,30467424,0.8791989801845558,0.1596098198788041,1.0,2048,0,1,1,297.5619069172339,0.7884216065319046,0.0875426110228551,434.9931471711711
2048,128,462.5507753817916,327920,74780,33005568,29994048,0.7659670560104407,0.3654269815214449,0.5909233876680436,2048,0,1,1,736.1244388850154,0.9102294169158558,0.011391538361429,434.9931471711711
2048,1536,59.18828684465736,247369,31798,38506496,15634344,1.3219472233902378,0.2441452997132095,1.0,2048,0,1,1,133.73838979076353,0.7038883933390261,0.1152665785255685,434.9931471711711
2048,2048,24.763887787501424,188807,33198,37457920,15658656,1.4522932775022739,0.1538969620903162,1.0,2048,0,1,1,103.49060379634793,0.6879341373211819,0.124377093556204,434.9931471711711
2048,256,205.8969882743114,271712,37879,32219136,29754192,0.5422468754465689,0.2505808232323722,0.6398870566840842,2048,0,1,1,679.7967588613526,0.896859861790594,0.0400862232779423,434.9931471711711
2048,512,115.35075084831496,244001,45159,32219136,30002248,0.7506693100430514,0.2621422803115689,1.0,2048,0,1,1,425.5363116071558,0.8907470200561927,0.0382445946045178,434.9931471711711
256,1024,73.33919506006487,230389,22057,36810752,30470696,0.7552240432858259,0.1341647774740842,1.0,256,0,1,1,309.7109774385208,0.7743309460069014,0.1019814965919452,434.9931471711711
256,128,946.6143245603364,257157,81449,32481280,29944800,0.4450922492810423,0.3829820815828192,0.27905615427559005,256,0,1,1,1558.801483165216,0.9155699867685284,0.0083155274552784,434.9931471711711
256,1536,40.00709875605399,239451,43177,50311168,29913912,1.0699230164645783,0.2232049887040839,1.0,256,0,1,1,160.55439857094737,0.7542880541317489,0.0919950234314986,434.9931471711711
256,2048,26.383223441715643,285907,21433,50049024,30067504,1.4677262145250363,0.2137246184739964,1.0,256,0,1,1,93.89283407012985,0.7423323539085256,0.1066307507150089,434.9931471711711
256,256,230.28907777199385,276226,41114,32743424,29803288,0.4214534973879653,0.1069345965736118,0.5077703984282106,256,0,1,1,856.6729146040818,0.9074516234421977,0.0208400650023052,434.9931471711711
256,512,135.34348192225224,268766,21342,33267712,30494888,0.5493317622340406,0.1068331088755132,0.7738265153267578,256,0,1,1,562.1326467308888,0.899010727803784,0.0418909715127663,434.9931471711711
512,1024,89.05149118651173,266223,52603,38907904,31597368,0.8187172061069722,0.152633361807967,1.0,512,0,1,1,301.5437381533236,0.8082707703223976,0.0995730499652129,434.9931471711711
512,128,1125.8711827990237,260342,39257,32743424,29668296,0.25779954202935285,0.1574083934404274,0.1821046597787269,512,0,1,1,2388.6986071620895,0.9134959584274316,0.0094586644103727,434.9931471711711
512,1536,41.21855790559188,238816,28485,69857280,51854688,1.3235270223039008,0.2710570217908631,1.0,512,0,1,1,123.38708256243825,0.7149555071441133,0.0969319311350583,434.9931471711711
512,2048,26.026724742131016,159812,30977,63827968,51897192,1.477499355744914,0.1728077332953491,1.0,512,0,1,1,99.92644526741391,0.7260161809058642,0.1090808938649377,434.9931471711711
512,256,204.5668157233948,272023,52756,33005568,29695296,0.42957011274834445,0.1204449468086382,0.5311041779718766,512,0,1,1,819.0354457994965,0.9096877480328582,0.0314294791326082,434.9931471711711
512,512,136.3872023563852,254854,41406,32481280,29978208,0.5023722973478222,0.0627092510241653,0.774242377551892,512,0,1,1,561.8307132019735,0.9115581114962849,0.0290695081512469,434.9931471711711
