cpu,memory,duration_std,userDiff,sysDiff,heapTotal,heapUsed,avg_cpu_util,cpu_util_std,slo_preservation,total_cpu_shares,cpu_shares_others,num_containers,arrival_rate,latency,memory_util,memory_util_std,slo_duration
1024,1024,48.267564631937205,21506,4299,25006080,14865752,0.8540910016838266,0.164446141177239,0.5021652152637874,1024,0,1,1,244.47487407150746,0.6568718659381375,0.0455581732014642,122.76677776470588
1024,128,160.32988040868068,111693,4006,23994368,20562896,0.7286434602306894,0.2617015830391454,0.2657903753959585,1024,0,1,1,461.89324042232647,0.8539068483115126,0.0117799333607999,122.76677776470588
1024,1536,44.22528644045516,80196,251,38944768,23970952,0.9534034574673097,0.1055190641839683,0.5432701184926725,1024,0,1,1,225.9774163639404,0.5289048982789275,0.0778003313518839,122.76677776470588
1024,2048,21.79065332298517,29344,8,39206912,24930984,0.9831490193569308,0.0917316802436743,1.0,1024,0,1,1,114.07790980030649,0.5383632582020502,0.0750740893364745,122.76677776470588
1024,256,146.9830402330245,85405,33,24256512,21171744,0.7106977373245638,0.2434105043187956,0.2887791430812712,1024,0,1,1,425.1234228856881,0.8547366733722199,0.0147599527388999,122.76677776470588
1024,512,51.024054102145,34503,3825,24256512,20362728,0.7989697923056929,0.2618159471231378,0.6323755907147305,1024,0,1,1,194.1358578150543,0.8619701538546882,0.0190099979535356,122.76677776470588
128,1024,48.30957703672552,49876,4,25268224,16048280,0.8876001216784677,0.1333195926708537,0.512722246997615,128,0,1,1,239.44109795040148,0.6576224093624795,0.04096764722252,122.76677776470588
128,128,108.87262580552373,109857,5959,24256512,20488352,0.6098760680324283,0.156503663118893,0.28555473729411723,128,0,1,1,429.923799997259,0.8506261224451128,0.0097912336932915,122.76677776470588
128,1536,34.50518384206451,36239,30,38158336,26167680,0.8950090931812158,0.1778165656780118,0.7214991314593912,128,0,1,1,170.1551289692934,0.656382128259706,0.0647724555331375,122.76677776470588
128,2048,34.92582852745369,7340,3950,39469056,25174064,0.9848279284029917,0.1134347020890266,0.9055002617213902,128,0,1,1,135.57895337470316,0.5387026675000388,0.0803506106650436,122.76677776470588
128,256,129.33949187405074,38633,24,24518656,20989184,0.67469089110789,0.2766605080635991,0.3348236367614439,128,0,1,1,366.6610247477095,0.857300110938571,0.0141612129067829,122.76677776470588
128,512,93.00902219329171,122032,37,24518656,20497032,0.6858374673486798,0.1186271347579493,0.3824783959094821,128,0,1,1,320.9770253108885,0.8576747603855386,0.0156530967786807,122.76677776470588
1536,1024,45.5853542880757,17203,3496,25006080,15927184,0.8713474026202918,0.2043894959654033,0.6885621468976383,1536,0,1,1,178.2944042419985,0.6783572032967086,0.0690067419819454,122.76677776470588
1536,128,79.68688619535298,59257,30,24518656,21097168,0.7989877544774693,0.2449064414963854,0.40467344639831854,1536,0,1,1,303.3724571190841,0.8546168890180785,0.0133419759362547,122.76677776470588
1536,1536,33.577379182729814,34567,32,38682624,24598040,0.9536657829799563,0.2153628675482864,0.7727710840204797,1536,0,1,1,158.8656463774366,0.6027007327488703,0.089500712279543,122.76677776470588
1536,2048,27.232851424436248,96149,560,38944768,25023088,0.987172738185313,0.0507592364374122,0.6897392713304781,1536,0,1,1,177.99012303285838,0.5561764029336549,0.0861555280057908,122.76677776470588
1536,256,125.48144129669508,89295,529,24518656,20976904,0.7290584317644521,0.2317035044347659,0.34882218322557246,1536,0,1,1,351.9465896046996,0.8598659089200016,0.0155646634620451,122.76677776470588
1536,512,82.74402485549705,71079,21,23994368,20345000,0.6578155204738043,0.1654736855317221,0.3988640610152303,1536,0,1,1,307.79102396998894,0.8645246748976506,0.0176690909489741,122.76677776470588
2048,1024,42.5463429369532,63465,25,25006080,14838248,0.9426623822196535,0.0940689687118764,0.6005938199536052,2048,0,1,1,204.40899271023034,0.6622496231553325,0.0469557529729074,122.76677776470588
2048,128,116.7397443893398,31880,3248,24256512,20315736,0.8941066611943779,0.3144948827512629,0.40611151644612775,2048,0,1,1,302.29819345936073,0.8517346548010629,0.0122571625314578,122.76677776470588
2048,1536,27.057960514638825,76013,794,38944768,23977200,0.9698449569849951,0.0792189935480397,0.5683622550076725,2048,0,1,1,216.0009337056498,0.5147882734355786,0.0705424577550578,122.76677776470588
2048,2048,30.594441142963596,85496,3330,38682624,23855992,0.9733389406238065,0.1092373226591258,0.7798497716373345,2048,0,1,1,157.4236246898563,0.5472420807534338,0.0845052319351493,122.76677776470588
2048,256,129.64074951754188,114619,411,24256512,20365112,0.8114910078948107,0.2937961276169734,0.31902052170149,2048,0,1,1,384.82407686480974,0.8548058036476446,0.0122646551845589,122.76677776470588
2048,512,116.25911092029652,115544,28,24256512,20567496,0.7219103615040339,0.1726227483215058,0.3885345937514865,2048,0,1,1,315.9738662633208,0.8605943775702991,0.0157176771852134,122.76677776470588
256,1024,36.98380945730179,45315,3521,25006080,15976648,0.9281910163349963,0.0834370714410091,0.553543874563121,256,0,1,1,221.78328296306833,0.6762881475131485,0.0557756037773116,122.76677776470588
256,128,93.3027887488884,105293,5487,24518656,20459424,0.7151018647603158,0.2255094632701257,0.29858943675295346,256,0,1,1,411.155796734633,0.850953840411582,0.0109739030667606,122.76677776470588
256,1536,21.896832512799943,50455,20,38944768,23978968,0.9725041318801827,0.0696471414017629,0.7064785339034914,256,0,1,1,173.77283508726742,0.5304177046638568,0.0805843553818987,122.76677776470588
256,2048,27.30764334766518,45454,4381,38944768,25047520,0.9791923470560846,0.0731653472009861,0.8056099779504633,256,0,1,1,152.38984263456425,0.514149753795935,0.0742224115880453,122.76677776470588
256,256,140.38232667544003,95035,33,24256512,20989304,0.7350341172035472,0.2721926067079582,0.2980698633398006,256,0,1,1,411.8724932105979,0.8605452242292109,0.0117635384260551,122.76677776470588
256,512,76.03608592579005,81024,3511,24256512,20930080,0.7397508590328177,0.2332309400172326,0.4059825692139257,256,0,1,1,302.39420870312284,0.8655229698427819,0.0160777410412421,122.76677776470588
512,1024,47.6383474346579,112062,335,25006080,14839480,0.9134495887520209,0.2053404122176001,0.6007688895974513,512,0,1,1,204.3494260279797,0.6533296648241357,0.0441302234174861,122.76677776470588
512,128,122.07938512834018,76562,84,23994368,20445704,0.8190414323066559,0.3156787595232945,0.2834215685845879,512,0,1,1,433.1596158253066,0.8507422833616003,0.0110080553401418,122.76677776470588
512,1536,27.16089913491168,22173,23,39469056,23918800,0.969547573627708,0.075875985661115,0.8630325158216973,512,0,1,1,142.25046625018416,0.5083348502402363,0.0521826340389419,122.76677776470588
512,2048,25.185504584122796,36259,118,39206912,23831560,0.9732556002402593,0.1130542038515622,0.7805496589967202,512,0,1,1,157.28246928261322,0.5306343781514512,0.0745723434339023,122.76677776470588
512,256,142.52645787400212,9310,3632,24256512,20868600,0.8499310236436591,0.3395936758260769,0.3236428430896085,512,0,1,1,379.32795483048847,0.8594386313314428,0.0175659471562185,122.76677776470588
512,512,109.02085737022549,25997,3656,23994368,20515344,0.6872280546068487,0.1466893033613823,0.34348230549996434,512,0,1,1,357.41805559971885,0.8627583432233206,0.0139288038658468,122.76677776470588
