cpu,memory,duration_std,userDiff,sysDiff,heapTotal,heapUsed,avg_cpu_util,cpu_util_std,slo_preservation,total_cpu_shares,cpu_shares_others,num_containers,arrival_rate,latency,memory_util,memory_util_std,slo_duration
1024,1024,133.64958178275884,370396,25542,39956480,31338880,0.9390014154678862,0.1075349615903804,0.6023448251616965,1024,0,1,1,1115.7714374129016,0.7753089791396037,0.099716081877033,672.079151388889
1024,128,672.7361852559812,474387,45495,32219136,30320896,0.6026703791251042,0.142017161946712,0.23169796209668797,1024,0,1,1,2900.6692389829013,0.918912273600804,0.0148120095444606,672.079151388889
1024,1536,71.35183451021865,397727,18781,51359744,32224424,1.0661581812399594,0.2097990364988676,0.9682970121348968,1024,0,1,1,694.0836778036648,0.7059327053551346,0.1418397593141163,672.079151388889
1024,2048,35.070544294072754,309797,33959,50311168,30817008,1.1281205457366472,0.3108374418965626,1.0,1024,0,1,1,571.0047208594224,0.7384818653029787,0.1140825428549345,672.079151388889
1024,256,363.014719171921,406069,37107,33267712,29882424,0.7093888715370795,0.2077200704160368,0.34530683598438816,1024,0,1,1,1946.3244898495864,0.9051203905584256,0.0293545193262592,672.079151388889
1024,512,356.778544970717,506942,44901,32743424,30071128,0.9579132594501744,0.473287396814344,0.4490351253219197,1024,0,1,1,1496.7184380221167,0.8973607775072153,0.0469094839930252,672.079151388889
128,1024,137.1068684579648,502735,26108,39694336,31053728,0.9516454901044649,0.1567885565939282,0.5896107466488913,128,0,1,1,1139.869236116734,0.7814748458437129,0.1091784142282445,672.079151388889
128,128,1398.6943723933523,453313,57725,33529856,29930944,0.7232065581818646,0.3330387399876921,0.18810520352664403,128,0,1,1,3572.889738234662,0.9165401017378496,0.0123653369644643,672.079151388889
128,1536,119.2649996512871,414654,35663,69025792,52715208,1.0030249896364498,0.1861380491401113,0.7994963176283211,128,0,1,1,840.6282012437396,0.728936013112549,0.1159175493909895,672.079151388889
128,2048,70.05881925070949,224281,40208,63782912,52670720,1.0452179424719892,0.2282785574440915,0.9258162255702995,128,0,1,1,725.9314892379324,0.7610393897960461,0.107646149933107,672.079151388889
128,256,335.2398519436293,311653,53472,33005568,29749904,0.6660126470414321,0.1440054826123163,0.33817055758338704,128,0,1,1,1987.3969992883426,0.9086572217347156,0.0223994653401758,672.079151388889
128,512,224.58202644399927,455946,46518,33005568,29737328,0.6680604603751529,0.0400773774083547,0.391297671670509,128,0,1,1,1717.5649129719618,0.8947859672557245,0.0490228412062637,672.079151388889
1536,1024,138.8803266916831,449294,45462,39432192,32388288,0.945260772165844,0.1200398885471214,0.611633681248508,1536,0,1,1,1098.8262615247015,0.794142694343654,0.0767797848370499,672.079151388889
1536,128,1143.1832580230378,415769,22712,33005568,29694848,0.6156439156238519,0.1990928154514805,0.21529957925485427,1536,0,1,1,3121.5999293400196,0.912417856338217,0.0072956087150339,672.079151388889
1536,1536,90.79627433829307,500362,32184,50835456,31588928,0.9951987829676076,0.0998249668725038,0.8389804049757731,1536,0,1,1,801.066565324963,0.7231517226097681,0.1298042574604602,672.079151388889
1536,2048,77.84305413094616,325681,39452,50573312,30235288,1.0697544849837248,0.2314115966241087,1.0,1536,0,1,1,642.0287165330495,0.7882396215502492,0.1079057111045634,672.079151388889
1536,256,401.1022959300483,360190,50145,32219136,29756576,0.6779678147403871,0.1325009481340401,0.31370421000348725,1536,0,1,1,2142.397615197507,0.9084896459905312,0.0491028776713075,672.079151388889
1536,512,202.57645114049032,331494,30965,33267712,29891960,0.7851126231386488,0.239083418189183,0.42489293820349916,1536,0,1,1,1581.7611707799247,0.8855385615584449,0.0621479392233542,672.079151388889
2048,1024,98.35661035008978,401481,39728,39956480,30050304,0.9476693243901436,0.1254117712654668,0.6096467033551821,2048,0,1,1,1102.4075873618456,0.7691222112743217,0.096031923927103,672.079151388889
2048,128,353.5132375039773,426924,40610,33005568,30635128,0.8514458058584954,0.359176084916585,0.3256328959018665,2048,0,1,1,2063.916636946374,0.9164357018990704,0.0095108700062121,672.079151388889
2048,1536,63.926664233993925,387520,30155,49786880,32033640,1.1085261851033148,0.2251061172460885,0.9320836384909729,2048,0,1,1,721.0502616234885,0.7349590211991002,0.1255460105807474,672.079151388889
2048,2048,32.54665437647437,329318,27728,50573312,30292960,1.1381992394697316,0.3406738040625526,1.0,2048,0,1,1,588.2366328862236,0.7329990533937722,0.0941308127999388,672.079151388889
2048,256,440.4446039872708,430996,41364,33267712,29810536,0.7623219133557825,0.274257385776836,0.32369506927919844,2048,0,1,1,2076.2724402489957,0.912438288789747,0.0274480656256903,672.079151388889
2048,512,257.27564488798174,355573,35594,32481280,30147536,0.7874749164032474,0.1992590128744031,0.4437397951835346,2048,0,1,1,1514.5793969434526,0.894817643737865,0.0499492996300506,672.079151388889
256,1024,65.89848935097508,402095,35272,40218624,29858152,0.8984930243145082,0.1234181270928003,0.5792260723920183,256,0,1,1,1160.305420323048,0.7771798601273556,0.0972880734519437,672.079151388889
256,128,1185.8494764603377,438629,44142,32743424,29775184,0.7468311335581039,0.3187489326108311,0.21490196918197926,256,0,1,1,3127.3754910071184,0.9183271676338474,0.0132254526816665,672.079151388889
256,1536,72.8257965584077,476322,39410,49000448,30304032,1.0832193521051683,0.2557242826197437,0.9501573583729724,256,0,1,1,707.3345751273682,0.7375268829291782,0.1082598345970572,672.079151388889
256,2048,43.4132111727357,361036,59396,49786880,30772392,1.1284218335680998,0.3057325795860737,1.0,256,0,1,1,586.8781916575991,0.7445959917848748,0.094906842971001,672.079151388889
256,256,355.3723498189613,391771,49556,32743424,30040088,0.4999465518208822,0.0412400059836069,0.26116016289728533,256,0,1,1,2573.4367138269045,0.9127780980069844,0.0200804623875115,672.079151388889
256,512,234.3490777156537,385567,29306,33005568,29701712,0.6937712090562231,0.0720086888525211,0.4143955649447404,256,0,1,1,1621.8299814055943,0.8994140158535437,0.0740293143687691,672.079151388889
512,1024,127.33583372540622,419403,29777,39432192,31494904,0.9071937649855566,0.1243270695922251,0.6224344442581529,512,0,1,1,1079.7589329907748,0.8393239135017418,0.0765336345729647,672.079151388889
512,128,859.29143122416,486926,57310,32481280,30021656,0.6279376705986627,0.1678428411241998,0.23725669706501254,512,0,1,1,2832.7088748298956,0.9178205672152068,0.0093157786147156,672.079151388889
512,1536,80.79707173670957,357395,30683,50573312,30799432,1.079423616025866,0.2181218668080861,0.9229708763427574,512,0,1,1,728.1694023239186,0.6948011984941658,0.1485232527421013,672.079151388889
512,2048,41.22554526802813,266382,33848,37720064,16246200,1.1226642285684192,0.2058136543160777,1.0,512,0,1,1,557.9479791334182,0.7006096525030612,0.1193056087916528,672.079151388889
512,256,357.7016017610929,384389,54640,32481280,30410944,0.6249969677239643,0.1342246629057593,0.3045152694775318,512,0,1,1,2207.045815935602,0.9154096309712932,0.0448425022528007,672.079151388889
512,512,221.7606816712425,518649,48142,32481280,30631392,0.6922065692382106,0.0520964420448749,0.4227405678689715,512,0,1,1,1589.8146581408766,0.9028212742767352,0.0418724742966545,672.079151388889
