cpu,memory,duration_std,userDiff,sysDiff,heapTotal,heapUsed,avg_cpu_util,cpu_util_std,slo_preservation,total_cpu_shares,cpu_shares_others,num_containers,arrival_rate,latency,memory_util,memory_util_std,slo_duration
1024,1024,544.2333363612396,1670686,154645,42913792,34490216,0.9978432882643399,0.1567446562644386,0.3367236882360601,1024,0,1,1,1305.0667134486769,0.8259739677918744,0.0446986323904883,439.4468771465518
1024,128,1036.760545039207,2152788,234510,36225024,33638792,0.9716431807410957,0.245198963093668,0.18569583144999072,1024,0,1,1,2366.487571181145,0.9114526255159092,0.0210451693168349,439.4468771465518
1024,1536,316.82523164313704,1527606,125272,52219904,38251648,1.0454313578974244,0.2554996117041764,0.5532960851061143,1024,0,1,1,794.2345680292898,0.7327277500965932,0.0604321541326957,439.4468771465518
1024,2048,187.849988885288,1328721,136149,51957760,41400888,1.07655941683527,0.3031651645230168,0.8518423260513178,1024,0,1,1,515.8781897861202,0.7713932830544016,0.0544298744012308,439.4468771465518
1024,256,530.0467735013386,1649003,120031,36487168,34342120,1.0162905308327372,0.1787845801769984,0.27089141151276114,1024,0,1,1,1622.2252108049959,0.9126239228956112,0.0205345290622714,439.4468771465518
1024,512,559.2220417687971,1602722,105865,36487168,33875352,1.003439634332279,0.2432144373631563,0.31004964819874714,1024,0,1,1,1417.3435760999762,0.916658522672962,0.0193519677960776,439.4468771465518
128,1024,567.7520282930136,1726691,161849,43438080,37255696,1.0225813756041715,0.2557347567609078,0.3373568416467397,128,0,1,1,1302.6173561546289,0.8503744787357272,0.0433929763613417,439.4468771465518
128,128,1608.4612069063032,1753099,183745,36749312,34484648,0.8948105124678225,0.2102190521153943,0.1476913014197577,128,0,1,1,2975.441836602057,0.9065709367333898,0.0195460879796704,439.4468771465518
128,1536,541.4620763619523,45333,26085,63287296,45055536,0.9756810798449573,0.2223862842464687,0.36958993518791394,128,0,1,1,1189.012024700077,0.7679695230662954,0.0573357006640511,439.4468771465518
128,2048,353.1793875279334,1725084,130166,53268480,42037904,1.0338950715888175,0.1566721863042566,0.5703583731623868,128,0,1,1,770.4750168039294,0.7506731554609434,0.0351953634628522,439.4468771465518
128,256,526.677811481069,1656800,171360,36225024,33795648,1.0203411004014313,0.179189916299872,0.30401674822009794,128,0,1,1,1445.4693029885543,0.9192869130829064,0.0120724065629461,439.4468771465518
128,512,548.0833458120275,1732974,158660,37011456,34625712,1.0160833909110656,0.2121519235263699,0.30122124702640124,128,0,1,1,1458.8840644034497,0.912217622812493,0.0218233962281733,439.4468771465518
1536,1024,511.1921646264625,1773086,170770,42913792,35596712,0.9831608311879383,0.1369434690638252,0.32885908857346224,1536,0,1,1,1336.2771242017411,0.8422515818806685,0.0261894644937411,439.4468771465518
1536,128,1077.058797949468,1993117,212007,36225024,33501832,0.9431359301024879,0.1183869787570057,0.17434083585384427,1536,0,1,1,2520.619308691136,0.9143956537430268,0.016629825653282,439.4468771465518
1536,1536,332.6262933705229,1479152,120801,51433472,37213160,1.0254968717683066,0.2225742820995093,0.584347892232574,1536,0,1,1,752.0295409427938,0.7485316426347006,0.0546755678574275,439.4468771465518
1536,2048,213.17770601529836,1430821,186982,70664192,54447448,1.06850042682458,0.2420748532721612,0.9491128900228355,1536,0,1,1,463.00801702943767,0.7631730367031389,0.0575429080410845,439.4468771465518
1536,256,515.8674580506613,1758702,214511,35962880,32525784,1.0218342899095278,0.1523498362000927,0.3029756469503203,1536,0,1,1,1450.4363026200883,0.9173077004811324,0.0204099408204625,439.4468771465518
1536,512,695.4163716166861,1644210,161755,36749312,34247632,0.9262586703020619,0.1147308104067281,0.24428799430674153,1536,0,1,1,1798.8885552630063,0.9251577622955368,0.0140437693839803,439.4468771465518
2048,1024,724.8702151371185,1824898,120374,43175936,35174104,0.9151350201643216,0.1404728089300464,0.24415661237082978,2048,0,1,1,1799.8565464985704,0.8387753455453918,0.0376200526010848,439.4468771465518
2048,128,1302.5020024041803,2318798,177372,36225024,33866496,0.8739768192746984,0.2122777407172778,0.1625342644415439,2048,0,1,1,2703.7183738238814,0.9115634470599676,0.0198405318884172,439.4468771465518
2048,1536,540.9833905234402,1850058,171394,51957760,36536728,1.0012254362678623,0.1863465382965075,0.3916646354250527,2048,0,1,1,1121.997845604936,0.7437434404256116,0.0548154291558608,439.4468771465518
2048,2048,290.73832192742697,1373073,134746,51695616,40964784,1.0277462226209266,0.1808370017281574,0.5865180649465536,2048,0,1,1,749.24696000045,0.7562941515329725,0.0535883077771718,439.4468771465518
2048,256,510.5888294609367,1822822,167774,35962880,33058624,0.9984971669978665,0.1232662437227827,0.3043884371145664,2048,0,1,1,1443.7042395968274,0.91955538993998,0.0159357923381799,439.4468771465518
2048,512,566.174007567976,1729344,154699,35700736,32733976,1.022030303221161,0.1730214448119547,0.2954806549714284,2048,0,1,1,1487.2272338405514,0.9239071232288382,0.0125837673660757,439.4468771465518
256,1024,554.739995509885,1715915,177881,42389504,36780368,1.012659771646693,0.1445869550969018,0.34061638742314687,256,0,1,1,1290.1518933692055,0.8591511909023195,0.0464667121617397,439.4468771465518
256,128,1039.251652750822,1699399,210097,36487168,33553304,0.9381321690888695,0.1589019294714208,0.20050849097091167,256,0,1,1,2191.6621835745777,0.9197407930501584,0.0216198551552262,439.4468771465518
256,1536,383.5579591250742,1687545,139189,51695616,38114416,1.0400248950874689,0.2206813312829337,0.5685090752157691,256,0,1,1,772.981287906031,0.7564900260129455,0.0510517412041254,439.4468771465518
256,2048,183.40911698308065,1328463,130186,52482048,40781016,1.0544939754673164,0.2796722666699014,0.989839448198584,256,0,1,1,443.95773268715885,0.7445607993137998,0.0562259366832335,439.4468771465518
256,256,363.4932958562932,1703901,148474,36225024,32880648,1.0945427934154492,0.2704848268363229,0.4607386799881875,256,0,1,1,953.7876810295554,0.9152301376983344,0.0158970884818511,439.4468771465518
256,512,564.2939334088851,1863502,182138,35962880,32772200,1.0135260174033118,0.2474868741714893,0.33251595965546904,256,0,1,1,1321.58130876448,0.9171568644568774,0.0204773550301368,439.4468771465518
512,1024,522.4797832014103,1738989,161341,43438080,37878552,0.9736138078863701,0.1773364823089198,0.3268097773252247,512,0,1,1,1344.6564565577128,0.8263062522606973,0.0390065171219488,439.4468771465518
512,128,729.2822918856137,1885284,194739,35962880,32440544,0.9108216894501172,0.1403138452048824,0.22444352192575825,512,0,1,1,1957.9396784368437,0.9131775155309144,0.0238349587748697,439.4468771465518
512,1536,312.3980568642805,1545905,112888,52219904,38102416,1.0663968625606752,0.2388258555232313,0.5586733559915842,512,0,1,1,786.5900036821724,0.7412793632959942,0.0525419725585323,439.4468771465518
512,2048,187.32466110044552,1486927,94644,51433472,39153464,1.0801828957868889,0.3135545234273483,0.9002321861569247,512,0,1,1,488.14837316864083,0.777950637544023,0.0496984728626018,439.4468771465518
512,256,380.6013894307959,1832200,164174,36749312,33241168,1.0828221619221532,0.2848713589589375,0.425202385613295,512,0,1,1,1033.500497681148,0.9128956618537308,0.0177138693442582,439.4468771465518
512,512,545.5595770006702,1829073,161352,35962880,33007888,1.024614287344571,0.1532983792024674,0.2926274281662757,512,0,1,1,1501.7282552777347,0.9148234010728306,0.0208850378081222,439.4468771465518
