cpu,memory,duration_std,userDiff,sysDiff,heapTotal,heapUsed,avg_cpu_util,cpu_util_std,slo_preservation,total_cpu_shares,cpu_shares_others,num_containers,arrival_rate,latency,memory_util,memory_util_std,slo_duration
1024,1024,23.400155502411288,3971,7961,33931264,28020416,0.7507016571604987,0.2589402397345824,0.5245399171714615,1024,0,1,1,35.369846286840556,0.691995759211273,0.0912191291807856,18.55289624166667
1024,128,13.11961620027931,11683,74,27762688,24248632,0.693776975387111,0.2585009118920846,0.7051438133308798,1024,0,1,1,26.310797727953627,0.8810197815207896,0.0116405877684289,18.55289624166667
1024,1536,12.097504599277585,12926,205,42450944,27837232,0.9699629648114478,0.1719008150517697,1.0,1024,0,1,1,18.10481468882193,0.5294585797624097,0.0659036686553247,18.55289624166667
1024,2048,7.904708222321419,14845,514,42713088,27799728,1.0314035063083637,0.2158259776293377,1.0,1024,0,1,1,12.697422557879264,0.5471687154468745,0.0670630068565091,18.55289624166667
1024,256,15.588396726333228,8331,3193,28549120,24249232,0.8660099227303452,0.2079924112783886,0.9126492925612545,1024,0,1,1,20.328615156869198,0.8795978911538128,0.0140379521522771,18.55289624166667
1024,512,13.941225627463288,6189,3686,28549120,24420368,0.7348953554419443,0.2287205022810477,0.8066340177171951,1024,0,1,1,23.000389066372467,0.8734204932128226,0.0125584422973875,18.55289624166667
128,1024,21.09510816992672,32389,160,25792512,14651200,0.820767131778422,0.272208831019491,0.5230395699816514,128,0,1,1,35.4713052443002,0.6636572467604808,0.0741488938379578,18.55289624166667
128,128,8.756050854932768,10196,4363,28286976,24567032,0.8249214094472562,0.1675828985440724,0.6929451809904388,128,0,1,1,26.773973974606026,0.8851686736149234,0.0111910892983511,18.55289624166667
128,1536,6.038669934053073,4852,4315,42975232,27823008,1.0052674626334706,0.1652851158057602,1.0,128,0,1,1,14.650272272352957,0.5074148181361189,0.0551575027716425,18.55289624166667
128,2048,8.8798879325859,27141,2299,34574336,14854184,1.0361661681048941,0.2376871948267834,1.0,128,0,1,1,14.012575955517972,0.5230660306995001,0.0552457922848147,18.55289624166667
128,256,8.668398084500813,8667,159,28549120,24246696,0.9367955581757731,0.1760700033933217,1.0,128,0,1,1,14.9690851852494,0.8811491088977063,0.0155845570502813,18.55289624166667
128,512,19.976362201295476,29704,7585,28811264,24118296,0.8016035136430096,0.2169699763712848,0.5963201794399628,128,0,1,1,31.11230657847386,0.8734093311298077,0.0162435159212514,18.55289624166667
1536,1024,15.688690762744422,11742,31,34193408,28138504,0.7118833434353263,0.2353520572164087,0.6166703513445684,1536,0,1,1,30.085597923127853,0.6818184031185525,0.0915807798739354,18.55289624166667
1536,128,13.155750704510876,9392,3503,28024832,24689360,0.7380539409752558,0.2207780436451777,0.761454443180222,1536,0,1,1,24.365077133413674,0.8776153732946079,0.0130403709360982,18.55289624166667
1536,1536,13.02956264433208,8487,4130,42450944,27948840,0.9287886469144394,0.229337677997952,1.0,1536,0,1,1,17.427738847095313,0.5330207156493402,0.0653382350743965,18.55289624166667
1536,2048,4.685570680588352,9293,19,42713088,27743224,1.0915291281735182,0.1706557138709592,1.0,1536,0,1,1,10.770803755493676,0.5120598446877317,0.0519693216412023,18.55289624166667
1536,256,8.574296759210352,7145,10773,29073408,24195472,0.9047451456322938,0.2575555134265329,1.0,1536,0,1,1,12.623189229654649,0.8760766824085934,0.017392917179197,18.55289624166667
1536,512,11.58129039920868,6331,3679,28549120,24292672,0.8109036388951417,0.2144513414873715,0.8414099672263894,1536,0,1,1,22.04976998647181,0.882475575259631,0.012664908925566,18.55289624166667
2048,1024,14.7133823174928,29764,3481,34193408,27994224,0.9118352489556827,0.163444820623113,0.8784455195177888,2048,0,1,1,21.120144424950837,0.6913788773043505,0.0819243985232407,18.55289624166667
2048,128,13.472120794561176,8708,4111,28286976,24646144,0.6916471980771176,0.3205382453449223,0.8198055368977801,2048,0,1,1,22.630850130474286,0.8813634614669805,0.0097919287327016,18.55289624166667
2048,1536,9.728133421502529,9924,19,34312192,14890624,0.9164818138822192,0.2061725289863181,1.0,2048,0,1,1,17.25093102636697,0.510207637207544,0.0557140863736458,18.55289624166667
2048,2048,4.988797171977636,22457,6245,34574336,14847352,1.0765972831833008,0.2050803202466506,1.0,2048,0,1,1,9.640544158185124,0.5456944711823244,0.0632639780968308,18.55289624166667
2048,256,7.3073907343997,11233,7247,28549120,24195952,1.0044817322391602,0.1671807000984314,1.0,2048,0,1,1,14.143027752687711,0.8778973321897127,0.0136974887190563,18.55289624166667
2048,512,9.794995579800174,19356,3887,28811264,24107040,0.8417764365733573,0.2185373827148617,0.9306937400629187,2048,0,1,1,19.934480531063222,0.8779662618224948,0.0137625755478577,18.55289624166667
256,1024,17.425269915225908,5659,3611,33931264,28094960,0.8133214458008644,0.2253872833441483,0.6900063303553953,256,0,1,1,26.88800874060213,0.6844027776202946,0.0999850075049414,18.55289624166667
256,128,15.179647898273126,14038,33,28286976,24599576,0.5964981959505223,0.205399439047741,0.5158226931279841,256,0,1,1,35.96758438284411,0.8810410344478061,0.0123701946160243,18.55289624166667
256,1536,11.26923476569169,25574,4356,34312192,14853920,0.9233807350535754,0.2454261438677599,0.9424243397106622,256,0,1,1,19.686350893019885,0.5159368367887229,0.0490980002930494,18.55289624166667
256,2048,7.853736229544766,8167,57,42713088,28039480,1.0496297350884298,0.2389090031770789,1.0,256,0,1,1,12.97235165522455,0.5549980395229637,0.0767536002321229,18.55289624166667
256,256,5.883666484011007,20295,4059,28811264,24205856,0.9720637511107273,0.1488454254978274,1.0,256,0,1,1,14.540434898344323,0.877956993669071,0.015658773157089,18.55289624166667
256,512,10.67850311255785,8119,3983,28549120,24561920,0.8526425879978741,0.2595408934528114,0.9862737346058271,256,0,1,1,18.811102425921842,0.8739776949771093,0.0110745291511165,18.55289624166667
512,1024,15.799536675257428,11933,36,33931264,28069512,0.7678609265247854,0.1883166978911319,0.7154719848104298,512,0,1,1,25.930989103063776,0.6467807199969328,0.0610738500454171,18.55289624166667
512,128,17.962685630565577,12517,121,29335552,26829344,0.861974001324042,0.2002314124049052,0.7817253807429865,512,0,1,1,23.73326579729722,0.8836052679832587,0.011515452115773,18.55289624166667
512,1536,13.159308470502785,8853,170,42450944,28054344,1.0033741305505273,0.2543000805241482,1.0,512,0,1,1,17.717259829532495,0.5453883693525858,0.0713561622693655,18.55289624166667
512,2048,5.8256831222395125,6393,3679,42713088,27802968,1.096307446702123,0.1919579162735452,1.0,512,0,1,1,11.275473655626078,0.5286940760434355,0.0659432004390717,18.55289624166667
512,256,11.002953055872666,6291,3567,28549120,24220264,0.7896751947684061,0.2067604945052992,0.7393755412721831,512,0,1,1,25.09265617543179,0.8787705783762189,0.0131760988257641,18.55289624166667
512,512,14.894899515409609,8410,4068,28286976,24221144,0.647937342241188,0.2190403776987073,0.6253877800874137,512,0,1,1,29.66622763091635,0.8825331561713783,0.0130333323745376,18.55289624166667
