cpu,memory,duration_std,userDiff,sysDiff,heapTotal,heapUsed,avg_cpu_util,cpu_util_std,slo_preservation,total_cpu_shares,cpu_shares_others,num_containers,arrival_rate,latency,memory_util,memory_util_std,slo_duration
1024,1024,64.00732488529299,86301,23,33984512,28615304,0.909697141036975,0.1058032996066551,0.7331696310732733,1024,0,1,1,144.28960658140974,0.6748114256032564,0.0675799444699028,105.78875762499992
1024,128,33.00060593388719,107069,7833,28602368,24815352,0.9440114584600701,0.0680736288087117,0.9334905286279567,1024,0,1,1,113.32601068860133,0.874056503159558,0.0114504145116247,105.78875762499992
1024,1536,39.7055728004169,175206,10975,34836480,14986448,0.9779847927563292,0.0323142221835258,0.807765773871398,1024,0,1,1,130.96464476079947,0.5363571096344837,0.0500656831976271,105.78875762499992
1024,2048,30.52674889571537,101201,47,34574336,17194208,1.007521628275366,0.0286865653859484,1.0,1024,0,1,1,84.09969380697763,0.5384777542595337,0.0608384461243058,105.78875762499992
1024,256,41.75406035367982,38092,4384,28340224,24753368,0.9826674124442811,0.0994130829828257,0.921909175887766,1024,0,1,1,114.74965256000309,0.8792298383756982,0.0150741988812805,105.78875762499992
1024,512,30.49021060566252,85785,448,28602368,24538608,0.9823081085545832,0.02552552130704,1.0,1024,0,1,1,91.69220897847248,0.8815416151163479,0.0123557424121182,105.78875762499992
128,1024,59.67692072378831,147118,3523,33722368,28769560,0.8791780508534811,0.105532241312319,0.6399169217060411,128,0,1,1,165.31639348270923,0.6893177184579632,0.0850940895472921,105.78875762499992
128,128,49.85456015607397,77171,3143,28340224,23859880,0.9324091429602405,0.081728796111445,0.8187952571953638,128,0,1,1,129.20050121853455,0.8682237318718944,0.0159509583235863,105.78875762499992
128,1536,44.57939974338768,87988,3998,34836480,17080168,0.945792216133169,0.0911009210965391,0.8197340074948326,128,0,1,1,129.0525422365947,0.5425917916775049,0.0458643568028663,105.78875762499992
128,2048,24.460794505875032,117942,9829,34574336,15791848,1.0091484461158793,0.027823231929001,1.0,128,0,1,1,77.85616432482296,0.551034553776745,0.0633775670612554,105.78875762499992
128,256,33.17173858229274,81863,4894,28602368,24170320,0.9507338173621663,0.0500342887651217,0.8655251341798179,128,0,1,1,122.22494003625512,0.8724254116750959,0.0141196286231232,105.78875762499992
128,512,64.57300393169628,60728,6883,28602368,24094040,0.9092053947511028,0.161999674836625,0.7669150942687478,128,0,1,1,137.9406382995621,0.8677274150492934,0.0130046401564327,105.78875762499992
1536,1024,54.80497905405332,132225,41,33722368,28619592,0.9101895522134648,0.1017110786978828,0.673576651596989,1536,0,1,1,157.0552621950069,0.6758089070967729,0.0699049734919337,105.78875762499992
1536,128,48.025878936572575,153668,352,28340224,23780256,0.9205243088091419,0.098130474824676,0.7187954661858894,1536,0,1,1,147.1750485382745,0.8742270143083374,0.0169461173928439,105.78875762499992
1536,1536,30.186283804590516,77155,363,42504192,28332344,0.9618555956113489,0.0616043552076579,1.0,1536,0,1,1,98.01273607200625,0.5335829260877029,0.0569803193849643,105.78875762499992
1536,2048,28.47296600125415,72718,708,42766336,28269848,1.0019905622451124,0.0093747802052993,1.0,1536,0,1,1,87.8647735801928,0.5280864134504099,0.0561744207544582,105.78875762499992
1536,256,40.5206187035674,99883,24,28864512,24749272,0.9425229420580752,0.1220583939853497,0.8220067742107747,1536,0,1,1,128.6957248333748,0.8725099818334712,0.0134833226395964,105.78875762499992
1536,512,60.43199281484517,133835,25,28340224,23864880,0.9046179270953931,0.1184208221516588,0.7954876498343992,1536,0,1,1,132.9860465426742,0.875136363695088,0.0164197515792658,105.78875762499992
2048,1024,56.60939267289255,90805,7736,33722368,28760200,0.9081982668810034,0.1420562628355626,0.7484640718739278,2048,0,1,1,141.34112992242478,0.6847176004762551,0.0747152377586322,105.78875762499992
2048,128,69.15934269937392,128276,829,28602368,24584040,0.9316394914793779,0.0770110614200507,0.694316667499256,2048,0,1,1,152.36384574494357,0.8804636259548186,0.0164364431377227,105.78875762499992
2048,1536,37.923744301899895,110684,4,34574336,17200248,0.9606594835601803,0.1037255192716682,0.9915689303765587,2048,0,1,1,106.6882537201176,0.5487875115717745,0.0792164010794919,105.78875762499992
2048,2048,30.528466418425182,106075,0,42504192,28253720,0.989106720196,0.0157427590335117,1.0,2048,0,1,1,98.46542074416303,0.5364337256268662,0.0612122368754173,105.78875762499992
2048,256,42.46666012206299,200926,251,28602368,24808744,0.9246436243393709,0.1083509745589642,0.7290803170154382,2048,0,1,1,145.09890770067224,0.8750540309251079,0.0119879530022427,105.78875762499992
2048,512,50.69773137400587,74184,3680,27815936,24483296,0.9250473278795992,0.0807880323335758,0.7635497051802712,2048,0,1,1,138.5486195689429,0.8798547675193011,0.0168532798826958,105.78875762499992
256,1024,60.48844418404404,111158,2806,35033088,28169344,0.9135788081257756,0.0710187427497499,0.7637025789409214,256,0,1,1,138.52088567214795,0.6792060827950689,0.0689714430025551,105.78875762499992
256,128,66.25290893400509,39014,15,28340224,23992464,0.8863165556741465,0.1102247760577915,0.7510588636790593,256,0,1,1,140.8528182555413,0.871356852998653,0.0147573244245376,105.78875762499992
256,1536,31.25711140899301,28051,8,34836480,15953720,0.9582900755248206,0.0477443886761864,0.8875915057310758,256,0,1,1,119.18631143035296,0.5280293663403507,0.0559332226690611,105.78875762499992
256,2048,20.502611118390643,120153,8758,34574336,15730168,1.0110482332311541,0.0658495641368911,1.0,256,0,1,1,86.69686457604918,0.5456517524455939,0.0659034571469261,105.78875762499992
256,256,28.134038828197838,85631,5037,28340224,24547992,0.9571759298468405,0.067163257459529,0.933773130824706,256,0,1,1,113.29171308620495,0.8787540750583045,0.0116175704441543,105.78875762499992
256,512,41.22217354815071,100953,3350,27815936,24509064,0.9628592865535501,0.0463617883577489,0.8055621154480996,256,0,1,1,131.32290557898713,0.8815504211758187,0.0111798992588744,105.78875762499992
512,1024,65.60176355166753,77826,36,33722368,28757384,0.8707863230343047,0.0983817753865407,0.6375635454723648,512,0,1,1,165.92660978855375,0.6804750484976686,0.0779990002379559,105.78875762499992
512,128,45.58972696651058,126618,409,28340224,23907392,0.957264071636321,0.0421082176181454,0.868773988873754,512,0,1,1,121.76786941116929,0.8703772151500561,0.0146874479450117,105.78875762499992
512,1536,33.28191063786488,65570,15488,34836480,15791080,0.9481133479815086,0.0478507570427737,0.806010985643668,512,0,1,1,131.24977141660003,0.5374684436191364,0.0514641992876508,105.78875762499992
512,2048,36.83835198860843,103333,17,42766336,28342840,1.000352633197372,0.0506308615688214,1.0,512,0,1,1,84.93963616709704,0.5395183027382559,0.0594088001461673,105.78875762499992
512,256,58.09311291940109,109124,32,28340224,24079192,0.8660568020172292,0.1463354800613798,0.7193808882276299,512,0,1,1,147.05527955522462,0.8772029388998634,0.0173018109179824,105.78875762499992
512,512,47.09726073315691,122114,305,28340224,24434744,0.97080527559395,0.0316030734965172,0.771850131426486,512,0,1,1,137.05867670124982,0.8793467452003838,0.0149406155058845,105.78875762499992
