cpu,memory,duration_std,userDiff,sysDiff,heapTotal,heapUsed,avg_cpu_util,cpu_util_std,slo_preservation,total_cpu_shares,cpu_shares_others,num_containers,arrival_rate,latency,memory_util,memory_util_std,slo_duration
1024,1024,157.9681027969178,114108,15748,25792512,14454904,0.33420496120776627,0.1854509883009123,0.8531341982245539,1024,0,1,1,407.04775168747346,0.6648119946202924,0.0619755232275002,347.266357275
1024,128,160.52406024355204,81087,7561,24444928,20603568,0.30890910456699144,0.0961463623326539,0.7766486004412136,1024,0,1,1,447.13446606060734,0.8654722168800626,0.01390646276874,347.266357275
1024,1536,148.36164429424494,99700,3889,38871040,24710016,0.2896380307286995,0.1477060933229476,1.0,1024,0,1,1,323.6197811009803,0.5919399551907361,0.0955310393515667,347.266357275
1024,2048,140.83204040704908,80326,12365,34312192,14593680,0.27607374034954907,0.1504076076813238,0.9972187144424124,1024,0,1,1,348.23489796736465,0.5421768099222575,0.0554435264758511,347.266357275
1024,256,126.01284794765508,98382,8485,25231360,21069584,0.3054150538099723,0.1165730876925708,1.0,1024,0,1,1,345.4640861911622,0.8653458452549317,0.0143142184499883,347.266357275
1024,512,123.69799438078208,64216,42,24707072,21122832,0.23858384023765375,0.1092956249476499,0.8497209847602869,1024,0,1,1,408.6828070663297,0.8598552973647999,0.0182950106516277,347.266357275
128,1024,139.0421636727537,92974,889,25792512,15158840,0.30317577653203587,0.1501547556391491,0.7484879821816531,128,0,1,1,463.95715835384084,0.6618603153488494,0.0640683041084944,347.266357275
128,128,90.85890721427266,115588,8633,24444928,20617936,0.26936535214676843,0.1210242348445962,0.9527664885578307,128,0,1,1,364.48212804025565,0.8668170919234599,0.0158439630030932,347.266357275
128,1536,134.39955717373672,80670,190,38871040,24956728,0.2400100879049453,0.1205368928598943,0.8823127343620313,128,0,1,1,393.58647308439436,0.5377255317998785,0.0502277369005877,347.266357275
128,2048,147.45174371964447,75455,25066,34836480,14585048,0.21768950044579705,0.1166614174036971,0.8951075282040364,128,0,1,1,387.9604922681892,0.5347568411044972,0.0545819024491071,347.266357275
128,256,147.43828162314256,45166,8224,25231360,21044816,0.28778433696000577,0.1601245471955398,0.9194516304741968,128,0,1,1,377.6885545310321,0.8685898123447731,0.0147601688672308,347.266357275
128,512,123.59098369655818,29604,6881,25231360,20442968,0.2124995745967518,0.1181460890693353,0.8468044840450434,128,0,1,1,410.0903618461805,0.8647021513903963,0.0181676678314025,347.266357275
1536,1024,129.66626383196595,104380,4805,25792512,15143776,0.2735621835733683,0.1256306769651363,0.8954987790332464,1536,0,1,1,387.7909891177053,0.6632863201995605,0.0629961104635279,347.266357275
1536,128,166.95001858366612,124867,508,24969216,21145136,0.3195079578369776,0.178630095287388,0.9985417525240563,1536,0,1,1,347.77349709934526,0.8621875064902922,0.0114838719237885,347.266357275
1536,1536,134.10035251598768,65069,9387,34574336,14589248,0.22884650406106333,0.0983856538061715,0.8195352987095759,1536,0,1,1,423.7356924366757,0.5295131857340659,0.052495480417399,347.266357275
1536,2048,134.71409139048097,70658,16509,34836480,14582952,0.243510858136821,0.1549739523894168,1.0,1536,0,1,1,346.61470364225517,0.5348125872648442,0.054963998674329,347.266357275
1536,256,163.81610205483543,19437,21,24444928,20795592,0.31488064418164063,0.186041348597092,0.8937714125456385,1536,0,1,1,388.5404616890984,0.8622959598355232,0.0193473054222409,347.266357275
1536,512,135.903742765375,22827,16,24969216,21199992,0.2488764896443024,0.1054228847139255,0.8778186803440924,1536,0,1,1,395.60146651114394,0.8601680417945812,0.0161785153714667,347.266357275
2048,1024,156.0580238199999,58436,28,26054656,15175528,0.29489787090270064,0.1285950890659327,0.8426712398062693,2048,0,1,1,412.10182675136366,0.6526346457090559,0.0607017009806708,347.266357275
2048,128,130.39135099223455,35402,3247,24444928,20842888,0.29610437715874294,0.1029625156270043,0.8868756641911327,2048,0,1,1,391.5614908564678,0.8687534056120441,0.0140265577045252,347.266357275
2048,1536,162.3169124491465,61389,0,34312192,15204712,0.2516692144625408,0.097456562060896,0.9378460628746533,2048,0,1,1,370.2807646391042,0.5424400653824574,0.0508675885717266,347.266357275
2048,2048,146.57458200097602,33529,5070,34574336,15264312,0.28294586327465404,0.1451156075583152,0.9003380999044569,2048,0,1,1,385.70661100741114,0.5497060478616278,0.0514756766965137,347.266357275
2048,256,129.84679694710957,25996,345,25231360,21089840,0.2880195178903506,0.1291236058794317,0.8949554040130008,2048,0,1,1,388.0264376502445,0.8647675659550812,0.0146261770350303,347.266357275
2048,512,150.7805336742568,36237,4084,24969216,21109704,0.2425430138801673,0.1134097394104547,0.8163773478155834,2048,0,1,1,425.3748076232098,0.8682191033704838,0.014887394314337,347.266357275
256,1024,149.5664645024087,62398,12939,25792512,14454184,0.2679337499482366,0.1135596787440966,0.8816478668796687,256,0,1,1,393.88328415521084,0.6601468908056177,0.0591572857026906,347.266357275
256,128,133.592989051171,39679,26,24969216,21383712,0.34124083075963224,0.1969886221927302,1.0,256,0,1,1,341.41830260593036,0.8672258969405691,0.0128625645523139,347.266357275
256,1536,153.84268274401458,70062,26,38871040,24999112,0.26506126256764334,0.0901283638593666,1.0,256,0,1,1,333.46902320606625,0.5377522601861966,0.0554687113289038,347.266357275
256,2048,149.48639833147897,38078,4308,38871040,24756688,0.30624918393159706,0.1562025221365843,1.0,256,0,1,1,346.1151806018885,0.5553702432388347,0.0595548180775189,347.266357275
256,256,140.43763878882083,97328,592,24969216,21360096,0.3073669357278674,0.1818818299121922,0.8389743704513098,256,0,1,1,413.917718473563,0.8595130165352108,0.0116979469125109,347.266357275
256,512,136.621433694145,35024,515,25231360,21268784,0.2595705617542378,0.0963599661243463,0.9146225456580082,256,0,1,1,379.6826996268343,0.8660635852086047,0.0185931944498825,347.266357275
512,1024,152.74219174784463,94141,35,25792512,15136600,0.2639459463710587,0.162343325848419,0.8467336009674542,512,0,1,1,410.1246919671348,0.6655683061442941,0.0464936839762426,347.266357275
512,128,138.23174502284974,54577,1042,24707072,20800784,0.29987915418404526,0.1484461649142467,0.903043712675327,512,0,1,1,384.5509939338378,0.8660578003942213,0.0149071284066641,347.266357275
512,1536,129.99436073269533,81119,6745,34836480,15280856,0.23335872245977576,0.1138650414234542,0.9016120388207887,512,0,1,1,385.16162420500393,0.5426226288591631,0.0525042235427376,347.266357275
512,2048,157.48013165354917,106526,13772,34574336,14588440,0.2824961407383775,0.1289162012318515,0.9129081171771223,512,0,1,1,380.39573834529006,0.5378096053674031,0.05514203888972,347.266357275
512,256,146.04730304792355,61592,482,24969216,21125576,0.22287474090907722,0.0890884236707506,0.9160587792650208,512,0,1,1,379.087417898687,0.8678532200080475,0.0128679651344565,347.266357275
512,512,119.97349771946324,77680,558,24707072,20712392,0.2644924827133124,0.1026910425742376,0.8614587158635992,512,0,1,1,403.1143348835594,0.8662759502325044,0.0136674919548146,347.266357275
