cpu,memory,duration_std,userDiff,sysDiff,heapTotal,heapUsed,avg_cpu_util,cpu_util_std,slo_preservation,total_cpu_shares,cpu_shares_others,num_containers,arrival_rate,latency,memory_util,memory_util_std,slo_duration
1024,1024,157.9681027969178,114108,15748,25792512,14454904,0.5009799407509816,0.1854509883009123,0.6394326381849673,1024,0,1,1,543.085129749894,0.6648119946202924,0.0619755232275002,347.266357275
1024,128,160.52406024355204,81087,7561,24444928,20603568,0.4720100173329968,0.0961463623326539,0.5933556407632613,1024,0,1,1,585.2583735924293,0.8654722168800626,0.01390646276874,347.266357275
1024,1536,148.36164429424494,99700,3889,38871040,24710016,0.44917724792132846,0.1477060933229476,0.8320699155987399,1024,0,1,1,417.35237720392104,0.5919399551907361,0.0955310393515667,347.266357275
1024,2048,140.83204040704908,80326,12365,34312192,14593680,0.4326924559609313,0.1504076076813238,0.7814742071012674,1024,0,1,1,444.3734087694586,0.5421768099222575,0.0554435264758511,347.266357275
1024,256,126.01284794765508,98382,8485,25231360,21069584,0.46792022647293785,0.1165730876925708,0.7700362834720917,1024,0,1,1,450.97401866464895,0.8653458452549317,0.0143142184499883,347.266357275
1024,512,123.69799438078208,64216,42,24707072,21122832,0.3852526288278965,0.1092956249476499,0.6860423631857222,1024,0,1,1,506.1879206153188,0.8598552973647999,0.0182950106516277,347.266357275
128,1024,139.0421636727537,92974,889,25792512,15158840,0.4652876181275196,0.1501547556391491,0.5743568869684658,128,0,1,1,604.6177301153632,0.6618603153488494,0.0640683041084944,347.266357275
128,128,90.85890721427266,115588,8633,24444928,20617936,0.4244094920208969,0.1210242348445962,0.7505849178461493,128,0,1,1,462.6609848110227,0.8668170919234599,0.0158439630030932,347.266357275
128,1536,134.39955717373672,80670,190,38871040,24956728,0.38710989571133814,0.1205368928598943,0.7115367390701955,128,0,1,1,488.05119708757724,0.5377255317998785,0.0502277369005877,347.266357275
128,2048,147.45174371964447,75455,25066,34836480,14585048,0.35754517118871565,0.1166614174036971,0.7350868410020263,128,0,1,1,472.41541802275685,0.5347568411044972,0.0545819024491071,347.266357275
128,256,147.43828162314256,45166,8224,25231360,21044816,0.4469449250164989,0.1601245471955398,0.713979510454903,128,0,1,1,486.3814047741281,0.8685898123447731,0.0147601688672308,347.266357275
128,512,123.59098369655818,29604,6881,25231360,20442968,0.35051488519890667,0.1181460890693353,0.6983956957895595,128,0,1,1,497.23438928472183,0.8647021513903963,0.0181676678314025,347.266357275
1536,1024,129.66626383196595,104380,4805,25792512,15143776,0.4296016120796017,0.1256306769651363,0.7031449194892475,1536,0,1,1,493.8759388708211,0.6632863201995605,0.0629961104635279,347.266357275
1536,128,166.95001858366612,124867,508,24969216,21145136,0.4842834875520351,0.178630095287388,0.7567531113347207,1536,0,1,1,458.88989694738115,0.8621875064902922,0.0114838719237885,347.266357275
1536,1536,134.10035251598768,65069,9387,34574336,14589248,0.3724574278476225,0.0983856538061715,0.6669142940157251,1536,0,1,1,520.7061242967029,0.5295131857340659,0.052495480417399,347.266357275
1536,2048,134.71409139048097,70658,16509,34836480,14582952,0.3916505538225513,0.1549739523894168,0.8056866133061781,1536,0,1,1,431.0191475690206,0.5348125872648442,0.054963998674329,347.266357275
1536,256,163.81610205483543,19437,21,24444928,20795592,0.4789493944944592,0.186041348597092,0.6797357741180431,1536,0,1,1,510.8843325563937,0.8622959598355232,0.0193473054222409,347.266357275
1536,512,135.903742765375,22827,16,24969216,21199992,0.3985606130117573,0.1054228847139255,0.7028867046685358,1536,0,1,1,494.0573707945755,0.8601680417945812,0.0161785153714667,347.266357275
2048,1024,156.0580238199999,58436,28,26054656,15175528,0.4554766480496584,0.1285950890659327,0.6507627039488647,2048,0,1,1,533.6297780554544,0.6526346457090559,0.0607017009806708,347.266357275
2048,128,130.39135099223455,35402,3247,24444928,20842888,0.4569144003785383,0.1029625156270043,0.6842625330340281,2048,0,1,1,507.504562225871,0.8687534056120441,0.0140265577045252,347.266357275
2048,1536,162.3169124491465,61389,0,34312192,15204712,0.40213374516941536,0.097456562060896,0.7492762880465658,2048,0,1,1,463.46903380641646,0.5424400653824574,0.0508675885717266,347.266357275
2048,2048,146.57458200097602,33529,5070,34574336,15264312,0.4410877674174795,0.1451156075583152,0.7017740387005806,2048,0,1,1,494.84070102964426,0.5497060478616278,0.0514756766965137,347.266357275
2048,256,129.84679694710957,25996,345,25231360,21089840,0.44722849908687445,0.1291236058794317,0.6948306229697899,2048,0,1,1,499.7856251509781,0.8647675659550812,0.0146261770350303,347.266357275
2048,512,150.7805336742568,36237,4084,24969216,21109704,0.39039777483881694,0.1134097394104547,0.657021397807574,2048,0,1,1,528.5464954928395,0.8682191033704838,0.014887394314337,347.266357275
256,1024,149.5664645024087,62398,12939,25792512,14454184,0.4226305198661601,0.1135596787440966,0.6953422187205458,256,0,1,1,499.41790952084335,0.6601468908056177,0.0591572857026906,347.266357275
256,128,133.592989051171,39679,26,24969216,21383712,0.5088434872152905,0.1969886221927302,0.758349049200392,256,0,1,1,457.9241678237216,0.8672258969405691,0.0128625645523139,347.266357275
256,1536,153.84268274401458,70062,26,38871040,24999112,0.41904889575016985,0.0901283638593666,0.8231816042827274,256,0,1,1,421.8587435242649,0.5377522601861966,0.0554687113289038,347.266357275
256,2048,149.48639833147897,38078,4308,38871040,24756688,0.46889856498870597,0.1562025221365843,0.7680969338447967,256,0,1,1,452.11267220755417,0.5553702432388347,0.0595548180775189,347.266357275
256,256,140.43763878882083,97328,592,24969216,21360096,0.47020760174991416,0.1818818299121922,0.6417283071215325,256,0,1,1,541.1423392442522,0.8595130165352108,0.0116979469125109,347.266357275
256,512,136.621433694145,35024,515,25231360,21268784,0.4121572377695568,0.0963599661243463,0.7261383946479255,256,0,1,1,478.23715125733725,0.8660635852086047,0.0185931944498825,347.266357275
512,1024,152.74219174784463,94141,35,25792512,15136600,0.4176538516206004,0.162343325848419,0.6699128260971354,512,0,1,1,518.3754419185391,0.6655683061442941,0.0464936839762426,347.266357275
512,128,138.23174502284974,54577,1042,24707072,20800784,0.4613954354430495,0.1484461649142467,0.6947135891583566,512,0,1,1,499.869820735351,0.8660578003942213,0.0149071284066641,347.266357275
512,1536,129.99436073269533,81119,6745,34836480,15280856,0.3784117600342125,0.1138650414234542,0.731021739581684,512,0,1,1,475.0424487700159,0.5426226288591631,0.0525042235427376,347.266357275
512,2048,157.48013165354917,106526,13772,34574336,14588440,0.44054111628863796,0.1289162012318515,0.7118213366720383,512,0,1,1,487.85606638116013,0.5378096053674031,0.05514203888972,347.266357275
512,256,146.04730304792355,61592,482,24969216,21125576,0.36450951753798366,0.0890884236707506,0.7491027074318574,512,0,1,1,463.57642794474793,0.8678532200080475,0.0128679651344565,347.266357275
512,512,119.97349771946324,77680,558,24707072,20712392,0.41833777002101563,0.1026910425742376,0.6812683567838264,512,0,1,1,509.7350461342377,0.8662759502325044,0.0136674919548146,347.266357275
