cpu,memory,duration_std,userDiff,sysDiff,heapTotal,heapUsed,avg_cpu_util,cpu_util_std,slo_preservation,total_cpu_shares,cpu_shares_others,num_containers,arrival_rate,latency,memory_util,memory_util_std,slo_duration
1024,1024,793.3302039542682,1957644,207342,67719168,55894024,0.8926212285887182,0.125147529623052,1.0,1024,0,1,1,1158.6268026009984,0.8380328701239718,0.0289247812591479,3438.8618220700014
1024,128,2757.3333385893875,2558030,268642,66195456,62110032,0.282764344952925,0.0359993846487931,0.23213446139450317,1024,0,1,1,14814.094389138518,0.9231637488643156,0.0179312764030002,3438.8618220700014
1024,1536,532.7356862398558,118247,16657,57090048,38394040,1.0379897319647782,0.136088234771326,1.0,1024,0,1,1,754.8603043668741,0.7698245261054779,0.0377462300366471,3438.8618220700014
1024,2048,319.86502783812585,1576746,161388,87863296,69173968,1.1066316858584322,0.2057099433826341,1.0,1024,0,1,1,444.48204908909,0.7858551181516557,0.0370382820391641,3438.8618220700014
1024,256,2472.7245714885216,2166316,228140,44179456,40046688,0.3468544479705982,0.0289575622655107,0.36590546412681707,1024,0,1,1,9398.224840059087,0.91985522859557,0.0166099172116749,3438.8618220700014
1024,512,1516.520219780046,2377838,315012,43134976,38937344,0.6495357761023105,0.1353077119027439,1.0,1024,0,1,1,2892.975007788709,0.923948096471423,0.0140464322912353,3438.8618220700014
128,1024,832.6631537894482,248565,44326,64016384,55468632,0.8732035368000021,0.1336908654792914,1.0,128,0,1,1,1112.4349942605907,0.8385774401024927,0.0281168673225205,3438.8618220700014
128,128,1483.0870595964036,2562575,266396,56803328,52774232,0.20313579327975914,0.0160609660347658,0.17936377809521276,128,0,1,1,19172.554562518915,0.9176231665185948,0.0150883076684547,3438.8618220700014
128,1536,519.5053072966875,1678512,161167,65888256,48232176,1.05031859844199,0.0876338932478736,1.0,128,0,1,1,720.1796360618094,0.7614240598249169,0.039153617237193,3438.8618220700014
128,2048,366.99563123312976,1751284,117403,66641920,49970040,1.0875748528020615,0.1687904362708219,1.0,128,0,1,1,459.35129065685555,0.7637257142320798,0.0289005656098419,3438.8618220700014
128,256,2907.0776380854736,2492670,158803,61030400,57527968,0.30096999750367814,0.0190820364228606,0.30858866230415455,128,0,1,1,11143.83722458524,0.926772881471134,0.0080822872316472,3438.8618220700014
128,512,1222.660315437313,2204344,191563,48807936,45020328,0.741497397950473,0.2234735055176634,1.0,128,0,1,1,2578.9015801507026,0.9167707036167296,0.016463217836248,3438.8618220700014
1536,1024,832.0119806571685,2093793,149225,68517888,56437256,0.8710745019079997,0.1119552996650477,1.0,1536,0,1,1,1253.4446878499677,0.8404016129758622,0.0266061569599699,3438.8618220700014
1536,128,2088.227116977102,2237839,286362,60506112,56308056,0.2759523788274356,0.025943083515329,0.24605828049642056,1536,0,1,1,13975.802054424366,0.9191809076995788,0.0136283148391685,3438.8618220700014
1536,1536,597.8313345953992,1982669,149745,72658944,54912200,1.0100567617689375,0.1378489786234541,1.0,1536,0,1,1,750.6149720018099,0.7650073903217872,0.0346408112713605,3438.8618220700014
1536,2048,337.3961829387582,1685113,144231,87379968,69599592,1.1105895398071202,0.17648796491128,1.0,1536,0,1,1,471.28198597413245,0.7755035215587395,0.0331317000026796,3438.8618220700014
1536,256,2610.970361833449,2306774,192175,66719744,61523512,0.42818151490841283,0.0758604737223973,0.4678269516856526,1536,0,1,1,7350.713356037425,0.9238240018322867,0.0118344893613623,3438.8618220700014
1536,512,1652.668554030616,2164125,221217,69550080,65326240,0.677663798734769,0.2510629071476719,1.0,1536,0,1,1,2600.2549204159486,0.9212802460656142,0.0144391514078102,3438.8618220700014
2048,1024,799.3179019294257,1874429,186573,58908672,47682160,0.9282588647873783,0.1247637143333237,1.0,2048,0,1,1,1150.6664092255633,0.8382773625846713,0.0292941735033575,3438.8618220700014
2048,128,1568.273036670987,1965258,255364,57065472,52974688,0.5727598225062921,0.1658918956588111,0.489975930376448,2048,0,1,1,7018.43010824619,0.9230592441162184,0.0116106171168497,3438.8618220700014
2048,1536,520.9570036398828,1825006,220333,84516864,64178352,1.002792644285959,0.1279789110006918,1.0,2048,0,1,1,704.4999566642183,0.7764261436457918,0.0354867421687091,3438.8618220700014
2048,2048,349.6601914213402,1746358,176642,87162880,67190640,1.0775203519627188,0.185288072348564,1.0,2048,0,1,1,507.89518268599386,0.7721616379544836,0.0342824084287417,3438.8618220700014
2048,256,3067.294981720992,2355019,193195,73252864,68391016,0.42677412615733096,0.1148988359067773,0.40715174925666686,2048,0,1,1,8446.142816157118,0.9244967035156932,0.015413055531631,3438.8618220700014
2048,512,1559.58150162352,2181233,147701,48893952,45811912,0.6812954211084007,0.1598659860387385,1.0,2048,0,1,1,2827.9714053623684,0.9276139863834326,0.010430901647383,3438.8618220700014
256,1024,734.1842963697344,1773372,118144,58904576,47624552,0.8991374474950208,0.07239861763831,1.0,256,0,1,1,1163.6623148358988,0.840314506391135,0.0244852447420345,3438.8618220700014
256,128,959.8214905748926,2660131,297673,62644224,58068104,0.2154697327269035,0.0082413508599385,0.1826014844995963,256,0,1,1,18832.606051883464,0.91940957878903,0.0083603733684495,3438.8618220700014
256,1536,369.6798061550537,1735865,156723,89165824,69054904,1.1555363753616514,0.2065642840293171,1.0,256,0,1,1,509.0377131097363,0.7549062193698195,0.0464107626659525,3438.8618220700014
256,2048,223.04285579340385,1625302,201976,86421504,65729976,1.1915400066830408,0.2492325266999413,1.0,256,0,1,1,316.5658316831018,0.7810483339072114,0.0344784787879968,3438.8618220700014
256,256,3395.927078183856,2084974,169167,48058368,43978072,0.32942553780680234,0.0140253354401697,0.4106791595079676,256,0,1,1,8373.597107265152,0.9231274982435742,0.009171709509868,3438.8618220700014
256,512,1651.174712055843,2099804,230186,56803328,52301080,0.6382563520142219,0.0683578271778035,1.0,256,0,1,1,2821.6925568319753,0.9227671130409288,0.0095768235917212,3438.8618220700014
512,1024,854.4155209405745,1869754,193405,86667264,75106816,0.9187184010930116,0.1441902579343364,1.0,512,0,1,1,1206.9580442498598,0.8356165828211399,0.0335315745705186,3438.8618220700014
512,128,2303.0281727049214,2100809,236146,54423552,49379304,0.2761511023402379,0.0352502933930577,0.23702632661015358,512,0,1,1,14508.353866218546,0.919850081623848,0.0124226018923148,3438.8618220700014
512,1536,374.2649735284453,1571547,165541,71872512,53880840,1.1060471267148668,0.166552024216261,1.0,512,0,1,1,502.3497807259134,0.7578934535113115,0.0309932358320272,3438.8618220700014
512,2048,192.14370378795175,1470509,196384,65323008,45356984,1.2170945689122294,0.2693885744044872,1.0,512,0,1,1,359.3725156578188,0.7647664226702149,0.0434367727168409,3438.8618220700014
512,256,1955.3260730396864,2348768,194876,54333440,50805528,0.34764900873812754,0.0156261827431345,0.3474055595365926,512,0,1,1,9898.69542288595,0.9209688749988544,0.0124632672321801,3438.8618220700014
512,512,1772.742266987735,294859,25357,55840768,51756488,0.6507090582377878,0.2283138849603778,1.0,512,0,1,1,3118.976292987876,0.9233067485296708,0.0172387724013279,3438.8618220700014
