cpu,memory,duration_std,userDiff,sysDiff,heapTotal,heapUsed,avg_cpu_util,cpu_util_std,slo_preservation,total_cpu_shares,cpu_shares_others,num_containers,arrival_rate,latency,memory_util,memory_util_std,slo_duration
1024,1024,125.96976501252146,404463,72827,41005056,30342840,0.9134253521138205,0.1160845679667671,0.5592082172937586,1024,0,1,1,574.0222424409212,0.7401033588924035,0.1020894214427745,320.9979548823532
1024,128,799.2839325933766,359325,58172,34316288,29637456,0.4831730287011741,0.2324987132251819,0.15825700179605884,1024,0,1,1,2028.3333516959576,0.867902092166823,0.0510274544947032,320.9979548823532
1024,1536,65.44289137784914,342950,60342,60805120,45358720,1.3336130743290164,0.1717271573189721,1.0,1024,0,1,1,283.8889434454217,0.7205098199918997,0.1315160364650886,320.9979548823532
1024,2048,34.55095526610956,300320,54978,59494400,44866592,1.4575387336509567,0.2296613594216641,1.0,1024,0,1,1,240.15095006358297,0.6949774862841818,0.1273579058329465,320.9979548823532
1024,256,519.6087852455439,351948,74989,32743424,29741728,0.6135574035290047,0.2549618368608199,0.22770207964619749,1024,0,1,1,1409.7278135584816,0.8846306862170856,0.0618405516376839,320.9979548823532
1024,512,170.95050020218005,407436,71136,35889152,30091040,0.5339326272799695,0.0675563059502805,0.25752005635646935,1024,0,1,1,1246.496911440619,0.849299989697373,0.0835190703959458,320.9979548823532
128,1024,150.3268514048601,408371,43189,46247936,30217736,0.9300065602941099,0.1484370490470203,0.5550418421668774,128,0,1,1,578.3310923536516,0.760193518781599,0.1279044707909307,320.9979548823532
128,128,942.2686425671916,461019,41728,32481280,29901072,0.4487984068710868,0.2279895128304286,0.1409986235580333,128,0,1,1,2276.6034645028603,0.8743983906043755,0.050108963747332,320.9979548823532
128,1536,91.37057950625923,349096,26515,44806144,31024840,1.137382228451845,0.2194778744065544,0.7769209279368477,128,0,1,1,413.1668273305229,0.7254929310276012,0.1309253941009073,320.9979548823532
128,2048,57.13745394899114,306442,39733,45330432,30532536,1.206437466400282,0.2042537549291165,1.0,128,0,1,1,282.45591902125557,0.7822470102708878,0.1277509861177423,320.9979548823532
128,256,472.4171096976712,468473,49749,40869888,29902064,0.3966280910110049,0.0922734291558461,0.16787413821465408,128,0,1,1,1912.1346402499812,0.8862734096019863,0.0641876690904586,320.9979548823532
128,512,194.9345063416626,391269,59041,41394176,29850008,0.5121624615814362,0.0588281155113482,0.23823438784411274,128,0,1,1,1347.403948637324,0.8826072826375176,0.0645867398382244,320.9979548823532
1536,1024,108.07197835767816,398493,68798,51761152,44760400,0.9331887125182333,0.1441846882821369,0.563368957417079,1536,0,1,1,569.7828228840602,0.7418682035455131,0.1169911356100855,320.9979548823532
1536,128,641.0544138323528,386153,56215,33005568,29816992,0.5518888890061624,0.1927853811055478,0.19557269778965486,1536,0,1,1,1641.3229377630078,0.8471100263911995,0.0640612202349408,320.9979548823532
1536,1536,65.64744269857786,300378,56549,44806144,31038496,1.0647210666730973,0.1131250235339394,0.7666437526634926,1536,0,1,1,418.70549882802044,0.6954620425768242,0.1291318301121893,320.9979548823532
1536,2048,57.34874845009248,351833,37922,59494400,44619960,1.2333969621486558,0.1552568266244228,1.0,1536,0,1,1,313.1385505386807,0.725573969783315,0.1392595342780442,320.9979548823532
1536,256,76.57482169616347,371206,48458,47169536,44571584,0.9805849149968262,0.2022827989808884,0.5320519233694995,1536,0,1,1,603.3207301450286,0.8602753843139392,0.0861635078672881,320.9979548823532
1536,512,77.58444517445318,386581,56741,32743424,30153440,0.8631600359149209,0.0646068913799956,0.456619239333004,1536,0,1,1,702.9882388469736,0.8948362871203109,0.0413995763923405,320.9979548823532
2048,1024,83.35988644467947,399433,69415,49917952,30859560,0.9994170910194898,0.1547696115941373,0.6433329483485246,2048,0,1,1,498.96085021974204,0.7189189885219135,0.1129532533883355,320.9979548823532
2048,128,269.01435702249444,465600,57096,36675584,29804368,0.9443917261434464,0.3158879796460554,0.40090384056858064,2048,0,1,1,800.6856567577373,0.8773738375528928,0.0768987212064323,320.9979548823532
2048,1536,59.1727734851021,319262,41908,55562240,45165304,1.2468147890632577,0.1773324793249076,0.9562100794253853,2048,0,1,1,335.6981502174191,0.7244154701539395,0.1474563540838655,320.9979548823532
2048,2048,38.120213412018224,337855,38278,58970112,46011976,1.4524774615144864,0.2712526913914372,1.0,2048,0,1,1,210.113101950821,0.7392318466564821,0.1510520040991476,320.9979548823532
2048,256,37.21325411093726,412473,59830,35102720,29734368,1.2489402098732036,0.1355147293630581,0.7460753372240293,2048,0,1,1,430.2487146629334,0.8784233770044262,0.0457633214406258,320.9979548823532
2048,512,68.21097976507382,410227,60421,47431680,44760280,0.9845317609078391,0.1538464185402437,0.5119170079553964,2048,0,1,1,627.050771695247,0.8936380742447222,0.060339626563649,320.9979548823532
256,1024,79.89835952205094,324495,26713,53596160,44615200,0.9885168467548098,0.1415842815894013,0.6508483186709226,256,0,1,1,493.19933027998485,0.7470473472163854,0.1159437875319653,320.9979548823532
256,128,321.91967014951547,482252,69528,47693824,44061312,0.977005529069151,0.4233118932028272,0.41444432317530644,256,0,1,1,774.526123130353,0.8362337434322255,0.0961779163350535,320.9979548823532
256,1536,64.56692290892302,334178,42698,58183680,45056080,1.2394935851790352,0.2323864689927375,0.9872883205537851,256,0,1,1,325.13091484998074,0.7088140909439782,0.1274170683235934,320.9979548823532
256,2048,37.43950522657012,335390,37434,58707968,45976896,1.4221321188217053,0.2711420701444396,1.0,256,0,1,1,203.3160021993944,0.7221953188053731,0.1722514098620707,320.9979548823532
256,256,79.09096982894134,417538,48673,35364864,29765688,1.0209926589432012,0.1288203136634047,0.5630025063217429,256,0,1,1,570.1536872003023,0.8691724492190855,0.0672118068591426,320.9979548823532
256,512,118.70027102740951,423920,33240,33267712,29640096,1.0479613322553951,0.2431892019351752,0.5179009633395438,256,0,1,1,619.8056725217983,0.8729287771692846,0.0698363549862948,320.9979548823532
512,1024,119.09267135175178,431541,50367,42840064,31498488,0.8541757019215298,0.1329591813640236,0.5432708986031718,512,0,1,1,590.8616782303,0.7602073594453362,0.1098856639824351,320.9979548823532
512,128,213.0164782712144,425868,60818,47431680,44285512,0.9826571245302181,0.2875390840535201,0.4515875588491598,512,0,1,1,710.8210768702191,0.9014569516509174,0.044594050513479,320.9979548823532
512,1536,62.14172526364819,401871,42439,59232256,45363184,1.3135868909708026,0.2263451283434465,0.9969894107185263,512,0,1,1,321.9672660826069,0.7285861770698683,0.1306328284584046,320.9979548823532
512,2048,34.88182136296799,324958,53693,59232256,44578696,1.461593617379566,0.2557373465396297,1.0,512,0,1,1,219.6690747761795,0.6490879276461066,0.1575612095436276,320.9979548823532
512,256,85.38689210340311,391138,45012,36151296,29576280,1.0178226063725309,0.1585521600829844,0.584100836509073,512,0,1,1,549.5591425631644,0.8743093074303202,0.0714565121007886,320.9979548823532
512,512,77.52030697971733,438352,52730,33005568,29590192,1.019676616787011,0.1081374110676065,0.5628358657737204,512,0,1,1,570.3224943582497,0.8858437946277139,0.0660165082542295,320.9979548823532
