cpu,memory,duration_std,userDiff,sysDiff,heapTotal,heapUsed,avg_cpu_util,cpu_util_std,slo_preservation,total_cpu_shares,cpu_shares_others,num_containers,arrival_rate,latency,memory_util,memory_util_std,slo_duration
1024,1024,54.20499226047186,163046,51832,61444096,49807504,0.8745704665228563,0.1474302316034862,0.813319436615728,1024,0,1,1,253.5243721575461,0.7548063832946712,0.055328618812511,206.19629953153157
1024,128,248.3197953070826,76362,19312,41373696,37858288,0.6894901642685547,0.2570306187012772,0.4060156793128146,1024,0,1,1,507.8530461693517,0.872402982642555,0.0340506373403484,206.19629953153157
1024,1536,46.90356056906055,19556,11973,54067200,39368104,0.9575365780937699,0.204744284751915,1.0,1024,0,1,1,181.32848973669132,0.6782361914305255,0.0442211553276992,206.19629953153157
1024,2048,47.14448574613672,23109,3851,47001600,36722128,0.9950110759424917,0.1599097475344232,1.0,1024,0,1,1,163.54397890915948,0.6841540655156038,0.0558781858548529,206.19629953153157
1024,256,166.090487793338,150478,37210,49074176,45432312,0.7436843692165839,0.2676120641252805,0.5136650433447129,1024,0,1,1,401.42170895821766,0.8905792890718441,0.0211513092636292,206.19629953153157
1024,512,150.69153230107483,106019,34639,36327424,32991672,0.7234005547368154,0.2482774048225927,0.46494443937269214,1024,0,1,1,443.4858922277547,0.8900151087838397,0.024867687994848,206.19629953153157
128,1024,62.22022667930015,54364,19530,41066496,29836680,0.8052985569246588,0.1712333503390524,0.8203462148254748,128,0,1,1,251.35277740679155,0.7565826178400189,0.0480608299183167,206.19629953153157
128,128,324.9094425486653,161810,40971,49074176,45379296,0.4948025198799055,0.1759145993530569,0.3106222516123202,128,0,1,1,663.8168980530087,0.8928700806585165,0.0180996995371922,206.19629953153157
128,1536,50.435280114332144,86582,45435,60231680,42541232,0.9327001943472516,0.2319729629209889,0.9299856420765081,128,0,1,1,221.7198741597004,0.6831435540261774,0.0542350204122675,206.19629953153157
128,2048,52.72010510831761,143835,35760,65331200,44819696,0.932191626337346,0.1863872155821737,1.0,128,0,1,1,178.56700724866096,0.6701132883998577,0.0563015015715574,206.19629953153157
128,256,181.469182826433,179682,17296,49074176,44724624,0.6400816402414833,0.2636655671819868,0.4032009409472575,128,0,1,1,511.398358959941,0.8957917863435281,0.0120972072026771,206.19629953153157
128,512,153.25417458033618,53018,30584,42344448,38059976,0.7915448508736082,0.3068417658773987,0.550296816550076,128,0,1,1,374.70014968325387,0.8899266575114116,0.0175547379131607,206.19629953153157
1536,1024,81.01919123938131,45167,5055,31547392,21421352,0.8623748142299033,0.1825187147257529,0.8975116747150758,1536,0,1,1,229.74219204111265,0.7702905396036646,0.0510554669043063,206.19629953153157
1536,128,109.07151540742407,169419,52651,37212160,33797176,0.790107506144661,0.2893135214530302,0.5145537121298833,1536,0,1,1,400.7284267331913,0.8866533079254943,0.0307876976922356,206.19629953153157
1536,1536,53.65876804637762,95237,45809,60231680,42574344,0.9420066826674717,0.1836615448812612,0.9885476035520137,1536,0,1,1,208.58509877585504,0.6892797207870821,0.050550115785933,206.19629953153157
1536,2048,25.358643874756726,26993,12812,47001600,36729104,1.0089427611959045,0.1559190509349108,1.0,1536,0,1,1,116.8587405100354,0.6512034307102361,0.0575188951409531,206.19629953153157
1536,256,295.50524433067363,89108,20300,41373696,37864384,0.5792405914540008,0.2564478272256713,0.33140115579554724,1536,0,1,1,622.1954749570673,0.8892823380831523,0.0216141019429381,206.19629953153157
1536,512,162.7984096432544,38398,10135,31592448,28171848,0.708414975113034,0.1821956718518962,0.46165860062710123,1536,0,1,1,446.64238736469235,0.890030744412876,0.0235504266433498,206.19629953153157
2048,1024,87.0418842710488,23230,27146,31023104,21428040,0.864061292421915,0.1292965977504721,0.8753414506873334,2048,0,1,1,235.56099093630564,0.7661478975957136,0.0344383854931699,206.19629953153157
2048,128,197.1978462073362,34566,9386,31592448,28115936,0.6036130409471018,0.2429334811802036,0.45669966144394786,2048,0,1,1,451.49212259015144,0.8912434647764942,0.0179526682059419,206.19629953153157
2048,1536,55.51194741176056,30453,7673,44273664,27225384,0.9571434467513097,0.2115098187717256,1.0,2048,0,1,1,179.10713033171862,0.6616612392494783,0.0344950901353076,206.19629953153157
2048,2048,28.664937134962244,118815,30960,73240576,55391800,1.0173090057509,0.1816926186859921,1.0,2048,0,1,1,154.92898590806382,0.6793413341070523,0.0680999788546492,206.19629953153157
2048,256,427.7962948237739,128575,31015,36065280,32076568,0.6347813509262848,0.3492799856367708,0.31840653348692094,2048,0,1,1,647.5881549082642,0.8865277761163413,0.0250149277430578,206.19629953153157
2048,512,148.71166042700543,15460,22475,31719424,28038528,0.7203292875705564,0.1907616363323348,0.5452572523748369,2048,0,1,1,378.16333232333056,0.893269578089779,0.022410466909122,206.19629953153157
256,1024,66.12114655506555,108746,23563,50073600,38903848,0.8225497617322172,0.134017744346062,0.6556072594648311,256,0,1,1,314.5119224272296,0.7707940940146849,0.0397194106467069,206.19629953153157
256,128,198.541592015836,206948,31928,37212160,33728992,0.8120341345833016,0.3976719768061771,0.5848546910504858,256,0,1,1,352.5598797218714,0.8848885775683284,0.0231703646205648,206.19629953153157
256,1536,40.12811911461378,106501,44589,52060160,35187552,0.9477352439068766,0.1505815678116403,1.0,256,0,1,1,166.6219731153702,0.681838340939422,0.0678841657721841,206.19629953153157
256,2048,39.58333162985189,33151,3456,44535808,27278248,1.0240668548107823,0.183112667847002,1.0,256,0,1,1,183.5032961866235,0.6759075916398636,0.0687134937291294,206.19629953153157
256,256,191.57329224267556,103696,27996,36851712,31989968,0.6137085245775059,0.2722868418917796,0.4424890956054555,256,0,1,1,465.9918212208015,0.8827157217463221,0.0179233892955919,206.19629953153157
256,512,185.03684534223748,165549,28306,31948800,28576656,0.6683801499045626,0.2352454050157086,0.4270722063852584,256,0,1,1,482.8136704956247,0.8873503677517105,0.0175491198680368,206.19629953153157
512,1024,68.37850730023659,40074,19182,41066496,29834648,0.7876856775550168,0.1605089980269205,0.8419583636879986,512,0,1,1,244.90082695816176,0.7666838323713463,0.0425830441514107,206.19629953153157
512,128,160.9884890100061,124683,29450,32210944,27367768,0.6220586468264216,0.1093891780509633,0.4783482470473939,512,0,1,1,431.0589634315143,0.8842531193334628,0.0268694420653094,206.19629953153157
512,1536,43.43159741223628,30461,8516,44011520,27259720,0.9410858450806198,0.1904144939319437,0.9692348292011722,512,0,1,1,212.74132265910754,0.6613660367258798,0.0624831383420921,206.19629953153157
512,2048,32.38927739105221,56775,31941,54648832,34598656,1.0314697854716592,0.1525123936840454,1.0,512,0,1,1,145.22711536521106,0.6678813447121315,0.0660559712051488,206.19629953153157
512,256,207.5559196375233,122954,16462,36327424,31982672,0.6930054228117379,0.3970189097566332,0.49807155933659975,512,0,1,1,413.9893066895291,0.8846955684408953,0.0173296514726083,206.19629953153157
512,512,187.9513098691832,110462,33200,32210944,28217576,0.6132217236164633,0.2086476063749394,0.3768442209204075,512,0,1,1,547.1658793862249,0.8830013688317722,0.0229795092846027,206.19629953153157
