cpu,memory,duration_std,userDiff,sysDiff,heapTotal,heapUsed,avg_cpu_util,cpu_util_std,slo_preservation,total_cpu_shares,cpu_shares_others,num_containers,arrival_rate,latency,memory_util,memory_util_std,slo_duration
1024,1024,57.697308990951086,21556,289,33734656,28442392,0.7271127624693828,0.1232976136496089,1.0,1024,0,1,1,118.6840205771357,0.6760074462037446,0.0866610888678558,139.79126785087718
1024,128,112.1694986361546,55696,3665,27832320,24653240,0.4492282823570107,0.2035843647872067,0.6220377402556111,1024,0,1,1,224.73116790861178,0.8721378353020077,0.0148724395878464,139.79126785087718
1024,1536,37.03489283577662,67723,7970,34312192,15088488,0.811847020719452,0.1718375914297725,1.0,1024,0,1,1,87.81872154108711,0.5037629977107615,0.06382038907305,139.79126785087718
1024,2048,29.909191871951556,17975,479,41996288,28201176,0.9516677881425887,0.0757389882346203,1.0,1024,0,1,1,65.98317777455499,0.5013124595939791,0.0634676690913256,139.79126785087718
1024,256,98.55566506797624,48453,34,28094464,23903264,0.4660340219243897,0.2343473287744035,0.6854570565709627,1024,0,1,1,203.93876831641478,0.8718423284966695,0.0140690401464122,139.79126785087718
1024,512,85.8311718867609,80479,2022,28356608,24435192,0.5405295188585273,0.2445228360939175,0.8560184931816702,1024,0,1,1,163.30402785026013,0.8746065320149704,0.0135586175364062,139.79126785087718
128,1024,66.69507551047407,20420,84,33738752,28259096,0.7276651792025783,0.1857521227021142,1.0,128,0,1,1,104.22420310493278,0.6648710521112805,0.0780462127569376,139.79126785087718
128,128,188.46000514243556,106833,2802,28352512,24356952,0.39222373957624296,0.2089633053158577,0.5603842462567962,128,0,1,1,249.45609871198593,0.8714500074849933,0.0108202815009073,139.79126785087718
128,1536,34.64550925466441,22876,8,34312192,15391904,0.9555450162711322,0.0904379030169787,1.0,128,0,1,1,59.88002694198862,0.5447093033823558,0.0812206958759399,139.79126785087718
128,2048,25.19672294000218,34428,3735,42520576,27960944,0.9118034977107778,0.137065198506156,1.0,128,0,1,1,65.21002794422736,0.512753723449329,0.0610714165868152,139.79126785087718
128,256,184.94118599447083,69418,4667,27832320,24655496,0.40562852767453506,0.2438508813488095,0.4518436288815456,128,0,1,1,309.3797475841461,0.8728071222772854,0.0139870927143934,139.79126785087718
128,512,69.17997667967524,60440,3005,28356608,24355432,0.5813911231365199,0.2196630387536926,0.8423753427424365,128,0,1,1,165.94890752116845,0.8734976254094404,0.0148049041543457,139.79126785087718
1536,1024,58.75951811295743,50201,29,33738752,28342864,0.7325850251581857,0.2042561271354627,1.0,1536,0,1,1,119.13253043421837,0.6572627272762601,0.0644272482273148,139.79126785087718
1536,128,124.2774117170502,119416,0,27832320,24327792,0.5077207539472074,0.1838686300378141,0.5890529877692815,1536,0,1,1,237.31526832630243,0.8698501464356607,0.0123669739154108,139.79126785087718
1536,1536,40.05002162793489,42738,3685,41996288,28796440,0.8611960386047159,0.1635123862489807,1.0,1536,0,1,1,68.80376693801705,0.5315652878932184,0.0715651535616468,139.79126785087718
1536,2048,27.506236281809663,83884,34,42258432,28107296,0.9527174982990816,0.086462685402519,1.0,1536,0,1,1,64.47312009786185,0.5291924195731713,0.0849801491072068,139.79126785087718
1536,256,118.51690145701244,29759,113,27832320,24347392,0.4406844085829551,0.273489324381538,0.5695646567429696,1536,0,1,1,245.43529201806058,0.8753502843364439,0.0149117557833265,139.79126785087718
1536,512,115.9125311523286,21258,2648,28094464,23979152,0.5112448571588083,0.223239870211952,0.6430590078621716,1536,0,1,1,217.3848218309057,0.8796629080984477,0.015801688037197,139.79126785087718
2048,1024,69.62489491728178,91651,995,33738752,28304216,0.7004492084241125,0.1805567897408894,1.0,2048,0,1,1,137.3597910708082,0.6701270650077328,0.0938404647023396,139.79126785087718
2048,128,112.67963943584222,101769,38,27832320,23979504,0.593619733336089,0.2479397205964616,0.7923089974432455,2048,0,1,1,176.43529014813527,0.8652529263384914,0.0134302096601531,139.79126785087718
2048,1536,35.01640450612924,13401,254,41996288,28262880,0.9148573713292646,0.1621765935605034,1.0,2048,0,1,1,66.42664819183224,0.5491313853490056,0.0991411647396515,139.79126785087718
2048,2048,28.823218735505996,108142,32,42254336,27932184,0.918909743275201,0.098652079580211,1.0,2048,0,1,1,74.05363400148308,0.5148996053763556,0.0590347562459959,139.79126785087718
2048,256,139.35881001070814,60473,31,28094464,24334080,0.5423605994058102,0.2258279435167105,0.6230016314674286,2048,0,1,1,224.3834699463153,0.8663215931138464,0.011470956794714,139.79126785087718
2048,512,85.96954229011003,108281,491,28618752,24399760,0.578300080692963,0.2607331298020707,0.9265408112186623,2048,0,1,1,150.87437720850338,0.8718682803197049,0.013587592905979,139.79126785087718
256,1024,47.74714151331115,103330,4500,26054656,14924488,0.756652321368375,0.1859581120713176,1.0,256,0,1,1,105.90092960322481,0.6571063240628046,0.075931723265201,139.79126785087718
256,128,186.34246276642085,73596,438,27570176,24337144,0.4176840467192554,0.1443590118611836,0.4543954912994689,256,0,1,1,307.64228635082975,0.8730560796506227,0.011185971400812,139.79126785087718
256,1536,41.135050565762334,23947,12234,34312192,15148712,0.8251902950333431,0.1878479041266752,1.0,256,0,1,1,82.99947651944962,0.5294388645591999,0.0844162580266708,139.79126785087718
256,2048,24.35385310172088,32063,793,34836480,15085632,0.9731786618440432,0.2016051060956969,1.0,256,0,1,1,81.48916411464695,0.4934186566345813,0.0383067007769041,139.79126785087718
256,256,133.3025576035492,115441,28,27828224,23928712,0.5102911060729683,0.3097245571402984,0.5377663332487956,256,0,1,1,259.9479722100849,0.8715453147764183,0.0103290321604643,139.79126785087718
256,512,95.9627004978079,41368,33,28094464,24666216,0.6693813133321652,0.2870386673839508,1.0,256,0,1,1,131.16605930728593,0.8793441753893744,0.0173979542196476,139.79126785087718
512,1024,63.38510498298154,49168,10882,25530368,14858720,0.6887125792406215,0.1352721176661325,0.9770231324277593,512,0,1,1,143.07876979689965,0.6874423622211345,0.0886190667076323,139.79126785087718
512,128,141.5653694385088,54130,3259,27832320,23864448,0.3920584932755927,0.2549177835245552,0.5123916132700562,512,0,1,1,272.82114740078725,0.8713241586925097,0.0122415430471297,139.79126785087718
512,1536,27.89787124507034,58594,4352,41996288,28132480,0.8506443090289003,0.1420471748393636,1.0,512,0,1,1,87.87669917489484,0.5762320792863839,0.1026672021388333,139.79126785087718
512,2048,26.603064697816805,75815,32,42258432,27973552,0.9500783422418043,0.0957910962422872,1.0,512,0,1,1,69.5871763990891,0.5144229844396366,0.0587219987094949,139.79126785087718
512,256,153.91995632841488,17640,5350,28356608,24417608,0.4508811341903679,0.2712478092120689,0.5260863684269801,512,0,1,1,265.7192359286153,0.8697304004488018,0.0092637720210199,139.79126785087718
512,512,112.38012510670384,105594,640,27566080,24362632,0.5268375790970635,0.2885685333437229,0.7075471345302999,512,0,1,1,197.5716684142557,0.8775145748513904,0.0171734012193573,139.79126785087718
