cpu,memory,duration_std,userDiff,sysDiff,heapTotal,heapUsed,avg_cpu_util,cpu_util_std,slo_preservation,total_cpu_shares,cpu_shares_others,num_containers,arrival_rate,latency,memory_util,memory_util_std,slo_duration
1024,1024,57.697308990951086,21556,289,33734656,28442392,0.7690876006198215,0.1232976136496089,0.9966710018741864,1024,0,1,1,140.25818709283925,0.6760074462037446,0.0866610888678558,139.79126785087718
1024,128,112.1694986361546,55696,3665,27832320,24653240,0.5048384279790525,0.2035843647872067,0.5592320292687541,1024,0,1,1,249.97006704652944,0.8721378353020077,0.0148724395878464,139.79126785087718
1024,1536,37.03489283577662,67723,7970,34312192,15088488,0.8435918860509278,0.1718375914297725,1.0,1024,0,1,1,105.6425634027178,0.5037629977107615,0.06382038907305,139.79126785087718
1024,2048,29.909191871951556,17975,479,41996288,28201176,0.9609568218828014,0.0757389882346203,1.0,1024,0,1,1,81.68169398638749,0.5013124595939791,0.0634676690913256,139.79126785087718
1024,256,98.55566506797624,48453,34,28094464,23903264,0.5217537748666524,0.2343473287744035,0.6139290952159857,1024,0,1,1,227.6993694226161,0.8718423284966695,0.0140690401464122,139.79126785087718
1024,512,85.8311718867609,80479,2022,28356608,24435192,0.5952274031184082,0.2445228360939175,0.7541133602380985,1024,0,1,1,185.3716897506503,0.8746065320149704,0.0135586175364062,139.79126785087718
128,1024,66.69507551047407,20420,84,33738752,28259096,0.7695819729405144,0.1857521227021142,1.0,128,0,1,1,123.184283962332,0.6648710521112805,0.0780462127569376,139.79126785087718
128,128,188.46000514243556,106833,2802,28352512,24356952,0.4464979049702103,0.2089633053158577,0.5103421678704022,128,0,1,1,273.9167496862148,0.8714500074849933,0.0108202815009073,139.79126785087718
128,1536,34.64550925466441,22876,8,34312192,15391904,0.9641169771777647,0.0904379030169787,1.0,128,0,1,1,74.18454227163821,0.5447093033823558,0.0812206958759399,139.79126785087718
128,2048,25.19672294000218,34428,3735,42520576,27960944,0.9281758707730654,0.137065198506156,1.0,128,0,1,1,80.07471083556838,0.512753723449329,0.0610714165868152,139.79126785087718
128,256,184.94118599447083,69418,4667,27832320,24655496,0.4603526206607367,0.2438508813488095,0.41024214914465024,128,0,1,1,340.75306046036525,0.8728071222772854,0.0139870927143934,139.79126785087718
128,512,69.17997667967524,60440,3005,28356608,24355432,0.6345137399429094,0.2196630387536926,0.7354755969105979,128,0,1,1,190.06921295292108,0.8734976254094404,0.0148049041543457,139.79126785087718
1536,1024,58.75951811295743,50201,29,33738752,28342864,0.7739797819413707,0.2042561271354627,0.9917706307297112,1536,0,1,1,140.9512073855459,0.6572627272762601,0.0644272482273148,139.79126785087718
1536,128,124.2774117170502,119416,0,27832320,24327792,0.563167930824707,0.1838686300378141,0.5227058373156539,1536,0,1,1,267.437740065756,0.8698501464356607,0.0123669739154108,139.79126785087718
1536,1536,40.05002162793489,42738,3685,41996288,28796440,0.8857861643159537,0.1635123862489807,1.0,1536,0,1,1,83.61714982004264,0.5315652878932184,0.0715651535616468,139.79126785087718
1536,2048,27.506236281809663,83884,34,42258432,28107296,0.9618128821462909,0.086462685402519,1.0,1536,0,1,1,79.82928751965466,0.5291924195731713,0.0849801491072068,139.79126785087718
1536,256,118.51690145701244,29759,113,27832320,24347392,0.49618974017968964,0.273489324381538,0.5130422289340039,1536,0,1,1,272.4751686451516,0.8753502843364439,0.0149117557833265,139.79126785087718
1536,512,115.9125311523286,21258,2648,28094464,23979152,0.5666339041068937,0.223239870211952,0.570183200622962,1536,0,1,1,245.1690398772643,0.8796629080984477,0.015801688037197,139.79126785087718
2048,1024,69.62489491728178,91651,995,33738752,28304216,0.7450875196872379,0.1805567897408894,0.8660461778233568,2048,0,1,1,161.41318030202046,0.6701270650077328,0.0938404647023396,139.79126785087718
2048,128,112.67963943584222,101769,38,27832320,23979504,0.6461350392460284,0.2479397205964616,0.6899212764116509,2048,0,1,1,202.61915762033814,0.8652529263384914,0.0134302096601531,139.79126785087718
2048,1536,35.01640450612924,13401,254,41996288,28262880,0.9307059210569051,0.1621765935605034,1.0,2048,0,1,1,81.61937537958062,0.5491313853490056,0.0991411647396515,139.79126785087718
2048,2048,28.823218735505996,108142,32,42254336,27932184,0.9340583495473482,0.098652079580211,1.0,2048,0,1,1,91.06578545370772,0.5148996053763556,0.0590347562459959,139.79126785087718
2048,256,139.35881001070814,60473,31,28094464,24334080,0.5970030202762379,0.2258279435167105,0.5486148603428129,2048,0,1,1,254.8076582605251,0.8663215931138464,0.011470956794714,139.79126785087718
2048,512,85.96954229011003,108281,491,28618752,24399760,0.6315663788965015,0.2607331298020707,0.8095064062104229,2048,0,1,1,172.68704333704787,0.8718682803197049,0.013587592905979,139.79126785087718
256,1024,47.74714151331115,103330,4500,26054656,14924488,0.7953622319306956,0.1859581120713176,1.0,256,0,1,1,125.93347565806205,0.6571063240628046,0.075931723265201,139.79126785087718
256,128,186.34246276642085,73596,438,27570176,24337144,0.47274096823361983,0.1443590118611836,0.4114332183958884,256,0,1,1,339.7666051270744,0.8730560796506227,0.011185971400812,139.79126785087718
256,1536,41.135050565762334,23947,12234,34312192,15148712,0.8550857526621558,0.1878479041266752,1.0,256,0,1,1,100.12206714862401,0.5294388645591999,0.0844162580266708,139.79126785087718
256,2048,24.35385310172088,32063,793,34836480,15085632,0.9784272072413247,0.2016051060956969,1.0,256,0,1,1,101.3150430366174,0.4934186566345813,0.0383067007769041,139.79126785087718
256,256,133.3025576035492,115441,28,27828224,23928712,0.565696419667765,0.3097245571402984,0.4769238353814544,256,0,1,1,293.1102567752123,0.8715453147764183,0.0103290321604643,139.79126785087718
256,512,95.9627004978079,41368,33,28094464,24666216,0.7167773077569467,0.2870386673839508,0.9129757100250773,256,0,1,1,153.11608656821488,0.8793441753893744,0.0173979542196476,139.79126785087718
512,1024,63.38510498298154,49168,10882,25530368,14858720,0.7344367644648466,0.1352721176661325,0.8335107907902488,512,0,1,1,167.7138069422491,0.6874423622211345,0.0886190667076323,139.79126785087718
512,128,141.5653694385088,54130,3259,27832320,23864448,0.44632658453416446,0.2549177835245552,0.46665281353110133,512,0,1,1,299.56160939670497,0.8713241586925097,0.0122415430471297,139.79126785087718
512,1536,27.89787124507034,58594,4352,41996288,28132480,0.8768364106243851,0.1420471748393636,1.0,512,0,1,1,106.56465268723707,0.5762320792863839,0.1026672021388333,139.79126785087718
512,2048,26.603064697816805,75815,32,42258432,27973552,0.9596599049092327,0.0957910962422872,1.0,512,0,1,1,86.11549369772274,0.5144229844396366,0.0587219987094949,139.79126785087718
512,256,153.91995632841488,17640,5350,28356608,24417608,0.5065077235233613,0.2712478092120689,0.47279300665725577,512,0,1,1,295.6711835465383,0.8697304004488018,0.0092637720210199,139.79126785087718
512,512,112.38012510670384,105594,640,27566080,24362632,0.5819046629039296,0.2885685333437229,0.6252021391688009,512,0,1,1,223.59371328563924,0.8775145748513904,0.0171734012193573,139.79126785087718
