cpu,memory,duration_std,userDiff,sysDiff,heapTotal,heapUsed,avg_cpu_util,cpu_util_std,slo_preservation,total_cpu_shares,cpu_shares_others,num_containers,arrival_rate,latency,memory_util,memory_util_std,slo_duration
1024,1024,26.28187365578397,36782,1222,34185216,28786984,0.6608319377218136,0.2606122819923205,1,1024,0,1,1,39.850469200000006,0.6542545075489754,0.07553362383692157,55.21258345614035
1024,128,68.77955606200145,22960,8598,27492352,24608720,0.34833641976249125,0.23387948474430748,0.478882231966503,1024,0,1,1,115.29470038888888,0.8799807447142043,0.01139292607077768,55.21258345614035
1024,1536,19.276153206188006,23278,3848,34312192,15253592,0.8691806180647184,0.2340968569779423,1,1024,0,1,1,22.6073168,0.5325035933222703,0.06755363513874402,55.21258345614035
1024,2048,18.184003496170998,15556,264,34574336,15577472,1.007501516224414,0.2213535975887619,1,1024,0,1,1,18.4634551,0.5394010198070044,0.06046137530696404,55.21258345614035
1024,256,90.58439458395316,22666,4578,28278784,25020232,0.3362066316160489,0.29481826874297623,0.3894967068099892,1024,0,1,1,141.75365924999997,0.8817219269025731,0.010624346456904002,55.21258345614035
1024,512,27.849946108352096,26030,2864,27754496,24716256,0.4367298152709587,0.2776208106156518,1,1024,0,1,1,49.9014456,0.8808634814584224,0.012301780124183382,55.21258345614035
128,1024,25.764985867522018,27284,35,33923072,28577112,0.6606686272376396,0.15511598832096238,1,128,0,1,1,32.58937725,0.6653532556989329,0.07997857189519307,55.21258345614035
128,128,92.07407424337241,18575,8522,28278784,24996408,0.43973755278272125,0.30667084207570633,0.4900494822838624,128,0,1,1,112.66736411764704,0.8800534452314523,0.011473699023885417,55.21258345614035
128,1536,11.00473630343508,19640,28,42704896,28209144,0.907283616832418,0.18829514637335967,1,128,0,1,1,18.605510199999994,0.5440266240189727,0.06859818010635817,55.21258345614035
128,2048,23.409965535448013,19096,3817,42704896,28247016,0.8730067219052902,0.1769815185180313,1,128,0,1,1,24.26377605,0.530885712271788,0.06137415608007235,55.21258345614035
128,256,69.01294131028114,15430,3871,28016640,25007952,0.37748993926638624,0.27984657877159286,0.5145505829948448,128,0,1,1,107.30253794444447,0.882662407996114,0.010104199678767349,55.21258345614035
128,512,32.820301943747296,23415,3896,28016640,24646744,0.5787676890047849,0.29921006782264026,1,128,0,1,1,49.38265110526316,0.8810455262509985,0.010526627114577584,55.21258345614035
1536,1024,24.04354594705961,20943,4199,33923072,28661128,0.6329188831195227,0.2427332143747257,1,1536,0,1,1,38.006545100000004,0.6698308185858324,0.09803840833460709,55.21258345614035
1536,128,42.11553141450903,25250,398,28016640,24660808,0.4049485448812513,0.23524149827462845,0.6075912132379717,1536,0,1,1,90.87126715000001,0.8770351452014131,0.011737918511546151,55.21258345614035
1536,1536,8.04849008835371,20484,4103,34312192,15264120,0.8424846399199672,0.20006730484308025,1,1536,0,1,1,14.9519117,0.5431395868906246,0.06331584835588175,55.21258345614035
1536,2048,6.865450606360366,19826,21,42442752,28564112,0.9678147906846792,0.2718672134508633,1,1536,0,1,1,14.877076649999996,0.575878955398214,0.09202190973193256,55.21258345614035
1536,256,35.403038362256886,22576,3759,28278784,24848400,0.43976939101150636,0.24609609029400187,0.956863310080457,1536,0,1,1,57.7016412631579,0.8818520112854938,0.010836918542256723,55.21258345614035
1536,512,26.858333560743635,24378,4065,28278784,24948688,0.44412318936394196,0.23297048623506308,1,1536,0,1,1,51.8803252,0.8857054480280062,0.010610421907081079,55.21258345614035
2048,1024,12.068439167894496,26203,0,25792512,15156512,0.8301825678247242,0.1948099960860372,1,2048,0,1,1,18.414585199999998,0.6871854321290509,0.08035425877232434,55.21258345614035
2048,128,29.51625616870409,21917,6590,28278784,24942800,0.5390560120384356,0.2744838219456058,0.8722473672363952,2048,0,1,1,63.29922626315789,0.8832306156294049,0.009061361318401866,55.21258345614035
2048,1536,12.757288230307834,21546,4344,42180608,28634832,0.7552878144021951,0.22989721726566306,1,2048,0,1,1,22.222790850000003,0.5331991152449913,0.07524436364752675,55.21258345614035
2048,2048,12.067581666459274,15030,3801,42442752,28470576,0.8645987076840485,0.17425093362723326,1,2048,0,1,1,17.641876600000003,0.533383777048007,0.06607293463301687,55.21258345614035
2048,256,35.6896880805009,29586,4237,28540928,24717240,0.4910590699669246,0.2801184544680344,0.952576853544803,2048,0,1,1,57.961290210526315,0.8746041038927498,0.010495461617493287,55.21258345614035
2048,512,39.42314537036604,11629,15854,27754496,24727904,0.5797848066184962,0.3509980860698706,1,2048,0,1,1,37.786210849999996,0.8801152670283257,0.012669313620132539,55.21258345614035
256,1024,28.177779525092703,25341,28,33923072,28649880,0.6687244853935452,0.2159289423991411,1,256,0,1,1,42.44598335,0.6782521712688211,0.08084849407873408,55.21258345614035
256,128,149.0085616088359,18363,4401,28016640,24366584,0.37182300560540327,0.35822507568819145,0.30051222228711094,256,0,1,1,183.72824584615384,0.8746112877231492,0.011008133887842993,55.21258345614035
256,1536,19.997296592294102,30809,12718,34312192,15125944,0.9052479335631933,0.1386041350111702,1,256,0,1,1,21.3469483,0.5345089107478673,0.06162726745731214,55.21258345614035
256,2048,14.692355952931557,16833,8144,42442752,28409040,0.9192073134008032,0.1903066032878641,1,256,0,1,1,19.987934749999997,0.5326761402895893,0.05844350964330101,55.21258345614035
256,256,414.8997296314312,23142,4729,28278784,25015608,0.33860911845201686,0.42553565764790546,0.13112543800000326,256,0,1,1,421.0669134705882,0.880576276001636,0.012070931050020444,55.21258345614035
256,512,39.85005836945702,22781,3591,28278784,24971352,0.41493096726834955,0.24040109206836074,0.7799367012435213,256,0,1,1,70.7911082631579,0.8851666623502958,0.011174557644302422,55.21258345614035
512,1024,23.87345110037567,15524,11956,33923072,28590336,0.7049814508882131,0.16184851826712188,1,512,0,1,1,33.94827515,0.6751179377827989,0.08495165519553456,55.21258345614035
512,128,213.8729132400273,29966,335,28016640,24429696,0.36202872404633407,0.37765915314515924,0.20118539690731166,512,0,1,1,274.43633735294117,0.8807821784142126,0.008663446622093693,55.21258345614035
512,1536,12.991210762298193,25247,405,41918464,29081280,0.949741469485048,0.1217587432554493,1,512,0,1,1,20.3764409,0.5777241331378651,0.09061203773550952,55.21258345614035
512,2048,7.367491157789413,32693,11294,34836480,15092768,0.9880240914896292,0.121752453826746,1,512,0,1,1,13.849053899999998,0.5296725452708885,0.059075817281465326,55.21258345614035
512,256,295.6421521191217,18665,7658,27754496,24666824,0.23918803593243693,0.24104613961606852,0.2174181346251226,512,0,1,1,253.946542,0.8797125517659327,0.013613610064942888,55.21258345614035
512,512,35.998978936809074,22567,3888,27754496,24674232,0.41897001881039947,0.21390783207222014,1,512,0,1,1,54.93336545000001,0.8790965133994313,0.011248941165907852,55.21258345614035
