cpu,memory,duration_std,userDiff,sysDiff,heapTotal,heapUsed,avg_cpu_util,cpu_util_std,slo_preservation,total_cpu_shares,cpu_shares_others,num_containers,arrival_rate,latency,memory_util,memory_util_std,slo_duration
1024,1024,715.7421455802904,1815148,132108,43175936,35698784,0.6854589051689658,0.2632928941900725,1.0,1024,0,1,1,1488.6590603529125,0.7996997353134512,0.0402160064320145,2998.7003625478264
1024,128,2820.2032599122663,2088516,212085,36487168,33687888,0.48336611976510435,0.0593861525547446,0.19589213886399814,1024,0,1,1,15307.915774148198,0.9169875881925666,0.0094693791096022,2998.7003625478264
1024,1536,516.0697031428567,1850580,118209,52482048,39524568,0.7201074947967272,0.3350190116846325,1.0,1024,0,1,1,1117.3835160114356,0.7011742891155002,0.0578943311156391,2998.7003625478264
1024,2048,382.2714566454077,1471781,125148,52219904,35566912,0.6638166100038788,0.2624635008181474,1.0,1024,0,1,1,896.6294901869288,0.7085724150410242,0.0537239050614354,2998.7003625478264
1024,256,2462.7211404025898,2056874,172475,36487168,33468720,0.5587060685920215,0.0573331225147304,0.3289153463461697,1024,0,1,1,9116.936609554907,0.9215159496980854,0.0110080257365889,2998.7003625478264
1024,512,1270.1502070340948,2134506,196146,36487168,33943776,0.6908703202610218,0.2665273826079881,0.9995774970492718,1024,0,1,1,2999.967857819845,0.9252933797018734,0.0126055308425313,2998.7003625478264
128,1024,782.5606014289319,1756543,170900,43175936,34031144,0.7263968076916287,0.2495290259229552,1.0,128,0,1,1,1504.9174730666398,0.8125366519611499,0.0337627661290003,2998.7003625478264
128,128,2839.6831763845794,2147437,187574,36487168,33360888,0.422114835489367,0.0671229448988698,0.17474749366548997,128,0,1,1,17160.190968392842,0.9189228101518592,0.0087485219566433,2998.7003625478264
128,1536,609.7870153633394,1973898,106303,53268480,35877704,0.7221197347156743,0.3269437768640258,1.0,128,0,1,1,1223.928408380441,0.6631743922544447,0.0433491777896558,2998.7003625478264
128,2048,301.4618750593399,1380169,108028,51433472,36208008,0.617059228824301,0.3176923017222655,1.0,128,0,1,1,838.3559504386071,0.7044639603179942,0.0317631168789763,2998.7003625478264
128,256,3571.566259058464,1844486,148342,36225024,32950752,0.48727784382898126,0.0634061435261347,0.2802701257117471,128,0,1,1,10699.322144779488,0.919685193702687,0.0082767454845298,2998.7003625478264
128,512,1120.0508863574562,2102627,253812,35700736,32626440,0.7061915068889093,0.2671750975748284,1.0,128,0,1,1,2939.476960721371,0.9253321600596356,0.0105305925222895,2998.7003625478264
1536,1024,782.09472704102,1609899,128122,43438080,33523760,0.703090033675114,0.2595525978318425,1.0,1536,0,1,1,1450.9395128816977,0.8149612801382092,0.0322239269138982,2998.7003625478264
1536,128,3326.907062813074,1993270,198622,35700736,32644544,0.38687940069306515,0.0463403832930124,0.1703917464596687,1536,0,1,1,17598.85924555396,0.9141833998685048,0.0059168893950798,2998.7003625478264
1536,1536,545.424880703686,1569692,150656,52219904,34082368,0.7929499969265603,0.3206639816368455,1.0,1536,0,1,1,1246.3083601153335,0.6765299949996753,0.0501544499760696,2998.7003625478264
1536,2048,379.1736252598235,1430914,109832,51695616,40187904,0.5860656702949432,0.2789558620517484,1.0,1536,0,1,1,868.3759272191048,0.7148255490698373,0.0313538223391258,2998.7003625478264
1536,256,3092.0325107436,2044505,144451,35962880,32880416,0.5907517179824295,0.1532610644485172,0.3391714817882695,1536,0,1,1,8841.251471784379,0.9207789234000816,0.0076319165235122,2998.7003625478264
1536,512,1440.519095459859,2070810,198742,37011456,33700168,0.6766168144352779,0.2547585159816314,0.9600218305456598,1536,0,1,1,3123.57518041378,0.9260644593946707,0.0137185210303112,2998.7003625478264
2048,1024,753.3648101274863,1707722,137264,42913792,34240024,0.7137856818420557,0.248813895405434,1.0,2048,0,1,1,1530.3810285076554,0.817343851925094,0.0255543698901462,2998.7003625478264
2048,128,2225.5073205869603,2067451,168257,36749312,33551496,0.49589918791755067,0.0438518472470284,0.208320547835148,2048,0,1,1,14394.645145234605,0.9120661703816004,0.0107159622749912,2998.7003625478264
2048,1536,343.13945006422534,1675117,110107,52744192,34765480,0.7131549549165512,0.3273182315718211,1.0,2048,0,1,1,909.5763863825272,0.6748228787071612,0.037563516682732,2998.7003625478264
2048,2048,280.011852279674,1583706,89314,52482048,36663080,0.6109808168760287,0.2376651659317851,1.0,2048,0,1,1,696.7889845450254,0.7148997388615582,0.0653476108243949,2998.7003625478264
2048,256,2609.565626683067,2101435,168966,36487168,33829456,0.587457725223019,0.0858769186700005,0.3690218062917776,2048,0,1,1,8126.079032242389,0.9217172589547772,0.009352084272166,2998.7003625478264
2048,512,1322.7680194279628,2229037,203345,36225024,33225568,0.7180926067075749,0.219284924008746,0.9591501991996413,2048,0,1,1,3126.413741090894,0.9213232407413172,0.0110762925547223,2998.7003625478264
256,1024,772.991733053954,1888867,151303,43175936,34418936,0.7533828780487527,0.2463774103804428,1.0,256,0,1,1,1512.3412342849147,0.8283526474426683,0.0250597037311186,2998.7003625478264
256,128,3777.742544454504,2128667,141442,36487168,33722152,0.6129653990187657,0.1698839092693066,0.21939604078501176,256,0,1,1,13667.978473167987,0.9181560691112296,0.0092713295883482,2998.7003625478264
256,1536,505.5548588238779,1678987,130413,51957760,34398240,0.6689563638980534,0.2914190453792533,1.0,256,0,1,1,1277.0204909490599,0.6778678707672764,0.0525272500834868,2998.7003625478264
256,2048,339.1323685293904,1581152,146373,52744192,32378400,0.6593203603770217,0.3218296993174863,1.0,256,0,1,1,865.8283687605852,0.7046468912313626,0.044297118653514,2998.7003625478264
256,256,3407.2179797417743,1924932,156698,35962880,33126032,0.4596651914273628,0.0363517894925087,0.27444816160160296,256,0,1,1,10926.29057905962,0.9168006679714652,0.0099173622412062,2998.7003625478264
256,512,1557.3229482056536,2234982,242323,36749312,33360648,0.6607336888344052,0.2672731353177574,1.0,256,0,1,1,2917.3074142952087,0.9252812824151164,0.0132155823090832,2998.7003625478264
512,1024,677.3385085896217,1621956,124067,42651648,35801144,0.7247340047036321,0.2395236530395637,1.0,512,0,1,1,1442.6197787411713,0.8143267050843234,0.0368051525027787,2998.7003625478264
512,128,1245.5784356773806,1855278,180968,35962880,32285688,0.650783070259527,0.0726676242876739,0.2942225786417067,512,0,1,1,10191.94507910126,0.9174150093915856,0.0103417811012026,2998.7003625478264
512,1536,518.0340355427313,1627951,128094,51957760,34889816,0.7719041318597853,0.3864622455987543,1.0,512,0,1,1,1216.412498346222,0.6833133760581593,0.0626490820643417,2998.7003625478264
512,2048,386.2015245927894,1513701,83749,52219904,34004048,0.6664472760119498,0.2672139733812659,1.0,512,0,1,1,895.439085099433,0.7254045631737236,0.0416243405753599,2998.7003625478264
512,256,3141.7551683430543,1805179,112107,35962880,32920880,0.4687602181588188,0.0341422182138768,0.2738492989610261,512,0,1,1,10950.184550133166,0.922871607809542,0.0106116558015082,2998.7003625478264
512,512,1245.1976962334472,2201984,190209,36487168,32969424,0.7033270683192249,0.2601317885242207,1.0,512,0,1,1,2989.971482870053,0.9255749521523642,0.0136036304022273,2998.7003625478264
