cpu,memory,duration_std,userDiff,sysDiff,heapTotal,heapUsed,avg_cpu_util,cpu_util_std,slo_preservation,total_cpu_shares,cpu_shares_others,num_containers,arrival_rate,latency,memory_util,memory_util_std,slo_duration
1024,1024,71.53015286608161,291358,28905,39432192,29966256,0.9980958384522934,0.1557995723676554,0.725680450688977,1024,0,1,1,277.4359324827072,0.7779185272978223,0.10849442568938,201.32983252136756
1024,128,286.15901702839017,317022,46459,33005568,30037752,1.0369070916667935,0.3666871868740596,0.4349109374236763,1024,0,1,1,462.9219805645828,0.8756361645869583,0.0495151401986638,201.32983252136756
1024,1536,46.89180360353554,224023,39818,72744960,55179224,1.1437239180508179,0.1917668972257832,1.0,1024,0,1,1,199.29862683008378,0.6953321888103479,0.1042364145722858,201.32983252136756
1024,2048,26.257308707570367,242063,30897,50573312,30135104,1.350452096567504,0.1723629399921798,1.0,1024,0,1,1,145.04506931998358,0.6713709481171921,0.1332789098093637,201.32983252136756
1024,256,67.50037595154484,286847,61035,32743424,30015112,0.9002377613296922,0.1198392563893632,0.5301385281114204,1024,0,1,1,379.7683470367459,0.8768057719162092,0.0801264658501121,201.32983252136756
1024,512,80.81115630677175,324728,19135,32481280,29912336,0.8389549171578702,0.1272365061778866,0.4784243261743869,1024,0,1,1,420.81855270875656,0.8858118180183354,0.0476028213878524,201.32983252136756
128,1024,80.89314616154203,246140,39370,37597184,30290872,1.00563124377191,0.2196438027949088,0.7235484746412847,128,0,1,1,278.2534129744124,0.802813316977808,0.0928264971079892,201.32983252136756
128,128,286.9837905484322,342888,56547,33529856,29886288,0.780990537480596,0.233840429504466,0.33672921366084174,128,0,1,1,597.8983240941777,0.8807341226104596,0.0658522363954401,201.32983252136756
128,1536,36.48740740036896,197703,33092,72220672,55174736,1.067626905235459,0.1919722895132126,1.0,128,0,1,1,198.81562532664682,0.722004408836194,0.0675225907792399,201.32983252136756
128,2048,27.76918923047912,266313,22875,50835456,30467688,1.300752658888542,0.2315623309725185,1.0,128,0,1,1,133.0272286035451,0.7225768823424839,0.1031607364583377,201.32983252136756
128,256,79.25739332797757,339142,30493,33005568,29882600,1.019819122777253,0.2612607499669531,0.6127897460390251,128,0,1,1,328.5463469693013,0.8901665430684073,0.0649839089836906,201.32983252136756
128,512,77.67689876708675,298778,34199,33267712,29806608,0.915235509813391,0.2411563606126879,0.5058768881010767,128,0,1,1,397.98187514971204,0.8745496497632337,0.0626408918440357,201.32983252136756
1536,1024,76.02495145606636,195748,21233,51228672,30323040,0.9946080858651701,0.2357689324977909,0.6580899510592203,1536,0,1,1,305.93056799806726,0.7832251257135672,0.1088105212017056,201.32983252136756
1536,128,339.50647372445843,371535,71418,32743424,30359040,0.7629522039892117,0.2874810381303099,0.32393432743611883,1536,0,1,1,621.5143486485563,0.8883318228944476,0.0398514968738686,201.32983252136756
1536,1536,32.32157237101772,186902,11221,72744960,55173936,1.2412424955298,0.2003942107303388,1.0,1536,0,1,1,171.6729374189379,0.7090648734354515,0.1251945844372841,201.32983252136756
1536,2048,25.765533035277333,231146,44227,50835456,30074456,1.3315024416166872,0.2502765499642024,1.0,1536,0,1,1,136.0915689442288,0.7296926939727523,0.1220876015960588,201.32983252136756
1536,256,55.069730426932445,253625,38125,33005568,29698496,1.056957281172266,0.2518421183465588,0.6239706401182464,1536,0,1,1,322.6591438392266,0.8958142379219481,0.048004055806504,201.32983252136756
1536,512,52.44022154943463,256779,27421,33267712,29962472,1.0659566160519287,0.1974725115010565,0.6129655857520042,1536,0,1,1,328.45209780312575,0.8553736112499891,0.0711926982737976,201.32983252136756
2048,1024,80.70203347130916,195934,45126,37597184,30303416,1.0018001159826735,0.2005539053618429,0.6905863763766038,2048,0,1,1,291.5346137838875,0.7751345659723715,0.0985656370085802,201.32983252136756
2048,128,252.0398552238068,245416,65313,33005568,30302448,0.8506560886719086,0.2669702312296224,0.38475393219713727,2048,0,1,1,523.2690706282677,0.8804701023602949,0.0443908989813921,201.32983252136756
2048,1536,54.25674889848026,252818,31370,51359744,30569624,1.1997839369892407,0.2237041703647782,1.0,2048,0,1,1,196.26869721908946,0.7152516538966817,0.1193710931812134,201.32983252136756
2048,2048,29.830741624688,280796,32951,50573312,31195512,1.3483676318910667,0.2261942807668103,1.0,2048,0,1,1,141.59851079194598,0.6987468363178458,0.1355363618740383,201.32983252136756
2048,256,49.65994754633034,302602,47514,33267712,29678352,1.271297097311041,0.2380847711703831,0.888850972995182,2048,0,1,1,226.50572327433213,0.8801319513124544,0.0673601945582203,201.32983252136756
2048,512,40.24392909503556,122185,32533,32743424,30139016,1.0218940647700927,0.1375659365580914,0.6344770269074533,2048,0,1,1,317.31618952806326,0.8928323966141558,0.0486820081941098,201.32983252136756
256,1024,74.7168200071023,235239,57048,39956480,29881600,0.9321342110372126,0.1854722779267665,0.6856582593033265,256,0,1,1,293.6299968528518,0.7855713027055584,0.1006766187336177,201.32983252136756
256,128,200.91957521943755,279398,27999,32481280,30217872,0.9279706267101936,0.2728950627934868,0.44259477678110426,256,0,1,1,454.88524285260604,0.8993988886307908,0.0370521063342997,201.32983252136756
256,1536,44.40935799894288,166761,44623,73007104,55209344,1.2220464277164373,0.3052635104051874,1.0,256,0,1,1,180.4512036205357,0.7490631837270103,0.1023578010577142,201.32983252136756
256,2048,26.36287276663097,211963,61563,50049024,30028384,1.3204545910734857,0.2574950454642602,1.0,256,0,1,1,141.2628652009139,0.6925445077353352,0.1160825920523227,201.32983252136756
256,256,53.05644563180056,329466,55246,33005568,29863432,1.0386646033416738,0.1924797169755617,0.6131680525366561,256,0,1,1,328.34364362016686,0.874873079718463,0.0646458678166026,201.32983252136756
256,512,72.37284237402145,253630,34880,33267712,30125160,0.8929192799566467,0.1445117104527335,0.5092844865829146,256,0,1,1,395.3189971919356,0.8798164983529373,0.0600916533359799,201.32983252136756
512,1024,57.65486845344917,125027,31296,40480768,30463416,1.001834209863171,0.1471970215144599,0.7158687884852705,512,0,1,1,281.23845564962784,0.7808291825833898,0.0958924165903262,201.32983252136756
512,128,276.43521999042963,234605,85706,33529856,29981768,0.7818926101086968,0.2469029461023801,0.34487453775216487,512,0,1,1,583.7770275347148,0.8520415686793039,0.0713286561055034,201.32983252136756
512,1536,46.91254022928881,296906,35233,48738304,29918680,1.229436119317017,0.3054868418619034,1.0,512,0,1,1,187.78125846086306,0.7069587204468524,0.1173950325296474,201.32983252136756
512,2048,21.224491269082936,218839,37003,50049024,30015416,1.3446832707691252,0.2254243719834071,1.0,512,0,1,1,122.01220339496157,0.7271898762501265,0.1213451529766102,201.32983252136756
512,256,56.49190341586984,200152,19022,37986304,30233352,1.029209238395647,0.1725579101537555,0.6268332480101214,512,0,1,1,321.1856313628672,0.8723636378823494,0.0576790223316498,201.32983252136756
512,512,76.93489547299477,270230,44670,33005568,29876880,1.0463248314702631,0.2840358116554136,0.5592741133061245,512,0,1,1,359.98417901235416,0.8936747370990709,0.0486542427582905,201.32983252136756
