cpu,memory,duration_std,userDiff,sysDiff,heapTotal,heapUsed,avg_cpu_util,cpu_util_std,slo_preservation,total_cpu_shares,cpu_shares_others,num_containers,arrival_rate,latency,memory_util,memory_util_std,slo_duration
1024,1024,45.63730577888786,86994,8879,30318592,24905344,0.8972257064061762,0.141166789606075,1.0,1024,0,1,1,166.76402176612177,0.6671787538811285,0.0545164655639899,172.04777150833334
1024,128,187.6238163051579,83668,11198,24412160,21074160,0.4614423528858207,0.1370486131145517,0.3438744626883373,1024,0,1,1,500.3214549963975,0.8637999835755517,0.0092270769350096,172.04777150833334
1024,1536,42.64667717034117,46544,25,39366656,24623424,0.946335297554669,0.1189305275707614,1.0,1024,0,1,1,149.81532572330832,0.5212483377488251,0.0635125737250064,172.04777150833334
1024,2048,32.443739083670884,33017,22,39104512,24461544,0.9725631568069582,0.1490098858173157,1.0,1024,0,1,1,111.52516094701792,0.5313184676661722,0.0511613924018141,172.04777150833334
1024,256,129.58119084720914,125899,2867,24412160,21036152,0.612058368022135,0.256816936493014,0.41567676516595864,1024,0,1,1,413.8979753646885,0.8659735662317161,0.0122341857038016,172.04777150833334
1024,512,69.47851846816832,151971,471,24412160,20799776,0.7682577091522632,0.2232778944867,0.8021290952520712,1024,0,1,1,214.48888031454197,0.8678031396541153,0.0109726710313819,172.04777150833334
128,1024,44.19177652520708,76672,8075,25006080,15331736,0.8502259010278335,0.1439641002518534,0.9521721353342671,128,0,1,1,180.68977774479262,0.667127685514286,0.0383622371068696,172.04777150833334
128,128,333.7409998717491,97421,27,24674304,21112704,0.7549022938969498,0.3506878750837667,0.38406289593958065,128,0,1,1,447.9676983308465,0.857941358304128,0.0094975198595836,172.04777150833334
128,1536,41.13150949838542,87702,15254,38576128,25158472,0.8995684886153106,0.140717558689906,1.0,128,0,1,1,150.3529419034973,0.572452816764639,0.0993964697350906,172.04777150833334
128,2048,28.882926618646007,122291,8394,39100416,24736272,0.969189973857604,0.1458229108402433,1.0,128,0,1,1,109.52487280561638,0.531621094048339,0.0526594609134047,172.04777150833334
128,256,149.27979960908002,54910,4314,24674304,21199936,0.5853343549520732,0.2200484530809885,0.41258701490986244,128,0,1,1,416.9975430417278,0.8633595803083312,0.0130042218421751,172.04777150833334
128,512,88.83399064466268,36804,8916,24674304,21263888,0.5653352196051988,0.1284894631292716,0.5946885826245961,128,0,1,1,289.30733922790046,0.8729579499714945,0.0154676301009316,172.04777150833334
1536,1024,62.17498089210056,133139,3329,30584832,24509184,0.8580135935155683,0.1464814236069671,0.860436930284001,1536,0,1,1,199.9539599625811,0.6683593585503137,0.0487870008872691,172.04777150833334
1536,128,188.5188027379662,110758,2507,24674304,21236232,0.5731546485401383,0.3161914068953208,0.33185820257905646,1536,0,1,1,518.4376042877756,0.858524396519115,0.0124245831247196,172.04777150833334
1536,1536,32.901850118292025,89897,30,38838272,24731568,0.9440494893502015,0.1206373494591264,1.0,1536,0,1,1,132.31089325770066,0.530377836035142,0.0521387744573959,172.04777150833334
1536,2048,28.624422220542467,31598,11877,39366656,24464720,0.9463396133236157,0.1022699627879911,1.0,1536,0,1,1,120.41055391690145,0.5209931353608392,0.0535760435512471,172.04777150833334
1536,256,100.8334194223334,85592,5839,24674304,21096440,0.7507177695752267,0.2762068578261114,0.5844343167472051,1536,0,1,1,294.3834175684655,0.8622229834739639,0.0132131154208361,172.04777150833334
1536,512,67.24701048035145,83006,4191,24412160,21086216,0.5777234854223318,0.0867263526085771,0.529486759706764,1536,0,1,1,324.933094840021,0.8704035279993484,0.0148491460298814,172.04777150833334
2048,1024,44.38840838678225,143489,7960,30322688,25014832,0.8809450522669808,0.1267987388066362,0.8653011707921656,2048,0,1,1,198.82993033607838,0.6765239690665097,0.0541898259947161,172.04777150833334
2048,128,148.5279464070636,48335,3565,24412160,21092056,0.631617827566335,0.2366066696556546,0.44967344918758745,2048,0,1,1,382.6060262600945,0.8586165907538925,0.0108221361929171,172.04777150833334
2048,1536,33.487687571970284,51717,7952,39104512,24628176,0.9303762860674513,0.1463290605617083,1.0,2048,0,1,1,147.4104627133791,0.5566025785770595,0.0688558185870371,172.04777150833334
2048,2048,29.5335449116268,101048,5217,39100416,24769208,0.9838353279335155,0.0996434825536819,1.0,2048,0,1,1,97.79712032096509,0.5360711234354983,0.0556864109372299,172.04777150833334
2048,256,92.0820382864965,58184,1351,24412160,20786832,0.8865466244084425,0.2996285452342517,0.7928041109424773,2048,0,1,1,217.01170457328323,0.8608627840866829,0.0121278620408447,172.04777150833334
2048,512,88.17815896513842,142933,5481,24412160,21123528,0.5585053040216318,0.1069941296042736,0.5892481586701402,2048,0,1,1,291.9784626847604,0.8663934984525282,0.0144916990721297,172.04777150833334
256,1024,56.93592355017919,125594,25,25268224,15503944,0.8280450155390943,0.1211792722744075,0.9240890979781755,256,0,1,1,186.18093415965896,0.6628290298442613,0.0425633526055622,172.04777150833334
256,128,218.2125097667473,119833,20,24674304,21185488,0.5603278903888725,0.2406268204336287,0.34715912430085183,256,0,1,1,495.5876411280347,0.8588379733606442,0.0105714699482083,172.04777150833334
256,1536,38.59854333379173,92146,32,38576128,25409928,0.9137844717793621,0.1488547644549541,1.0,256,0,1,1,159.5291793368672,0.6114675573166647,0.1008520015927009,172.04777150833334
256,2048,25.160820965600635,34999,3843,39100416,24872520,0.9816704606474076,0.0702348576969146,1.0,256,0,1,1,97.1838223046319,0.5376545287163832,0.0536569032801354,172.04777150833334
256,256,166.09885925257632,97380,7210,24674304,20789912,0.5318407800096948,0.214891886354673,0.3826293239251688,256,0,1,1,449.6460693168956,0.8615554665479077,0.0115523050278549,172.04777150833334
256,512,71.50870815307813,53589,3665,24674304,21077568,0.6167003003863474,0.1132935822522676,0.5402507662212824,256,0,1,1,318.4590976366407,0.8703856143179479,0.0131157944898418,172.04777150833334
512,1024,66.4867783915114,137547,45,25006080,15398832,0.8114235159129956,0.1392806224836199,0.8248414713758411,512,0,1,1,208.58283376726502,0.6663750297062461,0.0410376578874468,172.04777150833334
512,128,203.20287853924063,95817,4954,24412160,21216920,0.7055475539064912,0.2774830970302274,0.4810016090805765,512,0,1,1,357.6864780914116,0.8600428391679014,0.0105478365430611,172.04777150833334
512,1536,52.54493437267126,41345,30,38576128,25214712,0.9198416060608876,0.1386683087457826,1.0,512,0,1,1,150.19914413510108,0.5744295566650915,0.101302949258953,172.04777150833334
512,2048,33.64139158205953,67370,3678,39100416,24699120,1.000645318292856,0.0298556819821386,1.0,512,0,1,1,126.15011927961707,0.5363222293349498,0.0558408331254194,172.04777150833334
512,256,406.614973264091,149214,1945,24412160,21113288,0.5926755578975567,0.3478946144116541,0.2781662029061255,512,0,1,1,618.5071001109196,0.8563705835285248,0.0277817304570755,172.04777150833334
512,512,91.17309488034182,108810,5401,24674304,20911176,0.6856935928203931,0.2627885595520373,0.601451974416998,512,0,1,1,286.0540472497466,0.8667427503992775,0.0159743259631411,172.04777150833334
