cpu,memory,duration_std,userDiff,sysDiff,heapTotal,heapUsed,avg_cpu_util,cpu_util_std,slo_preservation,total_cpu_shares,cpu_shares_others,num_containers,arrival_rate,latency,memory_util,memory_util_std,slo_duration
1024,1024,153.3712689244171,274999,61847,36810752,30553856,0.6248164840342241,0.1784818877790842,1.0,1024,0,1,1,555.8104449319833,0.7390797697804812,0.1154477993930775,799.4669030796458
1024,128,504.44885205360913,430899,46080,32481280,30217992,0.34071857163837876,0.0611651304354296,0.5207329760545656,1024,0,1,1,1535.2722793493162,0.9180624915196502,0.0085698552724073,799.4669030796458
1024,1536,182.9858615779526,220242,53292,39555072,15560416,0.6312471468991606,0.3284163344853714,1.0,1024,0,1,1,502.103505629442,0.6423701511194035,0.1655276366903122,799.4669030796458
1024,2048,177.63256384485734,307595,23451,48738304,29958896,0.5772319826408004,0.2550334902437056,1.0,1024,0,1,1,550.4207316162406,0.6478566807204915,0.1465421768937478,799.4669030796458
1024,256,400.37226547996966,443993,46490,33267712,30318920,0.3899312879038168,0.1358305062287021,0.6410631389355982,1024,0,1,1,1247.09541778842,0.9189595161565626,0.011009220705833,799.4669030796458
1024,512,199.75910495263585,381750,46138,32481280,30429288,0.37724879061379657,0.0557689158531981,0.7220485640458486,1024,0,1,1,1107.2204044005014,0.8767751028379716,0.0799588784639598,799.4669030796458
128,1024,201.00674531830023,422882,47970,39432192,31681784,0.507198863273524,0.199953466693498,1.0,128,0,1,1,672.3490077051927,0.7537861635554923,0.1184615998712611,799.4669030796458
128,128,757.0770094769498,349127,53641,32219136,29866480,0.37614288206914187,0.1579562714624744,0.5029381844773315,128,0,1,1,1589.5927725401798,0.9189180785774224,0.010142318528898,799.4669030796458
128,1536,150.58123768787178,236892,38887,49786880,30312760,0.6954057565618382,0.355868343293065,1.0,128,0,1,1,431.63937153767176,0.6062479405698468,0.1660076390542154,799.4669030796458
128,2048,153.21512473656466,302442,35643,49524736,30428472,0.5986753485955466,0.2823104168813043,1.0,128,0,1,1,456.561631998695,0.5872076264631764,0.1646829865395124,799.4669030796458
128,256,507.4694075591223,374814,65970,32481280,30280584,0.25264756689530354,0.0473914575246618,0.45634048365305097,128,0,1,1,1751.9087867897097,0.9062752985376316,0.046968550603456,799.4669030796458
128,512,302.3010077664248,361234,50998,32743424,30561688,0.43080945768357176,0.1022798519113598,0.7549217820750341,128,0,1,1,1059.00627331506,0.8759965038662554,0.0670119141950934,799.4669030796458
1536,1024,197.60254422758877,414588,37357,39694336,31063680,0.6171225820244919,0.2053606228893653,1.0,1536,0,1,1,537.9442584239757,0.699344625004044,0.131907237512546,799.4669030796458
1536,128,1230.9473824044844,405083,38478,32743424,29617800,0.34988325768157447,0.1569728594286278,0.40732694320826934,1536,0,1,1,1962.7154952793592,0.9231693976684624,0.0098508194313413,799.4669030796458
1536,1536,149.3988075452172,300478,36240,50573312,30394960,0.6444851044813499,0.2946357106079341,1.0,1536,0,1,1,463.87290097517536,0.6330378096496976,0.1668984063541001,799.4669030796458
1536,2048,146.25169703915438,338970,53431,50311168,30420336,0.6413539785512103,0.2517974376376832,1.0,1536,0,1,1,438.1633957910125,0.5605144808111552,0.1666884211519624,799.4669030796458
1536,256,356.48383117289313,368209,34462,32743424,30243448,0.40018949363251843,0.169550143129217,0.6776925112125906,1536,0,1,1,1179.6897410732267,0.8944165411050269,0.0688032198828464,799.4669030796458
1536,512,188.97464277844404,384389,24175,32743424,30230680,0.4257286283835093,0.0968781689184354,0.8352345000458652,1536,0,1,1,957.1765809910207,0.9020875979933368,0.0461553874216454,799.4669030796458
2048,1024,135.34287205601953,369658,50580,29462528,15368056,0.5989920879252306,0.2221362832878046,1.0,2048,0,1,1,641.6936250272282,0.6908047972448123,0.1529418266266713,799.4669030796458
2048,128,450.6961100890854,317769,72589,32481280,29670552,0.47233346249228136,0.1329945524003711,0.6771958308876201,2048,0,1,1,1180.5549689101917,0.9185257171030172,0.0107164754559565,799.4669030796458
2048,1536,175.22569498346758,323598,38622,50049024,29838912,0.7612271532911138,0.3498918051022473,1.0,2048,0,1,1,445.87089926363416,0.679911044828298,0.1533828931073965,799.4669030796458
2048,2048,169.41294981325228,310765,47507,49000448,29954768,0.6094040942962253,0.3289945590352862,1.0,2048,0,1,1,495.31057768119103,0.6325497914809934,0.1870346674050354,799.4669030796458
2048,256,269.305944121505,256581,29321,32743424,29811336,0.4568627219019313,0.116819358894419,0.7824698038859549,2048,0,1,1,1021.7223707666146,0.910194593524026,0.0293195257628384,799.4669030796458
2048,512,215.2461609865282,444416,59196,33267712,29875072,0.45011266411252493,0.1012446423643035,0.8713053736823173,2048,0,1,1,917.5507545660287,0.8953059358610524,0.0549876875885178,799.4669030796458
256,1024,172.20219228548086,285086,49158,38121472,30546568,0.638950423635178,0.2009654459685573,1.0,256,0,1,1,577.4138768175694,0.6840518554265596,0.1494478077313285,799.4669030796458
256,128,1032.1750595417525,438757,74206,32743424,29713384,0.41352891647248885,0.1694580438559383,0.47000352021695724,256,0,1,1,1700.9806707630737,0.9166775724547588,0.011320750447626,799.4669030796458
256,1536,146.57577900210407,378311,42486,50049024,29999672,0.5488341574838997,0.264984912004283,1.0,256,0,1,1,570.6443896530216,0.7133020198471162,0.1426402445778047,799.4669030796458
256,2048,134.42173733207082,320954,52879,49786880,30418040,0.5687060301265016,0.2300559246454858,1.0,256,0,1,1,508.4014730957958,0.6111624014889958,0.1710804399823348,799.4669030796458
256,256,441.1332148136004,282782,46091,32743424,30138864,0.29054554968152,0.0915214124335618,0.48012977873289703,256,0,1,1,1665.105849484084,0.9131671660675036,0.0348861870578351,799.4669030796458
256,512,235.06876822089168,314135,26277,32743424,30473784,0.415294847548888,0.0866649163838193,0.7656080018999278,256,0,1,1,1044.2248527911072,0.8959043950843061,0.0540551090608237,799.4669030796458
512,1024,145.0608660057534,287292,52400,39694336,31582704,0.6127382283196104,0.1833908119853876,1.0,512,0,1,1,568.1612250568749,0.7202574047390069,0.1333897526536673,799.4669030796458
512,128,686.2675609506704,296202,81944,33005568,29593840,0.290508827013248,0.1065644182140049,0.4115269592583789,512,0,1,1,1942.6841549345427,0.9205362983911808,0.0116662751534741,799.4669030796458
512,1536,164.68412504419717,318957,41152,50311168,29907520,0.5695837647961447,0.2553689449107511,1.0,512,0,1,1,533.0690423754103,0.6758015718011411,0.1534893620002167,799.4669030796458
512,2048,149.1721802534165,212251,37859,36933632,15578616,0.6372820062659366,0.2766449089093212,1.0,512,0,1,1,471.17762639250645,0.5631745815309668,0.1700667418746465,799.4669030796458
512,256,400.7705218664981,301370,37293,32481280,30358352,0.32862127820860837,0.1116189954710552,0.5588923652074873,512,0,1,1,1430.448781999099,0.9219904723774128,0.010883389843384,799.4669030796458
512,512,252.34854174656653,386444,49328,32481280,29824704,0.4127111763537946,0.1043939208155116,0.7835414741387925,512,0,1,1,1020.3249342459598,0.910904562147888,0.0297512451123745,799.4669030796458
