0.2251298570651484
0.18156136319697547
0.15563101893385312
0.11239237262664246
0.09456209246208855
0.08625637185270371
0.07858449333599983
0.07296695417695682
0.06778792691023282
0.06559874886600192
0.06355423841095549
0.06094921782702281
0.0573869040131569
0.056381080065444636
0.05481058092367508
0.05445363227856233
0.052344464594425606
0.051753785296648744
0.050345912403758894
0.04876723618692758
0.04755962218862517
0.04672720733257979
0.04600940949961091
0.04496721757231894
0.04504217394271541
0.045360500515563035
0.04511864612552874
0.04411489610824739
0.043841692086846726
0.04290135876841423
0.0425409497378404
0.041470059927359304
0.04090206537364038
0.04058581692058347
0.03974067940861228
0.04016307198157991
0.03918695012519245
0.039656308289341795
0.03909350430513046
0.03917039688278946
0.03836309932646682
0.0378220239203607
0.03738202335559533
0.0368071280403208
0.03671187235634741
0.03624413397613329
0.036029605994569405
0.03570745817064611
0.035570515333565346
0.035713105222442025
0.03506527520760037
0.03543724656216737
0.035028041663625845
0.034625880904018504
0.03403878717070538
0.034278159339998386
0.03407678385618385
0.03352103631787747
0.032911555684691556
0.03317851486620073
0.0332265401726336
0.03346269346153035
0.033225425879672865
0.03274078608703828
0.03244786349338021
0.031717577012926906
0.03201749364003727
0.03146899334070879
0.03170045784644469
0.030583758078844447
0.03119655878987735
0.03042354829615292
0.03129626901245652
0.030514983141435324
0.030610066171074233
0.03005104197790529
0.029972168826507686
0.03058316443373046
0.03057547967098717
0.03056679777724139
0.029921123311382507
0.02968937253826571
0.029858948677480793
0.03004482840663185
0.02988377186065362
0.029490802658532163
0.0293961111047814
0.02940601939860312
0.02932266260172287
0.028793195728461795
0.02843333546595204
0.028372645093083838
0.02805112281740795
0.02802987822346555
0.027764148974479087
0.027933823026271284
0.028120307051417968
0.028240256734592566
0.02808264040449296
0.02783010195335707
