cpu,memory,duration_std,userDiff,sysDiff,heapTotal,heapUsed,avg_cpu_util,cpu_util_std,slo_preservation,total_cpu_shares,cpu_shares_others,num_containers,arrival_rate,latency,memory_util,memory_util_std,slo_duration
1024,1024,132.2310360753029,326834,56816,39432192,29894032,0.5247140996253664,0.2179484531820507,0.7228488706060083,1024,0,1,1,593.1529049140486,0.7313460753219186,0.1315048228635707,428.7599074137931
1024,128,199.9814046303909,260782,54561,32743424,30076320,0.59998438700044,0.170804646098441,0.6946409963913746,1024,0,1,1,617.2395663964256,0.8461358261790971,0.0906664407507409,428.7599074137931
1024,1536,135.12996299941491,183970,51429,36409344,15544416,0.6187266303447436,0.2276179528151416,0.9134563447813259,1024,0,1,1,469.3819358345305,0.5835178708087332,0.1621896154558368,428.7599074137931
1024,2048,137.3546366215196,254044,30566,50311168,29985824,0.5762947796587685,0.2147579738941358,0.8646018698332841,1024,0,1,1,495.90444153962824,0.5857431729987059,0.1731678584550438,428.7599074137931
1024,256,132.76354309396802,245806,15191,33005568,29657368,0.7599407945632819,0.2646678114593892,0.8846163029082785,1024,0,1,1,484.6846095919725,0.8145952345882721,0.0969144247244226,428.7599074137931
1024,512,120.1268452395215,270198,31490,21725184,15282624,0.5958490663250468,0.1705063847147925,0.7353865582444156,1024,0,1,1,583.0401747311909,0.8464817408625886,0.1048139122133595,428.7599074137931
128,1024,144.5990734186704,271124,49030,38907904,30163288,0.5734402090455822,0.2027026780225262,0.6930285304810114,128,0,1,1,618.6756945146299,0.7641557096088505,0.1158453572675085,428.7599074137931
128,128,174.3695868427415,239461,53723,32481280,29842280,0.6061855188650721,0.219921967251281,0.6695792630366149,128,0,1,1,640.342273249802,0.866335684351367,0.071336863564595,428.7599074137931
128,1536,153.38307043986626,223347,27416,47689728,30216696,0.5995197572293183,0.3310166547981049,0.7987121283987653,128,0,1,1,536.8140687601157,0.5826252298966852,0.1662607632279938,428.7599074137931
128,2048,143.07731884724706,250070,23648,50311168,29972760,0.6173187685693614,0.3022565579935414,0.9368352331298796,128,0,1,1,457.6684269029315,0.5986229433362182,0.1742707915790055,428.7599074137931
128,256,94.75456758409052,276221,39310,32743424,29626696,0.5718496978181445,0.1063199309325356,0.7138186994988671,128,0,1,1,600.6565920937653,0.8235133733298685,0.1172222323804074,428.7599074137931
128,512,191.16056692625372,303565,26870,33267712,29688152,0.6850535952194559,0.2577338168492832,0.8498107815393265,128,0,1,1,504.53573516347706,0.8775658387240753,0.0518101032835381,428.7599074137931
1536,1024,148.0225827399513,246080,22354,39170048,29994312,0.6936310240996124,0.3035730880502327,0.9193871545070473,1536,0,1,1,466.35403302288205,0.7056045621161604,0.1386881478895625,428.7599074137931
1536,128,168.13319033956657,251024,58840,32743424,30070040,0.6784808852231625,0.2827261832853094,0.7409009129357265,1536,0,1,1,578.7007411218945,0.8237484337471037,0.0817173392969366,428.7599074137931
1536,1536,127.86442130760832,223309,55784,50311168,29847472,0.690074165495855,0.4251855162538922,0.9461963686767058,1536,0,1,1,453.14051248519513,0.5721448704431273,0.1600105271161872,428.7599074137931
1536,2048,153.20794648738467,262804,52606,50573312,31157232,0.7738228342983493,0.4804391277238247,1.0,1536,0,1,1,410.77829183544657,0.6271245722085814,0.1633617740064796,428.7599074137931
1536,256,173.88149960324003,286934,30680,33005568,29646856,0.712852217917848,0.3350530856420029,0.7677281959780423,1536,0,1,1,558.4787815010196,0.8816696899248939,0.0583715549228846,428.7599074137931
1536,512,132.79074633204266,260181,21104,32743424,29618240,0.6417701709773255,0.1970369559496819,0.8110529467016818,1536,0,1,1,528.6460139962944,0.8739476057330086,0.0771296672967549,428.7599074137931
2048,1024,194.39569448355084,269735,25786,38121472,30294384,0.5747559199561911,0.1800570099567862,0.7804390083154612,2048,0,1,1,549.3829791251081,0.7147438778294021,0.128089038616821,428.7599074137931
2048,128,468.3066752543523,212785,41778,33529856,29897824,0.489147860376685,0.1733845655417206,0.49835201580896615,2048,0,1,1,860.3555194169218,0.8664100943082668,0.083761452708261,428.7599074137931
2048,1536,154.88331599107025,296613,35872,50049024,29970912,0.6988541422005742,0.4156038002347291,0.9539403475018696,2048,0,1,1,449.46196954202395,0.5937901313182034,0.1606819159366618,428.7599074137931
2048,2048,122.36202067100636,285000,24422,50573312,30615848,0.4958604966466838,0.2025080890661088,0.8229951293888467,2048,0,1,1,520.9750241562045,0.5951555747582238,0.1535432568600012,428.7599074137931
2048,256,131.15446838425905,332547,16513,32743424,29845192,0.6159070446478699,0.2062550613584972,0.7268275822712656,2048,0,1,1,589.9059390040758,0.8437960821156534,0.0974973570126726,428.7599074137931
2048,512,124.93571090849883,213308,27657,33005568,29929912,0.589180743693797,0.1767172491084482,0.7846482172119701,2048,0,1,1,546.4358396649043,0.8529949564794699,0.0915202379164006,428.7599074137931
256,1024,118.19230094877967,253004,49698,39432192,30208584,0.5930967878154328,0.181368336777197,0.7646094746739807,256,0,1,1,560.756728258711,0.6837364229103284,0.1533519402807736,428.7599074137931
256,128,224.2374857758695,264308,35485,33005568,30357152,0.6078409029560699,0.1681718118162458,0.6632495490279037,256,0,1,1,646.4533719505848,0.8396717522693247,0.0985327217055281,428.7599074137931
256,1536,159.94804904116774,305754,26664,51621888,31177152,0.6974127596357718,0.3535724772787106,0.9311805574527506,256,0,1,1,460.44765860089274,0.5377095437560299,0.1596008693750417,428.7599074137931
256,2048,124.6975947402568,250406,17986,50573312,29981352,0.5832674581799803,0.2241786884570245,0.9592316604919581,256,0,1,1,446.98264775153103,0.5852641446420552,0.1744232058068234,428.7599074137931
256,256,121.08328255141816,267504,58987,32743424,29635592,0.6777935410045138,0.2138737760304699,0.8755010822013115,256,0,1,1,489.7308708468331,0.8439732706834671,0.0725993475639148,428.7599074137931
256,512,156.5163499406165,300514,33220,33267712,29713632,0.7076188915377429,0.251343456977547,0.7987646198376309,256,0,1,1,536.778791605654,0.8601689063950445,0.0609901397704174,428.7599074137931
512,1024,154.2790271548495,244313,35159,38645760,30208928,0.5682628971197837,0.2564061298663257,0.6914609298640312,512,0,1,1,620.0782848252965,0.7379080057810499,0.1377360515165015,428.7599074137931
512,128,611.7855346356212,230654,45479,33005568,29660584,0.5050157426957698,0.1916476920043599,0.4461495669523947,512,0,1,1,961.0228030537187,0.8771390561716813,0.078475466388557,428.7599074137931
512,1536,94.88816692536598,233476,48285,37982208,15568512,0.5848595710776713,0.2479487441245159,0.9285187281504045,512,0,1,1,461.76764605262883,0.5442832696278413,0.1700729345042985,428.7599074137931
512,2048,113.34423804650407,279387,35089,50573312,31092456,0.7465115486656586,0.4035604286699079,1.0,512,0,1,1,413.1104826158615,0.5763653024387673,0.1638329039280591,428.7599074137931
512,256,149.5313320852383,258808,38818,33005568,29783112,0.6532987323368367,0.2136500988009637,0.7880043688766214,512,0,1,1,544.1085409526764,0.8508705011171784,0.0580822164283307,428.7599074137931
512,512,142.54793143369753,338532,22236,33267712,29834488,0.6380129581290797,0.2475432498201435,0.7838662081148593,512,0,1,1,546.9809809060773,0.8713819354163999,0.0707893296790038,428.7599074137931
