cpu,memory,duration_std,userDiff,sysDiff,heapTotal,heapUsed,avg_cpu_util,cpu_util_std,slo_preservation,total_cpu_shares,cpu_shares_others,num_containers,arrival_rate,latency,memory_util,memory_util_std,slo_duration
1024,1024,127.51131549128816,498283,46755,45985792,30559560,0.927820616577375,0.1107170562205016,0.2700589502655129,1024,0,1,1,1135.0208246149125,0.7670586038504176,0.1322054176471318,306.5225324250001
1024,128,212.251039962754,341397,65112,34316288,29673616,0.856923938185813,0.1602375180655789,0.19596062787447327,1024,0,1,1,1564.2046861645576,0.8901969214701909,0.061385878229473,306.5225324250001
1024,1536,122.06583624667884,369803,45531,60280832,45001168,1.0320386106967763,0.2046412220363565,0.34543179927150536,1024,0,1,1,887.3604951004438,0.699257645762932,0.164111993457628,306.5225324250001
1024,2048,58.67429944933736,366995,60031,59232256,44965104,1.1403181417499444,0.1893206478630654,0.431228990743162,1024,0,1,1,710.8115154705903,0.6741748500979765,0.1267040621472997,306.5225324250001
1024,256,67.5134393895426,410636,58659,40869888,29676144,0.9398758979529702,0.0886155459177966,0.23831651092328876,1024,0,1,1,1286.1993121562025,0.8603307568709573,0.0640779282792943,306.5225324250001
1024,512,86.98525968728967,420972,52071,33005568,29646864,0.9173132234028379,0.1206162403250812,0.22855367607774288,1024,0,1,1,1341.1402419129588,0.8804156887275572,0.0627210130291195,306.5225324250001
128,1024,69.24926668959502,392269,56876,47296512,30084184,0.9916159756221822,0.1298785584565339,0.3037968264062504,128,0,1,1,1008.9721346038842,0.73257682118053,0.1342291646147807,306.5225324250001
128,128,297.79174467575274,417589,53173,33529856,30079144,0.9187729279215331,0.2886724493889669,0.1931525856486271,128,0,1,1,1586.9450123883382,0.8878476793638853,0.0675277052920264,306.5225324250001
128,1536,79.29508352848664,366415,42488,45330432,31376648,1.005610209803289,0.2170947744132809,0.3392022480687563,128,0,1,1,903.6571372099751,0.6454991601272747,0.140100699639721,306.5225324250001
128,2048,58.58478347193624,327451,41293,44544000,31800248,1.1077921043026389,0.2158452981307406,0.4137635746675939,128,0,1,1,740.8156522024728,0.6511597885452617,0.1169782625386351,306.5225324250001
128,256,102.6862614927604,381052,67111,39034880,29752312,0.9343888198310659,0.0726555151490292,0.24205195098936982,128,0,1,1,1266.3501829756442,0.8767449441034476,0.0807316431010602,306.5225324250001
128,512,74.58642043732767,396930,50273,36937728,29910080,0.9314013106780332,0.1063050919079862,0.2394071244468051,128,0,1,1,1280.3400614466998,0.8928520484791281,0.0532243909294849,306.5225324250001
1536,1024,85.75448502723953,412335,43691,40218624,30221240,1.047077306077822,0.1598686534602368,0.3003516711933515,1536,0,1,1,1020.5454532919051,0.7573250493513047,0.1047106656304716,306.5225324250001
1536,128,313.3456229438108,357980,52730,33792000,29664064,1.022653875988591,0.4207522163766337,0.20018990770992934,1536,0,1,1,1531.158767849298,0.892628455823082,0.044658075070354,306.5225324250001
1536,1536,64.89602373520958,339832,43046,59494400,45418784,1.0953907016109135,0.2897189133101742,0.4079003712699795,1536,0,1,1,751.4642153196771,0.6728882149725683,0.13444598725144,306.5225324250001
1536,2048,39.859366408995314,372086,52936,60805120,45532904,1.179725807982128,0.2361197955452807,0.5873464522579562,1536,0,1,1,521.8768773466239,0.7269574753788667,0.1479661455222053,306.5225324250001
1536,256,42.10082721538432,343457,54535,47431680,44259848,1.0992409370573806,0.1561143795235442,0.34149462892210314,1536,0,1,1,897.5910789358846,0.8624235773910011,0.1016860882747543,306.5225324250001
1536,512,70.54189483451819,377999,43487,38772736,30120808,1.0373305164061992,0.1305991310152901,0.27133175289821354,1536,0,1,1,1129.696503084871,0.8721971486125175,0.079590274801265,306.5225324250001
2048,1024,97.02086072135596,385426,53294,38907904,31532600,1.0285492680768569,0.2322713378688813,0.311673528134441,2048,0,1,1,983.4731048855102,0.7516465359731097,0.1118320706153046,306.5225324250001
2048,128,193.6100984456324,493518,41738,46907392,44178128,0.943755434430577,0.2623195785039418,0.21908108135352936,2048,0,1,1,1399.1282612411758,0.8853485078070461,0.0553147874559077,306.5225324250001
2048,1536,60.25732721608808,385597,49415,60542976,45539360,1.1182425319011529,0.1806251949998133,0.44169800957819444,2048,0,1,1,693.9640337472157,0.7100416485795706,0.1232576826521566,306.5225324250001
2048,2048,34.409236983712795,297448,42372,59232256,44912848,1.193118627174349,0.3596289074194743,0.5526869514284477,2048,0,1,1,554.6042504401034,0.695570932850072,0.1451245374223269,306.5225324250001
2048,256,83.42264733447828,406631,88881,41394176,29724064,1.0208651015185224,0.1217721535422798,0.27646066747285386,2048,0,1,1,1108.7383070689364,0.8942813571369177,0.0568170618516559,306.5225324250001
2048,512,70.03639388340822,385872,64540,33005568,29666688,1.0019418399782525,0.1043802674938687,0.2615811512223802,2048,0,1,1,1171.8066496481374,0.8591191167643766,0.0576211224753582,306.5225324250001
256,1024,100.45289802902585,315085,62852,50974720,44656752,1.0356181065103196,0.1666348070402819,0.29672794747325537,256,0,1,1,1033.0086364804838,0.7198101959934803,0.1115320837044975,306.5225324250001
256,128,183.83849000983693,485148,60668,41394176,30234488,1.0012611190780372,0.2731657041916526,0.22194364633398037,256,0,1,1,1381.0827094538477,0.8725016540212707,0.0749007958449649,306.5225324250001
256,1536,63.47757792334818,426884,32362,58707968,46137400,1.122474964393149,0.2209622662875353,0.41813982577442865,256,0,1,1,733.0622761352514,0.6972276868099826,0.1336337797258562,306.5225324250001
256,2048,45.2712348424932,342231,38118,60542976,44972392,1.167162127120343,0.2889020364603849,0.5241589196182842,256,0,1,1,584.7893090290697,0.678046841338575,0.1455045607804925,306.5225324250001
256,256,50.02980140804081,421695,65458,37986304,29980896,1.1112411773376294,0.2335944621412811,0.3204678801099954,256,0,1,1,956.4844137259286,0.8730751951952156,0.0652543015712418,306.5225324250001
256,512,61.90752211194579,377187,69328,36937728,29739816,0.9917897976005082,0.150413736810442,0.26953216796202334,256,0,1,1,1137.2391456747703,0.8656858667342746,0.0991458816880549,306.5225324250001
512,1024,103.55559550260182,379678,61441,46247936,30270784,1.0014572792276797,0.1264846632838763,0.30054906464768727,512,0,1,1,1019.8751833891586,0.7375411053428459,0.1339140712603607,306.5225324250001
512,128,252.8630035761801,372473,64447,33005568,29922856,0.944632833590612,0.236348429354294,0.21754143282609534,512,0,1,1,1409.0305853140037,0.8692910405121326,0.0648024046313856,306.5225324250001
512,1536,64.6865169955043,293999,75298,60018688,44922904,1.0751857609972935,0.2147629867687729,0.40819054378552094,512,0,1,1,750.930018080132,0.6886471720322762,0.1444936599322718,306.5225324250001
512,2048,36.24687832485186,251459,59206,46379008,30600232,1.1791633657032843,0.2386519488603337,0.5803063160795137,512,0,1,1,528.2081616754286,0.692883978590892,0.1501018596986978,306.5225324250001
512,256,46.10963498983284,357368,87911,35102720,29655968,1.0838930059674365,0.1138569909342573,0.3183915831849183,512,0,1,1,962.7218450902808,0.9064134100243274,0.0617898475385991,306.5225324250001
512,512,92.78331911297316,363941,67285,32481280,29672976,1.0154271280977716,0.1576430986882912,0.2566868634410695,512,0,1,1,1194.149666702254,0.8695379657932248,0.0954820546063504,306.5225324250001
