cpu,memory,duration_std,userDiff,sysDiff,heapTotal,heapUsed,avg_cpu_util,cpu_util_std,slo_preservation,total_cpu_shares,cpu_shares_others,num_containers,arrival_rate,latency,memory_util,memory_util_std,slo_duration
1024,1024,158.78676652448908,247889,41033,39694336,30758616,0.6748091721741224,0.2413739478890043,0.6570113023111714,1024,0,1,1,676.8458639813751,0.7300896366971749,0.1291756014611449,444.6953825583333
1024,128,281.46234445593785,319875,24124,33267712,29960984,0.7118714391142047,0.225408978612774,0.5501606145078857,1024,0,1,1,808.3010139795446,0.8408815676876868,0.0924397776797885,444.6953825583333
1024,1536,175.13666681513618,230648,34883,36147200,15677312,0.6682170252011683,0.1841994472070738,0.7233244314626487,1024,0,1,1,614.7938092718725,0.5565530222712638,0.1535690341402106,444.6953825583333
1024,2048,139.53629386560016,184897,39211,37195776,15694336,0.7584190331985784,0.4223987977544609,0.7858417863942727,1024,0,1,1,565.8841133897411,0.6010179155291244,0.1698709251718402,444.6953825583333
1024,256,146.7238151272195,244339,27262,31956992,29828792,0.7353807027066528,0.224114009991322,0.6685463707707129,1024,0,1,1,665.1675964461224,0.8802052199295402,0.0505196212162787,444.6953825583333
1024,512,143.02016068290092,264733,57270,32743424,29806280,0.7313916024968123,0.1852568893801053,0.6217499926669284,1024,0,1,1,715.2318259801841,0.8937463869226503,0.0518537988459822,444.6953825583333
128,1024,137.7054889289446,220362,45861,38121472,30363816,0.6923749070960109,0.1888522682434407,0.6665977267418391,128,0,1,1,667.1120598203833,0.6522557373011562,0.1420688942974052,444.6953825583333
128,128,441.5206908683574,308778,38189,32743424,30549232,0.6559413795793507,0.2526905740980191,0.46758014030542466,128,0,1,1,951.0570364854611,0.8705426585591514,0.0710789912747254,444.6953825583333
128,1536,118.44661303742,240640,29549,38244352,15702456,0.6794754416608817,0.302984548365202,0.7256576991871942,128,0,1,1,612.8170114593072,0.5897196009960833,0.1771028855481614,444.6953825583333
128,2048,134.11897326226227,241790,63142,50573312,30084568,0.7667592153392478,0.3076326785791641,0.8470337476777452,128,0,1,1,525.0031463061824,0.5632571980841278,0.168846218791496,444.6953825583333
128,256,129.0885243201804,290354,28982,33005568,29885048,0.73893728627208,0.2177338590863803,0.6906779749608114,128,0,1,1,643.8534290652094,0.8588990873017723,0.09264020260527,444.6953825583333
128,512,153.8720463892285,226229,21548,33005568,30273848,0.6845683991629866,0.2303835136279384,0.5921855999884522,128,0,1,1,750.9392031265281,0.8590357897947625,0.0775294019139701,444.6953825583333
1536,1024,143.9692944260343,202658,34693,38121472,30207400,0.6444689881178235,0.1761294417578678,0.67631427671298,1536,0,1,1,657.5277173204743,0.7354136208091093,0.1369090204042054,444.6953825583333
1536,128,458.01358139058186,355513,90074,32743424,30105712,0.6612758166699931,0.2832096500580897,0.4262211288985143,1536,0,1,1,1043.3442933895888,0.8693604230907217,0.0958508219907637,444.6953825583333
1536,1536,153.41987220772,240512,52330,48476160,29962024,0.651417995848016,0.263157524070956,0.6994660254202402,1536,0,1,1,635.7640920317176,0.5989748298734686,0.1784982019953573,444.6953825583333
1536,2048,166.7874849455878,211824,57085,50573312,29978760,0.6993682674664743,0.2900747179178208,0.7804759121683078,1536,0,1,1,569.7746408635296,0.5685966816080389,0.1609405308217888,444.6953825583333
1536,256,160.73775151453748,274906,38955,32743424,30284104,0.7808062799472584,0.2822988275345498,0.631238279199792,1536,0,1,1,704.4810132903609,0.824597317613436,0.1118469783159789,444.6953825583333
1536,512,158.66488757340983,271453,24425,33267712,29738056,0.7704825507420445,0.3007110596870648,0.6436820510674158,1536,0,1,1,690.8618654518895,0.8762892665813501,0.0845034296488006,444.6953825583333
2048,1024,163.0119970849725,365678,64700,39694336,29870384,0.7202553521151389,0.3054433664217066,0.7232698183306042,2048,0,1,1,614.8402315262442,0.7203931560822443,0.1329365863799569,444.6953825583333
2048,128,303.3378322532043,248670,52289,32743424,30488336,0.720898086092915,0.1803841739185279,0.5480865895034039,2048,0,1,1,811.3597213922919,0.8700193535130589,0.0736488881986532,444.6953825583333
2048,1536,146.2873905495548,214218,66836,38244352,15682040,0.7025316549638115,0.339007137772316,0.691053942832863,2048,0,1,1,643.5031406309282,0.5763711361031605,0.175586504893398,444.6953825583333
2048,2048,148.69338114999215,185940,41599,37457920,15700904,0.6661745676977504,0.3053595992166673,0.7568611976139017,2048,0,1,1,587.5520953647648,0.589141555881437,0.1766528186700872,444.6953825583333
2048,256,169.20370573367174,214369,33208,33005568,29806808,0.731385239013668,0.2359512126601726,0.6297491437316389,2048,0,1,1,706.1468633736414,0.8639491065918087,0.074019053908324,444.6953825583333
2048,512,139.79488939757013,226700,44688,32743424,29900040,0.6667507432324511,0.1698830598041386,0.59452526438541,2048,0,1,1,747.9839952941895,0.838067818213065,0.0956708044267541,444.6953825583333
256,1024,151.59291478341103,271450,27022,39694336,30571632,0.6550758080089408,0.2602530613782998,0.6330696855696906,256,0,1,1,702.4430211946701,0.742272386854048,0.1155800929202732,444.6953825583333
256,128,306.6197544075432,306361,32822,32743424,29845304,0.6784769927861366,0.2140646219294369,0.5044051076003516,256,0,1,1,881.6234725970949,0.8918051960819353,0.0389488369689852,444.6953825583333
256,1536,169.80357545771935,255549,47784,50049024,29975248,0.6848255434813065,0.2968648421733029,0.7452936514546218,256,0,1,1,596.6713679774437,0.62499990698041,0.1692469368915258,444.6953825583333
256,2048,135.34013346300046,201373,30925,37195776,15714432,0.669238700225891,0.3575587821378896,0.7413972028377953,256,0,1,1,599.8072030164171,0.5736526942827012,0.1747662199190957,444.6953825583333
256,256,128.07480858868058,280117,53013,33267712,29980792,0.6696219885140667,0.2103140309475274,0.5714337575681806,256,0,1,1,778.2098566434001,0.8294884442096825,0.1051825206367733,444.6953825583333
256,512,222.6623292766492,230528,30119,33005568,30010816,0.7145981856495,0.3019167475255345,0.5494535004081404,256,0,1,1,809.3412494924655,0.855533453489597,0.0935069752179644,444.6953825583333
512,1024,162.32953120925723,224578,46290,36548608,30215224,0.7331279486645363,0.223240641315217,0.6588710646300948,512,0,1,1,674.9353650975634,0.7468599776352711,0.1382888031830334,444.6953825583333
512,128,350.7744365535192,252515,53103,33267712,29753112,0.6546242998807867,0.200626616299669,0.5123906895759344,512,0,1,1,867.883417097943,0.8655175292252064,0.0764873968709315,444.6953825583333
512,1536,171.4753406885118,260347,49074,50573312,29995872,0.726576409696992,0.2615294561595509,0.8072774270232553,512,0,1,1,550.858190347397,0.6111903672059799,0.1702933306620484,444.6953825583333
512,2048,138.23878010362552,247422,44459,50311168,30031240,0.6879040900971143,0.2774898672382557,0.8627075502569251,512,0,1,1,515.4648089331054,0.5868631290140206,0.164750710421447,444.6953825583333
512,256,117.45374652697645,274252,28853,33267712,29705680,0.7123749049224957,0.1735770409618545,0.631810234968156,512,0,1,1,703.843271201117,0.8629899547511624,0.0677370046008876,444.6953825583333
512,512,153.19708216397564,282540,34166,32743424,29908016,0.7635879055487039,0.2348594872190822,0.6241793817957819,512,0,1,1,712.448048634564,0.8738324897663755,0.0604354492477847,444.6953825583333
