cpu,memory,duration_std,userDiff,sysDiff,heapTotal,heapUsed,avg_cpu_util,cpu_util_std,slo_preservation,total_cpu_shares,cpu_shares_others,num_containers,arrival_rate,latency,memory_util,memory_util_std,slo_duration
1024,256,3131.364273321188,2157460,287531,38060032,35898096,0.639726187958522,0.1404374234637154,0.2579621299756675,1024,0,1,1,9829.4090929125,0.906787267975845,0.0697376286039431,2535.615306009902
1024,1024,842.0216106763014,2106780,152258,59174912,51052984,0.9568079424706343,0.1663442148427186,1.0,1024,0,1,1,2188.717760035964,0.8128388552328678,0.1064345547366692,2535.615306009902
1024,1536,393.4055479173472,1756455,136796,53268480,36793656,1.1181117974156132,0.3421694010668885,1.0,1024,0,1,1,1048.8020572237897,0.7451292235235683,0.1119653049547476,2535.615306009902
1024,2048,212.42064751310707,1583301,113433,89714688,55111896,1.1571087967412155,0.3228189879789473,1.0,1024,0,1,1,678.2178272286789,0.7702104778695573,0.1014416773083804,2535.615306009902
1024,512,1681.4325429741468,1935827,200469,37011456,34666240,0.7643808917954101,0.1296797538831677,0.6032020844403276,1024,0,1,1,4203.5917504538065,0.9299482404530816,0.0525554029305716,2535.615306009902
128,1024,799.416046548284,1879296,157986,58650624,49921936,0.9299980543390611,0.1440803567113107,1.0,128,0,1,1,2033.1623607112501,0.8211218081247351,0.0719187724971744,2535.615306009902
128,1536,395.2504522990974,1703991,138525,53268480,39609320,1.1172914922840897,0.2982206991377176,1.0,128,0,1,1,1142.5918705982847,0.7686766330309789,0.1085679551833963,2535.615306009902
128,2048,211.8727637656305,1489856,144433,86560768,37192416,1.1438075324151022,0.3286078819908761,1.0,128,0,1,1,643.4202132457365,0.7467360878864278,0.1220222272080474,2535.615306009902
128,256,4794.717864945652,2464331,196543,37797888,34715208,0.7641900081273142,0.4070010807862335,0.1702609049282636,128,0,1,1,14892.528070834807,0.928397017733574,0.0414851648689313,2535.615306009902
128,512,2060.954972747428,2062635,240897,51437568,48463472,0.7138436178511618,0.0872054240845276,0.48851756597974816,128,0,1,1,5190.428108607701,0.90587924728533,0.064210720290682,2535.615306009902
1536,1024,826.3044371462418,1995688,148962,58912768,51454288,0.9604250123905378,0.1124978376627146,1.0,1536,0,1,1,2055.4136208917766,0.8131704641863367,0.0909475640829798,2535.615306009902
1536,1536,383.4512142676118,1750480,143271,66637824,38406064,1.1256234646184227,0.2483415839593676,1.0,1536,0,1,1,998.2602941289754,0.7873995164778724,0.0737023023647435,2535.615306009902
1536,2048,201.41875528977465,1450360,161172,84725760,41903904,1.166264293047685,0.3218196474110222,1.0,1536,0,1,1,686.8545127170123,0.7230926350357966,0.1241604841318556,2535.615306009902
1536,256,4748.237747120933,2217758,182321,46972928,34094952,0.6085721952240717,0.2085945632250471,0.2072076547405955,1536,0,1,1,12237.073525030983,0.8908153208995341,0.0863660360712812,2535.615306009902
1536,512,1593.9471848078565,1999953,171913,37273600,34853808,0.7951004782100523,0.0770696088824332,0.6535022401809795,1536,0,1,1,3880.0407253503736,0.939421592746968,0.0191754858065934,2535.615306009902
2048,1024,824.214171726923,1997515,128397,58912768,52564920,0.9617571815106771,0.1201588062027944,1.0,2048,0,1,1,2022.2680481459915,0.8110181188186416,0.0933894608131617,2535.615306009902
2048,1536,374.0370437875714,1672393,139022,62443520,39226096,1.0724294546186186,0.2807491103489447,1.0,2048,0,1,1,1017.3472410546958,0.7528190472714447,0.1066809409804344,2535.615306009902
2048,2048,225.9712665651611,1622404,139963,84987904,40611520,1.1582790369166456,0.3796645210408881,1.0,2048,0,1,1,652.2822058933193,0.7566071566706598,0.1118365364562068,2535.615306009902
2048,256,2512.773789809835,2018800,159707,52224000,49773848,0.7068185350715885,0.1186693527056567,0.33792007903242277,2048,0,1,1,7503.594676203347,0.93136375458561,0.0322022248778537,2535.615306009902
2048,512,1393.8404538051343,2131440,170926,46448640,34067248,0.7915310391046884,0.1136276732829369,0.7220165287724473,2048,0,1,1,3511.8521598402817,0.8945187255159281,0.0927747791138252,2535.615306009902
256,1024,815.8210167487573,1977204,157685,59174912,53663008,0.9650376617073697,0.1634571113823996,1.0,256,0,1,1,2053.8357064660986,0.7957590747611958,0.0993398542819503,2535.615306009902
256,1536,363.8885173304773,1736743,136805,86831104,51349272,1.110624477834234,0.3063768327413779,1.0,256,0,1,1,1039.4149605215816,0.749232247307728,0.1117160256829739,2535.615306009902
256,2048,206.15226824180857,1573507,116636,85512192,39567304,1.1504898102662027,0.3393644456884281,1.0,256,0,1,1,690.2291659471811,0.7070172253898828,0.1313209623960824,2535.615306009902
256,256,4476.714866714595,2309523,230946,38322176,33860128,0.6264178349127544,0.3449744970945965,0.22351089674546415,256,0,1,1,11344.481825856925,0.901578824012357,0.0648705368560894,2535.615306009902
256,512,1699.813271193976,2230457,199982,38322176,36566616,0.7539146566861348,0.0840729416201758,0.6197983899829679,256,0,1,1,4091.0324179441327,0.9015587304805086,0.0599627632994615,2535.615306009902
512,1024,864.4810907316286,2062388,132663,45010944,36146656,0.9393266860865984,0.1684481956272254,1.0,512,0,1,1,2094.3646392832757,0.8371624433599336,0.0681179670763169,2535.615306009902
512,1536,383.2724071277686,1780327,142485,51695616,38565672,1.1103064909778078,0.2853765163133773,1.0,512,0,1,1,1021.2968199640585,0.7664500221612452,0.1012999651402501,2535.615306009902
512,2048,201.889003619494,1478454,173434,86036480,40109088,1.1624152298055974,0.4176741556867654,1.0,512,0,1,1,743.9725594859319,0.717427240172169,0.1472454152103404,2535.615306009902
512,256,5399.040691224183,2346186,202554,37535744,35561368,0.8036556399874892,0.6159875973065454,0.17971788919057238,512,0,1,1,14108.864272944704,0.9156081692413122,0.0496233440943433,2535.615306009902
512,512,1813.779621821492,2187219,194391,52748288,50503592,0.7739735154939453,0.0852288299847981,0.6136256419003886,512,0,1,1,4132.186031465606,0.9021049388084964,0.0735876569825394,2535.615306009902
