cpu,memory,duration_std,userDiff,sysDiff,heapTotal,heapUsed,avg_cpu_util,cpu_util_std,slo_preservation,total_cpu_shares,cpu_shares_others,num_containers,arrival_rate,latency,memory_util,memory_util_std,slo_duration
1024,1024,93.89528612374266,414236,50415,49917952,31120144,0.9454106326972757,0.1056639793970646,0.44905303760926135,1024,0,1,1,705.4036694895457,0.7863597790141726,0.1225701009209486,316.7636605249999
1024,128,198.18652400305456,453859,87746,47431680,44111080,0.8871145702501321,0.1695197910310863,0.3047936247224663,1024,0,1,1,1039.2725924416336,0.9071449901837532,0.0355467122957701,316.7636605249999
1024,1536,69.07389176067119,286199,58252,59232256,44521624,1.160922052767895,0.2470930236762702,0.6945970925477633,1024,0,1,1,456.0394276387185,0.7162039194590863,0.1375390492799727,316.7636605249999
1024,2048,38.40796002116538,350826,49803,58970112,44721248,1.3018903058668276,0.3324348760264577,0.9031032843324697,1024,0,1,1,350.7502032385325,0.664388744473982,0.1580016906702971,316.7636605249999
1024,256,70.92746581520406,395597,63016,33005568,29998160,1.0202410957839225,0.112653659684214,0.4224270099370162,1024,0,1,1,749.8660196284071,0.8947323765208883,0.0422746131449257,316.7636605249999
1024,512,60.65743570414575,425224,46083,34316288,30217344,1.013234897052212,0.1452614572917438,0.4085016035980449,1024,0,1,1,775.428193512521,0.8769827005454485,0.066906046006885,316.7636605249999
128,1024,71.6459154275219,485850,25572,48869376,30783080,1.0119855066949306,0.1310302897907,0.47804206975650343,128,0,1,1,662.6271630995727,0.7580125394259598,0.1108434102769917,316.7636605249999
128,128,203.31400842692184,376342,68521,33267712,29958608,0.9837812527005814,0.3462143654428544,0.34177764925291704,128,0,1,1,926.812099086659,0.8921884132361285,0.0574354307744929,316.7636605249999
128,1536,73.6638414597056,449164,58046,63164416,44677824,1.1786736721818074,0.2504155015206658,0.7436679173534764,128,0,1,1,425.94772899748136,0.7161656192281198,0.1409971395614458,316.7636605249999
128,2048,40.02781234192907,383412,32957,58183680,45064776,1.3022566076649915,0.2751847697120662,0.952549219052658,128,0,1,1,332.54308983637816,0.6721150777581169,0.1600623791210465,316.7636605249999
128,256,58.918504859690046,390251,34027,39034880,30223936,0.9699750426974282,0.1194086153937054,0.39405612811540625,128,0,1,1,803.8541667653755,0.8863521597371091,0.0570763106290205,316.7636605249999
128,512,106.4778382106666,497458,62280,32743424,29606680,0.9485440540202877,0.1723767086233296,0.37623628757340905,128,0,1,1,841.9274561951838,0.8940980448703757,0.0460681267133607,316.7636605249999
1536,1024,127.42168194182588,390001,51101,44937216,31517976,0.9206026303372015,0.079687849566608,0.4202681133040962,1536,0,1,1,753.7180444993626,0.7525570105072009,0.1167590116620451,316.7636605249999
1536,128,318.999036767751,407141,72757,47431680,44148568,1.0148960016145288,0.5077778985065633,0.3049274808039712,1536,0,1,1,1038.8163759127956,0.8848607825888991,0.0614423670790462,316.7636605249999
1536,1536,56.89915560022176,315591,49948,57389056,30891160,1.1787446011854592,0.1652323510295293,0.7843048411492413,1536,0,1,1,403.87824211418405,0.7218420993677193,0.132324360280211,316.7636605249999
1536,2048,37.09477539248292,348828,45130,58707968,44719024,1.3062305368648086,0.2677268622345011,1.0,1536,0,1,1,301.7471816271141,0.7100187458849561,0.1647823744391436,316.7636605249999
1536,256,69.31023255037368,400178,60062,47169536,43997168,1.0671004444170997,0.1724223744354437,0.44878395377956304,1536,0,1,1,705.8266184815293,0.881901905747245,0.0687954364652835,316.7636605249999
1536,512,82.15918736498588,354563,52595,33005568,29696816,1.0186321154553033,0.1131833022668829,0.41415556689013255,1536,0,1,1,764.8422135275347,0.8992899444298533,0.0405775654604448,316.7636605249999
2048,1024,85.18348809392253,387110,48579,41267200,30025856,1.0589925448606055,0.1796749392175053,0.49722285493273904,2048,0,1,1,637.0657691667242,0.7832414125342859,0.0956835512380915,316.7636605249999
2048,128,271.94924202491404,394403,56493,32743424,29632832,0.883352589744087,0.2528125711574025,0.29531739137382845,2048,0,1,1,1072.6210842219707,0.8996283060222771,0.0517766165001382,316.7636605249999
2048,1536,57.62411738086728,391132,36361,58707968,45550792,1.1982411865423068,0.225003596911022,0.7020904131944871,2048,0,1,1,451.17217750308856,0.6923476514920991,0.1500188443219711,316.7636605249999
2048,2048,35.65000550472444,261633,74472,59232256,44597240,1.3040102364390957,0.265703278618155,0.992703293277557,2048,0,1,1,319.09198112877993,0.6868826144248069,0.1583981332648819,316.7636605249999
2048,256,79.69164775378971,324930,77325,34316288,29795896,1.0620615482771778,0.1109553949155888,0.4212065008190793,2048,0,1,1,752.0388690797042,0.8783218053366129,0.0757813653334067,316.7636605249999
2048,512,87.61563011295065,425097,55089,42442752,29715944,0.9379056371978454,0.1096565975864447,0.3738462675900852,2048,0,1,1,847.3099452535522,0.878197450318973,0.072828057841234,316.7636605249999
256,1024,111.3946192755215,429454,54465,53071872,44889488,0.9472290035283142,0.2160969521806301,0.4441932434015834,256,0,1,1,713.1212940099186,0.7811600134358871,0.1121764252853567,316.7636605249999
256,128,223.5412224733816,386168,63733,47431680,44211648,0.9634786908861976,0.2251478541668344,0.3432047422200806,256,0,1,1,922.958285704207,0.9052717811690052,0.0387349539059794,316.7636605249999
256,1536,81.03384749610402,345063,46163,59232256,45352232,1.1578171335439766,0.2151591356793201,0.7247967142158055,256,0,1,1,437.0379367237097,0.7809343498343891,0.1012926806197875,316.7636605249999
256,2048,53.28000420497944,306968,47547,59232256,45491472,1.2738618352262518,0.3540187335830344,0.8680303288494173,256,0,1,1,364.92234199336474,0.7178042284210762,0.149260353471435,316.7636605249999
256,256,37.83652632848594,385663,67837,34840576,30160400,1.1694577833501285,0.1092095734671775,0.5247343360402807,256,0,1,1,603.6648238332241,0.8772509176224981,0.0738427684065729,316.7636605249999
256,512,64.48355283721132,329661,63980,40083456,29593736,1.025595420283052,0.1255459183078438,0.4276766941533077,256,0,1,1,740.6614970032732,0.8851642991688143,0.0578444164478169,316.7636605249999
512,1024,75.27594783611521,413049,41013,50974720,44536704,0.9867568008115217,0.1623121944184235,0.4865276012647451,512,0,1,1,651.0702778250647,0.7529907435306448,0.1063867515826265,316.7636605249999
512,128,359.50546298738914,426406,54461,36151296,29776368,0.9223463338368321,0.2424034000733499,0.30803473533860776,512,0,1,1,1028.3374703726088,0.8927870040681599,0.0400500723308278,316.7636605249999
512,1536,54.30468769297472,315352,41012,44806144,31437216,1.1279763278154284,0.2172359807701795,0.7096155806508943,512,0,1,1,446.38769097269363,0.7489466575373721,0.1216609783015582,316.7636605249999
512,2048,34.41339270221612,322397,34608,58970112,44973392,1.3055184892833431,0.3044462552535413,1.0,512,0,1,1,314.10029184923576,0.7282004030656196,0.1414327084753451,316.7636605249999
512,256,73.37738042452011,465547,54900,41394176,29647768,1.0102772307412131,0.1404009013655412,0.4224594006124244,512,0,1,1,749.8085261348165,0.8685465372908074,0.0806812734906888,316.7636605249999
512,512,64.26646360295257,339125,63547,33005568,29799408,1.061513502944049,0.1495910235033096,0.43475759508998124,512,0,1,1,728.5983364119027,0.898402741768791,0.0518316319647307,316.7636605249999
