cpu,memory,duration_std,userDiff,sysDiff,heapTotal,heapUsed,avg_cpu_util,cpu_util_std,slo_preservation,total_cpu_shares,cpu_shares_others,num_containers,arrival_rate,latency,memory_util,memory_util_std,slo_duration
1024,1024,90.55854532191834,291661,27876,38121472,30243200,0.9057994289633076,0.1500344819086997,0.8530651415691994,1024,0,1,1,481.19319120913144,0.7615980983194338,0.1170241135545336,410.48913778095255
1024,128,186.5763408634012,305913,49594,32481280,30426680,0.32130704302046087,0.0133470844907282,0.17924776379912874,1024,0,1,1,2290.065600154214,0.919103016453457,0.0149300328315689,410.48913778095255
1024,1536,47.14456412514627,279668,58214,49786880,30415968,1.2182149482761908,0.2486831391974162,1.0,1024,0,1,1,269.88146925395387,0.6763993213066154,0.1332928433436429,410.48913778095255
1024,2048,23.049155709927717,246429,37747,50573312,30647928,1.2497494844573975,0.2014536349720731,1.0,1024,0,1,1,216.65505178952452,0.7100327383252157,0.1206962790531727,410.48913778095255
1024,256,258.52659993463857,245252,41604,33267712,30114208,0.7315884048733947,0.2810742029927452,0.4388171765987762,1024,0,1,1,935.4445533846437,0.9097046834734424,0.0248176485787453,410.48913778095255
1024,512,138.09578759164708,326645,51489,33005568,29950120,0.7595350650112502,0.2558439428729337,0.5429434142609495,1024,0,1,1,756.0440498936842,0.8773289438227785,0.0729154254851497,410.48913778095255
128,1024,103.37767167229252,331009,43681,39432192,30347240,0.895456976899736,0.1560573768791166,0.8452777642775314,128,0,1,1,485.6263291532367,0.7985824744546084,0.0925633843780078,410.48913778095255
128,128,1290.302825225611,289101,54426,32743424,30226248,0.2417502168039434,0.0729841917556085,0.11749217342233603,128,0,1,1,3493.757293138267,0.9227097162412624,0.0092178893520486,410.48913778095255
128,1536,59.21123680405429,335928,27215,50049024,30334472,1.2292123391022993,0.2608241204375207,1.0,128,0,1,1,280.85173956713226,0.7405871034829261,0.0894362665375423,410.48913778095255
128,2048,28.13742132101221,256147,21391,50311168,30511264,1.233247031652876,0.2222424227819632,1.0,128,0,1,1,204.1982275432391,0.7672469261537113,0.0991427385792903,410.48913778095255
128,256,179.46365207560203,270030,28115,32481280,30438112,0.41610756224705525,0.0420640863870728,0.2797505613752926,128,0,1,1,1467.3398178825128,0.9266050687819128,0.0136415980285467,410.48913778095255
128,512,158.61521809558948,307048,44318,32481280,30304432,0.6325307360749105,0.0837810529645567,0.4803258818147329,128,0,1,1,854.6054945656308,0.8908926323716286,0.0675902231013136,410.48913778095255
1536,1024,110.76305183966991,251388,31583,36024320,30739160,0.9055283025408327,0.1776488517054776,0.8425851461620444,1536,0,1,1,487.1782272102956,0.8033989253082972,0.0940602357263746,410.48913778095255
1536,128,801.3476012203791,272489,60365,33005568,30224528,0.3795433701094066,0.1142562835208628,0.17056478758615973,1536,0,1,1,2406.646433828533,0.9225024250723596,0.0076320874710558,410.48913778095255
1536,1536,81.82372157598613,242285,57130,50311168,30419936,1.0943450710729608,0.1370677742025615,1.0,1536,0,1,1,339.3325050017566,0.7232463455509854,0.1024185381307995,410.48913778095255
1536,2048,60.656866946176415,303577,31632,50835456,31094168,1.1486998024782844,0.2504020349545954,1.0,1536,0,1,1,276.94155456129334,0.7462438173674995,0.14482692286919,410.48913778095255
1536,256,330.8438024774967,291022,28552,33267712,30129944,0.7833255362551416,0.2539108695906064,0.44250396751586113,1536,0,1,1,927.6507509873094,0.907374707640496,0.0398706285725777,410.48913778095255
1536,512,150.854038674829,241171,54591,32481280,30055416,0.7279837669491123,0.2380800353233896,0.5243571305554697,1536,0,1,1,782.8426731722084,0.8987559492523818,0.0517030814388804,410.48913778095255
2048,1024,116.10432261651924,260115,42028,38645760,32125504,0.8821322434985397,0.148430027971202,0.8011329663066852,2048,0,1,1,512.3857774488479,0.7554596696759361,0.1218552701332527,410.48913778095255
2048,128,610.857540413623,273715,48948,33005568,30380104,0.45624933464311473,0.1012556741900153,0.2097703477351677,2048,0,1,1,1956.8501564348344,0.9231384458796468,0.0039365569527451,410.48913778095255
2048,1536,77.0103976383603,261223,34135,36671488,16037000,1.0778630973235233,0.1556039410447792,1.0,2048,0,1,1,318.2454387718609,0.6810988653435466,0.1332559178107055,410.48913778095255
2048,2048,45.249668222586926,275761,45160,50573312,30465680,1.1213069205360353,0.3061155703558731,1.0,2048,0,1,1,296.80532690561097,0.6784619566457968,0.1528989783168766,410.48913778095255
2048,256,282.8195817782999,272927,31962,33005568,30393936,0.6557981695638417,0.2846832093797025,0.3741930726995029,2048,0,1,1,1096.9982282665005,0.8943474433049087,0.0711325086795197,410.48913778095255
2048,512,125.70730003206342,263335,49563,33267712,29927344,0.7770146730981142,0.2319010393554406,0.573107289751699,2048,0,1,1,716.2518172797952,0.8949446209034573,0.0357760248844216,410.48913778095255
256,1024,124.67271219677284,310392,37974,39694336,30646064,0.8611632695487147,0.13796755896492,0.7778116657437748,256,0,1,1,527.7487544345665,0.7869210269930108,0.0959902905406717,410.48913778095255
256,128,1003.4135391976806,258333,83206,32481280,30225304,0.2746129656140702,0.0587211854573825,0.13897068197809187,256,0,1,1,2953.782279385118,0.92529854853086,0.0105260785724317,410.48913778095255
256,1536,59.47872779122445,287444,49430,51097600,31741464,1.1648931400068516,0.3311065037315857,1.0,256,0,1,1,275.31014210790494,0.7259224573633983,0.1276665166916054,410.48913778095255
256,2048,24.53127751044684,220723,45453,50049024,30620240,1.251865216762505,0.2023132189392908,1.0,256,0,1,1,216.60415533514583,0.6701587620739939,0.155189271301946,410.48913778095255
256,256,264.0099256985392,350881,40251,32743424,30287504,0.4671343468025234,0.0517316119910507,0.3238517017592456,256,0,1,1,1267.5219415277738,0.911092839442774,0.045876484462463,410.48913778095255
256,512,156.54881682600885,366755,30371,33005568,30623256,0.6360322066935127,0.0618592083922382,0.4807822296004042,256,0,1,1,853.7943220616228,0.8863567107319597,0.0686262503401462,410.48913778095255
512,1024,84.94663170857054,241093,66695,39170048,30589576,0.8425194192587006,0.1327760337355827,0.7979928201786939,512,0,1,1,514.4020439795837,0.7606332206787723,0.1116927103317052,410.48913778095255
512,128,669.72479901862,231022,45466,32743424,30110104,0.6415447440271876,0.412795604278862,0.23390581647922876,512,0,1,1,1754.9334341474348,0.9238426765388325,0.0029972749968997,410.48913778095255
512,1536,67.53884781279662,297643,51679,50049024,30336392,1.0694436209647809,0.1405805748477381,1.0,512,0,1,1,341.56773566964114,0.6504534492937043,0.1505777444751046,410.48913778095255
512,2048,45.72608996537218,269596,44734,50311168,30452552,1.143065436275796,0.2308360202091366,1.0,512,0,1,1,281.08414924143705,0.6944428888248539,0.1604108338830249,410.48913778095255
512,256,278.610534163795,272184,43012,32743424,30251936,0.4997651192202423,0.1147248552770407,0.3220209355046342,512,0,1,1,1274.7281077787106,0.9052980917319434,0.0397715262895266,410.48913778095255
512,512,161.61040908898337,251895,42090,33005568,30406856,0.6297472253178106,0.1705532099269265,0.4454608358130189,512,0,1,1,921.4932150696507,0.904295931259546,0.0386179851323977,410.48913778095255
