cpu,memory,duration_std,userDiff,sysDiff,heapTotal,heapUsed,avg_cpu_util,cpu_util_std,slo_preservation,total_cpu_shares,cpu_shares_others,num_containers,arrival_rate,latency,memory_util,memory_util_std,slo_duration
1024,1024,9.636832168976897,14895,4486,30892032,24146320,0.9243072699322467,0.212595506342172,0.7516392080502228,1024,0,1,1,21.735715453668004,0.6580054040014016,0.0546374582906705,16.337415950000008
1024,128,15.270339199740606,26917,30,24461312,21352680,0.9080281082526075,0.1587124368523266,0.5496533701552642,1024,0,1,1,29.723125222328886,0.8669112499374076,0.0169476132852723,16.337415950000008
1024,1536,16.505872566165095,20684,32,39411712,24147848,1.018906895258202,0.1648624747039449,0.7298142172202436,1024,0,1,1,22.385718946702426,0.5325506541359537,0.0660774770892481,16.337415950000008
1024,2048,8.92847029770666,10712,8032,39411712,24107568,1.0788871581476285,0.1008747896355775,1.0,1024,0,1,1,14.877493725168875,0.5406094043672494,0.0588294512782011,16.337415950000008
1024,256,16.66524289952306,38649,3717,19103744,14928640,0.9070033305742534,0.2577943481218537,0.6131692522330632,1024,0,1,1,26.644219178476064,0.8345988520040057,0.0288986552873707,16.337415950000008
1024,512,16.333084758350214,37443,3518,18841600,14881672,0.899842782965566,0.1880596769493857,0.5329551434156805,1024,0,1,1,30.654392122561003,0.8176690282798449,0.0205527712077271,16.337415950000008
128,1024,13.637305465015176,31765,11135,25530368,15026912,0.9136150755334919,0.2006099889802611,0.568548845398193,128,0,1,1,28.735289997041182,0.6617311648420858,0.0425865184485093,16.337415950000008
128,128,14.96017830967758,30586,8394,25247744,21053776,0.8636409186091828,0.1976559630140339,0.4974247688899122,128,0,1,1,32.84399364844602,0.8351377739761077,0.030371466732019,16.337415950000008
128,1536,12.97381202868888,20454,20,38887424,24245320,0.9600277362924401,0.2025134716974891,0.6899957336198848,128,0,1,1,23.67756082242707,0.5335095178676739,0.0603609992858079,16.337415950000008
128,2048,9.612421523664132,23235,17,39411712,24181584,1.060894036480504,0.0785848005346908,1.0,128,0,1,1,14.639185910437533,0.5504441564291216,0.0596643928899693,16.337415950000008
128,256,9.276401362422554,30127,4416,19103744,14678896,0.977083362252574,0.2096340907949531,0.7306814485009699,128,0,1,1,22.359149782052146,0.8235412483246656,0.0239812675244981,16.337415950000008
128,512,8.502445835142238,29976,8467,18841600,14857944,1.0065317624096428,0.2099549009757709,0.7747885149070022,128,0,1,1,21.086290820871277,0.8405699492914935,0.0278665486393361,16.337415950000008
1536,1024,16.71842125819258,15729,3968,31154176,24144632,0.8418649406655806,0.2410808377543162,0.484881857756789,1536,0,1,1,33.69360121160619,0.6537941936635591,0.0536064233521925,16.337415950000008
1536,128,13.809171781755316,38545,4446,25247744,21251152,0.9167667494346247,0.2251817311140048,0.6249282330002495,1536,0,1,1,26.142867432256793,0.8423833431141736,0.0252330486728037,16.337415950000008
1536,1536,10.139001797711796,13461,7624,39149568,24295408,1.0004048908406342,0.1463594128379955,0.9517266694450975,1536,0,1,1,17.166079794239145,0.5416949782537801,0.0529156049809078,16.337415950000008
1536,2048,5.223743359929576,15665,3991,39673856,24195288,1.1146480620550923,0.3277028750025329,1.0,1536,0,1,1,13.58872364059841,0.5423210002382894,0.0578177351594821,16.337415950000008
1536,256,16.729192480838762,14992,3869,18841600,15013368,0.9219163271803965,0.1738558197396769,0.679928064782174,1536,0,1,1,24.02815355950039,0.8209364984110845,0.0197618085118347,16.337415950000008
1536,512,8.493750550060607,32969,3563,19103744,14692640,0.9156421982676494,0.2490638858008617,0.8999957167579267,1536,0,1,1,18.152770780790625,0.8169864932844829,0.0210057745571621,16.337415950000008
2048,1024,12.990145404326642,19349,21,30892032,24258504,0.9678080963613029,0.2025918247618634,0.7696646674326331,2048,0,1,1,21.226667458305773,0.6622818212413658,0.0520874931733478,16.337415950000008
2048,128,11.85646002532793,26328,8380,18841600,14881952,0.8174240569586523,0.2293983959532349,0.693105171714877,2048,0,1,1,23.5713375353672,0.8368590837616084,0.0288844597907934,16.337415950000008
2048,1536,10.668194937297978,26467,37,39411712,24176304,0.9971862922420015,0.1647729585743337,0.7991641351650425,2048,0,1,1,20.44312955388823,0.5296326641770206,0.0564344125910703,16.337415950000008
2048,2048,6.451376963005613,19788,20,39149568,24154264,1.068488801789345,0.0842809249039582,1.0,2048,0,1,1,13.900031190537208,0.5393445276574286,0.0603469487921868,16.337415950000008
2048,256,9.377886830549857,21250,7428,18841600,15011448,0.832447840608385,0.3272323149895888,0.7083085846285937,2048,0,1,1,23.065393113323115,0.8169303306711393,0.0147268810729997,16.337415950000008
2048,512,9.433498008279654,15409,4603,18841600,14978328,0.9480345928987614,0.1748797149659958,0.8448059556830781,2048,0,1,1,19.33866095533168,0.8246679732544177,0.0274398821914304,16.337415950000008
256,1024,15.529330316770682,55707,11188,25792512,14583096,0.8891855873068876,0.2916580535086989,0.5149715351019823,256,0,1,1,31.72489125396927,0.6858468571903236,0.06161719994226,16.337415950000008
256,128,11.113385062681203,25785,286,24461312,21331304,0.8705783778934246,0.1554075179875959,0.5614891770275542,256,0,1,1,29.096582122006378,0.8693571035393871,0.0097377635166005,16.337415950000008
256,1536,16.562004518803946,21010,302,39411712,24456296,0.9373227764455169,0.1370098686332336,0.5845392504237965,256,0,1,1,27.94921972845318,0.5292957120907358,0.05547362647507,16.337415950000008
256,2048,4.237281466662253,15573,3227,39411712,24163256,1.0780734000194727,0.1084098614555581,1.0,256,0,1,1,12.21940156311794,0.5388446833273968,0.0515962036677835,16.337415950000008
256,256,13.037345790054482,18688,552,18317312,14982888,0.9153759726224675,0.1554912178679361,0.6248721294432893,256,0,1,1,26.145214645043186,0.823500546554507,0.0172424177510591,16.337415950000008
256,512,10.23533987503922,29690,3639,18841600,14871744,0.9834551626964093,0.1961188732850365,0.7696326623023951,256,0,1,1,21.227550168057835,0.8179011203943818,0.0192014098146712,16.337415950000008
512,1024,17.505565923648366,42053,397,30629888,24425952,0.8265504759808681,0.2659412890725569,0.4579691585101387,512,0,1,1,35.67361610801205,0.6676962135326464,0.0550473017981656,16.337415950000008
512,128,11.103165920382423,21193,4274,24461312,21333048,0.8551917729270825,0.1756981660495889,0.5835911285597807,512,0,1,1,27.994626975085126,0.850663735510771,0.0275545044783304,16.337415950000008
512,1536,14.133340419239191,23090,352,39411712,24406680,0.8958200023131586,0.1982912205838075,0.6612744559302566,512,0,1,1,24.705953486464455,0.5428631154930398,0.0609626448123326,16.337415950000008
512,2048,5.911632848957366,15344,3876,39411712,24237576,1.1237476957131933,0.3303826580719292,1.0,512,0,1,1,14.471134392728015,0.538450166453855,0.0596966870391725,16.337415950000008
512,256,12.111968433244392,25648,12414,19103744,14852816,0.9469433014532356,0.201525935835378,0.6529604430114032,512,0,1,1,25.020529382535187,0.8201216171401576,0.0185169351220577,16.337415950000008
512,512,11.4335121948342,27688,4687,19103744,15001880,0.9549845896626148,0.1426849365198189,0.6858745304358929,512,0,1,1,23.819831798706847,0.819838296086324,0.0172859914484722,16.337415950000008
