cpu,memory,duration_std,userDiff,sysDiff,heapTotal,heapUsed,avg_cpu_util,cpu_util_std,slo_preservation,total_cpu_shares,cpu_shares_others,num_containers,arrival_rate,latency,memory_util,memory_util_std,slo_duration
1024,1024,35.852708819669736,74764,3369,25792512,15046024,0.8994633689700235,0.1058160136868618,0.7596864631763185,1024,0,1,1,84.93602917474152,0.6584097495695767,0.0407247713655281,64.52475159999999
1024,128,35.85302402589543,56417,3530,25092096,21149600,0.9202119581147366,0.1086375910567515,0.7614054818048307,1024,0,1,1,84.74426982985587,0.8614133815970788,0.0122432549251642,64.52475159999999
1024,1536,41.94898739049198,81505,292,34574336,14585072,0.9737175390316445,0.2104046390419525,0.7588302941334862,1024,0,1,1,85.03186034985762,0.5271366256113841,0.0485140589463407,64.52475159999999
1024,2048,21.104961317707,112768,438,34836480,14588592,1.0415293140775448,0.1297425204526353,1.0,1024,0,1,1,49.593453339989296,0.533726484420929,0.0605685620942081,64.52475159999999
1024,256,37.33713997912294,62682,3797,25092096,21148136,0.9679624046830347,0.0598405835486872,0.7911565013801318,1024,0,1,1,81.55750662155955,0.8662315487599086,0.0131433460369628,64.52475159999999
1024,512,37.113780056087606,150163,4214,25092096,21122688,1.0031623558808618,0.0574737228749937,0.8586718383065753,1024,0,1,1,75.1448326606962,0.8667086682063948,0.0112383740618923,64.52475159999999
128,1024,54.20297985887781,91623,3965,30736384,24826416,0.8827308035939879,0.1430446946622795,0.5250680348737539,128,0,1,1,122.88836362989449,0.6541740774528167,0.0690503906771559,64.52475159999999
128,128,33.943964705420726,94696,823,25092096,21124528,0.9180454914817918,0.0842597843952652,0.7591208270116235,128,0,1,1,84.99931671485018,0.8663985482209645,0.0134128533846882,64.52475159999999
128,1536,36.345421912719054,91701,700,34574336,15203992,0.9701852326670868,0.0980866579183726,0.8291806365878839,128,0,1,1,77.81748481913698,0.5342155423966407,0.0500562521199639,64.52475159999999
128,2048,23.151693443039274,72988,24,39256064,24580376,1.0396165719735893,0.1084855390039773,1.0,128,0,1,1,55.406345777054035,0.5463676153749434,0.0561627791692904,64.52475159999999
128,256,29.50382040376064,66630,7072,25092096,21123720,0.9291143560855285,0.0952020846599472,0.6971844914942683,128,0,1,1,92.55046890343868,0.8663851789795212,0.0158129532662631,64.52475159999999
128,512,28.309743978552184,24654,166,25092096,21136232,0.9845247383033272,0.0669722914396814,1.0,128,0,1,1,56.183813795678944,0.8619426063977432,0.0157830568815522,64.52475159999999
1536,1024,52.56073253088508,74182,26,25530368,15087704,0.8480712091586375,0.1233670514489287,0.5230554268926283,1536,0,1,1,123.36121237347469,0.6529159250267631,0.0537321845304213,64.52475159999999
1536,128,30.41307455025241,57510,4132,25092096,21147144,0.9425017323895575,0.0601092066919859,0.8177656885634528,1536,0,1,1,78.90371594502687,0.8657392696983978,0.0153539866387487,64.52475159999999
1536,1536,39.33310222543792,38866,4495,38731776,24967208,0.9836047370295228,0.0894138459115995,0.871473976135574,1536,0,1,1,74.04093910655338,0.5209572552049012,0.052177487081374,64.52475159999999
1536,2048,16.808932231908855,88398,8839,34312192,14585880,1.0552215930209434,0.1692140857698501,1.0,1536,0,1,1,39.679990881506654,0.5419850180367376,0.0608522725224381,64.52475159999999
1536,256,35.57597010162341,67708,4728,25354240,21112368,0.9343005249498002,0.0787293332779974,0.7494371751945762,1536,0,1,1,86.09761262943414,0.8654122807661105,0.0150982866432331,64.52475159999999
1536,512,30.583976845110904,19069,7827,25092096,21156984,0.9956772516447469,0.0357544943627267,1.0,1536,0,1,1,60.3456609986343,0.8660271887936645,0.0141865556946557,64.52475159999999
2048,1024,57.15847034667134,64213,28,25530368,15087160,0.8419841510661475,0.1675992352585689,0.6280787888385378,2048,0,1,1,102.73353080323106,0.6702790199755987,0.0623925819098236,64.52475159999999
2048,128,39.53905217978439,65422,8196,25092096,21124592,0.912563871138568,0.0699260180997354,0.6824573518638493,2048,0,1,1,94.54766869135102,0.8641503311118248,0.0115261994700487,64.52475159999999
2048,1536,31.34740849435304,66187,5901,34836480,15194232,0.982685565244255,0.0734849383011661,0.9167944810162019,2048,0,1,1,70.38082464074049,0.5237629358111499,0.0506906201937411,64.52475159999999
2048,2048,15.598000385554244,32001,38,38993920,24730160,1.0142194563115998,0.0688031066519485,1.0,2048,0,1,1,58.28879142462368,0.5388622738712576,0.0569755251390566,64.52475159999999
2048,256,28.355188264815585,30576,3727,25092096,21174616,0.9506135902419066,0.0709916893495659,0.9167882977602136,2048,0,1,1,70.3812993224707,0.8642569596736813,0.0124238958398697,64.52475159999999
2048,512,28.363570869019707,61287,230,25092096,21146288,0.99209852939886,0.0391593235710132,0.8849066189249215,2048,0,1,1,72.91701770565521,0.8704957244524716,0.0136706707007074,64.52475159999999
256,1024,51.44092836645133,124067,4871,30474240,24819424,0.8556619636798791,0.0997039239190359,0.6376938801824916,256,0,1,1,101.18452380558311,0.6606969796505666,0.0660512521999566,64.52475159999999
256,128,35.61737601465599,136750,24,25092096,21111896,0.9033633312627821,0.0949698428513681,0.8240521204616115,256,0,1,1,78.30178455684937,0.8666941453246629,0.0143650572451385,64.52475159999999
256,1536,33.6608810647123,89525,447,38731776,24852784,0.9422338577062418,0.1268068091878779,0.927924840579291,256,0,1,1,69.53661415047155,0.5244702883856815,0.0538048173110071,64.52475159999999
256,2048,15.824526675647771,49055,30,34574336,15203928,1.028313489572628,0.089772556738256,1.0,256,0,1,1,50.6643923488948,0.5390234999740849,0.0525180488007173,64.52475159999999
256,256,30.772028540183936,91441,4549,25354240,21119440,0.9213955759528486,0.1134878482821823,0.7516333193398181,256,0,1,1,85.84605011480065,0.8622454139245873,0.0140291552853401,64.52475159999999
256,512,28.64278725160284,25942,7555,25092096,21142400,0.9908138176601892,0.0462754091474712,0.979648515866057,256,0,1,1,65.86520630101396,0.8693228772485103,0.013772842452708,64.52475159999999
512,1024,53.42094216617288,90013,22,26054656,15086032,0.8707113414923631,0.101608253277121,0.5923171409029039,512,0,1,1,108.93615454322511,0.6497956714650244,0.0685870754214725,64.52475159999999
512,128,53.94246965959061,40360,25,24567808,20702264,0.927255393294119,0.0795309387715597,0.6828689033706397,512,0,1,1,94.4906866918466,0.8695558924593326,0.0146441882690766,64.52475159999999
512,1536,25.243903012524044,27728,7538,34050048,15203392,0.9700149596552756,0.1551607135166697,0.9478882205421992,512,0,1,1,68.0721104046333,0.539172801928302,0.0507074442278975,64.52475159999999
512,2048,20.59496174234773,91687,3880,34312192,15203720,1.02910065706307,0.0475877806392246,1.0,512,0,1,1,38.52482637213396,0.5428059856974454,0.053060051699313,64.52475159999999
512,256,36.59236769809117,101213,4141,25354240,20532800,0.9645129845529394,0.070602830817172,1.0,512,0,1,1,63.49619477106593,0.8609693390637432,0.0159538212131745,64.52475159999999
512,512,25.979934881375414,26771,3812,25354240,21125056,1.018983294357565,0.1429318127634375,1.0,512,0,1,1,51.2444252216333,0.864719627458036,0.0143604802125643,64.52475159999999
