cpu,memory,duration_std,userDiff,sysDiff,heapTotal,heapUsed,avg_cpu_util,cpu_util_std,slo_preservation,total_cpu_shares,cpu_shares_others,num_containers,arrival_rate,latency,memory_util,memory_util_std,slo_duration
1024,1024,35.852708819669736,74764,3369,25792512,15046024,0.9572037958780331,0.1058160136868618,0.3233816034386006,1024,0,1,1,199.53129959741537,0.6584097495695767,0.0407247713655281,64.52475159999999
1024,128,35.85302402589543,56417,3530,25092096,21149600,0.9664800904789828,0.1086375910567515,0.319875538437275,1024,0,1,1,201.71830554855876,0.8614133815970788,0.0122432549251642,64.52475159999999
1024,1536,41.94898739049198,81505,292,34574336,14585072,0.9893185751333715,0.2104046390419525,0.30839535091737946,1024,0,1,1,209.2273810485764,0.5271366256113841,0.0485140589463407,64.52475159999999
1024,2048,21.104961317707,112768,438,34836480,14588592,1.0162078647281256,0.1297425204526353,0.5077770124220232,1024,0,1,1,127.07300649989295,0.533726484420929,0.0605685620942081,64.52475159999999
1024,256,37.33713997912294,62682,3797,25092096,21148136,0.9869337960199488,0.0598405835486872,0.3226650478883586,1024,0,1,1,199.97440696559553,0.8662315487599086,0.0131433460369628,64.52475159999999
1024,512,37.113780056087606,150163,4214,25092096,21122688,1.0012625467790057,0.0574737228749937,0.342818267304424,1024,0,1,1,188.21853370696186,0.8667086682063948,0.0112383740618923,64.52475159999999
128,1024,54.20297985887781,91623,3965,30736384,24826416,0.9495420214817295,0.1430446946622795,0.2259235369240758,128,0,1,1,285.6043795989449,0.6541740774528167,0.0690503906771559,64.52475159999999
128,128,33.943964705420726,94696,823,25092096,21124528,0.9655228624761896,0.0842597843952652,0.3193517186946905,128,0,1,1,202.04917594850187,0.8663985482209645,0.0134128533846882,64.52475159999999
128,1536,36.345421912719054,91701,700,34574336,15203992,0.9878568662422266,0.0980866579183726,0.33771356546281905,128,0,1,1,191.06354674136983,0.5342155423966407,0.0500562521199639,64.52475159999999
128,2048,23.151693443039274,72988,24,39256064,24580376,1.0154787009473525,0.1084855390039773,0.4550136755311799,128,0,1,1,141.80837867054046,0.5463676153749434,0.0561627791692904,64.52475159999999
128,256,29.50382040376064,66630,7072,25092096,21123720,0.9703862276407585,0.0952020846599472,0.29126155429181017,128,0,1,1,221.53542288438695,0.8663851789795212,0.0158129532662631,64.52475159999999
128,512,28.309743978552184,24654,166,25092096,21136232,0.9937518805511814,0.0669722914396814,0.4636886301094233,128,0,1,1,139.15534565678945,0.8619426063977432,0.0157830568815522,64.52475159999999
1536,1024,52.56073253088508,74182,26,25530368,15087704,0.9331330772291392,0.1233670514489287,0.23020723485799674,1536,0,1,1,280.2898511847469,0.6529159250267631,0.0537321845304213,64.52475159999999
1536,128,30.41307455025241,57510,4132,25092096,21147144,0.9761788894006099,0.0601092066919859,0.3387943275723749,1536,0,1,1,190.45404940026896,0.8657392696983978,0.0153539866387487,64.52475159999999
1536,1536,39.33310222543792,38866,4495,38731776,24967208,0.9933767407656883,0.0894138459115995,0.35205278929017103,1536,0,1,1,183.28146676553388,0.5209572552049012,0.052177487081374,64.52475159999999
1536,2048,16.808932231908855,88398,8839,34312192,14585880,1.0213802464475683,0.1692140857698501,0.6295910616485944,1536,0,1,1,102.4867656650666,0.5419850180367376,0.0608522725224381,64.52475159999999
1536,256,35.57597010162341,67708,4728,25354240,21112368,0.9726417566438429,0.0787293332779974,0.31207684084930487,1536,0,1,1,206.75917964434146,0.8654122807661105,0.0150982866432331,64.52475159999999
1536,512,30.583976845110904,19069,7827,25092096,21156984,0.9982664043191719,0.0357544943627267,0.42881320893964164,1536,0,1,1,150.47286383634298,0.8660271887936645,0.0141865556946557,64.52475159999999
2048,1024,57.15847034667134,64213,28,25530368,15087160,0.9301734383788391,0.1675992352585689,0.2775454648864821,2048,0,1,1,232.4835378823107,0.6702790199755987,0.0623925819098236,64.52475159999999
2048,128,39.53905217978439,65422,8196,25092096,21124592,0.9630891429852296,0.0699260180997354,0.288096992185535,2048,0,1,1,223.96884851351012,0.8641503311118248,0.0115261994700487,64.52475159999999
2048,1536,31.34740849435304,66187,5901,34836480,15194232,0.9930015212757456,0.0734849383011661,0.37056749240842424,2048,0,1,1,174.12415530740475,0.5237629358111499,0.0506906201937411,64.52475159999999
2048,2048,15.598000385554244,32001,38,38993920,24730160,1.0056396667278507,0.0688031066519485,0.4390477338385199,2048,0,1,1,146.9652309462368,0.5388622738712576,0.0569755251390566,64.52475159999999
2048,256,28.355188264815585,30576,3727,25092096,21174616,0.9796421968107143,0.0709916893495659,0.37791359654331114,2048,0,1,1,170.73942877470688,0.8642569596736813,0.0124238958398697,64.52475159999999
2048,512,28.363570869019707,61287,230,25092096,21146288,0.9968243564068494,0.0391593235710132,0.35564873639092387,2048,0,1,1,181.42831675655196,0.8704957244524716,0.0136706707007074,64.52475159999999
256,1024,51.44092836645133,124067,4871,30474240,24819424,0.9367906799960515,0.0997039239190359,0.2792624699952054,256,0,1,1,231.0541463058312,0.6606969796505666,0.0660512521999566,64.52475159999999
256,128,35.61737601465599,136750,24,25092096,21111896,0.9589661051637391,0.0949698428513681,0.34990928901501633,256,0,1,1,184.40422596849353,0.8666941453246629,0.0143650572451385,64.52475159999999
256,1536,33.6608810647123,89525,447,38731776,24852784,0.9760639262988728,0.1268068091878779,0.384496462655644,256,0,1,1,167.81624245471542,0.5244702883856815,0.0538048173110071,64.52475159999999
256,2048,15.824526675647771,49055,30,34574336,15203928,1.0111362128020223,0.089772556738256,0.5009191395476095,256,0,1,1,128.81270948894795,0.5390234999740849,0.0525180488007173,64.52475159999999
256,256,30.772028540183936,91441,4549,25354240,21119440,0.9670019549874009,0.1134878482821823,0.31553478579865396,256,0,1,1,204.49330629800642,0.8622454139245873,0.0140291552853401,64.52475159999999
256,512,28.64278725160284,25942,7555,25092096,21142400,0.9963051621917824,0.0462754091474712,0.3940311917715346,256,0,1,1,163.7554410601393,0.8693228772485103,0.013772842452708,64.52475159999999
512,1024,53.42094216617288,90013,22,26054656,15086032,0.9439354286664315,0.101608253277121,0.25685166032010925,512,0,1,1,251.21407243225153,0.6497956714650244,0.0685870754214725,64.52475159999999
512,128,53.94246965959061,40360,25,24567808,20702264,0.9695741682176225,0.0795309387715597,0.2856136739782788,512,0,1,1,225.916184968466,0.8695558924593326,0.0146441882690766,64.52475159999999
512,1536,25.243903012524044,27728,7538,34050048,15203392,0.987786245916742,0.1551607135166697,0.3861016523913513,512,0,1,1,167.11855854633308,0.539172801928302,0.0507074442278975,64.52475159999999
512,2048,20.59496174234773,91687,3880,34312192,15203720,1.0114405070616508,0.0475877806392246,0.6584580776345815,512,0,1,1,97.99371257133959,0.5428059856974454,0.053060051699313,64.52475159999999
512,256,36.59236769809117,101213,4141,25354240,20532800,0.9854963797026576,0.070602830817172,0.41532262261185143,512,0,1,1,155.36055126065926,0.8609693390637432,0.0159538212131745,64.52475159999999
512,512,25.979934881375414,26771,3812,25354240,21125056,1.00750780403069,0.1429318127634375,0.49799050366051867,512,0,1,1,129.57024506633297,0.864719627458036,0.0143604802125643,64.52475159999999
