cpu,memory,duration_std,userDiff,sysDiff,heapTotal,heapUsed,avg_cpu_util,cpu_util_std,slo_preservation,total_cpu_shares,cpu_shares_others,num_containers,arrival_rate,latency,memory_util,memory_util_std,slo_duration
1024,1024,239.5674361537777,1870064,176668,59699200,47754608,1.2574100943434094,0.3423557679659476,0.6119981834757058,1024,0,1,1,491.49014216304516,0.8203813533954621,0.0982213510944791,300.7910742
1024,128,583.5854093880635,2115101,171279,50651136,48357128,1.0398610138646296,0.200002462287892,0.2701945078276065,1024,0,1,1,1113.2390388627557,0.9087642673195274,0.0773333242733835,300.7910742
1024,1536,238.96750827751032,1783194,167328,67170304,54458696,1.220696230054597,0.2576591951038997,0.6121369304932784,1024,0,1,1,491.37874095851964,0.766135981748127,0.0955736687946665,300.7910742
1024,2048,226.0252815713056,1706359,140234,68218880,52420768,1.2341860816296562,0.3147789879140522,0.6371566869881685,1024,0,1,1,472.08336715704195,0.7280185042326365,0.1208059487139366,300.7910742
1024,256,375.2306193459594,1832003,173720,50913280,47720808,1.1474242579508118,0.1887520653795961,0.35355936253410014,1024,0,1,1,850.7512629395843,0.9004694870547457,0.0801041241629858,300.7910742
1024,512,386.0878475064287,1996657,178067,51175424,47983976,1.201735127946985,0.1701088238876299,0.3401670514009419,1024,0,1,1,884.2451758958545,0.8823975084726978,0.0994337542385506,300.7910742
128,1024,224.3325980762337,1734418,144493,58912768,49765472,1.2470303672948415,0.3664778126355986,0.6024038279622941,128,0,1,1,499.31799938500274,0.7528523315586569,0.102033432471486,300.7910742
128,128,637.1651226350738,2207879,245616,50913280,47873216,1.061702039446802,0.204534993530839,0.25452512743211536,128,0,1,1,1181.7735923940331,0.8967041670035302,0.0824818057681621,300.7910742
128,1536,241.25722495309805,1783296,161074,69005312,53315240,1.2619170296964068,0.323186409809593,0.6311342799657963,128,0,1,1,476.58807919021785,0.7651400866928777,0.1241775419940777,300.7910742
128,2048,217.5798189562762,1706582,135583,67956736,54531456,1.2586339387775043,0.2880652079778552,0.5961438678726086,128,0,1,1,504.56121485137334,0.7259585588122925,0.1048787429657531,300.7910742
128,256,572.37372215293,1999485,224266,51961856,47407216,1.0045489934455394,0.1096994263582352,0.25397970380628987,128,0,1,1,1184.3114614757294,0.9057132996609344,0.0532649056410011,300.7910742
128,512,635.8943432133276,2249646,169662,52224000,47540176,1.0201710158940673,0.2586376716347515,0.229090227220271,128,0,1,1,1312.9808191721265,0.896461158550132,0.0537299703908501,300.7910742
1536,1024,401.1232174383757,1822517,150960,57602048,48929560,1.1188506541672945,0.2127554975978584,0.3689830032791539,1536,0,1,1,815.1895115137233,0.8294136924791748,0.0897592057043565,300.7910742
1536,128,617.1493918113722,2148524,179390,51175424,47836624,1.1831399035753254,0.3376112216695025,0.24152781275934188,1536,0,1,1,1245.368269449399,0.8872048878870502,0.0817479227788955,300.7910742
1536,1536,216.88399094406944,1685518,144875,64024576,48622152,1.2509716884637516,0.3714523306286487,0.6113947822177551,1536,0,1,1,491.97520644340386,0.7779494570145918,0.1143802099047584,300.7910742
1536,2048,223.5350151639132,1748636,117439,69267456,54820312,1.2410184633677661,0.2456709060322927,0.6474482756646152,1536,0,1,1,464.57931159247215,0.7680422485596681,0.1016535743534758,300.7910742
1536,256,427.4007911255616,1989796,139994,51437568,48230328,1.1436229942208926,0.215913948750978,0.3496181329427677,1536,0,1,1,860.3417439141789,0.9079396535498544,0.0631353010998499,300.7910742
1536,512,406.0602462844564,2173036,161471,51961856,48295752,1.1595233812281895,0.1885532574430896,0.3421178002724295,1536,0,1,1,879.2032275446619,0.8707108482522242,0.0988646502942544,300.7910742
2048,1024,200.3964824236296,1537181,123419,57864192,47726424,1.2604825474900287,0.3550613751105961,0.6357812755466403,2048,0,1,1,473.10464426839553,0.8167222016400169,0.0984603780914415,300.7910742
2048,128,432.0277249885604,2196053,151710,51175424,48224240,1.1670376003333145,0.2434059325212346,0.33154686025680347,2048,0,1,1,907.2354778658402,0.9186305333328384,0.0604486989105636,300.7910742
2048,1536,239.0656286638613,1791008,104257,66908160,48181224,1.2112040358337113,0.2890827457171696,0.5663930464299497,2048,0,1,1,531.0642072601809,0.7568880946405033,0.0971022913667222,300.7910742
2048,2048,231.2529139102756,1802378,90021,55365632,40303784,1.2179977506397817,0.3205526308875304,0.6135108133314596,2048,0,1,1,490.2783580401093,0.7697343530087111,0.1023684653010131,300.7910742
2048,256,362.0951921376781,1949176,188930,51437568,48091496,1.1591148991859386,0.2161262479997426,0.34756292388800336,2048,0,1,1,865.4291166480265,0.8836438510315228,0.1099148885907888,300.7910742
2048,512,424.4557841714378,2043134,126816,51175424,47788984,1.1562830322498865,0.2428997704372293,0.35052996961550337,2048,0,1,1,858.1037294184517,0.905795353293794,0.0734316454246533,300.7910742
256,1024,218.95807285848795,1732846,143381,58388480,49288568,1.252892773958074,0.3731743637417683,0.6485867575635303,256,0,1,1,463.76382294628786,0.796056949614212,0.0979265071396661,300.7910742
256,128,728.0751762289985,2091951,160663,51175424,48374464,1.0905036101546557,0.3446696741639685,0.26025862385133447,256,0,1,1,1155.7391249859932,0.9182214682275942,0.0680392254849783,300.7910742
256,1536,219.40000668911603,1803399,116311,68481024,51856256,1.2332819528210095,0.3354170828905436,0.5904201259788752,256,0,1,1,509.45261003985854,0.7653167031531425,0.1049753560119162,300.7910742
256,2048,222.37039904139024,401991,32220,73199616,54154320,1.2465015469855627,0.2295850949102067,0.6732661244855555,256,0,1,1,446.7640109322823,0.7198936922705201,0.0977061232614141,300.7910742
256,256,366.257752501989,1837446,141244,51175424,47423520,1.1318734830034065,0.1986096463746759,0.3390577921803317,256,0,1,1,887.1380665394674,0.8599986837371345,0.1086684599166833,300.7910742
256,512,372.943933863988,2039193,164944,50651136,47846784,1.1657580120321376,0.2120762060371724,0.3659823103361805,256,0,1,1,821.8732591848559,0.885702140894221,0.072667645058203,300.7910742
512,1024,259.85140808866174,1971080,148730,58650624,50360232,1.2576469826127084,0.2659831192238307,0.602332085178154,512,0,1,1,499.377472330789,0.7992677806727851,0.0980205063913586,300.7910742
512,128,646.7333754141392,2135628,263199,51175424,48207664,0.9880522204260253,0.2169313943249368,0.2289198873022095,512,0,1,1,1313.957811812608,0.9156817140744014,0.0571876612319271,300.7910742
512,1536,219.8505481455226,1757163,130234,66908160,55697984,1.2561734369272435,0.3692458615006906,0.5836191019735997,512,0,1,1,515.3893578582807,0.7632434110962436,0.0860569087385458,300.7910742
512,2048,236.50590145856472,1788264,155527,67694592,48329016,1.2303413992075234,0.3434757139999052,0.625070638239651,512,0,1,1,481.21133164581187,0.7996406709103101,0.0787869376920193,300.7910742
512,256,378.09374611132887,2098519,130545,51175424,48126472,1.110614312922725,0.2359844971980522,0.37024408388181457,512,0,1,1,812.4129116294412,0.8856925764010309,0.0819649605052247,300.7910742
512,512,386.6468715060177,2014809,147119,51175424,47464424,1.1448698958230814,0.2848468447068409,0.3586804998863182,512,0,1,1,838.6044802974627,0.9029811970612288,0.0810485100029302,300.7910742
