cpu,memory,duration_std,userDiff,sysDiff,heapTotal,heapUsed,avg_cpu_util,cpu_util_std,slo_preservation,total_cpu_shares,cpu_shares_others,num_containers,arrival_rate,latency,memory_util,memory_util_std,slo_duration
1024,1024,239.5674361537777,1870064,176668,59699200,47754608,1.5178902813623627,0.3423557679659476,1.0,1024,0,1,1,244.28827575260902,0.8203813533954621,0.0982213510944791,300.7910742
1024,128,583.5854093880635,2115101,171279,50651136,48357128,1.068248663728465,0.200002462287892,0.46261778911668056,1024,0,1,1,650.1934886125512,0.9087642673195274,0.0773333242733835,300.7910742
1024,1536,238.96750827751032,1783194,167328,67170304,54458696,1.4312819113790616,0.2576591951038997,1.0,1024,0,1,1,251.44907031170388,0.766135981748127,0.0955736687946665,300.7910742
1024,2048,226.0252815713056,1706359,140234,68218880,52420768,1.462520750939356,0.3147789879140522,1.0,1024,0,1,1,239.0278787114084,0.7280185042326365,0.1208059487139366,300.7910742
1024,256,375.2306193459594,1832003,173720,50913280,47720808,1.2724879897066987,0.1887520653795961,0.6534927241827662,1024,0,1,1,460.28220830791685,0.9004694870547457,0.0801041241629858,300.7910742
1024,512,386.0878475064287,1996657,178067,51175424,47983976,1.388470666290097,0.1701088238876299,0.6550416997400109,1024,0,1,1,459.1937800591709,0.8823975084726978,0.0994337542385506,300.7910742
128,1024,224.3325980762337,1734418,144493,58912768,49765472,1.492889773316979,0.3664778126355986,1.0,128,0,1,1,250.25211611700055,0.7528523315586569,0.102033432471486,300.7910742
128,128,637.1651226350738,2207879,245616,50913280,47873216,1.1072483608039574,0.204534993530839,0.44240681418720074,128,0,1,1,679.8970191103856,0.8967041670035302,0.0824818057681621,300.7910742
128,1536,241.25722495309805,1783296,161074,69005312,53315240,1.5288761657713894,0.323186409809593,1.0,128,0,1,1,236.02223387804355,0.7651400866928777,0.1241775419940777,300.7910742
128,2048,217.5798189562762,1706582,135583,67956736,54531456,1.5208655747419135,0.2880652079778552,1.0,128,0,1,1,250.5380671702747,0.7259585588122925,0.1048787429657531,300.7910742
128,256,572.37372215293,1999485,224266,51961856,47407216,1.0076047182849877,0.1096994263582352,0.42458713574218404,128,0,1,1,708.4319068551457,0.9057132996609344,0.0532649056410011,300.7910742
128,512,635.8943432133276,2249646,169662,52224000,47540176,1.0340765995779135,0.2586376716347515,0.3870214559939173,128,0,1,1,777.1948287144253,0.896461158550132,0.0537299703908501,300.7910742
1536,1024,401.1232174383757,1822517,150960,57602048,48929560,1.215129983093245,0.2127554975978584,0.6678912103033493,1536,0,1,1,450.35938422274467,0.8294136924791748,0.0897592057043565,300.7910742
1536,128,617.1493918113722,2148524,179390,51175424,47836624,1.347682916493098,0.3376112216695025,0.45852975083514774,1536,0,1,1,655.9903117565462,0.8872048878870502,0.0817479227788955,300.7910742
1536,1536,216.88399094406944,1685518,144875,64024576,48622152,1.5023338665459627,0.3714523306286487,1.0,1536,0,1,1,245.79638456868076,0.7779494570145918,0.1143802099047584,300.7910742
1536,2048,223.5350151639132,1748636,117439,69267456,54820312,1.4785980897156137,0.2456709060322927,1.0,1536,0,1,1,233.9587102384944,0.7680422485596681,0.1016535743534758,300.7910742
1536,256,427.4007911255616,1989796,139994,51437568,48230328,1.2647180570168897,0.215913948750978,0.644397043471601,1536,0,1,1,466.77910342283576,0.9079396535498544,0.0631353010998499,300.7910742
1536,512,406.0602462844564,2173036,161471,51961856,48295752,1.2975124276586607,0.1885532574430896,0.6380525319902435,1536,0,1,1,471.4205478689323,0.8707108482522242,0.0988646502942544,300.7910742
2048,1024,200.3964824236296,1537181,123419,57864192,47726424,1.5253708750985364,0.3550613751105961,1.0,2048,0,1,1,234.56858537367913,0.8167222016400169,0.0984603780914415,300.7910742
2048,128,432.0277249885604,2196053,151710,51175424,48224240,1.3132826559381632,0.2434059325212346,0.621823354394146,2048,0,1,1,483.7243118555209,0.9186305333328384,0.0604486989105636,300.7910742
2048,1536,239.0656286638613,1791008,104257,66908160,48181224,1.4096925380472023,0.2890827457171696,1.0,2048,0,1,1,273.7733628120362,0.7568880946405033,0.0971022913667222,300.7910742
2048,2048,231.2529139102756,1802378,90021,55365632,40303784,1.4251118723632763,0.3205526308875304,1.0,2048,0,1,1,251.41518312802185,0.7697343530087111,0.1023684653010131,300.7910742
2048,256,362.0951921376781,1949176,188930,51437568,48091496,1.2966602043108293,0.2161262479997426,0.6480102651543285,2048,0,1,1,464.17640332960525,0.8836438510315228,0.1099148885907888,300.7910742
2048,512,424.4557841714378,2043134,126816,51175424,47788984,1.2907662774244095,0.2428997704372293,0.6521648122863666,2048,0,1,1,461.21941652369037,0.905795353293794,0.0734316454246533,300.7910742
256,1024,218.95807285848795,1732846,143381,58388480,49288568,1.506958761598845,0.3731743637417683,1.0,256,0,1,1,231.34528590925757,0.796056949614212,0.0979265071396661,300.7910742
256,128,728.0751762289985,2091951,160663,51175424,48374464,1.160524728560295,0.3446696741639685,0.4616163363850317,256,0,1,1,651.6040497083097,0.9182214682275942,0.0680392254849783,300.7910742
256,1536,219.40000668911603,1803399,116311,68481024,51856256,1.4604062311667023,0.3354170828905436,1.0,256,0,1,1,258.1331261279717,0.7653167031531425,0.1049753560119162,300.7910742
256,2048,222.37039904139024,401991,32220,73199616,54154320,1.4916271463933017,0.2295850949102067,1.0,256,0,1,1,224.00719862645644,0.7198936922705201,0.0977061232614141,300.7910742
256,256,366.257752501989,1837446,141244,51175424,47423520,1.24097457611761,0.1986096463746759,0.6195658588005717,256,0,1,1,485.48684522789347,0.8599986837371345,0.1086684599166833,300.7910742
256,512,372.943933863988,2039193,164944,50651136,47846784,1.3105846119499622,0.2120762060371724,0.6857494997845096,256,0,1,1,438.63112447697125,0.885702140894221,0.072667645058203,300.7910742
512,1024,259.85140808866174,1971080,148730,58650624,50360232,1.5184657239263366,0.2659831192238307,1.0,512,0,1,1,248.16124382615777,0.7992677806727851,0.0980205063913586,300.7910742
512,128,646.7333754141392,2135628,263199,51175424,48207664,0.9802443911499685,0.2169313943249368,0.37851817766932533,512,0,1,1,794.6542384095806,0.9156817140744014,0.0571876612319271,300.7910742
512,1536,219.8505481455226,1757163,130234,66908160,55697984,1.5148897855469319,0.3692458615006906,1.0,512,0,1,1,256.4219894516561,0.7632434110962436,0.0860569087385458,300.7910742
512,2048,236.50590145856472,1788264,155527,67694592,48329016,1.4535498736899672,0.3434757139999052,1.0,512,0,1,1,244.38964240916238,0.7996406709103101,0.0787869376920193,300.7910742
512,256,378.09374611132887,2098519,130545,51175424,48126472,1.1990345696510925,0.2359844971980522,0.6662010544038776,512,0,1,1,451.50194856588826,0.8856925764010309,0.0819649605052247,300.7910742
512,512,386.6468715060177,2014809,147119,51175424,47464424,1.2672619687522044,0.2848468447068409,0.6617086041789586,512,0,1,1,454.56727069949255,0.9029811970612288,0.0810485100029302,300.7910742
