cpu,memory,duration_std,userDiff,sysDiff,heapTotal,heapUsed,avg_cpu_util,cpu_util_std,slo_preservation,total_cpu_shares,cpu_shares_others,num_containers,arrival_rate,latency,memory_util,memory_util_std,slo_duration
1024,1024,144.24224453185846,218593,47614,39956480,29838504,0.6746109238575198,0.1861535200601566,0.5532640194833686,1024,0,1,1,736.844599146372,0.7663405784434649,0.1099929520087003,407.6696046583333
1024,128,258.91459718282687,239761,27924,33005568,29728016,0.8045538675254579,0.2636862169312368,0.38787097915246865,1024,0,1,1,1051.0443590008367,0.8728414709724327,0.0653247319367968,407.6696046583333
1024,1536,134.96833317106518,249030,33710,51359744,30233152,0.7236668905390387,0.2134004010217079,0.6672947036000241,1024,0,1,1,610.9288781388112,0.7474494415466493,0.1215352709846282,407.6696046583333
1024,2048,150.72642746311834,146550,26874,63803392,51795440,0.6661752356977929,0.2411024246838194,0.6293367601818144,1024,0,1,1,647.7765648721333,0.7427856244347029,0.1064634996453595,407.6696046583333
1024,256,146.78752024154448,203867,28396,33267712,29651872,0.7322895405783328,0.2568914042863904,0.47234595071156105,1024,0,1,1,863.074202381122,0.91161837109948,0.0292251542307861,407.6696046583333
1024,512,163.23875894739302,207182,35781,32743424,29943248,0.7744441551038282,0.2196626199728279,0.47671831155490046,1024,0,1,1,855.1582659551032,0.8806069911080104,0.0649680892914219,407.6696046583333
128,1024,172.36666823379846,223610,64939,38383616,30982608,0.7383150978459547,0.2288407917879093,0.4861745230291835,128,0,1,1,838.5252318823424,0.7895734750150982,0.0825196321782821,407.6696046583333
128,128,144.91349771650906,248041,28988,32743424,29895472,0.7213157861174199,0.1559238256877924,0.4244915321019062,128,0,1,1,960.3715830083166,0.880089127221269,0.048718637413437,407.6696046583333
128,1536,163.42918431128663,223216,47726,69832704,51713344,0.6733665290937021,0.2629698587208324,0.5570162630690556,128,0,1,1,731.880973119438,0.7685528484669943,0.1023340367519672,407.6696046583333
128,2048,156.95939652046465,284754,44759,49524736,30004568,0.7105224575636304,0.2416040912162554,0.6513665915215036,128,0,1,1,625.8681516134757,0.7794634496793537,0.0973975058397835,407.6696046583333
128,256,125.47409137260004,201604,28453,32219136,29716576,0.8034597671553448,0.2115645318564398,0.5120408264725187,128,0,1,1,796.1662109382854,0.8644214443576184,0.0648235685226905,407.6696046583333
128,512,141.9029617075053,203915,50514,33005568,29699776,0.7306994794300352,0.172892188560227,0.46273106175934825,128,0,1,1,881.0076486076687,0.8850966721310531,0.0574694276883103,407.6696046583333
1536,1024,144.27674355996086,237723,29639,38383616,31544928,0.7337503844087302,0.254632770117126,0.5480663365919295,1536,0,1,1,743.8325936844931,0.7918529447742262,0.1050875320175772,407.6696046583333
1536,128,254.44105523235996,279831,52351,32743424,29632816,0.6883871599703172,0.1320395332554268,0.38408575990255134,1536,0,1,1,1061.402549164451,0.8655862957686535,0.0604146939677342,407.6696046583333
1536,1536,110.50828265011356,188126,51418,69832704,51687888,0.6486558100622741,0.1669695994530621,0.6183042694947637,1536,0,1,1,659.3349339014807,0.7572543587802787,0.1081752464060217,407.6696046583333
1536,2048,136.39944398118894,300365,15407,50311168,30001968,0.6523942924170462,0.2486909942352593,0.6455431365278845,1536,0,1,1,631.5141182524583,0.7176939205215579,0.1210739802858482,407.6696046583333
1536,256,138.06069285242336,227380,16275,33005568,29857744,0.7476044876243856,0.19824869189816,0.4565547767554005,1536,0,1,1,892.925943203399,0.8834251518620533,0.0487673666624355,407.6696046583333
1536,512,189.577608125266,187593,42911,33005568,30275728,0.7759460264485117,0.2414038321121999,0.4264260210090197,1536,0,1,1,956.014840965135,0.8755909184907287,0.0473381245990296,407.6696046583333
2048,1024,142.5204424920734,233156,31639,39956480,30908848,0.7186213613971024,0.2396841899690396,0.5275786403697087,2048,0,1,1,772.7181759531672,0.7822862463033314,0.1176581316934037,407.6696046583333
2048,128,180.7752271514308,244288,22483,32481280,30297632,0.7533644843939087,0.1634279422019532,0.42603798323917896,2048,0,1,1,956.8855846110472,0.8721420168893613,0.0742219144913333,407.6696046583333
2048,1536,151.0027308809582,228020,30077,35885056,15539080,0.6181915514141914,0.1515008976820124,0.6007078396549507,2048,0,1,1,678.6487169744623,0.7193220444136659,0.1326422810039447,407.6696046583333
2048,2048,170.36174543460157,205289,36376,63541248,51795968,0.6426383336094094,0.1968128766760258,0.6547305799654236,2048,0,1,1,622.6524575648542,0.7093875995524082,0.1569660670553594,407.6696046583333
2048,256,152.24752718958914,208490,12163,32743424,29939632,0.8055537001221523,0.2203142841102801,0.489743117747904,2048,0,1,1,832.4151782530649,0.9013631464258746,0.0334187991290006,407.6696046583333
2048,512,129.69736361090295,252562,44026,32743424,29765248,0.7858497269158454,0.2126539934901953,0.4760720593139664,2048,0,1,1,856.3191153158557,0.9013548689686008,0.0347367247543266,407.6696046583333
256,1024,152.16299693079532,250673,28348,37335040,30956600,0.7503543375682633,0.2221806516277774,0.5649136867927489,256,0,1,1,721.6493673092681,0.8064105037909461,0.0904896719973777,407.6696046583333
256,128,522.1341100222215,274096,22454,32743424,29725072,0.6864484264453454,0.1915707420927366,0.3153229553625316,256,0,1,1,1292.8637060046244,0.8647848742318134,0.0784639112021832,407.6696046583333
256,1536,147.19419192998802,186504,27554,42708992,31134656,0.6405138340335196,0.179194832655845,0.5920618137484532,256,0,1,1,688.5591929621357,0.725575794623696,0.1185933923173709,407.6696046583333
256,2048,166.4117517343839,156495,31818,63803392,51805872,0.7087853573495346,0.2257002170524016,0.6579123303448575,256,0,1,1,619.6412285579834,0.7420489382839459,0.0916952766879381,407.6696046583333
256,256,165.88943168133918,246119,30837,33005568,29857856,0.7999354203882528,0.2511871663428605,0.48650271078454266,256,0,1,1,837.9595747800013,0.8760786278224921,0.0597111322208874,407.6696046583333
256,512,151.4060741932206,260692,18057,33267712,29769928,0.7304065900985988,0.1665253452700239,0.4541718775637803,256,0,1,1,897.6108491021297,0.8957294610598817,0.0473884568054189,407.6696046583333
512,1024,166.9008119742972,230331,46918,39694336,31539520,0.6972185245051487,0.2172403142288846,0.48612297556615697,512,0,1,1,838.6141473431616,0.7964181104953015,0.123029358794311,407.6696046583333
512,128,167.68416111685343,223635,23681,33005568,29714528,0.7537124496677504,0.1897001449802726,0.4211252568605215,512,0,1,1,968.0483372037579,0.8798411994477023,0.0624460976168976,407.6696046583333
512,1536,137.44818139653694,200885,33269,36933632,15525768,0.656363270931023,0.1586104964724288,0.6375308556982591,512,0,1,1,639.4507826791081,0.7356346939011236,0.1108244819107314,407.6696046583333
512,2048,126.39249824540956,194395,29304,63541248,51795264,0.6112445002110938,0.1839229928953048,0.6512018994722886,512,0,1,1,626.026436637692,0.7303309502857191,0.1199496368668521,407.6696046583333
512,256,149.70762175423062,192901,36291,32481280,29949736,0.7844259276765954,0.234729730315179,0.48481331536453764,512,0,1,1,840.8795545390519,0.8551592595717041,0.0620627418786882,407.6696046583333
512,512,178.15515521956794,237915,37984,33005568,29627760,0.8423903100961124,0.2429956652508694,0.46559139746757106,512,0,1,1,875.5952255039848,0.8518805345495417,0.0687180368618544,407.6696046583333
