cpu,memory,duration_std,userDiff,sysDiff,heapTotal,heapUsed,avg_cpu_util,cpu_util_std,slo_preservation,total_cpu_shares,cpu_shares_others,num_containers,arrival_rate,latency,memory_util,memory_util_std,slo_duration
1024,1024,835.5137900451208,1595157,127136,43175936,33913832,0.8499855375692196,0.1112691659455493,1.0,1024,0,1,1,777.3924604722565,0.836233468540532,0.0374314363581403,2281.738038385321
1024,128,696.8542817779129,2013463,168873,36225024,33110992,0.43255909712325913,0.042206964634872,0.2849623230444651,1024,0,1,1,8007.1569251956225,0.9188240058506476,0.0090181911526043,2281.738038385321
1024,1536,534.204298226697,1546957,125988,50909184,36832344,0.9502639983041917,0.1588511224124778,1.0,1024,0,1,1,467.4599946809137,0.7367170806293717,0.0427168250034933,2281.738038385321
1024,2048,354.2446465843875,1673207,131210,52482048,37696984,0.9870550146020157,0.2161093549250387,1.0,1024,0,1,1,266.1270875438684,0.7577377027357454,0.0392697535661066,2281.738038385321
1024,256,2908.3507256417342,1980814,169413,35962880,32778624,0.42500131015943843,0.092126427555486,0.398941809031129,1024,0,1,1,5719.475840165149,0.917750293264178,0.0112614007987799,2281.738038385321
1024,512,1492.6167029541907,1782952,163707,35700736,32452496,0.7038129456369253,0.3130250403803408,1.0,1024,0,1,1,1574.8335071086144,0.9265513556277388,0.0113283233362824,2281.738038385321
128,1024,770.8849580865052,1752585,131680,42913792,36529128,0.7853173483181689,0.1972001718820935,1.0,128,0,1,1,698.7484086827626,0.8490491709299418,0.0238478165516119,2281.738038385321
128,128,694.932375253997,1938388,291121,36487168,33935192,0.3688764644287476,0.0330809590905993,0.25446058887599243,128,0,1,1,8966.960457272588,0.9230782567762792,0.0074449274635274,2281.738038385321
128,1536,522.4257607726178,1558195,125154,52219904,40484752,0.9522012106046297,0.2364492117218196,1.0,128,0,1,1,449.78357171602414,0.72921030009439,0.0513252719504333,2281.738038385321
128,2048,370.514273229653,1481865,141880,51957760,39378600,0.9196970953832639,0.275947241422293,1.0,128,0,1,1,259.8294854323551,0.7311297257987872,0.0585733036259863,2281.738038385321
128,256,4313.631985333502,1879552,231037,35962880,32686056,0.3162977793474308,0.1646372596230709,0.20764350661578254,128,0,1,1,10988.728111818022,0.9173482905729166,0.0073524659738623,2281.738038385321
128,512,1933.4842774386532,1792021,129158,35962880,33453384,0.5278157665338744,0.1008003444652861,0.8736054686260958,128,0,1,1,2611.863272758321,0.9256517520224644,0.0124154810627364,2281.738038385321
1536,1024,809.6163097465408,1745277,148689,43700224,35386040,0.8755359321247042,0.1464774429847262,1.0,1536,0,1,1,719.9924095114354,0.8329573508163929,0.0215487184346154,2281.738038385321
1536,128,2154.985702522448,2056009,201342,35700736,32610912,0.3212650299074578,0.0528375016535356,0.21093688390991372,1536,0,1,1,10817.160072203393,0.9184916099307614,0.0091181965532486,2281.738038385321
1536,1536,341.19290189555915,124783,12091,52219904,38471992,1.0995649658111275,0.182951538216983,1.0,1536,0,1,1,242.71393754686903,0.7427867747822929,0.0365127284074173,2281.738038385321
1536,2048,187.85133448863064,1314270,133492,51695616,40267400,1.0387823639497642,0.1653488574436513,1.0,1536,0,1,1,145.1211484734526,0.783881271910892,0.0376172371478268,2281.738038385321
1536,256,2898.228681268016,1788408,138661,35962880,32342112,0.46782545613042276,0.1668038662452214,0.39990916647435604,1536,0,1,1,5705.640754627804,0.9207430557392468,0.0113399122299134,2281.738038385321
1536,512,1880.46785003308,1885525,160655,35962880,32964080,0.5344329861997565,0.1209787876404332,1.0,1536,0,1,1,1981.9287632275623,0.9250857363936148,0.0100077648743611,2281.738038385321
2048,1024,836.4441105411645,1796176,184084,43438080,35040440,0.8857175070088268,0.1321931303800687,1.0,2048,0,1,1,747.5853811350642,0.8312773684004385,0.0334457125582656,2281.738038385321
2048,128,2202.0917754132474,2144919,240126,36225024,33706312,0.4084586618030673,0.0624675911473272,0.26517514935091874,2048,0,1,1,8604.645058069864,0.9207411726082526,0.0102124872920398,2281.738038385321
2048,1536,314.30966913873493,1357198,108875,52219904,41067136,1.0844110230755883,0.1739922840558873,1.0,2048,0,1,1,252.30698885414995,0.7231861939239128,0.0505832309805356,2281.738038385321
2048,2048,186.81066253985068,1366239,85208,51695616,40375232,1.0585242245029673,0.18173652283021,1.0,2048,0,1,1,154.1495562433081,0.7382666317674592,0.0492167288978314,2281.738038385321
2048,256,2396.0334824374613,1885217,132061,36225024,33495608,0.5232079817744653,0.2303150810517271,0.5253768849755804,2048,0,1,1,4343.049920232742,0.9245826271200532,0.0116025711194601,2281.738038385321
2048,512,1328.8024530153257,169955,4501,38322176,35800184,0.7745096937059092,0.221050222967392,1.0,2048,0,1,1,1573.6024130707758,0.9262753796270646,0.0133693294715331,2281.738038385321
256,1024,754.635882327657,1609482,134321,42389504,35977792,0.8354016371051984,0.1968805469041046,1.0,256,0,1,1,679.1038482234317,0.8403239396619361,0.0266657354733992,2281.738038385321
256,128,950.8970427590344,1889495,201253,35962880,32730712,0.37160828472837903,0.0280394899238427,0.25387345339087714,256,0,1,1,8987.698429706375,0.918828031699768,0.0073643359418848,2281.738038385321
256,1536,345.5819478828914,1662459,141395,52219904,37894176,1.043856949783059,0.1396423606672454,1.0,256,0,1,1,266.2028000673313,0.7555453269911834,0.0431668365119796,2281.738038385321
256,2048,210.57195880905795,1445490,118625,52744192,40764592,1.065297133412569,0.1848199448632476,1.0,256,0,1,1,140.4722295312309,0.7786515086001243,0.0467683094966788,2281.738038385321
256,256,3596.878690157785,67429,3833,37011456,33795536,0.29644462430983576,0.0308424900406811,0.2520667154805128,256,0,1,1,9052.119531274337,0.9192813916720132,0.0102113172973043,2281.738038385321
256,512,1789.1914627391056,2005098,146047,36487168,33542584,0.6057606839353227,0.2563638865268449,0.8904820927922266,256,0,1,1,2562.362631269343,0.920568825248772,0.0099319375806797,2281.738038385321
512,1024,1028.643677128336,1616328,112983,42389504,35114696,0.7401227829664324,0.1626458640493183,1.0,512,0,1,1,891.5106613681546,0.838216214156542,0.0249307343115469,2281.738038385321
512,128,3102.279037861581,1863071,243002,36487168,33901544,0.3933217201209938,0.1029951041219584,0.24712194567535878,512,0,1,1,9233.247302863234,0.9193704985995556,0.008285930862827,2281.738038385321
512,1536,357.5739914286188,27987,5,51433472,38020816,0.9873253692654483,0.2908643408752471,1.0,512,0,1,1,254.63995542237942,0.738919739299375,0.0536017121527568,2281.738038385321
512,2048,186.90614713003103,1355581,106831,50647040,41124384,1.06807990398577,0.2212133110495095,1.0,512,0,1,1,134.66748831214795,0.7498431574635559,0.0517592428429158,2281.738038385321
512,256,4067.2489815880135,1713527,137962,35700736,33027520,0.4244153063778742,0.2731976575358062,0.28732884449740853,512,0,1,1,7941.207720987792,0.9209876118553056,0.0119176098391711,2281.738038385321
512,512,2045.2671917393343,1688604,173126,35700736,33397536,0.4793050612646171,0.1332568149923779,0.9399085933328885,512,0,1,1,2427.616956127983,0.9288932065217672,0.0118682880428329,2281.738038385321
