cpu,memory,duration_std,userDiff,sysDiff,heapTotal,heapUsed,avg_cpu_util,cpu_util_std,slo_preservation,total_cpu_shares,cpu_shares_others,num_containers,arrival_rate,latency,memory_util,memory_util_std,slo_duration
1024,1024,164.78002593948574,80957,3972,30785536,25519384,0.3415725700717843,0.1965178792636397,0.7836157070689489,1024,0,1,1,437.3692865966383,0.6834068286023864,0.0627133390663,342.72944276666647
1024,128,151.63566287147603,42723,495,25403392,20867984,0.31312448316828306,0.1586988895200143,0.7834519717341646,1024,0,1,1,437.4606933569107,0.8616826207541136,0.0199879081351696,342.72944276666647
1024,1536,159.41710539339255,31504,10048,33787904,15608648,0.36567858686246696,0.106400798773776,0.9412760398898559,1024,0,1,1,364.1115127149855,0.5605783868556429,0.0592937329010489,342.72944276666647
1024,2048,130.49022094039267,50820,13247,34836480,15618456,0.3058772933285909,0.1004605542853398,0.7377562474702901,1024,0,1,1,464.5564763997046,0.5733123325213627,0.0862196953399102,342.72944276666647
1024,256,140.60834725290496,66787,4607,25141248,21587360,0.3451534367942822,0.1222850726168858,0.7943160996387817,1024,0,1,1,431.47739662147603,0.8690901836062267,0.0161092662667241,342.72944276666647
1024,512,143.19109107004158,85802,1732,25141248,21561072,0.39840702520716587,0.1682414702046867,0.8485517801126733,1024,0,1,1,403.8992679046149,0.8659908351446234,0.0131208427631459,342.72944276666647
128,1024,133.14125138966057,97185,11384,26054656,15557936,0.3003736247370001,0.1391603499835733,0.7462101740655057,128,0,1,1,459.2934466430635,0.670679059123998,0.0564410469261559,342.72944276666647
128,128,111.98516624706002,86830,15784,24616960,21304160,0.32889473933251373,0.1011650336256263,0.7803580701401235,128,0,1,1,439.1951027111502,0.8669914263713799,0.0180462529713911,342.72944276666647
128,1536,136.88909345456406,114323,6701,34836480,15669392,0.3161270636811946,0.1652040505643873,0.7988662527891958,128,0,1,1,429.01980346528126,0.5889875962546378,0.0864899555352448,342.72944276666647
128,2048,135.07984358673642,63746,19,39305216,25267600,0.30845850559670535,0.1258459343574708,0.8698616334103503,128,0,1,1,394.0045515319177,0.5607377169542008,0.0546702900934113,342.72944276666647
128,256,140.8238179443545,26605,306,25141248,21672552,0.3873217146285133,0.194629975983225,0.8543921952158539,128,0,1,1,401.1383117563231,0.8642823003179402,0.0105969243636964,342.72944276666647
128,512,145.85308787697244,25724,4401,25141248,21194600,0.2512928235891431,0.0742866101670101,0.7559212207601114,128,0,1,1,453.39306974612674,0.8654533825751628,0.0126012113229761,342.72944276666647
1536,1024,137.99454335884684,119518,18992,25792512,15380360,0.347254921255149,0.1605827640441963,0.7300951261803641,1536,0,1,1,469.4312158467936,0.6698962921316373,0.0477563395679029,342.72944276666647
1536,128,157.4524629717352,42996,4517,24879104,21047880,0.35312404560289,0.157008474194937,0.821643410106172,1536,0,1,1,417.1267468966608,0.8610052808238867,0.0142304639872406,342.72944276666647
1536,1536,118.10349875193032,50447,393,34312192,15631472,0.2949932701825753,0.178197984674937,0.8746176683166903,1536,0,1,1,391.8620160352941,0.5637306539313203,0.0555256038483668,342.72944276666647
1536,2048,121.6651463835112,118030,13624,34836480,15477904,0.3070923325096488,0.1689704729586533,0.8722427519447259,1536,0,1,1,392.928966165127,0.5499390638778661,0.0534045544396503,342.72944276666647
1536,256,157.69858841044172,65648,909,25141248,21653608,0.3375077327040317,0.1306163457618162,0.7897818016777944,1536,0,1,1,433.95459611576246,0.8668774771272995,0.0124969050384905,342.72944276666647
1536,512,138.34699057621148,67017,7202,25403392,20907648,0.3059748567854179,0.1174973024217233,0.8033123163296906,1536,0,1,1,426.64532311988796,0.8655349285568013,0.0154500965737373,342.72944276666647
2048,1024,174.2163694332828,76406,12136,30523392,25748536,0.36199187983715786,0.111127439659366,0.7874855694231592,2048,0,1,1,435.2199660213699,0.6802689353455941,0.0661118271531098,342.72944276666647
2048,128,136.57469919085443,28394,11980,24879104,21008840,0.39154134894525117,0.1606219715820742,0.8728957730084697,2048,0,1,1,392.6350125232431,0.8708954465392573,0.0145897301170798,342.72944276666647
2048,1536,131.67575981424878,59938,4092,39043072,25511216,0.34546178233919383,0.1243757636793285,0.8226083131896113,2048,0,1,1,416.6374655730805,0.6054234675998948,0.1171926559171239,342.72944276666647
2048,2048,115.516837776102,62674,10046,34574336,15592544,0.24112939282438223,0.0669611168602919,0.906137112474916,2048,0,1,1,378.2313272994367,0.5661396476276507,0.0561587655580623,342.72944276666647
2048,256,154.86646114906048,31809,31,25141248,21657896,0.3300844866361255,0.0963229443813571,0.7700850927659639,2048,0,1,1,445.05398946973924,0.8655472556608046,0.0107794786381207,342.72944276666647
2048,512,136.894539861181,83613,8601,25141248,20876920,0.3429358327891567,0.108829655627237,0.8821144802652119,2048,0,1,1,388.53170470982775,0.861389749886522,0.0174929566091891,342.72944276666647
256,1024,153.70279959735748,33660,8320,30785536,25290448,0.37861722985423873,0.1831864088503257,0.7883789211016414,256,0,1,1,434.7267964594404,0.6729536740596557,0.0540055248357853,342.72944276666647
256,128,140.11312119191672,96786,5393,24616960,21408984,0.4242174601750306,0.1858831406597871,0.7853630894103532,256,0,1,1,436.39616807556627,0.8692925080748941,0.0158470203465659,342.72944276666647
256,1536,122.01427816991549,115113,9077,34050048,15516224,0.37811350406858024,0.2054775916743271,0.8539574130910118,256,0,1,1,401.34254649316983,0.5641213959148434,0.0552765110224529,342.72944276666647
256,2048,142.9102317680918,81493,8985,34312192,15480696,0.2699965219084457,0.0724430272701887,0.8647756985195865,256,0,1,1,396.3217784142022,0.5618088054531754,0.0522060331470558,342.72944276666647
256,256,173.33561862744625,41214,265,25104384,21579416,0.35600654509703966,0.1078974268463397,0.8585797533550997,256,0,1,1,399.1818365473581,0.8661943809528388,0.0137236758289092,342.72944276666647
256,512,141.6590200671308,64880,4139,25104384,21640720,0.3927676765704296,0.1523812633622905,0.7572733461268903,256,0,1,1,452.5835281534364,0.864135015590686,0.0165652883569064,342.72944276666647
512,1024,142.88460086044591,99009,3442,26316800,15533656,0.2733482000758591,0.0676324854290477,0.743487745346097,512,0,1,1,460.9752412356499,0.6774189650577002,0.0625811711245191,342.72944276666647
512,128,134.7233790643865,41550,7438,25366528,21587752,0.38132981775207164,0.1189648423197474,0.9456151118101426,512,0,1,1,362.440741995543,0.8596868060444145,0.014402246085865,342.72944276666647
512,1536,148.01762266010738,26654,553,39006208,25451800,0.2645217360229739,0.0989455251572636,0.8590106037708803,512,0,1,1,398.98162055526967,0.5535184672798665,0.0562198755025015,342.72944276666647
512,2048,155.06667585488796,116688,590,39268352,25223808,0.3182254382483196,0.1153646062344105,0.9802544073619435,512,0,1,1,349.63315665064795,0.551163004433945,0.0501624252226294,342.72944276666647
512,256,150.61718936501018,40929,69,25366528,21557584,0.3606579804882261,0.1497451520421003,0.8220863380684644,512,0,1,1,416.90200517372364,0.8656109766678775,0.0147787760714897,342.72944276666647
512,512,150.23728040216176,28681,8052,25104384,21610624,0.30621003540618535,0.1022193121096952,0.8218985160830239,512,0,1,1,416.9972765007958,0.8735162624982985,0.0132733841445565,342.72944276666647
