cpu,memory,duration_std,userDiff,sysDiff,heapTotal,heapUsed,avg_cpu_util,cpu_util_std,slo_preservation,total_cpu_shares,cpu_shares_others,num_containers,arrival_rate,latency,memory_util,memory_util_std,slo_duration
1024,1024,587.0105549133276,2077617,122701,57602048,48203576,1.0020618601842581,0.1512539859851517,0.5977815650672184,1024,0,1,1,735.7137711158373,0.8464867151416395,0.0888819012395352,439.7961295391305
1024,128,1465.977648552144,2164924,199206,51437568,47170640,1.0040595637573235,0.2580953472920116,0.2788172539178648,1024,0,1,1,1577.3633925420106,0.9423198209170864,0.0175320276297878,439.7961295391305
1024,1536,392.27502580126,1874333,158877,61140992,49417072,1.2538922451977024,0.2462385239262773,1.0,1024,0,1,1,430.84052844446484,0.8365794272327817,0.0578026413210551,439.7961295391305
1024,2048,207.3632349404617,1589339,145390,55627776,32890648,1.2963635074180553,0.2078369727616532,1.0,1024,0,1,1,243.8471758845693,0.7848989440175747,0.0830415890655579,439.7961295391305
1024,256,606.4496135867395,2139328,149960,51437568,47250656,1.0305082218964439,0.1614127960579818,0.5764093265253751,1024,0,1,1,762.9927367592124,0.9215910484834706,0.0658594442180811,439.7961295391305
1024,512,615.6791589742938,2098567,191046,51961856,46925440,0.9646965282608726,0.1266962261524108,0.5468129318587397,1024,0,1,1,804.2899205842936,0.9236691427171232,0.0465429838560811,439.7961295391305
128,1024,585.8897275487348,2085796,164657,58650624,49559416,0.9688585701957475,0.1703896343793744,0.5698728285917805,128,0,1,1,771.7443392167265,0.8451061218723044,0.0782307100625263,439.7961295391305
128,128,1258.4645403663046,2062403,246752,50126848,46988472,1.0284505557903294,0.3660487424152384,0.32156564377458335,128,0,1,1,1367.6713854650045,0.9121918451306292,0.0592913169314741,439.7961295391305
128,1536,347.8508912377565,1818376,125166,68481024,47235944,1.1654489912169181,0.1751647302993946,0.9604827666739582,128,0,1,1,457.89070329923163,0.7967608511546149,0.073469325157604,439.7961295391305
128,2048,215.5094721911821,167805,16654,63238144,49580848,1.2908822021758517,0.1869696710193362,1.0,128,0,1,1,268.77244835599333,0.8115757343103411,0.0659961376955451,439.7961295391305
128,256,615.5077399364849,2075805,147453,50126848,47388400,1.0159848337459958,0.1147094685549513,0.5418636891635294,128,0,1,1,811.6360965578635,0.9275809797405202,0.0511342156608471,439.7961295391305
128,512,618.7485311052699,2042324,174099,50913280,46831008,0.9930233406493474,0.1604826447345639,0.5448824198835818,128,0,1,1,807.1395102691995,0.9241104702358772,0.0513665539655434,439.7961295391305
1536,1024,610.1213573259278,150867,6403,71766016,62541472,1.0534184110976401,0.1469863227450561,0.6324881854502883,1536,0,1,1,695.3428374729652,0.8797194815814272,0.0453164218651524,439.7961295391305
1536,128,931.9018150179852,2025651,171644,51175424,47688480,0.8655816904340026,0.2330308217553101,0.37537868779455186,1536,0,1,1,1171.606550502502,0.9160690987896918,0.0584384109181189,439.7961295391305
1536,1536,376.1560915546079,1821371,150725,67432448,49684144,1.1708917912875627,0.2671718131055252,0.9751167543468232,1536,0,1,1,451.0189447352134,0.8100124411769191,0.0705287637658013,439.7961295391305
1536,2048,222.71193028098327,236946,17212,78188544,65188088,1.3163204447289503,0.302068790995179,1.0,1536,0,1,1,264.2824184726567,0.8108697878979452,0.0707588399880108,439.7961295391305
1536,256,627.3014190721116,2343137,151302,50126848,47158568,1.035802796361319,0.1317919479500449,0.5485687071368192,1536,0,1,1,801.7156717425379,0.929161731370255,0.0537682571080223,439.7961295391305
1536,512,633.3971862380912,2160695,160745,50388992,47507416,1.0088016543953278,0.1893629065120537,0.5788894979581943,1536,0,1,1,759.7238006395675,0.9434922712489796,0.0342986313739516,439.7961295391305
2048,1024,618.2488444926006,1893369,136876,57077760,49750448,1.0257592820257977,0.1489988177167237,0.598114662156031,2048,0,1,1,735.3040434651646,0.8789131401934366,0.0357099472254702,439.7961295391305
2048,128,704.6094450262492,2280282,190734,50126848,46925464,1.1048571340886162,0.3026697412962882,0.4845470954937823,2048,0,1,1,907.6437226209191,0.9211631236896556,0.0492913398155356,439.7961295391305
2048,1536,360.8148529194855,1703787,154724,63762432,51454096,1.1588043254867633,0.2531995688644782,1.0,2048,0,1,1,410.90817055607897,0.8110684417046367,0.0541127173487986,439.7961295391305
2048,2048,201.2288738361138,1440533,149943,62976000,50638464,1.282027767874237,0.196400637876312,1.0,2048,0,1,1,245.42121279125257,0.7992358538223414,0.0803520390506074,439.7961295391305
2048,256,614.2311520690392,2040036,200796,51175424,48665336,0.9856428183399683,0.162213922696854,0.55355510435257,2048,0,1,1,794.4938563135637,0.9295396343485092,0.0516865476006838,439.7961295391305
2048,512,602.2629874462391,1991857,235847,51175424,46919976,1.0457818786822592,0.1325274224858101,0.5964287140313347,2048,0,1,1,737.3825558573373,0.945527073217402,0.0167690952735781,439.7961295391305
256,1024,611.5951380734429,1854337,195692,56815616,50032624,1.0263191751989542,0.2111502219399405,0.6384808351945617,256,0,1,1,688.8164926753255,0.8601800672369398,0.0663545379004334,439.7961295391305
256,128,870.5381691463601,2102335,255102,51175424,46830832,0.9550071786884055,0.3274864221656601,0.4052828905933417,256,0,1,1,1085.1583912048711,0.9441652040450752,0.0222803979218665,439.7961295391305
256,1536,395.1571936549212,1838684,135984,73461760,50653296,1.1838952310958932,0.1970879562254634,1.0,256,0,1,1,431.20565495929804,0.7902594213359967,0.0729625520395459,439.7961295391305
256,2048,200.86862570591208,1479376,167737,62976000,50603760,1.2900463425741722,0.2222783792443744,1.0,256,0,1,1,260.46123487958863,0.8053665237620269,0.0601904539033956,439.7961295391305
256,256,589.2224964126277,1858853,148301,51175424,46870728,1.0441224604912447,0.1703901265458391,0.590961721800932,256,0,1,1,744.2040885471729,0.9227007485777712,0.0731882904720899,439.7961295391305
256,512,616.2999217043969,2047124,157370,51175424,46842480,1.0168734879685934,0.2004483746573764,0.5583732574127562,256,0,1,1,787.6382396552132,0.9399570877650184,0.0316322202881733,439.7961295391305
512,1024,560.1536473551893,1897584,188994,57864192,49920656,1.004686104204392,0.1825400445373793,0.58095180320529,512,0,1,1,757.0268774666673,0.8410576495664885,0.0596071399526448,439.7961295391305
512,128,1627.509595930734,2364342,269053,49864704,46932840,0.8332622094085026,0.2392711431097962,0.22837529593800704,512,0,1,1,1925.7605238463013,0.9344985951288624,0.0373948157330392,439.7961295391305
512,1536,390.6064175770013,1962762,177891,75034624,50606136,1.1897898961789717,0.3260830729125162,0.9450697451926495,512,0,1,1,465.3583841576469,0.814974358374258,0.0679077607463291,439.7961295391305
512,2048,246.25379705255776,1763954,174935,55365632,32920416,1.3274527973387358,0.234497289796586,1.0,512,0,1,1,269.7278687753523,0.7828809558660297,0.0937497612118892,439.7961295391305
512,256,583.6790827600196,1867332,168523,51175424,46869440,1.026962005730572,0.1236132224527677,0.5729430727577725,512,0,1,1,767.6087738040712,0.9373705380227404,0.0354234751833351,439.7961295391305
512,512,583.3403917306485,2051503,132403,50388992,47091984,1.0259911832835626,0.17296930537805,0.562963924934369,512,0,1,1,781.2154741361136,0.9441741963055084,0.0260131766064846,439.7961295391305
