cpu,memory,duration_std,userDiff,sysDiff,heapTotal,heapUsed,avg_cpu_util,cpu_util_std,slo_preservation,total_cpu_shares,cpu_shares_others,num_containers,arrival_rate,latency,memory_util,memory_util_std,slo_duration
1024,1024,50.70725851856735,118546,25000,49483776,39094672,0.9908974678173034,0.1588920588567189,0.4985549093859295,1024,0,1,1,221.09503433453548,0.7672285312389711,0.051251890917985,110.22801480833331
1024,128,106.20723490292336,52346,15040,35479552,31847832,0.9330000676833109,0.2829089034245126,0.3178510373098448,1024,0,1,1,346.79142701957517,0.8856819306332353,0.0273848374476407,110.22801480833331
1024,1536,32.52403086905258,115310,27879,52584448,32648632,1.0485919201327676,0.1764097591314824,0.6340955043029307,1024,0,1,1,173.83503598485274,0.6683269276254974,0.0608578046672126,110.22801480833331
1024,2048,23.52508826220264,43550,24714,54386688,34949568,1.083475370614636,0.2282193684436464,0.8969949354093174,1024,0,1,1,122.88588313827434,0.6571272655078177,0.0500726019415231,110.22801480833331
1024,256,72.85040356490802,95876,37102,36327424,32899256,0.9557482370815661,0.1545812783556158,0.39347688213152926,1024,0,1,1,280.13847779623023,0.8880638075446301,0.0311396878054749,110.22801480833331
1024,512,65.75802803413634,157518,40387,49336320,45068992,0.966304077025735,0.1842774392607026,0.40413263973671837,1024,0,1,1,272.7520718943759,0.8813056208152231,0.0270460321818976,110.22801480833331
128,1024,63.1295808798718,59120,4428,31285248,21456320,0.9287805718135483,0.1683166314523621,0.5530900428601699,128,0,1,1,199.2948819659021,0.7477567891747048,0.0485989313451932,110.22801480833331
128,128,92.02236602728848,30566,8898,35557376,31678712,0.8794744337098069,0.106703971938018,0.3786058306549248,128,0,1,1,291.14188394208634,0.8923242388988695,0.0204269744182369,110.22801480833331
128,1536,30.369591073633053,120135,35140,66347008,47028472,1.0474707912847434,0.1561815215708825,0.6691572382387824,128,0,1,1,164.72662703081977,0.6729241916205138,0.0516602122683259,110.22801480833331
128,2048,27.484976078476095,25031,4166,50180096,40182552,1.1075207613727254,0.200804572771417,0.83159648804573,128,0,1,1,132.54988013161474,0.6761769476345811,0.0588735359289725,110.22801480833331
128,256,78.5868377912712,26202,15307,36081664,31618936,0.9813142674965274,0.1451995970911383,0.42204796618902324,128,0,1,1,261.1741404742733,0.8835102898547577,0.032825821567377,110.22801480833331
128,512,67.46221529547581,87485,11798,45862912,41344784,0.9721801078616705,0.2701174841993331,0.4468867661268122,128,0,1,1,246.6575946378643,0.8730961954244938,0.0310337461732977,110.22801480833331
1536,1024,50.220536608388656,83549,39826,40214528,30050488,0.9347471386911084,0.1762329875915697,0.6110873661106636,1536,0,1,1,180.38012389274596,0.7595344734007625,0.0465180660184754,110.22801480833331
1536,128,89.67050329849407,34950,7831,35479552,31797352,0.8795291556387953,0.1717635272537604,0.3260221223654307,1536,0,1,1,338.0998013526863,0.888299206333909,0.0261310960515624,110.22801480833331
1536,1536,24.80484458622461,64753,32312,54927360,37326000,1.0265896688066694,0.1870554649419796,0.9948942966674905,1536,0,1,1,110.79369454378656,0.6493234738096675,0.0468287884762478,110.22801480833331
1536,2048,26.13289644447141,32327,11272,42729472,27518224,1.0817341838664902,0.191950333688107,0.9365920216668466,1536,0,1,1,117.69053361372995,0.6687420116058095,0.0568720285962712,110.22801480833331
1536,256,87.1804997182906,153666,40359,49598464,45420752,0.9156302218288257,0.1400496425603899,0.3982727811452095,1536,0,1,1,276.7651218629083,0.886221539392114,0.0237561477735623,110.22801480833331
1536,512,74.28924824607945,30864,8559,35684352,31538656,0.9903905471267037,0.220037463608197,0.41937956503759716,1536,0,1,1,262.83592239038023,0.872171792161519,0.0451195705192301,110.22801480833331
2048,1024,50.90016143821,35696,9389,41631744,33494088,0.9627854306238938,0.1481957913416879,0.5260158672872892,2048,0,1,1,209.5526421603763,0.7669162130545829,0.0518735278255239,110.22801480833331
2048,128,85.7800702561639,99293,19753,27582464,23039144,0.9555482517998817,0.1572636067107912,0.379618577341531,2048,0,1,1,290.36517543545983,0.8870676756560929,0.0231565375672867,110.22801480833331
2048,1536,41.94208687248326,130659,42748,60428288,40399600,1.0038071266587474,0.170324260955598,0.613011768516008,2048,0,1,1,179.81386405545794,0.6752540143039424,0.0544533130344027,110.22801480833331
2048,2048,23.544356853581466,102450,34901,66871296,47385096,1.0762843216719937,0.1695223849278763,0.7371401335542105,2048,0,1,1,149.53468111532007,0.673681112999647,0.0361574223151045,110.22801480833331
2048,256,76.3127116149058,128527,35642,32210944,27841248,0.9852125371432872,0.2349074132182238,0.5174010586009815,2048,0,1,1,213.0417264827069,0.8782172701132775,0.0267167881754949,110.22801480833331
2048,512,77.0598548203913,112816,44233,36851712,32013560,0.9588295623539805,0.1806387263000956,0.4197043678031495,2048,0,1,1,262.6325177059693,0.8724311062032355,0.0289308691977275,110.22801480833331
256,1024,58.45150829735336,122757,19213,49221632,39094368,0.9681130595420573,0.1641875180478888,0.5107987589918506,256,0,1,1,215.79538491026742,0.7639252618018385,0.0610100581011044,110.22801480833331
256,128,82.29695527003668,26345,13838,35557376,31719792,0.8978076946295109,0.1770403346813552,0.37931686923259045,256,0,1,1,290.5961314911714,0.8878151981090742,0.0218898866516258,110.22801480833331
256,1536,34.729655708456626,94891,38301,66871296,47102304,0.9853265135612131,0.1855523785695035,0.6557937563966809,256,0,1,1,168.08335506881198,0.6462805812809633,0.0480519648015543,110.22801480833331
256,2048,23.17220692396042,41528,17326,55451648,37461368,1.1149827652789415,0.185536260389765,0.8295008318644175,256,0,1,1,132.88475499244606,0.659101963191028,0.0557237276095564,110.22801480833331
256,256,44.07126726836397,22808,8407,35819520,31646704,1.0452383633510443,0.1599244650618178,0.4891474388550485,256,0,1,1,225.34721855305006,0.877670221572689,0.0282685450824967,110.22801480833331
256,512,56.845369017312045,33542,7464,36081664,31646672,0.9839837237159956,0.2115044391918114,0.40509967272936076,256,0,1,1,272.1009722512773,0.888006718014144,0.022344472076941,110.22801480833331
512,1024,56.59267891022114,35860,11984,41893888,33494808,0.9347281045809793,0.1655339477005728,0.5644895834736828,512,0,1,1,195.27023710522067,0.759839530237796,0.056883418468921,110.22801480833331
512,128,88.6800696526864,25692,19859,35422208,31496032,0.8562864825852785,0.1676820751518554,0.3581486154255513,512,0,1,1,307.77171838947544,0.8869392535898255,0.0254080892417158,110.22801480833331
512,1536,37.77799166080589,56174,21870,55189504,37353152,1.0217320593221904,0.1524497380875041,0.7190364735606295,512,0,1,1,153.29961533451868,0.6783084546556615,0.0579443497653204,110.22801480833331
512,2048,20.93463103474021,88284,18391,64458752,46372216,1.089770544396683,0.2312454147201494,1.0,512,0,1,1,102.97993129421465,0.6387138189495879,0.0434986172949097,110.22801480833331
512,256,46.43050289725861,151852,52264,44695552,40522288,1.0721301893860031,0.2247424837640197,0.4904460060686917,512,0,1,1,224.75056060074186,0.8789075163395841,0.024036899594036,110.22801480833331
512,512,70.49911351270927,159624,40589,49336320,45647592,0.9662342786317801,0.2646141355168613,0.3749076447485315,512,0,1,1,294.0137827337944,0.8820492881873582,0.0355997420702169,110.22801480833331
