cpu,memory,duration_std,userDiff,sysDiff,heapTotal,heapUsed,avg_cpu_util,cpu_util_std,slo_preservation,total_cpu_shares,cpu_shares_others,num_containers,arrival_rate,latency,memory_util,memory_util_std,slo_duration
1024,1024,76.52024706456567,279620,33456,37335040,30515016,0.9356404880044775,0.1850503274096367,0.529590801749003,1024,0,1,1,304.79119162329545,0.7694637257645354,0.1265242345898893,161.41461153781503
1024,128,357.0418325365848,219248,46272,32481280,29750544,1.0942578169403245,0.3966043051587951,0.3755644720580914,1024,0,1,1,429.7920158774971,0.8767991681140052,0.0733801497506018,161.41461153781503
1024,1536,42.23975568325117,240657,38100,50311168,30276728,1.1730583984075051,0.1860396428690164,0.930747829501315,1024,0,1,1,173.42464459390607,0.7497761175476524,0.0854638229936986,161.41461153781503
1024,2048,30.061315519124552,264620,60174,50311168,30614408,1.4093374957210947,0.3581530512856363,1.0,1024,0,1,1,134.47409470871298,0.734078793281418,0.1225785417061794,161.41461153781503
1024,256,41.277199561109065,253942,33759,32743424,30609336,1.2380181983173648,0.1953060352785564,0.6725376149470412,1024,0,1,1,240.00830280775534,0.8679823356726244,0.0783238477298161,161.41461153781503
1024,512,49.666915432988965,273045,22383,32743424,30366896,1.0887498442475838,0.1585490926459541,0.5758220379034286,1024,0,1,1,280.3203089022549,0.8954797186665067,0.0553283577551702,161.41461153781503
128,1024,65.28288375620426,226989,56737,37597184,30525352,1.0115755413276495,0.2035384733739721,0.5780059807823748,128,0,1,1,279.26114418284766,0.7728200256449289,0.1057813045171439,161.41461153781503
128,128,63.1666446748041,227990,27144,33005568,30085600,1.1442649598210803,0.3154217036198417,0.5531422712127901,128,0,1,1,291.8139146804058,0.8996449668479024,0.0261620743586387,161.41461153781503
128,1536,63.38778978332872,291499,26759,50311168,30126568,1.1323852647413235,0.3390922383692599,0.8460291811988621,128,0,1,1,190.79083218983433,0.7535093494085667,0.1031291784016212,161.41461153781503
128,2048,31.38369705360932,297727,9722,50573312,31294024,1.5253828349364684,0.3377290080474482,1.0,128,0,1,1,107.82562689289574,0.749845427856756,0.0976556441578632,161.41461153781503
128,256,48.5360891195848,290328,33302,32743424,29787696,0.957031903182031,0.1311145357837171,0.45453238607554164,128,0,1,1,355.1223553759897,0.8718341480247844,0.0638802624487352,161.41461153781503
128,512,38.50852342882245,272412,24827,33267712,29991936,1.0828676425143977,0.1367021592857779,0.5422540226918848,128,0,1,1,297.67342386233014,0.8406348367300056,0.0883916689835817,161.41461153781503
1536,1024,65.06079983458261,261581,41802,38645760,30804824,0.9896744352424727,0.1485394518162194,0.5370051002221139,1536,0,1,1,300.58301396216046,0.7132051596372484,0.1213113221470754,161.41461153781503
1536,128,118.65775164702352,250890,51191,32481280,29928752,0.954731660239614,0.1977856698711991,0.4266693087034432,1536,0,1,1,378.3131531731671,0.8987141834925334,0.0369798461448535,161.41461153781503
1536,1536,50.28110516026127,308561,40649,50573312,31063528,1.2213054770788025,0.2740657363153784,0.8938949459152243,1536,0,1,1,180.57447608963588,0.7089887979010555,0.1109122229493836,161.41461153781503
1536,2048,29.08836654388912,258554,54863,50049024,31261984,1.3284989521768684,0.2735995785234332,1.0,1536,0,1,1,136.31325828167203,0.7209776041564326,0.1126788125970136,161.41461153781503
1536,256,42.05302885722089,215413,44739,33005568,29874888,1.1849284664072832,0.1610214910322463,0.6635844049229642,1536,0,1,1,243.24654157077987,0.8927681272079007,0.053120937122488,161.41461153781503
1536,512,58.84412237319528,243302,40638,33005568,30041192,0.9985008774041935,0.156107093209993,0.48432037698681285,1536,0,1,1,333.28065307111797,0.886542001536695,0.0585812131893023,161.41461153781503
2048,1024,67.49406327566884,257683,27524,39170048,30757824,1.0777271957248111,0.1780150133943905,0.6116663998187407,2048,0,1,1,263.8932130089999,0.7451692357682345,0.1205584266449449,161.41461153781503
2048,128,285.278111014908,228624,18830,32219136,30054744,1.1415525714244321,0.4313836379321661,0.40859401201530315,2048,0,1,1,395.0488915431525,0.8785786751948601,0.0593777772486019,161.41461153781503
2048,1536,46.082030218132935,286748,31197,50311168,30416672,1.2416154203576955,0.2720091206960575,0.9864765547782448,2048,0,1,1,163.62741796139318,0.737238180765004,0.1014869024942308,161.41461153781503
2048,2048,33.45186658008677,284895,43799,50311168,30598080,1.4575571171251753,0.3619699603792651,1.0,2048,0,1,1,121.69959878847186,0.7504150041635367,0.0865496078415601,161.41461153781503
2048,256,59.19241396883034,271076,25592,32481280,30017176,0.9997304737964123,0.1780550351225074,0.5235145206853887,2048,0,1,1,308.3288145025852,0.9050934661032738,0.054057622425953,161.41461153781503
2048,512,64.02794318110232,290385,71248,33267712,30579408,1.087169212644293,0.1825054197723919,0.5492537614770883,2048,0,1,1,293.8798472744703,0.8862110726491268,0.0710246782654266,161.41461153781503
256,1024,80.50212762903402,258086,31407,38907904,31304752,0.9753004532406602,0.2110165124257703,0.5700510656864614,256,0,1,1,283.15816117883736,0.7601339186223752,0.1303952562420196,161.41461153781503
256,128,121.8303285848997,266885,29286,33005568,30135760,1.095154227972028,0.3549354231030093,0.4631014202205302,256,0,1,1,348.551320488175,0.8618914788256343,0.0641368199483528,161.41461153781503
256,1536,50.40360833317223,234878,39476,50311168,30274216,1.2280391713763725,0.2575236629945955,0.9113706818385303,256,0,1,1,177.11192026957616,0.7315563844442257,0.1224154159233291,161.41461153781503
256,2048,33.46641915083804,278735,41868,50049024,31390952,1.4981409850118668,0.2520558111804203,1.0,256,0,1,1,119.57238496279157,0.7383981022802687,0.0820218433927967,161.41461153781503
256,256,32.42239211582153,224170,25555,33005568,29755864,1.124512578868721,0.1964185422548598,0.572193550183165,256,0,1,1,282.09792208623213,0.8762962968622328,0.0562340059216367,161.41461153781503
256,512,68.65624327112047,207431,34442,32219136,30058496,1.2083117809305968,0.3699843518156131,0.6180829332816012,256,0,1,1,261.1536459691791,0.8931579889058879,0.0554672508664548,161.41461153781503
512,1024,68.6760661130495,251292,24089,39694336,30593368,0.9791664595932834,0.2067713090780285,0.560536077321025,512,0,1,1,287.96471461616767,0.7634695458532665,0.0925596168787223,161.41461153781503
512,128,295.56182338471143,254707,49752,32743424,30066112,1.0236497423665518,0.3941541023979489,0.37826895200154265,512,0,1,1,426.7191655136337,0.9054103767422595,0.0471751864620228,161.41461153781503
512,1536,72.48489318642913,279591,54080,49786880,30298760,1.2084636476825832,0.2586898373061949,0.8052376555106475,512,0,1,1,200.45586595854456,0.6739121334580037,0.1671490360181633,161.41461153781503
512,2048,28.63959658123184,236666,57241,49524736,30136808,1.5339421878487884,0.2339082979177325,1.0,512,0,1,1,114.55269216401018,0.7120290640607302,0.1325722636481448,161.41461153781503
512,256,61.9888121587536,274469,30255,33005568,29822912,0.9519759637732069,0.1130846195270753,0.44368573424892727,512,0,1,1,363.8039248907974,0.8698714493524695,0.0891898817973411,161.41461153781503
512,512,48.08341130377203,232851,28975,32743424,29989672,1.080406578685379,0.1735754952344411,0.5495142795114738,512,0,1,1,293.7405224142946,0.8662280318625362,0.069019965282599,161.41461153781503
