cpu,memory,duration_std,userDiff,sysDiff,heapTotal,heapUsed,avg_cpu_util,cpu_util_std,slo_preservation,total_cpu_shares,cpu_shares_others,num_containers,arrival_rate,latency,memory_util,memory_util_std,slo_duration
1024,1024,36.10920209562679,15925,8027,33841152,27342056,0.9292200622728037,0.1114448822804806,0.8223708321235546,1024,0,1,1,71.58663423731664,0.6544760635693692,0.0546234881432427,58.87075996666663
1024,128,40.30209694278181,21605,2747,28196864,24244152,0.8784663547165276,0.1666400669040888,0.7715987386066416,1024,0,1,1,76.29711794627329,0.8244412610548089,0.038028974855494,58.87075996666663
1024,1536,18.47229702022021,31735,22,42885120,27236328,0.9970872087855016,0.0701972719305381,1.0,1024,0,1,1,52.03510687956715,0.518792767302351,0.0534796696053127,58.87075996666663
1024,2048,21.64452702507024,26618,8216,34574336,15064384,1.0153841329375421,0.0916959423939916,1.0,1024,0,1,1,52.981481330402964,0.5182744441342249,0.0565883237720107,58.87075996666663
1024,256,36.00344999567156,25155,4201,28459008,24092816,0.9999047521484503,0.1624646363455515,0.9799193672168768,1024,0,1,1,60.07714709616235,0.8391105041223726,0.038037009461461,58.87075996666663
1024,512,26.78680085944487,76417,5,18841600,15386632,0.9893888028780415,0.0378256384506048,0.841617481349754,1024,0,1,1,69.94954509767544,0.8271573351884831,0.0274989881499695,58.87075996666663
128,1024,65.04925131087256,90690,3270,33841152,27252120,0.747259392828469,0.19032231827869,0.5468229340632522,128,0,1,1,107.65963952758595,0.6789325683317762,0.0573171451437825,58.87075996666663
128,128,28.103632635967685,91671,3747,18841600,14630376,0.8899848526215469,0.1316220116531097,0.6435600887429337,128,0,1,1,91.47671056118307,0.8298252271588119,0.0332797759618565,58.87075996666663
128,1536,28.467813322032963,110740,680,34574336,15065936,0.9333028932637372,0.0802536271426452,0.8509398817082017,128,0,1,1,69.1832187351329,0.5177470347818663,0.0573313443650676,58.87075996666663
128,2048,17.33107973343521,61664,5964,34574336,15084784,0.9972334999055102,0.0677010310109667,1.0,128,0,1,1,42.12726044599912,0.5084574729041258,0.0497570354940573,58.87075996666663
128,256,45.47650766071813,79536,829,18579456,15072144,0.804712002223849,0.1297449341405963,0.6664837845326129,128,0,1,1,88.33037102013083,0.8083347289814764,0.0193680715094565,58.87075996666663
128,512,27.63215417034411,60773,37,18841600,14695024,0.9594467424170873,0.0735548738419717,1.0,128,0,1,1,52.118363734137915,0.8222242748931429,0.0338951811622107,58.87075996666663
1536,1024,39.7923967296871,47559,1884,25792512,15075200,0.8650456148858151,0.155178947913971,0.811994465983884,1536,0,1,1,72.50143003786809,0.6597378958778986,0.060537160343144,58.87075996666663
1536,128,51.96170008211869,39638,3994,27934720,23604504,0.8477821140668313,0.125339647921357,0.6086864729131233,1536,0,1,1,96.71770704040132,0.8772534906406477,0.0152084081308343,58.87075996666663
1536,1536,22.353715791252117,32443,3292,42885120,28385336,0.94685762221562,0.1228536208599916,1.0,1536,0,1,1,54.79158656150854,0.515720018011246,0.0636987951837506,58.87075996666663
1536,2048,19.64699611234384,56583,30,42622976,27230680,1.0181199779475614,0.0341206076084096,1.0,1536,0,1,1,40.28449701952447,0.5366116368494243,0.0636359119385826,58.87075996666663
1536,256,31.832952068201696,49788,8360,18841600,14639896,0.8565774936119842,0.1520359271420814,0.8301706158667761,1536,0,1,1,70.91404928274898,0.8399334635883713,0.0415032385852388,58.87075996666663
1536,512,31.234085502862797,92889,4,19103744,15415288,0.9310384177312456,0.0850512732057809,0.7342096299801881,1536,0,1,1,80.18249497525005,0.819727647608701,0.0362992524656641,58.87075996666663
2048,1024,34.57914083539912,35187,13,25792512,15088296,0.7747193293572437,0.210593753912912,0.9048422639918865,2048,0,1,1,65.06190339402019,0.6523798014897905,0.0545457316622412,58.87075996666663
2048,128,41.31492444699342,75595,4537,27934720,24120584,0.8432514023536251,0.1539940555500562,0.6547486707531236,2048,0,1,1,89.91352345771185,0.8738249981947191,0.0129026206857681,58.87075996666663
2048,1536,29.207749408369686,84486,4750,33787904,15079384,0.9594648660931643,0.0556437092604712,0.8594143360618332,2048,0,1,1,68.5010215636326,0.5249540115968506,0.0526887783413393,58.87075996666663
2048,2048,21.295604194483506,83977,5707,34312192,15069512,1.019075890160228,0.0338321585058185,1.0,2048,0,1,1,40.9990418638539,0.5484198633987327,0.0678233957489517,58.87075996666663
2048,256,30.23884067424187,39116,4534,28721152,26332384,0.868811411150373,0.156373799189625,0.8682332997910631,2048,0,1,1,67.80523159021158,0.8574647180932647,0.0305283263822622,58.87075996666663
2048,512,25.72815943253072,18959,7725,18579456,14757208,0.9414028396057773,0.081402060156792,0.9073250053590042,2048,0,1,1,64.8838725031865,0.8290708130597425,0.0270221573491363,58.87075996666663
256,1024,37.00926482671291,68676,222,34103296,27290848,0.8215587811381327,0.1517612836315599,0.5861994793815579,256,0,1,1,100.42786122699299,0.6651770045474357,0.0650124315881117,58.87075996666663
256,128,51.83975033157185,131574,2785,27934720,24628696,0.7865372936861206,0.1232176178532817,0.5346853706296835,256,0,1,1,110.10355472665401,0.8784381878546773,0.0110549437855671,58.87075996666663
256,1536,29.66270350676501,38514,7665,42360832,27218296,0.9358852357482259,0.1143750324751958,0.9127876850044144,256,0,1,1,64.49556773586612,0.5199250938940252,0.0747154235246987,58.87075996666663
256,2048,20.92707032551991,52777,877,42360832,28337616,0.9941990973591666,0.0305739646208727,1.0,256,0,1,1,50.586012872867315,0.5175993717372017,0.061293124956353,58.87075996666663
256,256,38.28368614527567,88716,425,18579456,14694416,0.9212417149798108,0.2840448367029256,0.749589360834117,256,0,1,1,78.53734730327189,0.8463145297424022,0.0345211413098473,58.87075996666663
256,512,46.98539079327701,107708,3899,19103744,14682680,0.9509733992048718,0.1082411567429867,0.8051014974996554,256,0,1,1,73.12215931717581,0.8399913873979283,0.040724641805353,58.87075996666663
512,1024,40.3031701852455,123556,7153,34103296,27265664,0.8630673932010795,0.1489561917795107,0.8645203971589472,512,0,1,1,68.09643839536025,0.6628365492190393,0.062084916574649,58.87075996666663
512,128,49.21355387975305,129932,3960,27934720,24369552,0.8167997251247402,0.1427745215784022,0.5891612272889227,512,0,1,1,99.92300450178233,0.8846775856794441,0.013401912188113,58.87075996666663
512,1536,34.51256886039102,108717,27,42360832,27420624,0.8945813161515754,0.114683734342184,0.7664594609285268,512,0,1,1,76.80870674536092,0.5168241303337937,0.0569767565656286,58.87075996666663
512,2048,15.861650514053329,20909,91,34312192,15207016,1.0248412705152525,0.0543092322437995,1.0,512,0,1,1,31.719455113011744,0.5292728760297866,0.0623952793868587,58.87075996666663
512,256,32.24667506462074,63173,27,28721152,26334888,0.8816034994232361,0.1436668245184096,0.7423841905418478,512,0,1,1,79.29958735206677,0.8168349987068091,0.0283995431189552,58.87075996666663
512,512,31.585574986770773,84497,22,18579456,14721568,0.9426659985998496,0.0883007862528361,0.7099185722563279,512,0,1,1,82.92607387289252,0.8310482534098276,0.0375372535527342,58.87075996666663
