cpu,memory,duration_std,userDiff,sysDiff,heapTotal,heapUsed,avg_cpu_util,cpu_util_std,slo_preservation,total_cpu_shares,cpu_shares_others,num_containers,arrival_rate,latency,memory_util,memory_util_std,slo_duration
1024,1024,228.15900386933797,445499,35670,50712576,44482800,0.7791695276361201,0.2703773787554414,0.7887510084836298,1024,0,1,1,1008.1067033958915,0.7414614653888992,0.1017564974402702,795.1451789626169
1024,128,488.9348946210044,486697,45621,32743424,29702168,0.48594710000742525,0.0656332348081234,0.38842283276211187,1024,0,1,1,2047.1123525572984,0.9070344738232554,0.0091110627555038,795.1451789626169
1024,1536,177.57356135087267,332286,39004,58970112,44544320,0.7892569686351959,0.2684033535265575,1.0,1024,0,1,1,770.5996369421864,0.7107663682841625,0.1333540257548066,795.1451789626169
1024,2048,163.46050510851458,358072,56182,38768640,15533336,0.867408070312054,0.3585246925205431,1.0,1024,0,1,1,674.4994934852486,0.6884639575859761,0.1374672864400257,795.1451789626169
1024,256,299.56255603524187,394396,82294,32219136,29670704,0.5772825500359638,0.118237721355837,0.4675009182736271,1024,0,1,1,1700.8419617632076,0.8822412237556481,0.060573660495685,795.1451789626169
1024,512,238.4596634740616,423233,62545,33267712,29669368,0.6262378297763578,0.0943513549722294,0.5349904899149719,1024,0,1,1,1486.2790908470026,0.8786604216105177,0.0518635604893192,795.1451789626169
128,1024,169.14946021268224,358936,43189,50450432,44599968,0.7448391062716219,0.1766662040486545,0.8332798288305384,128,0,1,1,954.2354818291458,0.7346306487434037,0.11436898383465,795.1451789626169
128,128,1068.8331780719952,459274,63538,34578432,29600128,0.5130568449881219,0.1669058526889904,0.3010235058595137,128,0,1,1,2641.4720561181275,0.906392737314926,0.0213209689479783,795.1451789626169
128,1536,147.70055359564313,374352,75194,62640128,44418112,0.813058940781929,0.2526699886529572,1.0,128,0,1,1,667.02298707365,0.7629436430702173,0.076089655903597,795.1451789626169
128,2048,136.5440591806768,305588,57268,58970112,44900192,0.8841696882664846,0.338545813053309,1.0,128,0,1,1,622.3130430300023,0.744285341479795,0.0916219230965151,795.1451789626169
128,256,596.8948169396899,453729,31089,33267712,29879232,0.5015561950458796,0.1187387738315067,0.38386291363800756,128,0,1,1,2071.430061911266,0.8653554396003772,0.0566630662939149,795.1451789626169
128,512,236.3135045212669,390584,66910,32219136,29852704,0.6510546426428154,0.0971528442384863,0.562314651852708,128,0,1,1,1414.0573722252861,0.8646688549957455,0.0854648022965147,795.1451789626169
1536,1024,176.49967775695717,421508,35384,45199360,30843080,0.7896413508763831,0.1740679737514766,0.8365272091199617,1536,0,1,1,950.5311606051891,0.7627176940055866,0.1146966482566417,795.1451789626169
1536,128,184.161538727025,459986,63155,32481280,29607616,0.6522377691452612,0.0737945680320115,0.4983760601321361,1536,0,1,1,1595.4722599472323,0.8459143318497925,0.0731597103812394,795.1451789626169
1536,1536,150.65610602410328,323604,55684,58707968,45849104,0.7675831378224909,0.3073445029497998,1.0,1536,0,1,1,704.0308823484987,0.7530884197447942,0.1232835494784057,795.1451789626169
1536,2048,140.4161591700381,299919,40170,44806144,31439320,0.7582998421426409,0.2018437233068836,1.0,1536,0,1,1,740.1767565898784,0.7296598638256683,0.1249697141659651,795.1451789626169
1536,256,422.6432058422676,397730,57238,32743424,29631496,0.5742732108488091,0.1407267808609025,0.4581689497859226,1536,0,1,1,1735.484648914216,0.8601843751536886,0.0578647129902183,795.1451789626169
1536,512,240.27256931022487,430620,40702,33005568,29789984,0.6045113164498088,0.1180143734554556,0.5268154645184439,1536,0,1,1,1509.3428961684908,0.8854831852749647,0.0647322738047442,795.1451789626169
2048,1024,218.3917814232236,368926,68812,42315776,30886248,0.7900660350592837,0.2518616459516323,0.8488340932512662,2048,0,1,1,936.749813991323,0.7856372938592733,0.0927458506884493,795.1451789626169
2048,128,731.7932358645041,457056,82379,33267712,30132656,0.5534871506453554,0.1931834204547682,0.3570083471251857,2048,0,1,1,2227.2453441650136,0.8795828541339752,0.0518117957235367,795.1451789626169
2048,1536,135.5358220226115,279738,48655,44806144,30545840,0.7573534168189215,0.220954997243343,1.0,2048,0,1,1,694.914875949219,0.7498595199685104,0.1108071015756739,795.1451789626169
2048,2048,149.7028363343151,365317,51951,58970112,46111960,0.7948141956747953,0.2790047094447701,1.0,2048,0,1,1,620.6640578701648,0.7237479081955941,0.1419025498093467,795.1451789626169
2048,256,299.3513422887726,389970,78286,36937728,30062728,0.5972035487615047,0.1313553737923393,0.4812230258967103,2048,0,1,1,1652.3423364477303,0.8523761807093843,0.0667893718830915,795.1451789626169
2048,512,173.82418662243057,400140,35068,37199872,29650792,0.6145555709206497,0.0936144369897108,0.5443418519388794,2048,0,1,1,1460.7459928543185,0.8816238287188319,0.0679165172442222,795.1451789626169
256,1024,190.61739956097043,302542,44390,50450432,44508080,0.7296694712052025,0.1796651053061649,0.802355879712504,256,0,1,1,991.0130891637875,0.7550909224813257,0.1210237747267149,795.1451789626169
256,128,710.8409115685025,390544,58510,39559168,29603680,0.6483008013011432,0.1485587387180091,0.4490334599652842,256,0,1,1,1770.7927133628114,0.8517328638215477,0.0837210269436932,795.1451789626169
256,1536,169.64580342481042,344163,74195,59232256,44635208,0.8386834990635678,0.3229826790233285,1.0,256,0,1,1,758.0632009362866,0.7253257017512533,0.1016360671428797,795.1451789626169
256,2048,154.15772733552205,278688,54342,45068288,30539448,0.7638064175310076,0.1969741782147751,1.0,256,0,1,1,715.1600568369521,0.722793428416409,0.123039974383023,795.1451789626169
256,256,450.56401595105166,457645,56491,32743424,29619008,0.5762820376775735,0.1337335462102276,0.45764971058819987,256,0,1,1,1737.453691253616,0.8379200503821578,0.0855118830448403,795.1451789626169
256,512,174.187502982285,392877,57811,35889152,30222456,0.6425204312751338,0.0791608616751601,0.5584470947206709,256,0,1,1,1423.8505070213319,0.882638561977027,0.0480552283637498,795.1451789626169
512,1024,188.53964353908864,425571,51984,39170048,29794880,0.7815261378175498,0.2474477471666137,0.8341890909172784,512,0,1,1,953.1953697551611,0.7619985914657358,0.1073357784707272,795.1451789626169
512,128,1221.4118263554,512873,81274,38772736,30068936,0.5256673534755064,0.1997754108691459,0.2917756271751166,512,0,1,1,2725.193967230821,0.8627861024043038,0.0741704569068538,795.1451789626169
512,1536,142.67791992602832,336946,40993,39817216,15504328,0.7603639004492456,0.224789317521929,0.9424511055593616,512,0,1,1,843.6991312039302,0.7266352613299594,0.1430870179936803,795.1451789626169
512,2048,167.8240875445951,370285,36334,59494400,44647296,0.8131424151416828,0.2939461875817415,1.0,512,0,1,1,666.5696923480854,0.7474662714525148,0.1006414206419505,795.1451789626169
512,256,250.3028391215603,461642,40748,34578432,29617920,0.43943108132810493,0.049462566433616,0.3594442917760781,512,0,1,1,2212.151360183419,0.8619441450612412,0.0632527466464856,795.1451789626169
512,512,270.3316630718168,416178,57062,32743424,29853192,0.5671774658852619,0.0828789943316729,0.4992600380871581,512,0,1,1,1592.647354691354,0.8897672923585315,0.047588582368743,795.1451789626169
