cpu,memory,duration_std,userDiff,sysDiff,heapTotal,heapUsed,avg_cpu_util,cpu_util_std,slo_preservation,total_cpu_shares,cpu_shares_others,num_containers,arrival_rate,latency,memory_util,memory_util_std,slo_duration
1024,1024,167.9733557512387,351617,36542,44412928,29765552,0.622828563111988,0.2162492654820436,1.0,1024,0,1,1,679.3548546992477,0.7705583665970288,0.1224176691884281,844.3881654036694
1024,128,642.4394709541112,484582,54208,33005568,30226408,0.4217325211676296,0.1811596340655867,0.4875128197997484,1024,0,1,1,1732.0327406990275,0.8520559658468955,0.0573589190008064,844.3881654036694
1024,1536,157.638061538778,369154,57363,61067264,44580176,0.705495676705107,0.2922238720809076,1.0,1024,0,1,1,486.20183720957226,0.7656781905706899,0.1142501892025583,844.3881654036694
1024,2048,134.46345709331223,251246,62650,45068288,30561408,0.6352625135173323,0.3375230416390881,1.0,1024,0,1,1,483.75443468372293,0.7356550912229634,0.1374643233642562,844.3881654036694
1024,256,400.37248957745743,484657,56386,33005568,30295440,0.3758754845266895,0.0937394684517359,0.5111727892597638,1024,0,1,1,1651.8644637294549,0.8610178828600941,0.0800356989219361,844.3881654036694
1024,512,226.97924666234024,438432,51717,35889152,30006704,0.5178723989967269,0.1176342951634269,0.7732885191027581,1024,0,1,1,1091.944525936332,0.889403593019399,0.0615373918051451,844.3881654036694
128,1024,193.0203439885567,364967,53608,39956480,30878968,0.7149030494239714,0.2082779355045984,1.0,128,0,1,1,631.4067231701949,0.7947271731631215,0.105919910746273,844.3881654036694
128,128,1304.7649378639064,414455,56667,36675584,29860800,0.4086014524501652,0.2402205818476954,0.37786013359836357,128,0,1,1,2234.6579867067676,0.8624805418092327,0.0549702809702313,844.3881654036694
128,1536,180.20913769161984,314430,30680,45068288,30188904,0.6642977816194858,0.2883461561511504,1.0,128,0,1,1,522.2094419365312,0.7390434732256846,0.1155230321238763,844.3881654036694
128,2048,103.67252442581427,321850,64110,59232256,44894024,0.7769740254139685,0.3813598457702713,1.0,128,0,1,1,382.42720911574884,0.7017133449986508,0.1597516556824644,844.3881654036694
128,256,291.0740872021272,418275,38614,32481280,30084224,0.2863135868809583,0.0394227951204955,0.4130555251317839,128,0,1,1,2044.2485671491027,0.8891008471644293,0.0486812431397385,844.3881654036694
128,512,251.73128096751705,430236,57507,32481280,30008448,0.5289470679499341,0.0927254683042276,0.8289074977791214,128,0,1,1,1018.675989378821,0.8826123666043919,0.0585910678174791,844.3881654036694
1536,1024,158.25290228733135,463945,72413,53596160,44937544,0.7242887798686481,0.2054828085799085,1.0,1536,0,1,1,610.3771932042606,0.7580910547097083,0.1293468119111951,844.3881654036694
1536,128,621.1591296334007,424764,111558,33267712,30234312,0.3106063928450507,0.1099230641024829,0.39765050842587696,1536,0,1,1,2123.442941758656,0.9024960184212903,0.0225304319883295,844.3881654036694
1536,1536,165.80239198841437,397650,84226,62902272,44310296,0.6342347460113604,0.2055397966527672,1.0,1536,0,1,1,515.964535392599,0.7207664118741564,0.1540106362657723,844.3881654036694
1536,2048,126.92365990459054,358937,56978,58970112,46073344,0.6487899288986337,0.3325476399198337,1.0,1536,0,1,1,494.7567163729552,0.7037390415032715,0.1687400777874131,844.3881654036694
1536,256,404.7227287774489,488037,44836,33005568,29752096,0.40817570082873345,0.0951181617856203,0.5491696240887074,1536,0,1,1,1537.5725975464284,0.870635545925899,0.0690910171844108,844.3881654036694
1536,512,237.15832854835088,456938,38884,32743424,29720632,0.5254814991820984,0.1204205943273803,0.8363193731272349,1536,0,1,1,1009.6479796303929,0.8943494030836957,0.0542034711874631,844.3881654036694
2048,1024,185.17994039047997,437971,58940,40218624,30558040,0.6915262678142235,0.206827722411428,1.0,2048,0,1,1,649.8315314973997,0.7846361987708637,0.0895542035039465,844.3881654036694
2048,128,990.3463995975634,397517,90245,32743424,30187768,0.4545664728315401,0.1973602041084765,0.47375816715277186,2048,0,1,1,1782.3189634457135,0.8906323836944985,0.0430326884430446,844.3881654036694
2048,1536,174.4327787610696,388031,61075,59756544,46028240,0.6223147758417089,0.2049931628478041,1.0,2048,0,1,1,558.0238867122785,0.7596557605165833,0.1306157532480037,844.3881654036694
2048,2048,164.45665790342878,361514,53493,63164416,44328904,0.7581056288097797,0.387580176355058,1.0,2048,0,1,1,484.6088552950388,0.7565818452316753,0.1051990528813008,844.3881654036694
2048,256,359.3402676688406,442751,47673,33792000,29652280,0.45747333076680946,0.148902979819877,0.6299187145116388,2048,0,1,1,1340.4716290391589,0.8600423070258923,0.0734688723861027,844.3881654036694
2048,512,244.11344446933975,436450,52873,33529856,29687120,0.494541414933235,0.1063315598837818,0.7681494392148082,2048,0,1,1,1099.2498624574814,0.8961927356325257,0.0373396885414845,844.3881654036694
256,1024,137.71440822898845,438701,84014,48345088,30969896,0.6854015600831688,0.1670529818164211,1.0,256,0,1,1,622.168615857221,0.7575706930542969,0.1248969070193351,844.3881654036694
256,128,671.2441046822189,423820,75579,32743424,29879016,0.3802399366628575,0.1316486745399342,0.47580175465335095,256,0,1,1,1774.663832458657,0.874259103197394,0.0504436588920837,844.3881654036694
256,1536,133.41156207194408,290823,46736,56610816,44508992,0.6741990300620205,0.3281051817625544,1.0,256,0,1,1,513.5567502500664,0.7084121922993032,0.1629639832363479,844.3881654036694
256,2048,117.45846372302653,370908,46383,58970112,46098976,0.6134876324911981,0.273771796063425,1.0,256,0,1,1,492.04542218953134,0.7368943812739978,0.1473682702527516,844.3881654036694
256,256,528.6036703747227,420400,63089,37462016,30159144,0.3924246005304777,0.1296227983440187,0.5324615753129683,256,0,1,1,1585.8199061732444,0.8920198944145917,0.0444218296769731,844.3881654036694
256,512,263.73604969317006,363401,41386,32743424,29873400,0.5141022802532802,0.113882842283963,0.7722994743710117,256,0,1,1,1093.3429238591277,0.8825944671100643,0.0672047083743506,844.3881654036694
512,1024,183.56420946444004,342906,55020,50180096,30033008,0.6589570096444484,0.148501328113548,1.0,512,0,1,1,666.4458997292293,0.7261604527978676,0.1115225802372274,844.3881654036694
512,128,810.1030085561446,472352,65891,32481280,29859688,0.4305708598148957,0.202362017505352,0.48154973922399286,512,0,1,1,1753.4806825238509,0.8807714849986987,0.0411347014212517,844.3881654036694
512,1536,143.3873444846469,325109,57257,58970112,45368976,0.6402288419631258,0.2632135235703414,1.0,512,0,1,1,517.4766067467463,0.7595249337546501,0.1462750753113574,844.3881654036694
512,2048,177.2963899466977,363882,39869,59494400,45011728,0.7080162201672641,0.3551357386395468,1.0,512,0,1,1,457.1646623936681,0.6861327244653725,0.1599009994106881,844.3881654036694
512,256,658.6614734159565,483797,72737,32743424,30308192,0.42812120784705426,0.1797594293306461,0.5551440997328502,512,0,1,1,1521.0252001417489,0.9046524095870044,0.0460646656947234,844.3881654036694
512,512,199.75259691224971,469209,39423,40345600,29912416,0.5236575889730866,0.0947527109190852,0.7890512036345889,512,0,1,1,1070.1310149635196,0.8719944684865413,0.0694975608944467,844.3881654036694
