cpu,memory,duration_std,userDiff,sysDiff,heapTotal,heapUsed,avg_cpu_util,cpu_util_std,slo_preservation,total_cpu_shares,cpu_shares_others,num_containers,arrival_rate,latency,memory_util,memory_util_std,slo_duration
1024,1024,111.78678841837998,276598,72686,38907904,31319568,0.9224902478004617,0.1594854245190552,0.9026242382989532,1024,0,1,1,482.351353701486,0.7442558973752963,0.093330684813916,435.3820232272728
1024,128,647.5654121703278,305723,39010,33005568,30006256,0.5328302625823197,0.1767270826224378,0.26732171088300577,1024,0,1,1,1628.6818672121217,0.9191898470631872,0.0108063606408527,435.3820232272728
1024,1536,52.85378689577736,295493,33456,50835456,30148352,1.1297831679780783,0.2752170505114588,1.0,1024,0,1,1,284.68872387170654,0.718144567052921,0.1113364727820531,435.3820232272728
1024,2048,29.460333638236268,250403,42870,49786880,30090848,1.2581546963121444,0.2796938383095262,1.0,1024,0,1,1,208.82263624220883,0.7445687589821323,0.1354823495909087,435.3820232272728
1024,256,295.52656522886497,239713,35725,32219136,30041056,0.6529902243577598,0.2148693755868227,0.41151145552722146,1024,0,1,1,1058.007055160758,0.900694218498612,0.0396993243752971,435.3820232272728
1024,512,171.7643551393449,267483,27534,32743424,30342728,0.745359036100919,0.2303701929460238,0.5680636388320681,1024,0,1,1,766.4317753595581,0.8951369016723509,0.0695520527390253,435.3820232272728
128,1024,113.73128904827912,303978,42077,28151808,15578624,0.8811426243173065,0.1266912097230145,0.9154155984615885,128,0,1,1,475.6113222878862,0.7419337484604129,0.1243911576340676,435.3820232272728
128,128,834.2429151959642,276745,51933,32743424,30014976,0.5384538295755639,0.2721579037871595,0.21992978085126966,128,0,1,1,1979.6410542586111,0.9186879243914828,0.0091399013638619,435.3820232272728
128,1536,76.50345572750874,276023,39960,50573312,30205288,1.0502030826425701,0.2567491457540045,1.0,128,0,1,1,357.6135829594174,0.7176491708633642,0.1361430612231754,435.3820232272728
128,2048,57.43484387956408,302929,47815,48738304,30088624,1.0964846603962732,0.2969476942496886,1.0,128,0,1,1,287.0957852400917,0.7175233380754114,0.1197928552809848,435.3820232272728
128,256,225.18838179663564,270446,37164,32743424,29936904,0.47247051348049895,0.0757526044295806,0.3082713877385168,128,0,1,1,1412.3335494132016,0.9003005468659,0.0557953694683028,435.3820232272728
128,512,158.7224365298503,242295,44948,32743424,30017776,0.5758647481761379,0.102036818618737,0.46465659952106025,128,0,1,1,936.9973947987354,0.8920249456711605,0.0492603142696507,435.3820232272728
1536,1024,76.3298749751548,260865,34207,36286464,30376888,0.8852011087902711,0.0996512225217091,0.9370966238897727,1536,0,1,1,464.6073970686775,0.7430142069258927,0.1166012972763609,435.3820232272728
1536,128,1088.2349295562435,299913,73182,33267712,30115904,0.48719972001849077,0.2674900403944637,0.19380506834022002,1536,0,1,1,2246.4945161442856,0.913803673216327,0.009506352754456,435.3820232272728
1536,1536,50.5147327807192,336215,19602,51359744,30599512,1.205378971454443,0.1942306971569285,1.0,1536,0,1,1,276.63278569703425,0.7021801678821072,0.1152126872263129,435.3820232272728
1536,2048,28.679097459449927,234772,30827,69484544,51436152,1.2610512472215847,0.1873910867558119,1.0,1536,0,1,1,209.2708801774935,0.7518229732533712,0.0895706398379383,435.3820232272728
1536,256,354.8372279670524,305295,50542,32481280,30413320,0.6535843476292601,0.3086286911220642,0.3721985086377876,1536,0,1,1,1169.7575705521526,0.9095280671083008,0.0285081054456913,435.3820232272728
1536,512,169.3696526115667,305407,36019,32743424,30127488,0.7316775905920654,0.3250776570228176,0.527752600784844,1536,0,1,1,824.9737141603795,0.8787358598010323,0.0742005820487778,435.3820232272728
2048,1024,96.81263657023328,231358,54649,39432192,30266384,0.9225236097381011,0.1370047835747111,0.9502508877369072,2048,0,1,1,458.1758658117829,0.7329470141639929,0.1385743636784705,435.3820232272728
2048,128,479.62930461036353,263210,15600,32219136,30025192,0.6135766771179402,0.1635322170369695,0.3357400851422151,2048,0,1,1,1296.7829654384304,0.924618471554477,0.0085397153881259,435.3820232272728
2048,1536,77.32638857258834,238350,65685,50311168,30056080,1.0805997558823506,0.1443335937430031,1.0,2048,0,1,1,338.99821051180515,0.6854014755331052,0.13127376928242,435.3820232272728
2048,2048,58.90098426779284,309292,23868,50835456,30355552,1.1543887267237425,0.3529248658966396,1.0,2048,0,1,1,266.8064324945355,0.7326613767193437,0.1232173522802133,435.3820232272728
2048,256,194.08244716158583,281694,60087,32743424,30467152,0.7654779231540798,0.2202293314142503,0.5006559097841504,2048,0,1,1,869.6232576481132,0.9063576343343266,0.0309124717012175,435.3820232272728
2048,512,152.4346645983808,302822,43065,33005568,29968632,0.9022129079635034,0.2489109387359076,0.7130232797365069,2048,0,1,1,610.6140368771204,0.8758746261080924,0.0678326468733879,435.3820232272728
256,1024,104.58828612189436,273008,16469,37072896,30448304,0.8596391280137645,0.1413976407839162,0.8844701553303789,256,0,1,1,492.25179685643906,0.8067052217419552,0.0866403179958192,435.3820232272728
256,128,835.2182137559141,261146,47875,32481280,29811096,0.2847131161179489,0.0483905977528809,0.16167585675791457,256,0,1,1,2692.931597568042,0.9189095285446492,0.0094748301357161,435.3820232272728
256,1536,91.60917089462332,273828,42462,49786880,30693632,1.0032613999675501,0.2350344379203107,1.0,256,0,1,1,373.74235139270434,0.7068766021092758,0.1276551492460054,435.3820232272728
256,2048,52.07981536230285,278139,38126,68173824,51643520,1.1879132693823837,0.2691502982913635,1.0,256,0,1,1,256.2993927282931,0.7547883110876313,0.1068776850317323,435.3820232272728
256,256,346.4745112385618,257618,42467,32743424,29782968,0.47122440961371287,0.1127008883934411,0.2928594900597877,256,0,1,1,1486.658407888332,0.9113640110432352,0.0342748322266485,435.3820232272728
256,512,200.2454180085436,275664,29503,32743424,30577360,0.835044358574575,0.2893197639836705,0.5506545250671498,256,0,1,1,790.6627538821731,0.8789957462876818,0.0635260232867175,435.3820232272728
512,1024,111.3402341050654,375056,37984,39432192,30034200,0.8690689263935935,0.14919931766845,0.8449498677164458,512,0,1,1,515.2755682463535,0.7791185830536088,0.0948944283584082,435.3820232272728
512,128,1053.8470337145727,315395,24024,32743424,29813592,0.792845473209003,0.4502139497561336,0.2627815640311431,512,0,1,1,1656.821036256844,0.9211463401390388,0.0106838001641041,435.3820232272728
512,1536,50.22442920373936,310041,20280,50573312,30613816,1.2303323348801236,0.2556448454142371,1.0,512,0,1,1,255.18366835562654,0.7045282179712855,0.1390305761980445,435.3820232272728
512,2048,29.432636462703,276023,37876,50573312,31056064,1.251282021638178,0.261128178723594,1.0,512,0,1,1,205.30930943628888,0.7024291899590506,0.1347772048470459,435.3820232272728
512,256,541.4082879739615,280977,25867,32219136,29977624,0.6858552837032785,0.3448813389384011,0.3179308246633091,512,0,1,1,1369.4237533851754,0.913412974143655,0.0229524863145515,435.3820232272728
512,512,129.07452142415227,315042,29267,32481280,30248448,0.693719241022748,0.1368562218561796,0.5539773501572304,512,0,1,1,785.9202602844723,0.8800971773293915,0.057799145456627,435.3820232272728
