cpu,memory,duration_std,userDiff,sysDiff,heapTotal,heapUsed,avg_cpu_util,cpu_util_std,slo_preservation,total_cpu_shares,cpu_shares_others,num_containers,arrival_rate,latency,memory_util,memory_util_std,slo_duration
1024,1024,365.1169925807825,336449,35760,39694336,31009304,0.7117073794671317,0.2149369706155039,0.819777591922468,1024,0,1,1,1110.3346805413632,0.7068135369146902,0.1136942572486745,910.2274906422016
1024,128,1850.824605621463,397319,125815,33267712,29561128,0.473608701489208,0.129858177112414,0.3050475593858707,1024,0,1,1,2983.8871436135864,0.8815252967868991,0.0620330169876992,910.2274906422016
1024,1536,151.70082258787716,296798,71981,59842560,47955072,0.7260848214568671,0.2361303629397947,1.0,1024,0,1,1,820.8449348220045,0.6714270649670431,0.1207418502552993,910.2274906422016
1024,2048,144.3822051237961,271692,61990,59580416,47970120,0.7510081406283874,0.2148787246172077,1.0,1024,0,1,1,749.6059122203111,0.6250493198109814,0.1233242425823504,910.2274906422016
1024,256,396.21015131078417,416813,51533,32481280,30191888,0.5198165345930374,0.102548888014748,0.5336829234373938,1024,0,1,1,1705.5585829494507,0.9165050252014364,0.0125581257259948,910.2274906422016
1024,512,215.5610189629924,349000,66039,32481280,29875104,0.552889788171799,0.0751841580640253,0.5840950235165282,1024,0,1,1,1558.3551545469463,0.8953492833301346,0.0653588680361764,910.2274906422016
128,1024,198.28576673867167,378528,51047,39432192,30453448,0.773708412503453,0.2358278552507401,0.8849200846666095,128,0,1,1,1028.5985213965694,0.7794562793098356,0.0881641412209475,910.2274906422016
128,128,1028.8486843066855,440189,60190,32743424,29522328,0.4875285584828775,0.1372900002825383,0.40127127287824693,128,0,1,1,2268.359466934433,0.9160038625067808,0.0098894986597789,910.2274906422016
128,1536,149.77855069085925,304386,58625,59842560,48274352,0.771116366933372,0.2288498779834548,1.0,128,0,1,1,756.3423346119268,0.5682772056966575,0.137768175769927,910.2274906422016
128,2048,127.5725824503678,321021,43283,59842560,48441504,0.766642552835909,0.306054277644799,1.0,128,0,1,1,706.4071345280369,0.5915842019834263,0.1413853313058877,910.2274906422016
128,256,260.9013938366463,268911,53238,32743424,29729296,0.3843981929861789,0.0354312648275378,0.3787059645443792,128,0,1,1,2403.5203452295646,0.9204787309232058,0.0085277242466256,910.2274906422016
128,512,255.0604815737796,367945,73543,32743424,29718136,0.5564261394311849,0.0828907440930002,0.5361638561452284,128,0,1,1,1697.6666371849806,0.920765334462979,0.0110698102892078,910.2274906422016
1536,1024,176.21900927584886,406186,32676,39170048,30716752,0.6529889114157946,0.1128252596795673,0.7967418082967312,1536,0,1,1,1142.4372126123005,0.7218920623769267,0.1043073688514285,910.2274906422016
1536,128,651.494904712206,371083,99530,33005568,30162264,0.6424510780847034,0.2866312591272959,0.46747590339445105,1536,0,1,1,1947.1110361685564,0.8840690640822126,0.069936209643893,910.2274906422016
1536,1536,144.59797747459177,441761,74357,49262592,29960632,0.7613341883615646,0.2646686478807997,1.0,1536,0,1,1,842.4629318053746,0.6012330045345082,0.104806266142689,910.2274906422016
1536,2048,169.0292528875581,256149,27763,45330432,30587200,0.7642782893157963,0.2383510690013135,1.0,1536,0,1,1,715.5400969773564,0.6580313617956396,0.1072321424731668,910.2274906422016
1536,256,416.1750872253117,316813,42249,20414464,15245480,0.4861303617839745,0.0927938235683988,0.46562793687302584,1536,0,1,1,1954.8386567071802,0.9098828835502396,0.0385334429567221,910.2274906422016
1536,512,324.2744798691932,399565,66533,31956992,29832224,0.6083398359442762,0.1250315609002756,0.6483431014013049,1536,0,1,1,1403.9287048398749,0.9153437057668844,0.011078596345474,910.2274906422016
2048,1024,168.7519325341854,421180,66728,39432192,29795072,0.7385618251207655,0.1934289874921881,0.9111561830565138,2048,0,1,1,998.9807538690053,0.7683470321183221,0.0894476136778106,910.2274906422016
2048,128,245.79373272671225,458995,71970,32481280,29652640,0.5365318463379734,0.0534114487483469,0.4317705525231477,2048,0,1,1,2108.1277667573295,0.9164491370158944,0.0049047367192938,910.2274906422016
2048,1536,180.2581657078695,268177,77104,44544000,31745600,0.8259068732155183,0.2684885095754721,1.0,2048,0,1,1,769.2518094995951,0.5823918695958834,0.1325348440916368,910.2274906422016
2048,2048,130.5903147795178,269466,61118,43495424,30857368,0.7800213491827734,0.2717174635617156,1.0,2048,0,1,1,722.3218260497421,0.574665512150314,0.1420811658622667,910.2274906422016
2048,256,489.182340058592,284302,40819,33005568,30340216,0.5067971749592138,0.1387346868687452,0.48307589113979216,2048,0,1,1,1884.2329069549874,0.915249656948694,0.0113571151470166,910.2274906422016
2048,512,229.8146950228203,355929,62764,33005568,30183056,0.5827530441287075,0.074502597070225,0.6162537701901253,2048,0,1,1,1477.0335447382013,0.9148639778330138,0.0109328369914004,910.2274906422016
256,1024,167.22022568871637,363935,55898,39694336,29807136,0.7184154950059636,0.1382217038982565,0.8822502029354005,256,0,1,1,1031.7112850909139,0.7623128200809689,0.0799674515938354,910.2274906422016
256,128,876.91646998659,448709,72366,33267712,29667888,0.5663441879707302,0.2004017638531377,0.4113661363357102,256,0,1,1,2212.6942648953914,0.8924399311528212,0.0559727032094164,910.2274906422016
256,1536,138.57558849165673,322768,58418,48214016,29913544,0.8811956490288854,0.2979262077733678,1.0,256,0,1,1,680.8377627766894,0.6208011538829828,0.1184213417443633,910.2274906422016
256,2048,142.85489555410126,232112,47020,43233280,30650120,0.7821418293330751,0.3094767822829861,1.0,256,0,1,1,688.1162324025613,0.5854301445061221,0.1212939169952558,910.2274906422016
256,256,400.53295350498473,359451,68994,33005568,30362176,0.41698078669053945,0.0489421971131834,0.3870816304461862,256,0,1,1,2351.513011849694,0.9097757656918564,0.0418562435802741,910.2274906422016
256,512,193.56012209674373,409904,59479,32743424,29519816,0.544444928962475,0.0830513841237664,0.5778625383697187,256,0,1,1,1575.1626558284256,0.8937198133964495,0.0684592236826848,910.2274906422016
512,1024,196.04236970151257,452435,101161,39170048,30793160,0.7555195438122265,0.2016557109831524,0.9828052801733079,512,0,1,1,926.1524220562715,0.6764409843789597,0.0961651045008765,910.2274906422016
512,128,938.205404229645,528578,93884,32219136,29680040,0.543732525826945,0.2036182591678313,0.3946347851568486,512,0,1,1,2306.505976862707,0.9166652259618492,0.0108977453921931,910.2274906422016
512,1536,150.24925279467476,279945,71325,60366848,48508088,0.7700161517596235,0.2407610639560556,1.0,512,0,1,1,766.2177557439106,0.6256893281238519,0.1351033060730095,910.2274906422016
512,2048,142.36771869138366,237346,30727,45068288,30273104,0.7939457217824429,0.334651703761575,1.0,512,0,1,1,684.9992444958383,0.6250852044289791,0.1187238640603354,910.2274906422016
512,256,478.3196024064438,379572,45324,32743424,30410232,0.41774895343822116,0.0610679337891182,0.3953971368721213,512,0,1,1,2302.0588814647535,0.915990036909766,0.010629151798298,910.2274906422016
512,512,301.3745386893116,448179,66238,32481280,29817904,0.6629746996978954,0.1683547607224756,0.6491557139308278,512,0,1,1,1402.171268170017,0.9059008838913902,0.038796197778761,910.2274906422016
