cpu,memory,duration_std,userDiff,sysDiff,heapTotal,heapUsed,avg_cpu_util,cpu_util_std,slo_preservation,total_cpu_shares,cpu_shares_others,num_containers,arrival_rate,latency,memory_util,memory_util_std,slo_duration
1024,1024,117.15030171476646,371121,44375,50450432,44572240,0.8614651388764745,0.1013523812949228,0.6356161244318812,1024,0,1,1,501.0944942459741,0.7578648997362646,0.1121755333589475,318.5037404067796
1024,128,348.7763282390288,424701,102517,35102720,29852608,0.7914612435462807,0.3470802575571279,0.39754356114602724,1024,0,1,1,801.1794719768725,0.8629805942027852,0.0875008805246212,318.5037404067796
1024,1536,69.98131766192046,347023,65549,61329408,44546984,1.3578987872934354,0.1284034826957545,1.0,1024,0,1,1,216.66789762077897,0.7430316890422596,0.1508169443270145,318.5037404067796
1024,2048,33.58111697046371,294133,59429,59232256,44932792,1.660599079285986,0.2107629588689211,1.0,1024,0,1,1,163.4637419451173,0.7107077800372468,0.1478268242115439,318.5037404067796
1024,256,48.2711887243829,380964,53927,36413440,30205456,1.1244727083838988,0.1621791237129875,0.7270034476005265,1024,0,1,1,438.1048555656794,0.8688277175818108,0.0822698290956048,318.5037404067796
1024,512,55.40444463091087,333406,42241,32481280,29855584,0.9621880502587916,0.1239397686911518,0.6516046886210655,1024,0,1,1,488.79903102109574,0.8696059050926662,0.0826923772851799,318.5037404067796
128,1024,80.57018435719107,456705,40204,42315776,29861608,1.101901824143801,0.1614196656727989,0.8564722931771248,128,0,1,1,371.8786269492441,0.7843763951352476,0.1220266218711614,318.5037404067796
128,128,273.7043497349489,387577,105128,33267712,30072920,0.9094682802702362,0.2790962493906792,0.4842182609372871,128,0,1,1,657.7689568961346,0.8582625968454278,0.0643464086889521,318.5037404067796
128,1536,65.60662891758913,341963,39653,44806144,30571328,1.2505736532899114,0.1776315571192019,1.0,128,0,1,1,267.5449872972973,0.7123622746478155,0.1305222741505175,318.5037404067796
128,2048,35.638987836806386,331458,55031,58970112,45729088,1.6372742400406348,0.2306713389569371,1.0,128,0,1,1,165.07561066747127,0.7019551294580235,0.1481823908821549,318.5037404067796
128,256,42.09104197126174,466666,36651,39034880,29890184,0.9370031397895604,0.0790229068872717,0.6185079526489765,128,0,1,1,514.9549638653408,0.8826516323445542,0.0612181657906936,318.5037404067796
128,512,62.48948488237302,493746,57956,37199872,29817560,0.9702956372418354,0.1055069428419427,0.6437557113364935,128,0,1,1,494.7587024051994,0.893825247502724,0.045667002812645,318.5037404067796
1536,1024,63.82999347781918,446011,33410,39432192,30882528,1.0649634407040516,0.1462456362829878,0.836344454340492,1536,0,1,1,380.828423927243,0.7654644112450993,0.0987643311824968,318.5037404067796
1536,128,256.13859078914203,371788,77113,33005568,30033856,0.886140576983068,0.2588061272300593,0.4836027907630617,1536,0,1,1,658.6060843532821,0.8488579881312743,0.092529590897589,318.5037404067796
1536,1536,52.04215329913989,343626,52909,44806144,31648784,1.3109756867925981,0.2590929506644362,1.0,1536,0,1,1,247.70946158850185,0.7103060235931531,0.1393572232203411,318.5037404067796
1536,2048,38.33221513982397,385670,52969,57921536,46324520,1.6427853439259816,0.2123973469174474,1.0,1536,0,1,1,168.42465697139465,0.6787306756877982,0.1627133628056235,318.5037404067796
1536,256,85.08552419924862,343954,49349,32743424,29621000,0.9857386114313745,0.1304085032327038,0.6594412563154783,1536,0,1,1,482.99031544730445,0.8683012274711357,0.0797789096387226,318.5037404067796
1536,512,74.64993892200506,431228,45862,33005568,30170080,1.0685289504140785,0.1200310376131166,0.7327171919982765,1536,0,1,1,434.6885044940079,0.8767256163951778,0.079969300216202,318.5037404067796
2048,1024,81.31219266471575,395387,51941,38907904,30014584,1.0900346433915145,0.1306479316363333,0.8398455997139965,2048,0,1,1,379.24082773696,0.7651435964758246,0.1200882234525302,318.5037404067796
2048,128,256.9851377510543,428481,47082,47169536,44670712,0.9328062972789476,0.259287879189421,0.536127309773792,2048,0,1,1,594.0822909043112,0.8695776539306914,0.0746822849827111,318.5037404067796
2048,1536,60.33388625118645,343927,60790,45330432,31557120,1.2821209942570997,0.2239486333154943,1.0,2048,0,1,1,255.16184169509873,0.7310634956450824,0.1263366789846038,318.5037404067796
2048,2048,38.9501901197908,363172,31661,59232256,46150096,1.6493287796025762,0.2965795776962175,1.0,2048,0,1,1,167.86757778338512,0.6844031725358082,0.1456046462860763,318.5037404067796
2048,256,84.63585873475853,341516,55812,32481280,29863896,1.0632942437195927,0.1320192035556602,0.7086439304432782,2048,0,1,1,449.45525774495223,0.8666813026331368,0.0992713859708852,318.5037404067796
2048,512,54.41076309624732,374567,53994,39034880,29648848,1.1052057155162944,0.103812027531575,0.761252924608311,2048,0,1,1,418.39411069673065,0.8801888123304261,0.0635932488404034,318.5037404067796
256,1024,73.97617290735953,359655,58432,53596160,45168448,0.9870323029585932,0.1395809462324546,0.8032025134996019,256,0,1,1,396.54226058013637,0.7450939112142956,0.1153919989929431,318.5037404067796
256,128,288.9846081191155,458614,78378,43491328,29544672,0.8892743118504005,0.2274041811463006,0.49944611105402253,256,0,1,1,637.713926202398,0.8637701820502646,0.0902969329634522,318.5037404067796
256,1536,53.04730095300775,355656,52351,59232256,45919440,1.3428334300539757,0.2272256204996375,1.0,256,0,1,1,257.57158207332554,0.6640191792210641,0.1599672496605629,318.5037404067796
256,2048,32.835693557078734,304337,47129,59756544,44636936,1.6687729165718754,0.2690168790897027,1.0,256,0,1,1,162.1567357175156,0.6875115310259607,0.148300949364414,318.5037404067796
256,256,92.92859469266044,434008,58584,47431680,44158256,1.0217820787576508,0.1542857888130563,0.6795166566467707,256,0,1,1,468.7210199945777,0.8871323573488843,0.0452900663028263,318.5037404067796
256,512,78.1847472031764,363377,40330,33005568,29636248,1.0956598980329004,0.2196199812680033,0.7372930786198871,256,0,1,1,431.9906827322664,0.8975213963249342,0.0456276781492312,318.5037404067796
512,1024,78.0993209910761,405597,63891,53858304,44316112,1.1378008199531704,0.1638350881826547,0.8750712869290038,512,0,1,1,363.9746214557494,0.7256576306732909,0.1032473649106947,318.5037404067796
512,128,300.60173090581145,401743,80955,41394176,29614400,0.9649240656497318,0.2972188900943229,0.5061377203320864,512,0,1,1,629.2827576609059,0.8866019777932891,0.0763532886209291,318.5037404067796
512,1536,57.51811671306486,369498,40172,61067264,44630472,1.3125594151105542,0.160887807992532,1.0,512,0,1,1,246.44754496173425,0.6995957551310206,0.1495571929581925,318.5037404067796
512,2048,35.65648899832179,348713,48851,57921536,44790016,1.6437517988873227,0.2598743823075537,1.0,512,0,1,1,167.11179719145903,0.6609829015210511,0.1593856250014822,318.5037404067796
512,256,70.98571268461046,378214,45129,47169536,44454744,1.073019971842639,0.121232633768187,0.739490954393668,512,0,1,1,430.706742948507,0.8692602789418181,0.0759422433148161,318.5037404067796
512,512,61.54955290801259,428353,67243,32743424,29535608,1.037610564118893,0.1088091861576811,0.6897886199329029,512,0,1,1,461.7410771980569,0.8639214692345272,0.0521990710538557,318.5037404067796
