cpu,memory,duration_std,userDiff,sysDiff,heapTotal,heapUsed,avg_cpu_util,cpu_util_std,slo_preservation,total_cpu_shares,cpu_shares_others,num_containers,arrival_rate,latency,memory_util,memory_util_std,slo_duration
1024,1024,135.2040623219274,198719,60827,25530368,14819800,0.4484953700389333,0.14731227890199153,1,1024,0,1,1,468.73843324999996,0.6870227151374217,0.07625277021311709,593.2670352203392
1024,128,323.65161468272964,122193,24945,30703616,26035904,0.25984334112357166,0.10527799734976737,0.6404053981249734,1024,0,1,1,926.3929332222223,0.8521812584429826,0.051259540034116764,593.2670352203392
1024,1536,168.5591809007109,204168,20033,34574336,15052328,0.4405916576996666,0.1922027550982027,1,1024,0,1,1,414.89216275,0.5224883240887817,0.09438292818530969,593.2670352203392
1024,2048,157.90722537414896,93293,8320,45379584,26087592,0.43335434907070536,0.20726371505188468,1,1024,0,1,1,371.56274145000003,0.5562481244611585,0.11601641102181022,593.2670352203392
1024,256,257.95370471371183,83681,15495,31727616,28487808,0.31952584950705726,0.13952972858222096,0.8972210334570658,1024,0,1,1,661.2272930500001,0.8684208172242087,0.042704403639706165,593.2670352203392
1024,512,198.77213039880408,110384,10449,32649216,28684768,0.2903534746762372,0.10102033103452462,0.7909159532608167,1024,0,1,1,750.1012374000001,0.8630637704180216,0.041966110059146765,593.2670352203392
128,1024,192.73246169059428,204184,56205,44163072,35855824,0.527267162111704,0.1584748306210637,1,128,0,1,1,411.94671295000006,0.6907698866926587,0.08333455276920854,593.2670352203392
128,128,394.00686615313276,90804,26612,27058176,23527744,0.20850764022272453,0.10391346994972067,0.6060072890575262,128,0,1,1,978.9767316875001,0.8547283553164744,0.04403622566816105,593.2670352203392
128,1536,132.2439586584432,191254,19095,34574336,15052552,0.4419944908906408,0.17295609466852754,1,128,0,1,1,453.7919408000001,0.4959547965456492,0.09510571726724448,593.2670352203392
128,2048,145.20590839661227,149146,6715,35098624,15059008,0.4421678711677771,0.20451997811701403,1,128,0,1,1,393.1635676499999,0.5081051617125987,0.0910928912110857,593.2670352203392
128,256,381.04800463929973,310805,32870,29016064,25094256,0.24282996060167208,0.11051689125553886,0.6036228137064745,128,0,1,1,982.8439577647058,0.8770300835349533,0.03523793968817321,593.2670352203392
128,512,184.4305213039009,196724,33505,31686656,28322336,0.33351654373789175,0.13202873768818568,0.8927764293481265,128,0,1,1,664.5191514,0.8730195161779241,0.035946935468628156,593.2670352203392
1536,1024,142.50940546785594,298652,30882,26316800,14821672,0.4330132594259678,0.17032434863403736,1,1536,0,1,1,508.18595884999996,0.6440505892753022,0.07761985114346551,593.2670352203392
1536,128,232.76157714073798,356401,64896,37736448,33673216,0.27735739909209844,0.08702375643722132,0.85280344795408,1536,0,1,1,695.66678775,0.844827339143064,0.04585326486492842,593.2670352203392
1536,1536,148.38459943131218,111468,17614,34312192,15042456,0.45261797730565645,0.18103444138891886,1,1536,0,1,1,414.62730285,0.4989343660531807,0.09134096662879246,593.2670352203392
1536,2048,170.73278059272445,97267,30635,34836480,15055776,0.4055400502783272,0.21935971205041974,1,1536,0,1,1,431.42640415000005,0.5713487437517227,0.11736166663785534,593.2670352203392
1536,256,432.5885440584644,264419,57528,29278208,25133632,0.2558434882576409,0.1388829539671896,0.6403410450333232,1536,0,1,1,926.4860340000001,0.8618680473636544,0.04725816606497363,593.2670352203392
1536,512,238.98064358003808,104640,37378,27320320,23530000,0.3250480249221413,0.09625649431572246,0.9125400721626475,1536,0,1,1,650.1271049000001,0.8700116727627725,0.0373500215689773,593.2670352203392
2048,1024,137.58371067824783,173223,19485,39952384,28845984,0.44846901598161504,0.18714035356280087,1,2048,0,1,1,420.46951879999995,0.6570520817492552,0.0770159063694332,593.2670352203392
2048,128,183.4964081166066,132245,21048,18841600,14706288,0.3064771157686037,0.1630150296211225,0.9100894891113775,2048,0,1,1,651.8776915,0.8605126954367709,0.04378979161254521,593.2670352203392
2048,1536,153.33662270603293,177914,42768,45649920,26630816,0.486709282472345,0.23480880352813202,1,2048,0,1,1,435.09345199999996,0.5586386073317773,0.11171452965036875,593.2670352203392
2048,2048,170.4574117265022,113704,35385,34312192,15052552,0.39567134153653416,0.1890581869457007,1,2048,0,1,1,400.2024327,0.5341052779909328,0.1130722033749162,593.2670352203392
2048,256,245.38671208868743,145898,9298,31600640,28611496,0.31325042655492324,0.12975275190777744,0.8812045826495903,2048,0,1,1,673.2455174444444,0.853793045331991,0.04079063332313897,593.2670352203392
2048,512,219.27768455417956,219223,62128,18579456,14646088,0.32218738353765997,0.09761517169739173,0.9288972911173597,2048,0,1,1,638.6788301499998,0.8522902963223888,0.0455115529786904,593.2670352203392
256,1024,129.69158296664367,74281,15653,31731712,22422192,0.38725082008935835,0.1302202681392272,1,256,0,1,1,484.38675235,0.6655266906524844,0.0826673389508124,593.2670352203392
256,128,348.16353328491533,160853,31946,30441472,26034336,0.2863320043412665,0.14376410721264668,0.7377328141040996,256,0,1,1,804.1760158666667,0.8488220002601321,0.046998042257475364,593.2670352203392
256,1536,172.30541852320516,101423,37695,34312192,15040104,0.4858853499967636,0.2026867634044263,1,256,0,1,1,416.96755034999995,0.5219568705424713,0.10510580106654598,593.2670352203392
256,2048,153.6304522954002,165491,9458,34836480,15060608,0.4436294168542184,0.19619144693859714,1,256,0,1,1,399.1393503999999,0.5124747557209188,0.09213985880999105,593.2670352203392
256,256,298.3710248139765,129520,38088,36589568,32807328,0.2444643772079127,0.09216195028190184,0.6526865772760002,256,0,1,1,908.96159945,0.8575565432477857,0.04049439279842653,593.2670352203392
256,512,231.67832629470226,181849,26451,23482368,19349248,0.35900808832445574,0.0955976325922449,0.9390996922134391,256,0,1,1,631.7402083500002,0.8312290140930424,0.04384748486339393,593.2670352203392
512,1024,137.3450460093741,151109,16965,26054656,14916600,0.4664658023105436,0.1689472704191059,1,512,0,1,1,416.73409714999997,0.6120938843285562,0.055389158134929554,593.2670352203392
512,128,319.8298819399775,194150,28164,36327424,32491120,0.30013731129386173,0.12711754277820303,0.9305419655878239,512,0,1,1,637.5500054375001,0.8691190518014318,0.040381433008284506,593.2670352203392
512,1536,169.36417103395732,101873,33491,34836480,15049416,0.37455816172524214,0.18081850624281834,1,512,0,1,1,455.41581245,0.571252755919499,0.11633577115528497,593.2670352203392
512,2048,127.81558266576279,65386,16232,44855296,25975752,0.36289168335298083,0.17222135952131107,1,512,0,1,1,411.91379965,0.5048978025052465,0.0815890437832725,593.2670352203392
512,256,262.11731465005846,205656,23275,18841600,14654056,0.3340090433978583,0.11407973827045934,0.7944685468909564,512,0,1,1,746.7470393157895,0.849585040093877,0.04424341917183374,593.2670352203392
512,512,247.75145896514718,301061,40969,29016064,25128392,0.33758026609986125,0.10184536167684617,0.854098240813316,512,0,1,1,694.6121732499998,0.8647935347677018,0.032201406719143844,593.2670352203392
