cpu,memory,duration_std,userDiff,sysDiff,heapTotal,heapUsed,avg_cpu_util,cpu_util_std,slo_preservation,total_cpu_shares,cpu_shares_others,num_containers,arrival_rate,latency,memory_util,memory_util_std,slo_duration
1024,1024,13.25204760075704,18482,7641,34435072,28316968,0.9206152722600602,0.221279370322977,0.3286315449686448,1024,0,1,1,55.67456450885039,0.6547833185032258,0.0773912649253955,18.29641814999998
1024,128,13.789814653325791,15181,3819,28528640,24653240,0.9117195972839538,0.1856638243986432,0.33290861591905785,1024,0,1,1,54.959280941075136,0.8785567009836314,0.0105778120023054,18.29641814999998
1024,1536,12.729191688607305,22883,14900,34312192,15218768,0.9747768739741273,0.187381406539122,0.3970478590839023,1024,0,1,1,46.0811404252747,0.5296311680574652,0.0535347711935027,18.29641814999998
1024,2048,4.2382907175274624,27679,3886,42692608,28185744,1.0402359518880757,0.2600332700059473,0.6093079930714739,1024,0,1,1,30.028193225841612,0.5422743886278828,0.0690843107092446,18.29641814999998
1024,256,10.664006439051605,26883,13600,29052928,24228392,0.9623957660973189,0.185038679935089,0.3997684788153447,1024,0,1,1,45.76753576024486,0.8824444435741379,0.0157844796648236,18.29641814999998
1024,512,10.196738251451476,32646,3408,28790784,24522776,0.8920563921573029,0.2328184644058272,0.3356436649611005,1024,0,1,1,54.51143596623654,0.8787171476792827,0.0144553324005761,18.29641814999998
128,1024,17.067418796195316,19695,3930,34172928,28472216,0.9333366419042974,0.2347517338823077,0.29505810188703496,128,0,1,1,62.00954331701385,0.6608027562385919,0.0639423589411427,18.29641814999998
128,128,15.876946182337322,26752,319,28528640,25051712,0.835683253653962,0.1862845175984661,0.27345534150462275,128,0,1,1,66.90824925681943,0.8817126034383287,0.0112732518588984,18.29641814999998
128,1536,8.754123021198552,20226,4828,42692608,28227432,0.9885872767636937,0.1929038281020116,0.43244197657421835,128,0,1,1,42.30953316545078,0.5411119093674635,0.0589939337584295,18.29641814999998
128,2048,11.49136629042453,18084,27,42692608,28225992,0.9651375024745182,0.2693119855425785,0.45830223233141176,128,0,1,1,39.92216676956813,0.5307740568129269,0.0619817912477397,18.29641814999998
128,256,9.667012884456604,30415,8423,28790784,24241944,0.969108178795285,0.1849016691762784,0.40714489512077606,128,0,1,1,44.93834595315877,0.8821937390645831,0.0148259609447249,18.29641814999998
128,512,9.759345431477112,19931,37,28528640,24616944,0.9909440894565834,0.1422984085968185,0.4439048643987394,128,0,1,1,41.216980523027445,0.8774509917170988,0.0107926938776175,18.29641814999998
1536,1024,18.045091410869507,21008,3281,34172928,28284360,0.9533674874947206,0.1729031294427866,0.3414065287962094,1536,0,1,1,53.59129544040261,0.6774134516776741,0.0779034408303443,18.29641814999998
1536,128,15.414066188395152,35567,3920,29052928,24658736,0.965382602616338,0.2183422156085926,0.3809135245471442,1536,0,1,1,48.03299691643136,0.875828010607202,0.0138246352146894,18.29641814999998
1536,1536,6.666402585746472,17565,255,34312192,15199904,0.9782475345987727,0.1787024516279302,0.5591040177328557,1536,0,1,1,32.72453348518442,0.5492158720955835,0.0645296096117705,18.29641814999998
1536,2048,5.164911170166714,26047,13186,34574336,15229536,1.04024176198373,0.2341394123812939,0.5928587402065018,1536,0,1,1,30.86134505434981,0.5336556799562644,0.0596543559937178,18.29641814999998
1536,256,10.000770266084665,31890,7970,28790784,24645296,0.9707199863440928,0.1998333576122287,0.42787592898558136,1536,0,1,1,42.76103634382418,0.8839394036254816,0.0137851518821174,18.29641814999998
1536,512,10.462632854687715,39491,7888,28790784,24566576,0.9706961240886293,0.262150790798867,0.3619475130853545,1536,0,1,1,50.54992088227255,0.8767321760445563,0.0156880894309236,18.29641814999998
2048,1024,18.76617306769736,38921,5732,25530368,15123136,0.8968926370595067,0.2176294785365546,0.306377423133144,2048,0,1,1,59.718558772683494,0.6716561364662226,0.0684605444034113,18.29641814999998
2048,128,20.09843846843525,25868,4322,28528640,24749592,0.9060149819238628,0.2240674714179698,0.26678710421971297,2048,0,1,1,68.58059426640027,0.8757869038250465,0.0104468364571565,18.29641814999998
2048,1536,11.813282046189304,19282,23,42692608,28030880,0.9895671402140145,0.2169639971611153,0.41746513969572235,2048,0,1,1,43.82741553782355,0.5442220725215027,0.0783162747083106,18.29641814999998
2048,2048,7.401394224974002,12857,4210,42954752,28167568,1.0397854077982707,0.2135942646537832,0.546545514364895,2048,0,1,1,33.476476650368376,0.533131722923492,0.060217937458139,18.29641814999998
2048,256,12.372586329537432,21551,4371,28528640,24685712,0.9095479590421889,0.1533161866813165,0.384155289886157,2048,0,1,1,47.62766160378022,0.8726230886966204,0.0105879351253148,18.29641814999998
2048,512,11.669742388633487,39628,8760,29052928,24267464,0.9701102037240475,0.1734897705001997,0.44036444445600254,2048,0,1,1,41.54835473286718,0.8759529152481912,0.0136500213696809,18.29641814999998
256,1024,25.943968804684825,26535,15488,25792512,15068480,0.8531365133314927,0.2317513377091622,0.23480015846504404,256,0,1,1,77.92336372176625,0.6689242994355955,0.0713498388249577,18.29641814999998
256,128,15.652284058022548,13235,5,28528640,24908000,0.8637687437981308,0.211753628137471,0.23903411592822613,256,0,1,1,76.54312472908167,0.8798207325650159,0.0112971851634947,18.29641814999998
256,1536,14.435608868746112,59337,591,42430464,28252200,0.9814499572751803,0.2406900741466711,0.36438110470549523,256,0,1,1,50.21231319002599,0.5349922727955819,0.0576648429953788,18.29641814999998
256,2048,3.9570108274635554,9777,8555,42692608,28077144,1.0489723635376875,0.286509457812913,0.6571302898606515,256,0,1,1,27.84290791690617,0.5319228498869484,0.0591123649103862,18.29641814999998
256,256,14.908664095064074,35675,28,29052928,24149872,0.991227955791105,0.1541364067314029,0.36544481782188404,256,0,1,1,50.06615843959665,0.875815000125461,0.015538587707765,18.29641814999998
256,512,17.334818903351135,17361,4282,28528640,24730848,0.9309807854546553,0.1802727148192219,0.29002917676802464,256,0,1,1,63.08475014096284,0.877373633852798,0.0101241866482089,18.29641814999998
512,1024,25.61472679136582,22029,4404,25792512,15140208,0.881343798385031,0.203168742513024,0.2236841234376065,512,0,1,1,81.79578357559876,0.6767230220748002,0.0714843415222238,18.29641814999998
512,128,16.79077608509794,24885,12868,28266496,24447712,0.8697164685678307,0.206418746349073,0.2827974024839902,512,0,1,1,64.69797101844236,0.8785717672102334,0.0115342980528747,18.29641814999998
512,1536,16.21686488805109,18473,3657,42692608,28057408,0.9815518559232003,0.1601810553725955,0.3449257590629108,512,0,1,1,53.0445107947502,0.5285407528643734,0.0570512630059903,18.29641814999998
512,2048,6.270377430553055,15133,3760,42430464,27970496,1.0357307407590712,0.1178730003370563,0.6109461558296673,512,0,1,1,29.947677017712586,0.540613187592624,0.057941957664572,18.29641814999998
512,256,11.908577442320276,16663,8103,28528640,24957792,0.9035489632453507,0.198214454265773,0.33960541312070247,512,0,1,1,53.87551977417118,0.8777965481902463,0.0118240268220574,18.29641814999998
512,512,11.209594599445383,19139,7158,28528640,24590552,0.9380291446386307,0.1661136023425524,0.35357356489890024,512,0,1,1,51.747132609395166,0.8765552868811456,0.0149341919161482,18.29641814999998
