cpu,memory,duration_std,userDiff,sysDiff,heapTotal,heapUsed,avg_cpu_util,cpu_util_std,slo_preservation,total_cpu_shares,cpu_shares_others,num_containers,arrival_rate,latency,memory_util,memory_util_std,slo_duration
1024,1024,777.4152504655559,1712284,112899,43175936,34025472,0.5175281408330625,0.2954551698382542,1.0,1024,0,1,1,958.4935220277878,0.8348005915901041,0.0293496199412952,2562.567574220339
1024,128,1954.5416113850783,1938385,189422,36225024,32876576,0.5525471816841028,0.1645073734992858,0.2946995421722415,1024,0,1,1,8695.526146160786,0.919089840702532,0.0103170983212948,2562.567574220339
1024,1536,681.631619737052,1674110,165441,51695616,35776072,0.5299464598343836,0.3330420808984775,1.0,1024,0,1,1,763.7692825619856,0.7196133394058253,0.0430573855437493,2562.567574220339
1024,2048,420.25611513465407,1679325,101227,52482048,35295296,0.5208794171992286,0.3188429005205032,1.0,1024,0,1,1,573.4289038111799,0.7352599641909104,0.0611739867229307,2562.567574220339
1024,256,3024.7109671410435,1887554,148840,36225024,33208696,0.4381505808221375,0.0803710227322546,0.34766423402749747,1024,0,1,1,7370.811614799756,0.9235037136042668,0.0089465778518351,2562.567574220339
1024,512,1714.672033819841,1779784,185325,35700736,32615440,0.502066404303401,0.163007802865177,0.9844587996930084,1024,0,1,1,2603.0216551667218,0.9231153720472396,0.0104000037700654,2562.567574220339
128,1024,760.9977421931934,1932148,158486,43962368,36161896,0.5939373823249985,0.3285448805735572,1.0,128,0,1,1,1022.5658137313004,0.8297272244818332,0.0199601333658172,2562.567574220339
128,128,1756.6906800734375,1823434,205385,35962880,32763792,0.25905019726622347,0.0174354656459063,0.15345381494076119,128,0,1,1,16699.275773688547,0.9204263827313764,0.0098044549864713,2562.567574220339
128,1536,618.7597611931252,1522256,161806,51957760,34725800,0.5234564612171057,0.3315399341408755,1.0,128,0,1,1,715.3660769601661,0.7389305085532044,0.0491012938248831,2562.567574220339
128,2048,406.0504474924407,1531560,114759,51171328,34233600,0.46275160085685396,0.3385795979848121,1.0,128,0,1,1,603.362061926357,0.7387004553986848,0.0483155417969489,2562.567574220339
128,256,3483.8090394529413,1815939,143168,35962880,33156096,0.37092355345561817,0.0405847533635487,0.31154134772869263,128,0,1,1,8225.44934373194,0.9231013055142252,0.0067921392718277,2562.567574220339
128,512,1236.8246058917844,1874148,218961,36225024,33387120,0.5630766952095714,0.2909815831642955,1.0,128,0,1,1,1970.231503902275,0.9281705178904804,0.009416859492548,2562.567574220339
1536,1024,682.5919131616083,1692788,122288,43175936,33736976,0.5480002292982915,0.3219038220353121,1.0,1536,0,1,1,956.9252376179905,0.8371419462199319,0.0327933791797688,2562.567574220339
1536,128,2496.052711202506,1847341,217736,36225024,33234656,0.4583244068642218,0.0869778472575901,0.23319358410313235,1536,0,1,1,10989.014059181904,0.9167889852861868,0.01077123716365,2562.567574220339
1536,1536,289.55440428516886,1467959,94797,52744192,38670288,0.447166881517736,0.3792933249115181,1.0,1536,0,1,1,551.8096143760131,0.7339829474962984,0.0556545826901649,2562.567574220339
1536,2048,202.88702827714695,1364667,146232,52219904,40547056,0.41168961078193683,0.3345679690166431,1.0,1536,0,1,1,482.432460872608,0.7084947848030926,0.0605143630224462,2562.567574220339
1536,256,3087.0523011439186,1776739,156042,35962880,32805048,0.45399743856788516,0.122626046308969,0.36828365226903303,1536,0,1,1,6958.135552398537,0.921723181897944,0.0106308977608521,2562.567574220339
1536,512,1924.7721451189973,1992641,153580,35700736,32459848,0.534894123648314,0.1673444500411729,0.9554182161322248,1536,0,1,1,2682.1422607936684,0.922992328160236,0.027440371631488,2562.567574220339
2048,1024,639.2566654284502,1607872,141140,42389504,35959808,0.5744971869368763,0.3219872716283719,1.0,2048,0,1,1,1089.8049861871493,0.835136062012064,0.0297433941254047,2562.567574220339
2048,128,1413.1211560335057,2089716,201217,37011456,33732088,0.5524042523606031,0.1067675703729684,0.31786958314880676,2048,0,1,1,8061.694827279854,0.9198410322985954,0.0088294175193095,2562.567574220339
2048,1536,547.9951251644509,1526074,128200,51433472,41499400,0.5281415831432611,0.3550607043396419,1.0,2048,0,1,1,791.5906588272096,0.7396992065441961,0.047602233180449,2562.567574220339
2048,2048,362.54780704643264,1525129,96002,52744192,42703032,0.46736786032424793,0.3353801038142196,1.0,2048,0,1,1,611.9913148229011,0.7660514858465217,0.037357966262165,2562.567574220339
2048,256,3455.420270815823,2232822,159211,36487168,33761960,0.5024275387486208,0.1963860957366671,0.36030529386580423,2048,0,1,1,7112.211832154671,0.9197084017577682,0.0091569789117227,2562.567574220339
2048,512,1954.227661100836,1988063,155864,36225024,33012200,0.5396659207823864,0.240409092694505,1.0,2048,0,1,1,2403.6167326044715,0.9288650867565048,0.0138477675438679,2562.567574220339
256,1024,793.0876536882606,1775316,135409,43175936,36544832,0.5679845462189811,0.2933412076417904,1.0,256,0,1,1,1039.6408828334206,0.8395797865395982,0.0267665630596613,2562.567574220339
256,128,1543.1621774552152,1964370,129428,35962880,33456800,0.28465683092991995,0.0147341770722315,0.162577334393403,256,0,1,1,15762.14534320918,0.9170412103817124,0.008865478229886,2562.567574220339
256,1536,331.40939955453763,1723070,154492,52482048,36404952,0.4255756249657928,0.3745053944790623,1.0,256,0,1,1,615.5200307280209,0.7034511291252754,0.0389506303611925,2562.567574220339
256,2048,209.66886437196828,1340312,123489,52219904,41253152,0.3960705835571674,0.2729470667119961,1.0,256,0,1,1,508.0503389028304,0.7540566257958164,0.0376743266025414,2562.567574220339
256,256,3494.873827598459,2143853,174961,36487168,34082888,0.40079056424785503,0.0214326801076233,0.30874165129841746,256,0,1,1,8300.038441342216,0.9269701348125468,0.0074519062640126,2562.567574220339
256,512,1737.7711435241447,2048199,183218,36225024,33498432,0.5975509639311001,0.2779465473181764,1.0,256,0,1,1,2364.196779865809,0.9239167964287852,0.0107722259658787,2562.567574220339
512,1024,667.3640122108663,1557228,146771,42389504,36284440,0.5209288880941858,0.3340486692051087,1.0,512,0,1,1,945.4300202633165,0.833692724114609,0.0252649848243944,2562.567574220339
512,128,1766.9143525739942,2011836,187279,36225024,33089792,0.2748869758663199,0.0191750097664964,0.1522190158291517,512,0,1,1,16834.7401292919,0.916525217770455,0.0097211110230901,2562.567574220339
512,1536,478.7295166530965,1687503,122797,52219904,39860520,0.5259990726281006,0.3428670963312916,1.0,512,0,1,1,798.9166558393106,0.7381211111131968,0.0678761525578105,2562.567574220339
512,2048,363.0241354665792,1411982,105910,50909184,41148624,0.47005329545765084,0.3172622293261021,1.0,512,0,1,1,609.6571042185487,0.749981173198355,0.0612140095842451,2562.567574220339
512,256,2786.765049306377,1781798,188810,35700736,33013824,0.39246167592882186,0.0343913551373839,0.28679776474413693,512,0,1,1,8935.103021135823,0.9228808809933592,0.0092444301648881,2562.567574220339
512,512,1448.0380238577509,2040358,135348,36487168,33075120,0.5061493263780549,0.2143470957724275,1.0,512,0,1,1,1933.4874830541223,0.9270417852918648,0.0142027554641173,2562.567574220339
