cpu,memory,duration_std,userDiff,sysDiff,heapTotal,heapUsed,avg_cpu_util,cpu_util_std,slo_preservation,total_cpu_shares,cpu_shares_others,num_containers,arrival_rate,latency,memory_util,memory_util_std,slo_duration
1024,1024,653.5031913915009,2033312,203103,60485632,52280776,1.0459125784051964,0.1687112185741755,0.542848117374609,1024,0,1,1,857.2900070319223,0.7944470482034458,0.094069230294721,465.37826636134434
1024,128,782.2431088554957,2052009,197040,37797888,35828224,0.9812173724748776,0.1942322152673676,0.36047357273149033,1024,0,1,1,1291.0190970032509,0.898796736128937,0.089428837457913,465.37826636134434
1024,1536,364.7108654286161,1700754,132326,72675328,53766776,1.209613871536007,0.1913711366795447,0.9111025651349179,1024,0,1,1,510.7858150881511,0.7047141757906616,0.121702499946539,465.37826636134434
1024,2048,205.2570806376674,1555288,129458,52482048,37514752,1.4377576911384327,0.4749661972807123,1.0,1024,0,1,1,317.3097661855258,0.7247816747444645,0.1283777568703656,465.37826636134434
1024,256,562.6174570083764,1994674,123670,36749312,34023048,1.063051992614536,0.1714953329728077,0.5318728472166736,1024,0,1,1,874.980305531106,0.902986977033444,0.0543448019987494,465.37826636134434
1024,512,623.9475358338478,1858869,149317,51437568,48635360,1.0424555864155929,0.1362555624708249,0.5147712535234434,1024,0,1,1,904.0486685609967,0.8740637739086375,0.0943941101791504,465.37826636134434
128,1024,686.3428459003071,1933737,188575,46845952,39000560,1.031532332372794,0.142845560119912,0.5316061697225525,128,0,1,1,875.4192348900451,0.8142851880408616,0.0887628589884579,465.37826636134434
128,128,867.5362112408243,2062445,192728,37273600,34236136,0.877913877045372,0.2234520693004138,0.3608485275869587,128,0,1,1,1289.6776092544694,0.8830799831448282,0.0818651927112066,465.37826636134434
128,1536,400.0126434620796,1914950,109531,53530624,37063920,1.2149024634533128,0.3107949457672684,0.9638257659915758,128,0,1,1,482.8448074145093,0.7763437432974339,0.0707332813129507,465.37826636134434
128,2048,231.47062250890696,1675299,167959,78172160,40696536,1.3717127117283492,0.327668688182023,1.0,128,0,1,1,335.56900160412135,0.6929085843550898,0.1355196899120569,465.37826636134434
128,256,428.5539217828936,2087656,185362,53010432,48879032,1.3096559090412614,0.3868009552627298,0.764114415793594,128,0,1,1,609.042646941835,0.8750358266176965,0.0966852108154406,465.37826636134434
128,512,592.8483588682595,1978219,186732,38060032,35139432,1.0246290564373437,0.1991420166576939,0.5074682501156816,128,0,1,1,917.0588825118763,0.867693698165029,0.0933273593859603,465.37826636134434
1536,1024,550.9993136553938,1846193,134788,45273088,36023904,1.073080108616138,0.2562229966275964,0.6032979132150414,1536,0,1,1,771.3904791768498,0.8114121208860976,0.0935396686681884,465.37826636134434
1536,128,894.1314115839534,2046401,217438,37797888,34499224,0.9039910350524185,0.2196477509039228,0.38302381156809207,1536,0,1,1,1215.0113186334154,0.8790526602176525,0.0830932770210806,465.37826636134434
1536,1536,372.8523833962574,2028849,145510,60084224,41347560,1.2773275955033774,0.2622142644214176,0.9353464247215363,1536,0,1,1,497.54642136991436,0.7325566029094247,0.1044858938185053,465.37826636134434
1536,2048,334.54747905630023,1672184,140245,79220736,40187408,1.3212988012296691,0.3294865136238525,1.0,1536,0,1,1,380.14214564655646,0.7166980485396075,0.1413642789130375,465.37826636134434
1536,256,344.113819127164,1857375,127637,37797888,35295040,1.1614325150953475,0.1812567229756542,0.7666931525542141,1536,0,1,1,606.9941603247026,0.8855962049636729,0.0798293866632799,465.37826636134434
1536,512,376.7293553162132,1832703,140699,37535744,35180216,1.254051243762941,0.1875670074543362,0.7780322019044058,1536,0,1,1,598.1478211598802,0.8559288835218556,0.1068589604132038,465.37826636134434
2048,1024,575.8000938484985,2181804,166668,59961344,50846056,0.9645146478179232,0.1542475744443896,0.5461551337209691,2048,0,1,1,852.099042245946,0.8094063207887316,0.1008270391672502,465.37826636134434
2048,128,664.0475171485,2027443,157427,38060032,35920456,1.0721312006829358,0.1970329673359617,0.5012069745447458,2048,0,1,1,928.5151444352001,0.9191133793915732,0.0589159529052131,465.37826636134434
2048,1536,381.8683164018789,1869346,143493,53792768,41241864,1.2591198758432836,0.1501814670910548,0.9310803130099846,2048,0,1,1,499.8261265527948,0.7459403549780197,0.0998922739970174,465.37826636134434
2048,2048,203.21318475745147,1529386,122710,52482048,35378336,1.3520211969471971,0.3800550217203145,1.0,2048,0,1,1,322.4191966945921,0.6993024338940235,0.1385447754580592,465.37826636134434
2048,256,582.0601947798963,2087896,142807,46448640,34913472,1.0286181198725344,0.1309708599584953,0.483889832403687,2048,0,1,1,961.7442549879839,0.86579985845771,0.0983495908604894,465.37826636134434
2048,512,536.3047194591235,1958351,189927,47759360,33974736,1.005669112483374,0.1273708544861657,0.5102081137196077,2048,0,1,1,912.1341935716446,0.905437689831426,0.0712463748243762,465.37826636134434
256,1024,603.243860797889,2023748,133029,59174912,50270720,0.9581254885045677,0.2060825997939506,0.5828554030869468,256,0,1,1,798.4454873311383,0.8043618513460178,0.0976143577558763,465.37826636134434
256,128,836.2628037917802,2153586,185780,37011456,33839984,0.9222695133124733,0.1338326343344609,0.3755153344671391,256,0,1,1,1239.3056252195981,0.8996705615136541,0.0793603362659729,465.37826636134434
256,1536,392.64445088034455,1869286,152018,65064960,41746432,1.269729790240523,0.2376306828498776,0.9416468328394801,256,0,1,1,494.21741796552726,0.7360821379453851,0.1165858062166455,465.37826636134434
256,2048,216.70942566457225,1618945,154858,52744192,37040872,1.3588369281831063,0.3309529492461129,1.0,256,0,1,1,321.74689134664726,0.7158275744839137,0.1207535998978917,465.37826636134434
256,256,413.7861854510533,1954364,117150,38322176,35800400,1.2162124594335333,0.202562951387295,0.7502452294355756,256,0,1,1,620.3015335551786,0.8917821678647174,0.0752693957279228,465.37826636134434
256,512,615.8994904424303,2053197,139747,37535744,35559512,1.027777990137187,0.1619879345795382,0.5272378846688148,256,0,1,1,882.6722811348664,0.9093150759631266,0.0646877194955143,465.37826636134434
512,1024,619.5603625871618,1997969,137773,47632384,39031512,1.0576002764241186,0.2107554236556607,0.5382702580638915,512,0,1,1,864.5810527136815,0.801386463148507,0.0921696032187845,465.37826636134434
512,128,791.7604761611047,2285581,214494,38322176,35986568,0.9759955589584102,0.2183588490058221,0.4073738092180598,512,0,1,1,1142.3863189796666,0.8826064678284018,0.0803896882970987,465.37826636134434
512,1536,379.786661013556,1841115,109827,63229952,38640392,1.2030979704312126,0.1901127238590299,0.8468459146727086,512,0,1,1,549.5430258303898,0.740966717021349,0.1217802037861138,465.37826636134434
512,2048,257.1755456230211,1882082,164082,66113536,44212136,1.3776763027067813,0.3481211398720666,1.0,512,0,1,1,338.5174578083849,0.7149152741100044,0.0963334834780312,465.37826636134434
512,256,380.6857540486207,1987662,174803,42254336,34932200,1.205659634387578,0.2070159249299671,0.7408100138147551,512,0,1,1,628.201910993222,0.8581259603838058,0.1031887046994758,465.37826636134434
512,512,397.7964325007528,2054636,131950,53272576,51405856,1.159809630716996,0.2307087982081434,0.60373381587298,512,0,1,1,770.833526507741,0.840902136147905,0.1106779401730777,465.37826636134434
