cpu,memory,duration_std,userDiff,sysDiff,heapTotal,heapUsed,avg_cpu_util,cpu_util_std,slo_preservation,total_cpu_shares,cpu_shares_others,num_containers,arrival_rate,latency,memory_util,memory_util_std,slo_duration
1024,1024,69.26254443440365,269888,59575,41005056,30437008,1.066788640412893,0.1839816287582905,0.783217601149843,1024,0,1,1,212.09960008435036,0.7891167184137975,0.1059679200976206,166.12013998290593
1024,128,47.87524470724568,264954,27247,33005568,29675304,0.9430357812370839,0.1374096970848626,0.5894369523802754,1024,0,1,1,281.82851331610016,0.8620112383506576,0.0843465877077095,166.12013998290593
1024,1536,49.26498023873212,214494,40083,73129984,55261136,1.3344040835030946,0.2367226658665714,1.0,1024,0,1,1,127.4662726999569,0.7052334009512593,0.1373167378160008,166.12013998290593
1024,2048,26.7344481269045,233261,37366,50311168,30075896,1.6529097838567013,0.4295469125357995,1.0,1024,0,1,1,83.54899352013527,0.7424829745235507,0.1057143024563057,166.12013998290593
1024,256,61.405213875665886,190698,28850,32481280,29964640,1.0185313093255404,0.1657577789388004,0.675744319727858,1024,0,1,1,245.83283223129033,0.8991471354226956,0.0482518293378976,166.12013998290593
1024,512,49.709919099487614,246874,33244,33267712,29829808,1.0312795250781766,0.1001826719793149,0.7047246662129825,1024,0,1,1,235.7234647051519,0.8884951507402871,0.0328082727583467,166.12013998290593
128,1024,69.30675391518965,234033,23401,39170048,30447032,0.948282425464783,0.2040146988919314,0.6637691207083007,128,0,1,1,250.26795432369758,0.7476358467783928,0.127722668330401,166.12013998290593
128,128,410.6443751851544,252684,34765,32743424,29646104,0.7510190812454396,0.2611547090960105,0.3225832515045391,128,0,1,1,514.9682731763538,0.8907548486851687,0.0682084861139548,166.12013998290593
128,1536,46.71985853706892,258282,17600,50573312,30131816,1.3141609894863753,0.1807786484003491,1.0,128,0,1,1,136.06692694081963,0.7494862473873376,0.110602319082369,166.12013998290593
128,2048,31.16313912225379,280548,27929,50311168,31393312,1.6696588896447861,0.3680199155619482,1.0,128,0,1,1,83.70305617108014,0.7322011833921449,0.1219418332663878,166.12013998290593
128,256,47.9118330334926,276422,48077,33005568,29787056,1.241996727573895,0.2203803441039605,0.8830471315290093,128,0,1,1,188.1214875759422,0.8792596273731255,0.0580289603377817,166.12013998290593
128,512,53.33213241902485,251300,24138,33005568,29996168,0.9911988559981082,0.1837333522554365,0.6332268376326341,128,0,1,1,262.3390704726895,0.8837084322354093,0.0489765045371599,166.12013998290593
1536,1024,67.44274039471857,257283,24831,39432192,30771536,1.092154281848447,0.210558633038136,0.8261814606511723,1536,0,1,1,201.06979870012435,0.7659492458588817,0.117913002570192,166.12013998290593
1536,128,97.09145338798972,285064,49226,32743424,29769440,0.7825519793270731,0.1283990697966061,0.4883175338726058,1536,0,1,1,340.18876747162636,0.8825848009841339,0.0552741349641126,166.12013998290593
1536,1536,45.25311668207973,214023,24810,72605696,55320824,1.3857059350206185,0.1974073300418091,1.0,1536,0,1,1,115.84077632953992,0.7263650988386535,0.115529977759075,166.12013998290593
1536,2048,25.160537930094527,275976,35705,50311168,31192632,1.4336356527164396,0.1865231117001852,1.0,1536,0,1,1,99.8120799035963,0.7211467303574928,0.1231040419564231,166.12013998290593
1536,256,40.08153794841902,267246,25134,33267712,29887904,1.3775376313269758,0.2687495561550849,1.0,1536,0,1,1,164.34279451323664,0.8820138014681171,0.0627163291292097,166.12013998290593
1536,512,50.64681602724141,250524,19657,33267712,29641600,1.3009503011349821,0.3027742275914611,0.9524896345315786,1536,0,1,1,174.40624439404166,0.8763370708251165,0.0943727268154651,166.12013998290593
2048,1024,76.84301475657165,251243,32727,39694336,31659496,1.060748637266343,0.1662261971199186,0.8097139217831909,2048,0,1,1,205.15905125734798,0.8089956246387848,0.0823479253060755,166.12013998290593
2048,128,220.65561555598708,252941,35906,33267712,29837192,1.028025516473832,0.4086667261705417,0.5140089463931641,2048,0,1,1,323.18530863826845,0.8859630378604724,0.0527512828858122,166.12013998290593
2048,1536,47.10469591503618,225993,29842,73129984,55345776,1.425641089701536,0.1824451360264096,1.0,2048,0,1,1,112.68784033091245,0.7411260755661153,0.0808715347757395,166.12013998290593
2048,2048,23.14317239498584,217630,49144,50573312,29957784,1.462961220330457,0.1723428952097278,1.0,2048,0,1,1,96.4490129466939,0.737467347655729,0.0926469645540371,166.12013998290593
2048,256,57.42751836163917,353245,28615,33005568,29751400,1.0102973736115224,0.2280187889888582,0.6527699527350771,2048,0,1,1,254.48496715706648,0.8860196263752431,0.0447736573392415,166.12013998290593
2048,512,59.53644030099776,296733,31700,33005568,29628456,1.0121074263024372,0.1460013559654863,0.6743219479687504,2048,0,1,1,246.35137634672438,0.8604384038617642,0.072271949764496,166.12013998290593
256,1024,74.79934733413106,294586,39500,37335040,30207128,1.0358980893351737,0.1172462381821155,0.7989372504444185,256,0,1,1,207.92639207960272,0.7922216896961273,0.091614207578508,166.12013998290593
256,128,288.5687757116913,266578,50264,32743424,29907104,0.7369421065947446,0.2296158793111395,0.3668968958387792,256,0,1,1,452.7706335675894,0.8788120032029065,0.0693158490914555,166.12013998290593
256,1536,46.58193767931055,292006,45771,49000448,29925976,1.3657173963933602,0.2275717454899891,1.0,256,0,1,1,116.37152101606623,0.7069539225923465,0.124986959090864,166.12013998290593
256,2048,29.514333879076705,257404,52008,50835456,30650296,1.4643691937842531,0.23220361350681,1.0,256,0,1,1,100.65165321092155,0.7206787853477021,0.1394406068508852,166.12013998290593
256,256,46.47531387888534,272413,43348,33267712,29810480,1.3470921841976833,0.2594369065994188,0.9616081446248899,256,0,1,1,172.75242614309087,0.8822190293039313,0.0695814343484892,166.12013998290593
256,512,64.74436218980397,224208,36972,32743424,29822824,0.9784240765774164,0.1784606267968811,0.6104094508653679,256,0,1,1,272.1454259061684,0.8578367025162829,0.0750835715886623,166.12013998290593
512,1024,71.84724155749446,234431,45554,38383616,30193544,1.020292277162896,0.2082413863826745,0.7373934062397213,512,0,1,1,225.28020806427102,0.7852104539652388,0.1112116679541932,166.12013998290593
512,128,308.0029198072837,222596,58289,33005568,29976944,0.9450494086810963,0.4065763816579527,0.40033500611401945,512,0,1,1,414.9528206274153,0.8720942950502718,0.0628623092490296,166.12013998290593
512,1536,42.71018773716556,214741,29248,47165440,30244432,1.3972147983076182,0.3137915281571249,1.0,512,0,1,1,120.28393723357628,0.7095845899160336,0.136499738920798,166.12013998290593
512,2048,25.57429062195329,248295,48899,50311168,30649808,1.430581755081908,0.1899317597132796,1.0,512,0,1,1,98.03066228358121,0.7285380897605359,0.1322244922974354,166.12013998290593
512,256,34.47692861275863,324553,31188,33005568,29833568,1.217574222426387,0.1920061277181425,0.830894993950048,512,0,1,1,199.92916215943984,0.8369735040928216,0.0845516559274462,166.12013998290593
512,512,79.90635795994369,260833,33565,33792000,29990984,0.9992627158744259,0.274889398788231,0.6324647377583693,512,0,1,1,262.6551807009539,0.8793625686093665,0.0537518599635139,166.12013998290593
