cpu,memory,duration_std,userDiff,sysDiff,heapTotal,heapUsed,avg_cpu_util,cpu_util_std,slo_preservation,total_cpu_shares,cpu_shares_others,num_containers,arrival_rate,latency,memory_util,memory_util_std,slo_duration
1024,1024,568.2342166245977,1620090,114355,43962368,35546088,0.8831793137957582,0.1667971718061129,0.6590431051236075,1024,0,1,1,439.8924336099268,0.838330992116234,0.0240635524401672,289.90807536666654
1024,128,548.4285154293696,1736323,206288,35962880,32534216,0.9455840936915983,0.1747112112566105,0.6410300726692654,1024,0,1,1,452.25347097911026,0.9271284669996452,0.0130012840609548,289.90807536666654
1024,1536,331.6529781299477,1552452,131397,52482048,39341200,1.0052133557498129,0.1613132650961102,1.0,1024,0,1,1,268.92468176719143,0.7398273670204504,0.0564781574604456,289.90807536666654
1024,2048,189.50369733512284,1376432,106103,52219904,40745488,1.084228552176187,0.160703003066998,1.0,1024,0,1,1,154.51978062085533,0.7249460391351323,0.0657220806650078,289.90807536666654
1024,256,372.2272190302731,1612937,149603,36225024,32507720,1.0295863301645107,0.145105013346363,1.0,1024,0,1,1,266.2322645358003,0.9314289208866487,0.0123489731556573,289.90807536666654
1024,512,598.7886057936819,1735222,157088,36225024,33062024,0.9837097437813694,0.0782548819078205,0.632496677088072,1024,0,1,1,458.35509634827423,0.9288408932516792,0.0108729302453287,289.90807536666654
128,1024,567.6516233125495,1646984,131954,43438080,37701928,0.9051458204825913,0.170247478789366,0.6412675625573809,128,0,1,1,452.0859814123616,0.8309000196979847,0.0375757081135904,289.90807536666654
128,128,570.8399842817867,1695362,120367,36225024,32825168,0.9590778268741458,0.1396761195923768,0.6957015436353741,128,0,1,1,416.71328462455017,0.9272446996942756,0.0122442437564875,289.90807536666654
128,1536,359.90782217848346,1601222,126727,52482048,36681832,0.9975900405042009,0.1847582778645166,0.9826959419302213,128,0,1,1,295.01299740510393,0.7235980696769924,0.0632483350857535,289.90807536666654
128,2048,191.84043675874983,1325368,126527,51957760,34953264,1.0653678043725232,0.1676902010790311,1.0,128,0,1,1,140.14930462554153,0.7355003306746617,0.0449702884572947,289.90807536666654
128,256,562.8091983431127,1832346,106043,36487168,33025944,0.9291591577966583,0.1405527122777063,0.5987628781729897,128,0,1,1,484.17843846843937,0.9294105588459728,0.0117018544633916,289.90807536666654
128,512,520.0690210889021,1713259,139453,36225024,32505104,0.9994240012105732,0.1237377440337907,0.6944715227204223,128,0,1,1,417.45135096543993,0.9254838679197738,0.0143182394069887,289.90807536666654
1536,1024,515.6850047528744,1604369,140472,42913792,34899736,0.9111024781245204,0.1566846922167694,0.6470016260134713,1536,0,1,1,448.0793613347586,0.8384496576701457,0.0406212208908574,289.90807536666654
1536,128,885.2358525858156,1897892,224652,36749312,33445416,0.8628149340669661,0.0909922127970617,0.41106595331215523,1536,0,1,1,705.2592729481446,0.9303579795666208,0.0137456708524856,289.90807536666654
1536,1536,329.3123995998324,1473783,139972,51695616,38503320,1.0405462434132027,0.1262061113308852,1.0,1536,0,1,1,255.37530539888465,0.7404619489287831,0.0429661322677707,289.90807536666654
1536,2048,201.12203845984664,1408466,108079,52482048,36835952,1.0805206293299787,0.1283665074477142,1.0,1536,0,1,1,138.8441000225135,0.7394410723010194,0.0577666365072241,289.90807536666654
1536,256,368.0254789304472,1694848,127399,35962880,32750944,1.0485121406391147,0.2091522470887719,1.0,1536,0,1,1,281.5561751735663,0.9259757215701732,0.0303601609369238,289.90807536666654
1536,512,338.7913828153517,1679148,131132,36487168,33050472,1.0685913504462867,0.1474444285607732,1.0,1536,0,1,1,241.2553400147986,0.9302003238695086,0.0119953180406941,289.90807536666654
2048,1024,556.980613866208,1833866,121149,43962368,37425888,0.936176426399436,0.1441378277453519,0.6441915601440631,2048,0,1,1,450.0339546544715,0.826145614623143,0.0383948550527541,289.90807536666654
2048,128,566.6058239043699,1723053,209014,35700736,33233144,0.9752598044680656,0.1112296681594526,0.6665922512897491,2048,0,1,1,434.9106591109346,0.930660804891914,0.0122262748492001,289.90807536666654
2048,1536,334.64671209563375,1533957,119949,51171328,36080528,1.0337141828981904,0.1716220592252568,1.0,2048,0,1,1,267.8335225531246,0.7239727561585079,0.0289324496266941,289.90807536666654
2048,2048,224.27250898887627,1548509,88026,52482048,41303008,1.0815423376501738,0.1347731094113419,1.0,2048,0,1,1,137.2803206315321,0.7181497241120852,0.078448259431832,289.90807536666654
2048,256,353.12817940259146,1571719,102094,36225024,33364040,0.9853690756076127,0.2114807842721236,1.0,2048,0,1,1,289.217752924804,0.9285017124811722,0.0321080297105214,289.90807536666654
2048,512,564.1582671810289,1704806,132349,35700736,32829944,1.006816275206386,0.1089302166455894,0.6924745857771802,2048,0,1,1,418.6551843506228,0.9300469281147516,0.0115451574608259,289.90807536666654
256,1024,530.212470677554,1610795,153120,42651648,36512832,0.9248961006392349,0.1485493132619433,0.6934354486583604,256,0,1,1,418.07507234822305,0.8381650194554553,0.0199871118730884,289.90807536666654
256,128,582.675779062559,1686497,165856,35962880,33239760,0.9961017562204394,0.0829251581735583,0.6473849406657023,256,0,1,1,447.8140549092101,0.931461380913977,0.0118175787158059,289.90807536666654
256,1536,329.0668868756083,1492751,120842,51695616,35726320,1.0785547918884115,0.2054539355914023,1.0,256,0,1,1,256.7088260411156,0.7225721482211636,0.0546487316210254,289.90807536666654
256,2048,190.81714700824307,1373653,93330,52219904,41190872,1.0867324320775094,0.1371176563694029,1.0,256,0,1,1,148.8206328867158,0.7413351609290157,0.0437172944502801,289.90807536666654
256,256,542.7485852906655,1684466,164561,36225024,33061928,0.9341374553616576,0.2154615526160873,0.7264460118916345,256,0,1,1,399.07724816570783,0.9260859164654652,0.0098390003679982,289.90807536666654
256,512,550.1375811738834,1582640,93880,35962880,32661968,0.9910682644445631,0.0926131667334855,0.6961721140690974,256,0,1,1,416.43161153377105,0.9261245096143276,0.0140298704875692,289.90807536666654
512,1024,599.2980070181912,1661901,139355,43438080,38088936,0.9237977549748985,0.1640644466359983,0.6196556566679349,512,0,1,1,467.85351226451303,0.8340652823040833,0.0361990848506816,289.90807536666654
512,128,890.2874553282342,1950215,120830,35962880,33292848,0.8755495484601579,0.0827715158165346,0.41158615105153484,512,0,1,1,704.3679060289058,0.9322351243238703,0.0112519531538146,289.90807536666654
512,1536,335.5205995244236,1607788,140288,52219904,40760760,1.0225965518084934,0.1523632668937688,1.0,512,0,1,1,285.2323473629289,0.7275989556945998,0.0551157099539338,289.90807536666654
512,2048,200.72400297106051,1434379,102807,52219904,36756224,1.0648993046376143,0.1338143181949518,1.0,512,0,1,1,158.61549589770232,0.7347072759646686,0.0676314150580767,289.90807536666654
512,256,544.7623970247737,1750224,81050,35962880,32911520,0.9182655088725177,0.1722990089519058,0.6583478642277001,512,0,1,1,440.3569770925804,0.9288607432449124,0.011584884535886,289.90807536666654
512,512,556.1341609133743,1547173,110978,35962880,33018696,1.0059235811544815,0.1126185244063169,0.6825306675297332,512,0,1,1,424.7546508289859,0.9308049884161624,0.0104488182436179,289.90807536666654
