cpu,memory,duration_std,userDiff,sysDiff,heapTotal,heapUsed,avg_cpu_util,cpu_util_std,slo_preservation,total_cpu_shares,cpu_shares_others,num_containers,arrival_rate,latency,memory_util,memory_util_std,slo_duration
1024,1024,540.480690951215,1841664,153781,43175936,36636248,0.9260562821201835,0.1251005362803795,0.6572971892443882,1024,0,1,1,495.89446355770514,0.8267503170572745,0.0489593477654667,325.9500370583333
1024,128,558.0963064306064,2068813,131112,36487168,33175592,0.9225179774519003,0.1434893345098811,0.6448577312645342,1024,0,1,1,505.46038491181827,0.9273362622998056,0.0113865794493054,325.9500370583333
1024,1536,355.5913694539637,1667242,113809,52482048,42760120,1.0058916550968469,0.1398997127867361,0.9603209246504388,1024,0,1,1,339.41782240867093,0.7350707271510836,0.0427939603341692,325.9500370583333
1024,2048,187.32547850766332,123752,6984,53006336,42103216,1.0693504870560626,0.1212456789933789,1.0,1024,0,1,1,192.69516229165464,0.7404740890666333,0.0602510950840934,325.9500370583333
1024,256,337.7518373882249,1690394,119843,35700736,33028112,1.0294768195004342,0.1423801880676591,1.0,1024,0,1,1,321.7477636909976,0.928435025702288,0.0122145984590061,325.9500370583333
1024,512,488.0913807389932,1710992,99383,36487168,31915312,0.9643257706299072,0.1301638234892957,0.6818794717942425,1024,0,1,1,478.0170844572498,0.9232472623740472,0.0161590655106457,325.9500370583333
128,1024,553.8802925277618,1865784,117059,43700224,35642552,0.8935104093263455,0.15886333561513,0.6566141315137628,128,0,1,1,496.41032901147867,0.8350255509110825,0.0264998151715085,325.9500370583333
128,128,873.1934012542633,1998768,149535,35700736,32516376,0.8309409368230108,0.1222368032123371,0.4199327345066402,128,0,1,1,776.1958291755395,0.9284400915692436,0.0134715078325045,325.9500370583333
128,1536,351.05764690033783,150839,10287,53530624,40616056,1.0127571334795213,0.141974127385532,1.0,128,0,1,1,284.1286751267903,0.7386015233745942,0.0505669204087185,325.9500370583333
128,2048,212.33684316490152,1469642,128023,51957760,41422616,1.0559768727172614,0.134197843781566,1.0,128,0,1,1,169.61235560823135,0.7401665619918346,0.0814282703203383,325.9500370583333
128,256,578.4385864115521,1699431,155415,35700736,33095960,0.9570580248927417,0.0922756097289238,0.682870446724969,128,0,1,1,477.3233907274538,0.9276107816442772,0.0094694405849499,325.9500370583333
128,512,539.932164904697,232640,8302,37011456,34536112,0.9913193772409831,0.1125224607978867,0.7008488731857118,128,0,1,1,465.07892004837777,0.9269906835393806,0.0092300770583823,325.9500370583333
1536,1024,870.753099209834,1948427,132066,44486656,35164640,0.9238767120314371,0.1179679891194835,0.5059181099236952,1536,0,1,1,644.274301838087,0.8433111895488669,0.0250682036259401,325.9500370583333
1536,128,818.3097310799185,1931371,166684,36487168,33531024,0.9083208808764369,0.0706259461053329,0.4348571759550059,1536,0,1,1,749.5565327684943,0.930074922320374,0.0116269641658258,325.9500370583333
1536,1536,343.5432154795969,1542551,115624,52482048,36967608,1.017936235014808,0.1309842063864588,0.9960168395364855,1536,0,1,1,327.2535404220877,0.7163340194219229,0.0400756468978854,325.9500370583333
1536,2048,195.93911769280112,148544,11620,53792768,37029648,1.0515313831109416,0.1215186222123207,1.0,1536,0,1,1,159.97656515353992,0.7207502784699937,0.0733978158553541,325.9500370583333
1536,256,351.1923491274778,232984,15674,37011456,33495768,1.024849528621568,0.1589521258101552,0.995212609677936,1536,0,1,1,327.51799353086477,0.928755496134096,0.0189688343294102,325.9500370583333
1536,512,344.0327797620364,1633352,166574,37011456,33550760,1.0216680247737366,0.1451699240112225,1.0,1536,0,1,1,300.05926007618405,0.9310111202842026,0.0117447752097992,325.9500370583333
2048,1024,534.1941148092932,1771289,148085,42127360,35533400,0.9486645137890679,0.1327973287798673,0.6670888585513677,2048,0,1,1,488.61562126244723,0.8407557966347966,0.0317126477981805,325.9500370583333
2048,128,590.3502762820447,1747763,136504,35962880,32767624,0.9894552111813285,0.0918903542035358,0.6647510748728305,2048,0,1,1,490.3339751961873,0.931298598609551,0.0098007671112577,325.9500370583333
2048,1536,349.06044292913003,166841,4013,53006336,37549248,1.0469132622147994,0.1440127308799488,1.0,2048,0,1,1,307.4293117024826,0.718024696603339,0.0506831601524544,325.9500370583333
2048,2048,225.2065038070427,82021,3733,53006336,36968288,1.0695641754546774,0.13897984717925,1.0,2048,0,1,1,167.87363366124498,0.7366816382913246,0.0791001515317628,325.9500370583333
2048,256,344.70482354718644,1621734,112080,35700736,32675032,0.9982066774584792,0.161477139688297,0.9554740683776702,2048,0,1,1,341.13959535476897,0.9327869314415888,0.0122929381920099,325.9500370583333
2048,512,528.100908299451,1666682,138346,35962880,32518728,0.992559613217686,0.0943875357655595,0.6572407920548661,2048,0,1,1,495.937015776591,0.9343004895012084,0.0112461488570963,325.9500370583333
256,1024,595.7557259150544,1658126,155929,43175936,34904328,0.9826105569478886,0.0802959522548402,0.6614470288511287,256,0,1,1,492.7832809597434,0.8323556131756918,0.0248187893659174,325.9500370583333
256,128,526.1674359937489,1753317,148698,36749312,32925280,0.868908062721637,0.2385936053189303,0.5173427608702535,256,0,1,1,630.0465797763035,0.9310430173013692,0.0129118392272549,325.9500370583333
256,1536,356.7829778639808,1764122,121361,52219904,35551152,1.0331841917100848,0.1232179975047346,1.0,256,0,1,1,291.9154247838315,0.7157265518005641,0.0566270989794637,325.9500370583333
256,2048,192.10059523185944,1411245,84740,51695616,35790368,1.0534491159014054,0.1196388187554172,1.0,256,0,1,1,175.38397326283484,0.7284995880480551,0.062676950569781,325.9500370583333
256,256,560.9149777441917,1829497,124666,35962880,32918928,0.9431891732165154,0.126825270484502,0.655589464822118,256,0,1,1,497.1862034829583,0.929941027296594,0.0128450300386201,325.9500370583333
256,512,563.6352401028098,1854270,92423,35700736,33045344,1.018003782810638,0.090937065873377,0.7096874627232805,256,0,1,1,459.28673420207633,0.927298831919944,0.0099018533208943,325.9500370583333
512,1024,551.8142327867148,1839665,130806,43438080,36338240,0.957709453174483,0.100179255778835,0.6476526132764843,512,0,1,1,503.27911966470293,0.8382079236639092,0.0258805009001112,325.9500370583333
512,128,805.3443326549606,1712727,179705,35700736,32658272,0.9008502961643301,0.1271662801632588,0.446519257302831,512,0,1,1,729.9797975729248,0.9268843248443256,0.0118973000206418,325.9500370583333
512,1536,368.169341029048,1730816,110173,52744192,36310360,1.0417946522818475,0.1371550735702567,1.0,512,0,1,1,291.6659849244721,0.7026502354110176,0.0537802519898895,325.9500370583333
512,2048,193.04520187769637,1412726,84276,51433472,35881952,1.077296260078074,0.1372442846823174,1.0,512,0,1,1,176.23483478486955,0.72394688635364,0.0671958899864378,325.9500370583333
512,256,304.35519066435785,1593852,105005,36225024,32804456,1.0505131037117708,0.1745777809921206,1.0,512,0,1,1,318.7146549237247,0.923250294797815,0.0364510872913546,325.9500370583333
512,512,368.4410481455004,1628790,131151,36487168,32897576,1.049143217601907,0.112917772193572,1.0,512,0,1,1,288.1428481170903,0.9282480115795154,0.0150162056457129,325.9500370583333
