cpu,memory,duration_std,userDiff,sysDiff,heapTotal,heapUsed,avg_cpu_util,cpu_util_std,slo_preservation,total_cpu_shares,cpu_shares_others,num_containers,arrival_rate,latency,memory_util,memory_util_std,slo_duration
1024,1024,813.4431729565142,1900846,132160,43438080,37220208,0.7529725743881789,0.1209291040814535,1.0,1024,0,1,1,762.516042982847,0.8391759149972925,0.0412209236287395,2736.0170729915258
1024,128,1598.2075697172827,2244322,186389,37273600,34892272,0.46422414546613733,0.176973283391806,0.4207721093695952,1024,0,1,1,6502.372690743816,0.9264822202580792,0.0083525347158611,2736.0170729915258
1024,1536,582.7690108587561,159690,19768,53006336,40395816,0.9315093347794251,0.1348620214366112,1.0,1024,0,1,1,486.0080940274947,0.7455332010319026,0.0464609234773334,2736.0170729915258
1024,2048,379.4211707260272,258439,9107,53268480,43646744,0.9896957656898114,0.1843129617765252,1.0,1024,0,1,1,302.01144352431334,0.7592495186087098,0.0560086171709084,2736.0170729915258
1024,256,3654.8871533176266,2020174,162043,36487168,33440696,0.4521319663224013,0.2353822858842309,0.4094573394249955,1024,0,1,1,6682.056491730587,0.9289096943428417,0.012809372651136,2736.0170729915258
1024,512,1988.572341171694,1921133,191234,36749312,33478368,0.4575900125650873,0.0843698940384939,1.0,1024,0,1,1,2477.120062148334,0.9325165961651212,0.0098847851751086,2736.0170729915258
128,1024,860.4920925302226,2116603,122283,44486656,35639392,0.7870403880293831,0.1121967984853336,1.0,128,0,1,1,740.7167441952099,0.8275053602525084,0.0411454754806184,2736.0170729915258
128,128,2386.6576098017904,1998913,181895,35962880,33945832,0.19800146808840627,0.0304607618480096,0.17701035028105633,128,0,1,1,15456.81972069593,0.928677226065418,0.0065003814685366,2736.0170729915258
128,1536,384.2070439053557,1572082,120971,52219904,39749360,1.029465474703254,0.1216051158844045,1.0,128,0,1,1,302.0186468799102,0.7438726070473194,0.046241814107281,2736.0170729915258
128,2048,194.8159962403076,1382905,117474,51171328,40304480,1.0372181651401984,0.1419632753819469,1.0,128,0,1,1,177.0149472477904,0.7470274019344443,0.056477529917,2736.0170729915258
128,256,3256.5411718244827,1856083,198950,35962880,32773728,0.2830619609032686,0.0422390476385881,0.38669431848222574,128,0,1,1,7075.40023792019,0.928872739839007,0.0098411868337549,2736.0170729915258
128,512,2132.364097792588,2144039,126715,36749312,33896736,0.5170524271008073,0.1526540588327729,1.0,128,0,1,1,2430.4955041338944,0.9112371210458776,0.0387068928944124,2736.0170729915258
1536,1024,871.330204345966,1858658,131615,43438080,35109632,0.8230828022353054,0.1475904950016743,1.0,1536,0,1,1,759.6845441475889,0.840892904693313,0.0344555348894593,2736.0170729915258
1536,128,1276.521165448462,1953711,209105,35962880,33022752,0.4084121509790551,0.0811175077023821,0.38178545788960583,1536,0,1,1,7166.373198485343,0.9259080150100408,0.0090987704624657,2736.0170729915258
1536,1536,631.7629227593224,169009,2,53006336,38793776,0.8959894357958446,0.1324609856426978,1.0,1536,0,1,1,494.5132654116196,0.7348638147581374,0.0703081902597189,2736.0170729915258
1536,2048,363.6842853425634,1498290,118771,51957760,40775120,1.0724406472788548,0.2118235542999281,1.0,1536,0,1,1,284.5042812778749,0.7263978762486994,0.068664778461264,2736.0170729915258
1536,256,2757.685980285288,2224694,121713,37011456,34492256,0.34173827548043273,0.0583409288635221,0.37797197962326173,1536,0,1,1,7238.67699324858,0.926483499752146,0.0083674039400922,2736.0170729915258
1536,512,2034.918005702709,2113287,200404,37535744,34587160,0.5859581867703896,0.2511467912291159,1.0,1536,0,1,1,1946.1875035491407,0.9195784458769172,0.0369369794323637,2736.0170729915258
2048,1024,818.3322721560871,1998278,181749,44486656,35749992,0.8364819041843007,0.1039587902478901,1.0,2048,0,1,1,760.1194204743017,0.8429480531243863,0.039934772636443,2736.0170729915258
2048,128,2026.0000303087088,2099485,177959,36225024,33262208,0.3359359313552222,0.0733663694262602,0.3088449918124795,2048,0,1,1,8858.86818800269,0.9248730646506156,0.0077353805220945,2736.0170729915258
2048,1536,523.2048243031509,1601166,177472,51957760,36334432,1.0091657736281623,0.1158407708691607,1.0,2048,0,1,1,430.91477691965514,0.7544588207022791,0.0410120138202343,2736.0170729915258
2048,2048,344.9113987764823,136799,11600,52744192,42628352,1.0335651423378611,0.1475538958157285,1.0,2048,0,1,1,269.94403642114645,0.7809322007896362,0.0413753244174149,2736.0170729915258
2048,256,3238.687390223253,2336683,154249,37535744,35112008,0.3837143192940674,0.1306534885419298,0.455818554345596,2048,0,1,1,6002.425848854567,0.9135678050016608,0.0358647627799368,2736.0170729915258
2048,512,1626.263937303239,2206655,154650,37011456,34638816,0.6041929585069884,0.1438034138949991,1.0,2048,0,1,1,1805.9803967904031,0.9270970514451188,0.025138988435993,2736.0170729915258
256,1024,895.7369393534534,2088372,128774,43962368,35249688,0.7993306364771733,0.1380517287533996,1.0,256,0,1,1,771.2558169058556,0.8225611876295251,0.0457888895583159,2736.0170729915258
256,128,3548.654844440673,2439066,186609,37535744,34988496,0.19322626497433829,0.0537429576609344,0.16778381785872884,256,0,1,1,16306.799475115093,0.93173482615919,0.0078827551569282,2736.0170729915258
256,1536,542.915701895413,1818441,150499,52482048,41827384,0.9986539240617388,0.0942570265687086,1.0,256,0,1,1,458.6940675905186,0.729268543887625,0.0544694432787003,2736.0170729915258
256,2048,318.2434882468535,1448462,175241,52219904,37313104,0.9774927265598938,0.1785146281741477,1.0,256,0,1,1,280.1886835568724,0.7556222843335638,0.0476635293086916,2736.0170729915258
256,256,2059.034983469568,2270271,192495,37797888,35479872,0.27061086562835773,0.01775894751679,0.299736055792698,256,0,1,1,9128.087929747753,0.9277610392311844,0.0103186429160621,2736.0170729915258
256,512,1475.291075560286,2030169,156488,35962880,32973448,0.5589312754994711,0.1747032412217946,1.0,256,0,1,1,1787.8051460234708,0.9194341401175352,0.0333012675862503,2736.0170729915258
512,1024,835.0409055064885,322282,22257,45535232,36859040,0.8319261480135163,0.1283634916727357,1.0,512,0,1,1,700.2052876835443,0.8514381366843455,0.0297539775754866,2736.0170729915258
512,128,2166.374692765949,2418055,158739,38060032,34970800,0.2278168351698429,0.0292525986019836,0.21138000834956502,512,0,1,1,12943.594308440455,0.925316741958362,0.0088078320051577,2736.0170729915258
512,1536,522.2173489126587,1742505,170042,51957760,40950992,0.9507018293394027,0.1648737412852724,1.0,512,0,1,1,472.45277624155415,0.7249951315815762,0.0511277924723908,2736.0170729915258
512,2048,338.6094948563606,1676402,144204,53006336,35131120,1.0467575800109445,0.1397105767871349,1.0,512,0,1,1,308.32338311101154,0.733881052414324,0.0600768701707328,2736.0170729915258
512,256,2052.061419076203,2285752,155694,37535744,35327712,0.28261738342143317,0.0112410505946729,0.29872710836231875,512,0,1,1,9158.917943506747,0.9308310175406618,0.0080319490498461,2736.0170729915258
512,512,1798.6102509513282,2158603,207911,36487168,34117352,0.58526431333121,0.1725129043095785,1.0,512,0,1,1,1965.0767042111002,0.9236172596148584,0.0343052897159167,2736.0170729915258
