cpu,memory,duration_std,userDiff,sysDiff,heapTotal,heapUsed,avg_cpu_util,cpu_util_std,slo_preservation,total_cpu_shares,cpu_shares_others,num_containers,arrival_rate,latency,memory_util,memory_util_std,slo_duration
1024,1024,150.5031747517252,271773,53942,39694336,29709528,0.6971002057897122,0.3018436582319964,0.8304528248595686,1024,0,1,1,498.1473637429339,0.7394137107144618,0.1315128158710616,413.6878854166665
1024,128,125.76669716561976,206304,51968,33267712,29464216,0.6200453886097919,0.159591515837881,0.7715820227495631,1024,0,1,1,536.1554225206976,0.8689292121173787,0.0800714903442163,413.6878854166665
1024,1536,169.88379890082777,287919,52471,50573312,30699920,0.5308700102008709,0.2030432954425932,0.7747361225892876,1024,0,1,1,533.9726306217113,0.630491343128763,0.1414759811848523,413.6878854166665
1024,2048,139.52979098662468,225823,60855,49524736,29706896,0.5767047473503182,0.2564833005310932,0.8404363461196331,1024,0,1,1,492.22988430557416,0.5598959514811211,0.1643666091671271,413.6878854166665
1024,256,153.89884415745823,247613,35478,33267712,29469400,0.6839772578386041,0.3117621147985318,0.7737264360289368,1024,0,1,1,534.6694466585279,0.8258459820538505,0.117079678838732,413.6878854166665
1024,512,165.20435367025837,272204,16441,33005568,29528032,0.6341794055793704,0.2288210453222524,0.759397192901259,1024,0,1,1,544.7582494164639,0.8031980286598192,0.0852336368915293,413.6878854166665
128,1024,170.77859490669374,291067,45725,39432192,29556448,0.5736442733925439,0.2285247111324122,0.7666305808826915,128,0,1,1,539.6182929988913,0.6856552758070462,0.1199800504233522,413.6878854166665
128,128,195.7483677185588,251238,50953,32743424,30053248,0.6886214173628835,0.2402942521449124,0.7667151879386604,128,0,1,1,539.5587460956399,0.8749630107872038,0.074000678444557,413.6878854166665
128,1536,144.39387925071526,278241,59850,49000448,29754624,0.629526612784371,0.325796668004208,0.9089729266117229,128,0,1,1,455.1157392098847,0.6191368597860359,0.1620987455914743,413.6878854166665
128,2048,159.4214999179947,253466,35769,49786880,29720800,0.6719100656600254,0.446367198998345,0.865097476223234,128,0,1,1,478.1980028686576,0.5857542613591412,0.1510011111782964,413.6878854166665
128,256,127.32267951912232,243712,22381,32743424,29738512,0.5913526876313573,0.24417139413623,0.6815245414653907,128,0,1,1,607.0036517352245,0.8354133854184618,0.0893187085018559,413.6878854166665
128,512,140.23306911979242,210901,35125,32481280,29757672,0.6341361747207387,0.1922065487211674,0.7920020142381784,128,0,1,1,522.3318602473381,0.872449574005459,0.0605268097294811,413.6878854166665
1536,1024,140.52115868163375,271965,42859,38907904,30752032,0.6180695070560538,0.3128167256996407,0.7778668350634065,1536,0,1,1,531.8235291300798,0.7121172315725859,0.1448138579407858,413.6878854166665
1536,128,162.8847809543655,243397,46178,32481280,29595976,0.6683165309499559,0.229501885696034,0.7263596857828388,1536,0,1,1,569.5358560143818,0.8443502444565428,0.0652334382580344,413.6878854166665
1536,1536,136.0380925582983,289446,31093,50311168,29911784,0.5714791858884729,0.2491061482333632,0.8853308892585273,1536,0,1,1,467.2692328211138,0.5902336712254226,0.1747463525871841,413.6878854166665
1536,2048,126.83819179547432,253612,25478,49262592,29654624,0.7023203162862539,0.4875359943083939,0.9554604173268961,1536,0,1,1,432.97229054663137,0.6147277075288795,0.163891438734592,413.6878854166665
1536,256,159.26355822517337,221573,39425,33267712,29423744,0.684945414626001,0.266820124002635,0.7737525378430716,1536,0,1,1,534.6514100876119,0.8184063243979758,0.0716371932071882,413.6878854166665
1536,512,134.5661185380817,217041,40342,33267712,29475040,0.604684188599221,0.2525856901668002,0.7166714633971535,1536,0,1,1,577.2350463847276,0.8363655545311097,0.0802834242777969,413.6878854166665
2048,1024,120.84317031022984,252166,33987,39694336,29557744,0.5145618736293847,0.1708630733163106,0.7481960912211207,2048,0,1,1,552.9137217777924,0.6929502866410872,0.1429055447205949,413.6878854166665
2048,128,169.75642199071453,260178,26568,32743424,29958512,0.6122562327835954,0.1723042439300448,0.7139455412295135,2048,0,1,1,579.4389929296826,0.8929326875023822,0.0658762895406418,413.6878854166665
2048,1536,142.2091113495728,249155,33997,50311168,29701144,0.5134417161441331,0.370496555944213,0.733441687550025,2048,0,1,1,564.036504113288,0.6443100874864137,0.1686056241773865,413.6878854166665
2048,2048,135.805296818672,251324,47233,49524736,29661160,0.6107503381441733,0.2215503650838251,0.8378891070143301,2048,0,1,1,493.72629618109045,0.5988997027070506,0.192899794290597,413.6878854166665
2048,256,138.62628723287358,262693,50423,32743424,29655560,0.575228596911361,0.1401463948049356,0.7347722176185402,2048,0,1,1,563.0151433289958,0.8580789953253263,0.0725975689060053,413.6878854166665
2048,512,130.9107639793312,227669,39136,33267712,29426136,0.6594938160099996,0.211531374798132,0.7507694759767171,2048,0,1,1,551.0185198705333,0.858426714978244,0.0820271460861431,413.6878854166665
256,1024,149.30612888335833,276091,17535,36286464,30055312,0.579444607018,0.1828703911481685,0.7477396835191312,256,0,1,1,553.2512109959216,0.7478151607218483,0.1276406776804633,413.6878854166665
256,128,190.61255428260756,378231,32275,33005568,29449424,0.743909437255296,0.341709737163843,0.7535605814529582,256,0,1,1,548.977607903833,0.8518109993952482,0.0719607524631207,413.6878854166665
256,1536,125.16572368078371,293787,55585,50573312,29989312,0.6014452652410479,0.2631399877391125,0.8279694210123717,256,0,1,1,499.6415023526395,0.6006302667609182,0.1709490981453686,413.6878854166665
256,2048,148.43157088762652,287962,34323,50049024,30053296,0.6353408256509497,0.3600489143916909,0.9456003714040058,256,0,1,1,437.4870166373055,0.6353486028461981,0.1654826720458606,413.6878854166665
256,256,124.879121469964,226443,29644,32743424,29840040,0.6517333789526485,0.2506259333246959,0.7968904023516329,256,0,1,1,519.1277046327434,0.8394793293779935,0.0901462990550951,413.6878854166665
256,512,148.98393809657475,218341,33717,32743424,29493176,0.6230544274668584,0.2316601403532034,0.7858322765286906,256,0,1,1,526.4327996860573,0.8688712278226429,0.0649212124786181,413.6878854166665
512,1024,136.80909132437307,262066,25727,39956480,30739864,0.5305371937240734,0.2366761754189316,0.7569597988097854,512,0,1,1,546.5123591333827,0.7067462887843396,0.103087816371014,413.6878854166665
512,128,150.41460062126012,239763,22826,32219136,29769112,0.624539538062037,0.2207140185328268,0.7092852928756398,512,0,1,1,583.2461064284314,0.8881462194628895,0.0543746134236943,413.6878854166665
512,1536,132.53914663476613,317309,34648,50573312,29924248,0.625769452061623,0.3180340440029777,0.8145247941386536,512,0,1,1,507.88863444498895,0.5840491313275824,0.1547804690978879,413.6878854166665
512,2048,136.1758407722636,299695,37116,50311168,30928192,0.5197495638814746,0.1758433195802729,0.82927380563824,512,0,1,1,498.8556042696621,0.6289042687870995,0.172866124840151,413.6878854166665
512,256,119.947690578095,266597,28072,32743424,29804312,0.5689995977863671,0.1508559230247537,0.7064208638784716,512,0,1,1,585.6110805467871,0.8300140662529035,0.0886114162313357,413.6878854166665
512,512,139.57899033808593,241416,32963,32481280,30051008,0.6943008230028114,0.2482239097330962,0.7696778102721639,512,0,1,1,537.4818916377275,0.8806365069524864,0.0550270370156725,413.6878854166665
