cpu,memory,duration_std,userDiff,sysDiff,heapTotal,heapUsed,avg_cpu_util,cpu_util_std,slo_preservation,total_cpu_shares,cpu_shares_others,num_containers,arrival_rate,latency,memory_util,memory_util_std,slo_duration
1024,1024,210.80625557258517,209865,30709,38645760,30095768,0.7364829776963219,0.1937103553598623,0.4498259703794089,1024,0,1,1,909.7661504706097,0.7504947506257384,0.1173687003582438,409.2364414537813
1024,128,366.95726475807845,217995,44965,32743424,29668528,0.6978967422542104,0.1992813578022217,0.34616515288797517,1024,0,1,1,1182.1999933835543,0.8928267836506996,0.0381396001450763,409.2364414537813
1024,1536,171.8889770031526,252100,35320,50573312,30556896,0.7122576007236233,0.1893929883427159,0.6098841355588547,1024,0,1,1,671.0068644084109,0.7159603583623615,0.1285803459177256,409.2364414537813
1024,2048,147.48254655818914,304347,15860,50835456,30251536,0.708879527229031,0.1996282884044442,0.6737408929856231,1024,0,1,1,607.4092365691004,0.7325496085772706,0.0946391636217731,409.2364414537813
1024,256,136.35766705286267,208003,37059,33267712,30284104,0.7798751324536373,0.2518680141185144,0.4883042818383318,1024,0,1,1,838.0767006857246,0.8945493841787131,0.0448625607483356,409.2364414537813
1024,512,144.6986338736294,203522,19828,32743424,29915480,0.7513674228631667,0.2071654732993643,0.45794921514835,1024,0,1,1,893.6284372082863,0.8904160606181382,0.0467780693906151,409.2364414537813
128,1024,188.17227716293013,256415,22938,39956480,31600144,0.7686178042379627,0.246610092597658,0.5048655642918748,128,0,1,1,810.5849762753714,0.782178580787542,0.1151895464990862,409.2364414537813
128,128,277.9078215977525,280236,54361,33005568,29912656,0.7147098777740098,0.1859595672509609,0.35832737918989194,128,0,1,1,1142.0741624013906,0.8750059197670169,0.0445927969575149,409.2364414537813
128,1536,134.83103243533287,267223,44493,50573312,31037968,0.6703152185992198,0.2383333254153458,0.6004795309061746,128,0,1,1,681.5160557366689,0.7311518537681339,0.1100300162301647,409.2364414537813
128,2048,117.3399490586257,250631,32690,50049024,29889392,0.6760150713154445,0.1838881770739731,0.6588495526496495,128,0,1,1,621.1379211050285,0.7258361863943519,0.1392591767444488,409.2364414537813
128,256,146.16870597937702,195143,34030,33005568,29730312,0.785953223918707,0.2497075499618246,0.47480021313711046,128,0,1,1,861.9129270180088,0.9107474342390004,0.034933862008056,409.2364414537813
128,512,141.80369010826922,205628,23666,32219136,29969016,0.7498827377159097,0.1565731534553088,0.4514566765162463,128,0,1,1,906.4799852152687,0.904617060087774,0.0418760330133199,409.2364414537813
1536,1024,148.70605301656315,241032,41027,38645760,30439032,0.7576561094532893,0.2816601320970043,0.4624977192959271,1536,0,1,1,884.8399124578887,0.7898544320604554,0.1002957923890944,409.2364414537813
1536,128,214.22399941898811,231073,38363,33005568,29669224,0.7410965891914985,0.1779260688865925,0.4035955071375246,1536,0,1,1,1013.9767024570334,0.884053824324871,0.0526106717722968,409.2364414537813
1536,1536,143.1217581554825,212791,48495,50573312,29912008,0.6375712471695916,0.1507742357122097,0.5788543536351742,1536,0,1,1,706.9765285236233,0.6970816401244543,0.1367980016508626,409.2364414537813
1536,2048,154.3454197734054,259945,40235,50311168,30364568,0.7105739886643009,0.2218681242328486,0.6479151154023105,1536,0,1,1,631.6204572564629,0.7365502593127291,0.0961156266083952,409.2364414537813
1536,256,137.16129106779684,240574,29120,32743424,29746184,0.8600999607842673,0.2564810405417721,0.4865538856135365,1536,0,1,1,841.0917136911585,0.8708761487188795,0.065508163288395,409.2364414537813
1536,512,138.97730501027655,261279,24037,32219136,29909456,0.843329510306004,0.2769752032011574,0.4982662689429254,1536,0,1,1,821.3207816013286,0.895247050784923,0.0587479073190829,409.2364414537813
2048,1024,128.59327973840865,303246,38479,39694336,29792664,0.7827962682897827,0.2651581226747191,0.5330947241390739,2048,0,1,1,767.6617736457276,0.7871674360307161,0.1158569469867561,409.2364414537813
2048,128,158.48279869156792,224781,28295,33005568,29909480,0.7458974319102416,0.1673689084341318,0.41606361195164415,2048,0,1,1,983.5910416057814,0.881644160030253,0.0766647195940298,409.2364414537813
2048,1536,172.71647770386048,254674,36119,50835456,30380872,0.7338156240746099,0.259728878628426,0.5362454083185062,2048,0,1,1,763.1514137100319,0.6414167573024211,0.1481045302042344,409.2364414537813
2048,2048,136.4537190287183,205251,44805,69210112,51343488,0.7180991495352347,0.260049169669557,0.6878836885689704,2048,0,1,1,594.9209848326697,0.7438281523647403,0.1143652965108131,409.2364414537813
2048,256,158.51752216528757,191975,45045,33267712,30237664,0.7866646983309623,0.2315474955144013,0.4414629779242391,2048,0,1,1,927.0005910303348,0.8790573394798891,0.0453295422452981,409.2364414537813
2048,512,162.03388005185442,225654,30721,33267712,30106128,0.78021217224135,0.2521051201210712,0.43869034210576185,2048,0,1,1,932.859473243476,0.8934619831561095,0.0376523321459825,409.2364414537813
256,1024,139.59861090666942,342096,43969,39432192,29929144,0.7379984322238523,0.2309154762857933,0.5186038590842881,256,0,1,1,789.1118322497261,0.7725037401465064,0.1319337990134598,409.2364414537813
256,128,254.35204636693172,231863,35689,33005568,29772016,0.801351545022354,0.2561053376771303,0.39002933256361383,256,0,1,1,1049.2452933319696,0.8869894636514547,0.0482913014743026,409.2364414537813
256,1536,138.1816259708358,286395,30447,50573312,31149064,0.7374100951075961,0.2772425193943603,0.6262732608770714,256,0,1,1,653.4470925369887,0.7080703358266196,0.1121762351257452,409.2364414537813
256,2048,126.80005154169184,253146,26195,69734400,51407496,0.6843071653497134,0.1428930748269319,0.677680244002086,256,0,1,1,603.878370478986,0.7144788877932406,0.132905261046281,409.2364414537813
256,256,173.23513098315232,241521,14559,32219136,29780168,0.8208051371128333,0.3016949137847352,0.4416184799224304,256,0,1,1,926.674177053603,0.8768066334620725,0.0637286187390211,409.2364414537813
256,512,179.02724919044817,210468,25251,33005568,30251104,0.7616065820988818,0.2149352961543598,0.4114358995071003,256,0,1,1,994.6541902251263,0.8721743761320301,0.0580945199628998,409.2364414537813
512,1024,140.53362105468585,258067,44563,38383616,30930288,0.7361940349036449,0.1792196138382338,0.4440940502451362,512,0,1,1,921.5084985441399,0.7743959633757957,0.1091749030815357,409.2364414537813
512,128,312.0430663601112,255674,22482,33267712,30280440,0.7120692309649612,0.2044521763071287,0.3459551008429239,512,0,1,1,1182.9177845815009,0.8837670436996475,0.0569771841487465,409.2364414537813
512,1536,146.37942192987106,272299,46990,50835456,29950528,0.6892297629885168,0.1970185111352843,0.5735982923429325,512,0,1,1,713.4547764816471,0.7197161214128787,0.1097887800264312,409.2364414537813
512,2048,137.96942174518847,258902,46984,50573312,30182920,0.7005788524317476,0.1914154185400849,0.6751818529462575,512,0,1,1,606.1129156063904,0.7021406707874868,0.1367374183578578,409.2364414537813
512,256,147.71484630730836,237593,37569,32743424,29728896,0.8143320186332269,0.2231530380726131,0.49945165449346085,512,0,1,1,819.3714802463214,0.8845979966639632,0.0742696285949643,409.2364414537813
512,512,146.41844867099462,270041,18290,33529856,29790224,0.7272689229302539,0.144767836132158,0.45326318829980816,512,0,1,1,902.8671465442156,0.8745791389132643,0.0807977491383558,409.2364414537813
