cpu,memory,duration_std,userDiff,sysDiff,heapTotal,heapUsed,avg_cpu_util,cpu_util_std,slo_preservation,total_cpu_shares,cpu_shares_others,num_containers,arrival_rate,latency,memory_util,memory_util_std,slo_duration
1024,1024,336.16770746673666,158458,11273,44748800,37217280,1.024846577592675,0.2142014041330539,1.0,1024,0,1,1,200.65724455929495,0.8453731392804424,0.0280186127244388,1296.6950403125
1024,128,4334.424741850426,2134521,226106,36225024,33323112,0.4041222689924953,0.2549107973527727,0.17725582766396175,1024,0,1,1,7315.387355109982,0.9218590491104176,0.0077097695992079,1296.6950403125
1024,1536,202.2958465115472,1359894,127904,52219904,36186256,1.1288406446829045,0.2484426966742403,1.0,1024,0,1,1,112.98831786302172,0.7397108686764292,0.0443558867724807,1296.6950403125
1024,2048,223.3203892199857,1503153,117624,53006336,40014536,1.0913880888786884,0.179610894757993,1.0,1024,0,1,1,99.597201480188,0.7335977245192792,0.0423795542498761,1296.6950403125
1024,256,2025.914894619841,1831338,119740,35700736,33194912,0.4671282872843946,0.2138573939466885,0.581143114425714,1024,0,1,1,2231.283496482437,0.9255049469251329,0.0097018926926999,1296.6950403125
1024,512,842.9011633545806,1836153,144981,36487168,33069888,0.8082155073589159,0.1625960107208745,1.0,1024,0,1,1,615.3647211336329,0.927611674568553,0.015102716024354,1296.6950403125
128,1024,364.2767964623812,1523555,112817,42913792,34558736,1.0438000247338535,0.3194565399664651,1.0,128,0,1,1,233.81184489791934,0.8278719205317537,0.0468921124290937,1296.6950403125
128,128,4536.084758048942,2076470,220903,36225024,33445352,0.5173507512021106,0.3333921983630104,0.1694109845766615,128,0,1,1,7654.137915276221,0.9217168029916878,0.0109318534720523,1296.6950403125
128,1536,189.178121073263,1384086,86634,52482048,38974832,1.0789107735254602,0.2254240591064932,1.0,128,0,1,1,109.40301429683608,0.7235191557668915,0.0602523896155864,1296.6950403125
128,2048,216.0168715009291,1566539,85710,53268480,39874576,1.0795958665598433,0.1371233921359201,1.0,128,0,1,1,113.84294706466771,0.6862378775167103,0.0511551053290801,1296.6950403125
128,256,2064.366529194372,1717144,151521,35700736,33109800,0.42216448995397626,0.1085437143936657,0.626193653025429,128,0,1,1,2070.7572394698846,0.9248519883097226,0.0064361724189458,1296.6950403125
128,512,810.1242995695119,1745978,148920,35962880,32711160,0.7564704115920956,0.2137951700450185,1.0,128,0,1,1,556.6789792991874,0.928984214014474,0.0094439642520799,1296.6950403125
1536,1024,339.0134413288424,1557980,119354,43175936,34631000,1.0311442892943905,0.1782331253493934,1.0,1536,0,1,1,207.35783646929167,0.8454203193587453,0.0330503539924943,1296.6950403125
1536,128,3071.900566429033,1953668,241170,36487168,33575544,0.42359869616160845,0.127584032491129,0.25095811303636006,1536,0,1,1,5166.977965460827,0.9221887408342692,0.0139773669284106,1296.6950403125
1536,1536,188.3770332209953,113488,8674,52744192,39200744,1.106407698269957,0.2265495681872435,1.0,1536,0,1,1,101.88328331392411,0.7276931112260481,0.0483833107575273,1296.6950403125
1536,2048,213.09920630521333,1422829,181566,53530624,38806192,1.0969067574827704,0.174071892290887,1.0,1536,0,1,1,113.3881428113686,0.7306631567397968,0.0597447250202229,1296.6950403125
1536,256,2057.784470501,1789323,167388,35962880,33054104,0.44889866413625545,0.0632104330217584,0.5885808244106833,1536,0,1,1,2203.087471649822,0.9278029568520318,0.011962385251501,1296.6950403125
1536,512,850.1192627911892,1823803,180944,36225024,33286416,0.7946416894361087,0.1944311507317077,1.0,1536,0,1,1,648.1886359282339,0.9279425185809176,0.0127909550719662,1296.6950403125
2048,1024,346.25054676925106,1646365,149058,43962368,37893112,1.0505876128118874,0.2479647456594494,1.0,2048,0,1,1,199.2995390227339,0.8464841973952183,0.0211536600976849,1296.6950403125
2048,128,4108.401930675328,2083998,286886,36749312,33579800,0.41500972047614954,0.1293858524325982,0.20621166782830952,2048,0,1,1,6288.174931944781,0.9276012618342938,0.0105494224321761,1296.6950403125
2048,1536,203.39272451817567,1371982,135972,53006336,42285032,1.0768992046829893,0.1807028533682822,1.0,2048,0,1,1,108.1773191413414,0.7391722026225122,0.0540737490724888,1296.6950403125
2048,2048,193.5549889278981,124244,11336,53268480,41332376,1.0562867814476387,0.1445901025321941,1.0,2048,0,1,1,103.26545936851309,0.7668052734501806,0.0453573926275046,1296.6950403125
2048,256,2107.353850802608,1814729,117874,35700736,32545560,0.4737320074313314,0.0803461308986886,0.6289307758498209,2048,0,1,1,2061.745250994254,0.9260631103363977,0.0094859762652048,1296.6950403125
2048,512,821.6016246678819,1886879,100736,35962880,33225288,0.8274137230293767,0.1764161665422303,1.0,2048,0,1,1,594.2906360568874,0.9276795177281626,0.0075878249160458,1296.6950403125
256,1024,329.20320206970274,1434503,123566,42913792,33878744,1.0263349068210288,0.1828733822465079,1.0,256,0,1,1,212.7924030814747,0.8430954537553388,0.0386792423772065,1296.6950403125
256,128,3260.555001190384,2088655,193932,36487168,33888856,0.43844105190096244,0.2760611762119293,0.1593386049400054,256,0,1,1,8137.984142642236,0.9220820318845662,0.0069257942011961,1296.6950403125
256,1536,337.43416551788346,1600493,130072,51957760,40148288,1.0206423963800728,0.2586213244923854,1.0,256,0,1,1,208.2643467996952,0.7278739770593572,0.0409528074483607,1296.6950403125
256,2048,223.95255296460104,1514539,127018,53268480,38759088,1.0609896724145738,0.1383246641195947,1.0,256,0,1,1,122.08716688284157,0.7250206405160627,0.0559215236507128,1296.6950403125
256,256,2149.028558278623,1942763,159901,36225024,33764744,0.46654315260601625,0.0714233160777116,0.5507009543675606,256,0,1,1,2354.6264629260695,0.9272382906395508,0.0113234040367934,1296.6950403125
256,512,845.0428125582318,248916,22620,37011456,34498176,0.6944605312752159,0.2178642239099589,1.0,256,0,1,1,613.6772764565958,0.9300869500490292,0.0090827410931031,1296.6950403125
512,1024,341.0678806146514,1588930,112536,43700224,36283536,1.054577625882753,0.2205832246769019,1.0,512,0,1,1,201.2664741457334,0.8173796732355513,0.0392735442648377,1296.6950403125
512,128,4517.634089338298,1890831,281903,36487168,33055376,0.3788643016404376,0.3462542854717801,0.15131108845470057,512,0,1,1,8569.729116056844,0.9199921454337244,0.0106923735540701,1296.6950403125
512,1536,182.1531419993923,1292922,129467,51433472,40739104,1.1243412106016335,0.2740757133250867,1.0,512,0,1,1,107.0336448552822,0.7147347272928876,0.0607174217582952,1296.6950403125
512,2048,219.9099851641658,1590654,95840,53006336,40903688,1.0527843355725586,0.1523340122018839,1.0,512,0,1,1,115.23125545123705,0.7210147221858068,0.0600428539730687,1296.6950403125
512,256,2005.840889953359,1823896,175176,35962880,33220712,0.4938479379175475,0.1342610494773293,0.5955390089849976,512,0,1,1,2177.3469424320538,0.9273452809808008,0.0102031428013777,1296.6950403125
512,512,850.7542318497854,182505,27361,37273600,34458616,0.8319079492083913,0.2303391296961772,1.0,512,0,1,1,626.8482573184394,0.9312119288329396,0.0102159254718414,1296.6950403125
