cpu,memory,duration_std,userDiff,sysDiff,heapTotal,heapUsed,avg_cpu_util,cpu_util_std,slo_preservation,total_cpu_shares,cpu_shares_others,num_containers,arrival_rate,latency,memory_util,memory_util_std,slo_duration
1024,1024,62.72471027525305,81632,4093,30351360,25484272,0.9535341947704933,0.1116915924577881,0.32195416813291655,1024,0,1,1,343.50091008194784,0.6812045264675314,0.0728364825862184,110.59154975833329
1024,128,56.987909725681696,29434,296,25231360,20706368,0.9729956544761789,0.0800138468266982,0.34382808241272106,1024,0,1,1,321.6478100982527,0.8592422197681696,0.0175957474271772,110.59154975833329
1024,1536,31.787989503841597,123628,622,34574336,15767104,0.9906437845291285,0.0598366512750267,0.4698088177147652,1024,0,1,1,235.3969222976072,0.5925246266953766,0.0924805933432297,110.59154975833329
1024,2048,37.353202831359376,106388,8313,35098624,15859368,1.001607466043932,0.0192822870018354,0.47899230253167546,1024,0,1,1,230.88377239845087,0.5455186156445234,0.0604247916986317,110.59154975833329
1024,256,40.512624398352585,67853,7482,25231360,21544920,0.991928154271429,0.0436723620038367,0.3767817329325897,1024,0,1,1,293.51621931766874,0.8642406143617682,0.0191738520561969,110.59154975833329
1024,512,38.98960702985055,138882,4074,24969216,20670680,0.9742840695288048,0.066695832768905,0.34268200062119836,1024,0,1,1,322.7235441542245,0.859674752053097,0.0142110142870805,110.59154975833329
128,1024,63.1365647318078,196961,3034,26054656,15880936,0.944102044846512,0.0874973912683838,0.28487058735549786,128,0,1,1,388.21680674362864,0.6740062357686676,0.0743956487291997,110.59154975833329
128,128,57.044669125003296,141165,7687,24444928,21161400,0.9404207847249081,0.0713475650228235,0.2582149714083407,128,0,1,1,428.2925546692798,0.8693124902640402,0.0131990274910737,110.59154975833329
128,1536,38.64282490509034,89713,440,38871040,25181504,0.9768752878712517,0.0584531763985436,0.36966336888284135,128,0,1,1,299.16826785556736,0.5361325432589552,0.0488844324690936,110.59154975833329
128,2048,27.96012023908906,70583,4826,38871040,25372104,0.9987199200700329,0.0150252495633288,0.4829942207667502,128,0,1,1,228.97075162259688,0.5656069423769507,0.0599390368457663,110.59154975833329
128,256,47.80300363319289,136860,636,25231360,21532112,0.9782382139683156,0.0550426301453607,0.4679108008756592,128,0,1,1,236.3517780554962,0.8708645871870464,0.0151213606977107,110.59154975833329
128,512,40.84555829757733,144351,3,25231360,21347648,0.9956186762520849,0.0386689007911655,0.3840262762721429,128,0,1,1,287.979121720207,0.86806452366194,0.0149212892549268,110.59154975833329
1536,1024,56.30760224562058,146219,3947,25792512,15638664,0.9417024204902257,0.1141565032335956,0.2862301376066864,1536,0,1,1,386.3728351006105,0.6645455453448393,0.0630583291185139,110.59154975833329
1536,128,57.29005408313331,226394,348,24969216,21556664,0.9753368661302801,0.0663086839378254,0.3502477360968287,1536,0,1,1,315.75236143070856,0.8642413723458248,0.0155279420556852,110.59154975833329
1536,1536,33.85271776691311,83241,0,39133184,25178144,0.9837518757891847,0.0457192911814565,0.42708610759754173,1536,0,1,1,258.94438566601093,0.5429237346101029,0.0673681416471353,110.59154975833329
1536,2048,26.327092122793008,66779,415,38871040,25184544,1.0013352138789031,0.0044597492474485,0.5908994955522102,1536,0,1,1,187.15796948681222,0.5501081752063963,0.0599393060244972,110.59154975833329
1536,256,42.83585906360933,109589,3923,25493504,20898336,0.9777843141362974,0.0798247792139463,0.40386509916531765,1536,0,1,1,273.8328961499688,0.8621326828671766,0.0175626354053418,110.59154975833329
1536,512,60.98136952001012,61089,3756,24969216,20789616,0.9817715506944172,0.0390920534063608,0.31765787633218284,1536,0,1,1,348.14672639404324,0.8625752433635039,0.0169894859581677,110.59154975833329
2048,1024,51.965258027862255,59610,14780,26054656,15611696,0.951295016001771,0.1118742336672007,0.3195511779346931,2048,0,1,1,346.0839996682314,0.6690059414618784,0.0458815232244321,110.59154975833329
2048,128,63.21181467043044,106402,4561,24707072,21308976,0.9397906553444522,0.0874361301469308,0.26797230925576854,2048,0,1,1,412.69767785140147,0.8689335275693528,0.011763751545587,110.59154975833329
2048,1536,42.16602446208052,116591,8493,34574336,15730456,0.9800262914543658,0.0597860928100441,0.3505840070778772,2048,0,1,1,315.4495000502603,0.5441591706709021,0.057078975555604,110.59154975833329
2048,2048,23.240619322401084,96070,20,39133184,25176640,1.0013326747352373,0.031001404437871,0.49669405135516415,2048,0,1,1,222.655273314828,0.5503844433670962,0.0591968726148211,110.59154975833329
2048,256,61.16175286113748,49793,3810,24969216,20738872,0.9685360669638537,0.0742147538707359,0.295778092172218,2048,0,1,1,373.9004094121376,0.8662970709832356,0.0153310422174004,110.59154975833329
2048,512,63.75031465378074,79589,3702,24969216,20614288,0.973932026545144,0.0613452560308971,0.3080428673721717,2048,0,1,1,359.0135058206643,0.8626478991492261,0.0169564170411468,110.59154975833329
256,1024,52.22958374484606,198437,3497,30613504,25315864,0.932426078690678,0.1113637440295235,0.2625578370676712,256,0,1,1,421.2083363934385,0.6697400266226867,0.0744721234972789,110.59154975833329
256,128,45.06879328055844,149801,7263,24444928,21150008,0.9437383138795452,0.0640043853154214,0.2791134905786122,256,0,1,1,396.2243083595604,0.8671521610680667,0.0173148730792485,110.59154975833329
256,1536,33.878900362349846,120698,4368,38608896,25508912,0.9902819343195846,0.0487516782790812,0.4176843098820953,256,0,1,1,264.7730526184986,0.5653433969282553,0.0844328668874912,110.59154975833329
256,2048,26.458527652449597,119362,15,39133184,25250880,1.0013837969058477,0.0043315640797231,0.5119218292376301,256,0,1,1,216.03210381364215,0.5535068162141022,0.059644461341494,110.59154975833329
256,256,38.0247251342675,169336,252,24969216,20625632,0.9778787916377877,0.0694277652323825,0.38967312957411926,256,0,1,1,283.80594237842564,0.866965645906981,0.0185566947959003,110.59154975833329
256,512,47.26845062733789,188943,3961,24969216,20685144,0.9668911042632697,0.0905943720208154,0.2976657062469169,256,0,1,1,371.5293614192708,0.8611825538530342,0.0170245013693565,110.59154975833329
512,1024,53.5878875187013,241357,2896,25530368,15598984,0.9672103482312997,0.083745052460896,0.31292189580813684,512,0,1,1,353.41582433125984,0.6648681606469886,0.0549694789400958,110.59154975833329
512,128,45.07252385525812,113908,11735,24969216,20652560,0.9729362887687832,0.056952696343434,0.3070054040712701,512,0,1,1,360.226720089461,0.8569613182885405,0.0170253672034145,110.59154975833329
512,1536,35.08095091480809,140948,4,38871040,27055424,0.9878256617040337,0.0476824540164005,0.406507348027109,512,0,1,1,272.0530152654417,0.6053628194718608,0.1074722796114416,110.59154975833329
512,2048,23.169652684148986,80217,3,34574336,15854704,1.0031612884603993,0.03342877321948,0.5638265962955571,512,0,1,1,196.14461340585882,0.5534409051960598,0.0580073337322102,110.59154975833329
512,256,53.82893368822574,176370,2389,24969216,20639176,0.9510395782379631,0.0951221559335678,0.322960232364061,512,0,1,1,342.43085889803166,0.8641374342791168,0.0174891200314386,110.59154975833329
512,512,61.05963511561478,149734,3924,24969216,20643784,0.9743938640755728,0.0613868236406549,0.2913892678463456,512,0,1,1,379.53199366508596,0.8605329957874615,0.016201532002819,110.59154975833329
