cpu,memory,duration_std,userDiff,sysDiff,heapTotal,heapUsed,avg_cpu_util,cpu_util_std,slo_preservation,total_cpu_shares,cpu_shares_others,num_containers,arrival_rate,latency,memory_util,memory_util_std,slo_duration
1024,1024,76.88270017460283,338239,76295,47210496,36002224,1.039805302515086,0.2215202244913341,0.5720660696281217,1024,0,1,1,449.5160033238389,0.7952590477354301,0.0827966349987897,257.1528532564102
1024,128,117.6385628215086,315900,60660,50143232,47225664,1.043050813668367,0.2119185222116108,0.49763149770382836,1024,0,1,1,516.7535705496238,0.8833309125516485,0.0516269312568209,257.1528532564102
1024,1536,51.03369417406962,259912,58618,60067840,40730528,1.1347018511513784,0.174544683399639,0.7776759830073087,1024,0,1,1,330.6683745870463,0.6650984457263597,0.0989456913196595,257.1528532564102
1024,2048,33.69312265101005,299778,47525,61116416,40884944,1.4131631333723698,0.2925680579808821,1.0,1024,0,1,1,225.94717147073695,0.7104007220855706,0.1083588711922268,257.1528532564102
1024,256,82.2292027085179,327149,41014,30203904,24112632,0.9904472675419762,0.1346097697898765,0.4696578013879586,1024,0,1,1,547.5323788861974,0.8708298816600772,0.0471720207970269,257.1528532564102
1024,512,75.70057426002434,307222,68333,33034240,27256208,1.0997879954900718,0.1109303075561898,0.5551766527987171,1024,0,1,1,463.1910437156705,0.8887258216724673,0.0618779682016327,257.1528532564102
128,1024,87.70873062871574,292235,76295,64237568,54047600,1.0301946613691266,0.1409370854083454,0.5370764701155691,128,0,1,1,478.80119045445343,0.7783935650700506,0.0844379512328757,257.1528532564102
128,128,324.6687396007424,362816,90571,50909184,46257488,0.8575307991097822,0.218626640968902,0.3350882460081579,128,0,1,1,767.4183034463992,0.8913370071883345,0.0447927101224061,257.1528532564102
128,1536,50.64676357721261,315046,53572,59252736,43000280,1.269078661231553,0.1753610884124827,0.8049702728326202,128,0,1,1,319.45633514081425,0.6635683998784501,0.0854049625244066,257.1528532564102
128,2048,34.93077366578133,249718,56274,61378560,40776184,1.3468477862587738,0.2066973405673906,1.0,128,0,1,1,227.1707839897591,0.7124354415474381,0.1082366400090692,257.1528532564102
128,256,43.55567968927109,265412,39892,40439808,37432360,1.1735043503389317,0.1499853374468907,0.6051601045110607,128,0,1,1,424.9335859048027,0.8840729065155942,0.0569846033034563,257.1528532564102
128,512,73.64472699761215,373559,50628,39473152,33005752,1.2157784962965026,0.322776007567512,0.5777350049109323,128,0,1,1,445.1051971414727,0.881791056269878,0.0472280042141756,257.1528532564102
1536,1024,68.40166767429918,243368,54002,44924928,36623056,1.0059214741166234,0.1455300925628157,0.6011711384818217,1536,0,1,1,427.7531584530418,0.7808489309568871,0.0786256542117655,257.1528532564102
1536,128,109.14475065699796,476166,73553,45219840,40898808,1.1285409708058325,0.173108365102119,0.4914623652471234,1536,0,1,1,523.2401734914235,0.8982124455038804,0.0330839928690299,257.1528532564102
1536,1536,42.62411004557756,237779,31551,45613056,28067968,1.2787529094370138,0.1545572541746034,0.876270152747294,1536,0,1,1,293.46298336212993,0.6580715156154215,0.088940550776019,257.1528532564102
1536,2048,30.68801442087,276382,44748,61116416,40765184,1.4149144928987485,0.2554057638753672,1.0,1536,0,1,1,237.07033596389846,0.6554296479604232,0.1178909267639248,257.1528532564102
1536,256,66.02998098477164,420804,105783,39997440,33003552,1.0383856554930604,0.1380411192563906,0.482699045054968,1536,0,1,1,532.739511069732,0.8704461761552565,0.0472226078776003,257.1528532564102
1536,512,68.55363095382484,314515,62504,29679616,24423864,1.1054765762746392,0.0852881192627461,0.5402380778619383,1536,0,1,1,475.9991266704592,0.8782500658782917,0.0579385567219997,257.1528532564102
2048,1024,86.82436205483022,305331,60396,54968320,45036864,1.0632432191087478,0.195909867810243,0.5524295892133061,2048,0,1,1,465.4943512758101,0.7784024828124583,0.0845052395603722,257.1528532564102
2048,128,231.7097305415722,373413,64790,59355136,55841008,0.9101984063717429,0.1841183585241479,0.38792618479424784,2048,0,1,1,662.8911976973184,0.8766824954238943,0.0430329264682162,257.1528532564102
2048,1536,62.71197469849348,262540,61058,56483840,35345280,1.2187740933147226,0.1564673404095667,0.8717062491838798,2048,0,1,1,294.999437593989,0.6920650442365409,0.1024904715793181,257.1528532564102
2048,2048,36.40652959962561,290249,37487,58466304,43849216,1.411947822875669,0.2448027977482214,1.0,2048,0,1,1,242.20069223196995,0.678773712288881,0.0870562374505311,257.1528532564102
2048,256,57.52680313138076,353139,55131,59412480,56516288,1.2064066173955266,0.1525470125408197,0.6313168173486285,2048,0,1,1,407.3277413017245,0.8819560745174077,0.0499049660676902,257.1528532564102
2048,512,52.9974881466899,379106,53372,71839744,68196592,1.2830788441612242,0.2472658605075375,0.662853386394529,2048,0,1,1,387.9483133595298,0.8921362006682718,0.0442434715919792,257.1528532564102
256,1024,62.81160374102644,314181,56670,54968320,45127104,1.0278960099111518,0.1458274163982126,0.6032373490412657,256,0,1,1,426.2880169225383,0.780793376329843,0.0802383752815063,257.1528532564102
256,128,101.57822504328834,455673,67684,54525952,49143680,1.0693845905434396,0.1957818608447733,0.5173005692701339,256,0,1,1,497.1052972534527,0.8792572382303653,0.0565082451947105,257.1528532564102
256,1536,59.788510446378815,341433,50330,68706304,47894936,1.18474885627381,0.1321081027933548,0.7305316893942188,256,0,1,1,352.0078006056793,0.7015368970575374,0.0852619050762432,257.1528532564102
256,2048,36.33326427004762,263692,34728,58204160,42702528,1.4488432020281876,0.3101904653195322,1.0,256,0,1,1,216.73254827595395,0.6973215673018813,0.1104332992611512,257.1528532564102
256,256,62.71136238389671,239583,51810,40439808,37373448,1.030659969272458,0.1089421265860339,0.5032132921343953,256,0,1,1,511.0215832449261,0.8926524500255096,0.0440057217648236,257.1528532564102
256,512,83.26671525223237,298626,30333,40439808,37425864,1.0888795274447087,0.1230981650174982,0.47413861187543593,256,0,1,1,542.3579662479978,0.8834991455897006,0.0412573761084129,257.1528532564102
512,1024,78.76890983215675,241344,42888,46587904,37224744,1.0298269239382356,0.1513140606884292,0.6073916933314255,512,0,1,1,423.3723577054153,0.7761836316738818,0.0912504602500772,257.1528532564102
512,128,165.59955432804796,353242,68648,38686720,33789896,0.9756336947891118,0.3259659434334283,0.4273042139414118,512,0,1,1,601.8027551950815,0.8807719620886755,0.0422646187451941,257.1528532564102
512,1536,53.26095615953773,238542,23697,44302336,28078312,1.2641796172495021,0.2185629711983785,0.9527224075362102,512,0,1,1,269.9137243149564,0.6737114928882825,0.1177440788678448,257.1528532564102
512,2048,44.80101523656524,363810,94054,82608128,62388408,1.424127924203147,0.2612853846100165,1.0,512,0,1,1,254.5726361685438,0.7015477134950909,0.0856906684089115,257.1528532564102
512,256,42.88156140712108,275530,62767,50085888,46912912,1.2394415621348593,0.1243090167891992,0.6331365477210714,512,0,1,1,406.1570196539957,0.8768282894088728,0.0415299319945425,257.1528532564102
512,512,76.7058154395726,216686,51714,40439808,37364184,1.234788701970948,0.2195897487042446,0.6460319523107735,512,0,1,1,398.0497440360456,0.8893466238740741,0.0437005534605341,257.1528532564102
