cpu,memory,duration_std,userDiff,sysDiff,heapTotal,heapUsed,avg_cpu_util,cpu_util_std,slo_preservation,total_cpu_shares,cpu_shares_others,num_containers,arrival_rate,latency,memory_util,memory_util_std,slo_duration
1024,1024,72.71311496558889,45769,3745,31023104,21167680,0.9561568483557443,0.2740858392357107,0.2596804370491918,1024,0,1,1,367.4359717886329,0.7645584148098508,0.0447452910752341,95.4159337416667
1024,128,53.74032755131936,120738,28163,36589568,32470528,0.9996337238535667,0.1550721754994725,0.2733811959924573,1024,0,1,1,349.021568199955,0.8806277579953934,0.0273623810190773,95.4159337416667
1024,1536,39.73471627136023,109463,51131,59641856,42143184,1.0097230063224438,0.1915437586362639,0.3688501337552771,1024,0,1,1,258.684828903906,0.6649108853779738,0.0457619993347344,95.4159337416667
1024,2048,29.27877949749686,118683,36549,60166144,41554136,1.0301982289181606,0.1633861554823658,0.4370046204341423,1024,0,1,1,218.34078927329358,0.6574876618908254,0.057558912829595,95.4159337416667
1024,256,46.31479285674112,111287,23394,36589568,32076368,1.055674101031745,0.1891580878856054,0.23227112093734875,1024,0,1,1,410.79551067996766,0.8914184441632097,0.0240784288671445,95.4159337416667
1024,512,65.4752466638831,94740,15794,35921920,31456248,0.9781141750578899,0.1674069417524298,0.3022248271126313,1024,0,1,1,315.71176548678335,0.868284144764613,0.0265782877456778,95.4159337416667
128,1024,49.7288555166586,93584,12277,46948352,37599424,0.95044908805045,0.2080429462678295,0.31307301406695015,128,0,1,1,304.77214405091513,0.7726791818586521,0.0524137992135733,95.4159337416667
128,128,61.026903608215314,27353,11806,32272384,28327224,0.9979523222423989,0.1523705500917398,0.21379771902954214,128,0,1,1,446.29070026926865,0.885442979571498,0.0313671228383637,95.4159337416667
128,1536,31.379399884207768,92301,28061,60465152,42354216,1.0217742514671992,0.1363820472320314,0.42871251060689614,128,0,1,1,222.56391260099576,0.6665977791681641,0.0524713294752409,95.4159337416667
128,2048,26.029410142466794,76607,31532,60465152,42717984,1.0330947928921521,0.1713851126248542,0.4932987719997011,128,0,1,1,193.42422717752987,0.6588930728984816,0.052469164265096,95.4159337416667
128,256,37.11963620400751,89534,12259,36184064,31465152,1.0749913916711746,0.2558244432390179,0.28454655335203216,128,0,1,1,335.32626776758417,0.8866425991590852,0.0254998709485168,95.4159337416667
128,512,34.780689984553675,105643,18875,44666880,40376208,1.0762988360424983,0.1627268882202037,0.31600728192048116,128,0,1,1,301.94219943854586,0.8896764797026389,0.019478192203171,95.4159337416667
1536,1024,58.37269873455284,53797,17475,40542208,29554856,0.9822834120996673,0.1772767384343427,0.31659982649249263,1536,0,1,1,301.37708791173094,0.7574544716887268,0.0567926332694378,95.4159337416667
1536,128,44.88119568924364,110637,31039,30703616,25548856,1.0348313491892365,0.1023161230715783,0.22009716601685173,1536,0,1,1,433.5173208652818,0.877851937968878,0.0349653860145543,95.4159337416667
1536,1536,33.72910779680992,28674,8135,46972928,35910024,1.0136900582056594,0.1426481905476583,0.40312648390441513,1536,0,1,1,236.68981709544707,0.6708726717421938,0.0489818778346228,95.4159337416667
1536,2048,21.712214243753284,24823,4156,47235072,36139360,1.0403397597619226,0.1369924469998022,0.6982823919279998,1536,0,1,1,136.64376310308722,0.6588662617246889,0.0547988670383158,95.4159337416667
1536,256,47.03661551413947,37599,7473,26140672,21785360,1.0576654479407779,0.1866258394979293,0.2918602913696821,1536,0,1,1,326.92331421272036,0.8867329858538804,0.02523114821128,95.4159337416667
1536,512,38.506214622540256,26699,20714,26140672,21776704,1.0857701960247588,0.1759644878794954,0.2957389111925916,1536,0,1,1,322.63571052214286,0.8810468218153187,0.0279817390638015,95.4159337416667
2048,1024,45.68540267512137,119080,34988,59117568,47464120,0.9828282989623661,0.1766229519658601,0.2804425071173703,2048,0,1,1,340.23349285539445,0.7739308289185571,0.0452141404432399,95.4159337416667
2048,128,66.62824384289894,31954,18932,32215040,27887936,1.0371737920885076,0.1293494066056621,0.25038348860344545,2048,0,1,1,381.0791768812894,0.87892960311451,0.0341196666320625,95.4159337416667
2048,1536,37.99678000396552,84598,34898,60727296,42660552,0.9981760633401529,0.1571531539253225,0.3401425293633923,2048,0,1,1,280.5175051771571,0.6692608691418811,0.0426213674454978,95.4159337416667
2048,2048,21.107692260429936,76009,30173,60727296,42683032,1.0475535379569363,0.1754217485342692,0.5673549237365767,2048,0,1,1,168.17679683338466,0.6414077356921009,0.0591268173363343,95.4159337416667
2048,256,47.44105468997204,31695,16464,26140672,21779984,1.0672044517462715,0.2585690474385252,0.2783823578171692,2048,0,1,1,342.7513671837359,0.8903368436876125,0.0266855463878116,95.4159337416667
2048,512,50.09968258993218,75351,17250,35659776,31458752,1.0566907541051602,0.1683260307291735,0.2999310776976375,2048,0,1,1,318.1261991058364,0.8863114130237457,0.025776624272425,95.4159337416667
256,1024,62.98573707090759,108260,36541,62296064,51080944,0.9605154131443374,0.1996851781447172,0.2900126761299361,256,0,1,1,329.0060800615382,0.7685267673511115,0.0476678315084194,95.4159337416667
256,128,54.46212317863488,96941,16717,36184064,31462488,1.0127245246123202,0.1428307878371958,0.256433021049042,256,0,1,1,372.089106743467,0.8858130711147906,0.0221852018113963,95.4159337416667
256,1536,35.56170905795861,35844,6565,47235072,36135416,0.9832454915655848,0.1514482798405112,0.39723302140051847,256,0,1,1,240.2014147898888,0.665619802058514,0.0581155825568107,95.4159337416667
256,2048,27.54662605979273,25141,32064,51458048,33746328,1.0503529063295771,0.2275150849518323,0.3890271612895877,256,0,1,1,245.2680512727493,0.6896719415341204,0.0624815319048444,95.4159337416667
256,256,55.90068634232006,37413,8230,26140672,21777848,1.0564236120260555,0.2561833899088495,0.29975018154926264,256,0,1,1,318.3181849916095,0.8828822824894657,0.0305259844927398,95.4159337416667
256,512,39.52263940523111,104996,21582,45191168,40370984,1.0896904626801984,0.1807455867891208,0.26196264106462563,256,0,1,1,364.23488995947247,0.8826191187836743,0.0349334566834089,95.4159337416667
512,1024,47.98569184157413,96046,23195,39690240,28070384,1.0402853844983397,0.2187123086375908,0.30953642980207263,512,0,1,1,308.25429434163425,0.7770067568337712,0.0452764211726944,95.4159337416667
512,128,57.0862158603687,95314,13124,36184064,31462920,1.0117507717374876,0.131870065639925,0.2588505158259294,512,0,1,1,368.614037477258,0.8827392861694919,0.0262805180375904,95.4159337416667
512,1536,38.44012470889772,120349,44628,59641856,42143528,0.999442241852862,0.1244802874876374,0.3738809504071296,512,0,1,1,255.2040526209361,0.6682804178524826,0.0522680402777419,95.4159337416667
512,2048,21.913495326931272,31014,27092,51195904,33623080,1.057441261548952,0.1741096097755415,0.48389864730583226,512,0,1,1,197.18165006847434,0.6724823175552951,0.0692258708635699,95.4159337416667
512,256,58.76307475521401,182409,28455,49074176,45127552,0.9902950494432345,0.1520285966046183,0.2327296277411599,512,0,1,1,409.9861915638329,0.8872005185111099,0.0183990464476738,95.4159337416667
512,512,55.01736042679393,38061,11793,26140672,21783160,1.0217991787414027,0.1089385667355651,0.2399107466728372,512,0,1,1,397.7142961077272,0.8891318454593005,0.02408460131145,95.4159337416667
