cpu,memory,duration_std,userDiff,sysDiff,heapTotal,heapUsed,avg_cpu_util,cpu_util_std,slo_preservation,total_cpu_shares,cpu_shares_others,num_containers,arrival_rate,latency,memory_util,memory_util_std,slo_duration
1024,1024,72.71311496558889,45769,3745,31023104,21167680,0.8971556514436283,0.2740858392357107,0.6091410945512424,1024,0,1,1,156.64011933386328,0.7645584148098508,0.0447452910752341,95.4159337416667
1024,128,53.74032755131936,120738,28163,36589568,32470528,0.9990848124509696,0.1550721754994725,0.6830776973810762,1024,0,1,1,139.68533024499547,0.8806277579953934,0.0273623810190773,95.4159337416667
1024,1536,39.73471627136023,109463,51131,59641856,42143184,1.0246672759257855,0.1915437586362639,0.9357731264250992,1024,0,1,1,101.9648150253906,0.6649108853779738,0.0457619993347344,95.4159337416667
1024,2048,29.27877949749686,118683,36549,60166144,41554136,1.079077576428315,0.1633861554823658,1.0,1024,0,1,1,83.38021262732937,0.6574876618908254,0.057558912829595,95.4159337416667
1024,256,46.31479285674112,111287,23394,36589568,32076368,1.1518679172304125,0.1891580878856054,0.6335895993976645,1024,0,1,1,150.5958018129968,0.8914184441632097,0.0240784288671445,95.4159337416667
1024,512,65.4752466638831,94740,15794,35921920,31456248,0.9470245546301179,0.1674069417524298,0.7315463255543874,1024,0,1,1,130.43047365367832,0.868284144764613,0.0265782877456778,95.4159337416667
128,1024,49.7288555166586,93584,12277,46948352,37599424,0.8846930657457339,0.2080429462678295,0.7285333009926712,128,0,1,1,130.9699002250915,0.7726791818586521,0.0524137992135733,95.4159337416667
128,128,61.026903608215314,27353,11806,32272384,28327224,0.9948964811490519,0.1523705500917398,0.5328576165398199,128,0,1,1,179.06459583192685,0.885442979571498,0.0313671228383637,95.4159337416667
128,1536,31.379399884207768,92301,28061,60465152,42354216,1.0562736020096843,0.1363820472320314,1.0,128,0,1,1,86.11786748009959,0.6665977791681641,0.0524713294752409,95.4159337416667
128,2048,26.029410142466794,76607,31532,60465152,42717984,1.0870587701833767,0.1713851126248542,1.0,128,0,1,1,73.528890027753,0.6588930728984816,0.052469164265096,95.4159337416667
128,256,37.11963620400751,89534,12259,36184064,31465152,1.2112402834244564,0.2558244432390179,0.8015279252463836,128,0,1,1,119.04255701675842,0.8866425991590852,0.0254998709485168,95.4159337416667
128,512,34.780689984553675,105643,18875,44666880,40376208,1.215399146330605,0.1627268882202037,0.8921197529410927,128,0,1,1,106.95417675385458,0.8896764797026389,0.019478192203171,95.4159337416667
1536,1024,58.37269873455284,53797,17475,40542208,29554856,0.9568551008466207,0.1772767384343427,0.7710100648522374,1536,0,1,1,123.7544593661731,0.7574544716887268,0.0567926332694378,95.4159337416667
1536,128,44.88119568924364,110637,31039,30703616,25548856,1.091878764992907,0.1023161230715783,0.58057629873023,1536,0,1,1,164.34693243652816,0.877851937968878,0.0349653860145543,95.4159337416667
1536,1536,33.72910779680992,28674,8135,46972928,35910024,1.0349426968446471,0.1426481905476583,1.0,1536,0,1,1,92.73174841454471,0.6708726717421938,0.0489818778346228,95.4159337416667
1536,2048,21.712214243753284,24823,4156,47235072,36139360,1.107344794220637,0.1369924469998022,1.0,1536,0,1,1,51.35019929530873,0.6588662617246889,0.0547988670383158,95.4159337416667
1536,256,47.03661551413947,37599,7473,26140672,21785360,1.1578142653020784,0.1866258394979293,0.7987403046042407,1536,0,1,1,119.45801807127202,0.8867329858538804,0.02523114821128,95.4159337416667
1536,512,38.506214622540256,26699,20714,26140672,21776704,1.2460857208341558,0.1759644878794954,0.848512962690785,1536,0,1,1,112.45076732721427,0.8810468218153187,0.0279817390638015,95.4159337416667
2048,1024,45.68540267512137,119080,34988,59117568,47464120,0.958148733558973,0.1766229519658601,0.6835009566632877,2048,0,1,1,139.59882983553942,0.7739308289185571,0.0452141404432399,95.4159337416667
2048,128,66.62824384289894,31954,18932,32215040,27887936,1.0984225916600432,0.1293494066056621,0.6629238092944647,2048,0,1,1,143.9319758981289,0.87892960311451,0.0341196666320625,95.4159337416667
2048,1536,37.99678000396552,84598,34898,60727296,42660552,0.9954525996058112,0.1571531539253225,0.8480361770003196,2048,0,1,1,112.5139897677157,0.6692608691418811,0.0426213674454978,95.4159337416667
2048,2048,21.107692260429936,76009,30173,60727296,42683032,1.1280152090459912,0.1754217485342692,1.0,2048,0,1,1,62.472277718338475,0.6414077356921009,0.0591268173363343,95.4159337416667
2048,256,47.44105468997204,31695,16464,26140672,21779984,1.186846504732568,0.2585690474385252,0.7739780503489466,2048,0,1,1,123.27989624337357,0.8903368436876125,0.0266855463878116,95.4159337416667
2048,512,50.09968258993218,75351,17250,35659776,31458752,1.154898887365064,0.1683260307291735,0.8195161795764466,2048,0,1,1,116.42959116558364,0.8863114130237457,0.025776624272425,95.4159337416667
256,1024,62.98573707090759,108260,36541,62296064,51080944,0.9068080040484463,0.1996851781447172,0.6844914001151398,256,0,1,1,139.3968335111538,0.7685267673511115,0.0476678315084194,95.4159337416667
256,128,54.46212317863488,96941,16717,36184064,31462488,1.0324303017907832,0.1428307878371958,0.6535568530152189,256,0,1,1,145.99484849934672,0.8858130711147906,0.0221852018113963,95.4159337416667
256,1536,35.56170905795861,35844,6565,47235072,36135416,0.9591405977142936,0.1514482798405112,0.9687364977674406,256,0,1,1,98.4952398939889,0.665619802058514,0.0581155825568107,95.4159337416667
256,2048,27.54662605979273,25141,32064,51458048,33746328,1.136166861670255,0.2275150849518323,1.0,256,0,1,1,90.69724498227492,0.6896719415341204,0.0624815319048444,95.4159337416667
256,256,55.90068634232006,37413,8230,26140672,21777848,1.154101472620842,0.2561833899088495,0.8186633704658158,256,0,1,1,116.55087693416094,0.8828822824894657,0.0305259844927398,95.4159337416667
256,512,39.52263940523111,104996,21582,45191168,40370984,1.2590819230224322,0.1807455867891208,0.7567112798721517,256,0,1,1,126.09291850094725,0.8826191187836743,0.0349334566834089,95.4159337416667
512,1024,47.98569184157413,96046,23195,39690240,28070384,1.1071907948219781,0.2187123086375908,0.823610258410444,512,0,1,1,115.85083207416343,0.7770067568337712,0.0452764211726944,95.4159337416667
512,128,57.0862158603687,95314,13124,36184064,31462920,1.0299040223548053,0.131870065639925,0.6587372969825407,512,0,1,1,144.84671534272582,0.8827392861694919,0.0262805180375904,95.4159337416667
512,1536,38.44012470889772,120349,44628,59641856,42143528,0.9986067702600127,0.1244802874876374,0.9339210229288412,512,0,1,1,102.1670263320936,0.6682804178524826,0.0522680402777419,95.4159337416667
512,2048,21.913495326931272,31014,27092,51195904,33623080,1.1571428819460048,0.1741096097755415,1.0,512,0,1,1,72.07684238684745,0.6724823175552951,0.0692258708635699,95.4159337416667
512,256,58.76307475521401,182409,28455,49074176,45127552,0.9760857534782305,0.1520285966046183,0.5734757388168171,512,0,1,1,166.38181405638332,0.8872005185111099,0.0183990464476738,95.4159337416667
512,512,55.01736042679393,38061,11793,26140672,21783160,1.0563402020559227,0.1089385667355651,0.6200517965964955,512,0,1,1,153.88381142577273,0.8891318454593005,0.02408460131145,95.4159337416667
