cpu,memory,duration_std,userDiff,sysDiff,heapTotal,heapUsed,avg_cpu_util,cpu_util_std,slo_preservation,total_cpu_shares,cpu_shares_others,num_containers,arrival_rate,latency,memory_util,memory_util_std,slo_duration
1024,1024,72.71311496558889,45769,3745,31023104,21167680,0.9159966675545187,0.2740858392357107,0.4975468520153524,1024,0,1,1,191.77276140965822,0.7645584148098508,0.0447452910752341,95.4159337416667
1024,128,53.74032755131936,120738,28163,36589568,32470528,0.9992677159253223,0.1550721754994725,0.5465621992887729,1024,0,1,1,174.57470323748873,0.8806277579953934,0.0273623810190773,95.4159337416667
1024,1536,39.73471627136023,109463,51131,59641856,42143184,1.0196369427635312,0.1915437586362639,0.7449433564754275,1024,0,1,1,128.08481733847648,0.6649108853779738,0.0457619993347344,95.4159337416667
1024,2048,29.27877949749686,118683,36549,60166144,41554136,1.0622771164554043,0.1633861554823658,0.9012246285066114,1024,0,1,1,105.8736420683234,0.6574876618908254,0.057558912829595,95.4159337416667
1024,256,46.31479285674112,111287,23394,36589568,32076368,1.1179128965806677,0.1891580878856054,0.49193000253645885,1024,0,1,1,193.96241995749193,0.8914184441632097,0.0240784288671445,95.4159337416667
1024,512,65.4752466638831,94740,15794,35921920,31456248,0.957165811663255,0.1674069417524298,0.59150409906068,1024,0,1,1,161.31068895919583,0.868284144764613,0.0265782877456778,95.4159337416667
128,1024,49.7288555166586,93584,12277,46948352,37599424,0.9055769255490262,0.2080429462678295,0.5965847116180659,128,0,1,1,159.93694086272876,0.7726791818586521,0.0524137992135733,95.4159337416667
128,128,61.026903608215314,27353,11806,32272384,28327224,0.995913013316525,0.1523705500917398,0.4267216496284532,128,0,1,1,223.60227990481715,0.885442979571498,0.0313671228383637,95.4159337416667
128,1536,31.379399884207768,92301,28061,60465152,42354216,1.0445178457014805,0.1363820472320314,0.8765103786112844,128,0,1,1,108.85887500024896,0.6665977791681641,0.0524713294752409,95.4159337416667
128,2048,26.029410142466794,76607,31532,60465152,42717984,1.0684550929064562,0.1713851126248542,1.0,128,0,1,1,93.51144621938248,0.6588930728984816,0.052469164265096,95.4159337416667
128,256,37.11963620400751,89534,12259,36184064,31465152,1.1621420406165917,0.2558244432390179,0.6152300655149806,128,0,1,1,155.08984214189604,0.8866425991590852,0.0254998709485168,95.4159337416667
128,512,34.780689984553675,105643,18875,44666880,40376208,1.1652024248093484,0.1627268882202037,0.6842197330716371,128,0,1,1,139.45218053463645,0.8896764797026389,0.019478192203171,95.4159337416667
1536,1024,58.37269873455284,53797,17475,40542208,29554856,0.965183651104903,0.1772767384343427,0.6221768029656953,1536,0,1,1,153.35823079043274,0.7574544716887268,0.0567926332694378,95.4159337416667
1536,128,44.88119568924364,110637,31039,30703616,25548856,1.0721767105883047,0.1023161230715783,0.45608022148660776,1536,0,1,1,209.20866384132046,0.877851937968878,0.0349653860145543,95.4159337416667
1536,1536,33.72910779680992,28674,8135,46972928,35910024,1.027760154542808,0.1426481905476583,0.8174438213023156,1536,0,1,1,116.72475986136176,0.6708726717421938,0.0489818778346228,95.4159337416667
1536,2048,21.712214243753284,24823,4156,47235072,36139360,1.0840709202496812,0.1369924469998022,1.0,1536,0,1,1,65.5657932632718,0.6588662617246889,0.0547988670383158,95.4159337416667
1536,256,47.03661551413947,37599,7473,26140672,21785360,1.1223884825506298,0.1866258394979293,0.6194409209168843,1536,0,1,1,154.0355674281801,0.8867329858538804,0.02523114821128,95.4159337416667
1536,512,38.506214622540256,26699,20714,26140672,21776704,1.1876337779665764,0.1759644878794954,0.646968431583971,1536,0,1,1,147.4815911930357,0.8810468218153187,0.0279817390638015,95.4159337416667
2048,1024,45.68540267512137,119080,34988,59117568,47464120,0.9662363767688057,0.1766229519658601,0.5514162590864182,2048,0,1,1,173.03794033884859,0.7739308289185571,0.0452141404432399,95.4159337416667
2048,128,66.62824384289894,31954,18932,32215040,27887936,1.0772180727592426,0.1293494066056621,0.5201011076475849,2048,0,1,1,183.45650939532234,0.87892960311451,0.0341196666320625,95.4159337416667
2048,1536,37.99678000396552,84598,34898,60727296,42660552,0.9963587680567342,0.1571531539253225,0.6790465208836034,2048,0,1,1,140.51457566928926,0.6692608691418811,0.0426213674454978,95.4159337416667
2048,2048,21.107692260429936,76009,30173,60727296,42683032,1.0998555611302931,0.1754217485342692,1.0,2048,0,1,1,80.08969757084617,0.6414077356921009,0.0591268173363343,95.4159337416667
2048,256,47.44105468997204,31695,16464,26140672,21779984,1.1440925653474308,0.2585690474385252,0.5968775437196806,2048,0,1,1,159.85847473343398,0.8903368436876125,0.0266855463878116,95.4159337416667
2048,512,50.09968258993218,75351,17250,35659776,31458752,1.120195480648305,0.1683260307291735,0.6359125154405065,2048,0,1,1,150.0456924889591,0.8863114130237457,0.025776624272425,95.4159337416667
256,1024,62.98573707090759,108260,36541,62296064,51080944,0.9240304524858814,0.1996851781447172,0.5579932204809223,256,0,1,1,170.99837460288455,0.7685267673511115,0.0476678315084194,95.4159337416667
256,128,54.46212317863488,96941,16717,36184064,31462488,1.0257770499309196,0.1428307878371958,0.5194761288856017,256,0,1,1,183.67722487336675,0.8858130711147906,0.0221852018113963,95.4159337416667
256,1536,35.56170905795861,35844,6565,47235072,36135416,0.967043158804944,0.1514482798405112,0.7813744971973078,256,0,1,1,122.1129357099722,0.665619802058514,0.0581155825568107,95.4159337416667
256,2048,27.54662605979273,25141,32064,51458048,33746328,1.1060455124123239,0.2275150849518323,0.8193089072404415,256,0,1,1,116.45904603068732,0.6896719415341204,0.0624815319048444,95.4159337416667
256,256,55.90068634232006,37413,8230,26140672,21777848,1.1195952182466302,0.2561833899088495,0.6353490514803763,256,0,1,1,150.17876161040238,0.8828822824894657,0.0305259844927398,95.4159337416667
256,512,39.52263940523111,104996,21582,45191168,40370984,1.1970548676096957,0.1807455867891208,0.5755462956829274,256,0,1,1,165.78324707736812,0.8826191187836743,0.0349334566834089,95.4159337416667
512,1024,47.98569184157413,96046,23195,39690240,28070384,1.0839528414960768,0.2187123086375908,0.6450593224325802,512,0,1,1,147.91807578540858,0.7770067568337712,0.0452764211726944,95.4159337416667
512,128,57.0862158603687,95314,13124,36184064,31462920,1.0237809884418474,0.131870065639925,0.5238567527768814,512,0,1,1,182.14126903181452,0.8827392861694919,0.0262805180375904,95.4159337416667
512,1536,38.44012470889772,120349,44628,59641856,42143528,0.9988851055471883,0.1244802874876374,0.7473450630166384,512,0,1,1,127.67319738023401,0.6682804178524826,0.0522680402777419,95.4159337416667
512,2048,21.913495326931272,31014,27092,51195904,33623080,1.1218836751613974,0.1741096097755415,1.0,512,0,1,1,92.92764366711859,0.6724823175552951,0.0692258708635699,95.4159337416667
512,256,58.76307475521401,182409,28455,49074176,45127552,0.9807766604463729,0.1520285966046183,0.46098541482406225,512,0,1,1,206.98254364095826,0.8872005185111099,0.0183990464476738,95.4159337416667
512,512,55.01736042679393,38061,11793,26140672,21783160,1.0445699456955166,0.1089385667355651,0.49051430229665366,512,0,1,1,194.52222553943182,0.8891318454593005,0.02408460131145,95.4159337416667
