cpu,memory,duration_std,userDiff,sysDiff,heapTotal,heapUsed,avg_cpu_util,cpu_util_std,slo_preservation,total_cpu_shares,cpu_shares_others,num_containers,arrival_rate,latency,memory_util,memory_util_std,slo_duration
1024,1024,160.58186286810806,326332,81551,38121472,31547832,0.7224650587343271,0.1811952221744228,0.8287027513510834,1024,0,1,1,957.2356604888259,0.7753523384471366,0.0850165801539396,793.2638255384616
1024,128,278.1203307789281,419240,98312,32481280,29796624,0.4734188676118118,0.0596868631255804,0.35764361165197484,1024,0,1,1,2218.0287853439736,0.9180656446311916,0.0064493485426655,793.2638255384616
1024,1536,178.24316538890707,272836,60129,42184704,30560040,0.7289467516003132,0.2327934670325484,0.9890150504378242,1024,0,1,1,802.0745742820535,0.6883688208883193,0.1318197293816158,793.2638255384616
1024,2048,143.96865797761683,292631,35397,36933632,15553576,0.7167835125716355,0.2700225876830084,1.0,1024,0,1,1,668.2073749834572,0.7257523782929798,0.1309704356209751,793.2638255384616
1024,256,418.2654508788957,352942,29535,32481280,29573992,0.4989730358363911,0.0932212823625624,0.44234394895817947,1024,0,1,1,1793.3190391928683,0.9181743681813528,0.0113754432712511,793.2638255384616
1024,512,268.3259309233924,498910,56667,32481280,29901528,0.6552251128545876,0.1672619171374527,0.5951445609107499,1024,0,1,1,1332.8926745537751,0.9106853305721202,0.01269952680247,793.2638255384616
128,1024,171.5629791774508,408887,91272,38645760,30653528,0.7449953356984261,0.2167248508052979,0.8443655041791714,128,0,1,1,939.4791966419956,0.7757680701621715,0.0603135429014097,793.2638255384616
128,128,1289.3903988824536,294634,54716,20414464,15237432,0.3030794406760441,0.0695853417861623,0.23323864150453677,128,0,1,1,3401.08234390926,0.8830089977903781,0.0678124555889969,793.2638255384616
128,1536,127.50146066823422,280931,70098,42708992,31078448,0.663392585824802,0.2009092210611049,1.0,128,0,1,1,696.7323831393426,0.6704104235504127,0.1396570814153409,793.2638255384616
128,2048,156.24993516263586,312412,53838,42708992,31076648,0.7988056349012211,0.294189557170126,1.0,128,0,1,1,653.7475337185949,0.7001847706482871,0.0682462454612294,793.2638255384616
128,256,438.6964158036336,325775,48802,32481280,30317656,0.40987832671664276,0.0579235036167694,0.3585416048094605,128,0,1,1,2212.4735732134213,0.916587691683402,0.0079083115093288,793.2638255384616
128,512,300.5284388853557,418273,42330,33005568,29807368,0.5616717720191596,0.0756108548834077,0.4890593859848705,128,0,1,1,1622.0194280516312,0.9116228556179674,0.0088109921590904,793.2638255384616
1536,1024,288.4201898398524,427162,79142,39956480,29877304,0.7199040584771278,0.1847843885349987,0.7896700827355365,1536,0,1,1,1004.5509420725118,0.7759061728587447,0.0859219846200538,793.2638255384616
1536,128,496.2654227057409,282495,66169,32743424,29807448,0.41662611632632834,0.0486943495801777,0.38256380815921137,1536,0,1,1,2073.5464479910484,0.9141967276010566,0.0076942667627011,793.2638255384616
1536,1536,185.8233460587172,344307,51583,60366848,48403056,0.8153439700343341,0.223126545908315,1.0,1536,0,1,1,780.9857648948232,0.6835618978573889,0.105066760021964,793.2638255384616
1536,2048,187.2492482998906,246625,74925,59580416,47963168,0.721462843017779,0.1870187960294777,1.0,1536,0,1,1,734.7329599847233,0.6918012399124952,0.1310550645100524,793.2638255384616
1536,256,382.9525490969674,290697,38832,32743424,29699552,0.5128720717196782,0.1305982539468739,0.5059783261941359,1536,0,1,1,1567.782224003996,0.908793400004836,0.0215119181626967,793.2638255384616
1536,512,334.0531895362938,360344,49291,33005568,29676112,0.5965992831878584,0.1251500876043727,0.5521785149130801,1536,0,1,1,1436.6075537425272,0.911824476572529,0.0106389148414766,793.2638255384616
2048,1024,155.40961111577198,474523,83464,39694336,29808336,0.7836461053000401,0.1669965640220783,0.8789189975434997,2048,0,1,1,902.5448622177508,0.75919590119659,0.1136598716816353,793.2638255384616
2048,128,128.342621,338563,56570,32481280,29874872,0.5586795964627211,0.0170942481949054,0.6741500977480241,2048,0,1,1,1176.6872513826413,0.9160923461144388,0.0036642644624842,793.2638255384616
2048,1536,166.5467505229059,279255,89672,59580416,48411480,0.737457060212803,0.2018761956733326,1.0,2048,0,1,1,683.5008105510065,0.6754631599395006,0.1178224278028671,793.2638255384616
2048,2048,156.36387633807652,233472,75769,60366848,48323320,0.7002808511197155,0.2254489710898655,1.0,2048,0,1,1,719.5001285513379,0.6817089167968128,0.1121747435358466,793.2638255384616
2048,256,460.3642127260046,401341,50211,32219136,29910792,0.5021319583915431,0.1198769280038547,0.4334601803270737,2048,0,1,1,1830.0731221490582,0.912949698699968,0.0117267283900072,793.2638255384616
2048,512,257.9280556745968,440902,79839,33267712,30275408,0.5675017737628143,0.0840478031054787,0.5391702411726248,2048,0,1,1,1471.2678203700866,0.9145080493635004,0.0095925183745204,793.2638255384616
256,1024,120.8833289331076,334350,49846,39694336,29817568,0.7047416450376142,0.1768448589238942,0.8910835897353617,256,0,1,1,890.2238069203461,0.7733317175547743,0.0824688408257173,793.2638255384616
256,128,1054.5589858195992,469102,78499,32743424,29835736,0.45635661104902603,0.1197257303027879,0.31546649012659067,256,0,1,1,2514.573973356536,0.8863522454315492,0.0662553757194994,793.2638255384616
256,1536,170.37586293760128,311361,42942,36671488,15549464,0.7724938276755097,0.2039531837537707,0.9820245265812817,256,0,1,1,807.7841276531534,0.658605450037293,0.1049071049789989,793.2638255384616
256,2048,135.25369764880617,250575,61704,58941440,47790984,0.7362481090975597,0.2122296929913924,1.0,256,0,1,1,633.9079047612233,0.6816954255621128,0.1538806793415712,793.2638255384616
256,256,618.4982658285337,429813,55050,32743424,29504720,0.48605280164742054,0.1116080472762548,0.39246944151961966,256,0,1,1,2021.2116960418332,0.916961254367482,0.0100496010833045,793.2638255384616
256,512,229.24436442071257,341005,70667,32743424,29679456,0.6035384165216954,0.0960683893039009,0.5599587286783695,256,0,1,1,1416.6469507685779,0.91573808522542,0.0113006403657895,793.2638255384616
512,1024,166.46983506536418,383046,73312,39694336,29723536,0.7834671421959466,0.2218336431612493,0.8727300683898646,512,0,1,1,908.9452217476436,0.7730061200812779,0.0973222043219934,793.2638255384616
512,128,1087.1989716092353,514933,81075,32743424,29764600,0.5350646748630679,0.2709996902762731,0.322479498372906,512,0,1,1,2459.8891698260895,0.8990965830294388,0.0513830718598296,793.2638255384616
512,1536,171.9196402719576,293001,65015,60628992,48435248,0.7892162322861185,0.2129896040334171,1.0,512,0,1,1,698.7254687906573,0.6815362585363851,0.1124522640354673,793.2638255384616
512,2048,159.07118225776287,299207,53148,60891136,48947720,0.6825528824789163,0.2126375056995938,1.0,512,0,1,1,694.9242310557854,0.7258040342007572,0.1081444500352898,793.2638255384616
512,256,379.3794166594715,385883,50095,32481280,29682464,0.5010511606668929,0.0889155387734581,0.44040216959186024,512,0,1,1,1801.2259709656141,0.9146873356715298,0.0084302312719345,793.2638255384616
512,512,276.6397761303171,339504,65731,32743424,29675480,0.5766013654848131,0.1174243076598089,0.521482015156439,512,0,1,1,1521.1719723459514,0.9101591214395486,0.0099981844705827,793.2638255384616
