cpu,memory,duration_std,userDiff,sysDiff,heapTotal,heapUsed,avg_cpu_util,cpu_util_std,slo_preservation,total_cpu_shares,cpu_shares_others,num_containers,arrival_rate,latency,memory_util,memory_util_std,slo_duration
1024,1024,524.7010994448171,1777014,123563,43438080,33959024,0.8505782467957703,0.2010093446587067,0.6116269558635695,1024,0,1,1,374.04814606639354,0.8315121254876667,0.0304173652830992,228.77792892500008
1024,128,619.7874130978896,1645578,226871,35962880,33363760,0.9722466349263194,0.1608560998956951,0.5685928132990274,1024,0,1,1,402.35810860430973,0.935139445167212,0.0094353533516405,228.77792892500008
1024,1536,348.5812208021044,1491489,125796,51171328,37310712,1.0051459397804086,0.1802919230554434,0.9783877718149168,1024,0,1,1,233.8315497347389,0.7519767920423475,0.0257520719205727,228.77792892500008
1024,2048,192.24354438759767,1348921,115541,52482048,37075360,1.1210588158165615,0.1869891924367345,1.0,1024,0,1,1,108.9038431171264,0.741627465694943,0.0437908296459173,228.77792892500008
1024,256,368.38051661456,1686841,154182,36225024,33598024,1.054980924516001,0.1783110579108195,1.0,1024,0,1,1,203.63039594573115,0.9359781168458052,0.0102581037352046,228.77792892500008
1024,512,562.6692149532989,1700222,123424,35438592,33060424,1.0172174883732936,0.0910173397427353,0.6267861688071951,1024,0,1,1,365.0015592404914,0.9345093317178088,0.0109440188901245,228.77792892500008
128,1024,528.9743154187254,1691993,147108,43175936,33499368,0.8558842140218198,0.2090124908332821,0.6357175336700697,128,0,1,1,359.87355516881695,0.8326221717707847,0.0265976247233392,228.77792892500008
128,128,625.6341911160612,1973069,186783,36225024,32953384,0.9649680997107624,0.1363446386072745,0.5520571324985117,128,0,1,1,414.4098779950404,0.931062372343944,0.013632608579536,228.77792892500008
128,1536,349.53934546488927,1637720,165125,52482048,42998448,1.0508459639672714,0.1860589127515313,1.0,128,0,1,1,218.72616397038755,0.7279817057756074,0.0423276519140487,228.77792892500008
128,2048,186.5642028749845,1283666,101286,50909184,39624048,1.1223943478255058,0.2391778938473771,1.0,128,0,1,1,100.04286627445114,0.7444840424178819,0.0778944683138868,228.77792892500008
128,256,339.2220665314015,1628250,138304,36225024,32500424,1.0097894099445013,0.2239449243578396,1.0,128,0,1,1,214.4840582345236,0.92910848257402,0.0124992262164655,228.77792892500008
128,512,355.641955087881,1593237,131563,35700736,33182360,1.095756584321735,0.2009185184814653,1.0,128,0,1,1,212.15857362905803,0.9294626472393036,0.028921952304234,228.77792892500008
1536,1024,345.14636615833103,1615173,119829,43700224,36993848,1.019699827883164,0.1664981680374531,1.0,1536,0,1,1,202.6481816599073,0.8376363875480559,0.0278906787837274,228.77792892500008
1536,128,883.025054686644,1935846,237959,36487168,33374232,0.9519608760996714,0.1230227386970099,0.4320956349697912,1536,0,1,1,529.461328488066,0.9334472542121258,0.0099891472992981,228.77792892500008
1536,1536,338.39347621494204,1520892,106165,50384896,40535984,1.0664422695177245,0.3305886111713364,0.9648224761146099,1536,0,1,1,237.1191950733783,0.7527127284686104,0.0508683721313872,228.77792892500008
1536,2048,203.42692592435827,1433913,124590,52744192,41547056,1.1494135443749132,0.3506138628229404,1.0,1536,0,1,1,98.0101455873824,0.7558364457876184,0.0716393619935045,228.77792892500008
1536,256,351.27695772726804,1562680,144045,35962880,32741712,1.0658532967905998,0.152220842878534,1.0,1536,0,1,1,223.61494827106176,0.9138713553341348,0.0475435109579398,228.77792892500008
1536,512,558.7327542369362,1761066,102230,36487168,33552064,0.9668785877734468,0.1486118011218191,0.6377841095650961,1536,0,1,1,358.7074771759418,0.9342169663082004,0.0096171419997995,228.77792892500008
2048,1024,544.420583809059,1713050,136706,43438080,37203752,0.9622714385407359,0.2004427665364089,0.6731977496931637,2048,0,1,1,339.83763170520785,0.8455741108240111,0.0243792894734236,228.77792892500008
2048,128,565.1281945552291,1693026,140478,35962880,32811752,1.006278173440354,0.1447463435945905,0.6291518917893668,2048,0,1,1,363.6290884770834,0.9253218947838224,0.0110013986566386,228.77792892500008
2048,1536,354.39532039131086,124941,16217,53006336,41962728,1.073808504644967,0.1986780272959115,1.0,2048,0,1,1,214.91724704536625,0.7164361574262228,0.0492894853553919,228.77792892500008
2048,2048,196.13311476455277,1423529,104816,51957760,38723128,1.1729955961853995,0.3237815711869077,1.0,2048,0,1,1,94.74101959356011,0.7320126664592556,0.0605500998573607,228.77792892500008
2048,256,359.8691825405058,1677617,119582,35962880,32976128,1.0013903459658406,0.1887804931969263,1.0,2048,0,1,1,213.24304002008714,0.9317101807468516,0.0108551607989329,228.77792892500008
2048,512,352.7750541915142,1648740,130490,36225024,32813624,1.0805400255730586,0.1431332998059916,1.0,2048,0,1,1,208.9275467923139,0.9303729036587504,0.011002932114023,228.77792892500008
256,1024,577.6009376802839,1651612,129723,42913792,33843224,0.8826849135942104,0.1832860639127258,0.619617682341808,256,0,1,1,369.22433856365683,0.8365080907954514,0.0280771656281623,228.77792892500008
256,128,636.4458962202426,1913477,183565,36225024,33286432,0.923608770543075,0.1551824497515352,0.5500103634515029,256,0,1,1,415.95203313868564,0.9312633437788056,0.0128223658326432,228.77792892500008
256,1536,338.2615041815073,1416398,135730,51957760,38728072,1.0245946426307149,0.2297388439572725,1.0,256,0,1,1,225.95430606169174,0.734691480855754,0.0539205368732643,228.77792892500008
256,2048,179.26459966905676,1299972,91605,50909184,40253424,1.04387159811006,0.1829969108144706,1.0,256,0,1,1,107.59351200357415,0.7524147715140747,0.0565038233678891,228.77792892500008
256,256,567.3261967620301,1713502,185667,36749312,33417712,0.9027128260701042,0.1740115064708707,0.5869765696842917,256,0,1,1,389.7564924065869,0.9349525361156118,0.0104131655155648,228.77792892500008
256,512,534.5415417404979,1686107,143246,36225024,32627680,0.9673884952398906,0.1426255429821712,0.6515993203501321,256,0,1,1,351.1021601466188,0.929536703647858,0.014125680219544,228.77792892500008
512,1024,533.8159496032864,1640468,124771,43175936,35341696,0.9064706213402793,0.2237580510260613,0.6143825652488126,512,0,1,1,372.3704770696896,0.843886757396526,0.0310825835304046,228.77792892500008
512,128,1040.9349178272128,1797258,199017,35700736,32247192,0.7739774406338943,0.2542049781309756,0.32787216463397295,512,0,1,1,697.7656342995789,0.931801929578082,0.011543098051728,228.77792892500008
512,1536,341.0741723462151,1440362,98042,51171328,34258360,1.014100981534395,0.1785713215722826,1.0,512,0,1,1,226.14662449521455,0.7296487548054343,0.0430860794489052,228.77792892500008
512,2048,189.7435750215263,1298661,128747,51695616,39486472,1.0767119304480022,0.1378710048754823,1.0,512,0,1,1,89.71393125086666,0.7412345220372155,0.0658966769362915,228.77792892500008
512,256,342.3701359587761,1586896,123085,35962880,32263440,1.0219634465573169,0.185824979152494,1.0,512,0,1,1,221.77384562122248,0.9280474846169956,0.017495288043329,228.77792892500008
512,512,554.4670868192751,1713535,152648,35700736,33128720,0.9469842671074478,0.1917334425315169,0.6239149347556944,512,0,1,1,366.68128326593495,0.9266177134178012,0.013554693878506,228.77792892500008
