cpu,memory,duration_std,userDiff,sysDiff,heapTotal,heapUsed,avg_cpu_util,cpu_util_std,slo_preservation,total_cpu_shares,cpu_shares_others,num_containers,arrival_rate,latency,memory_util,memory_util_std,slo_duration
1024,1024,823.059660305287,1652924,155206,42913792,35950216,0.8901337508238074,0.1450898880432731,1.0,1024,0,1,1,1060.8593682112091,0.8260167594253713,0.0347935651270965,3137.936154530975
1024,128,1062.852297345617,1945298,182239,35962880,32670328,0.27337185052588414,0.0100232429532868,0.18285457290379423,1024,0,1,1,17160.829530809413,0.9208540012617478,0.0105164155764465,3137.936154530975
1024,1536,599.416669015183,1890211,163848,52219904,35587808,0.9329558292403215,0.1602479264805434,1.0,1024,0,1,1,728.8843110836566,0.7226722863006275,0.0499053717483654,3137.936154530975
1024,2048,340.11543079112505,1766626,94198,52219904,37537000,1.0053449522973334,0.1585143117880048,1.0,1024,0,1,1,431.0433727655134,0.7134327985836614,0.0380455413453693,3137.936154530975
1024,256,2779.775209086481,1974714,158088,36487168,33268080,0.4870039927529794,0.0620891318137138,0.4548876715010437,1024,0,1,1,6898.265992077508,0.9218929327250392,0.0133040568809898,3137.936154530975
1024,512,1847.472969289118,1817185,152982,35962880,32903992,0.6464826460198644,0.0831640302026074,1.0,1024,0,1,1,2411.214071768671,0.9247912470265204,0.0136532886349709,3137.936154530975
128,1024,808.2269125514556,1658476,143724,43438080,34810144,0.8783572430047574,0.1136764162891439,1.0,128,0,1,1,1043.168137322103,0.8433754305053487,0.0247389840128459,3137.936154530975
128,128,1373.8956025588957,2072509,206371,36225024,33322616,0.28847686555950264,0.0219144028625338,0.19709754427064471,128,0,1,1,15920.726796180243,0.9200314590799596,0.0089020753278909,3137.936154530975
128,1536,559.3969655783121,1830930,146554,52482048,37735784,0.8813903031788367,0.1849222289846604,1.0,128,0,1,1,589.0376746277398,0.7481208712957486,0.0548467996831187,3137.936154530975
128,2048,333.32579884710054,1518746,116419,51433472,39757912,0.9981054557294947,0.1454683128979506,1.0,128,0,1,1,438.83498299726534,0.7517442912609072,0.0556653770892838,3137.936154530975
128,256,4023.6480981802674,2036216,186861,36749312,33937864,0.5154504681489099,0.2256494071790872,0.4116288948141413,128,0,1,1,7623.216431265876,0.9271725015364732,0.0119033494257268,3137.936154530975
128,512,1813.2821390316217,1883766,136575,36225024,33541104,0.6338540975916321,0.0906502913289889,1.0,128,0,1,1,2435.3244841087935,0.9260305922866726,0.0109785295455022,3137.936154530975
1536,1024,788.1020227195327,1861942,146443,43962368,35828192,0.8884520711164815,0.1200461965126612,1.0,1536,0,1,1,1040.17921499916,0.8295826525225827,0.0280617474036026,3137.936154530975
1536,128,776.4514757197238,1875806,237890,35700736,32302888,0.4492893915984772,0.0272972652379205,0.31362889971247476,1536,0,1,1,10005.251931208308,0.921201601663886,0.0120262517378454,3137.936154530975
1536,1536,369.3383291118793,1676088,115452,51957760,41262504,1.0072150320799722,0.1358683667525494,1.0,1536,0,1,1,470.379524055825,0.7531304712503198,0.0338587615037576,3137.936154530975
1536,2048,200.23623184846804,1400347,137148,52744192,37030096,1.0197818330267807,0.1418603289562206,1.0,1536,0,1,1,238.70687759492694,0.7576535167556304,0.0492147173677916,3137.936154530975
1536,256,2439.8604475716998,1921107,145396,35962880,33236368,0.5820640738076807,0.1510415758020525,0.5318282154655544,1536,0,1,1,5900.2814504380385,0.9224356566183656,0.0102187491446574,3137.936154530975
1536,512,1699.0979139236335,1896060,139764,36225024,33191256,0.6026338032648838,0.0845839683698374,1.0,1536,0,1,1,2349.188524217794,0.9241037720197754,0.0110523963876344,3137.936154530975
2048,1024,810.9920068968293,167692,4136,43438080,36091216,0.8632710521911923,0.1344770502945549,1.0,2048,0,1,1,1089.1110790605094,0.8366614074088577,0.0252367141982438,3137.936154530975
2048,128,2090.458730701158,2117835,202621,36487168,33167336,0.3113349567906667,0.024667904891877,0.20507428114972048,2048,0,1,1,15301.461192201048,0.9203613891690096,0.0094019161687921,3137.936154530975
2048,1536,538.2485950841605,1715221,137438,52744192,40167336,0.9469141462765194,0.1617367154761563,1.0,2048,0,1,1,702.0328238063349,0.7089576833359524,0.0278306057389485,3137.936154530975
2048,2048,342.1158375463034,1503085,109816,52219904,40359272,1.0188670410956013,0.200096770446921,1.0,2048,0,1,1,433.83464232544975,0.7552893836623382,0.02837268135079,3137.936154530975
2048,256,2635.768571547318,1884118,165828,36225024,33004016,0.5099485402013921,0.0658682678747787,0.4716694969918116,2048,0,1,1,6652.828250594825,0.9234538045199898,0.0093678755902153,3137.936154530975
2048,512,1485.9226965735506,1922087,141145,35962880,33041536,0.7220686909417311,0.1325500279500818,1.0,2048,0,1,1,2134.9513291215553,0.9291722594261344,0.0117075656008763,3137.936154530975
256,1024,858.3098264795794,98549,7255,43962368,37235952,0.8472759480602525,0.1497101582899083,1.0,256,0,1,1,1027.0683259430102,0.8366243736341235,0.0348830897227976,3137.936154530975
256,128,1218.6623809551509,2138157,207328,35962880,32550320,0.24869305526813007,0.007915932931162,0.1682634622391845,256,0,1,1,18648.945604545068,0.9204883597311694,0.0100120708248815,3137.936154530975
256,1536,500.05478289033056,1592070,119723,51695616,35638456,0.9342096575809493,0.194228202730074,1.0,256,0,1,1,664.6408507438715,0.7367060147365803,0.045367060072066,3137.936154530975
256,2048,328.8990171833402,1701354,100206,52744192,37174552,1.0041801339306293,0.1552495951981353,1.0,256,0,1,1,466.1538267279985,0.7394850880362162,0.0420700189928475,3137.936154530975
256,256,3974.8354039087662,1864064,200087,35700736,32786920,0.4030629293513175,0.0682983233844709,0.4101432648239604,256,0,1,1,7650.829414150745,0.9232190804216924,0.0099751534271726,3137.936154530975
256,512,1267.555351392927,1822224,171471,37273600,35064608,0.7207657004225806,0.2004017162597709,1.0,256,0,1,1,1811.1206182438639,0.9328470778336307,0.0140911693609052,3137.936154530975
512,1024,788.2542940661544,1880205,148918,43175936,35885904,0.8947210249882873,0.1083242368351266,1.0,512,0,1,1,1061.992217021554,0.8360191601172359,0.0234981276711518,3137.936154530975
512,128,865.3808179101804,2032137,274188,36225024,33709376,0.29832177677803895,0.0143602893765732,0.20182164104827555,512,0,1,1,15548.065798257896,0.9253748785750916,0.0094360306968939,3137.936154530975
512,1536,563.1237288126291,1556617,142543,51171328,35946824,0.9712672266598292,0.1570560751455031,1.0,512,0,1,1,707.2482193190659,0.7342097161955565,0.0546679791318288,3137.936154530975
512,2048,353.85677251786694,109077,4,53006336,33240528,1.0254820730588945,0.1612225897299881,1.0,512,0,1,1,442.0034554439055,0.7448667826780202,0.060054983063688,3137.936154530975
512,256,3404.8831254786905,1970633,195448,35700736,32734616,0.43079670618126886,0.0687229787742788,0.3493288761727232,512,0,1,1,8982.756275148135,0.9220852581664246,0.006805827482501,3137.936154530975
512,512,1746.8079685315315,1890835,148894,35700736,32562888,0.6287919878215626,0.0831160997506015,1.0,512,0,1,1,2467.18249130148,0.9290856078250028,0.0077626993483775,3137.936154530975
