cpu,memory,duration_std,userDiff,sysDiff,heapTotal,heapUsed,avg_cpu_util,cpu_util_std,slo_preservation,total_cpu_shares,cpu_shares_others,num_containers,arrival_rate,latency,memory_util,memory_util_std,slo_duration
1024,1024,573.4530654000939,1906420,163242,43962368,34862760,0.9182383713154996,0.1954432888640961,0.36758826572921505,1024,0,1,1,698.6971583741013,0.8467881983120817,0.0290953902081332,256.8328767166666
1024,128,633.7868230442565,1875544,177252,35962880,33372680,0.9728534927038601,0.0903977324009756,0.33319551321509894,1024,0,1,1,770.8173325577304,0.9278894289347722,0.0086124789598518,256.8328767166666
1024,1536,342.67760537495184,1547175,127820,51957760,42200320,1.026844059497432,0.1423056018296243,0.577150251655644,1024,0,1,1,445.0017581728538,0.7268112389270704,0.0521633791063393,256.8328767166666
1024,2048,186.80135658965364,1401701,76599,51433472,35173064,1.0329510097782841,0.139624543820708,1.0,1024,0,1,1,207.96444299465222,0.745458912767252,0.0451023992612755,256.8328767166666
1024,256,336.6852801103418,1618838,139394,36225024,32576552,1.0324490903603802,0.1477670495227369,0.5439446718790433,1024,0,1,1,472.16728096525674,0.925268066796742,0.030268305907325,256.8328767166666
1024,512,360.8882531916795,1658679,88972,35700736,33173032,1.0476803077633174,0.1444598401041981,0.551598873278559,1024,0,1,1,465.6153033636913,0.9159769440360772,0.0457306668496579,256.8328767166666
128,1024,348.90026043964576,1603312,111633,43175936,37513096,0.9914111950711583,0.1585475939936483,0.5321823449303814,128,0,1,1,482.6031512756492,0.8380964797010122,0.0325440239942989,256.8328767166666
128,128,655.7450264768709,1798014,166795,36487168,32509088,0.9689969314593918,0.1105311988199354,0.31874184980026643,128,0,1,1,805.7708044224694,0.9298882425341084,0.0123306141714499,256.8328767166666
128,1536,326.46666617841174,1558622,113118,52482048,38750600,1.035812923977347,0.1427204365799822,0.6277409028544683,128,0,1,1,409.13834919597264,0.7361233324151326,0.0533681383237984,256.8328767166666
128,2048,212.5272550261701,1497794,102150,52219904,40230680,1.0254598290967598,0.1272586836175605,0.9718478514729504,128,0,1,1,264.2727216275737,0.7272774313486106,0.0652282058222947,256.8328767166666
128,256,319.23968240663595,1542791,115025,35962880,32810856,1.0118699038937988,0.1560933156032794,0.5358519840648456,128,0,1,1,479.29817254457754,0.920899544412995,0.0309532507087379,256.8328767166666
128,512,559.9066065700017,1669565,113981,35962880,33044904,0.9582912877948786,0.1712654124714907,0.35809633193785934,128,0,1,1,717.2172787327935,0.9323794565767696,0.0094479971174021,256.8328767166666
1536,1024,521.5601227628393,1600195,108127,42913792,36109960,0.9767534767583055,0.1343501994648424,0.3818080551211077,1536,0,1,1,672.6753751572905,0.8395416097505743,0.031128989170986,256.8328767166666
1536,128,631.6373387982735,1696525,182143,35962880,33246328,0.9743308794931769,0.0916820850127015,0.33946124096763486,1536,0,1,1,756.589694848708,0.9280326883875378,0.0102073569865539,256.8328767166666
1536,1536,324.98033352421686,1597864,104916,51957760,40146952,1.043507717866259,0.1863825190274861,0.566862641074999,1536,0,1,1,453.07779717077216,0.7321953689782519,0.0483827548241023,256.8328767166666
1536,2048,192.38081603204824,1354181,135042,51695616,39194096,1.0582517130874902,0.3023304076621814,1.0,1536,0,1,1,244.22166739907956,0.7579833884185943,0.0430295372312385,256.8328767166666
1536,256,332.34339903499546,1692971,96200,36487168,33014552,1.0251913091276414,0.1578900675782552,0.5987390152067927,1536,0,1,1,428.9563068275441,0.9312589298063998,0.0140766970908603,256.8328767166666
1536,512,382.7981943609586,1823745,152234,36225024,33478576,0.9994912227234927,0.1586597655182339,0.5617043603660687,1536,0,1,1,457.23853122536894,0.9351859993800368,0.0110730957090373,256.8328767166666
2048,1024,350.53734908289425,1617253,145753,43438080,33868640,1.0221891437001347,0.1491309566485845,0.5995033639491993,2048,0,1,1,428.4094004490525,0.846625827300621,0.0316594173098214,256.8328767166666
2048,128,648.4623978643817,1884366,159898,36487168,33457224,0.9742153258670254,0.1061067245044888,0.314457831611814,2048,0,1,1,816.748227895042,0.9329187714247956,0.0111124249688481,256.8328767166666
2048,1536,344.99207197140043,1594582,141416,52482048,38221504,0.9937417170722974,0.1949311181440634,0.6556755994848519,2048,0,1,1,391.7072358929535,0.7466130375001937,0.0556692402544701,256.8328767166666
2048,2048,185.40607763017883,1380630,82966,50647040,40762112,1.033491786535252,0.1397113112595618,0.9462036273141202,2048,0,1,1,271.4351005456496,0.7235496787758219,0.0647690437973255,256.8328767166666
2048,256,574.6449613971658,1840357,110486,35962880,33009488,0.9586239271956675,0.1274177038961725,0.3431623843423695,2048,0,1,1,748.429572806637,0.9328223214433032,0.0125689279079561,256.8328767166666
2048,512,554.7324929891972,1788691,147385,35962880,33241160,1.000467201231985,0.1020037740897115,0.3787031043348224,2048,0,1,1,678.1905766729421,0.932461262497241,0.0105198068917302,256.8328767166666
256,1024,544.4580808092421,1903282,126953,43175936,33956800,0.9407615427908697,0.1747168981882264,0.3825031013467592,256,0,1,1,671.4530570141288,0.8305023575335495,0.026813159746782,256.8328767166666
256,128,919.2531844444358,1837287,169956,35438592,32963992,0.8883087757081453,0.0964271830816703,0.21422946242001686,256,0,1,1,1198.868138002054,0.932099482078786,0.0086299997340239,256.8328767166666
256,1536,350.45339316613047,1780021,87649,52744192,37514120,1.0272458708986578,0.1560712473393596,0.5995816452542744,256,0,1,1,428.3534673709821,0.7161072465687467,0.0417283724967057,256.8328767166666
256,2048,187.07633054217416,1379126,96811,51171328,40925872,1.049489328963361,0.1700352238542076,0.9712042076218234,256,0,1,1,264.44786245888525,0.73619688062168,0.0577269096767437,256.8328767166666
256,256,331.65297806402737,1625086,123726,35700736,32849616,0.9896143966375258,0.1768132465329863,0.5708337315355517,256,0,1,1,449.9258935273185,0.9292149782559344,0.0125794605268602,256.8328767166666
256,512,559.9793321238207,1711543,130646,35700736,32998424,0.99491347999436,0.1129573849530095,0.364937408053469,256,0,1,1,703.7724032912421,0.9316945287546184,0.0053430466951142,256.8328767166666
512,1024,546.6186267789003,1783786,115708,43438080,34293048,0.982225757749741,0.1181063089694893,0.3749446733538969,512,0,1,1,684.9887329223402,0.8277669912087642,0.0291492343558767,256.8328767166666
512,128,560.1918725041262,1761005,282016,36225024,32910400,0.9931707602944866,0.1067420555180121,0.36490496330147015,512,0,1,1,703.8349777239981,0.9261686134157604,0.0083446845214775,256.8328767166666
512,1536,350.147697691573,1685825,129508,52219904,40631952,0.9999506282192365,0.184720727909801,0.5832725236433004,512,0,1,1,440.33083388260616,0.7263711253229651,0.0542017002526592,256.8328767166666
512,2048,196.63426754414328,1332427,138228,51695616,40167912,1.0477840819828632,0.115281851463346,1.0,512,0,1,1,235.44910251748718,0.751236070715226,0.0453517796664058,256.8328767166666
512,256,339.36235931307806,1666319,111462,36225024,32951720,0.9917653889989051,0.1466450706692111,0.5243086645584965,512,0,1,1,489.85052904463697,0.934484880733312,0.0137030051300554,256.8328767166666
512,512,319.9845638938171,1506673,122918,35962880,33220112,1.03783770188936,0.1284404516622539,0.5745092302030784,512,0,1,1,447.04743320813293,0.9369873974988864,0.0110092384605837,256.8328767166666
