cpu,memory,duration_std,userDiff,sysDiff,heapTotal,heapUsed,avg_cpu_util,cpu_util_std,slo_preservation,total_cpu_shares,cpu_shares_others,num_containers,arrival_rate,latency,memory_util,memory_util_std,slo_duration
1024,1024,573.4530654000939,1906420,163242,43962368,34862760,0.9439650787350565,0.1954432888640961,0.25192477032882793,1024,0,1,1,1019.4824287482024,0.8467881983120817,0.0290953902081332,256.8328767166666
1024,128,633.7868230442565,1875544,177252,35962880,33372680,0.9817370702170395,0.0903977324009756,0.22415871756401426,1024,0,1,1,1145.7634996654608,0.9278894289347722,0.0086124789598518,256.8328767166666
1024,1536,342.67760537495184,1547175,127820,51957760,42200320,1.0177373257226134,0.1423056018296243,0.3813544671022612,1024,0,1,1,673.4754640957076,0.7268112389270704,0.0521633791063393,256.8328767166666
1024,2048,186.80135658965364,1401701,76599,51433472,35173064,1.021728679211797,0.139624543820708,0.8143781807565682,1024,0,1,1,315.3729836893044,0.745458912767252,0.0451023992612755,256.8328767166666
1024,256,336.6852801103418,1618838,139394,36225024,32576552,1.0214012432812345,0.1477670495227369,0.35874941716789066,1024,0,1,1,715.9116208305134,0.925268066796742,0.030268305907325,256.8328767166666
1024,512,360.8882531916795,1658679,88972,35700736,33173032,1.0312895730184442,0.1444598401041981,0.36197948444492567,1024,0,1,1,709.5232955273826,0.9159769440360772,0.0457306668496579,256.8328767166666
128,1024,348.90026043964576,1603312,111633,43175936,37513096,0.9942576901878329,0.1585475939936483,0.35580688192063953,128,0,1,1,721.8322347512984,0.8380964797010122,0.0325440239942989,256.8328767166666
128,128,655.7450264768709,1798014,166795,36487168,32509088,0.9791154593579396,0.1105311988199354,0.21471349223900402,128,0,1,1,1196.1655228949387,0.9298882425341084,0.0123306141714499,256.8328767166666
128,1536,326.46666617841174,1558622,113118,52482048,38750600,1.0235936303548157,0.1427204365799822,0.4135570396294633,128,0,1,1,621.0337440919453,0.7361233324151326,0.0533681383237984,256.8328767166666
128,2048,212.5272550261701,1497794,102150,52219904,40230680,1.0168303864767299,0.1272586836175605,0.6424463760030105,128,0,1,1,399.7732516051473,0.7272774313486106,0.0652282058222947,256.8328767166666
128,256,319.23968240663595,1542791,115025,35962880,32810856,1.0078820827409931,0.1560933156032794,0.3558267794847889,128,0,1,1,721.7918704391551,0.920899544412995,0.0309532507087379,256.8328767166666
128,512,559.9066065700017,1669565,113981,35962880,33044904,0.9718021599987801,0.1712654124714907,0.24209673564957537,128,0,1,1,1060.868813565587,0.9323794565767696,0.0094479971174021,256.8328767166666
1536,1024,521.5601227628393,1600195,108127,42913792,36109960,0.9843812909445158,0.1343501994648424,0.2565264863900641,1536,0,1,1,1001.194380864581,0.8395416097505743,0.031128989170986,256.8328767166666
1536,128,631.6373387982735,1696525,182143,35962880,33246328,0.982739566277712,0.0916820850127015,0.22826057672875905,1536,0,1,1,1125.174046247416,0.9280326883875378,0.0102073569865539,256.8328767166666
1536,1536,324.98033352421686,1597864,104916,51957760,40146952,1.0285905093066505,0.1863825190274861,0.3725061301782502,1536,0,1,1,689.4728862415443,0.7321953689782519,0.0483827548241023,256.8328767166666
1536,2048,192.38081603204824,1354181,135042,51695616,39194096,1.038094779993555,0.3023304076621814,0.6877382705446211,1536,0,1,1,373.44566634815914,0.7579833884185943,0.0430295372312385,256.8328767166666
1536,256,332.34339903499546,1692971,96200,36487168,33014552,1.016654357727152,0.1578900675782552,0.39583547222304294,1536,0,1,1,648.8374457050883,0.9312589298063998,0.0140766970908603,256.8328767166666
1536,512,382.7981943609586,1823745,152234,36225024,33478576,0.9996607576160563,0.1586597655182339,0.37453309155280645,1536,0,1,1,685.741480550738,0.9351859993800368,0.0110730957090373,256.8328767166666
2048,1024,350.53734908289425,1617253,145753,43438080,33868640,1.014684152874011,0.1491309566485845,0.39673450961789486,2048,0,1,1,647.367119548105,0.846625827300621,0.0316594173098214,256.8328767166666
2048,128,648.4623978643817,1884366,159898,36487168,33457224,0.9826611920739412,0.1061067245044888,0.21145599572226342,2048,0,1,1,1214.5925483900837,0.9329187714247956,0.0111124249688481,256.8328767166666
2048,1536,344.99207197140043,1594582,141416,52482048,38221504,0.9958190896081558,0.1949311181440634,0.43803083996575626,2048,0,1,1,586.335146485907,0.7466130375001937,0.0556692402544701,256.8328767166666
2048,2048,185.40607763017883,1380630,82966,50647040,40762112,1.0220813431464768,0.1397113112595618,0.6238379358823587,2048,0,1,1,411.6980740412992,0.7235496787758219,0.0647690437973255,256.8328767166666
2048,256,574.6449613971658,1840357,110486,35962880,33009488,0.9720301911817829,0.1274177038961725,0.23197431832279952,2048,0,1,1,1107.160820963274,0.9328223214433032,0.0125689279079561,256.8328767166666
2048,512,554.7324929891972,1788691,147385,35962880,33241160,1.0003114189895448,0.1020037740897115,0.2524294244438518,2048,0,1,1,1017.4442907458844,0.932461262497241,0.0105198068917302,256.8328767166666
256,1024,544.4580808092421,1903282,126953,43175936,33956800,0.9597121654733616,0.1747168981882264,0.2601388081155009,256,0,1,1,987.2916639282577,0.8305023575335495,0.026813159746782,256.8328767166666
256,128,919.2531844444358,1837287,169956,35438592,32963992,0.922659775692112,0.0964271830816703,0.1483424931723187,256,0,1,1,1731.350681954108,0.932099482078786,0.0086299997340239,256.8328767166666
256,1536,350.45339316613047,1780021,87649,52744192,37514120,1.0180004347585878,0.1560712473393596,0.3961235200735675,256,0,1,1,648.3656326919643,0.7161072465687467,0.0417283724967057,256.8328767166666
256,2048,187.07633054217416,1379126,96811,51171328,40925872,1.032457453445285,0.1700352238542076,0.6369618666296322,256,0,1,1,403.21546731777056,0.73619688062168,0.0577269096767437,256.8328767166666
256,256,331.65297806402737,1625086,123726,35700736,32849616,0.9930522121018985,0.1768132465329863,0.3818778315876315,256,0,1,1,672.552464354637,0.9292149782559344,0.0125794605268602,256.8328767166666
256,512,559.9793321238207,1711543,130646,35700736,32998424,0.9966032274123328,0.1129573849530095,0.24370480849694282,256,0,1,1,1053.868728732484,0.9316945287546184,0.0053430466951142,256.8328767166666
512,1024,546.6186267789003,1783786,115708,43438080,34293048,0.988079881475056,0.1181063089694893,0.2514529105514896,512,0,1,1,1021.3955215446805,0.8277669912087642,0.0291492343558767,256.8328767166666
512,128,560.1918725041262,1761005,282016,36225024,32910400,0.9954367857683859,0.1067420555180121,0.24382502204155473,512,0,1,1,1053.3491376979962,0.9261686134157604,0.0083446845214775,256.8328767166666
512,1536,350.147697691573,1685825,129508,52219904,40631952,0.9999670849377992,0.184720727909801,0.3888547485793321,512,0,1,1,660.4853808652124,0.7263711253229651,0.0542017002526592,256.8328767166666
512,2048,196.63426754414328,1332427,138228,51695616,40167912,1.0313566057814538,0.115281851463346,0.7158126615055574,512,0,1,1,358.79901338497433,0.751236070715226,0.0453517796664058,256.8328767166666
512,256,339.36235931307806,1666319,111462,36225024,32951720,0.9944951492310362,0.1466450706692111,0.35050119002408736,512,0,1,1,732.758929289274,0.934484880733312,0.0137030051300554,256.8328767166666
512,512,319.9845638938171,1506673,122918,35962880,33220112,1.0249109436398312,0.1284404516622539,0.3782356311173351,512,0,1,1,679.0287735662658,0.9369873974988864,0.0110092384605837,256.8328767166666
