cpu,memory,duration_std,userDiff,sysDiff,heapTotal,heapUsed,avg_cpu_util,cpu_util_std,slo_preservation,total_cpu_shares,cpu_shares_others,num_containers,arrival_rate,latency,memory_util,memory_util_std,slo_duration
1024,1024,147.38814421971583,424118,27120,39694336,29945360,0.9339219343506017,0.1375704548750484,0.5425655894856821,1024,0,1,1,1065.1299844718526,0.8079065673144848,0.0844539950835354,577.9028779038462
1024,128,429.4679905929111,492186,151006,32481280,29720360,0.6453670948584186,0.1168652666855111,0.23355928677858848,1024,0,1,1,2474.3305473941246,0.9177870557844662,0.0096233739424863,577.9028779038462
1024,1536,50.51576142725739,262534,29285,36147200,15718768,1.0980363457068385,0.2065942425523681,0.8188513122282215,1024,0,1,1,705.7482466887459,0.6828852040190638,0.1032231592191431,577.9028779038462
1024,2048,38.323494630549824,315564,60080,42971136,31266512,1.1409928672282796,0.2036224706244073,1.0,1024,0,1,1,515.9847438679967,0.6857705893254231,0.1070811849050666,577.9028779038462
1024,256,356.9560140312739,375003,57361,33005568,29790312,0.6877028086800291,0.1732651766848776,0.29102018169013183,1024,0,1,1,1985.7828228530798,0.9185174725130226,0.0218527277189018,577.9028779038462
1024,512,272.9851327912318,313259,57988,20676608,15434336,0.7540396916451678,0.163000374873094,0.3735013550215537,1024,0,1,1,1547.2577813552966,0.9059985944371924,0.0445277303310579,577.9028779038462
128,1024,117.363630571193,425814,64982,39694336,31145888,0.9243437031157846,0.0961604273687847,0.5385915674304687,128,0,1,1,1072.9890938711226,0.7988528399362161,0.0908797518509364,577.9028779038462
128,128,801.6708188998311,418283,81786,31956992,30073080,0.6249210812536086,0.1733963336337657,0.19951672226437134,128,0,1,1,2896.513491927213,0.9072243781029556,0.0511525505785779,577.9028779038462
128,1536,97.2590285342456,262429,46024,44281856,30827272,0.9834145428258301,0.1499987371134416,0.7326776158351197,128,0,1,1,788.7546519967607,0.7119121984458896,0.0655442624815365,577.9028779038462
128,2048,57.92204005160722,271202,57875,44544000,31974920,1.0725800937536905,0.1524756673339354,0.9356445475049282,128,0,1,1,617.652162292756,0.721886820509485,0.0957991165441632,577.9028779038462
128,256,551.9819977204235,394689,57037,32481280,30029928,0.521863426539516,0.0659297355551485,0.19828703882935325,128,0,1,1,2914.47631330655,0.911085626340666,0.0444389897708709,577.9028779038462
128,512,263.14264856518963,321152,74008,32743424,29861392,0.7175621860500656,0.1491554000292942,0.33191972713783013,128,0,1,1,1741.0922902568884,0.9196249435195566,0.0103205186137156,577.9028779038462
1536,1024,95.64407567517028,415823,27411,39170048,30372272,0.9325653349420552,0.0957570592154243,0.5815418788666231,1536,0,1,1,993.7424954332281,0.8241531901694653,0.0535287589180177,577.9028779038462
1536,128,582.9728826767102,347485,103325,32481280,30079496,0.7264450354321815,0.1846144608039385,0.2436893517673082,1536,0,1,1,2371.4736557536116,0.9178824975654808,0.0087271729922254,577.9028779038462
1536,1536,92.37575087963002,260343,51227,35622912,15748176,1.018365165669377,0.1400572104041403,0.7399952001443976,1536,0,1,1,780.954900506217,0.6938969800058359,0.107092259826621,577.9028779038462
1536,2048,60.91808007437829,293377,57675,42971136,30895416,1.0800863842368482,0.1946842781952738,0.8549030459224808,1536,0,1,1,675.9864532711562,0.706785207294107,0.081279016194111,577.9028779038462
1536,256,337.9609738225152,314125,45251,32481280,30208016,0.742697491249447,0.1797944471126518,0.2921840435575642,1536,0,1,1,1977.8728190199458,0.9219253968088515,0.0098259896820031,577.9028779038462
1536,512,297.53437866606293,392440,38504,32743424,29821488,0.7367668201738915,0.1786196888198413,0.3183816157197508,1536,0,1,1,1815.1264060816056,0.9200392927347404,0.0114845970725527,577.9028779038462
2048,1024,104.15359242709997,338904,74634,27365376,15601664,0.943877416481999,0.089363707545534,0.5031785882836401,2048,0,1,1,1148.5045098502565,0.8202893062992761,0.0674118904527698,577.9028779038462
2048,128,198.40292395233604,517982,107569,32481280,30281160,0.6560849818281012,0.0975604460970742,0.24038208522827567,2048,0,1,1,2404.1012763286762,0.9182422437105308,0.0096470746526955,577.9028779038462
2048,1536,85.66453212602244,335920,56843,36409344,15751768,0.9985021388912182,0.1465890415036413,0.7549166124932263,2048,0,1,1,765.5188246490358,0.6890356776335383,0.1229634262522425,577.9028779038462
2048,2048,61.93105965144725,244167,56435,43757568,30824832,1.0864822817126651,0.1996802988717804,0.8685618848481006,2048,0,1,1,665.3560189380327,0.7231399954598937,0.0687844999385874,577.9028779038462
2048,256,331.72039509539286,447952,73151,32481280,30498208,0.7970097430681617,0.2008387945480936,0.31163731759520585,2048,0,1,1,1854.408459048861,0.9173520619213306,0.0101479236446621,577.9028779038462
2048,512,292.017719131277,262251,48905,32481280,29880160,0.7991584049081278,0.2612676557434487,0.36372901904844035,2048,0,1,1,1588.828077055031,0.9153284246462337,0.0130744199642341,577.9028779038462
256,1024,111.0241820734263,416116,40701,39432192,30439984,0.8866283183114494,0.110393499060793,0.5767372150142098,256,0,1,1,1002.0211334716931,0.8151260401030637,0.052889821384676,577.9028779038462
256,128,486.7442290988101,450637,79359,32481280,29900024,0.7025139508924902,0.2362038823172212,0.2514842508505389,256,0,1,1,2297.9684650205118,0.9297270802806942,0.0044369805107513,577.9028779038462
256,1536,81.7461947387446,295295,53319,59842560,48175040,1.0124048979766607,0.1516898046536387,0.7196532167118891,256,0,1,1,803.0296599580236,0.6900465743343674,0.0906183716247283,577.9028779038462
256,2048,70.01594541340646,330116,66798,42708992,31263096,1.0755029147729407,0.1933592160134618,0.895760450242062,256,0,1,1,645.1533752664332,0.7198259336874824,0.1013822343270469,577.9028779038462
256,256,305.8345370837106,365001,34376,32743424,30234200,0.5240065062071168,0.0410041300991507,0.2262320295933518,256,0,1,1,2554.469758073676,0.9180896709639532,0.0110481031213734,577.9028779038462
256,512,294.5413634257184,324020,40986,33005568,30531944,0.8115890879396304,0.2029831475671634,0.3558685176407646,256,0,1,1,1623.9224580332689,0.916423384370178,0.0176180199926358,577.9028779038462
512,1024,118.39583124224647,413173,50592,39170048,30060160,0.9210674842644853,0.1386965088013071,0.5536550280171914,512,0,1,1,1043.7959535443827,0.8013422259764104,0.0551628418930002,577.9028779038462
512,128,914.9525870490552,476508,85401,32219136,30024544,0.8450746515210815,0.4732067554134796,0.18719780923822865,512,0,1,1,3087.1241509477536,0.928551429762923,0.0080542826101313,577.9028779038462
512,1536,85.71951032444916,294031,63605,42446848,30765296,0.9736689230952902,0.0985211525950098,0.7109413155986593,512,0,1,1,812.8700150408533,0.6954246494246196,0.0924742597691377,577.9028779038462
512,2048,58.33366012815562,284476,66189,60366848,48675672,1.0941485536630546,0.1897372909867765,0.9113644878028676,512,0,1,1,634.1073035411594,0.7032079229039415,0.0949918608245629,577.9028779038462
512,256,417.6276906973232,357787,59748,32743424,29951752,0.66415956674219,0.1140784576343608,0.25954304947958057,512,0,1,1,2226.61665978966,0.9202194207430924,0.0090301981433332,577.9028779038462
512,512,278.4338805731897,353068,26723,32481280,29816896,0.7118747929552438,0.0971531987082043,0.3211677311122372,512,0,1,1,1799.3802674462609,0.9210108354145408,0.0171511885255028,577.9028779038462
