cpu,memory,duration_std,userDiff,sysDiff,heapTotal,heapUsed,avg_cpu_util,cpu_util_std,slo_preservation,total_cpu_shares,cpu_shares_others,num_containers,arrival_rate,latency,memory_util,memory_util_std,slo_duration
1024,1024,137.56237393463334,10149,347,30531584,24815424,0.16302529317530157,0.0942538931343481,1.0,1024,0,1,1,307.0527470881068,0.6395422863878395,0.0686391844723797,334.7867246153846
1024,128,112.80265120457535,8427,4587,24887296,21276328,0.04662236938704718,0.0082920421272421,0.8288219127940513,1024,0,1,1,403.9308317594804,0.8434867960688288,0.0110859921249166,334.7867246153846
1024,1536,159.02476661026353,9015,183,38526976,25925464,0.12507939955358002,0.1203532899790944,0.9288459604938939,1024,0,1,1,360.43298765854456,0.5501293149255065,0.0847110325205192,334.7867246153846
1024,2048,133.48498856945065,22797,7752,34574336,14791728,0.08371357154482921,0.0427350635897758,0.9382925801866256,1024,0,1,1,356.8041905956411,0.521226195831168,0.0487697634881285,334.7867246153846
1024,256,138.52369664714033,10679,420,24887296,21175600,0.04656036143064468,0.0132048829864253,0.8502401897039443,1024,0,1,1,393.7554689480842,0.8477327696491619,0.0161840803885343,334.7867246153846
1024,512,145.95373129088784,9091,0,24887296,21177352,0.11637228445144869,0.0624459896275779,1.0,1024,0,1,1,321.6114290861502,0.8611806114612959,0.017974694113469,334.7867246153846
128,1024,104.7623067373929,10736,28,30531584,24813456,0.16022699927632247,0.1457143201101752,1.0,128,0,1,1,325.79066520958986,0.640158042717509,0.0666537439224346,334.7867246153846
128,128,238.30741293791425,10170,1328,24887296,21211744,0.04435530058603691,0.0108003582303537,0.7724379128291432,128,0,1,1,433.4157076640497,0.8404923883118814,0.011535601536473,334.7867246153846
128,1536,146.5871937150915,6927,675,38526976,25851392,0.13625933903479587,0.1043753283952653,0.9871005747760456,128,0,1,1,339.16171580726854,0.5796567291121748,0.1085879566627806,334.7867246153846
128,2048,131.970569537609,7065,20,39051264,24881160,0.07781251192665234,0.0373986788195323,0.9162384904592051,128,0,1,1,365.39255674316246,0.5943589192676584,0.0949425603730097,334.7867246153846
128,256,158.88966947936476,6973,4472,24363008,20886720,0.09397550468475173,0.0526024509395965,0.8980438209985779,128,0,1,1,372.79553267581,0.8531169786859072,0.0144401542499345,334.7867246153846
128,512,126.61213168968833,7197,3753,24625152,20859560,0.14015685525309388,0.0904426506097214,0.8750813560873777,128,0,1,1,382.577828091627,0.8612410155992768,0.019542448970936,334.7867246153846
1536,1024,136.188812333892,10035,452,25530368,14668688,0.10275547000680588,0.0671098404975364,0.9099273874464322,1536,0,1,1,367.9268579385338,0.6424150206062933,0.0603641651047485,334.7867246153846
1536,128,213.5372500221749,5394,4450,25149440,21116920,0.05019912303369614,0.0206534968207047,0.7988754314339559,1536,0,1,1,419.0725004703839,0.8433373229614612,0.0125947465247709,334.7867246153846
1536,1536,138.36554206718756,9873,319,34574336,14800192,0.14483381215416616,0.1579660979537486,1.0,1536,0,1,1,319.11333274698916,0.6155325346411572,0.097103148277615,334.7867246153846
1536,2048,132.79538176343678,3976,3991,34574336,14810784,0.09884272577070027,0.0627922841701899,1.0,1536,0,1,1,314.84129775165263,0.5205129145502607,0.0499366396136435,334.7867246153846
1536,256,133.77839783935318,12344,684,25149440,20855480,0.0885337639834361,0.0875070882495993,1.0,1536,0,1,1,324.9595486798732,0.8467352527254833,0.0184758404825909,334.7867246153846
1536,512,148.58093451749937,7226,4635,24363008,20846488,0.06774960373914196,0.0328718828508703,0.9388998663439281,1536,0,1,1,356.5734074700028,0.8641029811243529,0.0194652343867446,334.7867246153846
2048,1024,104.6824806276705,10961,33,26316800,14659416,0.11076687212831578,0.0593338523597891,0.927026969232597,2048,0,1,1,361.1402210795709,0.6335986287282364,0.0416273473157114,334.7867246153846
2048,128,168.16005461184864,8582,3991,25149440,20899432,0.06721309966285854,0.0268814555792821,0.9746585733738738,2048,0,1,1,343.4912837800096,0.8403515511938368,0.0122925820688047,334.7867246153846
2048,1536,143.95263047082014,6529,3847,39051264,24834824,0.12866052797034605,0.1173427393460006,1.0,2048,0,1,1,308.5525190874575,0.637296843898453,0.0953816968807878,334.7867246153846
2048,2048,154.45745412420465,16511,12018,34574336,14790272,0.12924776208329544,0.0714958762192584,1.0,2048,0,1,1,304.29754062786753,0.590589923137595,0.0978885506104223,334.7867246153846
2048,256,139.44476544076812,13469,1078,24887296,21147128,0.05955133063106122,0.0252641345520784,1.0,2048,0,1,1,323.25633161346417,0.8468486775844023,0.0155855756332556,334.7867246153846
2048,512,164.30587898198584,7489,3333,24625152,20844376,0.0813419391998571,0.0694140710564686,0.8410905933315495,2048,0,1,1,398.0388406072865,0.8576556834947157,0.0200100388408271,334.7867246153846
256,1024,157.89356233958253,23991,2633,25792512,14650952,0.1554388247544818,0.0833948483726461,1.0,256,0,1,1,329.18858302253886,0.637497923529585,0.0405052357699904,334.7867246153846
256,128,165.79853070929198,1447,8171,24887296,21196200,0.06664727846991944,0.024430205383658,0.9781203448727108,256,0,1,1,342.2755966280945,0.8442108678594,0.0149355801631178,334.7867246153846
256,1536,155.06950957949678,9256,257,38526976,25376168,0.12825163855017446,0.0977999722173472,0.9820093292747499,256,0,1,1,340.92010598579236,0.618443132171303,0.1092157720131526,334.7867246153846
256,2048,137.98448989402507,7464,18,39051264,24654728,0.0986646270763196,0.0631295338023603,1.0,256,0,1,1,328.8687970389623,0.6439157604097351,0.0975883626462176,334.7867246153846
256,256,149.14871440326246,3606,7081,24887296,21179312,0.08330755493177917,0.0626823770375981,0.8479437894855794,256,0,1,1,394.8218369739923,0.8543973401816378,0.0129041994333258,334.7867246153846
256,512,160.3044246436765,10440,409,24887296,21212688,0.13697515549651765,0.0907345367979853,0.9576141775747766,256,0,1,1,349.6050209524413,0.8626580586276299,0.020349879786273,334.7867246153846
512,1024,127.74865539476303,9058,136,25792512,14665640,0.21094901031533303,0.1639117153901133,1.0,512,0,1,1,265.4890696292783,0.6419195202569165,0.0604993734759793,334.7867246153846
512,128,183.8584889487456,10543,26,24887296,21193216,0.06695254973931505,0.0218067025006484,0.9454995195261673,512,0,1,1,354.08449999335954,0.8399952411098099,0.0119085095449357,334.7867246153846
512,1536,158.99791387864647,8748,151,38264832,25995528,0.12288214177151337,0.0857996653837763,0.9480982579989784,512,0,1,1,353.1139539502723,0.5638740960048576,0.0916478767460297,334.7867246153846
512,2048,144.41055535811535,9410,327,38789120,24720680,0.14065250276173116,0.1030331345315911,1.0,512,0,1,1,296.6339571595348,0.645048869901095,0.0965417867991377,334.7867246153846
512,256,125.83282480435592,11392,2380,25149440,20875920,0.07642796655862368,0.0516015245836887,0.7679985977851107,512,0,1,1,435.921010247807,0.8526660515340444,0.0132206286927477,334.7867246153846
512,512,130.96671339044593,6522,3828,25149440,20962256,0.11394948083566472,0.0853375745904909,0.9402195014378404,512,0,1,1,356.0729426515921,0.8567444557212518,0.0152949674693549,334.7867246153846
