cpu,memory,duration_std,userDiff,sysDiff,heapTotal,heapUsed,avg_cpu_util,cpu_util_std,slo_preservation,total_cpu_shares,cpu_shares_others,num_containers,arrival_rate,latency,memory_util,memory_util_std,slo_duration
1024,1024,89.70360908387345,501500,69076,53641216,34884712,1.0681134185949652,0.1486453021611474,0.6446266641332278,1024,0,1,1,670.5813212428909,0.7873748641154651,0.0910732242058493,432.2746001428572
1024,128,225.2088386320681,514854,107595,45744128,40086984,0.9157375667922744,0.1805554238283882,0.44381761623364735,1024,0,1,1,973.991532403001,0.8632644731675747,0.0540946390351725,432.2746001428572
1024,1536,67.1428603433545,377953,91384,73445376,55197832,1.2642293875556265,0.2058224733580628,0.9247138116974785,1024,0,1,1,467.4685234227652,0.7012605268254879,0.109514046637925,432.2746001428572
1024,2048,38.059779867508674,471583,48328,73969664,55266424,1.4582632709473045,0.2416255358738997,1.0,1024,0,1,1,341.2398808992883,0.6880702509486133,0.1354775122118499,432.2746001428572
1024,256,72.39288436011492,535799,89538,45481984,41405560,1.103280495950905,0.1406642559566756,0.5546199000675469,1024,0,1,1,779.4069417455282,0.8679372836459356,0.0463900643758405,432.2746001428572
1024,512,104.07227103098064,453578,72420,32772096,27742080,0.9100683236768278,0.1284517235430957,0.4408089284701431,1024,0,1,1,980.6393932243958,0.8917807457132889,0.053100560739808,432.2746001428572
128,1024,125.93479993777738,479225,67771,58040320,51987416,0.8872262462860081,0.1418110536539061,0.5085850650478057,128,0,1,1,849.9553562435509,0.7961576639916261,0.080025139814179,432.2746001428572
128,128,424.8814756922208,662279,81811,47579136,41461240,0.8557845825258028,0.3215713347352067,0.31435935080118677,128,0,1,1,1375.096999790678,0.8650333445062381,0.0354804513072175,432.2746001428572
128,1536,98.51275138699006,364523,61131,63086592,49218696,1.0176561448580401,0.1739612232922318,0.67064616184268,128,0,1,1,644.5643391965912,0.6843383523506954,0.0883060797130228,432.2746001428572
128,2048,57.73622160908416,467550,84765,82452480,64106616,1.2403268144741553,0.1801237157485846,0.9719470135123289,128,0,1,1,444.7511995337531,0.6805049759411872,0.1175360605829687,432.2746001428572
128,256,119.08506973762252,571308,73225,55201792,47044384,0.9147149956179308,0.0807986528065362,0.4244302389319797,128,0,1,1,1018.4820978604558,0.8844208835491036,0.0636169255430026,432.2746001428572
128,512,102.20016820128446,472401,78083,40886272,37485056,0.8598344916353973,0.0854225391514745,0.4141691625662534,128,0,1,1,1043.7150787963542,0.88976090281947,0.0465354379958257,432.2746001428572
1536,1024,101.28197440718338,530204,88169,73936896,54018400,1.0565079043040657,0.1349488603448777,0.641975279128701,1536,0,1,1,673.3508504089863,0.7748054796226592,0.0756828292682681,432.2746001428572
1536,128,185.22393573074825,554211,90118,39735296,33789840,0.906628752589744,0.1148939619575517,0.39723078594610767,1536,0,1,1,1088.2202876428212,0.8588389465068706,0.0581960812873912,432.2746001428572
1536,1536,55.52793127271129,370900,70026,73969664,55020912,1.227874952553324,0.1395389923552649,0.9005435324617193,1536,0,1,1,480.01521809966755,0.6913378085091382,0.1080421232995638,432.2746001428572
1536,2048,79.44981019798345,430300,93471,82714624,64168232,1.4175066421737244,0.2007379919671358,1.0,1536,0,1,1,388.840262397835,0.7087264983632999,0.1172080055135591,432.2746001428572
1536,256,57.0107347820313,438809,38246,42459136,37553400,1.262509499094473,0.2077142905418596,0.6734194420849262,1536,0,1,1,641.9098902231311,0.8604589711249421,0.0605203687477035,432.2746001428572
1536,512,120.80666059503892,473269,53846,54865920,51772568,1.0737546019866584,0.088899716465041,0.5698513604819275,1536,0,1,1,758.5743057229508,0.8819878205281185,0.0551475413120239,432.2746001428572
2048,1024,61.67660092090429,437480,55990,49643520,37645312,1.0669420280091728,0.1869309876225247,0.6593465756440904,2048,0,1,1,655.6105940500028,0.7533954936521117,0.0857003190755172,432.2746001428572
2048,128,270.8432168669962,471588,31705,45604864,37551504,0.8819087862446641,0.186561140724633,0.42794284369077007,2048,0,1,1,1010.1222780470591,0.847158931684997,0.0610237586902895,432.2746001428572
2048,1536,75.84084928394444,495262,96693,82452480,64282536,1.2954724851033879,0.248602568789549,0.9489903517771561,2048,0,1,1,455.5100052738627,0.7116431569779996,0.1061674805813359,432.2746001428572
2048,2048,37.63228539101138,380986,88257,63610880,49674888,1.4218973953009457,0.1955700701858344,1.0,2048,0,1,1,348.42338417206815,0.7041255048386208,0.099396178044264,432.2746001428572
2048,256,75.08010957466458,463905,97741,85614592,82622992,1.2475976638310289,0.1485242370818189,0.6766485943102136,2048,0,1,1,638.8465205983688,0.871410294395492,0.050952402287023,432.2746001428572
2048,512,77.38096508159123,519398,85528,42303488,36071800,1.108290558397764,0.1225171195744485,0.5998826268118409,2048,0,1,1,720.5986318360981,0.8737332894897458,0.0610231435809296,432.2746001428572
256,1024,70.65165054681697,593343,98278,47833088,36298256,1.068857272935978,0.0967431665001543,0.6107122963360924,256,0,1,1,707.8203644109437,0.7424376131265163,0.0786220630182735,432.2746001428572
256,128,273.66249161314346,462696,93867,47439872,37509736,0.9989495566493654,0.3426374330912929,0.4726983179980538,256,0,1,1,914.4830512061119,0.8413074584361403,0.0533755664901923,432.2746001428572
256,1536,57.67921072906194,437169,77308,71380992,52802592,1.2297216424346582,0.1290574918234301,0.8175767091323581,256,0,1,1,528.7266568559696,0.6863823621079322,0.1006662475348505,432.2746001428572
256,2048,35.91230621575858,353358,59760,49184768,34667312,1.4398685195386578,0.168119284053306,1.0,256,0,1,1,345.19523055886725,0.7188605660028019,0.0993020552189477,432.2746001428572
256,256,96.15204638793873,438798,51152,40886272,37581272,1.062098669058845,0.11943270881114,0.5380235261993006,256,0,1,1,803.4492528542874,0.8801977018072217,0.0551231579932434,432.2746001428572
256,512,82.84060007689577,455588,77042,42274816,37378056,1.062841449839494,0.0981966200055546,0.5302517846507634,256,0,1,1,815.2251678465612,0.8871410256784461,0.0381650065403633,432.2746001428572
512,1024,104.18746928805832,557939,85491,59695104,47426112,1.067429566230723,0.1819928417724762,0.6511757058170634,512,0,1,1,663.8371122897777,0.7470639670742338,0.0854579394769658,432.2746001428572
512,128,374.6272050940621,652400,116059,54788096,49279032,0.8953426026237082,0.2279576567329665,0.3911692080098121,512,0,1,1,1105.0834045506313,0.8800093833958123,0.0473728235805949,432.2746001428572
512,1536,64.67903578294815,501985,103473,67768320,42661056,1.2427431421573387,0.1728471682467758,0.9303756304057655,512,0,1,1,464.62373477509175,0.6905029530459957,0.1172562584307867,432.2746001428572
512,2048,36.04051845349486,372632,48161,63873024,49348920,1.4334430286671436,0.1988899286863359,1.0,512,0,1,1,331.0072152427465,0.6681287061097401,0.1106183661509029,432.2746001428572
512,256,78.23727826178973,509072,68751,33558528,27703832,1.0514653305501365,0.1421690911667474,0.5489724941519343,512,0,1,1,787.4248796574868,0.8855408526695179,0.062098472811971,432.2746001428572
512,512,104.70064199578565,569717,56216,30466048,24596656,1.0516099171671414,0.1625341013188361,0.5309081451129021,512,0,1,1,814.217306933444,0.8688260488994037,0.0580522583212765,432.2746001428572
