cpu,memory,duration_std,userDiff,sysDiff,heapTotal,heapUsed,avg_cpu_util,cpu_util_std,slo_preservation,total_cpu_shares,cpu_shares_others,num_containers,arrival_rate,latency,memory_util,memory_util_std,slo_duration
1024,1024,89.70360908387345,501500,69076,53641216,34884712,1.0502297342180469,0.1486453021611474,0.4753751415976013,1024,0,1,1,909.3336237357819,0.7873748641154651,0.0910732242058493,432.2746001428572
1024,128,225.2088386320681,514854,107595,45744128,40086984,0.9354432478399575,0.1805554238283882,0.34002606813909964,1024,0,1,1,1271.298411056002,0.8632644731675747,0.0540946390351725,432.2746001428572
1024,1536,67.1428603433545,377953,91384,73445376,55197832,1.1858924768400583,0.2058224733580628,0.650561023566945,1024,0,1,1,664.4643384455303,0.7012605268254879,0.109514046637925,432.2746001428572
1024,2048,38.059779867508674,471583,48328,73969664,55266424,1.3083689161653738,0.2416255358738997,0.8524236289662276,1024,0,1,1,507.11240919857653,0.6880702509486133,0.1354775122118499,432.2746001428572
1024,256,72.39288436011492,535799,89538,45481984,41405560,1.0755106769226392,0.1406642559566756,0.40549499402844347,1024,0,1,1,1066.0417674910564,0.8679372836459356,0.0463900643758405,432.2746001428572
1024,512,104.07227103098064,453578,72420,32772096,27742080,0.9309999195318881,0.1284517235430957,0.33821065923648286,1024,0,1,1,1278.1223427987916,0.8917807457132889,0.053100560739808,432.2746001428572
128,1024,125.93479993777738,479225,67771,58040320,51987416,0.9129658940059844,0.1418110536539061,0.39250486040044025,128,0,1,1,1101.3229229871017,0.7961576639916261,0.080025139814179,432.2746001428572
128,128,424.8814756922208,662279,81811,47579136,41461240,0.887792939890024,0.3215713347352067,0.24458784774376055,128,0,1,1,1767.3592704234609,0.8650333445062381,0.0354804513072175,432.2746001428572
128,1536,98.51275138699006,364523,61131,63086592,49218696,1.0131839143680608,0.1739612232922318,0.5007741859897595,128,0,1,1,863.2126260431821,0.6843383523506954,0.0883060797130228,432.2746001428572
128,2048,57.73622160908416,467550,84765,82452480,64106616,1.1700294517303322,0.1801237157485846,0.687645355679638,128,0,1,1,628.6301457175061,0.6805049759411872,0.1175360605829687,432.2746001428572
128,256,119.08506973762252,571308,73225,55201792,47044384,0.9346427483398898,0.0807986528065362,0.3252575776834942,128,0,1,1,1329.022380420912,0.8844208835491036,0.0636169255430026,432.2746001428572
128,512,102.20016820128446,472401,78083,40886272,37485056,0.8910584052230578,0.0854225391514745,0.32190693419403965,128,0,1,1,1342.855820192708,0.88976090281947,0.0465354379958257,432.2746001428572
1536,1024,101.28197440718338,530204,88169,73936896,54018400,1.041790554070492,0.1349488603448777,0.474774333692939,1536,0,1,1,910.4843490179725,0.7748054796226592,0.0756828292682681,432.2746001428572
1536,128,185.22393573074825,554211,90118,39735296,33789840,0.9282978342784485,0.1148939619575517,0.30504366637048325,1536,0,1,1,1417.0908882856422,0.8588389465068706,0.0581960812873912,432.2746001428572
1536,1536,55.52793127271129,370900,70026,73969664,55020912,1.161694672934239,0.1395389923552649,0.6390043763601788,1536,0,1,1,676.4814391493352,0.6913378085091382,0.1080421232995638,432.2746001428572
1536,2048,79.44981019798345,430300,93471,82714624,64168232,1.2835354936568573,0.2007379919671358,0.7549749356204298,1536,0,1,1,572.56814729567,0.7087264983632999,0.1172080055135591,432.2746001428572
1536,256,57.0107347820313,438809,38246,42459136,37553400,1.18475700698162,0.2077142905418596,0.4739598414229838,1536,0,1,1,912.0490015462623,0.8604589711249421,0.0605203687477035,432.2746001428572
1536,512,120.80666059503892,473269,53846,54865920,51772568,1.0543144660338821,0.088899716465041,0.41965072727063135,1536,0,1,1,1030.0818562959018,0.8819878205281185,0.0551475413120239,432.2746001428572
2048,1024,61.67660092090429,437480,55990,49643520,37645312,1.0493801196683952,0.1869309876225247,0.4863702785310049,2048,0,1,1,888.7767596500056,0.7533954936521117,0.0857003190755172,432.2746001428572
2048,128,270.8432168669962,471588,31705,45604864,37551504,0.9087372576807169,0.186561140724633,0.33072094213586056,2048,0,1,1,1307.067515444118,0.847158931684997,0.0610237586902895,432.2746001428572
2048,1536,75.84084928394444,495262,96693,82452480,64282536,1.206360873776806,0.248602568789549,0.662784144283244,2048,0,1,1,652.2102314477255,0.7116431569779996,0.1061674805813359,432.2746001428572
2048,2048,37.63228539101138,380986,88257,63610880,49674888,1.2862328255847502,0.1955700701858344,0.8417149031118374,2048,0,1,1,513.5641516441364,0.7041255048386208,0.099396178044264,432.2746001428572
2048,256,75.08010957466458,463905,97741,85614592,82622992,1.1748736698435653,0.1485242370818189,0.47790444001228105,2048,0,1,1,904.5209961467375,0.871410294395492,0.050952402287023,432.2746001428572
2048,512,77.38096508159123,519398,85528,42303488,36071800,1.0790770931547724,0.1225171195744485,0.4380527265182983,2048,0,1,1,986.8095185221961,0.8737332894897458,0.0610231435809296,432.2746001428572
256,1024,70.65165054681697,593343,98278,47833088,36298256,1.0507690009629846,0.0967431665001543,0.4502829089618709,256,0,1,1,960.0066792218876,0.7424376131265163,0.0786220630182735,432.2746001428572
256,128,273.66249161314346,462696,93867,47439872,37509736,0.9992119605393212,0.3426374330912929,0.35461686473043513,256,0,1,1,1218.9905307280133,0.8413074584361403,0.0533755664901923,432.2746001428572
256,1536,57.67921072906194,437169,77308,71380992,52802592,1.1629338726194014,0.1290574918234301,0.5798797970036783,256,0,1,1,745.4555278119393,0.6863823621079322,0.1006662475348505,432.2746001428572
256,2048,35.91230621575858,353358,59760,49184768,34667312,1.297217260558223,0.168119284053306,0.846147501859798,256,0,1,1,510.8738124177346,0.7188605660028019,0.0993020552189477,432.2746001428572
256,256,96.15204638793873,438798,51152,40886272,37581272,1.045862009358748,0.11943270881114,0.3973489346510307,256,0,1,1,1087.8967135585747,0.8801977018072217,0.0551231579932434,432.2746001428572
256,512,82.84060007689577,455588,77042,42274816,37378056,1.0464020936691807,0.0981966200055546,0.3915376402431688,256,0,1,1,1104.0435342931225,0.8871410256784461,0.0381650065403633,432.2746001428572
512,1024,104.18746928805832,557939,85491,59695104,47426112,1.0497337926565815,0.1819928417724762,0.4802854199787703,512,0,1,1,900.0368992295555,0.7470639670742338,0.0854579394769658,432.2746001428572
512,128,374.6272050940621,652400,116059,54788096,49279032,0.9193980545081196,0.2279576567329665,0.30125915580288626,512,0,1,1,1434.8928217328414,0.8800093833958123,0.0473728235805949,432.2746001428572
512,1536,64.67903578294815,501985,103473,67768320,42661056,1.171641176963102,0.1728471682467758,0.6578590307491656,512,0,1,1,657.0930548001836,0.6905029530459957,0.1172562584307867,432.2746001428572
512,2048,36.04051845349486,372632,48161,63873024,49348920,1.293300055418183,0.1988899286863359,0.8836949637130592,512,0,1,1,489.16721028549307,0.6681287061097401,0.1106183661509029,432.2746001428572
512,256,78.23727826178973,509072,68751,33558528,27703832,1.0381086789725642,0.1421690911667474,0.40649921647784965,512,0,1,1,1063.4082001149739,0.8855408526695179,0.062098472811971,432.2746001428572
512,512,104.70064199578565,569717,56216,30466048,24596656,1.038214377658963,0.1625341013188361,0.3931090277447856,512,0,1,1,1099.6303051668879,0.8688260488994037,0.0580522583212765,432.2746001428572
