cpu,memory,duration_std,userDiff,sysDiff,heapTotal,heapUsed,avg_cpu_util,cpu_util_std,slo_preservation,total_cpu_shares,cpu_shares_others,num_containers,arrival_rate,latency,memory_util,memory_util_std,slo_duration
1024,1024,125.38852578500614,62510,8628,26054656,14475984,0.1936992201871001,0.1545146395443585,0.9947302749294624,1024,0,1,1,313.9802308926935,0.6501551997512266,0.0722660351029217,312.3256413983051
1024,128,123.61997989093882,21340,4265,28565504,24135704,0.05812853863278219,0.0212873186141422,0.8979076774929853,1024,0,1,1,347.8371432020026,0.8650061021321518,0.0100072883937308,312.3256413983051
1024,1536,139.72713710967764,5195,4233,41943040,28921816,0.16710819868160853,0.2273319199659376,0.9559764260136214,1024,0,1,1,326.7085180130319,0.5209707613789785,0.0801462325787643,312.3256413983051
1024,2048,131.52749674943405,16551,11056,34574336,14738928,0.13364431269075935,0.118534197640743,1.0,1024,0,1,1,291.46173913407563,0.5169725313018303,0.0481145193155222,312.3256413983051
1024,256,157.73339439099087,12455,150,28041216,24502952,0.06878388908863696,0.03214055526558,0.9909189967301139,1024,0,1,1,315.18786341661985,0.8685766717520803,0.0117395459691681,312.3256413983051
1024,512,150.53630958550167,7943,3927,27516928,24173880,0.1295921102955148,0.0778308294814185,0.9792029479449584,1024,0,1,1,318.9590493510862,0.8731761848579017,0.0181936611684865,312.3256413983051
128,1024,162.61465532569648,10972,30,33947648,28191888,0.23197773226871177,0.271353620833321,1.0,128,0,1,1,295.2724427032475,0.6689896799567311,0.0862294066650179,312.3256413983051
128,128,300.2924479341476,5429,7445,28827648,24211968,0.04928594330305555,0.0256099082978237,0.5738249086534142,128,0,1,1,544.2873543625611,0.8659339717216289,0.00976579909667,312.3256413983051
128,1536,136.07753289920458,8920,218,41943040,29244568,0.1897875537307687,0.2187730744703608,1.0,128,0,1,1,281.8180728832079,0.5194019124784802,0.0724806588258869,312.3256413983051
128,2048,130.54145539567793,6769,552,42467328,27770536,0.09196100415706235,0.0539517425570927,0.7999368387259236,128,0,1,1,390.4378774401149,0.5198210951027742,0.0530737556485543,312.3256413983051
128,256,152.26672310778127,9444,33,27779072,24243000,0.09288071057532861,0.056435079123564,0.868010366082295,128,0,1,1,359.817870387845,0.8679132956496298,0.008050561149582,312.3256413983051
128,512,146.9940723386196,6122,4635,28565504,24285448,0.09904914377703872,0.0503729538355506,0.9675688437228208,128,0,1,1,322.79423156764744,0.8779238379125891,0.0146398222807286,312.3256413983051
1536,1024,155.41882784714886,8538,88,33947648,28131696,0.1526502378327843,0.1289390742671909,0.9601735575265101,1536,0,1,1,325.28040264187536,0.662158371315394,0.085684012703773,312.3256413983051
1536,128,215.77634499760893,10898,596,28041216,24106848,0.06036665987290487,0.0284081154096539,0.7897679935821281,1536,0,1,1,395.4650529476367,0.8634778499943354,0.009902740282947,312.3256413983051
1536,1536,168.09209442531943,37714,2640,42467328,27998248,0.16654411348189513,0.0971578151898108,1.0,1536,0,1,1,305.64370353202116,0.5145086143566624,0.0670881026420324,312.3256413983051
1536,2048,123.66169701153594,22193,8477,34312192,14738800,0.09392251884755322,0.0451319962351128,0.9980487783156943,1536,0,1,1,312.9362493939278,0.5247499897452583,0.0524271442299273,312.3256413983051
1536,256,110.62669577192224,2685,8364,28565504,24128640,0.06200771206737729,0.0227977008855139,1.0,1536,0,1,1,294.10219226886403,0.8666056795145888,0.0115991663753382,312.3256413983051
1536,512,130.88514458831827,10895,29,28565504,24472152,0.11677170341225931,0.1056575983419483,0.982879449627565,1536,0,1,1,317.76596968901146,0.8738445641934763,0.0164332096291789,312.3256413983051
2048,1024,150.8283672654213,10345,25,33947648,28140552,0.18589115811485674,0.1517443465665747,1.0,2048,0,1,1,298.5101398342736,0.6467611731997165,0.0693119917181031,312.3256413983051
2048,128,149.797696616338,9883,33,28041216,24452376,0.05211430134301018,0.0178207147446389,0.8622808255325476,2048,0,1,1,362.20872846779554,0.8642546675112908,0.0111968271497814,312.3256413983051
2048,1536,151.9172802494447,6923,3834,42467328,28229488,0.2041311397395492,0.2070371003395152,0.9512792171458577,2048,0,1,1,328.3217332713123,0.5046020316222088,0.0641058132761412,312.3256413983051
2048,2048,154.39769872974944,5681,4333,42467328,27983160,0.1662008402399439,0.1954512926281459,0.9407536703287624,2048,0,1,1,331.9951345915638,0.5918425051558887,0.1112932786450511,312.3256413983051
2048,256,143.3965237320449,15824,1778,28565504,24203440,0.07363807925182252,0.0398266102449816,0.9008276169119486,2048,0,1,1,346.7096651287872,0.8675467341062688,0.0131454805456295,312.3256413983051
2048,512,140.15145594560994,7944,3924,28565504,24260528,0.13134335147430864,0.0930079310663412,0.9972501972718741,2048,0,1,1,313.1868434347952,0.8756034877964604,0.0133433755355941,312.3256413983051
256,1024,129.1124682452021,9885,36,33947648,28148128,0.17752090634395873,0.0984604945823319,1.0,256,0,1,1,270.8020821900709,0.6535740435445881,0.078940395768266,312.3256413983051
256,128,128.86021953840094,3876,6471,27779072,24139008,0.053072145389594316,0.0207555233115091,0.8427367810373572,256,0,1,1,370.6087694592509,0.8649311980471466,0.0096751756784543,312.3256413983051
256,1536,149.6932951759072,7764,32,42991616,27812856,0.17456697941006652,0.1529237677436761,0.9497992872036884,256,0,1,1,328.8333078432028,0.5062634704931791,0.0580974758419775,312.3256413983051
256,2048,128.5185263447935,8867,189,42467328,27865232,0.09715831467170617,0.0716198356468744,0.8444586606141563,256,0,1,1,369.85308572850386,0.525005952308857,0.0528030273577558,312.3256413983051
256,256,143.26943746020473,3773,7128,27779072,24568080,0.0837793864394207,0.0629717153274532,0.7685523462811165,256,0,1,1,406.38174212803,0.8711916269739732,0.0092631109068383,312.3256413983051
256,512,131.08140851203063,28893,5746,28827648,24077680,0.1210720411628764,0.0704083486196842,0.9531538919675521,256,0,1,1,327.67598603997254,0.8711040724254,0.0149427496286772,312.3256413983051
512,1024,137.0074193918692,5514,4347,33947648,28137512,0.1955733042306391,0.2186241103315415,0.998509602442665,512,0,1,1,312.7918255710906,0.6584844711184976,0.0781076648812189,312.3256413983051
512,128,122.07965222202148,6716,4558,28041216,24551496,0.0517704848100407,0.0110486330453478,0.8971963881210583,512,0,1,1,348.11290541682735,0.8655192557809118,0.009519949047088,312.3256413983051
512,1536,142.60610295598528,18725,13512,34574336,14736448,0.17615255479378014,0.1866168768866432,1.0,512,0,1,1,302.1017272367915,0.5179639607968117,0.0665108488186443,312.3256413983051
512,2048,140.00531895697827,19978,7109,34312192,14739648,0.12017619251332398,0.0799343693809373,0.9739424703694651,512,0,1,1,320.6818173560337,0.5268320618098571,0.0552297280655072,312.3256413983051
512,256,142.31148938487274,11227,32,28041216,24579720,0.08753568296124888,0.0491125089925869,0.8796517068734983,512,0,1,1,355.05602837785466,0.8628163547756514,0.0155460771656548,312.3256413983051
512,512,136.89025993461743,9533,256,28303360,24270440,0.16332954429508995,0.0908914045073051,1.0,512,0,1,1,249.42564636898481,0.8737418482127985,0.0168526979600025,312.3256413983051
