cpu,memory,duration_std,userDiff,sysDiff,heapTotal,heapUsed,avg_cpu_util,cpu_util_std,slo_preservation,total_cpu_shares,cpu_shares_others,num_containers,arrival_rate,latency,memory_util,memory_util_std,slo_duration
1024,1024,572.2824567903011,1919273,155778,44486656,37161520,1.1034041906634218,0.2247301149002964,1.0,1024,0,1,1,746.2359904428288,0.8271409519468665,0.0824053568454409,1053.6630758514852
1024,1536,364.9949074761891,1822192,174368,61657088,40348896,1.1354504581787284,0.2287834181531919,1.0,1024,0,1,1,507.8003095992599,0.7706627702572351,0.1130331412053356,1053.6630758514852
1024,2048,204.7989305855861,1491654,104427,85512192,40104720,1.3675598270881335,0.3330945166226868,1.0,1024,0,1,1,285.2281216036564,0.7120360319210043,0.1346247920812767,1053.6630758514852
1024,256,556.2193714572211,2074604,143473,51699712,49179272,1.0301072177551671,0.1744877921961492,1.0,1024,0,1,1,804.6848526921434,0.8939310437829698,0.0840782452388294,1053.6630758514852
1024,512,1287.5137008196075,2387232,236861,38322176,35794960,0.989011687459925,0.2418830811244901,0.6514032361614023,1024,0,1,1,1617.5281566921974,0.8632951716674776,0.0945891647359393,1053.6630758514852
128,1024,776.4025268011278,1976316,160746,59174912,52708584,0.8881808634668459,0.1284542578053797,1.0,128,0,1,1,1051.2603149077233,0.8164103876956776,0.0845281253466656,1053.6630758514852
128,1536,400.40630441319104,1759674,125718,87093248,53903176,1.2448234511890852,0.2520085245760599,1.0,128,0,1,1,481.8144518982541,0.739267678727358,0.1072671368292203,1053.6630758514852
128,2048,219.00246679543383,1544127,131366,83939328,41162784,1.3512851952795581,0.2677818737503717,1.0,128,0,1,1,272.5515338149668,0.7372882541637741,0.1166437720881167,1053.6630758514852
128,256,364.97428707213686,1767852,140135,37273600,34394376,1.2515860707511386,0.3771422676846481,1.0,128,0,1,1,537.5995257048836,0.9023688831442606,0.0718127816262855,1053.6630758514852
128,512,537.676548783437,1804413,185049,37011456,34352760,1.0809625772088014,0.1875548959726822,1.0,128,0,1,1,787.3576049665193,0.8936656779986446,0.0875995249014532,1053.6630758514852
1536,1024,569.1398603883381,2115206,159394,59699200,52244000,1.1066116696549093,0.2397718960071033,1.0,1536,0,1,1,753.268888237023,0.8285441741327579,0.1168521113041565,1053.6630758514852
1536,1536,370.14267674727887,1713744,152644,62181376,40648344,1.2419091785579062,0.384260100064995,1.0,1536,0,1,1,485.33955890862046,0.7301081941904991,0.1185360680560614,1053.6630758514852
1536,2048,201.49927240543445,1540101,115815,87347200,38509352,1.3834804234514666,0.3187510961693084,1.0,1536,0,1,1,270.9720088483251,0.7388410289057097,0.1257117386970686,1053.6630758514852
1536,256,577.6468548594725,1834422,186954,37535744,34827920,1.0213520279518091,0.1706767978454804,1.0,1536,0,1,1,867.1214174770544,0.9063931751699392,0.0810806562667562,1053.6630758514852
1536,512,792.0702775597141,2128266,159356,51961856,47772400,0.841838988504033,0.1284947664637403,0.8482575706825394,1536,0,1,1,1242.149922698207,0.9158726941059055,0.0713662121946803,1053.6630758514852
2048,1024,812.7233369917241,2027101,173870,44224512,36956624,0.8668469265803597,0.1815479124683333,0.9255442188383112,2048,0,1,1,1138.425430579623,0.8112644498086977,0.0944389689367436,1053.6630758514852
2048,1536,358.3606625525747,1543581,142243,80015360,55461944,1.1787395840825359,0.2527074148443727,1.0,2048,0,1,1,459.6987594869802,0.7685608484777917,0.0889262474910661,1053.6630758514852
2048,2048,218.11376632448767,1474416,178348,86036480,37161968,1.4341541412343048,0.3552236768625877,1.0,2048,0,1,1,269.7764029168148,0.6867432222041541,0.1242110425576685,1053.6630758514852
2048,256,563.9918965417831,1878923,169058,51961856,49136640,1.0716685898222669,0.1392579163481089,1.0,2048,0,1,1,834.1183414378704,0.902216602574803,0.0564905545264944,1053.6630758514852
2048,512,823.0337015833761,2092106,153128,37797888,35212584,0.8623130189617544,0.1303950624134736,0.8508986075745619,2048,0,1,1,1238.2945117925294,0.8959692107110124,0.0765171987121775,1053.6630758514852
256,1024,799.7629843377773,1962857,185317,55496704,34059160,0.8545669057494444,0.1436092655796131,0.9410272137092157,256,0,1,1,1119.6945853439206,0.8128802313572236,0.1013749651217879,1053.6630758514852
256,1536,362.3907729648441,1694710,141554,86306816,56307968,1.2625846930070956,0.291002787254096,1.0,256,0,1,1,464.169977928768,0.7463104942980688,0.1125279072101327,1053.6630758514852
256,2048,210.1464885227387,109095,28163,88403968,52942832,1.3896805471452898,0.3250422989882396,1.0,256,0,1,1,296.0040674879722,0.6810065325285197,0.1366326321540293,1053.6630758514852
256,256,388.293546955483,1752056,118276,52224000,50033496,1.243038444329077,0.2677625787995972,1.0,256,0,1,1,519.5591337235694,0.901505546993632,0.0895133967156682,1053.6630758514852
256,512,571.6890971482923,1860735,175884,46186496,33733888,1.0383955679293628,0.1975678261925266,1.0,256,0,1,1,802.8538956182828,0.8963019767769602,0.0767273824613603,1053.6630758514852
512,1024,546.0867266472035,1874231,168384,58650624,51230624,1.0228211603450865,0.1402513509123646,1.0,512,0,1,1,737.3135089815332,0.8022649929315326,0.1113049766622938,1053.6630758514852
512,1536,376.8267568575108,1742488,208000,61657088,38304848,1.2332186371514435,0.2161007759722212,1.0,512,0,1,1,491.89969572624193,0.7030258464051357,0.1157322948370468,1053.6630758514852
512,2048,227.64898986806452,1655973,175523,86298624,41007592,1.3796786530393057,0.3412024847322012,1.0,512,0,1,1,298.14592658188246,0.6979159085523319,0.1213784808882584,1053.6630758514852
512,256,587.6931455212037,1891316,125125,37011456,34018048,1.0744789043229879,0.1977633765436397,1.0,512,0,1,1,836.5709613187236,0.8956775992211172,0.0836035425608989,1053.6630758514852
512,512,780.8004381528385,1942486,160059,36225024,33928176,0.8766596370226984,0.1198383980492293,0.880062734085997,512,0,1,1,1197.2590532944037,0.9083740855989794,0.0718572330076933,1053.6630758514852
