cpu,memory,duration_std,userDiff,sysDiff,heapTotal,heapUsed,avg_cpu_util,cpu_util_std,slo_preservation,total_cpu_shares,cpu_shares_others,num_containers,arrival_rate,latency,memory_util,memory_util_std,slo_duration
1024,1024,118.56994716466494,270295,40601,39432192,30087720,0.5319732915360758,0.2346393649963483,1,1024,0,1,1,442.9917170500001,0.7292828131799907,0.13747397122770097,681.3047675833332
1024,128,933.7328446272322,278459,72766,32219136,30031976,0.3116990343768009,0.20820069190421872,0.41354920292411695,1024,0,1,1,1647.4575764285714,0.9159111530869344,0.011097277441663828,681.3047675833332
1024,1536,168.70325968917956,280684,29053,49262592,30669936,0.5642083511513942,0.29098737591034496,1,1024,0,1,1,392.4971961,0.6417707663219268,0.1317280029576676,681.3047675833332
1024,2048,143.5000032783865,222395,46516,50311168,30018168,0.49921907746674343,0.2847455071835451,1,1024,0,1,1,417.58675509999995,0.5937148205888784,0.17735643039841914,681.3047675833332
1024,256,349.76109945197896,260917,30146,32743424,29762184,0.31824198213931637,0.12120786625422839,0.6634105825912858,1024,0,1,1,1026.9730171052631,0.8933621500506398,0.07650962161171564,681.3047675833332
1024,512,225.6053102361786,308665,40166,33267712,30183688,0.41325757623241166,0.1021415507438837,0.951507128902595,1024,0,1,1,716.0269712,0.8723539778024019,0.07654337319020134,681.3047675833332
128,1024,117.10856996355537,259830,26455,37335040,30554136,0.4007150327686452,0.14758216868566323,1,128,0,1,1,552.47788635,0.7479076342337252,0.11035560732964715,681.3047675833332
128,128,1410.2166174429583,258058,34940,32481280,29790752,0.27682222133917456,0.19307038231147636,0.37971390204162103,128,0,1,1,1794.2581610000002,0.922088349617832,0.008709904869729179,681.3047675833332
128,1536,150.91628120588996,300461,25607,50049024,30061192,0.46291707541650123,0.23410182815792915,1,128,0,1,1,439.39749240000003,0.6081781189643776,0.17473146893893948,681.3047675833332
128,2048,111.55135823724963,269707,51395,49786880,30144720,0.49757243794074746,0.28931562736228117,1,128,0,1,1,381.21231190000003,0.5666832163145241,0.16461749964095113,681.3047675833332
128,256,361.78656967520976,271312,36169,32481280,29843824,0.24849551920336718,0.0861102149422442,0.5398999896719892,128,0,1,1,1261.9092065500001,0.8973124966504666,0.06624043746443696,681.3047675833332
128,512,190.86463557689422,246676,29862,31956992,30041232,0.40569049159188175,0.1436634609367497,0.9512501142575379,128,0,1,1,716.2204318,0.8719358400810504,0.0754866411583107,681.3047675833332
1536,1024,182.1339925896487,280966,72457,29200384,15528744,0.5753915763972202,0.2546658002809343,1,1536,0,1,1,439.2696852,0.719419848511397,0.15472201603232075,681.3047675833332
1536,128,993.0087902458523,341764,27582,33267712,29875512,0.24088493367879846,0.19739030950183553,0.34490828454659694,1536,0,1,1,1975.3215509999998,0.913261487064849,0.00918426190332167,681.3047675833332
1536,1536,132.244948585568,197962,38121,40079360,15715144,0.5890561315336493,0.39538606739779636,1,1536,0,1,1,346.80786105000004,0.5634847617321157,0.16846496303459849,681.3047675833332
1536,2048,159.67679944473502,193438,34635,37195776,15694944,0.5170308047613558,0.32020751247730306,1,1536,0,1,1,374.40200880000003,0.5738866308876543,0.16434094679317188,681.3047675833332
1536,256,261.2530759435298,237822,56048,33005568,29739120,0.31396399807594705,0.11191325023710197,0.7274135479338312,1536,0,1,1,936.6127006,0.9110816418779286,0.026705958474467228,681.3047675833332
1536,512,180.77991193014148,251052,33050,32481280,30240800,0.37815734678088586,0.07268784481968947,0.9332437554859843,1536,0,1,1,730.0394603000001,0.8931897024934787,0.051860169264616084,681.3047675833332
2048,1024,165.88302795510543,228096,28268,36286464,30407352,0.4533256774772932,0.17591636721578985,1,2048,0,1,1,508.3152665499999,0.721813428613969,0.1375658905349307,681.3047675833332
2048,128,555.2278968375691,303359,29710,33267712,30318952,0.3308569722238343,0.13888759266613826,0.5538417732924337,2048,0,1,1,1230.14333775,0.9192875814512743,0.009681489418013367,681.3047675833332
2048,1536,128.89361040492466,324275,49322,48738304,30044384,0.5980778605581696,0.3253224495811827,1,2048,0,1,1,367.32383020000003,0.6669489828622035,0.1643882034956091,681.3047675833332
2048,2048,140.90832833139748,203248,26780,37982208,15706304,0.5287946964873699,0.29676436091890457,1,2048,0,1,1,418.3447284,0.5835375031067442,0.17308549125943548,681.3047675833332
2048,256,297.7245533451442,258954,19177,32481280,30015344,0.3242647243555261,0.13992340024470457,0.7216828586895034,2048,0,1,1,944.0500898421053,0.9026250052173058,0.05136288641739796,681.3047675833332
2048,512,192.11291071307932,288567,37569,33005568,29886712,0.4204501941759628,0.15368488849454745,1,2048,0,1,1,667.0764959,0.8813069047006682,0.05396580745807595,681.3047675833332
256,1024,162.26524741481128,331917,67227,39170048,29909328,0.5365846618930576,0.2633477761253931,1,256,0,1,1,453.40746595,0.7433665291348988,0.13943780374057158,681.3047675833332
256,128,664.5605776960085,279579,49671,32743424,29840168,0.29514015345708955,0.12153318297185542,0.5126395904899013,256,0,1,1,1329.0131706999998,0.9179460724646619,0.009840404599536084,681.3047675833332
256,1536,149.04069340321848,273518,33700,49786880,29979344,0.5593790653094364,0.33185887238072437,1,256,0,1,1,385.781982,0.6358774248707784,0.1730110952358373,681.3047675833332
256,2048,123.84457621635073,279150,29660,50311168,30067408,0.48099507868008873,0.29973431866111394,1,256,0,1,1,397.3774855499999,0.6002782857734729,0.1723303384394207,681.3047675833332
256,256,262.5894347272037,248257,39505,32743424,30119768,0.263281910464251,0.07625831416438796,0.6071058766240996,256,0,1,1,1122.2173821999997,0.9008283057274415,0.05016923376136787,681.3047675833332
256,512,238.7003853343575,301606,30046,32743424,29972184,0.38073907565378196,0.12332603821820806,0.8881849196746627,256,0,1,1,767.07536065,0.8812501972249305,0.06165981829892902,681.3047675833332
512,1024,164.9722258265994,253043,37904,36810752,30201280,0.43568977039091017,0.14846071152302526,1,512,0,1,1,569.2156890999998,0.6752588078988206,0.13616328898445948,681.3047675833332
512,128,886.3461903318021,345524,52378,32481280,30485248,0.24506317786683204,0.12985525517361932,0.3701637591752403,512,0,1,1,1840.5496234999998,0.9225785445945873,0.009885646801867322,681.3047675833332
512,1536,172.64872235967766,307186,31566,50049024,30121200,0.5492200240366467,0.3055553922405322,1,512,0,1,1,419.5727524,0.6432969867655056,0.1641156750530202,681.3047675833332
512,2048,142.08281987306262,284754,33697,50049024,30066864,0.5337645324497095,0.28364738165851083,1,512,0,1,1,359.00256434999994,0.6416506785497741,0.15700971981188525,681.3047675833332
512,256,210.94578311528417,292652,43937,32481280,30169520,0.34530817985078277,0.08459292407064277,0.785767135076841,512,0,1,1,867.0568380500001,0.9064839740653403,0.03457257490178938,681.3047675833332
512,512,207.28250648547024,302324,33867,32743424,30199800,0.40879038352208824,0.1114657467686932,0.9358864131124841,512,0,1,1,727.97805165,0.8894132263416223,0.06597664162478224,681.3047675833332
