cpu,memory,duration_std,userDiff,sysDiff,heapTotal,heapUsed,avg_cpu_util,cpu_util_std,slo_preservation,total_cpu_shares,cpu_shares_others,num_containers,arrival_rate,latency,memory_util,memory_util_std,slo_duration
1024,1024,614.4283844077099,1909752,144702,59174912,51521184,1.0729462615038345,0.1437017299617244,0.5574486735079489,1024,0,1,1,776.9284924396413,0.8410473981300213,0.0852821042997187,433.0977575210086
1024,128,554.3210279561287,1977468,166359,51961856,49423320,1.13285310679752,0.2314918662388922,0.5335323288167167,1024,0,1,1,811.7554159867784,0.9214191732451136,0.049369260803437,433.0977575210086
1024,1536,369.25405225139417,1737801,130225,62181376,41447640,1.29898779749743,0.3056692620482601,0.9552147618596049,1024,0,1,1,453.4035431758374,0.7838689540549291,0.0848603497268704,433.0977575210086
1024,2048,229.72793468535252,1717033,149841,64540672,36050288,1.3509265203507697,0.369470973627266,1.0,1024,0,1,1,279.83130642435435,0.7876494786585384,0.0881499252144832,433.0977575210086
1024,256,573.5252685384391,2133695,185660,51961856,49739032,1.061305013593986,0.1886216048018225,0.5325000047020426,1024,0,1,1,813.3291149233811,0.8635006253189139,0.0912621139647768,433.0977575210086
1024,512,554.7573554403576,2157284,157674,48021504,34305696,1.097349806715508,0.1839857112880934,0.5254001566874151,1024,0,1,1,824.3198103549073,0.8919906505095018,0.0847429009430149,433.0977575210086
128,1024,576.9757883794622,1830090,141789,47632384,35416760,1.0764659519664364,0.2289914217933151,0.5773168912834997,128,0,1,1,750.1906908667422,0.8472489551172382,0.0518648845109039,433.0977575210086
128,128,738.9486218230236,1995214,160265,37011456,34331048,1.0442457468584845,0.3174227874013468,0.4138095553867781,128,0,1,1,1046.611301945897,0.9018957881648536,0.0861864191748628,433.0977575210086
128,1536,371.4124449390898,1616019,163755,68481024,56758008,1.3224155612456765,0.2989320537705067,0.9426238883903251,128,0,1,1,459.45977272079267,0.7510960439839101,0.1122726676520756,433.0977575210086
128,2048,219.8082235283928,1631312,172455,53006336,41695200,1.3787147674027382,0.3592542615344515,1.0,128,0,1,1,297.08848465756,0.8035149326454262,0.0751285275469062,433.0977575210086
128,256,379.24238746245953,1863185,126068,37011456,33426432,1.2094859107577878,0.1913387877586176,0.7316935412989186,128,0,1,1,591.911412463972,0.8610196349877391,0.1157626837940949,433.0977575210086
128,512,612.6203881352843,2134214,165215,38060032,35919360,1.112147753986958,0.1159661806033647,0.5304993692870481,128,0,1,1,816.3963665085219,0.9057850344876208,0.0655365175228341,433.0977575210086
1536,1024,600.1802798265048,2002468,160235,58912768,52722912,1.0375049643257324,0.1347671251946981,0.5764420590740125,1536,0,1,1,751.3292111556365,0.8117706020629509,0.1083291832950573,433.0977575210086
1536,128,874.7280621343082,1927031,165598,51961856,47628328,0.915271112361397,0.1911721695098882,0.3522987303807202,1536,0,1,1,1229.3480508799194,0.8980730712155541,0.0741087904666148,433.0977575210086
1536,1536,366.4918023140945,1697649,128422,73461760,57653176,1.3295042896545732,0.3333819885065182,0.9092659646529702,1536,0,1,1,476.3158133674391,0.748519110471372,0.0941519942102783,433.0977575210086
1536,2048,213.45484621707524,1679806,150170,64016384,36535848,1.329103125281389,0.2534009364897747,1.0,1536,0,1,1,282.6365793697058,0.7595269754679126,0.1068651774673709,433.0977575210086
1536,256,362.8101395786505,1682233,170789,51961856,49832568,1.2329495968994,0.299573323428408,0.8681178453229225,1536,0,1,1,498.8928172072133,0.8729060593982684,0.1126574458106823,433.0977575210086
1536,512,579.4969536351542,1932609,197575,37273600,34618336,1.0300890997968097,0.1405805947518393,0.5102375485592623,1536,0,1,1,848.8159265109549,0.9161596684004524,0.053114137706334,433.0977575210086
2048,1024,613.9421783920103,2220077,144836,59174912,51739992,1.0467093348415608,0.159260171651207,0.5861330669815679,2048,0,1,1,738.9068829563718,0.7758505650175413,0.1003728874094911,433.0977575210086
2048,128,857.8126895033557,2279683,223312,39108608,35339680,0.9804271753945268,0.2313536563463446,0.36066197509920395,2048,0,1,1,1200.8411959754849,0.901900063851177,0.0685311451718399,433.0977575210086
2048,1536,348.03957351633744,1614309,169747,68481024,57770992,1.2601905508336964,0.2904297975311761,0.9436610863909629,2048,0,1,1,458.9547706978078,0.7649011066560099,0.1013316992601778,433.0977575210086
2048,2048,212.71647308586023,1589545,106932,52744192,39445688,1.3652523376420713,0.4036406823643889,1.0,2048,0,1,1,257.30696631998137,0.7355663320129031,0.1272654239286269,433.0977575210086
2048,256,539.231275983151,1910040,119897,51699712,48916680,1.0664230885630301,0.1359748229876136,0.5298883642968322,2048,0,1,1,817.3377388570028,0.8846953654740515,0.0797221660725798,433.0977575210086
2048,512,584.3231193991993,2030902,167758,52748288,50546376,1.1035281517775666,0.1753574498005958,0.5546270564375596,2048,0,1,1,780.8810487949339,0.90726486486351,0.0780992542678665,433.0977575210086
256,1024,592.6913107072654,2074697,133654,59174912,53367352,1.0928082296733328,0.169535587421158,0.5781412805778977,256,0,1,1,749.1209710679944,0.8009817657001829,0.107252405486361,433.0977575210086
256,128,840.7524486374418,1956650,231431,37535744,34660888,0.9761015297431712,0.3130493608961072,0.38447077869163876,256,0,1,1,1126.477697459475,0.9136764976686886,0.074474433349299,433.0977575210086
256,1536,388.2422527786859,1841121,186741,64540672,37602568,1.2967269058428965,0.2278252347704435,0.9363185494068023,256,0,1,1,462.553858187894,0.7551604479782056,0.1211952349043277,433.0977575210086
256,2048,222.26138697948937,1660578,118259,59822080,36609008,1.453650575345608,0.3435669150664538,1.0,256,0,1,1,261.48703288092327,0.7532625930565249,0.1029688342741433,433.0977575210086
256,256,571.6487874339274,2043657,147533,37273600,35002296,1.0843011751832052,0.2311381637328401,0.48861018624376873,256,0,1,1,886.387082615865,0.9076811167673025,0.0547085293388739,433.0977575210086
256,512,629.5346211666292,2133900,171291,52224000,48486776,1.0965414149095298,0.2113509146428019,0.5258804063761109,256,0,1,1,823.567016891776,0.9135621395558766,0.0620912576088901,433.0977575210086
512,1024,544.9659652384067,2091889,162908,59174912,53616728,1.0683730704755126,0.2479548718161249,0.5539986366768532,512,0,1,1,781.7668291007619,0.7797044798475328,0.1083610761712361,433.0977575210086
512,128,822.8845982925125,2009851,172009,36749312,34057400,0.8619251223468194,0.145503030926785,0.3585671746634276,512,0,1,1,1207.8566810459988,0.9234111397044956,0.0478388631249248,433.0977575210086
512,1536,352.70907405493733,1825787,133635,53268480,42342528,1.2755419648444477,0.394362541422896,0.9644311656745795,512,0,1,1,449.070678069673,0.7851280838866432,0.1048744618809535,433.0977575210086
512,2048,231.16545422928303,1707904,158396,63492096,41495080,1.3430394842128697,0.2933770260358334,1.0,512,0,1,1,310.0822522049808,0.7080268305812918,0.1050421507471445,433.0977575210086
512,256,415.2034949795331,2044486,159170,45662208,35183896,1.2466210725420772,0.2926733250251387,0.7175358880049837,512,0,1,1,603.5903775143306,0.891614363101462,0.0787124916069565,433.0977575210086
512,512,572.6384135649845,1894857,156746,37535744,35622744,1.0303648632205378,0.1639463266713183,0.5222109244762934,512,0,1,1,829.3540736539491,0.8974557507159708,0.0727008466860542,433.0977575210086
