cpu,memory,duration_std,userDiff,sysDiff,heapTotal,heapUsed,avg_cpu_util,cpu_util_std,slo_preservation,total_cpu_shares,cpu_shares_others,num_containers,arrival_rate,latency,memory_util,memory_util_std,slo_duration
1024,1024,138.37580221611512,482525,68339,39170048,30949816,0.913247910948773,0.1567198027386495,1.0,1024,0,1,1,572.1404725622351,0.8130286169566083,0.0497955605919194,683.239509145631
1024,128,936.1235724046162,472960,92626,32743424,29838936,0.40261057527408106,0.1537786642854247,0.3357397372310389,1024,0,1,1,2035.0272350259827,0.9195683292178584,0.0080904342626726,683.239509145631
1024,1536,48.17435865270461,368824,29164,48214016,29894728,1.1516546765422686,0.204742741821402,1.0,1024,0,1,1,277.37793560182865,0.702677637414796,0.1087584820676614,683.239509145631
1024,2048,49.36445035120899,254073,41230,37195776,15590560,1.329771348541909,0.1886321216750704,1.0,1024,0,1,1,242.3976347469325,0.685348900708282,0.1263783519682689,683.239509145631
1024,256,447.68510272288194,407373,62962,32743424,29742288,0.5147424628222652,0.1765725970938539,0.47717502493128167,1024,0,1,1,1431.842559748438,0.9029115760856354,0.045214866050172,683.239509145631
1024,512,296.6636229698531,271654,64528,32743424,29925112,0.645544777392514,0.2104661916767709,0.6217351004378998,1024,0,1,1,1098.9238160502962,0.9141226773029422,0.0156459310395818,683.239509145631
128,1024,162.4438338520948,512052,78388,39432192,30693000,0.8646006982245423,0.1162536700282203,1.0,128,0,1,1,573.9792971885511,0.8199480849559311,0.0718793648513141,683.239509145631
128,128,1510.5195745339315,255526,53880,33005568,29637240,0.35562385669813407,0.1197592321418216,0.2568765118683816,128,0,1,1,2659.7975197347323,0.9174180661082264,0.0098686111794752,683.239509145631
128,1536,71.04517569785499,350677,43065,48476160,29854352,1.1221670503368464,0.1983765262894661,1.0,128,0,1,1,343.29950247472186,0.7104570084720211,0.0875631988617855,683.239509145631
128,2048,36.822284081963176,232948,48503,36671488,15590512,1.3146195129844618,0.1437703785000882,1.0,128,0,1,1,225.82771209958298,0.6608851057054295,0.1265185021530078,683.239509145631
128,256,375.91986149667446,465738,77644,32481280,29645936,0.43671381153070987,0.0886326560170472,0.41265898542396373,128,0,1,1,1655.7000653788605,0.915624894252555,0.0097370491089298,683.239509145631
128,512,215.88938507950283,279651,71570,32743424,29675224,0.5082716273458807,0.0471788795131032,0.6085594611984171,128,0,1,1,1122.7161069850904,0.9044409933283258,0.0388205142619096,683.239509145631
1536,1024,109.98470203484436,389273,64632,39170048,29752984,0.8736268233601602,0.1173688411397851,1.0,1536,0,1,1,570.8274364230231,0.7993890107459397,0.0504967802627286,683.239509145631
1536,128,154.74699379509212,477140,100192,33005568,29541024,0.6470284468091128,0.0670794769634715,0.6126187955008385,1536,0,1,1,1115.2767661773378,0.9132171345583876,0.0119302860396365,683.239509145631
1536,1536,64.29218972194218,297216,44822,36147200,15558144,1.2460857331808786,0.1239209300593505,1.0,1536,0,1,1,305.4021389092451,0.6558120616828214,0.1239010576892251,683.239509145631
1536,2048,53.68016610202236,246862,69933,59580416,47985264,1.2868298398691556,0.1669074376566566,1.0,1536,0,1,1,251.8209163864089,0.7397766463332083,0.0900472316027399,683.239509145631
1536,256,558.5525888270246,349304,71856,33005568,29705496,0.5519474988731811,0.1992899306272079,0.47540328917984614,1536,0,1,1,1437.1787589529276,0.9078781707319034,0.0328317096540534,683.239509145631
1536,512,288.0633190224567,285633,46732,32743424,29749240,0.6792291363796313,0.2147124691046519,0.6726176072296152,1536,0,1,1,1015.7918879937822,0.912976724124293,0.0096219149619699,683.239509145631
2048,1024,136.76186747417574,354708,64255,38121472,30397040,0.8949407240603748,0.0831382480918333,1.0,2048,0,1,1,568.8125972678511,0.817304613947425,0.0605511234053056,683.239509145631
2048,128,638.7322805245196,412885,95965,32743424,29729296,0.5498346368112091,0.2583973409686341,0.42236666284491226,2048,0,1,1,1617.6454470709682,0.8969621646401799,0.0567385063893416,683.239509145631
2048,1536,94.0933849621385,343770,66146,42971136,31636144,1.0106713167052908,0.1421838359136767,1.0,2048,0,1,1,384.13324643989586,0.7160935431092804,0.0670318988782111,683.239509145631
2048,2048,64.36482471758265,347522,50188,42708992,31147952,1.1382277757229338,0.1789948045721489,1.0,2048,0,1,1,345.6097035177614,0.7069438835624151,0.0840414591496634,683.239509145631
2048,256,296.0026768906703,375143,58030,32743424,29655776,0.7290939792430847,0.2030685398139206,0.679067274541294,2048,0,1,1,1006.1440666643159,0.9143348769638192,0.0082884671273328,683.239509145631
2048,512,262.923311786569,276648,64625,33005568,29888456,0.6710877950073081,0.1559617484536842,0.7010353794010086,2048,0,1,1,974.6148756849004,0.9194631296101404,0.0128893821801648,683.239509145631
256,1024,136.38080345563102,359222,48418,39432192,30433504,0.826291121297758,0.1271238449568843,1.0,256,0,1,1,601.5341654815552,0.8031476409410185,0.0569680000682793,683.239509145631
256,128,809.2527448837377,368049,42484,32219136,29664664,0.43260522826039594,0.1382198035317107,0.354195818332096,256,0,1,1,1928.9880732161037,0.913967986394442,0.0102001207912978,683.239509145631
256,1536,56.976124745334594,286268,59921,36409344,15555496,1.1759609602810375,0.1099082937275979,1.0,256,0,1,1,295.73712048022463,0.7316381552246156,0.0902771346704404,683.239509145631
256,2048,46.723024334334376,359831,64566,49000448,29902936,1.3332651879231383,0.1517504566211673,1.0,256,0,1,1,245.98230656089112,0.6948144319277214,0.1060206967155939,683.239509145631
256,256,352.0936017866047,412725,85968,32481280,29814168,0.4089665727552541,0.0607092283092093,0.4130798628506105,256,0,1,1,1654.013111243632,0.9082003570026116,0.0425054645714875,683.239509145631
256,512,189.43094939512503,428905,65895,32743424,29634872,0.555460330466637,0.0786479674841161,0.577726675160097,256,0,1,1,1182.634519959278,0.9136712238536212,0.0103433495565818,683.239509145631
512,1024,114.33900832515484,417915,41473,36548608,30175832,0.8667638034457675,0.0828521165957413,1.0,512,0,1,1,578.5487717879271,0.792637550511144,0.0835333681267106,683.239509145631
512,128,799.8602135634416,463950,51942,32219136,30032000,0.528686101197619,0.4422201596079967,0.28323296406356524,512,0,1,1,2412.2881014382683,0.916598119492418,0.0114365305462815,683.239509145631
512,1536,83.2102708246153,243616,20225,66560000,54634304,1.0300949247254825,0.142893910646074,1.0,512,0,1,1,369.3116124382884,0.7267804674171424,0.0700032870513693,683.239509145631
512,2048,59.03347968370759,331209,60849,60366848,48575104,1.1031499927124817,0.1882063855164709,1.0,512,0,1,1,325.66472798413804,0.7129005654241743,0.0999738802836724,683.239509145631
512,256,482.92031155363367,379091,115029,32481280,29601120,0.4670155761051812,0.1212944049000864,0.43981319900580623,512,0,1,1,1553.4765911757258,0.9194770027175438,0.0088885202954048,683.239509145631
512,512,184.295527873444,363283,69190,32481280,29756176,0.5353195340445077,0.0382644762200171,0.6044325817865301,512,0,1,1,1130.3816665974064,0.9145796871130124,0.0083576227502165,683.239509145631
