cpu,memory,duration_std,userDiff,sysDiff,heapTotal,heapUsed,avg_cpu_util,cpu_util_std,slo_preservation,total_cpu_shares,cpu_shares_others,num_containers,arrival_rate,latency,memory_util,memory_util_std,slo_duration
1024,1024,78.1676803282799,334636,40061,39170048,30452144,1.0252324598600964,0.2231497398184301,0.27404064486007046,1024,0,1,1,757.2846295348104,0.7605469796136922,0.1055570290199593,207.526768220339
1024,128,102.12479962328943,304694,35716,33005568,30334752,0.9633850048351997,0.1723133234779271,0.22952210575088802,1024,0,1,1,904.1689798958986,0.8719492327994409,0.0662211175374491,207.526768220339
1024,1536,58.86927050346376,338671,42848,50311168,30434064,1.1095245833768046,0.3239932901164244,0.38662738343031966,1024,0,1,1,536.7616912673769,0.7670559580360211,0.1077020058539683,207.526768220339
1024,2048,37.72158339768347,326178,31905,49000448,30503272,1.190410049634103,0.3472910690890074,0.4916078208676666,1024,0,1,1,422.13886641197695,0.7446061389867598,0.0963031052928912,207.526768220339
1024,256,75.36351497568225,308516,37654,32219136,30444456,1.016096775689693,0.1510782900758986,0.25716962194490656,1024,0,1,1,806.9645498985003,0.8770529898117042,0.0701421632212652,207.526768220339
1024,512,61.78811316343676,358682,37113,32743424,29838800,1.0470228155459893,0.154991598700194,0.2664267204729696,1024,0,1,1,778.92625729105,0.8674926644289325,0.0688110430994227,207.526768220339
128,1024,97.10703020658208,352502,49689,39170048,31616224,1.0156334258042146,0.1566179712725637,0.2813851031989743,128,0,1,1,737.5186740912568,0.7767368469817716,0.0890269471364741,207.526768220339
128,128,258.97059353123643,358479,53290,33267712,30448912,1.0620421993975393,0.4606566157499112,0.1974989225867551,128,0,1,1,1050.7741789283887,0.8824858319881044,0.0866772171561971,207.526768220339
128,1536,53.0001826069504,331765,38774,50573312,31394576,1.1144203509204178,0.3447472443583015,0.3718420965953495,128,0,1,1,558.104555994305,0.6867517167469711,0.1432506679220536,207.526768220339
128,2048,40.5573131965568,352314,19964,50311168,31605144,1.1440753231832752,0.2696953920844812,0.4719123185881852,128,0,1,1,439.7570481762258,0.6807696578309378,0.1524366976498273,207.526768220339
128,256,47.72696990860959,277055,35601,32743424,30036288,1.0631494728106259,0.1527122982657958,0.29177249126355076,128,0,1,1,711.2622828890517,0.8767306276141209,0.0546092018703695,207.526768220339
128,512,67.8530195491812,316948,24887,32743424,30445272,1.0363342375572633,0.1338549463458795,0.25138098697092043,128,0,1,1,825.5467954079818,0.8935371144335651,0.0480071462454813,207.526768220339
1536,1024,101.9856402370886,393545,34930,39432192,30500544,1.0471173169514165,0.2721367034380996,0.2711848893398852,1536,0,1,1,765.2593355238117,0.7603359270643384,0.1007526104415004,207.526768220339
1536,128,323.493556036595,332148,32709,33005568,30112008,1.0292589040117115,0.510705478398937,0.1814288130689306,1536,0,1,1,1143.8468053114195,0.8888007730198805,0.0378142668819292,207.526768220339
1536,1536,59.72328484129751,340351,49429,50049024,30489984,1.1154315706889772,0.345216861508472,0.3970830431883139,1536,0,1,1,522.6281297585424,0.7438809706207209,0.1322850867441008,207.526768220339
1536,2048,41.367679173148446,366755,35508,50049024,31670640,1.1739476471057295,0.3609446978413187,0.45854705646801563,1536,0,1,1,452.5746382908344,0.7329069599971777,0.0903498444262339,207.526768220339
1536,256,66.69323737737308,361481,28803,32743424,29641632,1.033516538068523,0.1952780780343264,0.24973745007666762,1536,0,1,1,830.9797675784299,0.890185881199541,0.0550720717074328,207.526768220339
1536,512,64.10807707918865,250483,40614,33005568,30315720,1.0511153536766626,0.1262854080138126,0.2940000386998345,1536,0,1,1,705.8732683780964,0.8968102817864854,0.0549862711010007,207.526768220339
2048,1024,85.57015180120979,239567,46639,38383616,31172784,1.0162418595333835,0.206850810825089,0.28310695024708044,2048,0,1,1,733.0331100639559,0.7429384334380036,0.1169780335352095,207.526768220339
2048,128,211.7386575322684,249271,29232,32743424,30140800,1.052233809087805,0.2810844326603521,0.23637754692386206,2048,0,1,1,877.9461963330384,0.8733282723336392,0.0692073397171939,207.526768220339
2048,1536,70.45992441927429,348960,52901,50573312,31429336,1.0908597410171927,0.255855472325377,0.3684495040276612,2048,0,1,1,563.2434457145015,0.7088140243841917,0.1236994380413279,207.526768220339
2048,2048,42.705971937730574,351931,32179,50049024,31503112,1.1692274553547852,0.3686459725543927,0.4276591527478809,2048,0,1,1,485.2620758538584,0.7513618778420692,0.0885577772183785,207.526768220339
2048,256,45.11877435629668,354121,43600,32743424,30590288,1.088263577528004,0.2087787963932246,0.31110820887858887,2048,0,1,1,667.056549129268,0.8711033630979255,0.0720569007772201,207.526768220339
2048,512,65.16425811638511,357969,56408,33267712,29952480,1.0560921030934498,0.1500268545313888,0.2620677842183502,2048,0,1,1,791.882027160696,0.870627782968511,0.075006276471138,207.526768220339
256,1024,79.55326936323713,316495,45420,39432192,29908280,0.9920259054068704,0.144436416943167,0.29581017671535387,256,0,1,1,701.5538495825098,0.7849380910179924,0.0911554379868033,207.526768220339
256,128,74.50703254339827,260800,44364,33267712,29962160,1.0419442956294593,0.2058357503885611,0.27008955721987044,256,0,1,1,768.3627992007064,0.8946323819099129,0.0666796114562542,207.526768220339
256,1536,57.53509907259611,244384,34761,39292928,16324696,1.0599564163160489,0.2340592548051114,0.3381943195812789,256,0,1,1,613.6317383369407,0.7176625168439409,0.1250492567234905,207.526768220339
256,2048,39.19532494121612,344171,37002,49786880,31681056,1.1648020882378955,0.3974626733788023,0.4304103776598209,256,0,1,1,482.1602335628623,0.749112368928764,0.0877789845703255,207.526768220339
256,256,79.80967023285648,359738,27143,32743424,29930152,1.0265559058843359,0.1619380534928437,0.2452611922138783,256,0,1,1,846.145965234348,0.8836665998935166,0.0603198150666895,207.526768220339
256,512,63.65008718487452,311274,30635,33005568,29877760,1.0417274705421251,0.124865467921923,0.2586880804655243,256,0,1,1,802.2277943648679,0.8732579242374106,0.0597584400962777,207.526768220339
512,1024,81.48405475436182,354364,26376,37072896,31654672,1.0031551954113456,0.2037764552995042,0.27316489391741905,512,0,1,1,759.7124405124941,0.7791230757988167,0.0968341731369747,207.526768220339
512,128,129.5247223727432,276592,43585,32743424,29993864,1.0199108061606867,0.3192103044601668,0.23720159253041692,512,0,1,1,874.8961843235827,0.8757292496317997,0.0681284646210879,207.526768220339
512,1536,52.03432271056369,298503,42227,50311168,30606192,1.073748305203723,0.2826766359466922,0.36507704966401133,512,0,1,1,568.4464920797694,0.7086870193083016,0.1557285403589287,207.526768220339
512,2048,31.526817114375557,273677,24208,49786880,30441656,1.2090184242858726,0.4536799072634375,0.5079541889010943,512,0,1,1,408.5541034109816,0.7659257522418524,0.1099462109366217,207.526768220339
512,256,39.05561513127586,303798,19941,33005568,30060656,1.090743850273969,0.1924914673402971,0.2924338335232086,512,0,1,1,709.6537555866254,0.8519514106090176,0.0814750889428502,207.526768220339
512,512,37.84261923461833,309747,8266,32743424,30153664,1.1101248266880601,0.1479939024230767,0.3273907251527708,512,0,1,1,633.8810243433148,0.8752332895086481,0.0301712670642968,207.526768220339
