cpu,memory,duration_std,userDiff,sysDiff,heapTotal,heapUsed,avg_cpu_util,cpu_util_std,slo_preservation,total_cpu_shares,cpu_shares_others,num_containers,arrival_rate,latency,memory_util,memory_util_std,slo_duration
1024,1024,358.8073214768654,1573857,98144,43438080,36154288,1.0129786875056803,0.2007105759084045,1.0,1024,0,1,1,429.63541083864965,0.8365566587704546,0.0636993974593018,1102.9950876796115
1024,128,3376.353322028927,1991008,193370,36487168,33725592,0.6265608159316298,0.3579911268438794,0.12096351077643706,1024,0,1,1,9118.411664804855,0.9221560185722608,0.0061084975343225,1102.9950876796115
1024,1536,198.8852164181928,1496884,78410,53006336,36927776,1.076394441208791,0.2016478322451422,1.0,1024,0,1,1,239.20648646717828,0.728879241607838,0.0660881788253659,1102.9950876796115
1024,2048,199.26065805172396,1442094,119860,53006336,42873904,1.0426767569478461,0.1475085606248393,1.0,1024,0,1,1,252.096249048089,0.737507712535834,0.0696751405510053,1102.9950876796115
1024,256,2071.1291761785064,1736409,113821,35700736,32939416,0.5694805591452011,0.0678778412076915,0.37196325836331307,1024,0,1,1,2965.3334378587124,0.92916400784414,0.012199080533414,1102.9950876796115
1024,512,831.1803791050567,2122280,146092,37797888,35572776,0.8493457313366239,0.1804764813682293,1.0,1024,0,1,1,1024.4991092497053,0.9294537088688816,0.0321176638483496,1102.9950876796115
128,1024,367.9962153669358,1855307,88512,43438080,34231600,0.9646113331841388,0.2181704972062717,1.0,128,0,1,1,464.14273876291804,0.8327856420683268,0.0597439188570827,1102.9950876796115
128,128,2961.747550010586,2087904,119015,36749312,34461776,0.6852591828417621,0.2892504478704915,0.12622584339767812,128,0,1,1,8738.266728823462,0.9260947074757558,0.0078620339411799,1102.9950876796115
128,1536,210.75208373072067,1516979,140006,52482048,38921864,1.030243390269416,0.1502705844363183,1.0,128,0,1,1,215.2712833357202,0.7371260536571651,0.0811431564041922,1102.9950876796115
128,2048,228.09393438801496,1585007,99340,52744192,36819632,1.0253773609846306,0.1676526495990065,1.0,128,0,1,1,229.87041428294486,0.7221629954045,0.0655299986723753,1102.9950876796115
128,256,2019.3306741026288,266788,23202,38584320,35977456,0.593014634396501,0.079145549173865,0.38293210839030983,128,0,1,1,2880.39332172001,0.9287422673926228,0.0113526570421448,1102.9950876796115
128,512,877.1856444710913,1843444,98712,36225024,33058144,0.8355560478240085,0.1399066725310332,1.0,128,0,1,1,1046.6895897340878,0.9328113351200578,0.0097880380786882,1102.9950876796115
1536,1024,350.0299497855125,1646503,113479,45010944,39259224,1.0547286619149316,0.2899846268720691,1.0,1536,0,1,1,379.4103919690879,0.8128480712878436,0.0636647304104577,1102.9950876796115
1536,128,2411.1900099543327,1867258,212989,35700736,33526944,0.6512953358657361,0.3352081520906651,0.1662093975178749,1536,0,1,1,6636.1776418868885,0.9239335602856308,0.0070503476601668,1102.9950876796115
1536,1536,216.99946695299127,1535755,124185,53530624,37912168,1.075915735128385,0.1413901415395185,1.0,1536,0,1,1,242.2412585188864,0.7219767764719907,0.064035089626734,1102.9950876796115
1536,2048,216.27804598459937,88585,8110,53530624,36205000,1.0406963919473955,0.1693329820857873,1.0,1536,0,1,1,232.7888412234079,0.7253083459036572,0.0508640940995176,1102.9950876796115
1536,256,2170.498490864644,2013687,120587,37011456,34226512,0.5979933642206713,0.1053614057235108,0.36315299797572653,1536,0,1,1,3037.2738042309556,0.9154833177755852,0.0312291816521305,1102.9950876796115
1536,512,844.5755939984477,1876860,144296,36749312,33512080,0.8713432638575611,0.1248204160288119,1.0,1536,0,1,1,1048.0778448387873,0.9255115639726462,0.0364456162915067,1102.9950876796115
2048,1024,401.2290413323007,1577189,159302,43438080,36986392,1.0070108912919744,0.1497604207411987,1.0,2048,0,1,1,486.0568312053019,0.837183386020367,0.0360243945878365,1102.9950876796115
2048,128,1778.880914720242,1752216,167528,35700736,33035344,0.8047750719329139,0.1259059365444945,0.25780985690531,2048,0,1,1,4278.327837886844,0.9207878539584208,0.0060690195569055,1102.9950876796115
2048,1536,204.67848105340585,1534265,100611,53268480,39101248,1.0788416508919234,0.1561006252707534,1.0,2048,0,1,1,259.5894953691012,0.7145106186679152,0.0629122595304685,1102.9950876796115
2048,2048,207.19477727053396,1560055,72451,52219904,38984856,1.0491508657565458,0.2151201012582957,1.0,2048,0,1,1,263.1404280544229,0.707211153372995,0.0825495834563619,1102.9950876796115
2048,256,2203.09808614122,2085629,191584,37797888,35484968,0.5892723305471611,0.0648928845665307,0.3587653234818811,2048,0,1,1,3074.4194477182145,0.9277387409463812,0.024447890811372,1102.9950876796115
2048,512,852.2927531065857,1684186,151652,35962880,33274016,0.8564702159705773,0.1694652052261089,1.0,2048,0,1,1,1059.6568794475952,0.9304624164904493,0.0227503079727095,1102.9950876796115
256,1024,348.50681844558085,1686034,112387,43962368,35048104,1.048793362389886,0.1955598639903828,1.0,256,0,1,1,440.7517463853557,0.7926863426250694,0.0590371034690644,1102.9950876796115
256,128,2865.2082802274485,2010595,191139,37011456,33645696,0.5925303155019611,0.3151140670559261,0.10439029903053322,256,0,1,1,10566.06885815123,0.9262168554682814,0.0123638901237703,1102.9950876796115
256,1536,215.21710072432865,1513092,112393,53530624,39057264,1.0388765066507837,0.1270299530791749,1.0,256,0,1,1,245.9010568729562,0.7315709755295748,0.0536415916648693,1102.9950876796115
256,2048,202.4856088418866,210305,20755,53006336,41389136,1.0456126445161351,0.1709805432746181,1.0,256,0,1,1,272.2785088327726,0.7320336061154893,0.0547968076453644,1102.9950876796115
256,256,2294.1128290469146,1958687,198787,37011456,33852880,0.6155738033681202,0.0666882673484737,0.34505062066632414,256,0,1,1,3196.6181818471377,0.9348164519656654,0.0098484977060114,1102.9950876796115
256,512,872.2123393779698,2016312,132489,37797888,35030600,0.8780490788295097,0.1397879523332864,0.9850441097761904,256,0,1,1,1119.741823470444,0.91623783240154,0.0428528264823762,1102.9950876796115
512,1024,370.5228721973429,1579769,141079,43438080,34381416,1.0197587325566042,0.1787863818107806,1.0,512,0,1,1,403.233380013584,0.8410403938899961,0.0467029631290177,1102.9950876796115
512,128,3633.177609792894,1957997,271509,36487168,33335680,0.5723881146833459,0.2822100512557677,0.09530282268980149,512,0,1,1,11573.582571312914,0.9258761109340488,0.0065053360840622,1102.9950876796115
512,1536,230.60905076181683,1631497,96175,53268480,41884000,1.0807071659435157,0.2360943286940138,1.0,512,0,1,1,252.48766965340917,0.7171038823154057,0.0632789189945114,1102.9950876796115
512,2048,195.96036074061504,1452168,109462,53006336,42616016,1.0236538842363663,0.1654611768486563,1.0,512,0,1,1,225.6168186091583,0.7792431571982844,0.049512089985017,1102.9950876796115
512,256,2204.885299473562,1901414,171465,36487168,33975920,0.5907624551162332,0.1083802887868925,0.37253924342003886,512,0,1,1,2960.7487188563973,0.9330116209028092,0.007326886484616,1102.9950876796115
512,512,921.622072731045,1891375,158657,36487168,33752344,0.8630082342257173,0.1246431553676012,1.0,512,0,1,1,1047.7272194568295,0.9136252447551184,0.0468585677876974,1102.9950876796115
