cpu,memory,duration_std,userDiff,sysDiff,heapTotal,heapUsed,avg_cpu_util,cpu_util_std,slo_preservation,total_cpu_shares,cpu_shares_others,num_containers,arrival_rate,latency,memory_util,memory_util_std,slo_duration
1024,1024,812.3553359789606,1971889,130087,43438080,35719504,0.9175065276142386,0.1803730830228405,1.0,1024,0,1,1,1378.6083203910412,0.8440372777013003,0.0868078627702003,2286.3502614680847
1024,128,3478.9585051970275,1955859,280274,51961856,49316616,0.6962767039150662,0.3762963323913593,0.2202436013243346,1024,0,1,1,10381.006520598821,0.9090081914169578,0.0621251749658971,2286.3502614680847
1024,1536,599.8342513436028,1983900,141818,72937472,58500976,1.0765921511006538,0.202229846313083,1.0,1024,0,1,1,969.8871006646845,0.7428992697199986,0.1043903638690993,2286.3502614680847
1024,2048,351.62174333348605,1714311,155702,53268480,38726048,1.1382950143632418,0.3969862275128627,1.0,1024,0,1,1,620.3384636390313,0.7743642408459435,0.0941981494673456,2286.3502614680847
1024,256,3278.5303750013827,2401856,228851,37535744,34233000,0.4818807290267571,0.1403848961923451,0.2555118783953208,1024,0,1,1,8948.117307997352,0.8992488766490452,0.0755579591497238,2286.3502614680847
1024,512,1832.4009059403452,2153105,198399,37273600,34363136,0.6627219813882754,0.057389586083902,0.6925728571448143,1024,0,1,1,3301.241505325147,0.8947920396388117,0.0912277630888839,2286.3502614680847
128,1024,811.9126460718691,1866375,208928,51302400,36612680,0.8808927723267057,0.1112099844718297,1.0,128,0,1,1,1420.0244712957299,0.8091979103298165,0.0802579083825095,2286.3502614680847
128,128,1049.668387478828,1817358,227943,47497216,33521536,0.782560640018293,0.2015919904205302,0.3718853127094837,128,0,1,1,6147.9982761625715,0.8431848013741223,0.1044700374435281,2286.3502614680847
128,1536,350.3922729160521,1618865,125629,68481024,51729872,1.2297681780938068,0.2728954012912393,1.0,128,0,1,1,606.3329873131079,0.7363523266894022,0.1037941583510247,2286.3502614680847
128,2048,222.87754621956773,1646614,145704,64540672,34383616,1.250669896307912,0.348509453071933,1.0,128,0,1,1,422.0090267852651,0.727007824382031,0.114032190881276,2286.3502614680847
128,256,888.2684056825964,2311539,176042,37797888,35814960,0.3161776863915532,0.0133806016352998,0.1522082642635145,128,0,1,1,15021.1965988245,0.91439820398238,0.0552835459000063,2286.3502614680847
128,512,2096.063589995613,2128690,153412,37535744,35266624,0.6456322995727249,0.0898345557496983,0.6223218658697399,128,0,1,1,3673.9031470037526,0.9274761936459054,0.0366527843419181,2286.3502614680847
1536,1024,825.6453025426448,1846607,154820,44224512,36474480,0.9002518461779265,0.202280733154791,1.0,1536,0,1,1,1395.6616047643988,0.835048276197554,0.0705040302563618,2286.3502614680847
1536,128,2526.5363115682594,2134448,206525,52748288,49947672,0.734900161158138,0.24622038299095,0.291767103766246,1536,0,1,1,7836.21673572848,0.9416001165140416,0.0119782166777402,2286.3502614680847
1536,1536,342.8996713691558,1681313,140167,53268480,41638752,1.178841344393037,0.2758029981946968,1.0,1536,0,1,1,615.7992338596647,0.7761877655998207,0.1202626443616746,2286.3502614680847
1536,2048,218.65250421110235,1608232,170122,53268480,38743904,1.2526283109801186,0.359499481638357,1.0,1536,0,1,1,443.291308551543,0.7527745115766326,0.114089999358542,2286.3502614680847
1536,256,3907.3799145671655,1942334,173487,51961856,49200240,0.5935476039948299,0.2840042126481554,0.23362304779838755,1536,0,1,1,9786.492741251983,0.924427910437316,0.0515223336434912,2286.3502614680847
1536,512,1939.67874101252,2058036,182409,37273600,34963928,0.6309027821151867,0.075436836395575,0.7186502200597041,1536,0,1,1,3181.4507219912057,0.9295700261648134,0.0296677364198239,2286.3502614680847
2048,1024,888.0661121482941,2068119,179142,59437056,51335264,0.9177656900123025,0.1231019755094784,1.0,2048,0,1,1,1392.715089782298,0.8252390617738655,0.0885380910933819,2286.3502614680847
2048,128,766.4337,2066500,244244,38322176,36079840,0.5313127592039809,0.0375019869056246,0.25617563293785295,2048,0,1,1,8924.93261458143,0.8594457942487174,0.0820414532395255,2286.3502614680847
2048,1536,408.0318129264221,1951528,176133,64016384,38230232,1.1872985818459518,0.2415197555181182,1.0,2048,0,1,1,697.517555571127,0.7522556575213468,0.1342316900231474,2286.3502614680847
2048,2048,198.81813433080427,1498531,101530,52744192,39218072,1.2535534956433998,0.3881622811897403,1.0,2048,0,1,1,401.8484186734174,0.7664948882124836,0.0812529249816019,2286.3502614680847
2048,256,3601.0374267001357,2227209,206137,38060032,35517808,0.5134469364185772,0.1820315643612466,0.29338619276270556,2048,0,1,1,7792.971577627423,0.9314053311946758,0.0269507932498027,2286.3502614680847
2048,512,2141.661748132043,2216328,216393,41467904,34786144,0.6644533574334569,0.1859936430531393,0.5979447580292437,2048,0,1,1,3823.681420008813,0.9226962780429836,0.0428464851906988,2286.3502614680847
256,1024,812.9612121580174,2128288,194183,59437056,54181032,0.8944096316926984,0.1395828984187949,1.0,256,0,1,1,1370.398940449953,0.8166003534783333,0.0933141342540795,2286.3502614680847
256,128,1177.4175744794402,1977773,181031,37273600,35498888,0.5750526602875426,0.0939791629236194,0.262170880889861,256,0,1,1,8720.839834339151,0.8901928464333702,0.0527220753824924,2286.3502614680847
256,1536,566.8949475841276,1874432,182673,53006336,38560992,1.0556745107178218,0.1980810546416275,1.0,256,0,1,1,934.3779425674411,0.7615439646048192,0.086268729582824,2286.3502614680847
256,2048,395.4187981142685,2047155,133455,53530624,39827408,1.1494721946659312,0.3105461056959429,1.0,256,0,1,1,606.5406478949546,0.7944279161589999,0.1107316663823348,2286.3502614680847
256,256,4463.876792052988,1924827,200367,36749312,34174960,0.480047175622481,0.2044418309353659,0.2031191283298679,256,0,1,1,11256.203589821558,0.9316132518679388,0.0234826576124602,2286.3502614680847
256,512,2093.635193346523,2170953,245559,49070080,33177200,0.6229562580726004,0.0585867582811273,0.5996167445947478,256,0,1,1,3813.01936958635,0.8791662890043722,0.0911985753933048,2286.3502614680847
512,1024,911.3081525834302,1916438,132247,43962368,37372472,0.892142652341887,0.1262236242891235,1.0,512,0,1,1,1455.2625841296813,0.8286562179082371,0.0820300781855499,2286.3502614680847
512,128,1860.9487575624196,1970040,239828,37797888,35677744,0.5425448426575634,0.120763328370645,0.23719805855621567,512,0,1,1,9638.992306196395,0.911906359743586,0.0752229970105931,2286.3502614680847
512,1536,543.2171772945256,1721142,151139,67694592,52379344,1.0448590415029133,0.2079735839623973,1.0,512,0,1,1,956.4474910985472,0.8009000533573815,0.0845900836113556,2286.3502614680847
512,2048,368.94749658093946,1834046,127661,64016384,38523656,1.0710991326497283,0.1653780101146395,1.0,512,0,1,1,634.3109583703499,0.7402777380637143,0.1097498399720807,2286.3502614680847
512,256,4457.849082248564,2243879,222845,52486144,50260096,0.5000868235189186,0.2897894035425304,0.20250120202034963,512,0,1,1,11290.551555532624,0.906847521367764,0.0585669000707271,2286.3502614680847
512,512,1954.192103372187,2217837,187170,44875776,34092264,0.6237863485462802,0.0527818284355589,0.6735519192125868,512,0,1,1,3394.4677407213585,0.8909336880812251,0.0986421327656038,2286.3502614680847
