cpu,memory,duration_std,userDiff,sysDiff,heapTotal,heapUsed,avg_cpu_util,cpu_util_std,slo_preservation,total_cpu_shares,cpu_shares_others,num_containers,arrival_rate,latency,memory_util,memory_util_std,slo_duration
1024,1024,108.0036417201046,311113,34769,39170048,30558456,0.8840046020758732,0.1230476834645164,1.0,1024,0,1,1,437.50194804404987,0.7968202040112715,0.1053719041517844,468.7376030727274
1024,128,1066.9620086211207,349542,31728,32481280,29634856,0.515400887210426,0.3397939337520407,0.18863625160313893,1024,0,1,1,2484.875516180621,0.913666066546538,0.0071587897156386,468.7376030727274
1024,1536,64.07645336930672,289070,42483,49000448,31655960,1.1239786360643156,0.2204275140867126,1.0,1024,0,1,1,245.32951654793018,0.741581870357758,0.1142611564271969,468.7376030727274
1024,2048,36.96666216369603,242915,18477,49524736,30119040,1.255478616645173,0.3284533301372536,1.0,1024,0,1,1,176.40510915642398,0.7420309329086145,0.0924343142745423,468.7376030727274
1024,256,344.5694274877087,280826,32305,32481280,29787704,0.6029281794060648,0.2736291554892678,0.37425968049084923,1024,0,1,1,1252.4394892283572,0.908764600248552,0.0224834743158744,468.7376030727274
1024,512,149.59190809890873,265780,15401,31956992,29801720,0.7369817342868363,0.1989931150290555,0.6422733036067102,1024,0,1,1,729.8101920794676,0.8841942614449968,0.0608580395021189,468.7376030727274
128,1024,399.223073945335,324125,25247,36810752,29992896,1.0694902954647172,0.5441699240984174,0.7179695568168015,128,0,1,1,652.8655687727597,0.7512453985207057,0.1070107618300038,468.7376030727274
128,128,2374.4064019913344,291948,66543,32481280,29611808,0.47869813369583714,0.130416414492557,0.2115291239772574,128,0,1,1,2215.9483018665733,0.9167379759395424,0.0105537016389332,468.7376030727274
128,1536,84.41093297658273,270450,52115,50049024,31024816,1.0767661096252785,0.2266000710017926,1.0,128,0,1,1,326.47492682234923,0.7039373880613023,0.1375872790966087,468.7376030727274
128,2048,56.47795484106421,271058,58464,68018176,51440056,1.1607742388504292,0.1713773726958066,1.0,128,0,1,1,226.87063769252762,0.767180981655786,0.0958919349144114,468.7376030727274
128,256,505.1412941333967,256442,53333,32481280,29808584,0.49718967411584397,0.123179738251033,0.3462841700704145,128,0,1,1,1353.6212266862005,0.9076230457069204,0.0404803798663464,468.7376030727274
128,512,168.897274145395,302703,29732,32481280,29745000,0.6444908792131308,0.074147327719826,0.5442556168666516,128,0,1,1,861.2453202987763,0.8971699664861662,0.0504856092035653,468.7376030727274
1536,1024,101.70488220992443,342963,36746,39694336,29783392,0.9112609319979935,0.1210699608444464,1.0,1536,0,1,1,445.2143555292228,0.7768812438226158,0.1090285755018791,468.7376030727274
1536,128,868.3365236723138,333807,39545,32481280,29847584,0.6548875978560942,0.3241703874969688,0.27860925514095003,1536,0,1,1,1682.419354072033,0.9146020739891636,0.0092664384321019,468.7376030727274
1536,1536,46.99484874547078,223519,44933,50311168,29742448,1.1121394116789576,0.1516026796988659,1.0,1536,0,1,1,238.77173160809807,0.751305287724471,0.1070962228310265,468.7376030727274
1536,2048,34.91735066794536,246805,26116,49786880,29789840,1.3009546506771499,0.2578345047945979,1.0,1536,0,1,1,159.70236753329726,0.7454224842837173,0.09854118597468,468.7376030727274
1536,256,368.515031683692,302170,56609,32743424,29707064,0.6913182376326116,0.3480819727407215,0.40974256184432717,1536,0,1,1,1143.9807496757296,0.9126380422204848,0.0203175564360209,468.7376030727274
1536,512,140.80753761950135,311528,33658,32481280,29704848,0.7470713694531361,0.2324046390701337,0.6254147073103827,1536,0,1,1,749.4828592831617,0.8896249057600082,0.0563198754673551,468.7376030727274
2048,1024,117.82532751676112,384304,35972,39170048,29672288,0.946795383996543,0.1135446463839832,1.0,2048,0,1,1,413.28619366644625,0.8200205238881624,0.0525137047361126,468.7376030727274
2048,128,202.5530499140016,308011,63252,32481280,29928584,0.8610116259391012,0.3048715826982722,0.5261303760966197,2048,0,1,1,890.9153023064522,0.9157476402919772,0.0113819199784415,468.7376030727274
2048,1536,83.84396279543208,275957,44730,42708992,31347640,1.074816585040027,0.1609853928308455,1.0,2048,0,1,1,297.40180103845034,0.7591068120394445,0.1084846800060612,468.7376030727274
2048,2048,53.056550649142295,279102,32024,50049024,29938928,1.1824348645814544,0.1433702527006097,1.0,2048,0,1,1,200.59316034317268,0.7802370597575066,0.0983959798014115,468.7376030727274
2048,256,212.4942317709296,296600,52942,32743424,29705920,0.7625427393330884,0.2406928857091508,0.561572266332492,2048,0,1,1,834.6879487727414,0.9201056323259356,0.0174340235374786,468.7376030727274
2048,512,102.58829120205614,262141,44558,32481280,30127600,0.7959588091328206,0.220888601731355,0.6901098710824144,2048,0,1,1,679.2217047084517,0.8957033834610165,0.057219008875601,468.7376030727274
256,1024,129.02242914938287,283775,63705,27627520,15303624,0.8462235639537554,0.1286687946267751,0.9829281743305517,256,0,1,1,476.8787947216724,0.7733262370836285,0.1116101184658045,468.7376030727274
256,128,1786.7539107973462,318704,32145,32481280,29624872,0.36037783771519666,0.2258930900134146,0.12548892160488156,256,0,1,1,3735.290709952944,0.918049494013528,0.0118952634862254,468.7376030727274
256,1536,58.71468823812938,294432,41111,49000448,29884840,1.0521554132297457,0.2185600642556479,1.0,256,0,1,1,246.03140056390347,0.741695383769836,0.0886723668747182,468.7376030727274
256,2048,35.44283619999836,228376,35431,50311168,29807368,1.254851443875055,0.2599102438448195,1.0,256,0,1,1,172.55641931142645,0.7605418783475183,0.1039254470951663,468.7376030727274
256,256,426.73577931477416,258941,71651,33267712,29524840,0.5095182961130184,0.1542672689293172,0.35536187438764305,256,0,1,1,1319.0430286885799,0.8999899996109028,0.046603301579606,468.7376030727274
256,512,158.63519058256378,292140,47387,32743424,29715760,0.6305008877727367,0.0762249364274949,0.5469676634877049,256,0,1,1,856.974981087276,0.901767729820826,0.0355802017026944,468.7376030727274
512,1024,88.64390955082987,246159,40654,36286464,30092752,0.8243439174000196,0.1214582106231858,1.0,512,0,1,1,468.07445659024336,0.8005835498050263,0.0848585489274142,468.7376030727274
512,128,1022.5319613473451,301892,43555,32481280,29967464,0.6902621283973311,0.4082711940017557,0.24349927046610687,512,0,1,1,1925.0061906775686,0.9170729059192922,0.0089881070276049,468.7376030727274
512,1536,66.18149069204308,249857,44842,66969600,52063216,1.0321020973040758,0.1666152303510099,1.0,512,0,1,1,307.87080359406053,0.7355915131781898,0.1275332666378475,468.7376030727274
512,2048,56.26539792954279,305048,38528,49786880,31187472,1.1772384815426333,0.1792155619941899,1.0,512,0,1,1,225.96887910920674,0.7564004766244624,0.1093042026050632,468.7376030727274
512,256,308.73977304950347,277438,21427,32481280,30147432,0.566187981842613,0.1714415971931768,0.38981665373471425,512,0,1,1,1202.4565871721888,0.8970203348609127,0.0427873265538804,468.7376030727274
512,512,152.54448272218846,256166,40668,32481280,29568992,0.6209681931579331,0.0699260491998665,0.5684224258055579,512,0,1,1,824.6289762555391,0.8982234764297399,0.0497648302434941,468.7376030727274
