cpu,memory,duration_std,userDiff,sysDiff,heapTotal,heapUsed,avg_cpu_util,cpu_util_std,slo_preservation,total_cpu_shares,cpu_shares_others,num_containers,arrival_rate,latency,memory_util,memory_util_std,slo_duration
1024,1024,82.27751440600451,294370,23564,38121472,30803872,1.0409798262931387,0.2051396620486932,0.8872641150615105,1024,0,1,1,227.19311211388492,0.7730692695890488,0.1186374867942632,201.58029556779664
1024,128,256.74831980370953,265772,55491,32481280,30187376,0.7654895993786126,0.2392977661574828,0.40517584428406045,1024,0,1,1,497.5131129151738,0.8624970504264461,0.0970705944394702,201.58029556779664
1024,1536,81.3084204936893,266465,24887,37720064,16059552,1.064511769706841,0.2031854422036919,0.949561577479407,1024,0,1,1,212.28775505311376,0.7362825998393842,0.1247635743813631,201.58029556779664
1024,2048,43.78771572591604,223203,59795,50573312,30597280,1.2422551345697443,0.2270134118733871,1.0,1024,0,1,1,152.6887889004751,0.6541553755717563,0.1542210518459463,201.58029556779664
1024,256,70.25123782780143,241153,43972,32481280,30259344,1.0471049327387745,0.1610636484865233,0.7692148783993257,1024,0,1,1,262.05979789063497,0.8860474653884223,0.0745805085707818,201.58029556779664
1024,512,61.74714015064776,273008,39051,33005568,30386888,1.0199649186416861,0.1826785237075251,0.7132522668964394,1024,0,1,1,282.6213177631093,0.8851194401788606,0.0567470452848087,201.58029556779664
128,1024,73.12738747870561,228627,45703,39694336,30745760,1.0164218005707755,0.1286506872895942,0.918239327173979,128,0,1,1,219.52914627190998,0.8027018229187284,0.1026958025304485,201.58029556779664
128,128,319.56369849752866,300058,55775,33529856,30781432,0.8472161529239062,0.2783018003175148,0.4309248121039379,128,0,1,1,467.78530710173175,0.8811573212153919,0.0569704053595391,201.58029556779664
128,1536,57.03597479217868,286633,40301,51097600,30524128,1.3340255654979098,0.3254225002916952,1.0,128,0,1,1,152.43988737711572,0.7354945717240114,0.1162767570472003,201.58029556779664
128,2048,28.503104688980432,289582,33933,50311168,31317944,1.5048330400293854,0.1944562449492088,1.0,128,0,1,1,110.98236498055712,0.7035253409411505,0.1405743743074827,201.58029556779664
128,256,77.15245128070765,364031,19364,33267712,30011536,1.0405378562404137,0.1904970405972171,0.7439232331440452,128,0,1,1,270.969216428229,0.875115254121076,0.0652416460034757,201.58029556779664
128,512,54.0121887920112,203641,49266,32743424,30222856,1.0065683486710981,0.15269598481819,0.7634155163229595,128,0,1,1,264.05056127064495,0.8925490967892651,0.0660190184306369,201.58029556779664
1536,1024,79.42276124649509,303702,46798,39432192,30702936,1.0663314122139051,0.1996990727046046,0.8689620544519134,1536,0,1,1,231.97824868767233,0.782075919202689,0.0955549936917895,201.58029556779664
1536,128,291.30593208394754,252004,41203,33005568,30359288,1.0155154037794674,0.3138076328870031,0.5509539752235636,1536,0,1,1,365.8750179377511,0.8702315269733806,0.0744772869349066,201.58029556779664
1536,1536,47.05064306581249,252736,43430,39292928,15900248,1.2428738374203159,0.2178362062158214,1.0,1536,0,1,1,171.1506266755148,0.6784883108400853,0.1570764722379419,201.58029556779664
1536,2048,28.18336140940644,278177,36255,50573312,31077144,1.4814348844440748,0.1899395924175057,1.0,1536,0,1,1,111.41520000825784,0.7082561234070744,0.1154728336965242,201.58029556779664
1536,256,49.94862833516931,274612,26789,33267712,30798672,1.0644630651105016,0.175247632713682,0.7450185873344743,1536,0,1,1,270.5708273521203,0.8925690645754484,0.0660759028532625,201.58029556779664
1536,512,74.80110880569495,248164,38396,32743424,30210256,0.8420592513769614,0.1410879612644943,0.5988730055705243,1536,0,1,1,336.5994020314182,0.8625205818856901,0.0703659676476328,201.58029556779664
2048,1024,111.73411196299652,257206,36544,38645760,30576768,0.8646252408610184,0.160517818890674,0.6643174518194583,2048,0,1,1,303.4397109630354,0.7639645455025448,0.1131627096858822,201.58029556779664
2048,128,251.3261884413345,263519,82262,33005568,30202200,0.8037345503236273,0.2909756041202571,0.4390076900244771,2048,0,1,1,459.1725843266149,0.876849005428381,0.0806049309822683,201.58029556779664
2048,1536,49.85887712868024,235869,35815,39817216,16029720,1.311837388032634,0.2773612464748761,1.0,2048,0,1,1,150.55008467460408,0.7029812358985436,0.1179501049010667,201.58029556779664
2048,2048,28.42925020617225,242068,46606,49786880,30501736,1.4957636618088326,0.2527740233413367,1.0,2048,0,1,1,104.4290484741515,0.7250798514055401,0.13089981956821,201.58029556779664
2048,256,39.16737252817754,236605,27102,33267712,30177416,1.3107041349278075,0.2545357259856693,1.0,2048,0,1,1,195.9246257723291,0.8911293271125358,0.0411791734025089,201.58029556779664
2048,512,70.34636183798817,303042,34059,33267712,30271720,1.037342943324405,0.194834906007586,0.7488277011312409,2048,0,1,1,269.19449596118415,0.889703098587419,0.0541808226580804,201.58029556779664
256,1024,85.06682926690242,305289,40249,39432192,31438896,1.0355380334197302,0.2008581348792164,0.8493978629086073,256,0,1,1,237.32140657562036,0.8234880288947781,0.0837489755712117,201.58029556779664
256,128,238.3882831100248,254283,49996,32743424,29963200,0.778911933963359,0.3206311314964968,0.3947616797736706,256,0,1,1,510.63795169624626,0.8609062256283779,0.0709089126827886,201.58029556779664
256,1536,46.54137173487251,327430,22855,49262592,30378080,1.1507270842391875,0.2370786160563058,1.0,256,0,1,1,163.12709778181065,0.7365785829752796,0.1127147642914542,201.58029556779664
256,2048,31.952583112498463,302249,34871,50573312,31677616,1.4500327376245348,0.2011508381307794,1.0,256,0,1,1,108.60088939233867,0.6965548546685107,0.1278176914884716,201.58029556779664
256,256,68.85644160276289,245146,39628,33267712,30073936,1.0140484504296727,0.1880581692219025,0.7332115065363165,256,0,1,1,274.9278942989586,0.857505569700631,0.0597337184706696,201.58029556779664
256,512,74.79778836193265,241321,55377,33005568,30122504,0.8533777433415073,0.1416790213637747,0.6192362962644419,256,0,1,1,325.5304909996955,0.8992581565669955,0.0408723403558127,201.58029556779664
512,1024,83.25817942277747,289223,53666,39170048,31334440,0.8913296634131103,0.1227960308405051,0.6616646329149887,512,0,1,1,304.65629495674716,0.7370195618346347,0.1254669896110156,201.58029556779664
512,128,318.147982013935,223594,73163,33005568,30461840,1.11585450996596,0.4571434468219195,0.5753973114992383,512,0,1,1,350.3323556423386,0.8764917607562387,0.067715385910415,201.58029556779664
512,1536,57.70170646862088,226741,43954,73134080,55674576,1.3648263769726308,0.241876447868354,1.0,512,0,1,1,153.12484964402142,0.7000906809116386,0.1363065991253702,201.58029556779664
512,2048,23.64388064578507,244463,39031,50049024,30518472,1.4942236484088773,0.2252712291998362,1.0,512,0,1,1,110.42181350707858,0.7130988170475911,0.1199634033252577,201.58029556779664
512,256,53.73483610377717,293714,33774,32743424,30266760,0.9441781132860336,0.0966781977447777,0.6794453909819751,512,0,1,1,296.68358670659427,0.8790735563364818,0.0641002911003944,201.58029556779664
512,512,60.37565871657343,228144,27337,33267712,30371760,1.0384207849823814,0.1993487359414041,0.7419170910998127,512,0,1,1,271.70191654295957,0.8862619724399815,0.0547188806379929,201.58029556779664
