cpu,memory,duration_std,userDiff,sysDiff,heapTotal,heapUsed,avg_cpu_util,cpu_util_std,slo_preservation,total_cpu_shares,cpu_shares_others,num_containers,arrival_rate,latency,memory_util,memory_util_std,slo_duration
1024,1024,153.9836452152213,201520,38197,39956480,29730328,0.6072236842432958,0.1698124775348221,0.7236248547776509,1024,0,1,1,571.3442740212461,0.7693589429412577,0.1217414765886718,413.43891731666656
1024,128,141.25861994986104,323158,9966,32481280,29939832,0.6619278351934809,0.2122052093989488,0.6064965847704464,1024,0,1,1,681.6838341689088,0.8716971449540729,0.0651102237647879,413.43891731666656
1024,1536,146.38048720349963,244770,33152,49786880,29659976,0.5426930137665792,0.1568423890972612,0.7458220740717553,1024,0,1,1,554.3398776862828,0.7482770315872873,0.1117435137759266,413.43891731666656
1024,2048,142.2308641007436,299996,32319,50573312,29912176,0.5545290222897445,0.239653486715521,0.8001105252935802,1024,0,1,1,516.727257356058,0.7557457174171055,0.0930536019220148,413.43891731666656
1024,256,172.2671865394106,236483,30040,33005568,30197368,0.6686846921801098,0.2306444702418125,0.6471838440100556,1024,0,1,1,638.8276239328416,0.8914224335781287,0.0683418549299827,413.43891731666656
1024,512,135.12157189457287,259971,24794,33267712,29430728,0.6920410578187002,0.1988121236205541,0.6375911794854594,1024,0,1,1,648.4388909682136,0.8743116262381093,0.0721627459059506,413.43891731666656
128,1024,123.59306114379808,258770,28599,39694336,31385240,0.5975105990422663,0.2309828059737524,0.6188897120923166,128,0,1,1,668.0332686722638,0.7886051625600523,0.1046905603885463,413.43891731666656
128,128,223.9061477121932,258152,40095,33005568,29590104,0.6296713339831117,0.1502318678231203,0.5707929314482567,128,0,1,1,724.3238213683896,0.8802707333973275,0.0409663688029217,413.43891731666656
128,1536,138.5943817903168,202000,38638,36671488,15352304,0.5612804169250556,0.2143181196584044,0.7492745997646917,128,0,1,1,551.7855769386902,0.6748572194427707,0.1564969486132291,413.43891731666656
128,2048,125.41549976424712,198847,62653,49524736,29645712,0.5609584980331663,0.1905961091395556,0.865266608140409,128,0,1,1,477.81679476249565,0.7112797773264086,0.1242147379509073,413.43891731666656
128,256,152.0269291791474,241913,32307,32743424,29823520,0.6635640571726905,0.2035946180427161,0.6694427784539362,128,0,1,1,617.5866416417172,0.8793775943292055,0.0714608553873358,413.43891731666656
128,512,149.94044305573132,188817,41498,32743424,30080368,0.7060641198838166,0.2166036684489859,0.6693869290522337,128,0,1,1,617.6381691558322,0.8807899647929158,0.0660846176387846,413.43891731666656
1536,1024,141.12597796953798,212018,46294,37597184,30722120,0.5777111635670018,0.2353026630688097,0.6759842751641092,1536,0,1,1,611.6102585615556,0.7689597715392394,0.1155295869989172,413.43891731666656
1536,128,220.65708935931136,302488,33939,32743424,30195648,0.6068017485612412,0.1974338204619301,0.515931929655497,1536,0,1,1,801.3439245613893,0.8724473809039782,0.0687190399990065,413.43891731666656
1536,1536,129.97361799207118,283702,30072,50049024,29732072,0.5886137004332133,0.2847685659087506,0.834272945289616,1536,0,1,1,495.56793091635274,0.7176189690339106,0.1269932110531573,413.43891731666656
1536,2048,145.61509370181608,202522,40560,69017600,51118448,0.5571211169431943,0.2212635334659011,0.7851771462339351,1536,0,1,1,526.5549555278152,0.7523918833215675,0.0920665110496404,413.43891731666656
1536,256,140.6494268197293,189898,31551,32481280,29746808,0.6955098852628957,0.1714779322697932,0.7174945842095325,1536,0,1,1,576.2258369826643,0.8978550745484813,0.0440710086943099,413.43891731666656
1536,512,128.65901275542947,228799,51273,32743424,29971008,0.6760065841836059,0.1713102012597404,0.6591591660953422,1536,0,1,1,627.2216766183387,0.8962310442392024,0.0547662352703774,413.43891731666656
2048,1024,131.90807995958986,230361,36531,39170048,29829136,0.6522393736640233,0.2520085526752599,0.7029505344507001,2048,0,1,1,588.1479521738129,0.7695583012000452,0.127117024788017,413.43891731666656
2048,128,153.39143067241767,256200,27594,32743424,30098920,0.6703126932005455,0.1751871379907432,0.6276158261279698,2048,0,1,1,658.7452070279169,0.8739393807516027,0.0509185940334948,413.43891731666656
2048,1536,122.592217228586,189077,33398,39030784,15348400,0.4895320699427161,0.1596176333625945,0.7674510448336813,2048,0,1,1,538.7169906143854,0.7432538325366872,0.143627005593499,413.43891731666656
2048,2048,123.13874974218952,219067,65657,69017600,51015152,0.5096831792671783,0.2047261505836045,0.7914111200170649,2048,0,1,1,522.4072632537078,0.693088339095375,0.134484149625267,413.43891731666656
2048,256,148.62682730210764,272615,16940,33267712,29656704,0.70449581497476,0.2529842584748735,0.6448483841625086,2048,0,1,1,641.1412782767795,0.8685415795113673,0.0764864539746242,413.43891731666656
2048,512,144.92130245115786,228684,40449,32743424,29719856,0.6336470278756416,0.1382710409142528,0.6034216158648985,2048,0,1,1,685.1576185650472,0.8611741905027349,0.0966527971589276,413.43891731666656
256,1024,167.81410772018594,228677,30547,38645760,30717016,0.6805417521914373,0.2310073702629847,0.72923773917809,256,0,1,1,566.9466829605469,0.7475434282940164,0.1227114405971464,413.43891731666656
256,128,138.59568184244287,246298,41792,32743424,30084704,0.6234619251332731,0.1634450957178716,0.5967759080119418,256,0,1,1,692.7875468263599,0.8660215791178674,0.0803436144092063,413.43891731666656
256,1536,156.64169718015611,279287,41006,50311168,30129584,0.642707333017383,0.1852035547921418,0.8691737779181364,256,0,1,1,475.6688798262463,0.7012721131944437,0.1338226946847604,413.43891731666656
256,2048,149.7155827557346,283016,26722,50573312,30039328,0.5955576045860013,0.2112340625391783,0.853540767420686,256,0,1,1,484.3809845967138,0.6920717098866562,0.1450345316819243,413.43891731666656
256,256,131.94838745537103,226307,49095,32743424,29742512,0.7185188054457101,0.2055228632924043,0.6694171287607561,256,0,1,1,617.6103053742237,0.8534924021510786,0.0477796403951541,413.43891731666656
256,512,150.99011964116227,195167,32889,31956992,29691040,0.6348848457157493,0.1735481437159284,0.6609364973385679,256,0,1,1,625.5350082519055,0.8660581248681035,0.054487004124825,413.43891731666656
512,1024,158.3840770356962,201863,15608,36810752,30115920,0.6483409589864428,0.2314681879803367,0.7547310125877102,512,0,1,1,547.796380990266,0.788868694444766,0.107198206511223,413.43891731666656
512,128,129.8932116770796,245610,32257,32219136,29637696,0.689749888379622,0.1839502048441662,0.651736095561312,512,0,1,1,634.3655355786142,0.8626091802179078,0.081906830824083,413.43891731666656
512,1536,142.7764873878564,252810,49651,50573312,30656152,0.6223762135352041,0.2140189861159998,0.8334726888901037,512,0,1,1,496.0437490366045,0.6845485074531787,0.1357565176080689,413.43891731666656
512,2048,135.42370907141046,309193,17051,50573312,30694400,0.5771977746186565,0.213312400287342,0.8238456939333442,512,0,1,1,501.84023581255394,0.6830159337486007,0.1354800238462058,413.43891731666656
512,256,139.25403201552422,198991,22373,32743424,29758480,0.6736733055195435,0.2133737707039306,0.6812763486196634,512,0,1,1,606.8593429881087,0.912159075566794,0.0305385684335482,413.43891731666656
512,512,167.12278622300707,228639,16193,32743424,29512720,0.6957584977969644,0.2020086601382931,0.6469615849896554,512,0,1,1,639.0470885891583,0.8886996192336598,0.0518223852848,413.43891731666656
