cpu,memory,duration_std,userDiff,sysDiff,heapTotal,heapUsed,avg_cpu_util,cpu_util_std,slo_preservation,total_cpu_shares,cpu_shares_others,num_containers,arrival_rate,latency,memory_util,memory_util_std,slo_duration
1024,1024,70.63059477528994,341756,30922,39170048,30625960,0.9821779625106707,0.1207327802456167,0.5389274013573723,1024,0,1,1,392.90639462757514,0.7501465625661059,0.1076701214025084,211.74802223333327
1024,128,104.6623758487228,312579,54819,32481280,30185768,0.9523634115826541,0.1590422466185745,0.46785541337091374,1024,0,1,1,452.59286561991826,0.9000501107030022,0.0567724606993147,211.74802223333327
1024,1536,56.95530931006629,320494,42752,50311168,31375168,1.263003542261464,0.3331353027658615,0.8921515732273262,1024,0,1,1,237.34534420798298,0.6553780568373255,0.1673457238214504,211.74802223333327
1024,2048,39.43650353495154,275895,41774,49524736,30098704,1.4016425582766436,0.3733133631163281,1.0,1024,0,1,1,197.60280416967308,0.6136926683659312,0.1695917427611098,211.74802223333327
1024,256,51.78064840593332,216874,38791,33005568,30083112,1.139731517808514,0.138756339197674,0.6581773594558421,1024,0,1,1,321.7187877875336,0.8651828074670151,0.0517808051867963,211.74802223333327
1024,512,66.20912487000523,275940,27958,32481280,29697568,1.1046461725995602,0.1793898987803976,0.6255628480867692,1024,0,1,1,338.49200425016704,0.8736285607613207,0.0931084314809748,211.74802223333327
128,1024,89.76711705784132,261814,48812,36810752,30789752,1.0218907056258086,0.1928945772453048,0.5837853405958063,128,0,1,1,362.71555229054746,0.776739609017235,0.0885131699719154,211.74802223333327
128,128,507.9899355511109,333996,31666,33005568,30479616,1.1612787896017758,0.4486706574701345,0.3576712912401429,128,0,1,1,592.0185025170617,0.8727280256804569,0.0878402174103583,211.74802223333327
128,1536,62.94207731594758,386979,47511,50311168,30178848,1.2144270196806553,0.3951379008421546,0.8139544329290818,128,0,1,1,260.147268282993,0.692536013001796,0.1422958025911957,211.74802223333327
128,2048,36.9200689365052,253292,72351,49786880,30054520,1.455241336178849,0.4043029420678119,1.0,128,0,1,1,176.03350734887567,0.6530250145371002,0.1588977360789248,211.74802223333327
128,256,78.70715357221682,264838,36504,32743424,30484208,0.9773759845852896,0.1647930789841586,0.5265787463119267,128,0,1,1,402.12033568840855,0.8965567972726871,0.0408942316888916,211.74802223333327
128,512,80.16169465575362,347074,69734,33267712,29789496,1.0882538609230015,0.2020664341195397,0.49846884720281526,128,0,1,1,424.7969023973488,0.8791575938480488,0.0835187260384306,211.74802223333327
1536,1024,86.23417626712009,318328,27268,39432192,29793320,1.0194725714157284,0.2213120913531716,0.6026427600859081,1536,0,1,1,351.36574477912603,0.7634023858575097,0.1167784714861409,211.74802223333327
1536,128,118.4154947431046,326049,60090,32743424,29927160,0.9330083583523463,0.1694809495978948,0.43634524385208306,1536,0,1,1,485.27633844248766,0.8893189214118469,0.0644371861867012,211.74802223333327
1536,1536,66.22721716015806,391608,49234,50573312,31666264,1.122564032560437,0.2408489081016127,0.7262528473039042,1536,0,1,1,291.5623987147361,0.631083128132654,0.1467592479572031,211.74802223333327
1536,2048,30.42519087170664,285830,36130,49524736,30606808,1.4147545587483399,0.4295855808884075,1.0,1536,0,1,1,178.1617756787252,0.6607002602090746,0.1507875072678478,211.74802223333327
1536,256,52.060722676927945,338661,19555,32743424,30213872,1.12715224279983,0.1405886368306981,0.6306250338731934,1536,0,1,1,335.7748437812758,0.8743206984659396,0.0533603181521681,211.74802223333327
1536,512,65.94473282287626,311304,36577,32481280,30112176,1.104379390006653,0.2406074530546332,0.5771962498243068,1536,0,1,1,366.85619890598286,0.8992282446409364,0.0545035944718587,211.74802223333327
2048,1024,76.38053771202217,207482,32487,38383616,31095920,1.0622726810043412,0.196347230692874,0.6461140364968143,2048,0,1,1,327.72546372992673,0.7876284849581202,0.1363577138358823,211.74802223333327
2048,128,78.63582265528142,296455,34187,32743424,30319968,1.0527982402948965,0.2659255320826648,0.50562829272014,2048,0,1,1,418.78198922411485,0.9058119621255089,0.0498155561736487,211.74802223333327
2048,1536,51.01342194204676,324459,40892,50311168,30706096,1.245825780033446,0.235321472070561,0.8056588996303928,2048,0,1,1,262.825896083908,0.6272241374505173,0.1457052136103884,211.74802223333327
2048,2048,35.38196392272037,295083,53619,49786880,30598976,1.3683438218506496,0.3930822353587369,1.0,2048,0,1,1,177.53188740323304,0.6482778549615098,0.1567811619805166,211.74802223333327
2048,256,80.47549555969334,313044,25637,32743424,30539848,0.9882147103167195,0.2191664471433307,0.5169432971645076,2048,0,1,1,409.6155678868361,0.8918110295035568,0.0412462722623997,211.74802223333327
2048,512,62.91392218673312,311674,23733,33005568,29845528,1.1104581746983768,0.1222978545232071,0.5581114688959117,2048,0,1,1,379.4009513049883,0.8598978183013015,0.0691640736238449,211.74802223333327
256,1024,86.60229923252462,463552,47138,39432192,30533096,0.9296938867528237,0.1389024983217743,0.5163667534940656,256,0,1,1,410.07291968452967,0.7612088127689534,0.1225205200440938,211.74802223333327
256,128,114.4306852281543,263959,31404,32743424,29876104,0.9336305050095166,0.1284876900147385,0.4671849473414112,256,0,1,1,453.2423902745977,0.8901280581921798,0.0754441536491309,211.74802223333327
256,1536,70.61190826215633,282569,53445,49786880,29948792,1.2071247086793042,0.3017401752840041,0.7656881076501582,256,0,1,1,276.5460506931115,0.653440840843312,0.1545120469836342,211.74802223333327
256,2048,38.0806154636047,312025,43085,49262592,30132696,1.443062486673176,0.3858940690611418,1.0,256,0,1,1,186.26104828725093,0.657530998685562,0.1651342671097983,211.74802223333327
256,256,63.830101944234144,260809,45013,32743424,29938360,1.2101217345500321,0.1806191162663385,0.6778750503925168,256,0,1,1,312.37028433296473,0.868687544239838,0.0915231446984691,211.74802223333327
256,512,63.064415462720326,370538,29841,33267712,30556144,1.11267276490578,0.1483541295163235,0.5662776268497572,256,0,1,1,373.92969842602224,0.8776856036641714,0.0477349909669695,211.74802223333327
512,1024,86.5458128642696,350277,22418,38907904,32201312,1.0232519409395489,0.221124527739415,0.5780093712587813,512,0,1,1,366.3401196630968,0.7626690746132121,0.0988098927113583,211.74802223333327
512,128,67.01460248723805,327192,40738,33005568,29770008,1.0902640940791257,0.1405797703723794,0.5527336573024193,512,0,1,1,383.09232563610425,0.8778477109731092,0.0821751602280223,211.74802223333327
512,1536,61.55238565509519,354705,36607,50835456,31001696,1.1890627024998643,0.2331280013448252,0.766842410127241,512,0,1,1,276.12977508403355,0.662839461976978,0.1541163311210366,211.74802223333327
512,2048,43.039682282221015,367661,27882,49786880,30897216,1.4076513068192837,0.3844046599087348,1.0,512,0,1,1,197.63563624458232,0.6581821751972743,0.1553320170458962,211.74802223333327
512,256,85.80470596749387,320687,39168,33267712,30513064,1.0199762413910598,0.164494104727552,0.5088162104980049,512,0,1,1,416.1581684398076,0.8743733353819548,0.0739435039185495,211.74802223333327
512,512,71.36240509478112,384865,32787,32481280,29943856,1.097681310498997,0.1307910225192749,0.5618528079350156,512,0,1,1,376.8745465766618,0.877853268351379,0.0763397891096695,211.74802223333327
