cpu,memory,duration_std,userDiff,sysDiff,heapTotal,heapUsed,avg_cpu_util,cpu_util_std,slo_preservation,total_cpu_shares,cpu_shares_others,num_containers,arrival_rate,latency,memory_util,memory_util_std,slo_duration
1024,1024,83.79782362083215,233230,34784,60145664,48778160,0.9872020647445875,0.1314533349231975,0.7103684250679116,1024,0,1,1,389.73345478936875,0.7649177504002734,0.0661426534237087,276.854340475
1024,128,117.11895311352372,248355,38678,24072192,20681856,0.786570270736934,0.0899064194422354,0.45690872388828097,1024,0,1,1,605.9292064265637,0.8780664097117554,0.0236402512324545,276.854340475
1024,1536,75.31889904138298,108315,37291,56463360,36882056,0.9620616303700902,0.1117854102240131,0.7546123197805963,1024,0,1,1,366.88287908617167,0.6809829937383547,0.061978352247236,276.854340475
1024,2048,61.214856887137344,154816,43065,69431296,49778432,1.0749895910880851,0.1230920534819697,0.8877396117213484,1024,0,1,1,311.8643539383951,0.6867648561864585,0.0627416723558269,276.854340475
1024,256,104.48973956271604,223378,38352,32210944,28061456,0.9731526917944144,0.1606894918967613,0.5022256165292166,1024,0,1,1,551.2549168405355,0.8736576084206689,0.024325002935143,276.854340475
1024,512,74.93487820394495,226614,28413,34377728,29597008,1.020729884681559,0.1064858461585524,0.6159159460631122,1024,0,1,1,449.5001992473679,0.8793965672952693,0.0210189738254597,276.854340475
128,1024,87.78676121698078,294192,45380,59133952,47721944,0.9629723150921503,0.1201867993782012,0.6600489537739832,128,0,1,1,419.44516219898696,0.7858219322259965,0.0372421349055171,276.854340475
128,128,113.01586565559168,328498,77296,49074176,45282696,0.8226518749042359,0.1311768257261583,0.5066891801294617,128,0,1,1,546.3987614739716,0.8871113488757197,0.0216944383678794,276.854340475
128,1536,51.9786196503144,189247,15790,40329216,21276248,1.0374798951819673,0.1131087065662938,0.8904025316756411,128,0,1,1,310.9316636308189,0.6666384620265255,0.0585564483856725,276.854340475
128,2048,50.035198673302105,236722,82311,86171648,65897416,1.1184484153200962,0.1355187876528081,1.0,128,0,1,1,243.92948468010292,0.6688743529771544,0.0605911095421269,276.854340475
128,256,91.79040770004464,312162,73688,47017984,42043632,0.9981773596760355,0.1150455266594602,0.5692981336187809,128,0,1,1,486.3081821736482,0.8883906572269733,0.0194048364034724,276.854340475
128,512,65.24924881700329,246444,43904,32210944,27739368,1.0381995239447133,0.1335609979312784,0.6057843292041497,128,0,1,1,457.0179965512114,0.8759222575734684,0.0302367116137317,276.854340475
1536,1024,68.36893403685643,155776,50449,46895104,37232848,0.9804200317063355,0.1347089769413163,0.7199456542832944,1536,0,1,1,384.5489431429493,0.7627162025879979,0.0563732559984362,276.854340475
1536,128,109.4964351004658,357399,34537,36589568,32949200,0.8575769904779962,0.1232686298130505,0.5057780130390184,1536,0,1,1,547.383107485224,0.8689893348756206,0.0318229312946459,276.854340475
1536,1536,54.18674597046046,171330,47897,62971904,43813888,1.0712197969952753,0.1009217990504558,1.0,1536,0,1,1,274.2524215179869,0.675807718822294,0.0499302327430186,276.854340475
1536,2048,48.837898086527474,191871,65949,64679936,44412104,1.1374139595878767,0.1541935890311053,1.0,1536,0,1,1,241.85211680225365,0.672117583408471,0.0581790640089563,276.854340475
1536,256,96.70573345295814,74696,8435,37892096,33426104,1.0850876923837747,0.1239392252182812,0.7142867880456372,1536,0,1,1,387.59549400668914,0.8748686692058261,0.028057786112978,276.854340475
1536,512,97.22335719235812,274350,42020,36450304,32334944,1.0068974471188727,0.1360559336098355,0.6478263540432849,1536,0,1,1,427.3588728631775,0.8798000706555766,0.0314880527316525,276.854340475
2048,1024,90.98523692733008,232028,60081,44646400,36664992,0.9548798218471668,0.1266973551927564,0.7112288354306114,2048,0,1,1,389.26197404156056,0.754397937623545,0.0643405467624357,276.854340475
2048,128,119.89434839438844,349575,53247,37474304,33139808,0.8332929009414949,0.089824135878711,0.4599825741094095,2048,0,1,1,601.8800625459098,0.8640581986408735,0.0469765839849065,276.854340475
2048,1536,72.34634518012139,55953,24233,46604288,29252344,1.0103675370301477,0.0915677343578123,0.9768872915056542,2048,0,1,1,283.4045881058507,0.6743879164178189,0.0620312849276552,276.854340475
2048,2048,31.88680098972383,171727,33724,58855424,38837488,1.1574167723304793,0.1737057002140923,1.0,2048,0,1,1,211.55724384457238,0.6613342582276134,0.0638983071969819,276.854340475
2048,256,116.37751855314475,160609,45830,32473088,27799112,0.9692907387076634,0.098349874655343,0.6450314604210463,2048,0,1,1,429.2106005097526,0.8745021924699049,0.0189289575129253,276.854340475
2048,512,86.7580833325176,127604,21332,30937088,27071208,1.038392739168361,0.1081412965791834,0.6089463826531658,2048,0,1,1,454.6448560360139,0.8763849268827576,0.0237766630594355,276.854340475
256,1024,110.56802243900052,222481,60243,42627072,30921616,0.9767569787246526,0.1153723889559007,0.649023540899842,256,0,1,1,426.57056798148477,0.7710390998373042,0.0385185420479293,276.854340475
256,128,124.07480619353652,120504,28179,32739328,28221184,0.8794184315437648,0.1083113334326649,0.4997441407002082,256,0,1,1,553.992169046925,0.8788951284421728,0.0299559249195664,276.854340475
256,1536,55.24689169945126,286700,65922,78589952,58052240,1.0543166021309403,0.1164821069368738,0.9282045940828769,256,0,1,1,298.26865999144195,0.6881486038686959,0.038108158116652,276.854340475
256,2048,41.851036708299496,176529,50465,42991616,27304504,1.1477718594884392,0.1590377279234565,1.0,256,0,1,1,263.8057164842811,0.6717079393249806,0.0559811595763049,276.854340475
256,256,85.83411948847451,294271,31450,34377728,29710784,1.001149148708997,0.1174023637214764,0.6787008087997003,256,0,1,1,407.918094225678,0.8694786182110219,0.0383171565844609,276.854340475
256,512,110.42313167471823,278291,55756,36589568,32943808,0.9164234228149055,0.0913771956625572,0.5002205851222443,256,0,1,1,553.4645088773028,0.8799440033505554,0.0250243627588959,276.854340475
512,1024,113.14278924030334,263628,59510,29646848,19418048,0.8802786220618201,0.1204721698752727,0.6033527144313398,512,0,1,1,458.85985734884014,0.7737504301021205,0.0532506730236427,276.854340475
512,128,141.720594823483,266378,39238,36589568,32619704,0.7703753402822561,0.0903943547114574,0.415479510237748,512,0,1,1,666.3489622305968,0.8747955900686955,0.0290936738377836,276.854340475
512,1536,40.93131248196629,220075,77103,63373312,46530456,0.9859521858564907,0.1207053442930562,0.7306032866893079,512,0,1,1,378.9393580879598,0.6751370997625371,0.0603801044695922,276.854340475
512,2048,42.249837882703815,200073,60712,79335424,59166616,1.0863667426763088,0.1144631810805608,1.0,512,0,1,1,258.57204279153194,0.6902531787161302,0.075885599523784,276.854340475
512,256,108.95136804012633,277704,33383,36327424,32287048,0.8738177859394092,0.1039645877562439,0.5149291603651804,512,0,1,1,537.6551995592148,0.8825573039805489,0.0228047709629131,276.854340475
512,512,117.6180936679757,360203,48969,31686656,27597024,0.8381513472036739,0.0934525726565556,0.4573256959308292,512,0,1,1,605.3767433983732,0.8812592614405776,0.0206783482116549,276.854340475
