0.45710260097320277
0.34700914539345246
0.30156881695007653
0.29225539774721726
0.27845508406796105
0.2609395716969979
0.2564732555311726
0.26052064325255225
0.2517964393135015
0.24730053026826826
0.24288733909250332
0.2437286515157015
0.24434561465783272
0.23731810498557096
0.2365052762345911
0.24192323012111966
0.2400064740173855
0.2305612563021241
0.23905611508123567
0.23827907210720678
0.2274981996328588
0.2395343072202798
0.2311551636248525
0.2327988273145149
0.23053143029374695
0.2284691333085035
0.22725229292645163
0.2255985524763073
0.21658089260947003
0.22848033472540355
0.2231115703223367
0.22276585007720934
0.22028110945825974
0.21565944200277445
0.22887379858197227
0.2209301104841884
0.21904615048551723
0.2226455092858285
0.22227557896081782
0.2217768704579432
0.2242926430901247
0.2201139202405785
0.21793212100428094
0.21469748796918064
0.2169486417587279
0.21619536284739888
0.21918803487596925
0.22293027121771228
0.21462486107870318
0.21681445166112306
0.2082133659941901
0.2060852062155239
0.22126935131290953
0.21497435779265925
0.21669859294662247
0.2097156229652571
0.21382249990834462
0.20887960994730412
0.2113481037612568
0.2143903889326163
0.21004358930767866
0.20686771239701102
0.21412061262397328
0.2068575607905266
0.21578762885337552
0.2026869685272257
0.20234652346977
0.20361077970836122
0.21111757659936276
0.21051031830198175
0.21473588354722034
0.20385898387238593
0.20359223859607514
0.2135021347180187
0.2103276045131136
0.2067812210834063
0.2067430119838394
0.19959256430183467
0.2040883024287813
0.20488446442230374
0.20715034253206313
0.2070210864236673
0.2042626604415289
0.20695344752057773
0.20677561861569993
0.20625060881235985
0.2034296239308729
0.20440205292335922
0.20057013113831396
0.20204252111992974
0.20372641536797673
0.20259682511070592
0.20839522120758758
0.20253119293900854
0.2075580935220345
0.20642915908388276
0.20876230097829918
0.20154715258756883
0.21012647771359133
0.2096543876127326
