cpu,memory,duration_std,userDiff,sysDiff,heapTotal,heapUsed,avg_cpu_util,cpu_util_std,slo_preservation,total_cpu_shares,cpu_shares_others,num_containers,arrival_rate,latency,memory_util,memory_util_std,slo_duration
1024,1024,118.6556827848991,25374,3504,26054656,15030280,0.23641249342222015,0.1122266062495822,0.8307675120501555,1024,0,1,1,422.6923574699993,0.6569434384466566,0.0644156898956233,351.1590781779663
1024,128,156.81795675817273,23225,1316,24829952,21548872,0.19238221518219523,0.0310978865344378,0.748111693471159,1024,0,1,1,469.3939170348018,0.8655459787939355,0.0098624894656282,351.1590781779663
1024,1536,134.82205398196191,34650,7731,34312192,15160352,0.2148542962983741,0.0745063480914153,0.8972503481466129,1024,0,1,1,391.37246243852786,0.50552233396118,0.0507643555358528,351.1590781779663
1024,2048,156.72161297536542,64400,12084,35098624,14687104,0.17230442109899666,0.0532440139782773,0.9876367471843102,1024,0,1,1,355.5548932126094,0.5212363125424759,0.0503322770261824,351.1590781779663
1024,256,115.8206481695371,25433,4754,24829952,21498752,0.18042602924188392,0.0326780663040336,0.7699014157700138,1024,0,1,1,456.109147203939,0.8678060472787343,0.0096460912366427,351.1590781779663
1024,512,148.02918210262632,26928,3833,24043520,21131888,0.2134741095115831,0.045321094533357,0.9596126959258209,1024,0,1,1,365.93834123794386,0.8669914370640124,0.0157412553571637,351.1590781779663
128,1024,115.38808776732076,19935,3987,25792512,15098704,0.2656422102308023,0.171266429452689,0.8332392295513801,128,0,1,1,421.43848455986887,0.643566616499859,0.0689503503750675,351.1590781779663
128,128,158.47546100669652,17816,6308,24567808,21590384,0.19738975436085157,0.0364013139471596,0.7499497190661899,128,0,1,1,468.2434958642518,0.8641949895667961,0.0088858841777574,351.1590781779663
128,1536,140.1648388524961,14650,4503,38207488,26073584,0.24606910378772331,0.174483274929129,0.8791395892306874,128,0,1,1,399.43495035328425,0.5618341790527716,0.0954945472132237,351.1590781779663
128,2048,130.65219851369918,18515,429,39256064,24939328,0.20481125543488643,0.0877155743319405,1.0,128,0,1,1,339.2244260488258,0.5250789008222349,0.0525308471696296,351.1590781779663
128,256,171.87050607303055,21148,4197,24305664,21196176,0.24272022628110745,0.060161846862035,0.7228456491608409,128,0,1,1,485.800915569777,0.865867212896567,0.0144142016270693,351.1590781779663
128,512,138.28333328286485,18175,6750,25354240,21220272,0.2029991491312253,0.0367455092229469,0.9340800558611172,128,0,1,1,375.9410941005875,0.8625052609242765,0.0134322100894873,351.1590781779663
1536,1024,121.6573771338553,77060,10099,25792512,14557960,0.24930643092087695,0.1005203389236464,0.8537013252793769,1536,0,1,1,411.33715947207673,0.6384322226283267,0.0548399358185619,351.1590781779663
1536,128,171.72235887724696,20856,5502,24305664,21195304,0.2679998411629729,0.0642070811010194,0.8573036635318423,1536,0,1,1,409.60874555381326,0.861291376115543,0.0135981747005646,351.1590781779663
1536,1536,125.20066754701176,17479,258,38993920,24852192,0.1677723310896361,0.0752760930965316,0.8529796617646083,1536,0,1,1,411.6851713105366,0.6228015997446216,0.0982649688697915,351.1590781779663
1536,2048,149.0706742102276,27920,8793,34574336,15173080,0.16168869974820585,0.051512784406451,0.8689009259760737,1536,0,1,1,404.1416779289241,0.5244906626695593,0.0514275565977771,351.1590781779663
1536,256,134.78895912361023,25258,2797,24567808,21525952,0.18862413068660985,0.0428415269901936,0.8675863668875323,1536,0,1,1,404.75402977775013,0.8643396086828545,0.0144142227037102,351.1590781779663
1536,512,128.51440605796137,16897,8528,24829952,21598040,0.17838513526742847,0.0430826397545164,0.7848786878592184,1536,0,1,1,447.40554637273164,0.8692714913126744,0.0122329097570198,351.1590781779663
2048,1024,167.9374625657756,15578,12080,30736384,24872456,0.2577086804235114,0.0937657778322693,0.9239168820453536,2048,0,1,1,380.07648198891604,0.6637349944839981,0.0778268707287336,351.1590781779663
2048,128,188.5766936059774,13479,11810,24305664,21096288,0.26833900165515673,0.0580955131484105,0.8601739238972232,2048,0,1,1,408.2419478457988,0.8589521868485315,0.0129608630047233,351.1590781779663
2048,1536,127.55552832678838,17423,4311,38731776,25454824,0.18896340249085974,0.0793981158382114,0.9554900862558157,2048,0,1,1,367.5172387753583,0.5589906583448674,0.1070240888764952,351.1590781779663
2048,2048,177.67585012326458,18722,14791,34312192,15175288,0.19527332007364856,0.0705490245356668,0.9796548107568157,2048,0,1,1,358.4518488779577,0.5258669804598902,0.0491811481380899,351.1590781779663
2048,256,190.43165052460216,21197,4258,24567808,21514928,0.22647325300024163,0.0586536154783082,0.8077344520161968,2048,0,1,1,434.7456980464724,0.8632255510602571,0.0128882152734034,351.1590781779663
2048,512,139.4026887608423,21213,5180,24305664,21086896,0.20384957592811448,0.0615346849120011,0.9339331495511713,2048,0,1,1,376.00022908141335,0.8653280460130505,0.0129996622517916,351.1590781779663
256,1024,155.89713458445408,23013,529,25792512,15030904,0.28939451549046524,0.1725629185355646,0.8209725439445057,256,0,1,1,427.73547150646635,0.6420180066535197,0.0554227474760501,351.1590781779663
256,128,269.10128605168404,21159,8862,24567808,21558080,0.22720638142138863,0.0441534117204136,0.7070684936794036,256,0,1,1,496.6408223772272,0.8617272384616907,0.0138670838060226,351.1590781779663
256,1536,132.92379165182294,25154,81,38469632,26156352,0.24958842418728852,0.0872332361084588,1.0,256,0,1,1,296.77035270071883,0.5113404482727555,0.0526641449476571,351.1590781779663
256,2048,128.7661357329398,24117,11225,34312192,15127184,0.15096361186155027,0.0340948821581535,0.9514138979452402,256,0,1,1,369.091810553074,0.5284021912047054,0.0482714590423273,351.1590781779663
256,256,216.5659659788675,27410,184,24567808,21552328,0.20952705401754876,0.0700105684439344,0.6526894655090756,256,0,1,1,538.0186087484561,0.86883989308955,0.0107672986254674,351.1590781779663
256,512,164.4996647523155,20843,8157,24567808,21591208,0.2683122054426138,0.068955597936214,0.896738793844699,256,0,1,1,391.5957250744095,0.8688902281499565,0.0130205983760277,351.1590781779663
512,1024,109.10075751801368,72723,8230,26316800,14561848,0.28897632352352925,0.1205529523307298,0.9996741761090437,512,0,1,1,351.27353148678526,0.6401720909980282,0.0620336294199821,351.1590781779663
512,128,161.53254226158822,24457,765,24567808,21519336,0.19393113090093286,0.0495021654575551,0.6820638717056207,512,0,1,1,514.8477917468804,0.8643228293709994,0.010674295820383,351.1590781779663
512,1536,138.7812036448306,24436,15291,34312192,15115400,0.23805462617098966,0.1580370424642206,0.9301720819307054,512,0,1,1,377.5205523789591,0.5712953327604517,0.1004963237042442,351.1590781779663
512,2048,136.09543488318604,16121,24,38993920,24934176,0.15422652574368645,0.0337480809143667,1.0,512,0,1,1,339.5561797296706,0.5284338892069353,0.0517988898885419,351.1590781779663
512,256,167.77278875675697,24876,264,24567808,21522736,0.2190852796241773,0.0455939614827681,0.7685645536121664,512,0,1,1,456.9025159013103,0.8665345370434426,0.012929564151695,351.1590781779663
512,512,146.6421610256179,25091,3571,24567808,20959728,0.24742168567376108,0.0665189016264257,0.8248025469437616,512,0,1,1,425.74926505641565,0.8626459020013797,0.0129372634242566,351.1590781779663
