cpu,memory,duration_std,userDiff,sysDiff,heapTotal,heapUsed,avg_cpu_util,cpu_util_std,slo_preservation,total_cpu_shares,cpu_shares_others,num_containers,arrival_rate,latency,memory_util,memory_util_std,slo_duration
1024,1024,73.92487547728837,507082,58150,47034368,31572432,1.0123084330490506,0.1149247444191409,0.48732679671879053,1024,0,1,1,691.3961845478766,0.7671452358396013,0.0991966703638238,336.9358878793104
1024,128,164.86364728580105,427251,58723,33792000,29609552,0.8940298606953883,0.1946898797918008,0.3444440589470198,1024,0,1,1,978.2020596010216,0.8829555742668892,0.0746544336770028,336.9358878793104
1024,1536,83.09122701053278,334900,57170,44806144,30767264,1.0230756308831426,0.1262195295005485,0.6374717049879725,1024,0,1,1,528.5503423021224,0.7772293313835746,0.0971720854116684,336.9358878793104
1024,2048,63.805530702610106,378033,39732,58970112,45084768,1.1765790596567263,0.1566203844140494,0.756020172186768,1024,0,1,1,445.67049964385535,0.7168457433323645,0.114978038897294,336.9358878793104
1024,256,55.44332014312573,376708,48213,33267712,30234872,1.049386423619968,0.1047446568768743,0.471799886866,1024,0,1,1,714.1499971893943,0.8874854462322626,0.0578935559114167,336.9358878793104
1024,512,78.29415511818456,354281,58033,33005568,29603368,1.0220665417746713,0.1043977083943032,0.4588361218956596,1024,0,1,1,734.3272942140559,0.8817476693149173,0.0708357482679363,336.9358878793104
128,1024,88.12733747468975,444605,36042,39432192,30152512,1.0600928646192527,0.1484332799802595,0.5263252571213403,128,0,1,1,640.166671312968,0.750137752131581,0.0869320082687991,336.9358878793104
128,128,346.469569479008,365094,52332,35627008,29873736,0.8250346473199329,0.2216029307086054,0.2826140380337346,128,0,1,1,1192.2121428345029,0.8831952843331805,0.0765419328047946,336.9358878793104
128,1536,66.04876143608679,331670,63458,44806144,31729688,1.169722931279078,0.1824719818650171,0.7724485593051668,128,0,1,1,436.1920076365877,0.6952824874967231,0.1549484041573663,336.9358878793104
128,2048,38.48525494387017,334131,58373,58970112,44979312,1.3058570777833887,0.289531702467376,1.0,128,0,1,1,320.65686831355765,0.7591599323734436,0.1212193478526528,336.9358878793104
128,256,73.5951787248586,551800,42363,38510592,29799440,1.0337133975879753,0.1168899278272563,0.4563200747519516,128,0,1,1,738.3762111769101,0.8441864104972471,0.0906316730858575,336.9358878793104
128,512,68.69639540248767,381772,69977,35364864,29908104,1.0204715419991766,0.1345104530318271,0.4274471604142073,128,0,1,1,788.2515526663246,0.8462531358916323,0.0874904329391155,336.9358878793104
1536,1024,87.23396552808703,446032,75310,53858304,44696344,1.0377597750632772,0.2950215826572778,0.504817139962916,1536,0,1,1,667.4414579189245,0.7625221951571086,0.1068168578619655,336.9358878793104
1536,128,281.6249344937768,344621,62744,47693824,44118296,0.8971313939219272,0.2929068459785707,0.3179007434771798,1536,0,1,1,1059.8776341128535,0.8826692230743486,0.0675645199867441,336.9358878793104
1536,1536,70.49179250513386,420437,48889,58183680,44776920,1.1681716956732484,0.2042302985749232,0.7518716527625159,1536,0,1,1,448.12952668363744,0.7182019755908133,0.1412249547163276,336.9358878793104
1536,2048,37.7064534381668,306294,49975,58970112,44645528,1.2969613501000545,0.2637038603879393,1.0,1536,0,1,1,312.19604701851983,0.6877108340262585,0.1630604100589749,336.9358878793104
1536,256,66.99455363689005,370415,60637,47169536,44080472,1.0173992714490174,0.1091035002845036,0.40863235894945876,1536,0,1,1,824.5452923638481,0.854046588386779,0.0654783149088501,336.9358878793104
1536,512,87.01703364683652,454768,64371,40083456,30293072,0.9320835616850663,0.0788497468834115,0.38658036649013344,1536,0,1,1,871.5804450661617,0.8831824161299808,0.077439663875107,336.9358878793104
2048,1024,116.5113701410336,427309,44832,47034368,30353416,0.9014479330473896,0.0922645905827337,0.4327467262925919,2048,0,1,1,778.5983518948652,0.7945568335801204,0.09725377067013,336.9358878793104
2048,128,197.01590754796976,445647,67757,44277760,29582856,0.9179668186657888,0.2505002972608978,0.34110764965359086,2048,0,1,1,987.7699553835364,0.8695007316682746,0.0956590837766431,336.9358878793104
2048,1536,51.61956100428625,312359,46634,44806144,31107488,1.2035259807398466,0.1814413547320654,0.7061857604299371,2048,0,1,1,477.1207616451775,0.6934068749869551,0.1437394744422825,336.9358878793104
2048,2048,35.42376123013243,342989,56339,58970112,45798184,1.3194057288978895,0.1961884687587162,0.9895522830542112,2048,0,1,1,340.49326513539245,0.7137628763874545,0.1558518282766687,336.9358878793104
2048,256,71.78807650337205,424569,56413,34316288,29828752,0.975148059093263,0.1283050289381493,0.42480938243123856,2048,0,1,1,793.1460598892218,0.9042800216959171,0.0510112569020745,336.9358878793104
2048,512,81.26241593501467,409522,83092,47431680,44092896,0.9967611980552472,0.1855264069748119,0.43702332186570275,2048,0,1,1,770.9791926913475,0.8393806351965024,0.0999094002613104,336.9358878793104
256,1024,98.3313265519986,427877,91250,50450432,44526792,0.983486564832734,0.0942272634215228,0.5212124116062006,256,0,1,1,646.4464014603717,0.7277204323210442,0.1363913440362785,336.9358878793104
256,128,368.5399920715429,370488,77998,42967040,29578848,0.7996496522770286,0.1749079790365586,0.28752619718882694,256,0,1,1,1171.8441351555687,0.8863958886159028,0.0743888731302057,336.9358878793104
256,1536,58.93340749455458,345149,55880,57397248,45094048,1.156946043404247,0.199726475809862,0.7453843385807283,256,0,1,1,452.0297388067791,0.7352023968318245,0.1087959787972907,336.9358878793104
256,2048,36.24246908861998,340843,40560,59232256,45474984,1.2978905257653877,0.2916926107636727,1.0,256,0,1,1,318.18030805456834,0.7076578844539958,0.1508103528690073,336.9358878793104
256,256,84.73903961264551,379488,37797,33005568,29830032,1.0192661684113842,0.1178737388728288,0.4411126883764136,256,0,1,1,763.831775321307,0.8606219585944224,0.0917877528687911,336.9358878793104
256,512,107.4087006961965,406155,52589,38510592,30256688,0.9282028596179653,0.2031833479799027,0.37561771376988207,256,0,1,1,897.018099859184,0.8891792309980902,0.0642647655851135,336.9358878793104
512,1024,92.40130785883224,338874,43824,50974720,44538560,0.8995920568209909,0.1164723830489743,0.42776682170793495,512,0,1,1,787.6625085929621,0.7850689200036627,0.0850184240189582,336.9358878793104
512,128,328.99426942509086,337550,84296,37462016,29649504,1.1396548653220153,0.4304714727733426,0.3786038615831645,512,0,1,1,889.9430831750741,0.8790774204960248,0.0487258543848772,336.9358878793104
512,1536,53.39078430040334,363197,50104,44806144,31670656,1.1270081717184133,0.2249340064837681,0.7276458783715847,512,0,1,1,463.04926323962275,0.6949615800894302,0.1415732449032625,336.9358878793104
512,2048,40.39334481887994,423788,45927,58707968,46232176,1.2970797820056383,0.2549012903204711,1.0,512,0,1,1,322.5942914930054,0.6928646890132496,0.1410390303706648,336.9358878793104
512,256,50.39374570269769,347705,56704,33005568,29736896,1.1904122102340489,0.151246138563453,0.5871444697339548,512,0,1,1,573.8551672503734,0.8277926733485745,0.116732928542894,336.9358878793104
512,512,181.47430537341756,350589,30080,32481280,30230112,0.6910691197168695,0.088540872316646,0.2485721188679267,512,0,1,1,1355.485439854716,0.9127455356074672,0.0359900297474528,336.9358878793104
