cpu,memory,duration_std,userDiff,sysDiff,heapTotal,heapUsed,avg_cpu_util,cpu_util_std,slo_preservation,total_cpu_shares,cpu_shares_others,num_containers,arrival_rate,latency,memory_util,memory_util_std,slo_duration
1024,1024,5.584860883800599,6202,28,34291712,28001464,1.0079781432211488,0.2995348416296577,0.29453600526798357,1024,0,1,1,12.26583528120088,0.7166633339676215,0.0983856342256623,3.612730125000001
1024,128,7.031227934221844,7911,780,27860992,24050208,1.0039203248954798,0.5720391152681418,0.2277662419489673,1024,0,1,1,15.86156971325654,0.8763625190501461,0.0105853240800676,3.612730125000001
1024,1536,1.3112078419194455,2846,3795,42287104,28247640,1.0537290399794461,0.1222797212229239,0.5444985533752654,1024,0,1,1,6.634967352264253,0.5217752070529923,0.0709982392640283,3.612730125000001
1024,2048,3.9570715273682056,24956,244,34574336,14785976,1.0636113824458875,0.0521653402275788,0.49576581906283995,1024,0,1,1,7.287170648087934,0.508835152344931,0.0413385589598909,3.612730125000001
1024,256,1.999014949589934,2243,456,28909568,24440664,1.017283276819385,0.2652022333978335,0.44340704132618125,1024,0,1,1,8.147660700639138,0.8777116745612628,0.0183209426734496,3.612730125000001
1024,512,5.871052036050621,27151,3842,28647424,23996336,1.0145348363015336,0.2414981263769897,0.29136443090453956,1024,0,1,1,12.399351951726903,0.8784141589037832,0.0184267983402024,3.612730125000001
128,1024,6.609609470052972,24588,3270,26054656,14677952,0.9453350293524302,0.3616639553254031,0.23212971626920878,128,0,1,1,15.563410764738945,0.6436837899007413,0.065910918294028,3.612730125000001
128,128,5.637108951120903,1497,7453,28123136,24369152,0.9712043498663472,0.3590360040065024,0.2403464783117571,128,0,1,1,15.031342045768914,0.8798703875643069,0.011347164324356,3.612730125000001
128,1536,1.8117670530929544,2343,4421,42287104,27566984,1.040665160902164,0.141331342392783,0.5072683497895788,128,0,1,1,7.121930880368558,0.5530194814230112,0.083806092919235,3.612730125000001
128,2048,0.991374619916452,4877,171,42549248,27614424,1.0534337031454915,0.1338140721519184,0.6824111784267208,128,0,1,1,5.29406645027276,0.5306772844757799,0.0614519308216038,3.612730125000001
128,256,1.5771465046236322,1824,357,28647424,24728888,1.045949575756182,0.1573290508068911,0.5153135148290466,128,0,1,1,7.0107420454488,0.8839773446381474,0.0219537563529631,3.612730125000001
128,512,2.8983337352014438,2660,3715,28385280,24297424,1.0414158231300503,0.2459380940961138,0.4539031721804894,128,0,1,1,7.959252868062002,0.8797407641488413,0.0138304078478886,3.612730125000001
1536,1024,2.775325114867633,7716,28,34029568,27737376,1.0095541319418462,0.217932327048788,0.35619160400223676,1536,0,1,1,10.142659412537176,0.6838180362031581,0.0858380163470803,3.612730125000001
1536,128,4.23737967983201,23989,705,28647424,23993672,0.9723425169654367,0.3380140726037491,0.29683834888571353,1536,0,1,1,12.17069876099785,0.8763152649800198,0.0148022640177628,3.612730125000001
1536,1536,7.368385061564735,5296,204,42024960,27817496,1.0338974134770922,0.2396724000300715,0.26774755716989235,1536,0,1,1,13.49304607364778,0.5374324341014229,0.0830684372545632,3.612730125000001
1536,2048,0.8862193731695598,5881,330,42811392,27627064,1.0665788088721169,0.0885416675813449,0.7299913982645861,1536,0,1,1,4.949003691808658,0.5282287839987416,0.0613802314869673,3.612730125000001
1536,256,4.779762913982672,4029,4046,28385280,24009536,0.9946344390097785,0.3504108593692788,0.2872413386179146,1536,0,1,1,12.57733354949169,0.8771745240128768,0.0148164817750102,3.612730125000001
1536,512,5.375888134833224,26638,3149,28385280,23898112,1.0269519653743937,0.3202745290371994,0.2700735264360831,1536,0,1,1,13.376839161816205,0.8764677999996587,0.0183336966746999,3.612730125000001
2048,1024,7.891882885077308,7437,35,34029568,27953776,0.9877902407827065,0.4144882015936827,0.24075417266427962,2048,0,1,1,15.005887893946426,0.7234733788132222,0.1023472819563952,3.612730125000001
2048,128,5.066005628889504,7751,33,27860992,24473440,0.9643712093903816,0.3081863814991268,0.26261998120490176,2048,0,1,1,13.756493730693213,0.8835804361816593,0.0093383079490235,3.612730125000001
2048,1536,3.827395211664212,25119,4247,34574336,14792712,1.02105670863639,0.2664378133984262,0.3573189067993174,2048,0,1,1,10.110660410782671,0.51040090568186,0.0550027278523823,3.612730125000001
2048,2048,0.9147577979688613,5610,369,42811392,27672544,1.0578945915871822,0.1142198960870244,0.7486929352953268,2048,0,1,1,4.825382950321197,0.5417502567242922,0.0686625450791476,3.612730125000001
2048,256,2.8695117835086665,2189,4399,28385280,24145552,0.995751499953934,0.2413043693338798,0.3695671819845193,2048,0,1,1,9.775570724651988,0.8827510058784693,0.0126849066643624,3.612730125000001
2048,512,5.103390492991385,1371,350,28647424,24794272,0.9903696032107522,0.3378290932253919,0.296877125091818,2048,0,1,1,12.169109101560647,0.8787980816627593,0.0163912361565594,3.612730125000001
256,1024,5.186624027366149,21120,4229,26054656,14602264,1.0252571056778321,0.2985570445278853,0.2877564982971776,256,0,1,1,12.55481682039719,0.6603985486722739,0.0680783426359208,3.612730125000001
256,128,6.201636006922735,8394,104,27860992,24112912,0.8474085525799108,0.423234316022088,0.20506231918858187,256,0,1,1,17.617718063929722,0.8794607440284811,0.0119573286780508,3.612730125000001
256,1536,1.6407521619600711,792,7324,42287104,27680592,1.0489357030281496,0.0982389840728956,0.5245286077104139,256,0,1,1,6.887574999521374,0.5208788291137421,0.0687844811621014,3.612730125000001
256,2048,0.8584103362463316,5480,269,42811392,27736584,1.0646301206637814,0.0672785073351242,0.7202285274649425,256,0,1,1,5.016088626364294,0.5178557667900482,0.0488536984043288,3.612730125000001
256,256,4.9073436021458345,1647,0,28385280,24797200,0.9737233095380328,0.3040667826354873,0.33745730041294303,256,0,1,1,10.705740016823285,0.8749444881322852,0.0189779920942077,3.612730125000001
256,512,3.5548664418350158,1006,7414,28123136,24474096,1.0228970656161485,0.2858830012976983,0.36065581512465433,256,0,1,1,10.017113196279185,0.8784897170850519,0.0152518366774956,3.612730125000001
512,1024,7.373308281564101,3851,3955,34029568,27752448,1.0092944252757907,0.2488013636059935,0.2725953289335169,512,0,1,1,13.25308888869885,0.673198843872311,0.0856441132633923,3.612730125000001
512,128,4.817205072160832,3234,5,28385280,24912008,0.927650148455825,0.4167836331110378,0.24630244186188763,512,0,1,1,14.66786158387262,0.87471416301441,0.0117265084548759,3.612730125000001
512,1536,1.586590373591035,6237,415,42811392,27665064,1.022716224643015,0.2440052409584366,0.4696507916420376,512,0,1,1,7.6923752483602374,0.5386360909470731,0.0765804368513311,3.612730125000001
512,2048,0.7863565998205442,1491,310,42549248,28273296,1.061713700418637,0.0930626596657409,0.7235826387807476,512,0,1,1,4.992836935788744,0.5515888053077769,0.0701597661706116,3.612730125000001
512,256,2.302518879224804,6288,22,28123136,24275688,1.04569966823457,0.1415991917671638,0.4955294525776241,512,0,1,1,7.290646612845018,0.8769841663438853,0.0116466201071662,3.612730125000001
512,512,9.330876546141546,15899,7997,28647424,24002344,0.9588238165804955,0.3671940076082796,0.19459953183675494,512,0,1,1,18.564947669199107,0.8792123147876844,0.0159552695945746,3.612730125000001
