cpu,memory,duration_std,userDiff,sysDiff,heapTotal,heapUsed,avg_cpu_util,cpu_util_std,slo_preservation,total_cpu_shares,cpu_shares_others,num_containers,arrival_rate,latency,memory_util,memory_util_std,slo_duration
1024,1024,784.9868194138792,2116004,180596,58912768,51303208,0.9411510251523421,0.0855887644655914,0.9932500352628152,1024,0,1,1,2497.594549503269,0.8304857456857369,0.0894369297388442,2480.7358743663367
1024,128,1600.5035757132175,2248693,259295,37011456,34680168,0.6103472428088954,0.0568187939822784,0.18471083848477513,1024,0,1,1,13430.375254188522,0.9293321640480298,0.0136404633109977,2480.7358743663367
1024,1536,542.3043047572393,1973380,199684,82644992,65720176,1.0429945416832618,0.1579657373463924,1.0,1024,0,1,1,1782.7048549392805,0.7760098767770975,0.1115528252196685,2480.7358743663367
1024,2048,349.3462647018432,1826141,199320,55627776,39278136,1.102227153491341,0.2271924774320534,1.0,1024,0,1,1,1410.2475364360723,0.7537185744676931,0.1153808297483233,2480.7358743663367
1024,256,3409.2965129118274,2343547,213805,37535744,35044176,0.7996246665723805,0.5466860183378704,0.17302284764155001,1024,0,1,1,14337.620193985342,0.9151331842726848,0.0386816475337996,2480.7358743663367
1024,512,1917.55341399104,2196844,190448,37011456,34753376,0.7354228915834083,0.0640687039385417,0.4705675133761522,1024,0,1,1,5271.795871686831,0.9013274767885292,0.0643795375073585,2480.7358743663367
128,1024,838.4919844641145,2223468,185826,59437056,50214024,0.9531427647164875,0.1183390507104819,0.9444992887752901,128,0,1,1,2626.5089914287264,0.8117672283961527,0.1027919992101838,2480.7358743663367
128,128,480.5192950227128,2456449,230512,38060032,35729376,0.6535368780271832,0.0220740600887753,0.2098342180222656,128,0,1,1,11822.360994063918,0.9332955259347536,0.0067433342642543,2480.7358743663367
128,1536,386.1765633396191,1876802,142511,82382848,71707952,1.1418453286010923,0.2814737864196262,1.0,128,0,1,1,1413.6557774673886,0.7539480185917877,0.120104600527291,2480.7358743663367
128,2048,209.78199066299396,1623071,152399,67424256,41566328,1.1948583643104729,0.3513275012479844,1.0,128,0,1,1,932.8288330984044,0.7768778740736282,0.1132000895836019,2480.7358743663367
128,256,4976.810901410228,2347115,217313,51961856,49497968,0.5847156272554874,0.1832815051355883,0.16225471880352335,128,0,1,1,15289.14470198119,0.92466795951002,0.0273003515392957,2480.7358743663367
128,512,2034.4308048011512,2380162,206622,37535744,34661120,0.7292539277019888,0.0617453937262391,0.3942823516579624,128,0,1,1,6291.775079292315,0.8994489699159381,0.0736728557535398,2480.7358743663367
1536,1024,806.4201552100715,2117343,170689,46845952,35614832,0.9622562934214371,0.1394207694774474,0.9284337034988641,1536,0,1,1,2671.9580138221163,0.8329886288589039,0.0750508581557675,2480.7358743663367
1536,128,785.8478943903112,2449679,346968,37273600,34893600,0.7643654555054262,0.0727389056319973,0.24034902960060306,1536,0,1,1,10321.389183424904,0.8788139963122291,0.0665121448287228,2480.7358743663367
1536,1536,617.4085315220685,2113715,172287,69267456,59349904,1.0630521554761425,0.1742535845860801,1.0,1536,0,1,1,1909.5802376808433,0.7344871100828364,0.1189084812820318,2480.7358743663367
1536,2048,365.6951181189804,1951372,158631,66113536,39449128,1.1361823994135192,0.2842032639394273,1.0,1536,0,1,1,1378.880670743561,0.7327401398519432,0.1248114849607706,2480.7358743663367
1536,256,3751.0356210883024,2090645,202410,37535744,35208096,0.6515240368381305,0.2013500356541507,0.20047769001034632,1536,0,1,1,12374.124393783219,0.9102913365375584,0.070657441860918,2480.7358743663367
1536,512,1888.3208306379304,2150864,184350,37273600,35408544,0.7553530329433985,0.0850115602479825,0.4584019709646475,1536,0,1,1,5411.704206127102,0.9092314292795788,0.0548822938231745,2480.7358743663367
2048,1024,783.4126689028386,2191426,181718,74911744,67931448,0.9455420490054994,0.1786915706865053,0.968443931469209,2048,0,1,1,2561.568918711542,0.791080621718569,0.1103914733875453,2480.7358743663367
2048,128,341.2684208500686,2443798,292286,42254336,33413864,0.7831358050441483,0.0298271723589868,0.24260029383490123,2048,0,1,1,10225.609520714646,0.8812490097266489,0.0639723027894681,2480.7358743663367
2048,1536,373.8614400495617,1921798,145693,84217856,69818544,1.1524364177081883,0.2562520563155064,1.0,2048,0,1,1,1427.2664676315453,0.7342256830700448,0.151968699006593,2480.7358743663367
2048,2048,219.70932414927915,1749198,115185,69783552,38212848,1.19979061717789,0.4014443502940533,1.0,2048,0,1,1,915.761391484906,0.7487141762836791,0.1001153761298888,2480.7358743663367
2048,256,2913.119466184889,2400680,125166,37535744,33353848,0.6415061012930656,0.1319849756663977,0.2391538445831651,2048,0,1,1,10372.970916232407,0.9014214850420788,0.0618610148678327,2480.7358743663367
2048,512,2659.31307378851,2390300,198353,53788672,35304096,0.9516191777650588,0.5295075430820878,0.34100267127694245,2048,0,1,1,7274.828273563957,0.894206635477736,0.0784770420650049,2480.7358743663367
256,1024,813.6661977627814,2135384,165900,58912768,52106832,0.970436876080229,0.1532123948620769,0.9410330791490324,256,0,1,1,2636.1834980441317,0.8183189269422403,0.0888419335315972,2480.7358743663367
256,128,755.163727255733,2591162,326722,52486144,50214544,0.7531047652427366,0.0587894895212117,0.22434861405685785,256,0,1,1,11057.504789120876,0.9428060300309434,0.0130588824761783,2480.7358743663367
256,1536,574.8603118063988,2148637,164278,70307840,36300712,1.050990339257036,0.107895838548931,1.0,256,0,1,1,1891.3068918602494,0.7169530736727141,0.1288446993329043,2480.7358743663367
256,2048,373.5807091252896,1856563,173706,57200640,39037040,1.138467694921102,0.3254866945317609,1.0,256,0,1,1,1392.5610595576777,0.7514373380861631,0.0932696220674407,2480.7358743663367
256,256,3912.7287243423375,2499494,209751,36749312,34166976,0.5226914439968,0.0567531771890962,0.19080145003885504,256,0,1,1,13001.661538008,0.9253098131578456,0.0291032613560845,2480.7358743663367
256,512,2173.123845053192,2474383,185960,52486144,50210176,0.7290657958602675,0.0660515451107559,0.41788995371441384,256,0,1,1,5936.337670519049,0.9062738408293154,0.0734570397950457,2480.7358743663367
512,1024,860.9250597298181,2203057,143089,44486656,37050576,0.9600205870369477,0.1304731022344053,0.9456171237709962,512,0,1,1,2623.404136838692,0.8098007842021495,0.0933141449694211,2480.7358743663367
512,128,619.2952416078306,2180412,249141,48283648,32971768,0.6638415817413453,0.0725008725456393,0.22474526480051019,512,0,1,1,11037.98950588927,0.8350218949761747,0.1085949602958782,2480.7358743663367
512,1536,365.2404402672525,1935138,130141,67956736,54274184,1.1341433437646375,0.2564974208685346,1.0,512,0,1,1,1421.8951381886002,0.7309391099342728,0.1208997790064917,2480.7358743663367
512,2048,335.7071338661433,2117808,192213,52744192,38220696,1.188974457298878,0.3261611193150513,1.0,512,0,1,1,1081.9361565212894,0.7520821581392633,0.1183886894348619,2480.7358743663367
512,256,3766.90698089135,2389182,265018,37535744,34737216,0.5940578994443427,0.1290450536224065,0.18801377025012575,512,0,1,1,13194.437147162509,0.9253764086211854,0.0277730392681918,2480.7358743663367
512,512,2101.3868004903347,2311815,240895,52224000,50099648,0.7258445596038562,0.0938799744520825,0.43888672717163657,512,0,1,1,5652.337427365829,0.8961520718304381,0.0714500527181013,2480.7358743663367
