cpu,memory,duration_std,userDiff,sysDiff,heapTotal,heapUsed,avg_cpu_util,cpu_util_std,slo_preservation,total_cpu_shares,cpu_shares_others,num_containers,arrival_rate,latency,memory_util,memory_util_std,slo_duration
1024,1024,350.7867239273979,1778007,145836,56815616,48824552,1.072498567777545,0.2303494681100853,1.0,1024,0,1,1,1006.8021657551591,0.8753847885465305,0.0651767508404198,1056.9485426698118
1024,128,3105.324130092987,2040269,232463,51175424,46829944,0.8008877732435921,0.3402131220712266,0.11722967565454245,1024,0,1,1,9016.049364364651,0.933434977013968,0.0157533266042819,1056.9485426698118
1024,1536,212.35594492432395,1589422,159542,67956736,47207408,1.1289052105276254,0.1721756649395131,1.0,1024,0,1,1,582.7437911011106,0.7985696039900814,0.069373527595532,1056.9485426698118
1024,2048,213.3766338040799,1552999,142234,68481024,49817400,1.1404406609694822,0.1847998279340582,1.0,1024,0,1,1,598.5957149808091,0.8030311742364192,0.0913485653972131,1056.9485426698118
1024,256,2326.8022581473783,2082532,152877,50126848,46972072,0.7178689767308432,0.0522126012294667,0.20606325618169408,1024,0,1,1,5129.243137543448,0.9206083724531924,0.0538324713233955,1056.9485426698118
1024,512,868.9455718932429,2229458,185445,50388992,47099536,0.920458483184723,0.1247330073222685,0.48833896818297196,1024,0,1,1,2164.3747714882174,0.9277534495702552,0.0452287596943047,1056.9485426698118
128,1024,402.2905149551201,1995876,155480,56553472,48589904,1.0839980444094304,0.1826962339448611,1.0,128,0,1,1,1041.8145072412844,0.8835862519137085,0.0457294555269052,1056.9485426698118
128,128,2986.600934146966,2673695,245742,52224000,46872288,0.8240188305691397,0.2986990067133619,0.08615689757611929,128,0,1,1,12267.718225763663,0.9104460940490524,0.0462252410067965,1056.9485426698118
128,1536,212.39121683045465,1610866,187259,68218880,47486496,1.1333921518758425,0.2479718252081211,1.0,128,0,1,1,603.1330704085651,0.801309604930117,0.076896029485891,1056.9485426698118
128,2048,206.87182548005575,1516156,159036,67170304,49644712,1.132122046421527,0.2725564605868762,1.0,128,0,1,1,593.6955049235125,0.8083008840894914,0.0806285864657309,1056.9485426698118
128,256,2165.9471139979464,2264775,172833,52486144,46904664,0.7144413402605291,0.0785831811461514,0.21942079698455785,128,0,1,1,4816.99345365242,0.9365739267918884,0.0353031216509649,1056.9485426698118
128,512,889.4437143248194,2140736,179215,50126848,46929672,0.9259483527227087,0.1243035247477959,0.4823198024995116,128,0,1,1,2191.385336435325,0.9311805206592152,0.0451038868894408,1056.9485426698118
1536,1024,387.3407685749776,1729270,104670,56815616,49845496,1.0829139821455216,0.191515268261513,1.0,1536,0,1,1,1024.6476927550916,0.8765024074835723,0.0395498409273531,1056.9485426698118
1536,128,2260.006933845057,2331982,312678,49864704,47065912,0.8221314167984299,0.2823279033337771,0.12638070420509293,1536,0,1,1,8363.211372478003,0.9284080753984636,0.0470320150944797,1056.9485426698118
1536,1536,211.92853487190823,172846,16256,77664256,63712104,1.1416659971063188,0.2735075377968425,1.0,1536,0,1,1,619.5093616774784,0.8009275408872293,0.0622183141103733,1056.9485426698118
1536,2048,199.16271497115312,1433955,146881,62713856,50782824,1.1262363735257594,0.2546395170001201,1.0,1536,0,1,1,619.7503522750212,0.7826410654688216,0.0779866734538134,1056.9485426698118
1536,256,2127.018764480365,2028963,216805,50388992,46947704,0.712807641106929,0.0710654054637971,0.2072222572622007,1536,0,1,1,5100.55510751648,0.9173602211280396,0.0436726211328699,1056.9485426698118
1536,512,857.680418395585,2065224,169446,50126848,47270272,0.9485789366314624,0.1005768505644377,0.4726606074303709,1536,0,1,1,2236.1680369682895,0.9256463979124596,0.0492606375634008,1056.9485426698118
2048,1024,351.5705490201857,1741415,167074,58126336,48779976,1.0756885094848423,0.2213291037001998,1.0,2048,0,1,1,987.3038108545752,0.8625792557476617,0.0659662400760621,1056.9485426698118
2048,128,2533.49752130406,2296391,225714,49602560,47253280,0.7287824842876961,0.0968704040677674,0.12732791478171102,2048,0,1,1,8300.9962464384,0.924440523926216,0.0399991172422878,1056.9485426698118
2048,1536,203.50976349850907,1510216,105428,60354560,49182984,1.1436290188908131,0.2855335586117751,1.0,2048,0,1,1,682.5231060283147,0.8008540163478086,0.0762227658924575,1056.9485426698118
2048,2048,206.51566589887528,1558792,143954,67170304,47202480,1.1378574765944167,0.2477943024721108,1.0,2048,0,1,1,603.2008852364236,0.8064753364872109,0.0755914491805668,1056.9485426698118
2048,256,2291.7431918453326,2306058,172182,50126848,47121584,0.7249387201518961,0.1099891004460869,0.22242412870655376,2048,0,1,1,4751.950918347775,0.9398924250335357,0.0342750596713004,1056.9485426698118
2048,512,838.8437677027412,2099886,189402,50388992,47327168,0.9435019629422725,0.1428462756737697,0.5143978170971956,2048,0,1,1,2054.7298365966844,0.9366516902034911,0.0424504940916055,1056.9485426698118
256,1024,422.714940051572,2022057,148405,58126336,47125944,1.0979954485967762,0.2222451858895153,0.9628543450984747,256,0,1,1,1097.7242280209202,0.887675724041633,0.0420922455804444,1056.9485426698118
256,128,1882.3062855847847,1948228,180175,39108608,32456696,0.8748927719173379,0.2388951211725863,0.16545982646825216,256,0,1,1,6387.9466407673,0.9243599292625904,0.0377055520538572,1056.9485426698118
256,1536,246.60746782297832,1843941,162889,68743168,47402896,1.1447041836634668,0.2985604891280208,1.0,256,0,1,1,652.8441982984009,0.7943991238825243,0.0910671525128254,1056.9485426698118
256,2048,205.15221909239648,167147,18347,63238144,49916800,1.1270125725047269,0.1866199316699554,1.0,256,0,1,1,589.1228585118585,0.7943571942022654,0.0923290847949266,1056.9485426698118
256,256,2052.180898244741,1942258,207447,49864704,47041904,0.7199462712590476,0.0473130003660717,0.22135333577111596,256,0,1,1,4774.938398772174,0.927732244212428,0.0358662397019241,1056.9485426698118
256,512,890.5818329458745,2230588,200912,50388992,47215760,0.9318709539539571,0.0937664595486647,0.4785515997167354,256,0,1,1,2208.6407051934243,0.9359336082332564,0.0325242956051154,1056.9485426698118
512,1024,405.8149210373783,2075302,150958,58650624,47814512,1.0998957458535343,0.2415102657737221,0.9754340111183197,512,0,1,1,1083.5674485637803,0.8443326276914949,0.0756963309453411,1056.9485426698118
512,128,2367.8639451118675,2582097,225544,50126848,47017528,0.8767483965073543,0.4127782196411845,0.11618864787029369,512,0,1,1,9096.831420654178,0.935197923332222,0.0172676726908431,1056.9485426698118
512,1536,241.9197795127461,1866006,141716,68743168,48059504,1.1452579782981136,0.2457003450863292,1.0,512,0,1,1,631.9015200809177,0.7833458269818743,0.0725770819545533,1056.9485426698118
512,2048,208.23601791308764,1589381,118752,66121728,49931744,1.1358184322427645,0.2059376136045748,1.0,512,0,1,1,621.7544663076957,0.7935037648074921,0.0659447625384956,1056.9485426698118
512,256,1922.5410490790375,2282937,143905,50126848,47325144,0.7443561797852999,0.0988649586640928,0.23774910246340283,512,0,1,1,4445.646825659457,0.92656172775175,0.0440804039942081,1056.9485426698118
512,512,884.8361146265653,2023504,199915,50126848,47016272,0.9348889353079805,0.1061111453835482,0.4980932871074523,512,0,1,1,2121.989133416687,0.933654945382868,0.0397854842855847,1056.9485426698118
