cpu,memory,duration_std,userDiff,sysDiff,heapTotal,heapUsed,avg_cpu_util,cpu_util_std,slo_preservation,total_cpu_shares,cpu_shares_others,num_containers,arrival_rate,latency,memory_util,memory_util_std,slo_duration
1024,1024,233.86596266641828,15767,4839,25530368,14457928,0.08581421050334964,0.0902941612139713,1.0,1024,0,1,1,609.1212070787707,0.6449264851609303,0.0703101968894957,609.5421869830509
1024,128,237.95648273112687,3826,3610,28098560,24018584,0.022812500620167837,0.0087437723900794,0.9181927034510687,1024,0,1,1,663.8499573042337,0.8608445741347192,0.0108329605684923,609.5421869830509
1024,1536,167.541419440566,4692,112,42262528,27460008,0.06399985082750065,0.0581882891648274,1.0,1024,0,1,1,584.3227251652312,0.527139273169606,0.0863851626975275,609.5421869830509
1024,2048,180.19376631298888,6158,34,42524672,27503976,0.054644482150126204,0.038240058258503,1.0,1024,0,1,1,607.7390502443371,0.521231567933761,0.0544943424480414,609.5421869830509
1024,256,235.8303863287024,9264,879,28360704,23931776,0.019448097782309957,0.0066371177399603,0.9076297360928,1024,0,1,1,671.575822985959,0.8654945251525362,0.011109894673672,609.5421869830509
1024,512,199.440668891888,5951,317,28098560,24228560,0.07290670293141574,0.0503651299614298,1.0,1024,0,1,1,605.6391803689278,0.8749449848391567,0.0160682737435667,609.5421869830509
128,1024,173.93702764092984,6408,598,33742848,27908944,0.060901244093698494,0.0438718309028855,0.8696144653057787,128,0,1,1,700.9338175725036,0.6541510722766259,0.0852427175822436,609.5421869830509
128,128,157.94726471409044,5892,370,27836416,24299280,0.02035747757929204,0.0042555416203003,0.942366182575497,128,0,1,1,646.8209473701247,0.8686261255101546,0.0070967969898345,609.5421869830509
128,1536,226.7896750095043,6031,39,42000384,27849216,0.07409543508296636,0.0775517650787353,0.8238353657203328,128,0,1,1,739.8834917096434,0.510547328211691,0.0778340036933661,609.5421869830509
128,2048,187.43575617797876,5622,431,42262528,27888888,0.05659897152647919,0.0263298706874689,1.0,128,0,1,1,582.5050047085094,0.5224228680314851,0.064638453450534,609.5421869830509
128,256,206.74352954090568,7571,33,27836416,24201840,0.05013736468843282,0.0452525398080622,0.9373106522474978,128,0,1,1,650.3096764359622,0.8676592955713561,0.0096516286348262,609.5421869830509
128,512,153.65513001054634,5879,1178,28360704,23914472,0.07831115917138064,0.0568122686724504,1.0,128,0,1,1,564.2689312810037,0.8715863275296071,0.0167785283595257,609.5421869830509
1536,1024,185.70335943589507,43158,1677,26054656,14559688,0.07489625174432153,0.0588589672397228,1.0,1536,0,1,1,571.2339403675566,0.6541914465812985,0.0782034737069127,609.5421869830509
1536,128,238.57944545883683,4331,3134,28098560,24227848,0.019969313511446755,0.0061326827052762,0.8859471772461469,1536,0,1,1,688.0118844982774,0.8625911508401757,0.0099528399515341,609.5421869830509
1536,1536,193.93491251923663,6204,32,42524672,27530240,0.07085293575940518,0.0482180707909137,1.0,1536,0,1,1,595.8400364586965,0.5378168636454456,0.0928435733515646,609.5421869830509
1536,2048,197.957375110603,30776,7872,34836480,14703240,0.06997191117691481,0.0621080274902045,0.9893866627068063,1536,0,1,1,616.0808609603038,0.5758286196943039,0.11109008281622,609.5421869830509
1536,256,213.05724899549648,6325,491,28098560,24303392,0.019579069516002186,0.005035218548608,1.0,1536,0,1,1,580.8712889575553,0.8666574229283635,0.0112276219139491,609.5421869830509
1536,512,221.3638748828232,141,6239,28360704,23980992,0.08586086790329393,0.0937932859608486,0.8993511748262472,1536,0,1,1,677.7577036031706,0.8714066560936867,0.0161302379893816,609.5421869830509
2048,1024,162.8630462513165,16942,5028,25792512,14487520,0.08310781463857377,0.0786189209574631,0.9927678613870579,2048,0,1,1,613.9825942103137,0.6344147745904614,0.0568144608965998,609.5421869830509
2048,128,223.44253012264167,2717,3732,27574272,24248320,0.02290311762849953,0.0061378128273533,1.0,2048,0,1,1,555.6061829562102,0.8634735290967764,0.0114466973354617,609.5421869830509
2048,1536,160.69869018693436,2719,4648,42000384,28321552,0.09350493365329465,0.0987347360496376,1.0,2048,0,1,1,543.9937837525283,0.5040508967217441,0.0614184757052801,609.5421869830509
2048,2048,194.70142298410428,4559,1168,42262528,27388912,0.04194994817152785,0.0168182963652343,0.9826976414723378,2048,0,1,1,620.2743969852186,0.5265263812670027,0.0557533787344987,609.5421869830509
2048,256,199.268401636472,7006,628,27574272,23875744,0.01664611260086244,0.0027973633967366,0.9208051739589828,2048,0,1,1,661.966509552001,0.8700959629946411,0.0129005180764765,609.5421869830509
2048,512,204.2590403292045,4670,5140,27836416,24343864,0.06392588125503099,0.0743676181224521,0.9883986814039807,2048,0,1,1,616.6966816641445,0.8761598671946043,0.0162695517195079,609.5421869830509
256,1024,201.0985518908867,6333,460,33742848,27772216,0.06728284066192776,0.0459034694882494,1.0,256,0,1,1,574.5510903207288,0.6649761814934173,0.0830799170540927,609.5421869830509
256,128,175.04402219831726,5637,345,27836416,24227144,0.018283982848059644,0.0032834251137196,0.9917073483638155,256,0,1,1,614.6391755478206,0.8643137930943856,0.0088827410517442,609.5421869830509
256,1536,184.0532158113061,2914,4743,34574336,14718320,0.05800355794662707,0.0398327147733449,0.8641998574295208,256,0,1,1,705.325488939648,0.4973674278842893,0.0495682400520015,609.5421869830509
256,2048,196.26841280362808,4519,127,42262528,27705104,0.053222349497961875,0.0353579188675538,1.0,256,0,1,1,607.4122109773215,0.6870556998228686,0.0878263014490763,609.5421869830509
256,256,206.20223086977865,5467,1156,28098560,24223800,0.0545120465767273,0.0477710268624657,1.0,256,0,1,1,607.650523011272,0.8636100117501536,0.0117089215795369,609.5421869830509
512,1536,151.5150339505585,6169,474,42000384,27896952,0.023094118979457734,0.0152235897312758,0.9569823012206929,512,0,1,1,636.941964554141,0.5678696255527015,0.1068504490739135,609.5421869830509
512,2048,170.87528130900932,6672,593,42262528,27711768,0.03584657663953497,0.0303652430969429,1.0,512,0,1,1,573.5448003810219,0.6880774501831666,0.0869662904601698,609.5421869830509
512,256,226.53204216082955,6962,602,27574272,23889080,0.019137721080949636,0.0036731003807921,1.0,512,0,1,1,606.3092088257731,0.8715126977217696,0.0096739013265943,609.5421869830509
512,512,217.526861881722,8541,191,27836416,24232584,0.07072396864916297,0.0554626235142648,0.9630022451954783,512,0,1,1,632.9602968467856,0.8743746763130161,0.0164562914452923,609.5421869830509
256,512,156.34796526346463,1647,4264,27873280,24072848,0.058199254957815055,0.0336739590874203,0.9092157037446282,256,0,1,1,670.4043765111356,0.8769530491281013,0.0167770103334112,609.5421869830509
512,1024,174.42564465566676,54106,9337,25792512,14403480,0.08196009764163481,0.0790302632697538,1.0,512,0,1,1,562.16273198465,0.6613723337186761,0.0654946315861939,609.5421869830509
512,128,198.52392329070904,6406,499,28135424,24405952,0.019938194723113725,0.0048256272124297,1.0,512,0,1,1,609.0786559060489,0.8542209546031383,0.0122000404113363,609.5421869830509
