cpu,memory,duration_std,userDiff,sysDiff,heapTotal,heapUsed,avg_cpu_util,cpu_util_std,slo_preservation,total_cpu_shares,cpu_shares_others,num_containers,arrival_rate,latency,memory_util,memory_util_std,slo_duration
1024,1024,233.86596266641828,15767,4839,25530368,14457928,0.06985019629234605,0.0902941612139713,1.0,1024,0,1,1,598.6669559815083,0.6449264851609303,0.0703101968894957,609.5421869830509
1024,128,237.95648273112687,3826,3610,28098560,24018584,0.018333647766342193,0.0087437723900794,0.9224011588527431,1024,0,1,1,660.8211417916934,0.8608445741347192,0.0108329605684923,609.5421869830509
1024,1536,167.541419440566,4692,112,42262528,27460008,0.05186373492166929,0.0581882891648274,1.0,1024,0,1,1,576.8434117160925,0.527139273169606,0.0863851626975275,609.5421869830509
1024,2048,180.19376631298888,6158,34,42524672,27503976,0.04419862794728607,0.038240058258503,1.0,1024,0,1,1,601.0971331077349,0.521231567933761,0.0544943424480414,609.5421869830509
1024,256,235.8303863287024,9264,879,28360704,23931776,0.015619231092562497,0.0066371177399603,0.9111738557414286,1024,0,1,1,668.9636485312258,0.8654945251525362,0.011109894673672,609.5421869830509
1024,512,199.440668891888,5951,317,28098560,24228560,0.05918840869101642,0.0503651299614298,1.0,1024,0,1,1,596.8081492075711,0.8749449848391567,0.0160682737435667,609.5421869830509
128,1024,173.93702764092984,6408,598,33742848,27908944,0.04932174641851104,0.0438718309028855,0.8803371913406988,128,0,1,1,692.3962692690014,0.6541510722766259,0.0852427175822436,609.5421869830509
128,128,157.94726471409044,5892,370,27836416,24299280,0.016352561444025783,0.0042555416203003,0.9462187078013314,128,0,1,1,644.187418783344,0.8686261255101546,0.0070967969898345,609.5421869830509
128,1536,226.7896750095043,6031,39,42000384,27849216,0.06016798263667889,0.0775517650787353,0.8362274937153685,128,0,1,1,728.9190938638574,0.510547328211691,0.0778340036933661,609.5421869830509
128,2048,187.43575617797876,5622,431,42262528,27888888,0.04579759659430783,0.0263298706874689,1.0,128,0,1,1,575.9111678734038,0.5224228680314851,0.064638453450534,609.5421869830509
128,256,206.74352954090568,7571,33,27836416,24201840,0.040516166514004234,0.0452525398080622,0.9468047108629501,128,0,1,1,643.7887137543848,0.8676592955713561,0.0096516286348262,609.5421869830509
128,512,153.65513001054634,5879,1178,28360704,23914472,0.06364576201708526,0.0568122686724504,1.0,128,0,1,1,555.4312204624015,0.8715863275296071,0.0167785283595257,609.5421869830509
1536,1024,185.70335943589507,43158,1677,26054656,14559688,0.06082816165718133,0.0588589672397228,1.0,1536,0,1,1,562.6772841670228,0.6541914465812985,0.0782034737069127,609.5421869830509
1536,128,238.57944545883683,4331,3134,28098560,24227848,0.01603951041155309,0.0061326827052762,0.8894997169895283,1536,0,1,1,685.2640594940478,0.8625911508401757,0.0099528399515341,609.5421869830509
1536,1536,193.93491251923663,6204,32,42524672,27530240,0.057497116507982365,0.0482180707909137,1.0,1536,0,1,1,587.3966332934787,0.5378168636454456,0.0928435733515646,609.5421869830509
1536,2048,197.957375110603,30776,7872,34836480,14703240,0.05677201826541217,0.0621080274902045,1.0,1536,0,1,1,607.4591899041214,0.5758286196943039,0.11109008281622,609.5421869830509
1536,256,213.05724899549648,6325,491,28098560,24303392,0.01572483112514708,0.005035218548608,1.0,1536,0,1,1,578.5967050882853,0.8666574229283635,0.0112276219139491,609.5421869830509
1536,512,221.3638748828232,141,6239,28360704,23980992,0.0698888375727855,0.0937932859608486,0.9150648268708285,1536,0,1,1,666.1191306712683,0.8714066560936867,0.0161302379893816,609.5421869830509
2048,1024,162.8630462513165,16942,5028,25792512,14487520,0.06761003618179988,0.0786189209574631,1.0,2048,0,1,1,603.7772438841254,0.6344147745904614,0.0568144608965998,609.5421869830509
2048,128,223.44253012264167,2717,3732,27574272,24248320,0.018406808764057328,0.0061378128273533,1.0,2048,0,1,1,553.0611602035366,0.8634735290967764,0.0114466973354617,609.5421869830509
2048,1536,160.69869018693436,2719,4648,42000384,28321552,0.07622951405343358,0.0987347360496376,1.0,2048,0,1,1,533.8205632210113,0.5040508967217441,0.0614184757052801,609.5421869830509
2048,2048,194.70142298410428,4559,1168,42262528,27388912,0.033843908579387724,0.0168182963652343,0.9910122237571302,2048,0,1,1,615.0703012240875,0.5265263812670027,0.0557533787344987,609.5421869830509
2048,256,199.268401636472,7006,628,27574272,23875744,0.013361373064797701,0.0027973633967366,0.9238809793212983,2048,0,1,1,659.7626757408004,0.8700959629946411,0.0129005180764765,609.5421869830509
2048,512,204.2590403292045,4670,5140,27836416,24343864,0.0518030156899545,0.0743676181224521,1.0,2048,0,1,1,608.8121058956577,0.8761598671946043,0.0162695517195079,609.5421869830509
256,1024,201.0985518908867,6333,460,33742848,27772216,0.054560469200676025,0.0459034694882494,1.0,256,0,1,1,566.8196044282915,0.6649761814934173,0.0830799170540927,609.5421869830509
256,128,175.04402219831726,5637,345,27836416,24227144,0.014680871238029858,0.0032834251137196,0.9953471303355999,256,0,1,1,612.3915651191282,0.8643137930943856,0.0088827410517442,609.5421869830509
256,1536,184.0532158113061,2914,4743,34574336,14718320,0.046947470421509985,0.0398327147733449,0.8743428567407573,256,0,1,1,697.1432113658592,0.4973674278842893,0.0495682400520015,609.5421869830509
256,2048,196.26841280362808,4519,127,42262528,27705104,0.043035974736046964,0.0353579188675538,1.0,256,0,1,1,600.9466299809286,0.6870556998228686,0.0878263014490763,609.5421869830509
256,256,206.20223086977865,5467,1156,28098560,24223800,0.044090328064792066,0.0477710268624657,1.0,256,0,1,1,601.0256682887193,0.8636100117501536,0.0117089215795369,609.5421869830509
512,1536,151.5150339505585,6169,474,42000384,27896952,0.018561025288846452,0.0152235897312758,0.9614229443941767,512,0,1,1,634.0000418516565,0.5678696255527015,0.1068504490739135,609.5421869830509
512,2048,170.87528130900932,6672,593,42262528,27711768,0.028884342269396474,0.0303652430969429,1.0,512,0,1,1,569.4328768524089,0.6880774501831666,0.0869662904601698,609.5421869830509
512,256,226.53204216082955,6962,602,27574272,23889080,0.0153690024010083,0.0036731003807921,1.0,512,0,1,1,603.9885335203093,0.8715126977217696,0.0096739013265943,609.5421869830509
512,512,217.526861881722,8541,191,27836416,24232584,0.057390958184811984,0.0554626235142648,0.9768191505919517,512,0,1,1,624.0072040087142,0.8743746763130161,0.0164562914452923,609.5421869830509
256,512,156.34796526346463,1647,4264,27873280,24072848,0.04710773093488475,0.0336739590874203,0.9199234759280718,256,0,1,1,662.6009694644542,0.8769530491281013,0.0167770103334112,609.5421869830509
512,1024,174.42564465566676,54106,9337,25792512,14403480,0.06666078296951775,0.0790302632697538,1.0,512,0,1,1,552.94774950386,0.6613723337186761,0.0654946315861939,609.5421869830509
512,128,198.52392329070904,6406,499,28135424,24405952,0.016014415485355753,0.0048256272124297,1.0,512,0,1,1,606.6498701374195,0.8542209546031383,0.0122000404113363,609.5421869830509
