cpu,memory,duration_std,userDiff,sysDiff,heapTotal,heapUsed,avg_cpu_util,cpu_util_std,slo_preservation,total_cpu_shares,cpu_shares_others,num_containers,arrival_rate,latency,memory_util,memory_util_std,slo_duration
1024,1024,80.83875407048488,371808,41105,38383616,31649568,0.9977553161985604,0.1274769682637714,0.7887070940901821,1024,0,1,1,272.4442834060487,0.7814981288907816,0.0862660737931448,214.87873906666672
1024,128,278.7553469085917,354384,29887,33005568,29740696,0.9321988475188879,0.3321425462447204,0.4589589894799431,1024,0,1,1,468.18723239335765,0.8837553205171353,0.0608619589340542,214.87873906666672
1024,1536,49.76734232130335,231523,37972,37195776,15600792,1.201348138259822,0.1426999923156948,1.0,1024,0,1,1,169.62732020422465,0.6900189197749078,0.0984380601869484,214.87873906666672
1024,2048,31.405895746185344,284757,47450,50573312,30189352,1.4091346453845761,0.1925030227720049,1.0,1024,0,1,1,136.6207244717899,0.7219386863457522,0.118213722407782,214.87873906666672
1024,256,67.54521182308525,231118,28985,33267712,29646800,0.9771484106989634,0.0956609398032294,0.6923429306481544,1024,0,1,1,310.36460337004166,0.8854610241526901,0.0428030504342444,214.87873906666672
1024,512,57.23197287125021,264849,35414,32219136,29994440,0.9838210282479105,0.1612745112834651,0.6642507155405925,1024,0,1,1,323.4904141454936,0.8815534139026979,0.0636567567368365,214.87873906666672
128,1024,88.62067960399287,297957,30512,37859328,30451848,0.9125631745170069,0.2036503395033124,0.715751601824092,128,0,1,1,300.2141224959169,0.777295623767788,0.0827240360508925,214.87873906666672
128,128,311.24109448252045,303947,54757,32481280,29705360,0.8275066954708491,0.3825104090139662,0.3958236462398024,128,0,1,1,542.8648366714465,0.903549241635753,0.0512576605775258,214.87873906666672
128,1536,81.04031820338182,239121,36110,68808704,51920320,1.0143055958039424,0.1549169952182262,0.8780916571942092,128,0,1,1,244.71105869890025,0.7493203662611645,0.10404890051988,214.87873906666672
128,2048,72.03757053312658,279695,37931,50573312,29921872,1.1210728568040695,0.195945880046408,0.9985515493537149,128,0,1,1,215.1904317866625,0.7093894281740637,0.1565973708930666,214.87873906666672
128,256,75.18265575685328,305292,50412,32481280,29695576,1.0507304553364303,0.1617624528956111,0.7016278804229727,128,0,1,1,306.2574123153832,0.8761801880143624,0.0604231873999384,214.87873906666672
128,512,81.1150659735165,389206,51241,33005568,29850584,0.9638979057177677,0.1538130506249631,0.6556680733063145,128,0,1,1,327.724877594093,0.8916567764121878,0.0741075783379325,214.87873906666672
1536,1024,81.60334946262898,332388,22500,40218624,31148232,0.9816901189691116,0.1219731849201632,0.8308234610539903,1536,0,1,1,258.63345119560006,0.7878025513113112,0.0969434796979085,214.87873906666672
1536,128,142.80678445760697,414713,60720,32743424,30334488,0.7702581592956652,0.0925066642722505,0.4988862886202672,1536,0,1,1,430.7168666850735,0.8925942250879405,0.0648660633636735,214.87873906666672
1536,1536,57.845045992525456,294962,38516,43233280,31476280,1.2644997026738778,0.224800364405635,1.0,1536,0,1,1,165.65517813248618,0.7196014573156374,0.1444071520258254,214.87873906666672
1536,2048,34.58471155736674,257577,58377,50573312,29965832,1.4179050759110972,0.2205555944293948,1.0,1536,0,1,1,135.91358479414964,0.7142454319946057,0.132073866095024,214.87873906666672
1536,256,61.164272408320016,252787,28156,32743424,29991312,1.2600596862136149,0.210488717347548,0.9714372717957973,1536,0,1,1,221.19672088496486,0.8915294740102262,0.0558370024373205,214.87873906666672
1536,512,69.85784811334169,254595,22577,32481280,29938944,1.0080225959832272,0.1249168706295975,0.7120994942387223,1536,0,1,1,301.75381502887484,0.8937627439105263,0.0372352377166881,214.87873906666672
2048,1024,81.11977894177521,313389,50239,41005056,30087536,0.9906365115079028,0.1438854955197346,0.8470438765715003,2048,0,1,1,253.68076555421328,0.8016987931099658,0.084644837577046,214.87873906666672
2048,128,92.82676534325869,340150,35637,32743424,29980912,0.8149209986047807,0.0921962910868452,0.5619323158268394,2048,0,1,1,382.3925640412573,0.9136163315390676,0.0380836863468268,214.87873906666672
2048,1536,72.9248818923976,222240,55638,69595136,51953528,1.2425713078368144,0.1942620957188494,1.0,2048,0,1,1,185.94625791390763,0.7379262422427838,0.1164713154713589,214.87873906666672
2048,2048,31.888136065024344,276848,29373,50311168,30266128,1.418917152785825,0.1547559780637236,1.0,2048,0,1,1,139.37206714964043,0.6899056146727908,0.1039395572139882,214.87873906666672
2048,256,55.3609865334528,290850,44021,33005568,30104928,1.0289703053727806,0.1302740440275527,0.7277870571671596,2048,0,1,1,295.2494647308807,0.8819139342873153,0.0543112641249549,214.87873906666672
2048,512,68.68595760036298,251736,53284,33267712,29698752,1.0920030425050764,0.1365155165084568,0.7410883782896197,2048,0,1,1,289.9502210014302,0.8761612455563815,0.0628471476667641,214.87873906666672
256,1024,84.73731869863516,273427,29345,37335040,30282120,1.0277713342102237,0.1565763910562995,0.7576441954963516,256,0,1,1,283.61431440241455,0.7782399001329197,0.1031852561329532,214.87873906666672
256,128,120.11974239847456,342719,25689,33267712,29669552,0.8476121248324419,0.1695520278837679,0.5119880152320098,256,0,1,1,419.6948613519662,0.8809778226782956,0.0666513730712787,214.87873906666672
256,1536,51.08082576921025,244318,38383,69332992,51870040,1.1120433370338645,0.1841391021406358,1.0,256,0,1,1,199.40978249355504,0.7256915570484328,0.0663310496644643,214.87873906666672
256,2048,35.905971378014144,296308,38118,50573312,29965912,1.4282835664493276,0.2643100275192445,1.0,256,0,1,1,144.2937403244978,0.6813454501024768,0.1260252689143125,214.87873906666672
256,256,67.72722070039269,329130,30782,33267712,29969880,1.0418151311823256,0.1761046406523845,0.7116407013158559,256,0,1,1,301.94835493437375,0.8874274770828245,0.0592860075293484,214.87873906666672
256,512,73.61668854508643,267356,23721,33005568,29875808,1.0692819426462,0.1483906608571756,0.7389103709213146,256,0,1,1,290.804876373225,0.8820217652330437,0.0560243395123304,214.87873906666672
512,1024,96.75669785635831,368786,33289,39956480,30942120,1.0198151983343295,0.1344994613627173,0.874669054622775,512,0,1,1,245.66861938352108,0.7904212165640904,0.1041234018341673,214.87873906666672
512,128,126.02392317916272,367629,57357,32743424,29917528,0.8205766611665214,0.1077705120743379,0.5202588432830118,512,0,1,1,413.02275173394105,0.8875497005246702,0.0784130760397821,214.87873906666672
512,1536,31.6376979121827,236471,34141,37457920,15584424,1.0686283519792064,0.1122648485989907,1.0,512,0,1,1,208.13360493970055,0.7131827555772043,0.0910546962285793,214.87873906666672
512,2048,23.721182153719184,213904,36107,36933632,15615640,1.3744470289217605,0.1412930942776219,1.0,512,0,1,1,146.7353500530303,0.6941564563195609,0.1054647945531845,214.87873906666672
512,256,45.695867470633445,237774,20669,33005568,29988488,1.1963540886592297,0.1429737804976741,0.9062484034782711,512,0,1,1,237.10799185073415,0.8668362573781996,0.0682169089789067,214.87873906666672
512,512,69.29627811746309,305257,32972,33267712,29991120,0.9907318704481398,0.1319221315113558,0.7040532331730467,512,0,1,1,305.20240365667416,0.8838838951225696,0.0717753158100367,214.87873906666672
