cpu,memory,duration_std,userDiff,sysDiff,heapTotal,heapUsed,avg_cpu_util,cpu_util_std,slo_preservation,total_cpu_shares,cpu_shares_others,num_containers,arrival_rate,latency,memory_util,memory_util_std,slo_duration
1024,1024,97.23194016123932,497310,45648,50442240,30040136,1.080580956242211,0.110948074483045,0.4601180362796813,1024,0,1,1,680.2222462609308,0.7397228168015169,0.1306308500296754,312.9825241833332
1024,128,231.7672510112913,528588,71786,47431680,44046160,1.0281031305793504,0.270396758394101,0.33159636210230176,1024,0,1,1,943.8659766923922,0.8961597311603453,0.0670796418738006,312.9825241833332
1024,1536,60.43252354663828,425584,43635,62640128,44506120,1.1909634627999013,0.250779187239286,0.5548323734703652,1024,0,1,1,564.1028518680162,0.6791218529614884,0.1208873984145372,312.9825241833332
1024,2048,42.21679614464118,382615,52661,62115840,44645544,1.2880778119527605,0.2994913999218037,0.8130908135572618,1024,0,1,1,384.9293571698821,0.6977013885436237,0.1591054542537585,312.9825241833332
1024,256,70.5878717110142,390726,74455,38510592,29902472,1.0144100117393602,0.1326326709249068,0.3584636984993442,1024,0,1,1,873.1219520793563,0.8645311758196451,0.0748152276851676,312.9825241833332
1024,512,58.07555765665166,504563,48986,33267712,29655744,1.0233957782593384,0.1235771534870378,0.3579636315466722,1024,0,1,1,874.3416833464709,0.8692154765536875,0.0787729543910839,312.9825241833332
128,1024,76.48219497695398,362488,60577,39170048,30029624,1.0902953212388424,0.1597604256867663,0.43587700899392395,128,0,1,1,718.052381119501,0.7601091223121456,0.1165082901702351,312.9825241833332
128,128,100.16234302132342,612821,67579,40083456,29861912,0.8839166827447069,0.1109781741128921,0.31822281871220104,128,0,1,1,983.5326248756312,0.877124922384556,0.0581547828976664,312.9825241833332
128,1536,69.84783919984176,466323,20004,58970112,44890600,1.1818871295473397,0.2130248788382986,0.5845358305534955,128,0,1,1,535.4377059948077,0.7297208556762189,0.1289751257628991,312.9825241833332
128,2048,45.343190891178736,441562,44317,58445824,45436864,1.293895806149896,0.3698765525754247,0.7829398473442533,128,0,1,1,399.75296345559093,0.6710829828473114,0.1414456692081561,312.9825241833332
128,256,57.3397775645843,396045,83087,34840576,29618552,1.168207050393222,0.1278430059717404,0.485021345664703,128,0,1,1,645.2963915524228,0.9005486117544226,0.0573850501649924,312.9825241833332
128,512,65.76395029992723,446385,50960,33267712,29786824,1.048330562811802,0.067681986434464,0.398308718919507,128,0,1,1,785.7787422589233,0.8755290457167216,0.0528682214520474,312.9825241833332
1536,1024,81.85287278851823,471496,61036,47296512,30813096,1.059014590119215,0.1278795079613937,0.4566975758440153,1536,0,1,1,685.3168064334814,0.7697792746481814,0.1049167939235235,312.9825241833332
1536,128,289.2382280140026,424864,65438,34054144,29871528,1.0322563698610383,0.3268201413696184,0.3242499002979075,1536,0,1,1,965.2509496403167,0.856702393728701,0.0670756982869962,312.9825241833332
1536,1536,60.4627506441179,423626,58559,58445824,45022080,1.2261105952404179,0.1695420414428107,0.5825233902632209,1536,0,1,1,537.2874796356382,0.6777021749309525,0.1204714841981026,312.9825241833332
1536,2048,36.13614383480566,338838,54504,58707968,45396592,1.2492386193537501,0.2735697440556344,0.9261915886085637,1536,0,1,1,337.92417036904124,0.7296198481436298,0.1538321265207594,312.9825241833332
1536,256,66.32430745637573,430297,40682,36413440,29796384,1.1517949039970492,0.1476285417560699,0.472208997146679,1536,0,1,1,662.8050843472464,0.8833512413375505,0.0579285532379538,312.9825241833332
1536,512,58.22215962864889,398967,57979,42180608,29613360,1.1722273864886064,0.1425701777372696,0.46558644991369436,1536,0,1,1,672.2328887392464,0.8175977650937097,0.0916786034764098,312.9825241833332
2048,1024,96.1093931273561,532971,46563,44675072,29909944,1.0678324452825556,0.1527472723498428,0.45759788094661547,2048,0,1,1,683.9684736648651,0.7145981091389007,0.09513432311926,312.9825241833332
2048,128,154.11951231617357,462641,71970,33792000,29723424,1.0418699327732102,0.2056702122773035,0.35542925870295156,2048,0,1,1,880.5761386259621,0.8529960817555539,0.0662869016150174,312.9825241833332
2048,1536,52.78203350251152,359084,62215,58445824,44644224,1.1681748991935887,0.1928398012714786,0.5976412881368931,2048,0,1,1,523.6962880510405,0.6550828497662499,0.1471891859650148,312.9825241833332
2048,2048,44.30067179942026,422060,18522,58707968,44916552,1.3337726495801205,0.3554906938575122,0.8581921107333899,2048,0,1,1,364.6998384963782,0.738327125095315,0.1185462635963217,312.9825241833332
2048,256,91.41199470122984,442370,45210,47169536,44289568,1.0309016183724917,0.1452099319953583,0.3763892037364661,2048,0,1,1,831.5395900740874,0.8563452353569596,0.0835587185282471,312.9825241833332
2048,512,80.75887276223482,453824,58391,36675584,30193136,1.0500493978587704,0.1555663632298617,0.3918764992708324,2048,0,1,1,798.6764319006172,0.8693827045504827,0.061304394773453,312.9825241833332
256,1024,143.0696627466402,503151,65197,40218624,30428808,0.9771658990680426,0.1476367595730893,0.4165640580067773,256,0,1,1,751.3430843768118,0.7716563457886021,0.1123273688799005,312.9825241833332
256,128,494.25815132233816,437419,59532,33005568,29839544,0.8506033271872582,0.2504297081199197,0.2439804115995826,256,0,1,1,1282.8182481181973,0.8847776395724669,0.0487107911451718,312.9825241833332
256,1536,67.20558753969684,400956,44332,58707968,44877792,1.1845827876731991,0.2378820438191494,0.5665532631778384,256,0,1,1,552.4326564245549,0.695208758210852,0.1255983752874187,312.9825241833332
256,2048,41.54367384967312,340221,51601,58707968,44912424,1.2910880024050644,0.1983434419166877,0.8124365227739243,256,0,1,1,385.23935767277965,0.6814505132457122,0.1524258718878384,312.9825241833332
256,256,46.00881750320452,433383,22367,35364864,29657256,1.171358575003432,0.1699627775717959,0.455882697439212,256,0,1,1,686.5417923106562,0.8649793048050842,0.0778999266917034,312.9825241833332
256,512,64.0757849477004,408004,60891,42704896,29949216,1.040612957581407,0.134571259526754,0.39159320007056597,256,0,1,1,799.2542366081257,0.8793883037350139,0.0670669086946763,312.9825241833332
512,1024,94.0252592880355,415793,65920,41529344,30017520,1.0353904201028117,0.1027522430295288,0.4471454209240249,512,0,1,1,699.9569033639116,0.7555198315284871,0.112714635082142,312.9825241833332
512,128,456.84731706490186,370437,52203,34578432,30183232,0.9263472108503908,0.3180718871797108,0.25885806635435005,512,0,1,1,1209.0893229299347,0.8792976835112516,0.0586617982884532,312.9825241833332
512,1536,65.69270717346785,504927,40092,57397248,46292160,1.2009670773905317,0.2573531895141609,0.5689187963564967,512,0,1,1,550.1356717122977,0.6807060772987699,0.129274748960059,312.9825241833332
512,2048,41.11918783119041,340974,57125,58707968,44519112,1.2644880147613364,0.1986673515915631,0.808005772122133,512,0,1,1,387.35184200642664,0.7434694534372792,0.1492499813651818,312.9825241833332
512,256,109.63341576996852,367677,41955,47431680,44143424,1.0150728049326705,0.1949089354714592,0.379438636966411,512,0,1,1,824.8567586200752,0.8710813824497169,0.0882137908460496,312.9825241833332
512,512,85.18964337022226,387416,37659,35627008,29872048,0.9993503449849228,0.091340985964222,0.36273316528958244,512,0,1,1,862.8450721716291,0.8896500392498297,0.0616410680551932,312.9825241833332
