cpu,memory,duration_std,userDiff,sysDiff,heapTotal,heapUsed,avg_cpu_util,cpu_util_std,slo_preservation,total_cpu_shares,cpu_shares_others,num_containers,arrival_rate,latency,memory_util,memory_util_std,slo_duration
1024,1024,97.23194016123932,497310,45648,50442240,30040136,1.1104068378460528,0.110948074483045,0.6304241075134334,1024,0,1,1,496.4634449304654,0.7397228168015169,0.1306308500296754,312.9825241833332
1024,128,231.7672510112913,528588,71786,47431680,44046160,1.0378251760597992,0.270396758394101,0.44630937972883855,1024,0,1,1,701.268085321196,0.8961597311603453,0.0670796418738006,312.9825241833332
1024,1536,60.43252354663828,425584,43635,62640128,44506120,1.271927346292539,0.250779187239286,0.7900678629454827,1024,0,1,1,396.14638040900803,0.6791218529614884,0.1208873984145372,312.9825241833332
1024,2048,42.21679614464118,382615,52661,62115840,44645544,1.4249057192311185,0.2994913999218037,1.0,1024,0,1,1,260.974616134941,0.6977013885436237,0.1591054542537585,312.9825241833332
1024,256,70.5878717110142,390726,74455,38510592,29902472,1.0193060826115041,0.1326326709249068,0.4802584412579434,1024,0,1,1,651.6960396646782,0.8645311758196451,0.0748152276851676,312.9825241833332
1024,512,58.07555765665166,504563,48986,33267712,29655744,1.0314395553005795,0.1235771534870378,0.48103624785876553,1024,0,1,1,650.6422864732355,0.8692154765536875,0.0787729543910839,312.9825241833332
128,1024,76.48219497695398,362488,60577,39170048,30029624,1.1241298773692552,0.1597604256867663,0.5992044652167298,128,0,1,1,522.3300932347504,0.7601091223121456,0.1165082901702351,312.9825241833332
128,128,100.16234302132342,612821,67579,40083456,29861912,0.8509881727327607,0.1109781741128921,0.40849077038478926,128,0,1,1,766.1924010878156,0.877124922384556,0.0581547828976664,312.9825241833332
128,1536,69.84783919984176,466323,20004,58970112,44890600,1.2581686936025722,0.2130248788382986,0.8296840579839573,128,0,1,1,377.23097264740386,0.7297208556762189,0.1289751257628991,312.9825241833332
128,2048,45.343190891178736,441562,44317,58445824,45436864,1.4344190542519453,0.3698765525754247,1.0,128,0,1,1,270.44329272779544,0.6710829828473114,0.1414456692081561,312.9825241833332
128,256,57.3397775645843,396045,83087,34840576,29618552,1.2375979506786743,0.1278430059717404,0.6851084868080529,128,0,1,1,456.83644300121136,0.9005486117544226,0.0573850501649924,312.9825241833332
128,512,65.76395029992723,446385,50960,33267712,29786824,1.0654959016790744,0.067681986434464,0.5397741547900994,128,0,1,1,579.8397744794617,0.8755290457167216,0.0528682214520474,312.9825241833332
1536,1024,81.85287278851823,471496,61036,47296512,30813096,1.0802650566316236,0.1278795079613937,0.6211490533882355,1536,0,1,1,503.8766822167407,0.7697792746481814,0.1049167939235235,312.9825241833332
1536,128,289.2382280140026,424864,65438,34054144,29871528,1.0434759519433663,0.3268201413696184,0.43703222475820774,1536,0,1,1,716.1543393201583,0.856702393728701,0.0670756982869962,312.9825241833332
1536,1536,60.4627506441179,423626,58559,58445824,45022080,1.3260556745376306,0.1695420414428107,0.8400095393330353,1536,0,1,1,372.59401176781904,0.6777021749309525,0.1204714841981026,312.9825241833332
1536,2048,36.13614383480566,338838,54504,58707968,45396592,1.3624285568458803,0.2735697440556344,1.0,1536,0,1,1,232.38718935952056,0.7296198481436298,0.1538321265207594,312.9825241833332
1536,256,66.32430745637573,430297,40682,36413440,29796384,1.2131797379480453,0.1476285417560699,0.6631671262850515,1536,0,1,1,471.9512047236232,0.8833512413375505,0.0579285532379538,312.9825241833332
1536,512,58.22215962864889,398967,57979,42180608,29613360,1.2436226812094946,0.1425701777372696,0.6585910729725205,1536,0,1,1,475.2304381696232,0.8175977650937097,0.0916786034764098,312.9825241833332
2048,1024,96.1093931273561,532971,46563,44675072,29909944,1.0925355649248936,0.1527472723498428,0.6242452007360971,2048,0,1,1,501.3775417324325,0.7145981091389007,0.09513432311926,312.9825241833332
2048,128,154.11951231617357,462641,71970,33792000,29723424,1.0566167569669618,0.2056702122773035,0.4806134289235795,2048,0,1,1,651.2146880379811,0.8529960817555539,0.0662869016150174,312.9825241833332
2048,1536,52.78203350251152,359084,62215,58445824,44644224,1.237549839000577,0.1928398012714786,0.8441782481081962,2048,0,1,1,370.75407342552023,0.6550828497662499,0.1471891859650148,312.9825241833332
2048,2048,44.30067179942026,422060,18522,58707968,44916552,1.500741468318608,0.3554906938575122,1.0,2048,0,1,1,243.09317102318914,0.738327125095315,0.1185462635963217,312.9825241833332
2048,256,91.41199470122984,442370,45210,47169536,44289568,1.0416309793757026,0.1452099319953583,0.5070754220412849,2048,0,1,1,617.2307127870437,0.8563452353569596,0.0835587185282471,312.9825241833332
2048,512,80.75887276223482,453824,58391,36675584,30193136,1.067864726714328,0.1555663632298617,0.5313668628707041,2048,0,1,1,589.0140053003086,0.8693827045504827,0.061304394773453,312.9825241833332
256,1024,143.0696627466402,503151,65197,40218624,30428808,0.9697845132487852,0.1476367595730893,0.5512231820837911,256,0,1,1,567.796374238406,0.7716563457886021,0.1123273688799005,312.9825241833332
256,128,494.25815132233816,437419,59532,33005568,29839544,0.810253596693725,0.2504297081199197,0.30987574694004166,256,0,1,1,1010.0258806117301,0.8847776395724669,0.0487107911451718,312.9825241833332
256,1536,67.20558753969684,400956,44332,58707968,44877792,1.2622457330516221,0.2378820438191494,0.8049297428420714,256,0,1,1,388.8321023872775,0.695208758210852,0.1255983752874187,312.9825241833332
256,2048,41.54367384967312,340221,51601,58707968,44912424,1.4298227519587234,0.1983434419166877,1.0,256,0,1,1,260.89487948638987,0.6814505132457122,0.1524258718878384,312.9825241833332
256,256,46.00881750320452,433383,22367,35364864,29657256,1.2423192610970688,0.1699627775717959,0.6446666493824188,256,0,1,1,485.49513843032815,0.8649793048050842,0.0778999266917034,312.9825241833332
256,512,64.0757849477004,408004,60891,42704896,29949216,1.0548937425207021,0.134571259526754,0.5292896055265984,256,0,1,1,591.3256578540628,0.8793883037350139,0.0670669086946763,312.9825241833332
512,1024,94.0252592880355,415793,65920,41529344,30017520,1.0477505305829022,0.1027522430295288,0.6033110382643122,512,0,1,1,518.7747353069558,0.7555198315284871,0.112714635082142,312.9825241833332
512,128,456.84731706490186,370437,52203,34578432,30183232,0.9041495000221066,0.3180718871797108,0.3368735301113417,512,0,1,1,929.0801924386516,0.8792976835112516,0.0586617982884532,312.9825241833332
512,1536,65.69270717346785,504927,40092,57397248,46292160,1.2871950176322688,0.2573531895141609,0.8130219430589734,512,0,1,1,384.9619642561489,0.6807060772987699,0.129274748960059,312.9825241833332
512,2048,41.11918783119041,340974,57125,58707968,44519112,1.3867473674961963,0.1986673515915631,1.0,512,0,1,1,264.90140157821327,0.7434694534372792,0.1492499813651818,312.9825241833332
512,256,109.63341576996852,367677,41955,47431680,44143424,1.0201985562094493,0.1949089354714592,0.5084728868341489,512,0,1,1,615.5343427100377,0.8710813824497169,0.0882137908460496,312.9825241833332
512,512,85.18964337022226,387416,37659,35627008,29872048,0.9991339808511248,0.091340985964222,0.4835395090970856,512,0,1,1,647.2739420358146,0.8896500392498297,0.0616410680551932,312.9825241833332
