cpu,memory,duration_std,userDiff,sysDiff,heapTotal,heapUsed,avg_cpu_util,cpu_util_std,slo_preservation,total_cpu_shares,cpu_shares_others,num_containers,arrival_rate,latency,memory_util,memory_util_std,slo_duration
1024,1024,163.96468616993718,62776,4095,31285248,21860712,0.32846879725696,0.17677324397807867,1,1024,0,1,1,399.37295014999995,0.7367569410225304,0.07777284072915926,491.6812813448273
1024,128,306.04841221975465,189281,54928,29540352,24850624,0.29651812176563624,0.2016411281744346,0.9104196121499725,1024,0,1,1,540.0600720624999,0.8466814121862001,0.05178126322678894,491.6812813448273
1024,1536,157.07736001339512,42235,12452,44695552,27967520,0.2907967293162609,0.18044417903446058,1,1024,0,1,1,366.57166444999996,0.6308341595702397,0.07352273560537692,491.6812813448273
1024,2048,130.2459533372822,46213,12365,41943040,27639000,0.2861196701945718,0.146265969729787,1,1024,0,1,1,347.7694463000001,0.6460199767506298,0.04979053047123618,491.6812813448273
1024,256,389.96569395450825,220710,35867,18841600,14619728,0.20949921474104047,0.05333393582313105,0.5838986120840014,1024,0,1,1,842.0661929473683,0.8642615076844625,0.050320492942656087,491.6812813448273
1024,512,192.539847525177,198257,55542,28753920,24962080,0.2935638550792112,0.10337641280499411,0.7259791741937014,1024,0,1,1,677.26637185,0.86389143941022,0.04397247311464689,491.6812813448273
128,1024,123.2316735968393,133581,47256,36491264,25242992,0.3242609569512201,0.14431700742952883,1,128,0,1,1,373.41475915000007,0.7452257218689116,0.06054711319731803,491.6812813448273
128,128,355.735913435856,126262,25149,36327424,32908624,0.2734973136919544,0.11612181782699763,0.6071265787486156,128,0,1,1,809.8497060666666,0.8380961888931702,0.04876918925113697,491.6812813448273
128,1536,169.0135353863856,106993,46842,52060160,33851664,0.3926305865260643,0.2262931411611432,1,128,0,1,1,387.7669673500001,0.6383559635326204,0.10050557964713862,491.6812813448273
128,2048,140.15815396906217,68259,19148,44433408,27900288,0.28631117379901927,0.2013628016239833,1,128,0,1,1,370.2987126,0.6745882847898552,0.08211116621356057,491.6812813448273
128,256,314.87917384547524,114609,21446,18841600,14743320,0.19251258096856042,0.054221241127586355,0.5592973555859782,128,0,1,1,879.10532105,0.8648714389629066,0.04207112228876796,491.6812813448273
128,512,237.88948050063613,119112,15060,19365888,14526920,0.28428268829838615,0.12164738079535796,0.8159713422198893,128,0,1,1,602.5717520999999,0.8475665404316354,0.0529119910326941,491.6812813448273
1536,1024,128.3022823336729,177230,39999,50860032,40456800,0.38358175626046764,0.24251532610536278,1,1536,0,1,1,370.97068475000003,0.7198931096267268,0.07173491479356502,491.6812813448273
1536,128,238.79369286914985,227831,47539,18579456,14581488,0.23962809593205744,0.0744776378508703,0.8973380576768535,1536,0,1,1,547.93316425,0.8574405771431228,0.048594296429877726,491.6812813448273
1536,1536,134.9961557054483,114959,32587,34574336,14935680,0.29357582615160194,0.18769789925631036,1,1536,0,1,1,354.43930004999993,0.6549935728179136,0.07152752462472492,491.6812813448273
1536,2048,138.46486527989694,54061,33715,52432896,34521704,0.26796177706606805,0.11647277111839499,1,1536,0,1,1,391.53550514999995,0.6420711119031102,0.08928023644303486,491.6812813448273
1536,256,156.15503245785655,55448,10673,32014336,28901000,0.2511691189878456,0.11617183084694645,0.9477609058571028,1536,0,1,1,518.78198215,0.8557074636009684,0.05237184228245566,491.6812813448273
1536,512,200.77554896586378,55844,6614,32538624,28752144,0.25528657528352955,0.09742564744295235,0.8107692890515255,1536,0,1,1,606.4379694500001,0.8537805943499214,0.04584561447776184,491.6812813448273
2048,1024,138.47375177728537,189921,36319,25792512,14775008,0.26577400895372794,0.09952633844380344,1,2048,0,1,1,425.3195019000001,0.7450457374738976,0.07501354210338212,491.6812813448273
2048,128,383.67502854589895,212824,44510,29540352,24799488,0.2790947354545753,0.14352894879717917,0.7183223005311496,2048,0,1,1,684.4856145789474,0.8545077658585298,0.040415692468107854,491.6812813448273
2048,1536,113.14269416838354,120870,20140,34312192,15027120,0.34028881672774614,0.16883485775029042,1,2048,0,1,1,351.9904685,0.6286930521693026,0.0800352271072709,491.6812813448273
2048,2048,134.94419355429432,74328,13961,45379584,25922784,0.23945064126170124,0.12313951257243531,1,2048,0,1,1,397.95213565000006,0.6297296779754588,0.07458896442707319,491.6812813448273
2048,256,149.84501815120296,126015,22093,23744512,19122584,0.2973908949991715,0.13722709217848192,0.9956912285325572,2048,0,1,1,493.8089914374999,0.8551190869972063,0.046273291751709154,491.6812813448273
2048,512,249.05847944081737,207872,44386,37212160,33441128,0.284509316761458,0.11879106984605699,0.946931325049991,2048,0,1,1,519.23647295,0.8614168723214343,0.042726636945747985,491.6812813448273
256,1024,115.22031945180413,151688,40963,44163072,35733192,0.29561732556817627,0.14734786453636178,1,256,0,1,1,439.8294315500001,0.7493089201693275,0.06300564121351616,491.6812813448273
256,128,288.02570266017267,125283,40316,25800704,21396520,0.24643151019037118,0.14530081632032293,0.7122787635281517,256,0,1,1,690.2933325,0.8499248183392185,0.04353789968044781,491.6812813448273
256,1536,134.30832293875207,95044,48890,34312192,15003560,0.31479459202861443,0.162443886183938,1,256,0,1,1,390.93115345,0.6213339626945737,0.09035653017862058,491.6812813448273
256,2048,150.82381245868856,138381,39042,34312192,14768248,0.2951416498896754,0.19617280104396448,1,256,0,1,1,378.9521908,0.6688890145151348,0.07531327421223885,491.6812813448273
256,256,318.87176111738455,198643,45994,29016064,24859896,0.23947336795871418,0.17520048848068656,0.6246029227948996,256,0,1,1,787.1901705882352,0.8422517542812099,0.04496072998669165,491.6812813448273
256,512,181.3039600442779,103190,30200,19365888,14724760,0.297738338308258,0.0677011309527776,0.8466527781398824,256,0,1,1,580.7354491000001,0.8457831685474687,0.04653573415002736,491.6812813448273
512,1024,157.1953943646066,96369,32976,39690240,28764640,0.3679672647383844,0.17777672239214873,1,512,0,1,1,433.90588375,0.7442061875207038,0.07282512279845291,491.6812813448273
512,128,261.2811190189943,108849,45391,19365888,14641872,0.25199400712429093,0.08487824620349088,0.8069822973398117,512,0,1,1,609.2838504210526,0.8547737640334641,0.057814117465563766,491.6812813448273
512,1536,165.28875894397564,52035,4781,44171264,27741272,0.3807447209139616,0.1735461255243373,1,512,0,1,1,354.37102205,0.6002977348008662,0.10192932232629713,491.6812813448273
512,2048,150.02513896443844,68845,33333,54386688,34915144,0.30500118608031174,0.12821086615608474,1,512,0,1,1,287.25709955,0.6237457220724334,0.07259746068974948,491.6812813448273
512,256,257.0485017303295,40150,18335,32276480,28906328,0.29356880936335145,0.1723031526098506,0.6577195139316064,512,0,1,1,747.5546504705883,0.8408321907517706,0.05117377997674925,491.6812813448273
512,512,207.88694753737119,207186,37128,19103744,14593704,0.287371791424212,0.11748312084430296,0.8749145963137839,512,0,1,1,561.97631565,0.8704105131097597,0.04161338507760428,491.6812813448273
