cpu,memory,duration_std,userDiff,sysDiff,heapTotal,heapUsed,avg_cpu_util,cpu_util_std,slo_preservation,total_cpu_shares,cpu_shares_others,num_containers,arrival_rate,latency,memory_util,memory_util_std,slo_duration
1024,1024,147.15645667963247,433863,47696,53596160,43901768,0.9299673683561214,0.2064088451886786,1.0,1024,0,1,1,667.4972013618527,0.7540794069504747,0.1147497458753492,760.67870046789
1024,128,1341.616247843244,555923,85204,36675584,29390784,0.6193163816786925,0.2337015586225613,0.3541539043954721,1024,0,1,1,2147.876081632761,0.8668801796916477,0.0570139378222089,760.67870046789
1024,1536,104.86768948837626,379101,78838,60542976,45167440,1.2901706778397288,0.3167805719372792,1.0,1024,0,1,1,375.2099281988244,0.7090435226963419,0.1307517971660027,760.67870046789
1024,2048,34.87701736763423,362762,41267,58970112,44389840,1.4238919984379472,0.2675593661167204,1.0,1024,0,1,1,255.28495594923146,0.6133089812860677,0.149469528158772,760.67870046789
1024,256,500.7917207825136,432100,36806,32743424,29982176,0.4947452946121911,0.109441759748026,0.43598280774720827,1024,0,1,1,1744.7447168810086,0.8824492021094303,0.0728473809519552,760.67870046789
1024,512,180.3509326643757,448687,37473,36675584,29643576,0.57302519462797,0.1120620640815248,0.5654098930575605,1024,0,1,1,1345.3579603186224,0.8675754225179523,0.0602162475868382,760.67870046789
128,1024,91.3971309384447,471385,47134,39432192,30444088,0.9320629390255677,0.09366463021829,1.0,128,0,1,1,645.7209521022796,0.7703089700176682,0.1027515536666507,760.67870046789
128,128,1912.6204359127032,464893,63806,37986304,29801888,0.4414142083235971,0.1924991332744612,0.25256696503974224,128,0,1,1,3011.7901616634417,0.8639770963368028,0.0540637959010976,760.67870046789
128,1536,87.99456057615463,398555,64617,58445824,45317304,1.228949805091102,0.3119767792875822,1.0,128,0,1,1,412.95248525557514,0.7244836110651784,0.1421678632474391,760.67870046789
128,2048,52.1550428033289,370193,28587,58970112,44304928,1.4514032394255472,0.2944223125721339,1.0,128,0,1,1,237.34473137710592,0.6874379773491548,0.1544063477946125,760.67870046789
128,256,326.0661247756896,428330,67782,35102720,29628048,0.34516017827732165,0.041666176845522,0.31857452976448525,128,0,1,1,2387.7574300438964,0.8761598389165698,0.0647768176281763,760.67870046789
128,512,250.93018460582047,652385,41678,32219136,29413464,0.5639433267511454,0.0734635708582536,0.5281248304102618,128,0,1,1,1440.3388302666513,0.894213792679468,0.0516321380732892,760.67870046789
1536,1024,120.05116094315288,567277,77874,50712576,44343280,0.9114670757827322,0.1322345353252151,1.0,1536,0,1,1,665.7561312427521,0.7436492016772325,0.134946652060471,760.67870046789
1536,128,378.5454912992855,525329,68686,32481280,29519568,0.8363857477010233,0.3647972245688691,0.6332512674704599,1536,0,1,1,1201.2272845602704,0.8789947210949471,0.0393979316670268,760.67870046789
1536,1536,89.15517651576621,380978,46871,58970112,44635016,1.1124089017262055,0.1251690301330348,1.0,1536,0,1,1,452.68329350113197,0.7325412866882751,0.1104402605342309,760.67870046789
1536,2048,65.71587997251733,398618,48156,58970112,44634528,1.2031729052128342,0.1855649534096805,1.0,1536,0,1,1,378.2545177395076,0.685392534929224,0.1518391862666502,760.67870046789
1536,256,460.2150184009036,456451,53943,38772736,29631968,0.6152564857439016,0.2800448287249201,0.4790045286706097,1536,0,1,1,1588.0407280887634,0.8759648064634887,0.0511448343003589,760.67870046789
1536,512,208.51021193500785,411042,66858,42180608,29417728,0.5553095487270038,0.0397179356699155,0.5668634250226527,1536,0,1,1,1341.9082390745039,0.8831033270847618,0.0625223636571324,760.67870046789
2048,1024,87.70027800226218,517597,54160,47034368,30305272,0.9109423308989775,0.0724322383372212,1.0,2048,0,1,1,654.848046195246,0.7681020286356259,0.1240793432673612,760.67870046789
2048,128,677.6723049071,609453,92395,46645248,43912096,0.5461768540957975,0.1837504137559462,0.4177648627478497,2048,0,1,1,1820.8297736303707,0.8634637332045401,0.0685126974662341,760.67870046789
2048,1536,92.17310129989656,347964,52464,58970112,44737064,1.121780574983649,0.1061998179081701,1.0,2048,0,1,1,421.9213731074585,0.7584173941011898,0.1151685448959966,760.67870046789
2048,2048,75.7498592085976,488762,47763,61067264,44659056,1.2281548624973064,0.2051690630930861,1.0,2048,0,1,1,364.2294066453191,0.7312029705944657,0.12010175745654,760.67870046789
2048,256,355.8990840064744,487341,52709,31956992,29392776,0.6298487046313059,0.2468729250126254,0.5207230446237979,2048,0,1,1,1460.8124382462288,0.8849691532040621,0.0761726375140395,760.67870046789
2048,512,196.66059983936887,395427,85437,32743424,29824712,0.597558124901428,0.0868297141652534,0.5647991243457232,2048,0,1,1,1346.8128183610029,0.880913008290144,0.0789578320101126,760.67870046789
256,1024,121.84647866419624,468910,49292,38121472,30078640,0.9101245457671249,0.1202005920739607,1.0,256,0,1,1,678.5339699444053,0.7765946375433226,0.1032958024195714,760.67870046789
256,128,815.9776757660868,567842,77022,32743424,29675264,0.5138422377978596,0.2232840255222891,0.34700777744116473,256,0,1,1,2192.1085056857646,0.8677782839400128,0.061825373844508,760.67870046789
256,1536,91.25115900775954,385035,60745,63426560,45190040,1.1508180526342238,0.1630373308848197,1.0,256,0,1,1,462.7500352353034,0.7321680610409949,0.1066693860243459,760.67870046789
256,2048,76.91831349081001,507395,49725,62115840,44704472,1.1934860353520365,0.1712666627537204,1.0,256,0,1,1,397.0846763090416,0.7088298638007544,0.1277819564999626,760.67870046789
256,256,403.2334693817992,512965,54016,32481280,29952904,0.4008960254255049,0.0824666675350575,0.3605981682344555,256,0,1,1,2109.491304940041,0.8751247028032128,0.0497251266864454,760.67870046789
256,512,240.707786953046,464471,52574,32219136,29476672,0.5596337171005118,0.0670588199530352,0.5688662997585124,256,0,1,1,1337.183624325792,0.8825129331385826,0.0639485792099039,760.67870046789
512,1024,103.1094538020896,387344,50798,43102208,30641064,0.9280543858527698,0.168987004231727,1.0,512,0,1,1,678.4744814977118,0.7871620747213525,0.1138553232170751,760.67870046789
512,128,587.1503449266858,493353,87500,32219136,29470680,0.4036547409643644,0.0879354915201435,0.32642446090472105,512,0,1,1,2330.3360855972187,0.8830149913415195,0.0244767032247973,760.67870046789
512,1536,76.38546409115631,396039,42398,58970112,44588072,1.1070965935682409,0.1083244327043815,1.0,512,0,1,1,447.99579041835875,0.6809183874544122,0.1196497322631118,760.67870046789
512,2048,62.06495287482786,388391,44262,57921536,44812424,1.2242596988581445,0.1698295464296543,1.0,512,0,1,1,381.0571445131295,0.736238650940856,0.1324942956631049,760.67870046789
512,256,313.63204886660225,604445,56456,32481280,29490896,0.4478517796116792,0.0904844141187758,0.3987783484097021,512,0,1,1,1907.5225711260885,0.8898975051420981,0.0495910559588307,760.67870046789
512,512,245.6666691057491,435401,40790,32743424,29433600,0.5946073871389164,0.1148700851709678,0.5696598647916247,512,0,1,1,1335.3208598364886,0.8935581012952432,0.0372247647973221,760.67870046789
