cpu,memory,duration_std,userDiff,sysDiff,heapTotal,heapUsed,avg_cpu_util,cpu_util_std,slo_preservation,total_cpu_shares,cpu_shares_others,num_containers,arrival_rate,latency,memory_util,memory_util_std,slo_duration
1024,1024,712.9435192317203,1536552,96904,43175936,35574216,0.4533134232458356,0.2873860322173016,1.0,1024,0,1,1,958.9727200402758,0.8048953392734812,0.0226941909099969,2852.268637042017
1024,128,1160.609105739607,2027807,209530,36487168,33573360,0.3001311896665474,0.0316431347675091,0.25397784590096056,1024,0,1,1,11230.383606585387,0.9127747480932196,0.0108302535146345,2852.268637042017
1024,1536,497.3374592316832,1585629,123127,51695616,35278544,0.5367939573086613,0.3218471810296832,1.0,1024,0,1,1,640.8640420008136,0.7072596513758602,0.053337283842532,2852.268637042017
1024,2048,353.24758063433296,1531557,93535,52219904,40381288,0.3547711723527096,0.3069875803001096,1.0,1024,0,1,1,577.6003228079614,0.7207203979831498,0.0417920562357229,2852.268637042017
1024,256,3161.136033795317,1833952,157821,36225024,32730216,0.3404014355774716,0.0477244971979286,0.3985262728159437,1024,0,1,1,7157.040405111045,0.916930093888362,0.0108248737833114,2852.268637042017
1024,512,2076.100358373323,1978138,176905,37011456,33629608,0.41431169324703676,0.1221290447261653,1.0,1024,0,1,1,2510.1103465948763,0.928312472468253,0.0087454769007624,2852.268637042017
128,1024,696.6936359795443,1700933,113876,43175936,33844256,0.4630875438596955,0.2958903537134539,1.0,128,0,1,1,911.9122757470725,0.8359835808670779,0.0245353255671111,2852.268637042017
128,1536,577.8093699020541,1617745,164105,51957760,34497568,0.42233088043760364,0.3203621837642951,1.0,128,0,1,1,653.973593742777,0.7127240716979617,0.0335861498049469,2852.268637042017
128,2048,366.0766246522872,1356853,91074,51957760,34197928,0.3420535151044484,0.2876054730768138,1.0,128,0,1,1,486.6720081088586,0.7239717147858814,0.0442692934249356,2852.268637042017
128,256,3892.643447034843,1992343,147986,36225024,33314488,0.23836145378232917,0.0286202396116768,0.2899396035706175,128,0,1,1,9837.457877144818,0.9199154645850388,0.0084688851097424,2852.268637042017
128,512,2065.6620439986896,2033868,132972,36487168,33421408,0.4099368138622653,0.1224485472193694,1.0,128,0,1,1,2638.199757238135,0.9273782604927144,0.008119380229339,2852.268637042017
1536,1024,820.884517360737,1826670,121661,43962368,35989384,0.4816120211023778,0.2647903985737607,1.0,1536,0,1,1,861.1115588112323,0.8258634324618264,0.0240885414416889,2852.268637042017
1536,128,3541.3520469462496,1867946,200161,35962880,32909808,0.4326284861112416,0.2446788033979065,0.2926558565271266,1536,0,1,1,9746.152600153542,0.9170139232555928,0.0069941104451616,2852.268637042017
1536,1536,558.0933141262154,1780393,130808,52744192,41110144,0.3799340883986111,0.3316851225124644,1.0,1536,0,1,1,711.5178170882667,0.7007982427477121,0.058243233270544,2852.268637042017
1536,2048,396.3843165198271,1521772,92457,51957760,34362584,0.4061933060254855,0.298691146106979,1.0,1536,0,1,1,514.17418767102,0.7282850876019138,0.041641764884791,2852.268637042017
1536,256,2436.8065605237134,1846598,154487,35700736,33283232,0.3789814115882851,0.0916941682793836,0.4807520920892228,1536,0,1,1,5932.930264841498,0.9171473340795748,0.0100731841864358,2852.268637042017
1536,512,2038.9155563616705,2105931,189758,36487168,33538680,0.4553813992833708,0.324187987151514,1.0,1536,0,1,1,2204.935625822227,0.9291021434000314,0.0118249921453384,2852.268637042017
2048,1024,675.8672790909878,1546447,117224,42651648,36193240,0.5142440475449933,0.3187912603464261,1.0,2048,0,1,1,889.2494976696676,0.8137583966232385,0.0384879624854445,2852.268637042017
2048,128,1905.8071098597484,2154248,252817,36487168,33547456,0.339483667659976,0.0592551104869911,0.28073728271490694,2048,0,1,1,10159.921081584807,0.9173573833861952,0.0088709007036793,2852.268637042017
2048,1536,527.5578484182889,1776052,128481,52744192,35755120,0.45125124742933503,0.3626151233299977,1.0,2048,0,1,1,638.5301137895812,0.7015594160234523,0.0372912483235673,2852.268637042017
2048,2048,323.08489535807763,1469051,92020,52219904,40670896,0.45966250228851835,0.3319447310991869,1.0,2048,0,1,1,524.3755270313661,0.6932227758360728,0.0438507082493484,2852.268637042017
2048,256,2882.917037512372,1839184,183202,35962880,33054272,0.38737488993067853,0.1340816927127637,0.46352294187404747,2048,0,1,1,6153.457314345965,0.9190940645404948,0.0105375808902658,2852.268637042017
2048,512,1179.721616703774,1756900,179091,35962880,32332608,0.5480316148118975,0.3076172669787117,1.0,2048,0,1,1,1626.1274209879832,0.922619619770545,0.0103821923195907,2852.268637042017
256,1024,789.3447793441675,1729438,143875,43438080,35472472,0.4699114353870001,0.2919481039217289,1.0,256,0,1,1,867.0576950675052,0.8146121661617937,0.0222084610630492,2852.268637042017
256,128,1044.8121023686,1856944,168092,35962880,32480376,0.2650563055061858,0.0137248714338017,0.22870839170656285,256,0,1,1,12471.202371540136,0.9146330705021124,0.0087697213016434,2852.268637042017
256,1536,433.2720430284184,1578306,134178,52482048,36730256,0.3382151942147266,0.2948114968066283,1.0,256,0,1,1,538.9480576085784,0.7059103853426103,0.023907856876001,2852.268637042017
256,2048,320.230741205597,1563959,127026,52482048,40960344,0.34280773664154235,0.2816565581696027,1.0,256,0,1,1,414.06312793843017,0.7008671796142346,0.0630745381939781,2852.268637042017
256,256,3318.2633534730394,1853736,131258,35962880,32758496,0.3159873212031745,0.0473862738864311,0.4042551504695314,256,0,1,1,7055.614835653137,0.9164193284474658,0.0090395337705313,2852.268637042017
256,512,1525.4025095904692,2121031,180394,36487168,33832768,0.45245281182964314,0.230945204087062,1.0,256,0,1,1,1990.4507379083384,0.9255623553907244,0.0117290180030738,2852.268637042017
512,1024,661.386638753713,1655663,141555,43438080,34016544,0.4546838016312641,0.3258393806701081,1.0,512,0,1,1,881.2116410477759,0.823854169400145,0.0281354816049347,2852.268637042017
512,128,2116.99717507274,1890661,199839,36487168,32998728,0.28182330888870566,0.0360565004193974,0.23222490347125807,512,0,1,1,12282.35471048451,0.9180507602441064,0.0077436002847502,2852.268637042017
512,1536,409.2654602854484,1588051,104154,52744192,40454656,0.35968267335536913,0.2883633478225208,1.0,512,0,1,1,544.3161306396387,0.7014912878481208,0.0480455495624582,2852.268637042017
512,2048,274.7078850189926,1521518,106308,52482048,41307840,0.28329334781306,0.234937520453894,1.0,512,0,1,1,461.37755509634974,0.719052121742469,0.0545096103796711,2852.268637042017
512,256,3227.4124979758017,1933917,182805,36225024,32931992,0.3207397227062178,0.0455525586358998,0.4210555205108663,512,0,1,1,6774.091534487808,0.9207642537582552,0.0102997809538918,2852.268637042017
512,512,1552.4053564487656,1816891,190486,35962880,33332288,0.5127887040832777,0.2670788649452239,1.0,512,0,1,1,1850.9836950154097,0.9237881831700808,0.0097255654069595,2852.268637042017
128,128,3245.620957775201,1772413,173082,36487168,33044776,0.25015762371357675,0.1090120789367928,0.18556093165975845,128,0,1,1,15371.062278733818,0.9158389310183048,0.0081359693209463,2852.268637042017
