cpu,memory,duration_std,userDiff,sysDiff,heapTotal,heapUsed,avg_cpu_util,cpu_util_std,slo_preservation,total_cpu_shares,cpu_shares_others,num_containers,arrival_rate,latency,memory_util,memory_util_std,slo_duration
1024,1024,65.69823250034425,277685,31668,43900928,34136240,0.9786430314773633,0.1324063371350685,0.5522451478887435,1024,0,1,1,377.1662440970189,0.7814595387018262,0.042448884550288,208.2882282500001
1024,128,77.8753667986588,135805,13733,26275840,22361208,0.9487450033861988,0.0659964594583372,0.39882833058616796,1024,0,1,1,522.2503324773185,0.8656625816522295,0.0446345255810031,208.2882282500001
1024,1536,44.83835556895499,93272,8172,46809088,36895696,1.0217402665954178,0.0832933275906,0.6713205234884045,1024,0,1,1,310.2664389994592,0.6653128246371117,0.0600921498560214,208.2882282500001
1024,2048,32.55688912589243,130940,3512,47071232,36735792,1.0758976481250475,0.1795906480095939,0.906296279985019,1024,0,1,1,229.8235498146843,0.6843985133892947,0.0543520975702654,208.2882282500001
1024,256,101.965972557692,329210,43378,18841600,14357176,0.9693391773229011,0.1474447526033908,0.43562901409635474,1024,0,1,1,478.1321296563819,0.8679441897592316,0.0430214568884817,208.2882282500001
1024,512,58.911486945360174,207516,40597,30441472,26009032,1.041063616948668,0.1034494521699647,0.44313195060836885,1024,0,1,1,470.0365838302665,0.8814468975131232,0.0248899567317697,208.2882282500001
128,1024,64.58225334759845,168707,15436,30760960,21634240,0.971044227474576,0.1333467338189799,0.5015113405099377,128,0,1,1,415.3210733743572,0.7470276105959988,0.0710176189169309,208.2882282500001
128,128,81.388282419235,145695,26195,35803136,32196616,0.933509452223845,0.0825390229660245,0.39963045560117477,128,0,1,1,521.2020889065287,0.8789222882278637,0.0344204433271915,208.2882282500001
128,1536,54.8809545803509,223487,25777,60301312,42945904,1.0031015656409534,0.1316600104557354,0.6287605505008502,128,0,1,1,331.2679653392447,0.6839847475372549,0.0633211167169018,208.2882282500001
128,2048,32.600990634412724,114317,15709,42205184,28288672,1.0552334483393941,0.1508980913861667,0.8399052083895417,128,0,1,1,247.99016147236173,0.6643072298429626,0.0526207481414484,208.2882282500001
128,256,79.77555982694362,209965,43774,37474304,33201944,0.9775093945846782,0.1260308886424763,0.43050528919190373,128,0,1,1,483.822692726901,0.8819229374844765,0.0226799531943893,208.2882282500001
128,512,55.29377841597274,274000,40303,25800704,21157384,1.0227986801306972,0.0883246760388444,0.44536520535166924,128,0,1,1,467.6796160704372,0.8844828840319391,0.0383706877640525,208.2882282500001
1536,1024,74.99354891495949,268435,31571,25530368,14443568,0.9532869738699598,0.1129801274820673,0.499110366075698,1536,0,1,1,417.3189787414872,0.7478651919806808,0.076428871808225,208.2882282500001
1536,128,60.14888076419908,169556,26105,27320320,23226400,0.9274008047319553,0.0913745831712608,0.42239914673142237,1536,0,1,1,493.1075970720125,0.8733174168709883,0.0323198192029467,208.2882282500001
1536,1536,69.44219275292653,141149,11804,44855296,25942624,1.0093829279544508,0.0833263213694272,0.5307435405759483,1536,0,1,1,392.4460918054159,0.6352006318804537,0.0817163968953536,208.2882282500001
1536,2048,27.845143173935,83883,31451,41943040,28074376,1.050866695307027,0.1263058307730073,0.9104625745729686,1536,0,1,1,228.77187274577744,0.6585782593038385,0.0453428989958235,208.2882282500001
1536,256,89.40812479077304,187077,7751,30654464,27213424,0.9780321417147548,0.1288019751650895,0.44099441375031573,1536,0,1,1,472.31489051906607,0.8752166943088089,0.0329819553970842,208.2882282500001
1536,512,81.12457194382422,265323,15916,41967616,38085776,1.0446486479262516,0.0731817037867369,0.44357488302210285,1536,0,1,1,469.567228042579,0.8802000891492359,0.0342640308527166,208.2882282500001
2048,1024,84.98099754596043,185537,41679,46370816,37088224,0.9523911471365939,0.1221107468702686,0.4794453874672615,2048,0,1,1,434.43577453171946,0.7628361829451847,0.0549014617326193,208.2882282500001
2048,128,103.37744345075888,267737,20071,27058176,23206928,0.9504131669163179,0.1276602591833212,0.388386910070308,2048,0,1,1,536.290546486993,0.8805620439700992,0.0277841368442673,208.2882282500001
2048,1536,46.4840078712209,187143,8436,42205184,28445024,1.016650268774231,0.1236394461870866,0.5918363517523635,2048,0,1,1,351.9355099315565,0.6846776235331399,0.0467732022206536,208.2882282500001
2048,2048,31.45827387726396,112446,8004,41943040,28370936,1.073761559136954,0.1587037010916992,0.9267677595010118,2048,0,1,1,224.74695101839342,0.6459932504313366,0.0452786060112143,208.2882282500001
2048,256,73.5546277935143,82383,7797,32186368,28424616,0.9574791215955396,0.1351776341555069,0.4217911797984766,2048,0,1,1,493.8183590029456,0.8730668081636992,0.0264500310936304,208.2882282500001
2048,512,86.6322727216283,201712,14316,36327424,32329616,0.998950271000954,0.1160450553843761,0.49861897534324034,2048,0,1,1,417.7302480448487,0.876412348901976,0.0309711959165656,208.2882282500001
256,1024,57.80441273861182,251675,14188,39690240,30336296,1.0039515416418117,0.0966635957985644,0.467611576448179,256,0,1,1,445.43000802522414,0.7672869890580978,0.0529164871232461,208.2882282500001
256,128,96.11182064150177,225808,27149,29917184,25664928,0.8962768292677084,0.1172968667442021,0.39262885817256965,256,0,1,1,530.4964826565359,0.8713231127679759,0.0322440873095409,208.2882282500001
256,1536,60.08599738710826,158085,26210,45117440,25881936,1.0086385967706264,0.0692695174988286,0.5919842644267128,256,0,1,1,351.84757563059514,0.6753461837408727,0.0642484836632093,208.2882282500001
256,2048,38.06096960433839,231825,37861,34050048,14427816,1.0689859174904561,0.150272599271288,0.7127721212082654,256,0,1,1,292.22274841069463,0.6650115681695774,0.0719127389418783,208.2882282500001
256,256,71.46011529876266,221707,21375,18841600,14227800,0.9782688330057551,0.206807060590789,0.40978134094412244,256,0,1,1,508.2911480793904,0.8675253085511943,0.0435376161759029,208.2882282500001
256,512,80.1356820130738,215902,30394,18579456,14554904,1.0203781201777966,0.1302257149295495,0.4945106295200313,256,0,1,1,421.2007099870902,0.8597017007905181,0.0552617510088028,208.2882282500001
512,1024,83.60425072079983,120113,19337,40280064,29990064,0.9937390721945445,0.1408810646788148,0.5103706580021556,512,0,1,1,408.1116831154513,0.7429994950843432,0.0751116447535282,208.2882282500001
512,128,80.56014341222675,360507,33562,18841600,14249544,1.0110024620145612,0.0956994799985726,0.44478334249850526,512,0,1,1,468.2914316889016,0.8600541835867294,0.0489934797579654,208.2882282500001
512,1536,39.13325989345706,144514,33498,53862400,35040344,1.0062988988567652,0.1176420809285566,0.6541102958091735,512,0,1,1,318.4298268724468,0.6502043950701986,0.0442721777838267,208.2882282500001
512,2048,36.48564178285622,233766,31023,34574336,14474656,1.0454288625249704,0.0983446008082804,0.7257371861035423,512,0,1,1,287.0022815949288,0.6295388431244718,0.0699469936348556,208.2882282500001
512,256,31.63269481230488,192514,16769,25800704,21088800,1.0524849472841336,0.1190178771526923,0.5520036238085052,512,0,1,1,377.3312696987965,0.8710572016780619,0.0327181922975836,208.2882282500001
512,512,68.6787848974617,154345,12559,32186368,28438688,1.0250991960160791,0.0908456507014582,0.49252926813177383,512,0,1,1,422.89512873024546,0.8755970241925961,0.0319849880660048,208.2882282500001
