cpu,memory,duration_std,userDiff,sysDiff,heapTotal,heapUsed,avg_cpu_util,cpu_util_std,slo_preservation,total_cpu_shares,cpu_shares_others,num_containers,arrival_rate,latency,memory_util,memory_util_std,slo_duration
1024,1024,45.686708802331424,119639,34253,48697344,37419608,1.0209293051486616,0.1494387827462542,0.7126688530160088,1024,0,1,1,204.9163503128236,0.7374853718818871,0.0485119405741922,146.03750034166666
1024,128,63.57802140715109,100020,17865,32219136,27850192,1.0411771324467192,0.1440966670177772,0.5547801067177733,1024,0,1,1,263.2349260063836,0.8871489143598879,0.0200646392085746,146.03750034166666
1024,1536,48.257317315941215,65416,15544,51724288,33737384,0.993262204289234,0.1311860285913078,0.7790167109938231,1024,0,1,1,187.46388656459078,0.658908628239681,0.0589449357675594,146.03750034166666
1024,2048,32.85382127270613,22521,23751,47239168,36446288,1.0716203459318874,0.1158918729863486,0.9112420513218545,1024,0,1,1,160.26202931463004,0.6414675524892794,0.0593409717282198,146.03750034166666
1024,256,71.44765431187014,152780,32096,31948800,27827616,0.9851169143769155,0.1409717740210318,0.545611532922477,1024,0,1,1,267.65838243821787,0.8847162545023084,0.0255976016886403,146.03750034166666
1024,512,53.56041829713054,160255,30906,31948800,28088584,1.0359746657290907,0.0884703758979937,0.6793393276483707,1024,0,1,1,214.96988971210624,0.878100432566607,0.023553508525874,146.03750034166666
128,1024,74.47133621150084,243978,52806,44163072,32831632,0.8981589555973573,0.1541228956187621,0.5963776379320823,128,0,1,1,244.87420562589563,0.7505261662742775,0.0456602413628495,146.03750034166666
128,128,76.35533621279873,165669,40007,27320320,22821768,0.9275691011012651,0.0891921062654988,0.4978173917378363,128,0,1,1,293.35556122670346,0.882217352513812,0.0254619836902495,146.03750034166666
128,1536,36.94667355169217,124870,36111,60731392,42631744,0.9874014595486482,0.1274804392954309,0.8147392575981806,128,0,1,1,179.2444625439794,0.6413119431430191,0.0564743243428504,146.03750034166666
128,2048,32.16262429794007,200344,37016,59641856,41427216,1.087129012063725,0.1453323100860865,1.0,128,0,1,1,141.66905981064932,0.6919204823968259,0.0732062891657626,146.03750034166666
128,256,69.00952695485182,59373,11900,32088064,27992880,0.9414702005967965,0.1489998013470868,0.6360829762251073,128,0,1,1,229.58875775663668,0.879975783245262,0.0252139367362014,146.03750034166666
128,512,56.72984398778849,103190,15199,32215040,27926960,1.0324169046007166,0.0884150562383372,0.5965482894711955,128,0,1,1,244.80415570568508,0.8772669331767082,0.0290940111995102,146.03750034166666
1536,1024,66.80287689595205,194807,25420,62033920,51082912,0.9119973191138967,0.1238344792752242,0.5210738281966227,1536,0,1,1,280.2625893668194,0.7759403005194614,0.048627461038433,146.03750034166666
1536,128,79.87267470707789,236036,33473,31424512,27911008,0.8988730724354166,0.1171077286494445,0.4796234773942593,1536,0,1,1,304.4836360702609,0.8966076505985514,0.0199058384512698,146.03750034166666
1536,1536,32.22605579636365,44912,24254,51458048,33725504,0.9990591944677361,0.1321154350600631,0.8788289048635768,1536,0,1,1,166.17284608354626,0.6448289303858908,0.0479588353404665,146.03750034166666
1536,2048,28.85505866895164,150602,35285,59641856,41493224,1.0823701426334924,0.1302705676312044,1.0,1536,0,1,1,129.7155306038074,0.6739033857022607,0.0455709447620445,146.03750034166666
1536,256,72.08762273936918,119451,7813,26275840,21874592,0.9873093122739909,0.1153378277085829,0.4843851219613314,1536,0,1,1,301.49047466681867,0.8825330989271549,0.0236229362327103,146.03750034166666
1536,512,60.59182664738535,50710,12605,26275840,21921160,1.044712992679791,0.0735236981633069,0.5211099207702146,1536,0,1,1,280.2431781107128,0.8827069339812323,0.0241339321195756,146.03750034166666
2048,1024,83.30498627345047,107922,26397,49549312,38583080,0.9507324215829726,0.188418276713411,0.5681855010799295,2048,0,1,1,257.0243345951252,0.7724327364435455,0.049276003945151,146.03750034166666
2048,128,57.30375675824104,224104,27400,36065280,32391856,0.9154679765917643,0.112298651071571,0.4792536566227793,2048,0,1,1,304.71859384604096,0.8840685397387004,0.0291519791366793,146.03750034166666
2048,1536,33.48255580923217,116795,48513,59641856,42148376,1.0160528640981619,0.1275563673950292,0.6825756562439662,2048,0,1,1,213.95064269545225,0.6871314371775629,0.0546612047220596,146.03750034166666
2048,2048,31.764494716315596,179771,31924,60166144,41361672,1.079787345169865,0.1344421189910174,0.9785030776635365,2048,0,1,1,149.24582627821067,0.6960765661788134,0.0572924450514177,146.03750034166666
2048,256,46.06233212892242,85830,4267,32092160,28119624,1.1214032936121838,0.147728074227455,0.7221469574234666,2048,0,1,1,202.22684432918044,0.8874144566880326,0.0228000145571389,146.03750034166666
2048,512,43.387388365890416,74952,28471,26140672,21748992,1.1107617594057133,0.1845051708966877,0.6097662398231579,2048,0,1,1,239.49751692389512,0.8798905228352645,0.0374923998484574,146.03750034166666
256,1024,64.03046915714887,172131,28022,48697344,39906768,0.9247956424748012,0.1462305820017659,0.5849471018897918,256,0,1,1,249.65932794583048,0.7688502368391269,0.0619183667997015,146.03750034166666
256,128,52.45526055646436,104594,39032,36057088,31554032,1.0253852066574833,0.1201197423776189,0.5747280514553018,256,0,1,1,254.09843833422912,0.8921762076376144,0.02767194863227,146.03750034166666
256,1536,42.0830688436224,74346,3650,47239168,36584832,0.9932085769395138,0.1380738004296975,0.7933798018297789,256,0,1,1,184.07010111028674,0.6551948344562335,0.0462553008179223,146.03750034166666
256,2048,33.04616365962714,98516,12865,51986432,33675632,1.05224260854586,0.1149924136245365,0.8962019439750835,256,0,1,1,162.95155497422894,0.6705316151715025,0.0449879603251369,146.03750034166666
256,256,54.33228023083192,152529,27435,44929024,40344464,1.0973440171093696,0.1768831410070209,0.5511314348079533,256,0,1,1,264.9776280544671,0.8903868060612783,0.0209239685817666,146.03750034166666
256,512,53.027413048764565,95338,35994,44929024,40342696,1.1306328387050395,0.1878827186324128,0.7399853109224126,256,0,1,1,197.35189089041077,0.8903841842642057,0.020032375212236,146.03750034166666
512,1024,60.1076289674992,41652,3516,37978112,30199880,0.9313624926432398,0.1472422995010155,0.568964646634656,512,0,1,1,256.6723630465574,0.7748534845207028,0.0417894378709298,146.03750034166666
512,128,78.64823848984551,173537,20412,36589568,31745832,0.9664276467996376,0.1162300135556436,0.4599838833019617,512,0,1,1,317.4839502926642,0.8906242585462388,0.014732951033746,146.03750034166666
512,1536,38.33176393050896,149736,42878,59641856,41623280,1.0107781529824302,0.0769012785631889,0.967436947234946,512,0,1,1,150.95299053758472,0.6629827234268866,0.0582288504329758,146.03750034166666
512,2048,25.49375977191888,170997,33350,59904000,41427248,1.070424321308606,0.1256829477204246,0.8430210105528329,512,0,1,1,173.23115143464668,0.666349537127048,0.0609919477574645,146.03750034166666
512,256,35.14700162889303,109349,18871,27320320,22775472,1.130005328648005,0.1947077109546141,0.7213703281563022,512,0,1,1,202.44456230257384,0.879259522336943,0.0350042935896676,146.03750034166666
512,512,56.14496871288386,63135,8796,32088064,28143776,1.031285437267521,0.1208821017648308,0.6549495719338624,512,0,1,1,222.9751825174316,0.8861044654397547,0.0204366844026448,146.03750034166666
