cpu,memory,duration_std,userDiff,sysDiff,heapTotal,heapUsed,avg_cpu_util,cpu_util_std,slo_preservation,total_cpu_shares,cpu_shares_others,num_containers,arrival_rate,latency,memory_util,memory_util_std,slo_duration
1024,1024,68.17249585568348,312171,29347,39694336,30082984,1.0842780367131044,0.19841904034566743,0.985812825705454,1024,0,1,1,164.95342505,0.7639701159494139,0.11132750619321961,162.61320205833331
1024,128,335.21335909032126,215941,29120,33005568,29989056,0.8967287933853034,0.5885353333447241,0.4043527459560741,1024,0,1,1,402.15678929999996,0.891750210411472,0.04029305925449051,162.61320205833331
1024,1536,51.10843190789543,227821,44942,50049024,30532840,1.3882870590417522,0.22583617072711173,1.0,1024,0,1,1,88.1546682,0.7554832563754854,0.10322782397215076,162.61320205833331
1024,2048,25.215745162872427,234130,30678,68927488,51293040,1.7365471315063392,0.38683194937287946,1.0,1024,0,1,1,68.4648766,0.7219251220716417,0.11713752257955472,162.61320205833331
1024,256,42.60512852511878,262672,30749,32743424,29975552,1.3776167617366366,0.23984066665690895,1.0,1024,0,1,1,133.15413510000002,0.9029978231694973,0.0448136932279157,162.61320205833331
1024,512,40.73383270985462,203845,29848,32743424,29971544,1.4974240259936398,0.18807353916331943,1.0,1024,0,1,1,120.01039930000002,0.8905193802252072,0.06517986237192305,162.61320205833331
128,1024,68.97736292441614,242067,33956,38645760,30083856,0.9292727245533078,0.22384285499707682,0.8738459498174718,128,0,1,1,186.08909509999998,0.778153993237024,0.09346210448318754,162.61320205833331
128,128,57.83962538131114,227806,42060,33267712,29717320,1.1331809242932707,0.24814065579061087,0.8758048505871571,128,0,1,1,185.67287215789474,0.9013509421726326,0.04548046360142624,162.61320205833331
128,1536,52.18693641482943,256594,36483,68665344,52024144,1.4034821801724555,0.2439375619680169,1.0,128,0,1,1,96.83637335,0.7518554679299018,0.10288322002498382,162.61320205833331
128,2048,26.905052121018752,234382,29605,69189632,51242328,2.055329306773683,0.28288359121999823,1.0,128,0,1,1,49.16127644999999,0.7745635962899788,0.11736891354097115,162.61320205833331
128,256,41.16708938870805,235500,40869,33005568,30279344,1.0385047129207767,0.13792217797760284,0.8041900964441964,128,0,1,1,202.20741685,0.8803962335575894,0.06128042014146052,162.61320205833331
128,512,55.981910565155204,271239,30930,32481280,30056736,1.0429802793828407,0.20014326749551686,0.8037859558039488,128,0,1,1,202.30908600000004,0.8713567920319246,0.06528967903516804,162.61320205833331
1536,1024,82.39440883390265,256390,60413,39170048,31586672,0.9627324440454637,0.12510644611871427,0.8708951411174686,1536,0,1,1,186.71961109999995,0.7755646065715861,0.09987913003083831,162.61320205833331
1536,128,84.46594552327282,283026,78649,33267712,29884552,0.8063182138022331,0.10668080000226665,0.561607912979501,1536,0,1,1,289.5493427,0.8863201958430327,0.04241476797900914,162.61320205833331
1536,1536,46.725739128328456,272322,34363,68927488,51999216,1.3789114753809752,0.16142004021570167,1.0,1536,0,1,1,94.30328385,0.7678325116921147,0.113737613140451,162.61320205833331
1536,2048,25.751116923466,203250,35458,69189632,51363968,1.704180912019033,0.2709848474396948,1.0,1536,0,1,1,54.527761450000014,0.7629314110292743,0.0939521806961719,162.61320205833331
1536,256,25.225816739324525,211692,35084,32743424,30312008,1.3314842959697208,0.22887536650500784,1.0,1536,0,1,1,141.18534070000004,0.884519296767398,0.04487431773336462,162.61320205833331
1536,512,57.81611390817221,247545,37775,33005568,29708264,0.9861711521462991,0.14219344760959404,0.776590069604371,1536,0,1,1,209.39387255000003,0.9041962777767789,0.04291105576707878,162.61320205833331
2048,1024,70.17189572620873,315093,40203,39694336,30565280,1.011595819560128,0.20124893101311497,0.9814659686785855,2048,0,1,1,165.6839944,0.7805526240180076,0.11433405147886425,162.61320205833331
2048,128,64.52509762801343,244071,30914,32219136,29846680,1.0126050574608272,0.14209688878585058,0.7952333686039031,2048,0,1,1,204.48488264999997,0.911499456884583,0.02988585676893803,162.61320205833331
2048,1536,53.29185671724196,304057,21949,50311168,31695752,1.428145658042878,0.1250731631546959,1.0,2048,0,1,1,86.62568900000001,0.7111133987590788,0.13041766133677524,162.61320205833331
2048,2048,27.94052663155172,270848,38858,51097600,30166352,1.5233346562304801,0.21240040599146903,1.0,2048,0,1,1,73.67402625000001,0.7249196073772634,0.13080538564538297,162.61320205833331
2048,256,59.07135896695961,247798,16275,33267712,29761288,0.9636693735371896,0.15318975250751632,0.7336112279916468,2048,0,1,1,221.6612776,0.8776230007073893,0.046639535102469785,162.61320205833331
2048,512,40.39590912844612,217579,16776,32481280,29938552,1.0433929270071827,0.1222284130398631,0.81012139845019,2048,0,1,1,200.72695569999996,0.894879914465563,0.04405669526790709,162.61320205833331
256,1024,77.0937267876523,234658,33083,37335040,30079256,1.048003624080949,0.15927200103736305,0.9486882616356784,256,0,1,1,171.40846854999995,0.7629647535056181,0.12247160419041106,162.61320205833331
256,128,259.68963937676574,209200,47290,32219136,29679312,0.8713247076865458,0.37841511274709827,0.5292942807953585,256,0,1,1,307.22644842105257,0.8946964472189,0.05168968496167419,162.61320205833331
256,1536,50.57305962466858,323748,31174,51359744,30395688,1.374219683003316,0.18901614662289662,1.0,256,0,1,1,96.53782455,0.7094333797847376,0.1153008152845934,162.61320205833331
256,2048,28.561084464762498,302350,24038,50573312,30805240,1.5123211814421835,0.15454250699593758,1.0,256,0,1,1,73.68953029999999,0.7378047656861727,0.08874831463474389,162.61320205833331
256,256,41.10180232112938,203214,39914,33529856,29650952,1.2760853114072475,0.16147093585955322,1.0,256,0,1,1,151.96069020000002,0.8809863444715388,0.06931297583101356,162.61320205833331
256,512,62.03229834521413,256286,47239,33005568,30410304,0.9046121111990656,0.1671676897418692,0.6904448360519827,256,0,1,1,235.51947030000002,0.890211660356836,0.05820978983696367,162.61320205833331
512,1024,65.26171623715683,312257,53248,39956480,29771448,1.063409325636208,0.18354225737308127,1.0,512,0,1,1,159.3359618,0.7680532090985281,0.11343816457055012,162.61320205833331
512,128,94.81743546723304,245833,33557,32743424,29627704,0.7530924715059184,0.15770555152038002,0.5222571132984792,512,0,1,1,311.36617945000006,0.8917242997325834,0.04779549588269259,162.61320205833331
512,1536,45.42505171909423,202996,61753,68403200,51907520,1.2110673875841669,0.2259318077501733,1.0,512,0,1,1,113.06406524999997,0.731968851980366,0.12276146709485432,162.61320205833331
512,2048,24.47626441068913,272258,35506,50573312,30261336,1.47987209175581,0.17301358842867065,1.0,512,0,1,1,73.20690915,0.7385692932416299,0.09922918285645595,162.61320205833331
512,256,74.33693031451322,223846,26341,33267712,29715080,0.8570305766894386,0.1296856950726207,0.6765505220357403,512,0,1,1,240.35633224999998,0.8894168625836881,0.04988567259678233,162.61320205833331
512,512,37.85654540257017,235473,23743,33005568,29904584,1.049964076225808,0.0793461255400522,0.8778592212399738,512,0,1,1,185.23835955000004,0.8747623398982665,0.06163802896746783,162.61320205833331
