cpu,memory,duration_std,userDiff,sysDiff,heapTotal,heapUsed,avg_cpu_util,cpu_util_std,slo_preservation,total_cpu_shares,cpu_shares_others,num_containers,arrival_rate,latency,memory_util,memory_util_std,slo_duration
1024,1024,27.63125048806685,83399,651,34238464,27252808,0.9821216470636153,0.0736349921038875,0.3162548173875807,1024,0,1,1,192.13402874597972,0.6578914970301465,0.061445862677065,60.763312175
1024,128,29.352347973290208,83355,8701,18841600,14591648,0.9664748373826864,0.0763932335354206,0.30012059000991026,1024,0,1,1,202.4629905365491,0.8581485689309505,0.0315179032187007,60.763312175
1024,1536,31.92414037630448,31335,28,42758144,27354632,0.9877474257357277,0.0590259024863799,0.35066797206340217,1024,0,1,1,173.27876229316362,0.5205704598148642,0.056126875758264,60.763312175
1024,2048,15.9897851573151,25800,4315,42496000,27082496,1.0145450902495592,0.0680661761884344,0.6845832831583338,1024,0,1,1,88.75956172150111,0.518254936058843,0.0555394882703101,60.763312175
1024,256,44.90590326894881,56484,901,28069888,24151072,0.9335593331980842,0.1408593694506456,0.3095504622246965,1024,0,1,1,196.29533659327288,0.8793492007231697,0.0170722441080864,60.763312175
1024,512,40.3634882936681,131718,361,28332032,24336160,0.9512847838560974,0.1319036743328928,0.3474428566484632,1024,0,1,1,174.8872109823783,0.8703982151980558,0.0137656336999374,60.763312175
128,1024,41.22107247274453,33148,21,33976320,27193968,0.9181661613152602,0.1475856296403025,0.2819185696994169,128,0,1,1,215.5349760740705,0.6680585224362151,0.0769633822131127,60.763312175
128,128,41.788821981593706,125050,3052,27807744,24431872,0.9237957176123818,0.1081624714901369,0.25709803309201457,128,0,1,1,236.3429678719207,0.8876441612191283,0.014242407895698,60.763312175
128,1536,35.855210431677584,87762,170,43020288,27302088,0.9649352704452311,0.094247189046197,0.33408269335292956,128,0,1,1,181.88105335587917,0.5286629971554688,0.0586214040136787,60.763312175
128,2048,20.660240581040437,48707,43,43020288,27284392,1.0098700795771884,0.0615809094503739,0.4638400108502796,128,0,1,1,131.00058372198828,0.5113734238776309,0.0492032214788676,60.763312175
128,256,33.02974344902533,88274,4707,28069888,24038280,0.9705290919728132,0.1477713854052792,0.3491951379914014,128,0,1,1,174.0096168707144,0.8500054070601312,0.0374371445195137,60.763312175
128,512,25.611925061406488,94599,4368,18841600,14593440,0.9978950486417422,0.0642017438751869,0.4760343453451491,128,0,1,1,127.64480707992512,0.84285017066888,0.0341670983918832,60.763312175
1536,1024,43.42189553409837,44639,4881,34238464,27282440,0.9178199700114494,0.1325903385012516,0.2984130834520758,1536,0,1,1,203.6214748766483,0.6598675747625204,0.0668031154567134,60.763312175
1536,128,29.034278398789365,73835,10977,19103744,14197016,0.9757079958370058,0.0883983467338437,0.3101225532720222,1536,0,1,1,195.93322553907203,0.8180544132416407,0.0398901236942524,60.763312175
1536,1536,44.09378998899584,58025,18,43020288,27301000,0.9925923704856309,0.1145235088398439,0.36977615719997703,1536,0,1,1,164.32458121451802,0.5272053947921997,0.0602567159683691,60.763312175
1536,2048,21.01946803784005,41097,318,42758144,27377144,1.024873948212765,0.2094609638220416,0.6023679142767921,1536,0,1,1,100.8740849816892,0.5342829411269886,0.076061241940467,60.763312175
1536,256,35.21519832659158,38091,25,18841600,14620784,0.9649350210123618,0.1035910562675254,0.3855810545274968,1536,0,1,1,157.58894650428633,0.8116903309631722,0.0209790041356411,60.763312175
1536,512,26.827743108189203,60954,3235,18317312,14685264,1.0030216287934837,0.0385310804515162,0.4705771798993344,1536,0,1,1,129.12507187024764,0.8209109910598803,0.0164716767293398,60.763312175
2048,1024,40.0760198747864,100409,11545,25530368,14189912,0.9461749497289605,0.1342396576554946,0.31740646181311905,2048,0,1,1,191.43690972106268,0.6603084757295948,0.0662214253063714,60.763312175
2048,128,39.46068866747037,142359,4517,18841600,14513616,0.9679901266705645,0.0735840495367213,0.27570621733240114,2048,0,1,1,220.39151950549453,0.8502495055772915,0.0321310961785027,60.763312175
2048,1536,30.729453788020912,44762,153,42758144,27279176,0.9787703706178679,0.0840000083872617,0.3079494593779662,2048,0,1,1,197.3158592248778,0.5340286692370475,0.0700584850446997,60.763312175
2048,2048,14.163492710867937,31620,3859,42758144,27312968,1.0100917287352635,0.0536179185014471,0.5168011687074036,2048,0,1,1,117.57580256054388,0.5121869793985129,0.0516211884688734,60.763312175
2048,256,32.874901481998016,68140,277,18579456,14588520,0.9828648634935963,0.1110815047004394,0.35198015631908036,2048,0,1,1,172.63277796807463,0.8418326451129439,0.0406420077592011,60.763312175
2048,512,29.04679522857089,74694,3707,18841600,14159536,1.002385406985143,0.0304917776243018,0.38327924444770295,2048,0,1,1,158.53535785001512,0.8139973615843493,0.0226339763074476,60.763312175
256,1024,34.77878623374246,16453,1023,34238464,27326272,0.9288778361549526,0.1347633254969582,0.2691189005470339,256,0,1,1,225.78611926359443,0.6534474079319039,0.0694855576496353,60.763312175
256,128,33.96555759489174,100860,3690,28856320,24136680,0.9637582136470627,0.1058693170516295,0.3447847339595006,256,0,1,1,176.23550636130378,0.8675927081290068,0.0157266995271699,60.763312175
256,1536,39.40077376815879,30543,31,43020288,27499360,0.9738351629231266,0.0800443157465259,0.33232755257918034,256,0,1,1,182.84163230950446,0.5281945261136809,0.0616871850989027,60.763312175
256,2048,17.173808020930718,23891,3949,42758144,27222632,1.0123453577681014,0.0824331487027896,0.4913254282602218,256,0,1,1,123.67223164117976,0.5110822069656813,0.0599191363689103,60.763312175
256,256,28.076273261917976,126451,4741,19103744,14588456,0.9829901427902293,0.0573727776268523,0.31246108577973536,256,0,1,1,194.46681503831863,0.8185725649890498,0.0231553681076376,60.763312175
256,512,28.726751331797303,35830,77,18841600,14157336,1.004419034600409,0.0728080975404488,0.37119870220778084,256,0,1,1,163.69484002394856,0.8142292412618662,0.0222078475141848,60.763312175
512,1024,41.46504071874026,61104,33,25530368,14786144,0.9102276012043513,0.1559768391125483,0.2724649193598168,512,0,1,1,223.01334174604713,0.6561798891965925,0.0462546529743253,60.763312175
512,128,34.230926281623205,130228,720,18579456,14631936,0.97794591397983,0.0609624543890395,0.3083503348068916,512,0,1,1,197.0593358137711,0.8328330485702754,0.0399402909169991,60.763312175
512,1536,35.98901697375399,20135,50,42496000,27399408,0.977390120231484,0.0892744153114868,0.3003095933934015,512,0,1,1,202.33556806625515,0.5230321273057218,0.0539601393207094,60.763312175
512,2048,17.069660466113763,71597,32,43020288,27246600,1.0187997231556112,0.1335676011306241,0.6348727644760047,512,0,1,1,95.70943277926136,0.5302265630765668,0.0632371934504012,60.763312175
512,256,36.048151667583866,24362,4060,18841600,14592416,0.9863309113466647,0.0961724055961792,0.43061556391787187,512,0,1,1,141.10802596672735,0.8165238013990612,0.0229463721435647,60.763312175
512,512,35.94502599029437,44236,8050,18841600,14587304,0.9815339001416996,0.0905776197910357,0.3572406529400606,512,0,1,1,170.09069845473365,0.8342544361541135,0.033652969515112,60.763312175
