cpu,memory,duration_std,userDiff,sysDiff,heapTotal,heapUsed,avg_cpu_util,cpu_util_std,slo_preservation,total_cpu_shares,cpu_shares_others,num_containers,arrival_rate,latency,memory_util,memory_util_std,slo_duration
1024,1024,27.63125048806685,83399,651,34238464,27252808,0.9564714459375466,0.0736349921038875,0.7699878710947019,1024,0,1,1,78.91463548459797,0.6578914970301465,0.061445862677065,60.763312175
1024,128,29.352347973290208,83355,8701,18841600,14591648,0.9202000527684044,0.0763932335354206,0.7143770641559165,1024,0,1,1,85.0577590236549,0.8581485689309505,0.0315179032187007,60.763312175
1024,1536,31.92414037630448,31335,28,42758144,27354632,0.9699213752152333,0.0590259024863799,0.8608485146249101,1024,0,1,1,70.58537145931635,0.5205704598148642,0.056126875758264,60.763312175
1024,2048,15.9897851573151,25800,4315,42496000,27082496,1.0371737693694911,0.0680661761884344,1.0,1024,0,1,1,34.72921518715012,0.518254936058843,0.0555394882703101,60.763312175
1024,256,44.90590326894881,56484,901,28069888,24151072,0.8489519343014384,0.1408593694506456,0.7037406577290373,1024,0,1,1,86.34333046932728,0.8793492007231697,0.0170722441080864,60.763312175
1024,512,40.3634882936681,131718,361,28332032,24336160,0.8865053353217168,0.1319036743328928,0.8094577758558849,1024,0,1,1,75.06668536323784,0.8703982151980558,0.0137656336999374,60.763312175
128,1024,41.22107247274453,33148,21,33976320,27193968,0.8177827133500722,0.1475856296403025,0.6277407690082578,128,0,1,1,96.79682310740705,0.6680585224362151,0.0769633822131127,60.763312175
128,128,41.788821981593706,125050,3052,27807744,24431872,0.8290320311025973,0.1081624714901369,0.5768117899421479,128,0,1,1,105.34339490719206,0.8876441612191283,0.014242407895698,60.763312175
128,1536,35.855210431677584,87762,170,43020288,27302088,0.916718538974743,0.094247189046197,0.7934723911737966,128,0,1,1,76.57898731058789,0.5286629971554688,0.0586214040136787,60.763312175
128,2048,20.660240581040437,48707,43,43020288,27284392,1.0250460080822652,0.0615809094503739,1.0,128,0,1,1,51.62444177719882,0.5113734238776309,0.0492032214788676,60.763312175
128,256,33.02974344902533,88274,4707,28069888,24038280,0.9294418490958308,0.1477713854052792,0.8360300001164044,128,0,1,1,72.68077959707145,0.8500054070601312,0.0374371445195137,60.763312175
128,512,25.611925061406488,94599,4368,18841600,14593440,0.9947541848828393,0.0642017438751869,1.0,128,0,1,1,51.21913449799252,0.84285017066888,0.0341670983918832,60.763312175
1536,1024,43.42189553409837,44639,4881,34238464,27282440,0.8170964534405282,0.1325903385012516,0.6641614916754911,1536,0,1,1,91.48876129766482,0.6598675747625204,0.0668031154567134,60.763312175
1536,128,29.034278398789365,73835,10977,19103744,14197016,0.9414050719468123,0.0883983467338437,0.748048970135088,1536,0,1,1,81.22905665390721,0.8180544132416407,0.0398901236942524,60.763312175
1536,1536,44.09378998899584,58025,18,43020288,27301000,0.9816844385543825,0.1145235088398439,0.9142814061074619,1536,0,1,1,66.4601858564518,0.5272053947921997,0.0602567159683691,60.763312175
1536,2048,21.01946803784005,41097,318,42758144,27377144,1.0645949683793212,0.2094609638220416,1.0,1536,0,1,1,38.84415193316892,0.5342829411269886,0.076061241940467,60.763312175
1536,256,35.21519832659158,38091,25,18841600,14620784,0.9167179761551557,0.1035910562675254,0.9157846804528231,1536,0,1,1,66.35109046042864,0.8116903309631722,0.0209790041356411,60.763312175
1536,512,26.827743108189203,60954,3235,18317312,14685264,1.0075884662760066,0.0385310804515162,1.0,1536,0,1,1,51.41592792702476,0.8209109910598803,0.0164716767293398,60.763312175
2048,1024,40.0760198747864,100409,11545,25530368,14189912,0.8754900091014438,0.1342396576554946,0.7342357410255561,2048,0,1,1,82.75722466210624,0.6603084757295948,0.0662214253063714,60.763312175
2048,128,39.46068866747037,142359,4517,18841600,14513616,0.9236416484190377,0.0735840495367213,0.6576868349168159,2048,0,1,1,92.38943057554944,0.8502495055772915,0.0321310961785027,60.763312175
2048,1536,30.729453788020912,44762,153,42758144,27279176,0.9485638811545849,0.0840000083872617,0.746114060958496,2048,0,1,1,81.43970922748778,0.5340286692370475,0.0700584850446997,60.763312175
2048,2048,14.163492710867937,31620,3859,42758144,27312968,1.0256171031216903,0.0536179185014471,1.0,2048,0,1,1,46.31839516105439,0.5121869793985129,0.0516211884688734,60.763312175
2048,256,32.874901481998016,68140,277,18579456,14588520,0.9582356163562527,0.1110815047004394,0.8579000393724565,2048,0,1,1,70.82796291680745,0.8418326451129439,0.0406420077592011,60.763312175
2048,512,29.04679522857089,74694,3707,18841600,14159536,1.0059849322115118,0.0304917776243018,0.9616389615634058,2048,0,1,1,63.18724033000151,0.8139973615843493,0.0226339763074476,60.763312175
256,1024,34.77878623374246,16453,1023,34238464,27326272,0.8393348681362782,0.1347633254969582,0.6079402159024712,256,0,1,1,99.94948612635943,0.6534474079319039,0.0694855576496353,60.763312175
256,128,33.96555759489174,100860,3690,28856320,24136680,0.9140670780164728,0.1058693170516295,0.8175192954320721,256,0,1,1,74.32645628613037,0.8675927081290068,0.0157266995271699,60.763312175
256,1536,39.40077376815879,30543,31,43020288,27499360,0.9370582002129465,0.0800443157465259,0.7994429400307105,256,0,1,1,76.00706583595046,0.5281945261136809,0.0616871850989027,60.763312175
256,2048,17.173808020930718,23891,3949,42758144,27222632,1.031445707178335,0.0824331487027896,1.0,256,0,1,1,48.552825889117976,0.5110822069656813,0.0599191363689103,60.763312175
256,256,28.076273261917976,126451,4741,19103744,14588456,0.9585333691794159,0.0573727776268523,0.7617176517145976,256,0,1,1,79.77143766883187,0.8185725649890498,0.0231553681076376,60.763312175
256,512,28.726751331797303,35830,77,18841600,14157336,1.0111213046460719,0.0728080975404488,0.9341890762966711,256,0,1,1,65.04391211239485,0.8142292412618662,0.0222078475141848,60.763312175
512,1024,41.46504071874026,61104,33,25530368,14786144,0.8022039428014334,0.1559768391125483,0.6003235682380963,512,0,1,1,101.2176022896047,0.6561798891965925,0.0462546529743253,60.763312175
512,128,34.230926281623205,130228,720,18579456,14631936,0.9466303144050461,0.0609624543890395,0.7461909963846152,512,0,1,1,81.43131245137711,0.8328330485702754,0.0399402909169991,60.763312175
512,1536,35.98901697375399,20135,50,42496000,27399408,0.9453294426708448,0.0892744153114868,0.72614684422034,512,0,1,1,83.6790969466255,0.5230321273057218,0.0539601393207094,60.763312175
512,2048,17.069660466113763,71597,32,43020288,27246600,1.0483631280154733,0.1335676011306241,1.0,512,0,1,1,37.20418660792613,0.5302265630765668,0.0632371934504012,60.763312175
512,256,36.048151667583866,24362,4060,18841600,14592416,0.966513865772776,0.0961724055961792,1.0,512,0,1,1,57.600501256672736,0.8165238013990612,0.0229463721435647,60.763312175
512,512,35.94502599029437,44236,8050,18841600,14587304,0.9550790232187127,0.0905776197910357,0.869030233736073,512,0,1,1,69.92082647547335,0.8342544361541135,0.033652969515112,60.763312175
