cpu,memory,duration_std,userDiff,sysDiff,heapTotal,heapUsed,avg_cpu_util,cpu_util_std,slo_preservation,total_cpu_shares,cpu_shares_others,num_containers,arrival_rate,latency,memory_util,memory_util_std,slo_duration
1024,1024,511.77046545522006,1690041,111969,42913792,34987448,0.9512795323910447,0.2077933350913094,0.28707515113405846,1024,0,1,1,1049.1756870463134,0.8167936965355173,0.0396127920600803,301.19226892500006
1024,128,954.4945639507664,1689665,146782,35962880,32966168,0.9612487502660841,0.161218340743039,0.1857799143342524,1024,0,1,1,1621.2316062494222,0.9090168469005444,0.0430468307697588,301.19226892500006
1024,1536,397.2140500686803,1848484,117907,52744192,40742592,1.000638188645695,0.1490722359638634,0.4254427594215325,1024,0,1,1,707.9501584056248,0.6845330797859787,0.0508501758005278,301.19226892500006
1024,2048,214.3816138857948,1525694,76808,52219904,34615416,1.0267379089494817,0.1171378312747518,0.8648837986850696,1024,0,1,1,348.2459370645158,0.7174695659691357,0.0445571025598822,301.19226892500006
1024,256,580.6547188219826,1748257,137766,36225024,32697560,0.961030234733071,0.1555488387760093,0.28437505190853507,1024,0,1,1,1059.1374556368398,0.932529167681768,0.011069658699619,301.19226892500006
1024,512,585.5541803284739,1788337,163219,35700736,32857504,0.9981095330949392,0.1003439751644984,0.28433061545807764,1024,0,1,1,1059.3029823389122,0.9306510963525084,0.0094679785113723,301.19226892500006
128,1024,602.2409237029284,1712065,126455,43438080,33478048,0.9658409544258545,0.1990132405501584,0.28205248457999416,128,0,1,1,1067.8589460876653,0.8154948074495515,0.0321299406099843,301.19226892500006
128,128,981.53037678763,1911483,178615,35962880,32944328,0.9543364556637485,0.0994341276117867,0.1736036513139889,128,0,1,1,1734.9420167450714,0.925345475737824,0.0116869346060807,301.19226892500006
128,1536,367.98849822209394,1670349,124876,51433472,35092544,0.9893979114220385,0.1967714660272937,0.4305370167346755,128,0,1,1,699.5734564459391,0.6969631238787419,0.0444985296508902,301.19226892500006
128,2048,191.79780223071256,1442697,70406,51695616,34067128,1.0323085210831626,0.1430593501900767,0.8414037570921468,128,0,1,1,357.96401713953225,0.7232506547641395,0.0502083955980802,301.19226892500006
128,256,383.0606556736963,1748925,96615,35962880,33103168,0.9944599753108229,0.1713875738079825,0.44660854187271026,128,0,1,1,674.3988094406939,0.9280341942567786,0.0121026987109988,301.19226892500006
128,512,360.8791201009985,1730522,110212,35962880,32618568,1.0228919052618324,0.1303311939923492,0.43801572026245145,128,0,1,1,687.6289023246263,0.928680059150907,0.010052206165302,301.19226892500006
1536,1024,549.7728364983016,1730561,126504,43175936,34405760,0.9548163986780204,0.1477401658202911,0.31005900200614916,1536,0,1,1,971.4030780471477,0.8165039042080592,0.027996916603388,301.19226892500006
1536,128,535.516183365248,1818794,198556,35962880,33173232,1.0074093177627763,0.1476384037288167,0.2957383123844762,1536,0,1,1,1018.4418329047386,0.932320829056718,0.0082855850471607,301.19226892500006
1536,1536,377.26944977235286,1623360,134488,51695616,34516240,1.0230954214787182,0.1416390576845494,0.4249600612885831,1536,0,1,1,708.7542956665416,0.6946391804890711,0.0481354038479389,301.19226892500006
1536,2048,200.4460670895313,1437624,104366,52219904,39644672,1.0445821435694576,0.2633440364358113,0.8060296282619915,1536,0,1,1,373.6739424510344,0.6923851778810466,0.0638535727589736,301.19226892500006
1536,256,380.0937324773006,1821440,91410,36225024,33220424,1.0074080008830455,0.1502782387100125,0.45762179126702296,1536,0,1,1,658.168545888266,0.9244051029905308,0.008690938931505,301.19226892500006
1536,512,533.0799259973422,1772961,80657,35438592,32464432,1.0080795728777794,0.178909738138984,0.27984355441201136,1536,0,1,1,1076.2880337117115,0.9232904925272049,0.0321447978560116,301.19226892500006
2048,1024,541.637647414404,1744210,129421,43700224,34335968,0.9765110973897199,0.1476720516535052,0.2754846994022427,2048,0,1,1,1093.317594692332,0.8263897883084393,0.026906275134222,301.19226892500006
2048,128,602.5128038423995,1809937,150374,35962880,32745552,0.9957570537716671,0.1120751430188531,0.2704967523763313,2048,0,1,1,1113.4783182385986,0.9264328938893266,0.0085937147254828,301.19226892500006
2048,1536,333.20187591622124,1535729,84814,52219904,40564152,1.0115509829458862,0.1405437475225017,0.4377551039761434,2048,0,1,1,688.0382802833392,0.702404447354944,0.0510451013842692,301.19226892500006
2048,2048,195.4554039796944,1411554,93670,51695616,40417560,1.0335346621906478,0.1337970798071672,0.8173947129861213,2048,0,1,1,368.4783668647415,0.6804329749481739,0.0564325669785521,301.19226892500006
2048,256,348.3725709812764,1651032,103149,35962880,32892280,1.0060526160121759,0.153062558804719,0.44788936954825886,2048,0,1,1,672.4702335060609,0.930260084110152,0.007192143868934,301.19226892500006
2048,512,558.081919068084,1846840,186221,35962880,32877128,0.9993786344838829,0.090615219432378,0.2873799860946406,2048,0,1,1,1048.0627862018573,0.9260730125916136,0.0112639827796076,301.19226892500006
256,1024,570.9979771728838,1731382,116636,43175936,33820280,0.9803171408638741,0.1458211112653128,0.27376683831734594,256,0,1,1,1100.1780594619097,0.8095738692757699,0.0387992091328919,301.19226892500006
256,128,594.2759394415625,1650163,135306,35700736,32562088,0.9996815651974255,0.091231507465027,0.280582752197305,256,0,1,1,1073.4525432026646,0.9269587714056408,0.0111939568535734,301.19226892500006
256,1536,365.7769312671901,1684871,129986,51957760,40522664,1.0042539073332168,0.1444003595505026,0.4713743134249916,256,0,1,1,638.9662320302226,0.7038180189104138,0.0351151666294016,301.19226892500006
256,2048,203.75839822123723,1482935,100928,52744192,37985672,1.0391874118171633,0.2199385054337473,0.8713101281939403,256,0,1,1,345.67745648649145,0.726066058691118,0.041133214597618,301.19226892500006
256,256,535.6646938290288,1759534,160996,35962880,33347096,0.9590081014456379,0.1499554515624961,0.2757350162058729,256,0,1,1,1092.3250629151864,0.9302960795660052,0.0128018158088175,301.19226892500006
256,512,606.7164824429993,1865770,154148,35700736,33418728,0.9942480909924394,0.1231175627886427,0.2847153805463847,256,0,1,1,1057.8714375984723,0.9302150627373664,0.0101759774705594,301.19226892500006
512,1024,553.975429069999,1730141,140692,43175936,33724472,0.9655539830370662,0.1660913146693989,0.27987264260026645,512,0,1,1,1076.1761711564777,0.8042881942405596,0.0379051749447854,301.19226892500006
512,128,974.9329055790143,1861328,180361,36749312,33349648,0.9553548985408402,0.1381774522398685,0.1706417537648047,512,0,1,1,1765.0561030926403,0.9033172054731348,0.0511759392303646,301.19226892500006
512,1536,334.0779232065711,1655233,79848,51957760,34327120,1.0114938573081909,0.2552151701035829,0.4748173690123427,512,0,1,1,634.3328795058688,0.6922151999784559,0.043949704304392,301.19226892500006
512,2048,217.1562948153124,1536339,126493,52482048,41271248,1.024689740975861,0.1247868872690245,0.7516966202057559,512,0,1,1,400.6832820966484,0.6983176160421398,0.0669820249990125,301.19226892500006
512,256,569.9965337590252,1822763,137733,35700736,32617808,0.9478481754477355,0.1593359102171445,0.2892589590147781,512,0,1,1,1041.254763381805,0.926665738499602,0.0113761834467882,301.19226892500006
512,512,583.6320756680674,1887985,151886,36487168,33203176,0.9960432001391665,0.0884991974474459,0.2640398981538561,512,0,1,1,1140.707412140779,0.9335475386698796,0.0120080746368168,301.19226892500006
