cpu,memory,duration_std,userDiff,sysDiff,heapTotal,heapUsed,avg_cpu_util,cpu_util_std,slo_preservation,total_cpu_shares,cpu_shares_others,num_containers,arrival_rate,latency,memory_util,memory_util_std,slo_duration
1024,1024,511.77046545522006,1690041,111969,42913792,34987448,0.9286572252595056,0.2077933350913094,0.42037235778061244,1024,0,1,1,716.4892347231568,0.8167936965355173,0.0396127920600803,301.19226892500006
1024,128,954.4945639507664,1689665,146782,35962880,32966168,0.9429779629972415,0.161218340743039,0.27337309692661005,1024,0,1,1,1101.7626544497111,0.9090168469005444,0.0430468307697588,301.19226892500006
1024,1536,397.2140500686803,1848484,117907,52744192,40742592,1.0009575885296058,0.1490722359638634,0.6383678386855117,1024,0,1,1,471.81617035281243,0.6845330797859787,0.0508501758005278,301.19226892500006
1024,2048,214.3816138857948,1525694,76808,52219904,34615416,1.0406503156434435,0.1171378312747518,1.0,1024,0,1,1,229.0601686572579,0.7174695659691357,0.0445571025598822,301.19226892500006
1024,256,580.6547188219826,1748257,137766,36225024,32697560,0.9426625652855221,0.1555488387760093,0.41840990987618665,1024,0,1,1,719.8497497684199,0.932529167681768,0.011069658699619,301.19226892500006
1024,512,585.5541803284739,1788337,163219,35700736,32857504,0.9971669775100381,0.1003439751644984,0.42609316567302774,1024,0,1,1,706.8695139694561,0.9306510963525084,0.0094679785113723,301.19226892500006
128,1024,602.2409237029284,1712065,126455,43438080,33478048,0.9496218661242825,0.1990132405501584,0.41597408795591645,128,0,1,1,724.0649781938326,0.8154948074495515,0.0321299406099843,301.19226892500006
128,128,981.53037678763,1911483,178615,35962880,32944328,0.9330336440769865,0.0994341276117867,0.2545926750192697,128,0,1,1,1183.0358783975357,0.925345475737824,0.0116869346060807,301.19226892500006
128,1536,367.98849822209394,1670349,124876,51433472,35092544,0.984180725806179,0.1967714660272937,0.6424001335428555,128,0,1,1,468.8546175479695,0.6969631238787419,0.0444985296508902,301.19226892500006
128,2048,191.79780223071256,1442697,70406,51695616,34067128,1.0492585165347377,0.1430593501900767,1.0,128,0,1,1,234.78758209476612,0.7232506547641395,0.0502083955980802,301.19226892500006
128,256,383.0606556736963,1748925,96615,35962880,33103168,0.9917129182848858,0.1713875738079825,0.6680622720684819,128,0,1,1,450.84460164534687,0.9280341942567786,0.0121026987109988,301.19226892500006
128,512,360.8791201009985,1730522,110212,35962880,32618568,1.0347354380715295,0.1303311939923492,0.6646309143564435,128,0,1,1,453.17222298731315,0.928680059150907,0.010052206165302,301.19226892500006
1536,1024,549.7728364983016,1730561,126504,43175936,34405760,0.9337219387646564,0.1477401658202911,0.45481344824845726,1536,0,1,1,662.2325484985738,0.8165039042080592,0.027996916603388,301.19226892500006
1536,128,535.516183365248,1818794,198556,35962880,33173232,1.0111553032373775,0.1476384037288167,0.4452569938534938,1536,0,1,1,676.4459022155272,0.932320829056718,0.0082855850471607,301.19226892500006
1536,1536,377.26944977235286,1623360,134488,51695616,34516240,1.0350478547062603,0.1416390576845494,0.6448870611748775,1536,0,1,1,467.0465373832708,0.6946391804890711,0.0481354038479389,301.19226892500006
1536,2048,200.4460670895313,1437624,104366,52219904,39644672,1.0683978773480756,0.2633440364358113,1.0,1536,0,1,1,243.56289985051717,0.6923851778810466,0.0638535727589736,301.19226892500006
1536,256,380.0937324773006,1821440,91410,36225024,33220424,1.0111533132015913,0.1502782387100125,0.6889846864834716,1536,0,1,1,437.153792869133,0.9244051029905308,0.008690938931505,301.19226892500006
1536,512,533.0799259973422,1772961,80657,35438592,32464432,1.0121685175287631,0.178909738138984,0.42146797221660404,1536,0,1,1,714.6267066058558,0.9232904925272049,0.0321447978560116,301.19226892500006
2048,1024,541.637647414404,1744210,129421,43700224,34335968,0.9651756390954558,0.1476720516535052,0.4084302598055322,2048,0,1,1,737.438673296166,0.8263897883084393,0.026906275134222,301.19226892500006
2048,128,602.5128038423995,1809937,150374,35962880,32745552,0.9936490540186498,0.1120751430188531,0.40488617343326067,2048,0,1,1,743.8936883692993,0.9264328938893266,0.0085937147254828,301.19226892500006
2048,1536,333.20187591622124,1535729,84814,52219904,40564152,1.0174271246285191,0.1405437475225017,0.6604470623410964,2048,0,1,1,456.0430140416696,0.702404447354944,0.0510451013842692,301.19226892500006
2048,2048,195.4554039796944,1411554,93670,51695616,40417560,1.0511598067037464,0.1337970798071672,1.0,2048,0,1,1,241.53331205737072,0.6804329749481739,0.0564325669785521,301.19226892500006
2048,256,348.3725709812764,1651032,103149,35962880,32892280,1.0091064830407976,0.153062558804719,0.6738734027963608,2048,0,1,1,446.95675430303044,0.930260084110152,0.007192143868934,301.19226892500006
2048,512,558.081919068084,1846840,186221,35962880,32877128,0.9990682412072162,0.090615219432378,0.4309360947275041,2048,0,1,1,698.9256008259285,0.9260730125916136,0.0112639827796076,301.19226892500006
256,1024,570.9979771728838,1731382,116636,43175936,33820280,0.970763440833659,0.1458211112653128,0.40664825729289533,256,0,1,1,740.6702562309549,0.8095738692757699,0.0387992091328919,301.19226892500006
256,128,594.2759394415625,1650163,135306,35700736,32562088,0.9995224238345743,0.091231507465027,0.42080712847851803,256,0,1,1,715.7489703513322,0.9269587714056408,0.0111939568535734,301.19226892500006
256,1536,365.7769312671901,1684871,129986,51957760,40522664,1.0063944617236344,0.1444003595505026,0.7085685626398377,256,0,1,1,425.0714536401113,0.7038180189104138,0.0351151666294016,301.19226892500006
256,2048,203.75839822123723,1482935,100928,52744192,37985672,1.059955875518139,0.2199385054337473,1.0,256,0,1,1,225.93623604324574,0.726066058691118,0.041133214597618,301.19226892500006
256,256,535.6646938290288,1759534,160996,35962880,33347096,0.9397470927002746,0.1499554515624961,0.40529560612343896,256,0,1,1,743.1422013325932,0.9302960795660052,0.0128018158088175,301.19226892500006
256,512,606.7164824429993,1865770,154148,35700736,33418728,0.9913968786741827,0.1231175627886427,0.42584835033849355,256,0,1,1,707.2758851492362,0.9302150627373664,0.0101759774705594,301.19226892500006
512,1024,553.975429069999,1730141,140692,43175936,33724472,0.9492058034338673,0.1660913146693989,0.4127010108895392,512,0,1,1,729.8074416532388,0.8042881942405596,0.0379051749447854,301.19226892500006
512,128,974.9329055790143,1861328,180361,36749312,33349648,0.9344945955256996,0.1381774522398685,0.2503736520969233,512,0,1,1,1202.9711049963203,0.9033172054731348,0.0511759392303646,301.19226892500006
512,1536,334.0779232065711,1655233,79848,51957760,34327120,1.0173404402351482,0.2552151701035829,0.7163428246234985,512,0,1,1,420.45827580293445,0.6922151999784559,0.043949704304392,301.19226892500006
512,2048,217.1562948153124,1536339,126493,52482048,41271248,1.0374975134104634,0.1247868872690245,1.0,512,0,1,1,263.8245992483242,0.6983176160421398,0.0669820249990125,301.19226892500006
512,256,569.9965337590252,1822763,137733,35700736,32617808,0.923760283335309,0.1593359102171445,0.4228619279831622,512,0,1,1,712.2709541659025,0.926665738499602,0.0113761834467882,301.19226892500006
512,512,583.6320756680674,1887985,151886,36487168,33203176,0.9940765192227073,0.0884991974474459,0.3952778296002078,512,0,1,1,761.9761250703896,0.9335475386698796,0.0120080746368168,301.19226892500006
