cpu,memory,duration_std,userDiff,sysDiff,heapTotal,heapUsed,avg_cpu_util,cpu_util_std,slo_preservation,total_cpu_shares,cpu_shares_others,num_containers,arrival_rate,latency,memory_util,memory_util_std,slo_duration
1024,1024,8.795298425514114,11806,44,34193408,27882880,0.9715960335419446,0.2651234049967844,0.9574123703884043,1024,0,1,1,15.7209523195255,0.6626970708723993,0.0770840640913917,15.051434224999992
1024,128,15.449629557026585,10036,396,28024832,24654856,0.643959364104208,0.2492137646423913,0.5382594893300966,1024,0,1,1,27.96315629053304,0.880581756168111,0.0082484058931801,15.051434224999992
1024,1536,7.522180149140951,5916,7230,42713088,27842552,1.0484358712593889,0.1563861780528006,1.0,1024,0,1,1,12.652931552748557,0.5230800535856972,0.059908334463048,15.051434224999992
1024,2048,10.54322344364931,39101,6935,42975232,27825512,1.0744610560930539,0.3822897965258336,1.0,1024,0,1,1,12.865892082407058,0.5369359045799376,0.0641131406480619,15.051434224999992
1024,256,7.861703938450967,19195,8560,28811264,24147296,0.9068865431231791,0.2265898349557053,0.9754607346380995,1024,0,1,1,15.43007697853071,0.8770456504281767,0.0143855977016876,15.051434224999992
1024,512,6.760854677918044,6736,2937,28549120,24255032,0.7608992001186239,0.2523184035749278,0.7273319558384379,1024,0,1,1,20.694036751966063,0.8846258146701406,0.0124182580204834,15.051434224999992
128,1024,9.271173115619897,14870,11713,26054656,14687648,0.9361467837079047,0.2068301035870212,0.7199515959469993,128,0,1,1,20.906175234186207,0.6494171784043189,0.064727856121144,15.051434224999992
128,128,16.67852261036698,9582,4331,28549120,24738144,0.6460513896354733,0.202349914051145,0.38215788153208136,128,0,1,1,39.38538220030523,0.8740936146447782,0.0163821261942796,15.051434224999992
128,1536,8.864592733218629,13304,180,42450944,27777216,0.9879295562308111,0.1963692887439379,0.9476144876988256,128,0,1,1,15.883499482527641,0.5292817591493457,0.0564618110673528,15.051434224999992
128,2048,5.038116861665163,11842,842,34836480,15466920,1.0186945012413409,0.1961062894168723,1.0,128,0,1,1,10.117474407574326,0.5355906171898911,0.0614242625483808,15.051434224999992
128,256,8.293730001055904,7966,4039,28549120,24236008,1.0432487646607707,0.1444356842638653,1.0,128,0,1,1,12.645717592827753,0.8777906779755934,0.0131692821297913,15.051434224999992
128,512,7.477089845671282,11176,39,28811264,24254008,0.8494864025715988,0.1499822786075691,0.8179373627117363,128,0,1,1,18.401695424573155,0.8731923999283401,0.0133212563734968,15.051434224999992
1536,1024,8.680280072515735,16658,12374,25792512,14632400,0.9459071835338858,0.3251312763774966,0.8473351185320847,1536,0,1,1,17.76326024474821,0.6877712075294004,0.0906181716662826,15.051434224999992
1536,128,11.820125810425118,20741,2005,28286976,24734176,0.6915479634678469,0.2441812123308878,0.6609864591701731,1536,0,1,1,22.771168782937128,0.8820082675761448,0.0100925669377614,15.051434224999992
1536,1536,9.442806428012162,23568,7168,34836480,14821032,1.0803068857451137,0.2803151641077047,0.9995513359604472,1536,0,1,1,15.058190293485422,0.5223480900731867,0.0552784019486284,15.051434224999992
1536,2048,6.4214187953354775,9351,24,42713088,27845064,1.0422020023032046,0.1758840427402941,1.0,1536,0,1,1,12.103029697433369,0.5346783272098252,0.0658621614104148,15.051434224999992
1536,256,6.653362209789142,10945,25,27762688,24310792,0.9190208448367458,0.2150270976405374,1.0,1536,0,1,1,12.656939388276962,0.8873814517678644,0.0097201316862764,15.051434224999992
1536,512,5.823442079317527,3526,7111,28549120,24470664,0.8150030545848024,0.2380769302415276,1.0,1536,0,1,1,15.028767947279874,0.8780582520136393,0.0139627412255501,15.051434224999992
2048,1024,13.327222867101764,8338,3219,33931264,28140296,0.9091356767505226,0.1805304253054879,0.6977644067280159,2048,0,1,1,21.570940105099034,0.6973650850109999,0.0863565969709667,15.051434224999992
2048,128,13.902498944558792,12158,92,28811264,24307032,0.8014013238296869,0.2087216452865932,0.7633545278444488,2048,0,1,1,19.717488632054163,0.8796089626028969,0.0139962182336893,15.051434224999992
2048,1536,6.79276197776079,6210,6911,42713088,27855640,0.9735799626791874,0.2597746942408585,1.0,2048,0,1,1,13.609934325437624,0.5210971126146234,0.0543850108323945,15.051434224999992
2048,2048,4.473003353546677,16614,30,42450944,27826944,1.1066560762685727,0.2304775449933981,1.0,2048,0,1,1,10.053760162127563,0.5443085238028261,0.0697789407519669,15.051434224999992
2048,256,7.850838188819436,8773,4205,28811264,24391424,0.9756153856503118,0.2133932580911605,1.0,2048,0,1,1,13.161340099469868,0.8792905070656671,0.0136071906413145,15.051434224999992
2048,512,11.279353186978788,18840,4584,28811264,26946344,0.8778425247139726,0.3154681556137442,0.7069379573157102,2048,0,1,1,21.29102571058891,0.8806485461963012,0.0181733128076562,15.051434224999992
256,1024,15.603441032242078,9854,373,26054656,14729176,0.8058029392061181,0.2123973958099282,0.5913344321671384,256,0,1,1,25.453336396866135,0.6649950910661888,0.0792975963123141,15.051434224999992
256,128,11.03585333254208,11868,29,28549120,24739808,0.7453297839600708,0.2074707598631882,0.5692893830134859,256,0,1,1,26.43898634702527,0.8778044325430704,0.0128594586742109,15.051434224999992
256,1536,9.51093091948104,22035,9309,34574336,14875784,0.9282778347545336,0.2045314135371931,0.8345894818524698,256,0,1,1,18.034536202866537,0.5182016193928182,0.0560845516611235,15.051434224999992
256,2048,2.9780724898136626,8381,74,42713088,27833064,1.1332961283371612,0.3473401785368615,1.0,256,0,1,1,9.498947176378078,0.5312809919866541,0.067897225526408,15.051434224999992
256,256,10.143918430302993,6090,3623,28549120,24236008,0.7949549580611129,0.2028606866350858,0.7389989811198577,256,0,1,1,20.367327438248267,0.8720076067948328,0.0136201644953876,15.051434224999992
256,512,10.146239894113128,5979,3591,28286976,24237768,0.8830322603910048,0.1604267704034092,0.6664442895387296,256,0,1,1,22.58468481351628,0.8813593967176854,0.0119204998913833,15.051434224999992
512,1024,26.372549958241407,9363,189,26054656,14744216,0.8060183137694481,0.237117883856925,0.5200196723243883,512,0,1,1,28.943970826570784,0.6640880956853606,0.0805509069078583,15.051434224999992
512,128,16.692232487739993,8731,4097,28286976,24682336,0.7560541163485214,0.2670137681099295,0.5097410078894714,512,0,1,1,29.527611065311106,0.8790309526160754,0.0133345659544709,15.051434224999992
512,1536,9.31707745125452,18067,35,42713088,27831000,0.9660473227972183,0.2144970531284013,0.93032628523691,512,0,1,1,16.17866168445096,0.533760046483441,0.0675247385765171,15.051434224999992
512,2048,4.092577267394691,4739,4146,42450944,27822736,1.1078595974809131,0.2496901101584194,1.0,512,0,1,1,9.117492494089548,0.5318812787055133,0.0666341588371187,15.051434224999992
512,256,9.722763993242436,23676,4708,28811264,24225184,0.9485755988043267,0.2158425785811463,0.8168725635080385,512,0,1,1,18.425682165602417,0.8788701378278123,0.016007451261014,15.051434224999992
512,512,5.094174695351564,12460,100,28549120,24404696,0.9656080319923867,0.2238406163204785,0.978762015833402,512,0,1,1,15.378032638694002,0.877291731849606,0.0162886413176405,15.051434224999992
