cpu,memory,duration_std,userDiff,sysDiff,heapTotal,heapUsed,avg_cpu_util,cpu_util_std,slo_preservation,total_cpu_shares,cpu_shares_others,num_containers,arrival_rate,latency,memory_util,memory_util_std,slo_duration
1024,1024,840.262578140996,2202741,166766,55242752,47477168,0.886201259526877,0.0971721097025718,1.0,1024,0,1,1,1078.8108108238905,0.7919382249220277,0.1126094936169982,2631.913065857142
1024,128,0.0,2283817,234006,49340416,46757920,0.7304088695217976,0.0,0.6362548939806213,1024,0,1,1,4136.57025,0.947659622488793,0.0,2631.913065857142
1024,1536,372.1495088043465,1965164,130110,64024576,49786032,1.355391772934332,0.2138676843139189,1.0,1024,0,1,1,437.83015134620695,0.8157716553889476,0.0607983775105838,2631.913065857142
1024,2048,221.09756629832776,1744500,167281,64024576,50680624,1.5820659713155258,0.3488310075248442,1.0,1024,0,1,1,271.32581473991274,0.7464314898276302,0.1233508480804183,2631.913065857142
1024,256,3627.6310747239545,2401395,216701,52486144,47091744,0.48814579617109466,0.3035143527494385,0.3705599072041313,1024,0,1,1,7102.530561697527,0.9103525183496124,0.0419315541973266,2631.913065857142
1024,512,1510.5052139950726,2447283,223570,53534720,46982712,0.6501763705873842,0.1709641090801646,1.0,1024,0,1,1,2390.620047319992,0.903102420187762,0.0790055171543147,2631.913065857142
128,1024,882.7204535221109,2377381,180965,68349952,47738528,0.8802014175257897,0.1230556215759886,1.0,128,0,1,1,1105.8684620487256,0.7675627826912417,0.1161490354768729,2631.913065857142
128,128,1711.9981855801532,2408171,187432,50126848,46842632,0.23224877529695614,0.0307752522582002,0.1846382821452976,128,0,1,1,14254.427821127625,0.9342215528974928,0.0151805010494557,2631.913065857142
128,1536,585.8032345231683,1910567,205462,62189568,48836552,1.1207732107239703,0.1371205650038446,1.0,128,0,1,1,663.5628212273363,0.7955729680026689,0.0880366361318806,2631.913065857142
128,2048,371.0400563116493,1791983,154689,63500288,49228776,1.2268887358243585,0.177174273449528,1.0,128,0,1,1,453.1004348740061,0.763506862455037,0.1085823304849324,2631.913065857142
128,256,4659.130447095302,505390,42863,55369728,46787424,0.2751712265243528,0.082074845837021,0.22557666320651454,128,0,1,1,11667.488242999836,0.9256425076207242,0.040839332315322,2631.913065857142
128,512,2030.1033945858817,2144167,212732,50126848,47418768,0.531267359934142,0.0756833042658381,0.8270820443581121,128,0,1,1,3182.1668525034133,0.9433994866171146,0.0154976115013891,2631.913065857142
1536,1024,806.3450469456267,2123541,105206,57077760,48633688,0.82035965392194,0.0879422085830323,1.0,1536,0,1,1,1081.8953510243487,0.8435111001948872,0.0912143045398771,2631.913065857142
1536,128,1159.7407323667633,2440615,245475,66125824,63085320,0.5065574964717546,0.110564842674502,0.3999847200309923,1536,0,1,1,6580.034021432648,0.9286745056665804,0.0310087443105231,2631.913065857142
1536,1536,376.3030379504706,1953757,156939,65859584,51286856,1.3152061464324243,0.2083661926610893,1.0,1536,0,1,1,416.55301750661147,0.7813706260053117,0.1013760244696861,2631.913065857142
1536,2048,211.09661699100317,1671448,174389,62976000,49750856,1.6171136865659657,0.2718413778028158,1.0,1536,0,1,1,253.08995008608397,0.7608351566460013,0.1107513349443264,2631.913065857142
1536,256,3300.8063316101184,2277571,210793,50388992,47166648,0.4083526557256281,0.1517243947985305,0.3837676710849319,1536,0,1,1,6858.089579084611,0.9310783501503554,0.029790148246211,2631.913065857142
1536,512,1394.6613313097637,2208475,183899,53010432,47145248,0.683363040708709,0.1752235573977136,1.0,1536,0,1,1,2318.235056633245,0.9086278552078034,0.0527311661652493,2631.913065857142
2048,1024,874.4670826418441,2126239,195495,68612096,47060968,0.9007391255381801,0.1154226200460393,1.0,2048,0,1,1,1043.6734178385575,0.8222215369049657,0.1068465770533162,2631.913065857142
2048,128,2325.9178430984093,2459607,184467,55369728,47101968,0.43644632322479693,0.2059969823440685,0.3055882959791085,2048,0,1,1,8612.610824719126,0.9213175005117584,0.0278188058087438,2631.913065857142
2048,1536,574.1234124007359,1963657,149700,62976000,49534304,1.0757476509572361,0.1385796600100263,1.0,2048,0,1,1,674.3556905132041,0.8304795822542994,0.0624909381169209,2631.913065857142
2048,2048,381.22957749004985,1997672,125116,67170304,51584648,1.3444099410079184,0.2833397391244678,1.0,2048,0,1,1,417.83808274587363,0.8049340747223086,0.0893230473599717,2631.913065857142
2048,256,2620.408839264453,2301702,211007,50126848,47336080,0.4004126327646434,0.0853941841070747,0.3339754790931681,2048,0,1,1,7880.55779724752,0.9335457854902092,0.0212969712682163,2631.913065857142
2048,512,1778.893204341775,2303918,216307,51961856,46729704,0.5433129699777357,0.0548507671393857,0.9181423625548859,2048,0,1,1,2866.563153162218,0.8970042531370682,0.0586226305138634,2631.913065857142
256,1024,872.0807552151198,2145305,164902,70717440,64456488,0.9177070547891122,0.1170632334750821,1.0,256,0,1,1,1057.2257698451092,0.8460812408472779,0.1012126858317454,2631.913065857142
256,128,1415.1064442759216,2208852,321503,50388992,47073496,0.5210941537456903,0.1077254389185302,0.40842090208997983,256,0,1,1,6444.1194179559925,0.9371032798835092,0.0057493917448461,2631.913065857142
256,1536,590.4903987220948,2149141,172159,63762432,51615168,1.0202704263554343,0.1990029664061079,1.0,256,0,1,1,724.6732626404208,0.8182334243450912,0.055007446338099,2631.913065857142
256,2048,394.3927372725041,2095089,163549,83431424,65487384,1.327062214709802,0.3483846505846683,1.0,256,0,1,1,481.5028390026529,0.7635921283271587,0.0813941508984041,2631.913065857142
256,256,4902.745030386095,2414504,199552,49602560,46964744,0.3786507617219736,0.2965864246656804,0.2503732433649133,256,0,1,1,10511.95818884364,0.9354810723860196,0.0265609680967026,2631.913065857142
256,512,2050.819160273269,2333395,189850,50388992,46660440,0.5212517834374587,0.06891013838428,0.8415614442817908,256,0,1,1,3127.4164040431788,0.9209330838009716,0.0434811053511071,2631.913065857142
512,1024,850.40276991702,2149031,173335,56553472,48369792,0.9267733356173434,0.1393588609357386,1.0,512,0,1,1,1029.1035936663218,0.8469919721820511,0.0660399490089064,2631.913065857142
512,128,2022.0462267290875,2689429,199935,50126848,46971328,0.48219911746725524,0.1347822392032555,0.34433254355317106,512,0,1,1,7643.521111012058,0.9210046740281288,0.0151119590297162,2631.913065857142
512,1536,596.3171987574024,2202669,177134,63238144,50010264,1.1472010208006376,0.1211361195252084,1.0,512,0,1,1,669.7408414877757,0.7768159304482656,0.0938861685345167,2631.913065857142
512,2048,581.9258674109145,2034928,173434,62451712,49757720,1.3137183933601555,0.2751145659426987,1.0,512,0,1,1,522.3245316141151,0.7994739202463819,0.0932640163853836,2631.913065857142
512,256,4652.931717864461,2360898,243488,50126848,46810080,0.6240103857768415,0.6360287608258499,0.2727671121006048,512,0,1,1,9648.938413390588,0.9299215828296076,0.0541840171322733,2631.913065857142
512,512,1383.745810461617,2398963,204360,49864704,46893960,0.6414015640990146,0.1748649500460967,1.0,512,0,1,1,2433.063004432398,0.9040412458146484,0.0671959208512487,2631.913065857142
