cpu,memory,duration_std,userDiff,sysDiff,heapTotal,heapUsed,avg_cpu_util,cpu_util_std,slo_preservation,total_cpu_shares,cpu_shares_others,num_containers,arrival_rate,latency,memory_util,memory_util_std,slo_duration
1024,1024,16.34577315933146,57567,448,33976320,27351376,0.9033792434784941,0.2241196936454673,0.5480873411249285,1024,0,1,1,28.231881500688964,0.6498331362535849,0.0525914865856356,15.47353686666667
1024,128,23.3172657116566,29876,7667,18841600,14731424,0.8715110899338264,0.241525478839227,0.44029374059317683,1024,0,1,1,35.14366760204281,0.8393810385739083,0.0367072742538162,15.47353686666667
1024,1536,12.086042490371833,19614,3920,42233856,27316592,1.0163148615555513,0.1508827406473828,0.7177142243850795,1024,0,1,1,21.559468017962203,0.5314881182160378,0.0679791826837555,15.47353686666667
1024,2048,4.913973117284597,11580,3855,42496000,27387304,1.0840340909566972,0.2635010395825026,1.0,1024,0,1,1,14.345652274013812,0.5137681389302802,0.0503461420918363,15.47353686666667
1024,256,8.585831291003728,22282,10687,19103744,14493832,0.9753170030274987,0.2111723981158229,0.8723677726217293,1024,0,1,1,17.737400844329688,0.8200783589627066,0.0230010340362597,15.47353686666667
1024,512,8.72001318770834,21092,166,18841600,14809408,0.9500723363630561,0.16595299870191,0.8268154463100555,1024,0,1,1,18.71461997441216,0.8113455168137443,0.0188561996782141,15.47353686666667
128,1024,20.05830954806072,22549,35,34238464,27353136,0.8540421623799893,0.2148661198670105,0.4589398082297042,128,0,1,1,33.71583068017931,0.6439691187812945,0.052801484745133,15.47353686666667
128,128,13.878277450632512,29997,7482,19103744,14770104,0.917725049823548,0.1937844680073027,0.5311189895972035,128,0,1,1,29.133842264615094,0.8236684618523562,0.0329389023485397,15.47353686666667
128,1536,12.625193411492855,24185,119,42758144,27321680,0.964964433314269,0.1897769618135903,0.6411106326090771,128,0,1,1,24.135517459280383,0.5239426012879009,0.0601850733536909,15.47353686666667
128,2048,9.158938691466211,17638,223,42758144,27513544,1.0762373262340614,0.2253691728905743,0.9367307787558056,128,0,1,1,16.518659595256487,0.5189518699710478,0.0543089637624953,15.47353686666667
128,256,13.391147997892418,33330,1817,19103744,14484648,0.9589980721698105,0.1577382906121966,0.6932805016477466,128,0,1,1,22.3193019706888,0.8143096153621544,0.0215974474415689,15.47353686666667
128,512,9.060878614378453,28282,7381,19103744,14688360,1.0016959018465472,0.1847102588051212,0.7424904160283129,128,0,1,1,20.840049289035708,0.821943495229779,0.0230928861567399,15.47353686666667
1536,1024,10.46608540522156,53527,8305,25792512,14351472,0.9978982267625979,0.2227333286870988,0.8261074910195246,1536,0,1,1,18.73065797717232,0.652571928400454,0.0558532315146246,15.47353686666667
1536,128,9.330730138886066,27951,12151,19365888,14486504,0.8583143341691544,0.1824161215838839,0.6453473088319176,1536,0,1,1,23.977068866489677,0.8257647194837047,0.0392938573256566,15.47353686666667
1536,1536,9.413742982047628,16585,145,42496000,27329120,0.9795277450652741,0.1551256223389167,0.7610539647037038,1536,0,1,1,20.331720987342706,0.5265541867454094,0.0557571110695532,15.47353686666667
1536,2048,4.899495392461785,20580,723,42758144,27346800,1.04730495488389,0.2449518359987954,1.0,1536,0,1,1,14.800941228527295,0.5288143189850918,0.0570942395617112,15.47353686666667
1536,256,15.033973818500089,21781,3349,28069888,24470616,0.795669864399774,0.2925590160308882,0.5978116908852076,1536,0,1,1,25.883630418391924,0.8833657198442134,0.0308741376206343,15.47353686666667
1536,512,11.69330782142181,30536,3728,19365888,14498968,0.8999782427157386,0.2159564647124946,0.7047675323930604,1536,0,1,1,21.95551888454025,0.8312134651308385,0.0351170896496532,15.47353686666667
2048,1024,21.364167377002914,72204,8769,25792512,14353352,0.8755477750485788,0.2728230723389422,0.49926142006169194,2048,0,1,1,30.99285513540113,0.644898098936435,0.0581024502761831,15.47353686666667
2048,128,11.875567998985954,30882,7851,19365888,14397592,0.8775167103633607,0.1924186472227467,0.562942882810863,2048,0,1,1,27.48686827588058,0.8502234749055786,0.0429694954962169,15.47353686666667
2048,1536,16.550017833629006,17667,368,42758144,27470024,0.9292663075688755,0.1435743596076548,0.6990833203408581,2048,0,1,1,22.134038127418208,0.5262357150606355,0.0557322553605795,15.47353686666667
2048,2048,6.419416361004032,19221,29,42758144,27288936,1.1020290870261888,0.2433329445379179,1.0,2048,0,1,1,13.63416724308728,0.5252333566410337,0.0616883900150019,15.47353686666667
2048,256,7.575652415905703,25881,7659,18841600,14665592,0.9873050244207913,0.1707723836415257,0.8341234123082086,2048,0,1,1,18.550656459633334,0.8125118936118947,0.0203797523119618,15.47353686666667
2048,512,8.789901710452583,19228,11201,28856320,23996360,1.0418548875570617,0.1752223180534276,0.8810437895663124,2048,0,1,1,17.562733033148568,0.8495633491441197,0.03441587865494,15.47353686666667
256,1024,20.831272337760343,17223,210,34238464,27321392,0.8044098696011905,0.2421068376426665,0.3957637044266943,256,0,1,1,39.097918009135604,0.6632706446255022,0.0673008805408187,15.47353686666667
256,128,12.605531164577378,34773,2891,28332032,24457464,0.9111019953317548,0.1674454969177931,0.5685460237528559,256,0,1,1,27.215979393416596,0.8784558274759939,0.0117809895498247,15.47353686666667
256,1536,15.874433669190244,20476,43,43020288,27404720,0.9438799555833846,0.1342194845427357,0.6284488674841775,256,0,1,1,24.621791313923005,0.5209101444752102,0.0556184116915975,15.47353686666667
256,2048,4.659994532832276,16920,201,42758144,27347016,1.0808142178561497,0.0997109079729227,1.0,256,0,1,1,12.339106573385928,0.5353936711642762,0.0579694925389986,15.47353686666667
256,256,6.198537547111388,26187,4470,28594176,24181344,0.9770111165739082,0.1952994698449831,0.8354322982933284,256,0,1,1,18.521592830773894,0.8420232766622238,0.0380253516524789,15.47353686666667
256,512,7.587644028441983,13242,4305,19103744,14763600,0.994807854314462,0.099692633337714,0.8300060163334108,256,0,1,1,18.642680368778194,0.8095366818589789,0.0160413565177792,15.47353686666667
512,1024,12.15824783589608,22341,8522,34238464,27310800,0.9645981870581691,0.2102906316366793,0.6455567751571977,512,0,1,1,23.969288933415275,0.665716760916084,0.0605203865108522,15.47353686666667
512,128,15.285059588479678,34213,5226,19103744,14478280,0.8789718082263018,0.1713550636237772,0.4973067103559936,512,0,1,1,31.11467539939295,0.8364975061850328,0.0376453906844449,15.47353686666667
512,1536,14.190414644692506,19968,7178,42758144,27383736,0.9302342680454508,0.1921516554324546,0.6178304420244686,512,0,1,1,25.04495702083559,0.5307617240306344,0.0548250230047754,15.47353686666667
512,2048,5.309491729078597,13155,4205,42496000,27344192,1.0761544157433354,0.1238349030882957,1.0,512,0,1,1,13.973808381501277,0.5155503280612657,0.053596704949819,15.47353686666667
512,256,12.000344363580682,30327,3628,28332032,24122872,0.852197461344817,0.1636966271221915,0.5234283442989415,512,0,1,1,29.561900946329708,0.8491861219288325,0.0389972822342156,15.47353686666667
512,512,15.381397033845737,36471,4021,19365888,14767736,0.875169635081296,0.1995305185105159,0.48221559786336865,512,0,1,1,32.08842048085503,0.8015147684192533,0.0218001491322658,15.47353686666667
