cpu,memory,duration_std,userDiff,sysDiff,heapTotal,heapUsed,avg_cpu_util,cpu_util_std,slo_preservation,total_cpu_shares,cpu_shares_others,num_containers,arrival_rate,latency,memory_util,memory_util_std,slo_duration
1024,1024,102.87610606352882,248691,35485,38383616,30387552,0.9147141837774121,0.1153710425945144,0.5514712235147513,1024,0,1,1,677.0769835712046,0.8037120864575303,0.0671251068567305,373.3884725436894
1024,128,739.1784896602147,314940,43591,32481280,30005760,0.47363679067001957,0.0951591866880797,0.1447373115586426,1024,0,1,1,2579.766533748315,0.9120319315570656,0.0078950430141094,373.3884725436894
1024,1536,63.42822459377556,197553,44258,72454144,55023368,0.9778713228264726,0.1669800373110142,0.785408676222145,1024,0,1,1,475.4066053098707,0.7297296252656769,0.0702636063250374,373.3884725436894
1024,2048,46.316294265377024,238470,28257,48214016,30589816,1.0921326169337513,0.2208435869526329,0.9472788445856632,1024,0,1,1,394.1695464623284,0.7065766681494821,0.1017375224046237,373.3884725436894
1024,256,258.7425478552649,248056,40909,32481280,29765632,0.8096679349891018,0.2218445187200111,0.31371008974400555,1024,0,1,1,1190.2341835686022,0.9099025087524076,0.0270777501498185,373.3884725436894
1024,512,145.64704438668315,295706,14467,32743424,29694512,0.8068917777830369,0.2469159172309842,0.38618667447620936,1024,0,1,1,966.8600633362652,0.8808929809720198,0.0542546768421071,373.3884725436894
128,1024,109.6238506211486,265759,36119,38383616,30990744,0.9091332429094664,0.1146856722721018,0.6251593552158222,128,0,1,1,597.2692713120887,0.7913475893073547,0.0777230164137025,373.3884725436894
128,128,535.071260886319,217321,47638,33529856,29562728,0.3727671296176346,0.0324641948538988,0.1506311097570148,128,0,1,1,2478.8270706231115,0.9039245188334372,0.013553430077468,373.3884725436894
128,1536,67.71782883844585,224312,35702,71929856,54946680,0.9924206157469896,0.184602149019591,0.7993739211338198,128,0,1,1,467.10114337240435,0.7356560393531378,0.0623728440252263,373.3884725436894
128,2048,61.689389256714506,239383,34434,49524736,31103776,1.0657792211426542,0.1994827441291916,0.9268935608301613,128,0,1,1,402.83856563775066,0.7166772910878165,0.0822729298577073,373.3884725436894
128,256,252.29901096314592,252396,22384,32481280,29774856,0.5682696333540351,0.0765962927620959,0.2384312537394187,128,0,1,1,1566.0215122291195,0.9038167322451612,0.0554560245502008,373.3884725436894
128,512,160.55466510084594,253498,32141,31956992,29677912,0.7092225403789,0.0971370162904358,0.33401948737809195,128,0,1,1,1117.8643362236942,0.8974350975371108,0.0587016393312214,373.3884725436894
1536,1024,95.352718843005,218008,31464,37859328,30067536,0.9425889715277701,0.1168712395543266,0.6147117773431436,1536,0,1,1,607.4203981539415,0.7835121555393607,0.0704309392357715,373.3884725436894
1536,128,386.244341685687,336505,51304,33005568,29717496,0.6294269974086222,0.207876352614856,0.18842948346581767,1536,0,1,1,1981.5819991430612,0.911591558923964,0.0146470182326827,373.3884725436894
1536,1536,55.16172713294448,246138,37472,72716288,55128256,1.0848336293285332,0.2279505801668769,0.890594212196048,1536,0,1,1,419.2576904614947,0.6998738602687145,0.1189255453286832,373.3884725436894
1536,2048,27.612388621636168,260279,37669,50835456,31150160,1.1404181800924924,0.2495787302886682,1.0,1536,0,1,1,304.48275125022263,0.6466679176792671,0.131952091605266,373.3884725436894
1536,256,365.8395399490497,243220,41063,32743424,29622536,0.7010202757549506,0.3370089087170608,0.2359528750224321,1536,0,1,1,1582.4705357296082,0.9003857187578994,0.0646791903473546,373.3884725436894
1536,512,146.94326339307187,287609,50833,32481280,30065984,0.8431609188034329,0.2741922612674708,0.4022597678260463,1536,0,1,1,928.2272362498801,0.9071020615177414,0.0409130477867087,373.3884725436894
2048,1024,92.19936437438946,264625,30655,39170048,30100616,0.9406525410460068,0.1789076318900146,0.6245687465290926,2048,0,1,1,597.834064894723,0.7923006733553042,0.0807064238094876,373.3884725436894
2048,128,446.1813857201696,267340,38841,33267712,29611720,0.850463717146329,0.3208772264645176,0.24089786227905804,2048,0,1,1,1549.986658292356,0.9058038503134114,0.0094827502795313,373.3884725436894
2048,1536,40.94776026357133,231011,32123,73240576,55011992,1.081190723386418,0.2465264883709345,0.95972917065363,2048,0,1,1,389.0560836963939,0.6717976888208568,0.1302826149681951,373.3884725436894
2048,2048,36.38069871023048,240089,34894,50573312,29969232,1.1258720562078899,0.2786817851978933,1.0,2048,0,1,1,303.47990282193507,0.6908085347916357,0.1346878655573242,373.3884725436894
2048,256,249.886305335967,226180,60044,32743424,29894520,0.9065412525922386,0.3585286126636924,0.32641517701947165,2048,0,1,1,1143.9065914555058,0.9085837351991126,0.01123101897471,373.3884725436894
2048,512,148.99231716694757,242872,30064,32219136,29879368,0.8115041666848761,0.2798447345443914,0.3825797216373879,2048,0,1,1,975.9755978326261,0.9126414762552114,0.025856508073605,373.3884725436894
256,1024,95.53688070798977,249967,37627,39170048,30069728,0.9237202174087468,0.1495302611617638,0.6061661787960202,256,0,1,1,615.9836784119518,0.7775393347596489,0.0816006448139076,373.3884725436894
256,128,1082.7518097125562,242668,38856,33267712,29570600,0.42927316096538437,0.2237406790319351,0.10250342618361521,256,0,1,1,3642.692604975326,0.9112037955777592,0.0119750485434494,373.3884725436894
256,1536,63.45104416603923,167767,32482,66424832,55517712,0.9976412332753505,0.2163490225300537,0.8102499748048114,256,0,1,1,460.8312053741666,0.7312393623931743,0.0881549547043525,373.3884725436894
256,2048,43.25797490004853,261699,35098,50311168,29958536,1.032114671115991,0.1894354968994193,0.9205168543966421,256,0,1,1,405.62915362199305,0.7117858282612252,0.0763809667230358,373.3884725436894
256,256,483.5260797656175,288573,41257,32743424,29672056,0.548556424236943,0.1012662799364432,0.2169187597082959,256,0,1,1,1721.3286349498217,0.9070582801663206,0.024988834282371,373.3884725436894
256,512,186.07275850638587,270342,36935,32481280,29939528,0.6639470846244699,0.0877869718084679,0.32701043089153486,256,0,1,1,1141.824349534396,0.9145410996933814,0.0332916508747994,373.3884725436894
512,1024,104.02687110458125,284826,38529,39432192,29852112,0.9015738122198966,0.1339431255654456,0.630968531613644,512,0,1,1,591.7703559459339,0.7948329295446699,0.0914114414979838,373.3884725436894
512,128,1796.7258923938966,257935,52866,32743424,29636272,0.35440985193555924,0.1580083057002489,0.08367715194286662,512,0,1,1,4462.251210445509,0.91458570128964,0.0091946136100738,373.3884725436894
512,1536,70.8456411346837,172053,45553,72454144,55004608,1.020604899522486,0.1660761580507215,0.8002937217918022,512,0,1,1,466.5642905553456,0.7230934002175251,0.0554303505426725,373.3884725436894
512,2048,42.8039931833774,254079,28399,50049024,29962960,1.0670371196676116,0.3011571531639132,0.9508455192346802,512,0,1,1,392.690994478497,0.6883445348809665,0.1244661658100759,373.3884725436894
512,256,366.70865987088416,266965,33607,32743424,29634792,0.6808113611973677,0.237320522714799,0.24044596805639126,512,0,1,1,1552.8997036711357,0.9024045109149292,0.0329551742853722,373.3884725436894
512,512,216.5276743336944,272001,37423,32481280,29672112,0.9013680016514263,0.3207371153919833,0.38150434901177394,512,0,1,1,978.7266475752965,0.8867362059083369,0.0611689462543158,373.3884725436894
