cpu,memory,duration_std,userDiff,sysDiff,heapTotal,heapUsed,avg_cpu_util,cpu_util_std,slo_preservation,total_cpu_shares,cpu_shares_others,num_containers,arrival_rate,latency,memory_util,memory_util_std,slo_duration
1024,1024,6.946680333376633,1182,251,25792512,15444904,1.0906863295016387,0.8844791937328594,0.6023904643100316,1024,0,1,1,18.263318363880373,0.6647046316878832,0.0929914467847644,11.001648829059825
1024,128,35.7592344692079,7413,26,24444928,21066136,0.8249724064904262,0.4222940148567458,0.15618387949251128,1024,0,1,1,70.44036084138462,0.8504819227894628,0.0118658242793366,11.001648829059825
1024,1536,4.770221909248058,18047,7849,34312192,14804592,1.1198469973653564,0.2220586585354728,1.0,1024,0,1,1,9.076858793921692,0.5613607879987064,0.0734965901836349,11.001648829059825
1024,2048,3.133951474764717,5323,287,39133184,24523480,1.1197450955991655,0.3969206501777778,1.0,1024,0,1,1,7.281040409886492,0.602467204722431,0.1011889514428071,11.001648829059825
1024,256,25.555094682080096,11471,463,24182784,20693976,0.882887280288505,0.535397918578622,0.20505511321752706,1024,0,1,1,53.65215554214944,0.8590464606793139,0.0154155694925097,11.001648829059825
1024,512,9.716360942987672,8013,43,24707072,21080400,1.039632502697708,0.4642433254809381,0.5435176562601345,1024,0,1,1,20.241566584534826,0.8627860247246902,0.0233859559731801,11.001648829059825
128,1024,19.17215016231793,6582,28,25792512,14695016,1.0024893833536974,0.5587605592907128,0.3232257395882059,128,0,1,1,34.03704433649399,0.6361446986036446,0.0631041758390949,11.001648829059825
128,128,45.048960527787294,3796,3968,24707072,21082352,0.6555609544712331,0.3538004333333193,0.12772351783119745,128,0,1,1,86.13643764181217,0.8508937783258479,0.0093191925909947,11.001648829059825
128,1536,8.84813998911785,978,189,39133184,25552312,1.0806014136764666,0.3084988782970011,0.7371220697880231,128,0,1,1,14.925138291170157,0.5886187565901941,0.1146516357821144,11.001648829059825
128,2048,1.69738714067778,7406,29,39395328,24225840,1.1140617783226323,0.2453091477071499,1.0,128,0,1,1,5.22442333189162,0.6008854758064718,0.0943331111665488,11.001648829059825
128,256,23.06518591169631,3425,3854,24182784,20672496,0.703822167215438,0.3854780306514134,0.1891944117179448,128,0,1,1,58.149967164259195,0.8571309246696049,0.0145680567519947,11.001648829059825
128,512,4.995441174477354,7420,677,24969216,20710520,1.02890990994751,0.4904563757306057,0.6869254455976824,128,0,1,1,16.0157829347659,0.857960288950711,0.0210873577436371,11.001648829059825
1536,1024,12.620023493818474,1390,3,26316800,15341968,1.0536639277763131,0.4855033803571088,0.4739125850009113,1536,0,1,1,23.21451081329412,0.6535553555905989,0.0807061371647175,11.001648829059825
1536,128,13.349344222827396,366,7767,25231360,20617920,0.7067622715882245,0.3033460077944261,0.22566386468894903,1536,0,1,1,48.752372668190795,0.8570539934699586,0.0200268713911748,11.001648829059825
1536,1536,3.577510201566607,1447,4416,38346752,25286216,1.1149487485362626,0.2356690921262101,1.0,1536,0,1,1,7.262808689412528,0.5862722954632481,0.0899685008462935,11.001648829059825
1536,2048,3.071311843211221,5207,827,38871040,24410008,1.104237237030394,0.3258261279394263,1.0,1536,0,1,1,6.4794662104098375,0.5300863149552055,0.0645979133094656,11.001648829059825
1536,256,22.36444764033264,3073,3863,24969216,20986744,0.8055803627317455,0.4377764556241671,0.22257363559561433,1536,0,1,1,49.42925427631648,0.8555092027394388,0.0161613393076356,11.001648829059825
1536,512,7.812291158901424,8057,22,24444928,21024504,1.0728373589905624,0.4490562395703928,0.6114240539108785,1536,0,1,1,17.993483832848078,0.8666301728397915,0.0172520519569192,11.001648829059825
2048,1024,8.74249230290853,1459,5,25792512,15443296,1.0380455138426374,0.4372393869196724,0.6232901199694383,2048,0,1,1,17.650927676503628,0.6549353041774657,0.0650934112304088,11.001648829059825
2048,128,89.8928190899586,2936,4378,24444928,21001424,0.873959020254596,0.4699072466057732,0.09034076001100406,2048,0,1,1,121.77945843846959,0.8463551841196782,0.0113514380822839,11.001648829059825
2048,1536,1.7790647713919496,6866,26,39133184,24265056,1.114888239582156,0.2254948604754746,1.0,2048,0,1,1,5.685367405099242,0.5599851447365691,0.0711332581867657,11.001648829059825
2048,2048,1.39182127556674,7288,21,38608896,24843688,1.0814085666182525,0.3348041518869423,1.0,2048,0,1,1,4.876868736915279,0.6866782850502895,0.0377557886741592,11.001648829059825
2048,256,20.937852095108564,7840,5845,24969216,20657520,0.9303168945870655,0.5088786573378218,0.22307885222824572,2048,0,1,1,49.317309638133516,0.8476608568595535,0.0150577837207504,11.001648829059825
2048,512,9.391554031112545,7456,30,24969216,20984432,1.0560852135191572,0.4621714496004268,0.5270520622738963,2048,0,1,1,20.873931849530514,0.8612897661225943,0.0158809904422498,11.001648829059825
256,1024,6.111478549457754,25238,38,26316800,14674160,1.0637045919118975,0.3846431876525211,0.8149813397803953,256,0,1,1,13.499264697305003,0.6485555258971136,0.0616433967184241,11.001648829059825
256,128,110.29329506643612,6625,427,24707072,20973200,0.8250730588570268,0.4422931344304819,0.09896384251309358,256,0,1,1,111.16836765512852,0.8512139357632509,0.0110410222440207,11.001648829059825
256,1536,5.339423548320196,7517,26,38084608,25731992,1.1120086715670328,0.2925452171766046,0.9104399333767775,256,0,1,1,12.083882116478836,0.523305636889015,0.0834400903021327,11.001648829059825
256,2048,3.0420900968151203,5879,346,38871040,24229560,1.0913861892588472,0.3635404281632151,1.0,256,0,1,1,6.293344002092513,0.5035639492648682,0.0461902805854024,11.001648829059825
256,256,16.81698124596686,1721,5,24969216,21371336,0.761040241710286,0.4591029552764085,0.24572939025315557,256,0,1,1,44.77140002555533,0.8508140474422682,0.0124169640572743,11.001648829059825
256,512,9.102163569489305,5037,3474,24182784,20696168,1.0141280707628135,0.4794135055055792,0.5076618057855969,256,0,1,1,21.67121635639889,0.860768095630668,0.0171944147873951,11.001648829059825
512,1024,8.451338704069506,17302,7526,25792512,14701360,1.061526558073871,0.4244597711586906,0.6950833883376636,512,0,1,1,15.827811473629044,0.6458046174514493,0.063117609039014,11.001648829059825
512,128,25.13223919028578,3331,3882,24707072,20993640,0.8102089150394005,0.4642830633074215,0.15888990799709232,512,0,1,1,69.24070236897082,0.851562062592912,0.0116800214068312,11.001648829059825
512,1536,2.9772759978785723,7169,650,38346752,25546784,1.0836733517728934,0.2724174749349794,1.0,512,0,1,1,7.7780219901599,0.6425032339002628,0.0977333785042963,11.001648829059825
512,2048,1.7762966038537285,772,4295,38871040,24445792,1.1034610545397505,0.3026001813178717,1.0,512,0,1,1,5.45436803814977,0.6211469046997763,0.0982197361990472,11.001648829059825
512,256,12.667915568994369,7412,608,24444928,21025896,0.9623540613992353,0.5712952915405264,0.4195000912870253,512,0,1,1,26.225617246725243,0.8622335902208864,0.0162641288622197,11.001648829059825
512,512,10.053499142818854,8384,86,24969216,21025200,1.0191121577170963,0.4184248495175019,0.5034266225645296,512,0,1,1,21.85353005968536,0.8554716906799247,0.0122290886695415,11.001648829059825
